lhs,op,rhs,est
x10,~,x3,-0.5247627505225648
x1,~,eta1,-0.12427313103431188
x1,~,x10,-0.4136144288383687
x8,~,x1,0.8658841221927934
x4,~,x7,0.4971302683540725
x4,~,x8,-0.8647039178119524
x2,~,x8,0.7837405501520675
eta1,~,x9,0.18321646999452204
x6,~,x3,-0.5171417515161547
x5,~,x3,0.27495859451687565
eta1,=~,y2,-0.7985906719714478
