lhs,op,rhs,est
eta1,~,x2,-0.2530064002205585
eta1,~,x3,0.15504292506310186
x8,~,eta1,0.958243047488885
x8,~,x1,0.25702295069750275
x4,~,x6,-1.0601184457792296
x4,~,x8,0.689142506914604
x4,~,x9,0.9815184509319987
x5,~,x6,-0.590174156365492
x7,~,x6,0.5716809630551671
x10,~,x6,-1.0683502851575513
eta1,=~,y2,-0.9545884873757834
eta1,=~,y3,0.9009394012414648
