lhs,op,rhs,est
x2,~,x1,-0.14461939575139987
x2,~,x3,-0.4757646587330476
x2,~,x4,-1.0970868694152196
x10,~,x2,-0.23509049599988432
x6,~,x10,-0.7555486983561152
x1,~,eta1,0.33173289886043
x4,~,x5,0.5069592034152205
x8,~,x4,-0.19605412173416525
x7,~,x8,0.8381606873818078
x9,~,x10,0.7762202146282126
eta1,=~,y2,-0.7141456659612528
eta1,=~,y3,-0.2921395295212746
