lhs,op,rhs,est
x9,~,x2,0.6423836243238643
x1,~,x9,0.7060246865665513
x7,~,x1,-0.25448893031566755
x7,~,x8,-0.4817872807662762
x10,~,x9,-0.9190174815546298
x4,~,x10,0.2382597957638731
x4,~,x5,0.6369727818856625
x4,~,x6,0.246364537139832
eta1,~,x6,-0.9773807483930415
x3,~,x5,-0.5480764548787874
eta1,=~,y2,-0.5801288420824943
eta1,=~,y3,-0.7008733399550324
