lhs,op,rhs,est
x5,~,eta1,0.16382211178066802
x5,~,x10,-0.15225280188357299
x5,~,x7,0.6414842839478857
x1,~,x2,0.9341852519101941
x1,~,x5,-0.31999662171516813
x3,~,x1,0.8100957956474659
x6,~,x5,0.269929941512186
x9,~,x7,0.1045804919658169
x4,~,x1,1.0244525524973287
x8,~,x7,0.7864787732426127
eta1,=~,y2,-0.19415864110154527
eta1,=~,y3,0.4848033060541624
