lhs,op,rhs,est
x9,~,x3,0.13262532945941496
x6,~,x8,0.18695247057079356
x6,~,x9,-0.35020379172801264
x7,~,x1,-0.5535439602766162
x7,~,x10,0.20282077154410202
x7,~,x6,0.781715923290117
eta1,~,x4,-0.31904734745537
eta1,~,x7,-0.9408565883404776
x2,~,x1,0.33917397527645615
x5,~,x2,0.6018659923552793
eta1,=~,y2,-0.4675210462650479
