lhs,op,rhs,est
x5,~,x6,0.18364729551573294
x7,~,x5,1.063723405906781
x10,~,x3,-0.3852217108625709
x10,~,x7,-0.10238005839934437
x9,~,x10,0.833194311231773
x9,~,x4,0.898475890081749
x1,~,x9,0.12846827566452954
eta1,~,x7,-0.3776106739906635
x8,~,x6,-0.34091502292188175
x2,~,x6,0.1379736033674621
eta1,=~,y2,-0.40104584929595094
