lhs,op,rhs,est
x1,~,x6,-0.6399993878767507
x3,~,x1,0.1491235755677279
x3,~,x8,0.34201694822310336
x10,~,x3,-0.7544752342733145
eta1,~,x10,0.10173606842693662
x4,~,x1,-0.410828942951312
x9,~,x1,0.7990946566266871
x7,~,x9,-0.20977742854004966
x5,~,x3,0.9040503267136225
x2,~,x6,-0.5057336344484274
eta1,=~,y2,-1.0280360849414178
