lhs,op,rhs,est
x2,~,x9,-0.7389836571925144
eta1,~,x1,-0.304882090365991
eta1,~,x2,-0.6075155280409242
eta1,~,x7,-0.15705694170269224
x6,~,x2,0.9735043061363544
x5,~,x10,-1.0211109764073383
x5,~,x6,0.9109056579936855
x4,~,x7,-0.3713758036025428
x3,~,x7,0.22881485792770517
x8,~,x2,0.96119160527041
eta1,=~,y2,-0.7842475187493735
eta1,=~,y3,0.27290434935902536
