lhs,op,rhs,est
x8,~,eta1,0.32549744768958194
x8,~,x10,0.48465504285660155
x8,~,x2,0.7032721346673695
x5,~,x1,-0.8602869709920601
x5,~,x6,-0.9714181799484205
x5,~,x8,-0.4899050354340334
eta1,~,x9,-1.0107756433461854
x7,~,x8,-0.6957417187132549
x3,~,x7,-0.5999185178508537
x4,~,eta1,-0.24106798710143848
eta1,=~,y2,0.3854213695958422
eta1,=~,y3,0.8001299025548425
