lhs,op,rhs,est
x6,~,x5,-0.4672002462395421
x4,~,x6,-0.3991248088409398
x4,~,x7,-0.48127046022518366
x2,~,x4,0.5284912605320449
x2,~,x9,0.7511397181363553
eta1,~,x2,-0.7068165957999175
x1,~,eta1,0.2612249775451902
x9,~,x10,0.6561915435652267
x3,~,x4,0.26002318211896225
x8,~,x6,0.5680867255666606
eta1,=~,y2,0.47107015695433085
