lhs,op,rhs,est
x4,~,x3,-0.5162779500989191
x4,~,x5,0.14358584261280843
x4,~,x6,0.2996454688482664
x4,~,x8,-0.7601194998385652
eta1,~,x6,-0.935378127025379
x2,~,eta1,-0.41964496279374797
x10,~,x3,-0.5654765469519941
x10,~,x9,-0.3243162100234715
x1,~,x10,-0.3941052287887112
x7,~,x6,-0.1512918906550348
eta1,=~,y2,1.0817248878510919
eta1,=~,y3,-0.4707415137278849
