"lhs","op","rhs","est"
"eta1","=~","y2",-57.661702912818
"eta2","=~","y4",0.460068373986452
"eta2","=~","y5",-0.249262357796144
"x4","~","x1",-0.172541078626821
"x5","~","x1",0.116411217115241
"x3","~","x5",-0.087516244525289
"eta1","~","x3",0.000471207290987665
"x2","~","eta2",-0.238281119782903
"x2","~","x5",-0.261256054412391
"y1","~~","y1",0.977810739497218
"y2","~~","y2",-1.25138402986304
"y3","~~","y3",0.818579841351849
"y4","~~","y4",0.299487720197881
"y5","~~","y5",0.0778595803406119
"x4","~~","x4",0.0278243246776578
"x5","~~","x5",0.0121882362807769
"x3","~~","x3",0.00650961257096296
"x2","~~","x2",0.0861419348993935
"eta1","~~","eta1",0.000407094201763021
"eta2","~~","eta2",1.90488652417843
"eta1","~~","x4",1.0978079284374e-05
"eta1","~~","x2",4.93747536114712e-05
"x4","~~","x2",-0.00113626813955258
"x1","~~","x1",1.57526366203367
