"lhs","op","rhs","est"
"eta1","=~","y2",-0.064104097871321
"eta2","=~","y4",-18588.564510696
"eta2","=~","y5",-21285.0096123597
"x3","~","x4",0.474099289671418
"eta2","~","x3",1.5119192285467e-06
"x1","~","eta1",-0.0737816122761033
"x1","~","x3",-0.226414317274915
"x1","~","x5",0.266216141760989
"x2","~","x4",0.178163665606613
"y1","~~","y1",0.829674995740188
"y2","~~","y2",0.00340532709135795
"y3","~~","y3",0.928007459352127
"y4","~~","y4",0.070665422359398
"y5","~~","y5",0.0501205629446047
"x3","~~","x3",0.176222440157886
"x1","~~","x1",0.113260578982444
"x2","~~","x2",0.0318118534472809
"eta1","~~","eta1",1.67490719918838
"eta2","~~","eta2",-1.4948508172586e-11
"eta2","~~","x1",9.78963967838015e-08
"eta2","~~","x2",-6.77439474888159e-08
"x1","~~","x2",-0.00573633539311523
"x4","~~","x4",1.61434706266761
"x4","~~","x5",-0.0845956175543548
"x5","~~","x5",1.54949712182081
