"lhs","op","rhs","est"
"eta1","=~","y2",-0.0537306404433477
"eta1","=~","y3",-0.204498930568708
"eta2","=~","y5",-0.47020075164801
"x1","~","eta1",0.392757405377808
"x1","~","x5",-0.455082556485636
"eta2","~","x1",-0.120939835822262
"x3","~","eta2",0.252413152587037
"x4","~","x3",-0.121689610463173
"x2","~","x1",-0.545235054903291
"y1","~~","y1",1.03972285345503
"y2","~~","y2",0.00329204219004133
"y3","~~","y3",0.0363630973335964
"y4","~~","y4",1.04443071163286
"y5","~~","y5",0.0668813575922711
"x1","~~","x1",0.35258144118319
"x3","~~","x3",0.0490888800396929
"x4","~~","x4",0.0141286462428412
"x2","~~","x2",0.598995495955467
"eta1","~~","eta1",1.5229767049385
"eta2","~~","eta2",0.0605978965453326
"x4","~~","x2",0.00364679083489768
"x5","~~","x5",1.61666278510596
