"lhs","op","rhs","est"
"eta1","=~","y2",0.629350475448583
"eta2","=~","y4",-0.390819423026331
"eta2","=~","y5",-0.572108461499822
"eta2","~","x4",0.258783851656256
"eta1","~","eta2",0.160614572897397
"x1","~","x4",-0.181330525734682
"x3","~","x4",0.350750778844201
"x5","~","eta2",-0.0920435862583
"x2","~","x4",0.247456606979298
"y1","~~","y1",1.02889885663414
"y2","~~","y2",0.0677093367706745
"y3","~~","y3",0.927300749856707
"y4","~~","y4",0.161191144703094
"y5","~~","y5",0.303396139843674
"x1","~~","x1",0.0353033120109007
"x3","~~","x3",0.12168986090239
"x5","~~","x5",0.00626015808011376
"x2","~~","x2",0.0618461124574877
"eta1","~~","eta1",0.0293961240215778
"eta2","~~","eta2",0.0515650161171024
"eta1","~~","x1",0.00190240948090915
"eta1","~~","x3",0.00655763576857066
"eta1","~~","x5",0.000375165849127835
"eta1","~~","x2",0.000419653803748899
"x1","~~","x3",-0.000543747884110395
"x1","~~","x5",-0.000905161012862842
"x1","~~","x2",0.00415306939727962
"x3","~~","x5",-6.1553858630703e-05
"x3","~~","x2",-0.0040716949001131
"x5","~~","x2",0.000848501890917198
"x4","~~","x4",1.6887372289767
