"lhs","op","rhs","est"
"eta1","=~","y2",-0.335929589790622
"eta1","=~","y3",-0.158189094040614
"eta2","=~","y6",-0.579313533145684
"eta2","=~","y7",0.243571392962123
"eta3","=~","y8",-0.229403443569083
"eta4","=~","y11",0.166732609364689
"eta4","=~","y9",0.44449344560791
"eta5","=~","y13",-0.272538523421509
"eta6","=~","y15",-0.815877849730375
"eta7","=~","y17",0.17490513469167
"eta8","=~","y19",0.245178087994158
"x8","~","eta6",0.225554670384669
"eta3","~","eta2",0.683970914293108
"eta3","~","eta6",0.733948760254143
"eta3","~","eta8",-0.836770236836606
"eta3","~","x7",-0.428861401281389
"x10","~","eta3",-0.201806747520856
"x10","~","x6",-0.959691751050055
"x9","~","x10",-0.108641918096809
"eta4","~","x9",0.734085918703813
"eta5","~","eta3",-0.0504502558023295
"eta5","~","x1",0.783313864256529
"x5","~","eta6",0.851624486900142
"x4","~","x5",0.477306843623786
"x3","~","eta1",-0.639378170523543
"x3","~","eta3",0.31961028370896
"x2","~","x3",0.663718634468295
"eta7","~","x7",-0.623831094808204
"y1","~~","y1",0.830972457471302
"y2","~~","y2",0.125464411454176
"y3","~~","y3",0.0287059119474928
"y4","~~","y4",1.07922554831776
"y6","~~","y6",0.225158923086315
"y7","~~","y7",3.05139782774984
"y8","~~","y8",0.268072945758345
"y10","~~","y10",2.04069026725416
"y11","~~","y11",0.0428659737865616
"y9","~~","y9",0.334133514164824
"y12","~~","y12",2.69953231414409
"y13","~~","y13",0.160389615812623
"y14","~~","y14",0.952350993212964
"y15","~~","y15",0.666714616692194
"y16","~~","y16",1.04103257371668
"y17","~~","y17",0.0188276719621353
"y18","~~","y18",0.536930302900051
"y19","~~","y19",0.0999700804097538
"x8","~~","x8",0.0470326169185862
"x10","~~","x10",1.20175740282635
"x9","~~","x9",0.618522233115497
"x5","~~","x5",0.733874153183381
"x4","~~","x4",0.219657711801564
"x3","~~","x3",1.63525575633438
"x2","~~","x2",1.76922527815269
"eta1","~~","eta1",1.61292926494616
"eta2","~~","eta2",1.23607838820232
"eta3","~~","eta3",1.90720136728134
"eta4","~~","eta4",1.00081076939532
"eta5","~~","eta5",0.529934250122952
"eta6","~~","eta6",1.13349338592803
"eta7","~~","eta7",0.336587296967071
"eta8","~~","eta8",1.8188626051021
"eta1","~~","eta2",-0.17779216705969
"eta1","~~","eta6",-0.204653718639031
"eta1","~~","eta8",0.113487679743472
"eta2","~~","eta6",-0.32390664295881
"eta2","~~","eta8",-0.260301441139632
"eta6","~~","eta8",-0.117484680330681
"eta4","~~","eta5",0.00723402236173489
"eta4","~~","eta7",-0.0733463495150049
"eta4","~~","x8",0.025520984614533
"eta4","~~","x4",0.0414381924743575
"eta4","~~","x2",0.126757157905652
"eta5","~~","eta7",0.0132113573488271
"eta5","~~","x8",-0.0208843186026897
"eta5","~~","x4",0.033420825388994
"eta5","~~","x2",-0.0664991876839054
"eta7","~~","x8",-0.00278677067960496
"eta7","~~","x4",0.0180772184117899
"eta7","~~","x2",-0.00139849269806448
"x8","~~","x4",0.00554567560911878
"x8","~~","x2",0.0375788333161139
"x4","~~","x2",-0.0122099334621974
"x7","~~","x7",1.59443644269681
"x7","~~","x6",0.0334755852525206
"x7","~~","x1",-0.0662563219283608
"x6","~~","x6",1.47634107105353
"x6","~~","x1",-0.105714204892837
"x1","~~","x1",1.58571812248019
