"lhs","op","rhs","est"
"eta1","=~","y2",0.385040492925149
"eta2","=~","y4",1.34680572472901
"eta2","=~","y5",0.938601444822914
"eta3","=~","y7",-0.719785059825568
"eta3","=~","y8",0.654757006130359
"eta4","=~","y11",-0.37839007320217
"eta4","=~","y9",0.102342106754359
"eta5","=~","y14",0.593456405234837
"eta5","=~","y20",0.547257828327467
"eta6","=~","y16",0.800748012615383
"eta7","=~","y19",-0.153008508776132
"eta7","=~","y4",1.06206717031905
"eta8","=~","y21",-1.1173158257489
"x5","~","x4",-0.251891159744177
"x3","~","x5",-0.203223796430178
"eta2","~","x3",-0.942040250710129
"x8","~","eta1",-0.680020082792368
"x8","~","eta2",-0.445613515276604
"x8","~","x1",1.0215476621874
"eta4","~","x5",-0.273304681869456
"x9","~","eta8",-0.775644131384007
"x9","~","x10",-0.268807946796024
"x9","~","x2",0.491756427246492
"x9","~","x4",0.317934497643259
"x10","~","x6",0.318641319365401
"eta6","~","eta3",-0.241084083648355
"eta6","~","x6",1.02899070017848
"eta5","~","eta6",-0.279036143420867
"x7","~","x4",0.236307728989298
"eta7","~","eta2",0.672534428028862
"y1","~~","y1",0.964427330361995
"y2","~~","y2",0.100657498602265
"y3","~~","y3",0.833281244460395
"y4","~~","y4",1.62195435699965
"y5","~~","y5",1.03519915733069
"y6","~~","y6",0.980089757261279
"y7","~~","y7",0.465068416570125
"y8","~~","y8",0.415959174555309
"y10","~~","y10",0.949311750141969
"y11","~~","y11",0.0197795492019973
"y9","~~","y9",0.00930281812797253
"y12","~~","y12",1.02663218471865
"y14","~~","y14",0.504385348350887
"y20","~~","y20",1.55673506806645
"y15","~~","y15",1.48315389563726
"y16","~~","y16",1.13661642797815
"y17","~~","y17",0.848023185418363
"y19","~~","y19",0.02066165839574
"y21","~~","y21",0.985169414286224
"x5","~~","x5",0.0492758419732437
"x3","~~","x3",0.033423822255306
"x8","~~","x8",1.72577779618619
"x9","~~","x9",0.89945201616648
"x10","~~","x10",0.0817837814726426
"x7","~~","x7",0.0406750168679234
"eta1","~~","eta1",1.44200261794517
"eta2","~~","eta2",0.4656568004592
"eta3","~~","eta3",1.7517022328259
"eta4","~~","eta4",0.0667118294630849
"eta5","~~","eta5",0.02020141350815
"eta6","~~","eta6",0.85386318257252
"eta7","~~","eta7",0.633020453675004
"eta8","~~","eta8",1.5975753169211
"eta1","~~","eta3",0.208701837727193
"eta1","~~","eta8",-0.0932436661647298
"eta3","~~","eta8",0.02939640632715
"eta4","~~","eta5",0.00419706195388239
"eta4","~~","eta7",-0.00923430090904785
"eta4","~~","x8",-0.00485309532887311
"eta4","~~","x9",0.0194869313363183
"eta4","~~","x7",0.0031815136968027
"eta5","~~","eta7",-0.0483078540469176
"eta5","~~","x8",-0.0654687725593801
"eta5","~~","x9",-0.0653928980729402
"eta5","~~","x7",-0.00296565234231316
"eta7","~~","x8",-0.0180378847189613
"eta7","~~","x9",-0.0444228657420824
"eta7","~~","x7",0.0112491398090494
"x8","~~","x9",-0.00166845995429691
"x8","~~","x7",0.00448842746537023
"x9","~~","x7",-0.0100334126851793
"x4","~~","x4",1.58405046167194
"x4","~~","x1",0.0303528852807522
"x4","~~","x2",-0.0486857484325308
"x4","~~","x6",-0.0646129901283384
"x1","~~","x1",1.58106824555603
"x1","~~","x2",-0.000879930575999784
"x1","~~","x6",-0.0430579596865787
"x2","~~","x2",1.46656972989482
"x2","~~","x6",0.000511110466480175
"x6","~~","x6",1.44377549029265
