"lhs","op","rhs","est"
"eta1","=~","y13",-8.07800552977197e-05
"eta2","=~","y4",0.413829045695523
"eta2","=~","y5",-0.632106695735552
"eta3","=~","y7",0.972660303995355
"eta4","=~","y9",0.144258853712997
"eta5","=~","y11",-0.340796619583594
"eta5","=~","y12",0.455680674631084
"eta6","=~","y14",-0.671692384360156
"eta6","=~","y8",0.262627151799935
"eta7","=~","y17",-0.847552745716663
"eta8","=~","y19",-0.852231241384723
"eta8","=~","y20",-0.49885452982738
"x2","~","eta2",-0.835447093716567
"eta4","~","eta8",-0.53809656936929
"eta4","~","x2",0.0905110278766237
"eta4","~","x5",-0.983717996933308
"eta6","~","eta4",-0.0404857741531143
"eta6","~","eta5",0.646827705395757
"eta1","~","eta6",-0.00706357192852854
"eta7","~","eta3",-0.646942585866312
"x8","~","eta7",-0.764511675885078
"x8","~","x4",0.271563335696942
"x5","~","x8",-0.370632685885376
"x10","~","eta4",0.174643205348965
"x1","~","x10",0.609638183984981
"x6","~","x1",-0.923569044242534
"eta5","~","x9",0.692994882581786
"x7","~","eta5",-0.903603341568732
"x3","~","x2",0.563876655588436
"y1","~~","y1",-4142.83316668131
"y13","~~","y13",2.65172494359252
"y3","~~","y3",0.909144540259104
"y4","~~","y4",0.235969625719748
"y5","~~","y5",0.340842788787292
"y6","~~","y6",0.879006394548564
"y7","~~","y7",0.982846855838796
"y8","~~","y8",3.02643534733675
"y9","~~","y9",0.0585434855421389
"y10","~~","y10",0.983254692027804
"y11","~~","y11",0.102484293732492
"y12","~~","y12",0.183124886377846
"y14","~~","y14",0.529253723664697
"y16","~~","y16",0.792693091377518
"y17","~~","y17",0.905345860857667
"y18","~~","y18",0.804870881803083
"y19","~~","y19",0.542444666277007
"y20","~~","y20",0.228647514941589
"x2","~~","x2",0.869677281998801
"x8","~~","x8",0.681013362389732
"x5","~~","x5",0.133740810111329
"x10","~~","x10",0.322228423976762
"x1","~~","x1",0.514131360736852
"x6","~~","x6",1.25838853490231
"x7","~~","x7",0.617029844592016
"x3","~~","x3",0.297852249920228
"eta1","~~","eta1",4143.99835859018
"eta2","~~","eta2",1.80866144480971
"eta3","~~","eta3",1.48420339201811
"eta4","~~","eta4",0.855289326416
"eta5","~~","eta5",0.37732434587932
"eta6","~~","eta6",0.74762384271559
"eta7","~~","eta7",0.401351245086113
"eta8","~~","eta8",1.52704144016968
"eta2","~~","eta3",-0.106780295978536
"eta2","~~","eta8",0.0855575355503041
"eta3","~~","eta8",-0.134847523899793
"eta1","~~","x6",0.0397912362907191
"eta1","~~","x7",-0.0418571215766125
"eta1","~~","x3",0.0271836155836897
"x6","~~","x7",-0.0148504037871432
"x6","~~","x3",-0.0110959964554325
"x7","~~","x3",-0.0102554867022478
"x4","~~","x4",1.24656194508254
"x4","~~","x9",-0.031800651992967
"x9","~~","x9",1.53374596639716
