"lhs","op","rhs","est"
"eta1","=~","y20",0.328725715133623
"eta2","=~","y4",0.280511498319865
"eta3","=~","y6",4.39180496427897
"eta4","=~","y8",-0.274648130913601
"eta4","=~","y9",0.435020657175204
"eta5","=~","y11",-1.02085565375646
"eta5","=~","y12",-0.100685707118541
"eta6","=~","y14",0.559441293383049
"eta6","=~","y15",1.22796424290571
"eta7","=~","y17",-0.941425359903627
"eta7","=~","y20",-0.549702247684499
"eta8","=~","y20",-0.841810530829311
"eta1","~","x6",0.929313216921475
"x2","~","eta1",-0.140289374489675
"x2","~","x9",-0.421329787503714
"x1","~","x2",0.0398833333870989
"eta2","~","eta7",-1.04277011492942
"eta2","~","x1",-0.841712190968622
"eta2","~","x3",0.0447585879497434
"x7","~","eta2",-0.0404376930380072
"x7","~","eta4",0.785170391370486
"x8","~","x10",-0.1842972715931
"x8","~","x2",-0.162493615791593
"eta6","~","x8",0.251163371403706
"x4","~","eta6",1.41315363139196
"x4","~","x5",-0.0698818275112224
"eta8","~","x3",-0.14805473986229
"eta3","~","x2",-0.00345429743434094
"eta5","~","x3",-0.600501678126464
"y2","~~","y2",0.981179735094232
"y20","~~","y20",0.8402634651392
"y3","~~","y3",2.32563949035944
"y4","~~","y4",0.2574173232608
"y5","~~","y5",1.02276259435262
"y6","~~","y6",0.0389108947063662
"y7","~~","y7",1.05430552236141
"y8","~~","y8",0.0833680905858138
"y9","~~","y9",0.172246700024193
"y10","~~","y10",0.840481660516724
"y11","~~","y11",0.993620875669199
"y12","~~","y12",0.00993556385913376
"y13","~~","y13",1.90508262619837
"y14","~~","y14",0.436482268353459
"y15","~~","y15",1.44595393252366
"y16","~~","y16",0.823176380750417
"y17","~~","y17",0.738707157329868
"y19","~~","y19",0.961023090091409
"x2","~~","x2",0.144723869248899
"x1","~~","x1",0.606776049340307
"x7","~~","x7",0.833780288011962
"x8","~~","x8",1.14539014711224
"x4","~~","x4",1.51426812064766
"eta1","~~","eta1",0.70490118919565
"eta2","~~","eta2",1.59664322790071
"eta3","~~","eta3",0.00071051698522999
"eta4","~~","eta4",1.71000209402054
"eta5","~~","eta5",0.409366842113495
"eta6","~~","eta6",0.107475740107626
"eta7","~~","eta7",1.5751525699316
"eta8","~~","eta8",0.0274063425755657
"eta4","~~","eta7",0.0117361043922223
"eta3","~~","eta5",-7.66516415240105e-05
"eta3","~~","eta8",0.00316704845659708
"eta3","~~","x7",-0.000956978364959992
"eta3","~~","x4",0.00341804818278157
"eta5","~~","eta8",0.0102295566180384
"eta5","~~","x7",0.0494950290259137
"eta5","~~","x4",0.0299906153720478
"eta8","~~","x7",0.00206236059578393
"eta8","~~","x4",-0.0454154377077995
"x7","~~","x4",-0.0269050530268706
"x6","~~","x6",1.48228423190671
"x6","~~","x9",0.00494313290018979
"x6","~~","x3",0.0439402941678209
"x6","~~","x10",-0.14793241130803
"x6","~~","x5",-0.0531969019011572
"x9","~~","x9",1.48385156118016
"x9","~~","x3",0.135606565976779
"x9","~~","x10",0.0265029966408959
"x9","~~","x5",0.111804889704835
"x3","~~","x3",1.54182753369966
"x3","~~","x10",0.0701493570011013
"x3","~~","x5",-0.0279122571172435
"x10","~~","x10",1.5505019564776
"x10","~~","x5",-0.0562614741987356
"x5","~~","x5",1.47663230417821
