lhs,op,rhs,est
x1,~,x7,-0.8074922287431191
x10,~,x5,-0.29248483196510755
x10,~,x7,0.4660075449805497
x2,~,x5,-0.1512008101174315
x3,~,x4,-1.0320232533726852
x3,~,x6,0.5277691850024915
x4,~,x8,-0.1456783424327711
x6,~,x5,0.4175791704657887
x9,~,x2,0.8393005416339672
x1,~~,x1,0.7007702811544373
x1,~~,x10,-0.003120830035463393
x1,~~,x3,0.05098509934317502
x1,~~,x9,0.010677072225330196
x10,~~,x10,0.3455282407901125
x10,~~,x3,0.01985365115251599
x10,~~,x9,-0.011507599050146105
x2,~~,x2,0.022979887481183157
x3,~~,x3,1.1525412042350756
x3,~~,x9,0.08104497630310323
x4,~~,x4,0.02204343242959519
x6,~~,x6,0.16320475398044085
x9,~~,x9,0.7072314754262712
