lhs,op,rhs,est
x2,~,x3,0.6751634816904635
x3,~,x10,-0.3744131748106684
x5,~,x10,0.20771276324965585
x6,~,x10,-0.5352407506920231
x7,~,x8,-0.9172327252655358
x8,~,x5,-0.12097857660062923
x8,~,x1,-0.22769236782849536
x9,~,x8,-0.20479019397545653
x9,~,x4,0.8838381598367601
x2,~~,x2,0.45186862806735867
x2,~~,x6,0.0035322245699310473
x2,~~,x7,-0.002456511954903313
x2,~~,x9,0.006894522159633086
x3,~~,x3,0.1551033043074727
x5,~~,x5,0.04356355428924015
x6,~~,x6,0.2857476510179009
x6,~~,x7,0.006766538593602613
x6,~~,x9,-0.005799634046978688
x7,~~,x7,1.3563619128157398
x7,~~,x9,-0.04332994192406139
x8,~~,x8,0.06731175501723595
x9,~~,x9,0.7459227599694925
