lhs,op,rhs,est
x10,~,x6,-0.007871879289362903
x2,~,x1,0.6681259398650965
x2,~,x8,0.9620350213400826
x3,~,x6,0.021037066748806198
x5,~,x4,-0.453313419382424
x5,~,x7,-0.58698230704312
x6,~,x7,0.876593739686394
x6,~,x8,-0.09689748131108239
x9,~,x10,-0.4079529211552472
x10,~~,x10,0.08969946985611885
x2,~~,x2,1.2934916202928115
x2,~~,x3,-0.028080662478291236
x2,~~,x5,-0.003466679447701087
x2,~~,x9,0.028394311778019106
x3,~~,x3,1.2292619001532434
x3,~~,x5,-0.016386946520886486
x3,~~,x9,-0.027585230648516063
x5,~~,x5,0.5475586710902931
x5,~~,x9,0.009355236689340612
x6,~~,x6,0.7552915951360785
x9,~~,x9,0.2664820991504883
