lhs,op,rhs,est
x1,~,x9,0.48946906561707026
x10,~,x3,-1.0924310602606926
x2,~,x9,-0.30358694527105695
x4,~,x10,0.6348962432287155
x5,~,x9,-0.3737733230223586
x6,~,x7,-0.243755951165045
x7,~,x1,-0.386447045326233
x7,~,x4,-0.28181474563802883
x8,~,x5,0.6760339524005972
x1,~~,x1,0.26950788175611456
x10,~~,x10,1.1509986724243035
x2,~~,x2,0.09448545617093496
x2,~~,x6,-0.0022028917395868126
x2,~~,x8,0.00033613008212428716
x4,~~,x4,0.4381896031842199
x5,~~,x5,0.14147434639716558
x6,~~,x6,0.11781207588590754
x6,~~,x8,-0.009451143840644292
x7,~~,x7,0.28736876689368945
x8,~~,x8,0.3992210033698796
