lhs,op,rhs,est
x1,~,x7,-0.7576640457975299
x10,~,x5,0.2932772556901754
x2,~,x10,0.7859414464671973
x2,~,x4,0.10628395622455436
x2,~,x9,0.4853443282774691
x4,~,x6,0.7227014296823827
x5,~,x3,0.546266939810276
x5,~,x8,-0.721995923167712
x7,~,x5,-0.04754624957126108
x1,~~,x1,0.524266370289279
x1,~~,x2,0.0033841705565242053
x10,~~,x10,0.87884527447842
x2,~~,x2,1.0272700120219849
x4,~~,x4,0.5274754340555302
x5,~~,x5,0.8114099575164601
x7,~~,x7,0.024361553808098586
