lhs,op,rhs,est
x3,~,x8,0.12027359729790868
x3,~,x5,0.31690217633112955
x4,~,x9,-0.6726553880434688
x6,~,x5,0.4018585877868638
x7,~,x3,-0.3092030465113463
x7,~,x1,0.6167551037271491
x8,~,x10,0.7756812441201101
x8,~,x2,0.9707955165319276
x8,~,x9,0.6110649236671373
x3,~~,x3,1.370725765447318
x4,~~,x4,0.48150792847241963
x4,~~,x6,-0.012603468851315944
x4,~~,x7,0.011270546061388031
x6,~~,x6,0.16256752567218424
x6,~~,x7,0.028985044521705805
x7,~~,x7,0.4941516459121743
x8,~~,x8,1.8165285193521539
