x1,x2,x3,x4,x5,y1,y2,y3,y4
-0.13044677623718418,0.3190520695341598,-0.14520690662705082,0.062351026430235136,-0.24317125614742569,-0.6793850038397476,-0.2948306253835262,-0.26948070022225623,-0.03640297357586367
-0.9903593267409203,1.1768032152537222,2.6603060591342054,-0.3500485854430173,-0.34629712796796447,0.2543371056348002,-0.014470575657615012,1.1352789255183913,0.6616419966895788
-0.9323086077265484,0.9764867334116192,1.4032206070903674,0.5895038430428221,0.5741131285181047,2.3012066756718657,-0.22641064053632903,0.16695991829321605,-0.024090260931477783
-0.20289839243044427,0.851430018004945,0.9178683914384087,0.04964191079853988,0.885023101927762,-1.7595476919760926,-1.0718981747544318,1.0282005943495214,0.4407431737107324
-0.9678599007364449,0.9146463841750495,2.406447805278932,-0.3403970201695897,0.7312168742276455,-0.813355060968304,-0.223622277800461,0.907888147196528,-0.13640685397199745
0.397611472302039,0.11606508898468779,-0.33542851314080124,-0.4506619680697489,-0.0023767744502489266,1.1856293133154476,0.06826720594935645,1.058933229427287,0.3961723738230858
-0.8869961672887131,1.8577718384357216,1.546080384052134,-0.17983494782646356,0.3376968619972405,0.877362814872031,0.5476215893096776,0.2401316097760633,0.21172213949253912
-0.3464787836249777,1.7783374420059486,1.6427698511305588,0.5460232836011777,0.03696918229447695,2.665236648358605,0.25780879235778764,-1.581023062702827,0.37647387233129087
-0.3728978811099851,2.167638040123175,2.2943467887188076,-0.07061163818965774,-0.6135995915841752,-0.8279923972353403,0.33299115638291543,1.191394653947347,-0.17056479702347624
-1.2818730893876151,1.9772974065772126,3.3708682901647196,0.05382872016850869,-0.710628615818485,-0.596715547765656,-0.6602609983935034,0.13153255853210633,0.2478335205487679
-0.42757067849447394,0.2884787374415323,0.3524442546230293,-0.14805389840587482,-0.9248421670554137,1.2897844406363828,-0.7721611557020343,0.06875937779419333,0.46658867320426833
0.6616758287228387,-0.7619918318381623,-0.9287611192481969,-0.014499140944078833,-0.6155412250038159,-0.5729684545167246,-0.5638853929170045,0.6239829459372311,-0.25538645075083
-0.5801485124928141,1.0421377828579046,1.5118783998437149,0.1008000731893551,-0.5881136105786836,-0.5060472618547189,-0.7541833280009312,-1.4350584123107935,-0.061680063701391535
-0.4095718815508137,1.1729694926526775,2.0963971626510394,-0.205114993835975,0.49210657389775253,1.8275747832291247,-0.38072335027925097,0.5164719753702975,-0.054985497431212
-1.2477657579705246,1.848683966988833,3.451020905961771,-0.22453255029216304,-0.24225450471691184,0.08701421876020177,1.0603407483619527,0.13339641831598975,0.43937114865639976
0.6138951487335681,-1.1869014454440243,-0.501244875398237,0.7336453526702308,-0.5649726698107321,0.8258986738377283,-0.3317395631566365,0.3248040278193434,-0.20052769016797853
-1.059674652268115,1.9940484500865847,2.9227349115333308,0.1243624655365039,-0.9198797493633377,-0.9260894833102219,-0.009745102230012353,1.153593897082998,0.12108346207418524
-0.676021490392569,0.7119384371419641,1.348595058451708,-0.23408069104463444,-0.3730169505866902,-0.3557018577917518,1.2551033120631985,2.3166861751323755,-0.08179191209966463
-0.3852677107613529,1.910214509907941,1.1886161747107487,0.0305031059912286,0.9101296422952057,-1.7516873091002052,0.9943999716524109,1.0124120119266085,-0.060608086444333686
0.5136296179935849,0.49665843302588486,0.8599824499263591,0.2199177063249933,0.29404847148730134,0.13019886763466204,-0.08013796648823983,-0.14202769302978355,0.26000690954991695
-0.4146849727865211,0.6561405658321743,-0.029414377600706865,-0.13446847035968565,-0.29030179324501315,2.415877450941721,-0.1224916820889616,1.1769758812680953,0.2679604180747674
0.3645764541207788,-0.5064019814847064,0.5800015144935575,-0.14674250146557674,0.22696464161712723,-0.45949970022426934,0.008868152613319445,-1.0256541776504104,-0.008524192950076215
0.6362512622332033,-0.12781278932293913,-0.7160447390769031,-0.31042381578449046,0.4062986060030894,-0.05667852339216464,-0.6271472882280376,0.40698625971554986,-0.10500389601214839
-0.9228840542608706,1.6749135977199783,2.9913700047608933,-0.020732888406352692,-0.859904961003037,0.2888552535425607,0.038785856972451016,0.38845761340093493,-0.481624906385915
-1.5060574846924506,0.5990261800988225,2.2321036699351384,-0.3834073815313779,0.3653979588423009,-2.3286603823863503,-0.40049467484505674,-0.427496023424228,0.22035145211943047
-0.5892698526136463,0.7244252435474008,1.7734689139612265,-0.3668781300145388,0.08236058600616239,1.1643577314206106,-0.6337702546290576,0.38593486529621157,0.036280625141117594
-0.9571926028689222,0.817676438395154,1.8188436211944974,0.860163627052306,0.13092103688570744,2.4570232487190116,-1.0826721404485307,1.5325092641334939,0.002526712757848549
-0.02249613124258937,-1.0878368005419132,0.4225201341590066,0.18558230444936863,0.3581868519112802,-0.5605096517398969,-0.277518741037281,-0.11694009826865989,0.05653504853267284
0.12880238733190202,-0.04927409079462695,0.04748791719160006,-0.40540505146700817,0.38267927927866224,-0.6431267468289619,0.7494977478512646,-1.9944492967481668,-0.14523911370054146
0.4348694452468223,0.22045171961454219,-0.317154934871564,-0.2948781396614086,-1.0060747278874764,-1.3249785735828978,1.3637827025032394,0.3086669922487979,-0.716134187390306
-1.2234799154880116,1.305435958013003,2.0646362443625934,0.22469608908352148,0.30464566948839356,-1.113004678186303,0.07956334134074995,1.3835177089707411,0.050440734798805086
-0.9298937742687282,0.1683915771081724,2.2679916649629255,-0.3206772453098103,0.49119326809644537,-0.7347982249691599,0.5309202363636454,-0.4589393875633939,0.05629960444773729
-1.0193623036554318,1.3091898827617054,3.211684090191671,-0.08192278927418571,-0.8780328965069402,3.4908793170525794,-0.04560582807244675,0.13900487168998799,0.20471363619042943
-0.734398876534521,-0.2200879798048497,1.6784524356195902,-0.4842905279045351,0.8701893296965013,1.0008556772112744,-0.23326126324591667,1.4209250404493303,-0.2004652210194197
-0.13002357115858754,0.31490089568928453,2.1865065206641714,0.17398128556490247,0.40530704650205124,0.9705447462784527,0.7581555544729557,2.323891265599149,0.3799995400314149
-0.3432462686034557,0.36347035201411054,0.9495320006605459,0.07622593544898579,0.13178256101996502,-0.4803700602774795,0.6897339487270858,1.1142874219278023,-0.4766525531564595
-0.4975067221716824,0.9636912822642575,1.3090193780811834,0.3926982014959135,0.5904920588049102,0.24998983649869333,-0.199158591836504,1.6626075442049797,0.3724876059634929
-0.8623418520527301,1.6208599382744073,2.799798983733595,0.5101716848341186,0.35744686372196605,2.160020431034891,-0.8818427000460668,-1.7977619226880153,0.18373301870733105
0.13041255890305603,-0.5280395329447046,-0.958121968310682,0.3051843068218841,-0.9772901937562696,-1.6354389527361413,-0.22492485402031473,-0.9841864856484633,-0.31211369884333856
-0.6270208521671082,2.2627094707855706,3.097505733566279,-0.13032553930552043,0.7637129353968947,0.6548973317707387,0.13983202022075472,0.9289286679341775,-0.03766789877894201
-1.4543780894961846,1.4652160057891388,3.350419918712963,0.1896930576229733,0.16949525647099148,-2.393979113271289,-0.7517612756313532,-0.1075500095349341,0.511241842956834
-0.2814228655392358,0.2154378182133091,0.1407275719698029,-0.29940541853476965,-0.2031511044710019,0.028292164140645993,0.2621306225930788,1.467150584121623,-0.5396457607269628
-0.891113857145277,2.4297881957286567,2.813970118554593,0.1969556424514201,-0.03513128360256911,1.6368268011765648,-0.22922303389533308,0.0693601184638647,-0.27424853264525767
-0.740666720526379,2.3797684519099387,2.7819083928131607,-0.3583692073269179,-0.011593534665736824,0.6192958425369566,-1.3954147950391949,1.3941539233007554,-0.39570565580608014
-0.1595122259959843,1.267663436358406,2.4552431533745396,-0.07062803001423587,0.7500852483323515,-0.008751173434084256,0.44999646806454097,0.11453066318948188,-0.27513291162212444
0.6764222534071219,-0.39750259237895263,-0.8183620422737692,-0.12781590654092276,0.31905241246092303,-0.6955964591161414,-0.2702464858361406,0.3210872776973976,-0.3114530532344648
-0.779034565439814,0.5736101248637128,1.7797324292660264,-0.09709974439353498,-0.16522684455247105,1.3905323714171598,0.8933385670571831,-0.09568423946357052,-0.37739477929077136
-0.30987914539075073,0.47283397926208276,1.5864717432087923,-0.10127185353207331,0.1507147266580046,0.7459917852085289,-0.05778652789095038,-2.060801790295514,-0.2650110921848432
-0.22760537881063922,1.3123639891312806,0.08882998572858902,-0.10264908352864367,-0.3176340316388204,-0.3920178882822407,0.281601314723551,1.6968820302753151,0.01572261501096458
0.10018328149325491,0.49113259599828535,-0.8072875084469814,0.3361683358260107,-0.18139190171994518,-1.2816345142058891,0.41490454880851313,0.18647921966911424,-0.4004965793487693
-0.2984949532766162,1.2373512669985518,1.5250068644261403,0.4102187307570006,0.027466931382490185,1.1490044236526695,0.45849829445456664,-0.23920479696102587,0.43574397998035275
0.3907845494097435,-0.10711760442416572,-0.9995516951446644,0.29651433485982515,0.0669430602146754,-1.3758126508564719,-1.5138924472653792,-1.0974005916959924,0.22558211471532597
-0.5609064866942268,1.5472123878241866,1.4862343796243103,-0.7623588339152518,-0.1928016828581835,-0.1765827221995066,-0.019198201432193737,-1.1302452510726033,0.030468135731185994
-0.936653507420223,1.3431618236348528,2.6871135483707245,0.1336798888274685,-0.5373437639071421,0.4939847779212631,0.029798513611184456,-0.0182185233926625,0.2272364704503435
-0.9919192338502475,1.2703612517507614,2.34438708691571,-0.03497113588632952,-0.5778694243469232,1.9161337721111034,-0.03690568687943444,0.1588955777873533,-0.07977018460843209
0.36579517085314156,-0.29648515683072985,-0.9800853545225956,0.059329777954126146,0.3588251381725193,-0.15089616633024971,-0.6404673831654244,-1.0360039762026212,-0.14383964543202898
-0.5061806185243015,1.4164655605445238,1.9493157011733073,0.08346037814788641,0.1084824119677732,0.36663570181539085,0.3336483014686665,-0.598478764660546,-0.45273726685287785
0.4461874439919524,-0.8565614702722967,-0.5642527381080307,0.08948729959089438,-0.0585799480626362,0.9217765645039502,-0.46481351010479915,0.2159294552543006,-0.739440362211871
0.26565594796845576,0.3432968488856919,0.15479833098291995,-0.5406540821323372,0.8425004282682617,0.855256323940822,0.30798871225398744,1.1008411297952243,0.38636254086604627
-0.05659398393412345,0.8700027033387415,1.1848727558391983,-0.21403804950574748,-0.6635815362790485,-0.14278620310891563,-0.06448648181838566,-0.5438955342187524,0.06901367385533691
-0.48288331596183454,0.5295099163033818,1.1879086812462183,0.2888001464694045,0.19187178050305634,2.0037504965953588,-0.31559933506280696,1.4948451340311577,0.16568449424019374
-0.3268516616504217,-0.3033991264047455,-0.04494497034493439,0.35951752004935233,-0.49450499177550755,-0.3173118168962999,-0.28990354439212296,-0.07428565062540939,0.5041290455432509
-0.10175817192486417,0.011943445421236834,0.5626039060630763,0.11888946664559007,-0.7508686151800733,0.8923248694227366,-0.5851938981762337,-1.5047149436769398,0.36265115471990134
-0.7827123602765769,0.8871635201443605,2.1740242315892213,-0.47533591729139224,-0.23147523764103375,-0.3511619846708204,0.47144060294956314,0.6363522178387928,0.8501730400337668
-1.5598606756330866,1.7245587883590154,3.0240680368731807,0.05214528960184226,0.391193747978199,-1.416497545623889,0.7028144886902947,-0.6896758375768344,0.16075178604938015
-0.18144441476658932,0.005125244435041537,-0.7261051882988783,-0.15523604544101327,-0.14689680691400475,-0.5816254923660378,0.46774422936247395,-0.2945925663459741,-0.23769100050301079
0.30474123781888807,0.5531335764975174,0.7753711196785695,-0.32701813391072104,0.20460239689501386,-1.2585966786049652,-0.013232078185306318,0.06821677978146161,0.009948593062350821
0.7301380049452607,-0.18915411175503602,-0.9503115991003563,0.05194686592799271,0.22454312524144518,-0.4078117944037133,0.15460840150929062,-1.4341415883779212,0.36163147995718614
0.14043780697090377,1.1941027849230619,0.46353716865937766,-0.3090572128650062,0.35214186723097063,-0.48118754876341646,0.6541125198377273,-1.5736721652769987,-0.07195506948113813
-1.1883824613351743,2.1187086447598404,3.337126741754286,0.3376819553240644,0.28087350376360415,1.3613778965051395,0.38727743182230173,0.7148774268501177,0.43893886558982076
-0.47742590505214644,0.41202019160311504,1.0914558342569034,0.24790613196436084,-0.8584953053232698,-0.21790369301047202,0.5847154982831433,-0.2487616945754501,0.09482828819986483
-0.7767696843553744,0.7392309992899296,3.240641824989315,0.2039121257767951,0.43231387042686253,1.50594118487321,-0.4254908328246227,0.5272164390572276,0.5654200060111658
-0.6087394200359648,0.7035544964785524,1.8331228098374561,-0.04157124759169072,-0.445883748954765,-1.1391105716548733,-0.7128042800261309,0.6389982501330301,-0.5692836598307061
-0.4732076208036529,1.1990710132325293,0.7425645987707206,0.027010286619579275,-0.20921831544916597,-0.33900691793816184,0.1836850024250994,-0.11392725841093046,0.26887417892924625
-0.419226144310169,0.8342718269301552,1.7224971550449317,-0.02250211671611221,0.913657981506303,-0.33634184019752716,0.1555069693668926,0.6558378715813197,-0.3473737303333137
0.468838375642002,-0.6843645631395494,-0.9760807485338396,0.20006251550161067,-0.019035397244669038,0.018359958669967036,-0.17305853544576114,-1.016228570262871,0.09101290093479567
-0.14150963205985426,-0.174463832628141,-0.06531894675921612,-0.822357735452524,-0.3583557360487031,0.19678706369574245,0.1474419149905083,-0.6407954682589614,-0.07457111500804946
-0.6716116751733464,1.048944327271187,0.8668405315207468,-0.4788336997156373,-0.5805280960618361,-0.6067479848669146,-0.10905353188109182,-1.1254273759608047,-0.2482796182428176
0.060476565403202794,-0.015466868999914845,-0.21928350034973276,-0.09080139302573416,0.3897690165861762,0.2036305892054245,0.036889386721487234,0.7143445829521351,-0.37743398711752174
0.24641871362093976,-0.5550756427645118,-0.7392493867851474,-0.4954939301715385,0.06057236636871473,-0.6961617779238682,0.38689320674672867,-2.2558997459286756,0.032549999532589205
0.288098275921553,-0.13192549112235635,0.0896926084468479,-0.07442627198581493,0.31688690564213556,0.043473651579681416,0.4875529382520717,-1.0737917485659532,0.4548557774569713
-0.5011579449005044,2.1634400059778023,3.197486625913915,-0.16924143567915984,0.4991618137467883,0.15699476196822587,-0.3474535817018144,0.8273004765540832,-0.6647854266991119
-0.09985659801832007,-0.9966869893929636,-0.13771595102925915,-0.2274348575607147,-0.4179704620489884,1.8782291710645689,-0.6292937714529466,-0.3973898929875997,-0.23439344083787797
-0.6240580997173696,1.3104308659037607,1.8836804009217292,0.045302664443507626,0.5072302618434605,-0.21437008086927273,-0.4476909511376106,1.9669977031446206,-0.42659185557931323
-1.1321057198417646,1.6394990661317896,2.9703956143355974,-0.1610130434833918,0.20072614648025172,2.39650674044413,0.09235617893599757,0.5680243958862949,-0.39777653947274755
-0.017909328168910697,-0.319025704912955,-0.770127616018892,-0.3792659486019002,-1.3066808658181521,-1.9477563767301296,0.21959165202718284,0.4968837956565464,-0.07073888397547987
0.04996663219827762,0.5947644700131864,1.5727054168921448,0.1455019206486237,-0.2422061161072007,-0.13617147662735768,0.24784686639843817,-0.04045342945355747,-0.030386144791117516
-0.07526219662199572,-0.12709690391040937,0.7053942167422862,-0.21178378648120572,-0.34993066857901123,-0.19479144763720152,-0.37264971145835335,-0.4856537477448715,-0.3921811626428236
-0.41210324906615936,1.522415565716557,1.3238149879376202,-0.06454189407602895,0.3606662042723271,1.6339379687792999,-0.057321091803014534,1.7916990573069433,-0.13087739832368767
-0.687586380003045,1.305597378202791,2.0735516536789107,-0.14507549213132528,0.18936059670903166,0.5505370872805857,1.0098259846725388,2.4049517064910617,-0.4697728193439587
-0.1834487593928461,0.6229689113823476,-0.6068137083613229,0.01462658861875995,1.4700557343990446,1.2870841423100465,0.8315323571060156,-0.16828181243146922,-0.1754360953813007
-0.7069981795653596,1.6631701280753204,2.006119611676729,-0.06033180389622934,0.0015832321652390143,2.306794157233044,0.2644399669806449,0.7628392364732828,-0.009098787836128877
-0.31019563856292665,1.7308494054653707,2.3037468730132953,0.06557588880481409,-0.44018027872900267,-0.18809751885489617,1.0671395671570194,0.27217362857312555,-0.2845141963689017
-0.97521505210257,0.8606578278306111,1.9223118863757112,-0.1622861130915193,0.28369743355392724,0.08844049557742109,-0.47963280676022874,-0.31585249723753733,0.10892460404541862
-0.17838169467578088,-0.934745999238079,0.03994824751018622,-0.5305208690046648,0.8378584351385371,0.15465122171961426,-0.5248181744996402,-1.5179029302413256,0.23315836800720582
0.14587500431075937,-0.07948999140569862,-0.351887606570063,-0.0010318309602622663,0.37846353283275924,0.523048266660489,0.2677340900796765,0.21125219887216828,-0.7237944285615739
-0.6518473680660551,1.236403665362546,1.730721797481257,0.49475709200254686,0.07140079733562238,0.43707665021972375,-1.081939853799761,-0.5984695707900979,0.08042064886454933
-0.01952220958847994,0.2823595737074782,1.2070224585262688,0.014746727178302513,-0.11547789622690836,1.0524243915713765,0.17303606393203053,0.06680737130578941,0.3624685675612759
-0.2837591677329537,0.9927768206942265,1.44023901779341,-0.056972043140034366,-0.23723777971958762,0.8477719761744147,-0.6317928335533788,0.9680711638577052,0.22183404297173512
-0.6180836533367153,1.7502801922907816,1.913193976805835,-0.2862430454461616,0.07666577971460883,2.1900861245132965,-0.11980564438648914,-1.2701176425507645,-0.1598579334677069
-0.8902534568319348,1.8106574377612734,2.8136870716330935,0.33660298670498123,-0.3787403257673555,-1.9163454911032516,0.3674454379905977,1.0550707320073205,-0.7401327673371195
-0.6246924874615803,0.7313070169552063,2.252984577132695,0.046929736842212036,0.5726749058614264,0.6633434207319271,0.5324990507705274,-0.13636743451522282,0.09046041159508883
-0.43140579839077514,-0.1510588055774571,0.7488212654548563,-0.24579727028676046,0.31298206673976225,-2.9550756442122528,-0.03845923330989104,1.6270881012918261,0.48530275154561986
-1.1297682640267164,1.1335175185794821,2.5203013895319586,-0.026791440757693876,0.36572465228266227,1.7041400035031253,0.7038010007778537,1.0364884315792384,0.11655733913739041
0.5907375983706559,0.22250363927972516,0.008215191862525728,0.3702166506805881,-0.20011944801111967,-0.5699802713590443,-0.18459610099735593,-1.2157435012328146,0.11572414742718838
0.48228682356782887,-1.3974936368005053,-0.7573725941506201,0.030069943139499147,-0.32165096339139587,-0.2940651534449879,0.47236316916103116,-0.036726533683893836,0.4071156528124618
-0.1570437770999206,-0.25821163611862624,0.7435215955107826,-0.2887326181905197,-0.4072060034730475,-0.07194367870233806,0.2841363975122243,0.5712712532272098,0.0462189290962657
-0.8048950277565635,0.5185248230639729,1.042611703120246,-0.008791387843774895,-0.2200202473247279,1.3657572628984596,-0.7676600032410804,-0.4218241943044793,0.08504877251482795
-1.058123497073677,1.7574073926614828,2.12017575010287,0.17210194612785737,-0.7068963331587083,0.9917713633117483,0.4628845366633387,-0.9481980350055412,0.2627922912534263
0.12089982270245056,-0.3307297977384445,-0.08010421348908314,0.2784765637767576,-0.9270755299755725,-0.6751848971874532,-0.3919617159107459,-0.47921927882306536,-0.6221543992294407
-0.8143325496316017,1.5357689032571678,2.284028920655064,-0.3395114670662326,-0.13648614194911834,-0.6432733935293737,-0.1668384354127129,0.9262798210545817,0.37045121588069824
-0.9183172155072118,2.1436200511157764,1.64802808545861,-0.5969820119907722,-0.5170820266884398,-2.3880703949266544,-0.2492425187947709,-0.3995128443437815,0.3105090273678798
-0.06781648148041283,0.8758036901566786,0.33935689694417137,0.03906404619642229,0.023892580709783034,1.307310385583338,-0.8401188046095237,-0.15567274075284476,-0.49807215941567934
-1.2084314818865067,2.5426810565665035,3.2661967396321927,-0.20288024659731985,-0.6681963738471755,0.7587763154621834,-0.6090639764530785,0.19252853275725695,0.772833150528902
-0.9847339778803705,1.55110246259564,2.8485312920185626,-0.48749140417851045,-1.028066900964001,-0.3374328721584826,-0.2551482810080141,2.625436414426198,-0.3205709271929878
0.487270304164195,-0.772908074868054,-0.4710310858726332,0.14676332296340658,0.44930473630559364,-0.25989783599211985,-0.24234527934737818,0.20020530224841362,0.5185506641343348
-0.5763393891413889,1.0696287270731173,1.924872943972741,-0.2191109651056857,0.1344236511412212,0.999895268726648,0.3424808213925333,0.20609241397351852,0.29646732894016675
-0.6997936900763871,1.7578743417432035,2.3596006656583968,0.19487954910469957,-1.3362470460801588,0.3347046856323926,-0.17605081110841755,0.7390223760388264,-0.002974992221162695
-0.39494442968327836,1.1832216608355761,1.4211936638951008,0.02903494011521701,0.38123613136537343,0.29946779782748006,-0.4446724205460021,1.3937617462136465,-0.27073333737720173
-0.780776490595257,0.9641378141139905,2.0442523276731963,-0.3081179923859385,0.3937015235767403,0.08777476526107514,0.8345926665087744,1.222589854519887,0.9467837623348448
-1.1393310014650184,2.660375209835994,2.86808805085469,-0.24692653305290532,0.3933245058181855,2.001428136865299,-0.7625987123802206,-0.5358612872000442,-0.28695702637202264
-1.0399047994743984,0.8940517156809513,1.2089197854440918,-0.06953888250282075,-0.29388799879941546,-0.010811485856561533,0.6834384220833245,-0.5206151326532532,0.08153703311680771
-1.1345111901758786,1.6686049082136953,2.740447926046605,-0.1446374131993642,-0.5670089198783176,-1.1791973524393318,-0.8123851747381885,-0.006615847165063471,0.277107593445556
0.012897800447838892,0.4634472544401848,-0.08192252577063308,0.41597094374516674,-0.3404371069429925,-0.344160814112755,0.31530930622895864,-0.23468078209646825,0.16311989524988985
-1.4105232808738302,1.8141074550732106,3.3235088108567217,-0.2954999370716087,0.4248219761507984,1.3226697204137279,-0.4586935732006038,-1.41827486960486,0.16600540214610168
-0.2970558525706406,-0.2452182333509258,-0.6197743561320586,0.027547983536041935,0.048067186578815646,-0.23775494082050985,0.2474638566493553,0.55359248069653,0.5396166379012275
0.3913266807640573,0.1330620901821294,-0.5107076205520902,0.4213767428707136,-0.197978605803297,-0.06447578951667055,-0.37064261229363216,-0.6599517341625067,0.29928288142615234
-0.8329807663477488,0.5176864064039749,1.5435176481313166,0.062210845864310936,-0.09509909810525251,0.1763915399989533,-0.8309241446214791,-0.8455746269489243,-0.1927521929232377
-0.5828049274703402,0.25439324410894715,0.020111083134352503,0.1286590757489782,-0.849171267322191,1.0459529154579743,-0.5436558562550113,-1.3566288006002976,0.09717502629273769
-0.5991852792352057,0.9469557052529425,1.9098296567660937,-0.32979310714700316,0.2097967585627527,0.3052147897256967,0.4829352873972665,-0.9687207675957005,-0.2696641106958803
0.40287431488717,-0.34364062577629073,-0.7172841827412362,0.46667358862120534,-0.2317669303881933,-0.13248208600118097,0.8840056907010367,0.3631164320150952,-0.2930029882192681
0.04159230506795911,-0.6800756928943462,-0.7957680605556697,0.15450485201865136,0.2864175257971352,0.5223269965713825,0.3958627123185545,-0.47318995108798156,-0.12249932936789047
-0.9869804898264335,0.6903936784581869,1.745086573355628,-0.10469994509625949,-0.28390305159811596,-1.7527477387658479,1.0573533082016178,0.8187487396148286,0.2760755184621944
0.04987264180149932,0.1940400971198248,0.10691806935010706,-0.3381284641576781,-0.4742304285871061,-0.9051222151389431,0.5832284860041503,0.23655838004413127,-0.22755662057801626
0.3187055345864305,0.02890199716196804,-0.1040806513036262,-0.1269163062805984,0.7966307799324722,-0.022014592412023803,0.3915118062317978,-0.33046688139549923,0.2959567926046566
-1.5581966446097857,1.255586726435217,2.905113875201186,0.2191728651224389,-0.25160988788346356,1.332851198610665,-0.09230078192273795,1.21274885236227,0.12018054180929129
0.05801330069013887,-0.16683614731067206,-0.003747022683903367,-0.22989202930854236,-0.547212330363344,-0.05183132989834817,-0.1022447599673506,0.17287636544963603,-0.2087022243754498
-0.05735252660008789,0.3128720198993058,0.6159353942038286,-0.1936988450985006,0.6354154110697778,0.4941383146641192,0.3810551478628358,0.35802704649158645,0.28369436741203546
0.5575712313469392,-1.1744995854141569,-0.9375484021492695,0.6024043940311773,0.02609773439143856,-1.537206549794935,0.16385769036644193,0.9929963176019287,-0.18906848554476371
-0.6024267857892933,1.1257841133879596,2.1992733047190685,0.046910376898225706,0.5864361850726302,-1.1596457092319266,-0.9316140313015946,-0.3296623995627067,-0.09097592963403701
0.3626021317445547,-0.05854029822763693,-0.5267379961719892,0.4379127128365155,-0.16107538055991497,-2.1025097593054882,0.5692124481660122,0.19697486026517752,0.12177062181951603
-0.2934202017136644,1.6209140258044727,1.2988301607778823,-0.005453805046855279,0.5728629919289374,-1.5383811260018487,-1.0938280808396803,2.0506660490786626,-0.11580096177323862
-1.7013983656570175,0.7716729501929097,3.2938118676602928,-0.7468075195574059,0.057595071317553155,-0.49830629001732923,-0.16727959261600708,0.7438668384349842,0.236952167894744
0.1382587394425782,-0.5555099583337322,-0.1263877174723751,0.032281730640049716,-0.6595521947340083,-0.359153466214186,0.07786829703455898,1.4735340143497102,-0.06574670435271238
-0.6570288163149105,0.6381443667259565,1.2091781876697199,0.35670379981996125,-0.1682393326883635,-0.05963509044901877,0.6786521859590059,-0.8969406206651767,-0.6413571827299503
-0.6615296015860253,1.0879853223466929,2.208771859729936,-0.8212054657087406,-0.15361013196150425,-0.3518567872766738,0.30127236277494246,1.5925741346423634,0.2708001910757832
-0.6722378781327808,0.8323367644794126,1.315421612064927,0.5628397824801474,-0.32946119324548423,-0.9805190497655182,-0.239724636118077,0.06110503221481864,-0.10276729128468923
-1.0138746924970863,1.0262176386852915,3.183226074508826,-0.5895077766110928,-0.1349992268213506,0.18765122531781134,-0.7749177531757903,-0.21760460607759569,0.1266775496296947
-0.8799989246673249,1.0841819681091738,1.9572222595047153,0.11802809965796372,-0.8596678377402477,0.42567136168014763,-0.41524082978621,0.8578882235098926,-0.03442653535237014
-0.2731723793180598,0.04561250465823252,1.904747132585193,0.10677969518636271,-0.18273525648189037,-0.2718992587185803,-0.17948238567888355,-0.6852833398828762,0.4603263878995264
0.17277597833789562,-0.31657448497362084,-0.6471669236526167,-0.06363831724014325,0.34379707429160544,0.1236154074376058,-0.15053190169843797,0.5750428817970844,-0.08813418232742956
-0.29584076962368694,0.10159723332918223,-0.05988762131223335,0.02862109114036778,1.021715435790361,-1.7087711098318215,0.41152948858110766,-1.5442207105067336,-0.3336405746219818
-0.5016941652379457,1.9595918148987237,2.8586228607712876,-0.11075654378837155,-0.7131424358936763,0.46876029736493163,-0.15483136438180364,0.46938421867718766,0.20325179806977553
0.12599094935531915,0.1302780730671232,-0.8579608101586189,0.09923391345038075,-0.668295637102486,-1.3053035093609424,-0.12585172310048093,-1.2985189298946056,0.054625976551953156
-0.3469999761760078,0.9515260964485677,0.13442933159841064,0.0818360213152891,0.4056769648655625,-0.9473811451200717,-0.21613492426632497,0.10557118293912252,-0.04116201397978086
0.030771814206561734,-0.06955088237226822,0.4205229711560923,-0.3065169900522724,0.19949656993023326,-2.9139037825732577,0.7653380662585794,-0.1396721605607948,-0.1362849232528791
-1.1152976610562413,1.6442519473332629,3.2457209678736474,0.43345185083196347,0.30471985436495047,-0.5967536823530166,0.3701066881273501,-0.35972499093770544,-0.08679814587671861
-1.400204616252166,1.2783341545306828,2.97955041017631,0.6928553415932172,0.5140816160213527,1.329705934779472,-0.25441668431441916,2.294014145400781,-0.21255990564521354
-0.35515278303981657,-1.6155625548497379,-0.25003106846822143,0.09386121916933088,0.3997073275661571,-0.8205541405575996,-0.692995281572747,1.3151982111780927,0.2928224486969329
-0.5253414986767921,0.6802726382807045,0.9178647652979881,-0.5178916779503892,-0.04975032500248168,-0.3536549215974922,-0.07522282123289639,-0.21233668877679646,0.11651946678963557
-1.1538460569288809,2.607517548565991,3.4263549181169317,-0.24688465941220894,-0.31072799207766905,-2.137531845159385,0.48411466549534843,2.031509064542472,0.8254960957748486
-0.8157726902790863,1.3198519484484568,2.049152194098353,0.16816563306892582,0.8142325440550935,0.22300353166946232,-0.873827270108117,-0.22100938886295846,0.12694561821933367
-0.7648131204059511,1.6890439579443373,2.848329740566478,-0.3140109474798107,0.11465684755064406,-0.3184210753028538,-0.8486230519585727,0.0010372169824768296,-0.04230428609204499
-0.2063392030634644,0.9380198311574889,1.6388256955945368,-0.08529261493186403,0.4768491568408563,1.1059178747563432,-0.09081179521070558,0.7948254523801281,-0.18174783536117137
-0.29222085053049784,0.6632151167425093,0.9944969435094444,-0.21785108747274037,0.5132466359529577,1.185363850639248,-0.358061936706271,0.1906957668002135,-0.12389948291007434
-1.0355298726513016,1.6042430996042905,1.2166612571976114,-0.1529420307127352,0.29564694050560736,0.27755058388200243,-0.33512057519069127,-1.2514712441773108,0.020623209982654205
-1.4021163368379557,1.9325456030484378,3.0533888052923546,-0.6091389644714711,0.23361815143359738,-0.23036654818872856,0.054288634493253225,3.4932472192428046,-0.018652370992487698
-0.6913651831421368,1.5848643511493512,3.4413475265629474,0.3837151314485802,0.48704208129458754,0.10088196022598991,-0.09777716630782084,0.9800373546971997,0.21887751229701205
-0.46898689564139734,2.0950057163980524,2.8930863956479507,-0.34842780220485386,-0.23954570877999595,-1.5895868908054511,-0.08765886868824982,1.865002337103816,0.07675786272939578
-1.2705737449954666,1.3526238694031945,2.110148570825046,-0.32434609100554157,0.2526520792506948,0.28974623520001935,-1.3554419128205768,0.5631458266532302,0.5216800336541283
-0.34885021898097934,-0.11408013065355087,-0.18490895056493284,-0.06884079353690307,0.022595609161530122,1.936777059928747,-0.33649203416682916,0.8865413637407379,0.12133684699182251
0.1974482057653242,-0.7230479006461442,-0.6723239513288995,0.061687451637291474,-0.44667136846106753,0.15805489532886796,0.016557415263700522,-0.20555092930022545,0.31769273097406464
0.5290502576702043,-0.8083262006042496,-0.4056289197222671,-0.07828343977471922,0.040907464792705954,-2.661382065597298,-0.491389234524261,0.5321286343236689,0.2731621277848181
-0.8932386185980663,1.0167146394230855,2.2948917569598835,0.043605366530951935,0.3236517217621662,0.6359263845044393,0.06103536737788103,1.148542571374503,0.025429001680090622
-1.1563325774219868,1.5058216461948288,2.2099759731092474,0.16871316066725453,0.09364180662489346,-1.6266543266357945,0.35868353830426103,-1.3412164983715211,0.10964940009240731
-0.5231356886138088,1.2452472554913852,1.3512512499179907,0.16504151198087744,-0.2755654599942218,-1.4178507872782509,0.07826294734049526,-0.007101004845540881,0.38450781861947925
0.38627413533248967,-0.3590823376192922,-0.6169169794626852,0.17272903298296036,-0.18005645786466465,-1.5578401451477792,-1.256738434696441,-0.7767516604319182,0.043566826588261415
-0.38959348031530944,0.12929093879076295,1.5833827584517577,-0.0541360772045473,-1.144762797398101,0.2931428784209167,0.09933856013393198,1.5293444602326942,0.48606566453715194
-0.32189779143594854,-0.4843992682308476,-0.21695180974183836,-0.20052563152870437,0.2578487524882456,1.0753784814607914,0.3735218083110255,-1.2429798263830178,0.05346066711047589
-0.8978568857204514,0.9095593927298319,1.8197313336071352,0.21108022992702746,-0.5438896091241076,0.6459131212478175,0.5529125103353049,1.2379204403739454,-0.03297220960073605
0.44915026311661493,0.7056357651708283,0.8653868628572252,-0.1093250962189879,0.11650599473062384,-0.10996971704569572,-0.7566983112150538,0.8825157360859481,0.28820527904707527
0.12818246677009937,0.08730607177367825,0.16688020018057603,-0.2654025782067785,0.4479649677672291,-0.9401095420337293,-0.02628759372598523,-1.5186810330735303,-0.2693354686558056
-0.40610884166471795,0.09525348099266917,0.35591274568556996,-0.27548618398508773,0.1471468181455471,-1.3941724425626159,0.23445581525382464,0.260015855089101,-0.5832428696810944
-0.04306443898229194,0.4478331265540557,-0.2368999486176795,0.341297645491563,-0.22023389031245647,0.7057593928433382,0.20315336733958625,-0.3854481857659096,-0.3864995646701449
-0.22565963618017085,-0.2681351933869116,0.3972764010451486,0.0031872951240480268,0.43366474918934095,-0.5031191362441018,-0.08859199978269093,0.4151464390940257,0.1053914979532357
-0.27311712169039837,1.1059738699090647,0.9156596372943158,0.14511990764788607,0.35167642339305205,-0.29019698208949335,0.23581746721382396,0.9834670665203495,-0.024814136089976607
-0.00016588037778301763,-0.8217330755759169,-0.7852457414875659,0.2737194717737609,-0.302029037955778,-0.1324744980963748,0.05009792185957926,-0.10577564123447443,-0.058715769937886846
-1.0983955221322133,1.7318022949051723,2.9920559471251265,0.050777210125418096,0.5860555694020682,0.050082963342201525,-0.17285831676841273,0.45053657797072166,-0.28004026325805553
0.00983857427628133,-0.2861490286971532,-0.766906598269104,0.3146489223019128,0.6285630560432452,1.4313625959982377,0.1444461407742269,1.0167701633144894,0.31968798146651406
-0.9253957800362584,1.0034319426256646,2.7346501754124155,-0.4396938184894052,-0.2691919521916911,0.5197885761492832,0.1469381591045693,-0.18813498819673202,0.17420801912021422
0.9674049081198927,-0.3158782853937184,-0.21768320226745108,-0.08863655640794452,0.02965843470862612,0.983999141025144,0.21189281091730608,-0.6089350125807933,-0.4654290969412258
0.4366353211705172,0.36729430443145006,1.0946786505552897,0.12896030317390872,0.18330886804777394,3.1184322027865785,-0.060676240356841896,-0.22798651493943806,0.09269487217956815
-0.6811839081570266,0.8839262751162555,2.290423746190104,0.45410520047771896,0.20493872095734464,-0.40286000621023554,-0.5115541504958585,1.0895105766652593,0.12259253834408845
-0.9728349151424183,1.5206494639294312,2.6786684388395754,0.09426730692144454,-0.3590426997235244,0.1737406077886462,0.5947652286882109,1.276412358570226,0.09565567768776488
0.6641764742609557,0.6816893512895185,-0.8251359536669606,-0.20599178225859668,-0.15741760611328892,-1.2524176608507964,1.0813922022036726,-0.05262026597959542,0.02793109385985694
-1.0637192239910798,1.3600491232913243,3.079381988341934,0.5609965051234063,-0.39992539415542355,1.9136756983929255,0.3540656233802717,0.032961510883909195,0.08611893529312153
-1.316289118007007,0.24093123384002085,1.107533993197166,-0.03383802797713518,-0.6016272344685645,0.34223450241126663,0.04294128468567141,-0.17311582701262995,-0.16345538257500494
-0.4473123466532203,0.8245483260578498,0.3728837651859145,-0.11654329920075529,-0.3446552370282026,-1.5541242695791833,0.4643506935871134,-0.20454174133932926,-0.11729631570397896
-0.9975674065911403,2.076033758288384,2.357769083176111,0.10810367528561332,0.5913591129098161,1.9921014586713448,0.23081906076289693,3.006709889764349,0.14370215107702913
-0.17484061335219067,0.9829679507462263,1.2365712121989705,-0.11279267863750388,-0.015992738923174068,-0.7358795225277104,0.06493880128936332,-1.371093090416826,0.37374635531210904
0.4107801778468768,-0.47974653267511247,-0.8875550522968803,0.18863319790825783,0.3544488407887052,-1.763140753917573,0.07888251333934561,-0.41520278005062566,-0.45010213279666833
-0.6876375531844017,1.4597311527456749,0.029105466075045827,-0.002553445262392287,1.1890974037572886,-0.14850941293265163,-1.2211303112870846,-0.2945179333660842,0.4514661632675663
0.28690755450012273,-0.4901840363291349,-0.8859692864844314,-0.3058126915178002,-0.178499978656224,-0.21225374332410568,-1.1056537001744846,-1.599512202865553,0.3933091668553696
-0.47931432392301787,0.7946481121587471,2.7574084651468005,-0.009269913961432218,-0.6117037117445518,0.877896047084579,-0.17918877990425783,0.3539833217375333,0.6010363493571256
-0.7076978314584322,-0.04445771364882007,1.0166180285444204,0.21932861445667226,-0.13734002342156099,-2.0998488720736437,-0.29090002220358496,-1.0994220866175042,0.14793499134032373
0.045534190243206075,-0.04239537391236761,0.18980548622067972,0.03232036763956747,-0.7546253712041883,-0.9007373929782168,-0.60930099266061,0.4900078189119872,-0.17389854269514485
-0.5548909485280915,0.856151834640462,1.0098082016234984,-0.44237313547859763,0.12890748739920366,-2.0641754140746342,-0.2093707821530449,-0.30540671145007237,0.7908126538038639
-1.1883177752438898,2.267861465361151,3.4399476250596717,-0.3665889391559499,0.3313461964742655,-0.7084709829351551,-0.4056496897391758,-0.0037899398455052413,-0.2301703289355617
0.17116742672953825,-0.6117886427158487,-0.12156853669486845,0.010376112096624935,0.35703149481355867,-0.8253126028109328,-0.5622756425254399,0.25808199775379065,-0.3092459810961144
-0.20727954453489983,0.9230217266214007,0.9779719146802581,0.15299578021079596,0.7664913075471664,0.936334456897772,0.4939818885198566,0.5373984619416989,-0.13485679319301916
-0.4157511701177295,1.4889431980469237,1.9340979722196074,-0.2085081007803655,0.7097050541235467,0.5107070999235301,-0.6031463757195744,-1.7033461761309887,0.4681777190309709
0.1611031504361515,-0.7228115432094298,-0.3876642280756032,0.0347283703602705,1.160705780430718,-1.5001884336027296,-0.12264009619891783,1.0010257964042724,-0.39238546972722094
0.1294510955453574,-0.001087241513348138,0.19182149692265882,-0.11064418508516546,0.14575253687178238,0.28371047306490116,0.10280853593092794,-0.020807352659083046,-0.12803155997037402
-0.938654665072065,0.7852662884688537,1.460880926962166,-0.2055518852591003,-0.6666715434983597,0.6940916637816125,-0.07499717193656086,2.114660676345939,0.4061556899017301
-0.05173470538565436,0.19014950332512592,-0.2002494086354505,0.314053981527316,-0.8143549374343494,-0.08468442584961156,0.32880029501397956,1.3598148247610222,0.30261282636427156
-1.286155079974025,0.5058414106006799,2.102908128002888,-0.14468801774277873,-0.8070536235473419,-0.8818804814745388,-0.3898405211693581,-0.9992162385171276,0.17810136866372303
-0.39583425426873803,-0.06140246193773414,0.7225217274209417,-0.10348739181767434,1.59056277689589,-0.5038816087991663,0.07647960630080565,-1.3626948108686878,0.5635609083228209
0.21554629189830948,-0.6683451895215601,-0.3948805661219694,-0.16046958883322215,-0.09397719731747589,-1.0443738428973701,0.06897049498458431,-0.670256264790075,0.011660012665028788
0.19412873939422093,-0.03421145547410007,-0.959459995594035,-0.15333895274847395,0.02524054583035029,2.3131214376550497,-0.7443215651502829,-0.14936232697489205,0.3549723374546994
-1.1253169666344205,1.1859122608489219,2.3835278151728407,-1.0168756087719093,-0.09378290463748812,-0.8059093910421894,0.011811037000350343,-0.3376909578853195,-0.6249453041591417
-0.926812326385662,0.7389936860388928,2.6195143494755135,-0.6408328935347177,-0.26337807822415504,-0.8896725735545828,0.6237048730739231,0.38284576869124676,0.36336461598990005
0.10357063227765649,0.3209405726069114,0.8044942203880698,-0.10234545969668742,0.05844032819049383,1.6477608704566318,0.8466300558670969,1.1753782435049245,0.12271816400108627
-0.7100833447821586,2.3822070716343715,3.2213576700789845,-0.40269905631085956,0.34180271451536676,0.03558162414920613,-0.14912892642605474,1.2848790551499525,0.29701963401451437
0.36718147760038256,-0.5593185346665005,0.001893035037310753,-0.08361948011496877,0.14923294296041698,0.3540040090899204,0.25555741675500526,0.24566073231478422,-0.1523672064533832
-0.3639911979416398,0.31302009072285975,0.6162380641925371,0.13497838278530816,0.6303063540196053,-0.27362341653736705,-0.3544186599865261,-0.8069684999049853,-0.3580803371110877
0.7891553292052371,-0.8834313074488522,-0.18888031843984243,-0.11579625471379712,-0.7469295344362872,0.07562154982346635,0.3337700014956309,0.2788724748902722,-0.04119487449406324
-1.3289822046404862,1.6964314279876016,2.7205492413603833,0.09146021696832873,0.33623994375504523,-0.23676371214595104,-0.4685491264027768,-0.317520815366404,0.46063909414765447
-0.12605326654346577,0.7399766818257743,2.2819189710195547,0.07995049269162766,-0.1963930268439553,0.42354085847763223,-0.7017171212603037,0.1987303125585897,-0.09962613942402962
-0.891818314730253,0.478695989996776,1.297606859503317,-0.024096985535319804,-0.5240862069371051,0.3172803774831875,0.37149910895049115,-1.9920812258311227,-0.27733691682441874
-0.2338147760200185,0.32471246697419603,1.3666565197304004,0.3386179938031528,-0.04878138452779401,-0.5276880638433425,0.007208074546915665,-1.5528237656904442,-0.2505890469763698
0.20324037587456623,0.7026591686371777,-0.6739956249372948,-0.12451864622778534,0.2039805527893511,2.053225073316466,-0.25608395335862355,-0.10288009963325997,0.23542867367454695
-1.0711487478454182,1.9082456978896616,3.3433186214234585,-0.6766093226131005,0.6005419132002842,2.220659082049028,0.021600440083657454,-0.6593156876773099,-0.07282052695333682
-1.1442662250568483,0.9532359175850387,1.1517914047409659,-0.606006036104913,0.8218959024733533,-0.38175563184531697,-0.9429410904831239,-0.7284640321853998,-0.10331392461678013
-0.819837868468654,0.908907431581681,1.0615799352428188,-0.22391101718022977,-0.7817534213061679,-0.7324936215564233,0.6442380008560431,-0.4189529531312238,0.2819259386135333
0.055723842078555005,0.034275027326929,-0.9258712929803095,0.24151755443440198,-0.22167850782545423,-1.0239896137983593,-0.5223788082895522,-1.0580817209946227,-0.0993419954109852
-0.5168067607226383,0.46996462111172693,1.692441188852475,-0.2478366634034847,-0.7894980737288281,0.0030072197586109572,-0.26458161609736447,1.853191335491354,-0.17783933887966
0.14188064629434377,-0.6254226938039572,-0.9592713641544255,-0.13270295929360315,0.22876931675162274,0.2906577593923885,0.3923565126709445,-2.1437806576733465,-0.5688374444594848
0.031085622326501652,0.0669822471915141,0.4857823707184219,-0.0025295962373845745,-0.9483649285244107,-1.7443006039334068,0.8256526194017355,-0.21454036931774895,-0.04539606622909611
0.3748449795622194,-0.5878124773451886,-0.29012326912962094,0.14488154463162609,-0.24708495125217586,-0.8196024754627748,-0.46618647694462295,0.9325897011105163,0.15886587653954265
-1.010446591734045,1.4030972834225706,3.203950347528921,-0.7530891692657268,-0.815137822485768,-1.2820918204814327,-0.42744330188535085,0.03479363041708122,0.10227908567350154
-0.46400953759516606,1.4384372226986464,0.34483460889513484,0.2066228234854754,-0.7539025640685063,0.21776727633660156,0.5723751341253559,-0.5830115663616428,0.012413012232357277
0.02978674571334386,0.9149596393862495,0.6906468061534581,-0.23613599922587003,0.017913444247428342,0.8483248966779887,-0.15144233702551205,-0.6535424109224396,-0.7239596620085285
-0.6566070891772661,1.3809683832984891,2.2041557535726004,-0.23008166683561349,0.43498597661134236,1.0189644021446702,0.20085336344182125,0.20238107842626504,-0.20607010124905983
-0.3075117691561807,1.1841088140741731,1.5248021036185095,0.6621191599121131,0.5395131047702072,0.09028513186007248,0.49409056537787793,2.475425568905791,0.0044264703618269894
0.015095392400449058,-1.8718282651379332,-0.6184176732667772,0.14375106336470034,-0.6170265320971919,-0.4800681477942157,0.7493410503185389,-0.07062677279462722,-0.5468671603552453
-0.3360725816468238,1.3053213685795277,1.094307395811315,0.002713857574630716,-0.005640427043902312,-0.16964120527679857,-0.6212446170302672,0.6910093062441096,-0.1368271295833394
0.5449476511260255,-0.0932562057590671,0.013371451771318377,-0.3789341316574393,-0.3280457162750981,1.5271029167192132,-0.7532385812191458,0.2355521703392558,-0.1614417036667148
-0.8466223046725411,2.1752933259521905,2.2215623953023735,-0.3129847662557685,-0.09374874131525551,0.5866829982414761,0.10569965524140894,0.6545859485111318,-0.024889613564726597
-1.4752018986574964,1.4059860167245855,2.4729193275206254,0.4373762340012331,-0.5976407516651483,-0.6866579650180348,0.12691989889326358,-0.3449324081474989,0.334382699314944
0.7457545077651607,-0.4216394345526591,-0.9523721820893936,0.516463076719809,0.775404543631017,-0.3282359993026115,-0.8910010871644829,0.8810356421984206,-0.1339869430632807
-0.35263937005296,1.1603048364033086,1.3164405992682107,0.0021806068773909475,-0.21282565283621205,0.3079136774653365,0.17430872907033687,0.387665133291202,-0.029467236874876276
0.09014252088171845,-0.6353958305885963,-0.553979637590243,0.1905436572650777,0.2910072760538973,-0.5453912190442946,-0.242363330473791,1.4078360766036786,-0.19498855554651234
0.2055057696662035,-0.48285188181225874,0.03276784570495561,-0.10195851588503417,0.744201175537146,-0.964149600873806,-0.6218240925523636,0.6664384183505907,-0.3261810073221253
-1.9435061452729705,2.17414737701192,3.3007195805407825,0.11702681012161807,-0.5739094032743258,0.17519294239335922,0.2745001973058863,-0.10407475803118482,-0.1983457434954667
-0.9737327368449441,1.6613673090859546,3.033913440310955,-0.2568178164320761,0.34378022547054077,-0.42801665075348083,-0.4325525272953362,-0.7111048074953215,0.24198941211092903
0.6887640939195877,0.05016699940277699,-0.7301943165781799,-0.21591437279980719,-0.2818685402181852,-0.8395123521947235,0.5903800242913797,-0.4363357657839314,0.2681918203137373
-0.5387194361293624,0.029016189005785013,2.4471608515474244,-0.34350075548448683,0.10067844674549577,0.5074571027242355,-0.7154832658425915,0.19835867133449944,0.06315989362622183
0.22084719822922041,-1.0383685667298488,-0.17704471207986394,-0.2692961006599692,-0.6845054004144202,-0.6688750723405692,0.31190497292480157,-1.8467949809406605,0.044848398746488015
-0.14350468287286378,1.476889197153958,1.133549502739624,0.10690918803063564,0.3936663786133137,-0.6319792538469662,-0.12037482169607679,0.08446789108929771,0.16457742131743752
-0.4622427911132115,-0.3159152054043313,-0.4439909784213595,-0.008525828910565116,-0.1044589193956591,0.18630297484386388,0.15354264721741692,0.18239406328707192,-0.12575108819471206
-0.6867622099265741,1.1519714117831763,1.9695379475559633,-0.3752538064699873,0.4368913983985794,1.0313118489381934,-0.15306974752426367,1.509757430492758,-0.24996208896925923
0.042381295472672185,0.10708839126968535,0.532075514177125,-0.0644685864695231,0.10980179878192896,-0.3722126223300839,-0.4523472427274953,-0.14535655880602272,-0.14892857696675738
-0.6218390684354299,2.528001228923397,3.0956788126954455,0.0016707637474347042,0.45586808075434854,-0.5890508273318287,0.616331426793184,1.1414976898735083,0.07239369292969003
0.1081281212865422,-0.1809503979054068,-0.6970470803987476,0.020290442858446278,0.37253129834910786,-0.5426247917656896,1.239559861871585,-0.9856170210461446,0.32701463767108424
-0.75620370864716,1.0367202951987617,1.3132837875333396,-0.092166233546839,0.4271952593746355,0.4876935534602636,-0.2706669262507146,0.3376690173098989,0.03312177215986256
-0.7063201436408362,0.4090481113365378,0.5890798548865217,-0.13946937243493715,0.029355018601493966,0.7624182346761906,-0.1858213382084738,0.3218180909717829,-0.005404263885825012
-0.9660894083055125,1.80337172925649,2.8035978437383364,0.1912432894462923,-0.25288690300906647,-0.3619067705876694,0.6925066783371568,-0.6639535237911115,0.6447111952770851
-0.1197839443745177,0.34301468950185476,1.1448425606596508,0.08808246444574108,-0.013687009916191524,-2.7909194039155336,-0.34163228596603695,-2.185475113785017,0.11427307426552381
-0.1634394384650471,1.4357070319797909,1.4441594161966034,0.17522168049516298,-0.4591066158482964,-0.9029303205566014,0.3157969722294221,-0.07647629819423837,0.45930590366413887
-1.106617996115545,3.0337145844613764,3.437599339249817,0.36907681969283634,0.6226477242963759,-0.6185451988213734,-0.2609939059979351,0.6261414921871006,0.4548773183939917
-1.0791729803337125,0.995959750516188,1.4812241623718627,-0.011124539436315686,0.041998050539110904,1.0277900032574794,-0.4679521879675674,0.13587240839158515,-0.3513305034835449
-1.0649296127179235,1.4743099195918927,2.928984558840847,-0.04490088977597993,-0.45616005263121606,0.5215852584401556,0.2178742079952039,0.16604124829662603,-0.3983905189930377
-0.273904148714579,-0.6262095215903637,-0.1374242414902862,-0.1430235968379348,0.5224532530169423,-0.9556786415469821,-0.5047408029903645,-0.05433111599363097,0.05421968919333301
-0.6316374890040716,0.7024636148072824,1.3797134721942412,0.07892867154403357,0.2677112678335698,-1.6912345057712774,0.6417163214223169,-0.029791819666299707,0.11425378783687345
-0.909442476328436,0.11336729828661392,1.2016480238049434,-0.5698334023443585,-0.4276144891908915,0.6473853030806375,-0.09709032801540146,-0.3859926580754208,0.8408807955004695
-0.2612303782677418,0.8056247904327788,2.0982392508123264,0.19092701069779655,-0.011809894999703642,-0.4321668279079224,-0.8092095428290054,1.1352464283799037,0.01791191806848071
-1.5030169750741973,1.7427867310776504,2.9005909506272576,0.5185290589146524,-1.4352746267704928,1.1180518197626013,0.46173066501578125,1.1591248815416046,-0.021148164641027555
-0.3560855767067649,2.3314123616241194,1.572769161918767,-0.2112557533255085,0.7731801965579866,-1.3286778681063955,-0.6372049995184197,-1.1048068979676506,0.0908422135600241
0.15277227425839252,-0.033716621810292696,0.9565453549204974,0.28077224375528587,-0.16011204900277645,1.2177064690535295,-0.6446555691187417,0.05549546629396132,-0.18889163575991105
-0.0821204674052412,0.14753908173800878,0.2549760773211973,0.20127414838641894,0.5713955202985517,0.5911881452635325,-0.6673345094161945,0.19224199093071367,0.12631438981313362
-0.8137288515636695,1.0824817057238723,2.624357167406433,-0.03128153137894712,0.8015416544875013,1.1240841759634521,-0.4919767938405376,1.0702768328766203,-0.206063256767854
-0.9856776709280162,1.3407910844956967,2.5212495142719926,0.039377135046941555,0.5488551765435682,0.4774354199496835,0.5812325721035869,0.8211126368672134,0.45169185378328736
-0.4026481869040747,0.8798668440528009,0.9145240507395322,-0.056887800899193264,-0.046619285914880015,-1.2912207340531154,-0.18165141179422203,-0.774451437530129,0.18033921470611397
-0.6977006897148498,1.9909997421293493,3.297996651392662,-0.3835027047192869,0.24985190428447954,0.2782587892051126,0.1369660239266263,1.3411729294707269,0.13848218072061053
-1.0024741121656495,0.2198382040754266,2.60055821606118,-0.17747194244311296,0.017197969227793392,0.6480592075401533,-0.1838664004756686,0.9662652361592917,0.18412315525820339
-0.9299627733537161,0.8608577055043037,2.1395680819866607,-0.5124562088334247,-0.23157064784217327,-2.2408164112431477,0.43410988324180017,1.5902446331122273,0.331742046435507
-0.5396138349595332,0.3303723350535394,1.0897086884858034,0.09675693726143599,0.09504101614482847,0.8459711282847137,-0.894267105076055,-1.5678016220085915,0.2633688949037745
-0.7789002418009588,0.7601877140275163,2.6201159541469212,-0.37742336705063123,-0.34118918015275707,-0.6875762949004096,0.038713482009056756,2.1284920342478264,-0.4925297718970509
-0.7647722314921361,0.9745398388890236,1.6934648246906971,0.3768236753319425,0.9773645127205747,0.18718055052058347,-0.25936966039748577,0.4741848859954818,0.3571621688499152
-0.42391282451128465,1.3825199700253554,2.3645184805607413,0.17732262771102725,-0.4410666737115934,0.5448824289438772,0.2372990591056391,-0.29639270098345905,-0.28346673455649196
-1.296625556646153,1.512116814097591,2.4532310814794744,0.21450764970297956,0.39237298456721065,-0.6812346439854418,0.6436454903969806,0.8059055874363141,-0.09409747916514428
-0.22574066240475177,0.3901665881847122,1.268464977396877,-0.13329031584972567,0.4780269217891278,0.916284872159637,-0.367900266964105,0.9221294261775176,-0.2816491352890604
0.15959820245687786,-0.3836520665458138,0.21291658122124635,-0.3267358360802,0.5480454901565152,-0.44027906344356993,-0.2615348275025874,-2.4068995918453524,-0.16934274611788466
0.3192579621495456,-0.04011607929268895,0.5153308082619297,0.05808216265908976,0.31530068366644076,1.1213742027107965,-0.061820387863959186,-0.05897698740008037,-0.6527944788875524
-1.3630333768517442,1.7928652065095794,2.366341949457303,0.12984352872848776,0.03380491353071114,0.7268395008024107,-0.16848517807734814,0.3235791754353076,-0.4647861835656281
-0.24626153212636914,0.6416361836255612,0.5320124992384834,0.07649855789881867,-0.02454019311414528,0.6797545793289124,-0.07102502230227047,-1.19424721402928,-0.180162497782573
-0.3414326082291364,0.38261019839053945,1.682367734779684,-0.21984243225736858,0.7688381053317067,-1.118322266414574,-0.3959522273941505,0.6529912302928638,0.5512533837029178
-0.6154058626723822,0.11800338578258582,1.6352446110989618,0.5148439414124891,0.831368431740967,0.4870821075831914,0.5922150549714574,0.1367519101222364,0.41498109162054686
0.0125459854560525,0.11181786349488525,-0.19072163655073004,-0.04298179768441199,0.8008801031686276,-2.027827695733349,0.7571058826621444,1.071723599181001,-0.599831087095355
-0.10113482925244627,-0.8048474190710603,-0.40995446892103116,-0.40631330527528897,0.5293526807089247,1.8627731106143228,-0.44358244084759935,-0.8380013944563922,0.919340869139824
-1.2568154615252753,1.7315925576049367,2.418219199034992,-0.3382638754839264,-0.6820313417986829,0.8246601850332567,-1.083405557292872,1.3881409280563142,0.21262813499659639
-0.9042562149244242,0.9105456573096659,1.9208835087853031,0.41561468674523316,-0.32688977537714703,-0.6441121553808682,-0.20442894494262764,0.3842514344667788,0.04038031410132379
-1.2280793102928451,1.0091288571458912,2.250083472074783,-0.6977436654293679,-0.07879717530301115,0.6820012762200137,0.040449497710218885,2.3284595689559557,-0.24924808987477282
-1.4876646880049649,0.9012567997444123,2.5054629211204102,0.024568671501686054,0.8139467672579676,1.4989778822325752,0.058369002807438855,1.4983953010881188,-0.02038721505720284
-0.5140088569215139,1.340074660671709,1.5149513345342003,-0.03099926539373171,0.032755114124011914,0.19666539188994717,0.2232305655548923,-0.05527330194835067,-0.06249936621011011
-0.12515928511448557,-1.0737143160568088,0.39685214119145473,-0.28144831458304986,0.030544715706991448,-0.2728739714224311,-0.6552910909023243,0.31415583241449346,-0.14649161088131804
-0.4639912984621667,0.2592694643205792,0.03773158756705697,-0.2043876075987242,-0.7229946672345512,-0.7603704932069452,0.09266986928542781,0.2993068480178075,0.8548997081212073
-0.5208694643124258,0.23504256972595353,1.0776252720742288,0.07091816553550247,0.01356553318530912,1.0688289674042735,-0.7351930365775837,-0.9879319186479074,0.03445822664049579
-0.42981429677078,1.683373081421272,1.6551715058576493,-0.15283130774102355,-0.0014914995662746627,0.3312054374530836,0.49284363669788855,-0.17563875046912647,0.03209359977064881
-0.11500878309306344,0.11197332860141411,0.40167014681501145,0.21655415423493954,-0.4188118596446378,1.04190708843183,1.390376934093629,-1.0651774269117895,-0.21114349660121967
0.018035378088651834,0.10462469685362485,1.246115338985435,-0.08105209602090334,0.13790552655550822,-1.2565765336234715,-0.6019654898490503,0.43789484972525217,-0.5808672272199616
-0.6954392052640371,1.7633489285819741,2.635282009997596,-0.35271631951536714,-0.057978557858557773,-1.1878948939740588,0.3809727477047723,1.4047515407816522,0.14172937688289916
-0.4880873683920073,0.24175362407767606,-0.20111972437864523,-0.14641474152499082,0.3433420424398244,0.07288325884826685,-0.2741644183519139,-0.35577268445340926,0.4468169927259223
-1.2306184359510592,1.750871549873396,2.9617492207545055,-0.0475342664178384,0.840335828411078,0.5893202838361021,-1.1046589486194722,-0.13060109789275837,0.02251974041522226
-0.5312299642640663,0.25708590867398573,1.9509358963590309,0.28732326832646954,0.5844526728699481,0.6801689586812649,0.7390491864175815,1.6192064853756587,-0.2521143172081291
-0.6087205453698722,0.5162607341729973,0.9854134381161457,0.19779906088368587,-0.5775105021274374,0.719237963441921,-0.2812489352163117,-0.36923837634587464,-0.5030326144149929
-0.04874267856881897,0.7362464283266598,1.8744390327458884,-0.034374712600376015,0.28410185018125045,0.03085529074794119,-1.3080878406682865,0.30760105744183897,-0.16993948854154756
0.2916104215258599,-1.187412564829827,-0.6070530241507798,0.46241571268389775,0.2717718593162509,-1.5021394604214053,0.13058235288586897,1.9396809012339975,-0.5079805102275491
0.06802574283835557,0.5420774830646338,0.5724913065002848,0.3604918045624045,-1.2611608543541708,-0.13572017159954441,0.9507237902450627,0.6566943083270442,0.12028719909827476
0.055841711217740446,-1.721327122221838,-0.5546109101251244,0.21600037662231877,-0.3317886794823451,0.33306087786421534,0.2886091508755418,-0.2083230623566863,-0.5955397091773679
-1.0649256684206194,1.8802997595838742,2.840220887667985,0.03159824821723308,0.22201769648485703,-0.266232344951342,-0.6787054750110474,-2.489090281054748,-0.2948505019365309
-0.7926242541781007,1.775850479240252,2.3768528762710024,-0.3265898062602687,-0.3473640002471903,1.1161043890993094,0.07875354371984211,0.924395720821866,-0.30237324043668773
-0.19780742700696474,1.3196006081325573,1.4299902395964441,-0.008330321018934541,-0.1646847475089939,1.2080456931267987,-0.24517741105062718,0.11117450847318583,0.6749090284016311
0.06315731505228447,0.4078807249165197,0.9784847000657584,0.007479836555366362,-0.3067938019362994,0.6082079495084698,-1.1966479877633212,1.2126917099913825,-0.2775320092702371
0.192006382018847,-0.6235460739435289,-0.6925638469633136,0.20375852604930214,0.6643190994590787,1.1398396388210439,-0.6470140670392718,0.19352208902199672,-0.2423534294737199
-0.21920582821973372,0.5600870198751411,0.32563770690248495,-0.18648494551469746,0.45114472132016514,-0.2523401686741498,0.003180375173369388,0.7723448137888451,0.017419988984273202
0.1831904363077606,0.09692511181052595,0.8556174552461997,-0.4220052153221824,0.015898696808889147,-1.648738498112597,0.5418558486338299,0.8218102349753297,-0.15835632065541166
-0.11272227761349671,0.6380915629055004,1.7018344578467826,-0.5826127120455568,-0.9731946439414145,-0.05799847903975783,0.42237582051136513,1.9503094899653617,-0.315569014036167
-0.935139274932472,0.6484024687215615,2.5519166863147613,0.132312500198779,0.05209704110970469,0.670780199528016,-0.0023186308175262827,-0.02272707238728093,-0.7770757273929791
0.0438530639180558,0.6642841165343979,-0.6545209229778475,-0.24699796754306003,0.6709162436837003,-0.16517592631693834,-0.35447922824412786,0.8853780090825271,-0.029542620009677882
-1.426894391293982,1.2762272221344098,2.6660873139191636,-0.2635682931901062,-0.1498199548740455,0.5428999236441885,-0.2439532516846915,0.7517440359213209,0.21966689413742485
0.005934034149889185,0.5494116988569826,1.0768871030983442,0.5249001492377374,-0.3757899640284235,1.8401199318242538,0.5404668912994225,1.5578870660463922,0.08792107229874803
-1.6225154306570753,1.4934272806936202,3.437724288019135,0.011011608623597357,0.011064374613658102,-0.8049217789058987,0.7912024975863322,-0.002774094750263023,0.05681443712771553
0.407450449852555,-0.026779930408766778,1.5103536603850043,0.2958273826224923,-0.11446303997116718,-0.9311594096258308,1.1083978120507108,-0.10852803091659896,-0.5076247200746025
-0.9433497879442623,0.9973123072636869,2.2025202169467484,-0.12035136609280028,-0.027373031657863398,0.3083658083033085,0.05081188829494229,1.4129183749551886,-0.16619236757346376
-0.19001882247384716,-0.5380964356936856,-0.6489052582191097,-0.2727618705724517,-0.3350178128448467,1.3200290161467494,0.23165750029569193,0.35363068046618784,-0.013269125671373854
0.060009841956937565,0.3713734619598017,0.6049299533705572,-0.27937902027285494,0.15232632908594676,-1.613611996021844,-0.6513828840872192,0.49292497426544124,0.3475315932310657
-0.9765116709233987,0.7419015539807884,3.155789911297159,-0.29736998022492994,-0.0928172391473669,-1.0085317685503832,0.5181926099226966,0.5197304556061204,-0.6588091936411641
-0.6373916259955984,-0.14973687225984061,1.464529657766477,0.004491410467694808,-0.6559060248047048,-0.13646074195802196,0.42523101516514195,0.962854815174923,0.5337384094769876
-0.7377171953424757,0.40723054696559186,1.8232115997842797,0.20037665880074587,0.4638752122966933,0.09198802752127656,-0.9647339711497316,-0.47130633038289116,0.2621403660187554
-0.7923710396749211,0.96079390606212,2.8086175243314306,-0.1946957594144516,-0.5954998591741774,0.5713229225206073,0.5901675945874898,-0.0005375877877568658,0.8667970334589179
0.3140031387598915,0.029847069588792484,-0.2891305366386676,0.2063028611179414,-0.38573994298793884,-1.458953063674063,-0.02438454799958883,-0.009712098055089768,0.029253992962733306
-0.37996827368506597,0.9628396557511867,1.5928379995939514,-0.07539492737449649,0.4212311545611941,-0.0932153400845771,-0.6976989309979775,0.9524943529670954,0.5568993493422734
-1.2437837833454004,2.1554017292431564,2.8388715783561613,-0.3351097678219605,0.042367727361302086,0.17868312046129214,0.09641831559191197,-0.014506698863782502,0.1833467085170436
0.03712320175809043,-0.6719716173663524,-0.42988815030540173,0.2089963872207679,0.4400195029146915,-1.55497123632927,-0.022440949329933742,0.9549767584512168,-0.07334063814883396
-1.654228720632748,1.4900306949050883,2.6381657723868486,-0.2580939155263052,-0.3393997957841192,0.25342544682603374,0.31805894134417456,-0.2610045019251985,0.1851443467510224
0.7777614198315352,-0.5268037761232578,-0.7471850169648027,0.002123118038822872,-0.2850460237589146,-0.378737180063593,-0.1773566298935596,-1.5322061789261134,-0.6366678163775571
-0.36486534260905346,2.2600347069950413,2.171191394720219,-0.015244511053610969,0.06508118424403075,0.58887200138095,-0.6375531993912084,0.5158718094730216,-0.05692844846569372
0.0931932062591592,-0.6002262769846552,-0.6054980246762087,-0.018170149606768805,0.12307264614719957,0.40006307214811254,-0.1486267184304814,-0.4794344864326741,0.5637469109742522
-0.895790678314617,1.149951928034476,2.2799919270275737,-0.4700381239468294,-0.10457411428673792,0.26565301750615034,0.9158931682883226,1.7331501664896232,0.34872961763694227
-0.5372327651112362,0.42948951038080085,2.7346602013770416,-0.1398238181840878,-0.798892036202231,-0.021217168281583626,-0.26124793312710953,-0.03482937877340636,0.46650696386841095
-0.2984619982222153,0.15171202926795818,0.2333602668868735,0.01600317207201664,-0.6094292908595613,-1.416242783003196,-0.4128221496071112,-0.3424516573775552,0.23376498917608962
-0.9668159635416823,1.7100606075674631,3.196202059759104,-0.4273204809769958,-0.14472142176441063,0.3167756423115811,0.538148740842732,1.0631869877475832,-0.2270401131800659
-0.05113301518257219,-0.39832564909285506,0.667434465288314,-0.6744011337880322,-0.8309919633457312,-1.775413231459588,0.7349784877026252,-0.9331077112354835,-0.11817886190066033
-0.6423504825113193,0.7355343843266475,0.9622893440515776,0.2637819925234046,-0.3565425276248266,-0.0372718196263587,0.40786391945832895,0.5133493489094096,0.35306818901475173
-0.19160608903200596,0.7841499052116471,1.7727050694800557,-0.43533452490535,0.08402868915408256,-1.5358175940475614,0.4940636430864658,-0.43319811592803503,-0.08504911930431383
-0.6439857225787062,-0.22034762459246712,0.8614549367930733,0.013467828559707674,-1.0643898126938482,0.7796303845308001,-0.28866743038310805,0.12264322740451106,0.2752118190771585
-0.7192601183689451,0.5195028820249933,1.6561426857060684,0.13146145446375765,0.8641111222808046,-0.8131624410135119,0.023745090749328245,-1.2901299888845348,0.26248076428197764
-0.5627823949329724,0.5470507501224672,2.3299890539114947,-0.19068467453161853,0.02712265274077115,0.7404568119072079,-0.10278662290422402,0.4140249572928907,0.2187401903725858
-0.9614723403593961,1.4620897931484391,2.745231072312545,0.13131624769774156,-0.7376313784898788,-0.25857370023644466,0.7675458343338958,-0.14787634202547295,0.09637611746750933
-0.05761647913596772,1.494955658153173,2.427359810492541,-0.090178479631565,0.3827025200904956,0.9495888755419776,0.012867140228334451,1.2327741634753693,-0.16205091372128047
-0.7633127964320668,0.3196939588191782,2.091937955439355,0.17456698036560842,-0.15136669201662575,-1.034379153918696,-0.34891705655907523,0.4195346688577259,-0.12531645560037366
0.7976037674690131,0.4892611228080636,-0.713750253337346,0.06578168672659516,-0.506983442442555,0.6455591162130067,0.281844971075098,-0.44536875651501856,0.19456024469873376
-0.02647584206439969,0.40974037686288833,0.2937852859528962,-0.4595768553711313,0.6119487749642362,1.5662469741363738,-1.091994750869169,0.6815299666391796,0.41338862750405786
-1.320273097143233,1.2170142101145276,3.032631983300151,0.3140211092823777,-0.44089122242119927,0.23027747854727706,-0.15373963578570887,0.6406432821487889,0.44439467651069603
0.03561191520393083,-0.09643795356362393,0.22805226462204353,0.24407190359474942,-0.3876735677656578,0.014706448027576435,-0.4068843820733579,-1.3773244991701472,-0.2991749943461508
0.36839408045598826,0.4469756956898559,-0.9084650307126948,0.06982168087829807,-0.016639597172329885,-0.5248394935641922,-0.3583036592055178,0.9640505102441749,-0.11985203575672436
-0.15357425656827986,-0.13328469960399691,0.7423178231161593,-0.34417409877546673,0.31885327954850434,0.8955253487003464,0.08017824301238854,-1.6311010213524135,-0.3057083748206662
-0.1088313345326509,-0.60237593781857,0.1998471926254366,-0.012045554777773585,0.07381263165714946,0.9850059293924678,-0.5443197090221044,2.3946649645211315,0.03533864801448671
-1.111715976958043,1.3557137855308015,2.078842874026426,0.41956465373016555,0.013280301909583616,-0.7490990086316909,0.3525301946008649,-0.8100584703780433,0.1367202071898556
-0.654429723442267,0.928333500743359,2.29092945487858,-0.12826712448852648,-0.15367380554661036,1.0168687682972495,-0.08509800034696288,0.10586348489113157,0.03149026569658284
0.3102821889329217,-0.19043488109343623,-0.4387511177495549,0.04239679497197866,-0.7004305119577058,-1.4390199261603356,-0.5751736707301851,-0.6504168797325524,0.0012493393060030217
-0.5797763686788541,-0.7437330760123431,-0.42387498754939856,-0.3874607061234017,-0.5487414255838342,0.9731998077794273,0.4536282801977036,-0.0010227794695822912,-0.28794917752352966
-1.5569899067444766,1.743935711656354,2.8015918002339784,-0.13376398883413665,-0.5495753794381693,-0.9005915262979386,-0.2573763429554758,0.39255613532243344,-0.6475667483880178
-0.5557291172036721,1.9884946516071849,2.995926180464689,-0.054774403333663665,-0.21835140862025998,1.712877850972465,-0.7116501572450742,0.7659517026396384,-0.010774106707797866
-0.7696167667274018,0.6266591640752501,2.2824519142381368,0.8230787735356266,-0.5208585242542739,-0.23674988014525172,0.15618136127452176,-0.44977944016553445,-0.5207066190193544
0.10450284126345527,-0.9192605043858518,-0.5839569072211503,-0.1073343308209101,-0.06751296773998569,0.705013969365925,0.20900213767198622,-0.3251001559873279,-0.1256815134668315
0.13728556021557553,-0.03804221697526819,-0.469170167147292,0.12210759014679008,-0.7324582771536331,-0.636467209581669,-0.71668182747516,0.29161076440538214,-0.4167309181437011
-0.3317573878567823,1.0030622046420037,1.187042916908517,-0.1283248182615628,0.8972688086643572,-1.7881760881088509,0.5025095376960378,0.7536210887782956,0.3313288623082823
-0.3807902175998624,0.6785031191721088,2.097096621597442,0.15517910996679427,0.01749541107222502,0.43797777576335906,-0.31328049105487776,1.2537918217193977,-0.7590194264534557
-1.215587675322075,1.009832658550453,2.2833452066949227,-0.44276704093347885,-1.0110698121600776,-0.9965641231747404,0.27963160806802484,-0.38938187126253154,0.13782162727272657
-0.5180725419752303,1.399691534372217,0.535922055562601,-0.5598029108531034,-0.9428874061343508,1.1756922988871743,-0.5075234105993693,-0.6138193469644169,0.6754319019621421
0.0332739163290435,-0.638874405311351,0.6340143056520138,-0.45435500098039483,-0.7683535738909169,-1.1352136470136884,0.349158820854656,-1.1827951203309626,-0.38201811381776846
-0.6660819539543404,1.1011971756114305,3.165978179225175,-0.07280296449705606,-0.17740171202154179,0.08854538875495938,0.15542721168394216,-0.03988097835051946,-0.3773324756890722
-0.17644189435777968,0.09279880676729818,0.24440090977745554,0.22977802491591579,-0.3946965688361461,1.7869903587614893,-0.9586337039781897,-0.0029995584638441153,-0.17010241412093235
-1.0847961022771393,1.2271638068139574,1.5185816170343656,0.10490691267324724,0.07089688457741815,-0.817002753252257,0.03943313852170564,0.9531392693505256,0.09728771524965335
-0.6923070518352379,0.9151083809459065,2.869124435717317,-0.31926670524667383,-0.6661791266279214,1.4263969332877822,-0.15402690900204424,-0.11596999622882331,-0.5478343089602309
-1.3904720772858095,1.68143839506057,2.837233173121736,-0.23830238896056627,-0.06765742769310647,-1.337537963268813,-0.16002783706622684,0.689725230033245,0.17293191775728428
-0.9158578748069225,1.6942631337376173,2.0268044600245676,-0.3229811518038269,0.09608651842332563,0.692500705845361,0.07298456388709736,0.2648458042070194,-0.4988497211790374
-0.23808475100638543,0.5573817789096114,0.39973093689175965,0.3092903553179161,0.13325327917618798,-1.0018951857986418,-0.20498318416189898,0.17693993251431234,-0.26609399176772514
0.14550646517595525,0.16724208751798825,0.057945026716841985,0.04494094251620075,0.40244637255502586,0.17014712184969152,0.21947328515306083,2.0463230619086916,-0.39839164393855636
0.06203162875185205,0.57973800324052,0.7687290124623865,-0.2944833851772483,0.2127185812578469,0.6079135868265371,0.289085258907988,0.3282537903821818,-0.15545140105429578
-0.12802501091698204,1.1065804326297641,1.4400010364607452,0.019484226459730865,-0.11457478365867005,-0.3922659718615527,-0.40987423090605174,0.7893866817987825,-0.0501018298975431
-1.63049875297636,0.757800526080834,3.22584242344736,-0.7655129441945584,-0.6740765958640778,0.8714894892081609,0.3013281292367762,1.6412412028255263,0.40647147084388385
0.320506316652216,-1.187269391689181,-0.6331008433362515,0.11131840000547194,-0.016912788111618948,-1.92412477090053,-0.04571397449830693,1.2915089318473059,0.20902186482339197
-1.1187764458687344,1.2965892257692537,2.8831832157698356,0.1471934432692066,0.5336390599338852,-0.4486714629692764,-0.12959966632208195,1.3518927408306867,0.07990868527832319
-0.048400476635151006,0.8280948481215602,-0.270390829408129,0.1940860160037846,-0.318303437057711,1.179956568333927,-0.8979017751595773,0.9778911759567305,0.18456725838621882
-0.6216640832564594,0.45079322477200545,1.3353567987052446,-0.03741973335339535,-0.4230079446054396,-1.143115637668192,-0.13490725112883692,1.42662899869593,-0.5436886619604628
-0.5148615827968513,1.3547302429095984,2.033714015373762,0.26357231114209273,-1.594126410249036,-1.4173336270665546,0.7167340456377599,-1.0087571179616035,0.04166432059341021
-1.122734113238451,0.8411161791607447,2.7487612084329047,0.11088027373286724,0.37512687156308405,0.040819508291958906,-0.14737323349270254,0.4145000902121087,-0.10495507674099765
-0.725690865397385,2.1952621571329405,2.7251431055817403,0.41792976673948,-0.4286396804056395,-0.15132467584525539,-0.8382315544235177,0.47191760729818777,0.5545815663619825
-0.6239727371887664,0.1678403850325556,1.2098979080709888,0.07097103117509196,-0.5725851211473452,-1.1265103762682191,0.53933901709504,0.3846323599064856,0.43635603836467435
-0.045891054165342206,-0.38009808261536804,1.0837221916393514,0.2356300555401049,0.21379835309015804,-1.1933684619784377,-1.1449006486951465,0.6461110625759399,-0.38402354211014467
-0.16616550062118618,-0.09904137910993058,0.30306533574658134,0.16021234937767131,0.9247183876131551,0.6759396776845317,0.129623509606295,0.4366659608136661,-0.7085162294487217
-0.2180175232212544,1.8845149125984668,3.0813004529864987,-0.4871846585749282,0.4997232106512559,-1.3776539238139953,0.4664090927511975,0.7693884231845391,0.005433473626720318
-0.7412243868914308,1.157480074457848,1.9822440109912676,0.07452191870420458,0.23093273243234236,-0.46781666642026004,0.03496601755710511,-0.060706179800048526,-0.1022295086995399
-0.2032706746802477,0.26511428136085835,0.04508823309694576,-0.2525484241470579,-0.505524185803573,-0.5511014409838076,0.11165794502228532,-2.073743331100767,0.06609253130038487
0.15876075666420694,-1.324693275493453,-0.2791429805334045,-0.32858749601125953,0.5957861013141683,0.9430518792883411,-1.0489269679724824,-0.7849737580994954,-0.24849443719192466
-0.8229849436520521,1.762062017586275,2.4515924745862496,-0.23782560332477737,0.5410351460273445,1.4460841272218885,-0.027160782097002227,0.12672129765774165,0.16822783352057746
-0.470307741367609,0.2690073437406493,1.980756199066858,-0.31621583269314235,-0.2513287428083174,0.9557848572639261,0.37741733996514215,1.5836978300152955,0.1620031320837649
-1.1780395629546379,1.3345079077997226,1.7444805673131323,0.1353927482718612,0.7629048644904364,-1.8729034870573342,-0.5305885642590326,-0.7187660940331424,0.023700460972069282
0.2842146430681385,-0.096845847866796,-0.6579599945225998,0.061060330481103285,-0.33634422254514035,-0.020545293081965142,0.2688131085769205,1.518714712316154,-0.16077433009382358
-0.3406483562829412,0.3857167556746736,0.6600179417554817,-0.18168816997986925,0.5145391210173057,-0.9547364734316021,0.5783438569952617,0.8739738152825733,0.19518986258725124
-0.8777766970343149,0.5982237368633403,1.9722986533434885,-0.6412744764919109,-0.15934297032819145,-0.3861087701622767,0.8466604899255783,-0.7935560309644785,-0.1276401504016428
-1.081997258308186,0.48315280447935754,1.3698812701775727,0.44278563545678334,-0.5876481770770734,-0.14576913445144557,0.3422548799166536,0.6922422929644325,0.5462390996725341
-0.02796407130162764,0.44760862736656354,-0.940307574480798,0.06836677274760784,-0.7926927421293681,0.46270695357711533,1.3879980408684975,-1.5910444795430778,0.12263018885542498
0.07631313588699115,-0.9322490233259054,-0.193158885365741,-0.21438999042690246,-0.19341609231383644,-0.3389894747773515,-0.6612733980997754,-1.3877642479140755,0.5078524069186183
-0.6102665718454459,0.0734575497356798,1.2467813122698073,0.06409260819109275,-0.19689395438353197,0.2915054657059945,0.34557556312790605,4.081120831684025,-0.37046684370059524
-0.9014319437892181,0.9193390104089658,1.9795281208121294,0.1749802099435147,-1.0757736579475163,0.8555523846730799,-0.11036349089582811,0.01891488421609136,0.2679327268758379
-0.19557170528035706,1.0827221200356771,1.3296703768817633,-0.19326988420388458,0.10623904732592263,0.06810911052401995,0.6864375632287453,-0.37924176678497923,0.41478154090641034
-0.3346388453735738,0.8936412052351267,1.661691835294599,0.3281987916580124,-0.4066619927584621,-0.35007772857271274,-0.5390493469070309,0.5626232258068489,-0.3413522191127101
0.027890396780593907,0.5079317813311857,0.1814199503758216,-0.10464581704084584,0.08140800068388343,-2.0808973164602276,-0.574083463258113,-0.4237183965852117,0.12813758606819178
-0.41300775364049175,-0.7208578190721296,0.6032793708608568,-0.4896215975524902,0.32075572931248564,-0.6388239359761243,0.9119427896439324,-1.5998358624923452,-0.7380575341942002
-0.6959819294174189,0.5655651773735791,1.5791645681733648,-0.16848259524910703,-0.02015092205828764,-1.1468436867388172,0.562796288224872,0.7082639076783104,-0.3766327617978471
-0.03244104026494202,-1.0859744454796205,0.13423496583945638,0.23130027424039667,-0.20312173542688888,-1.799793763251674,-0.4983034913528598,1.3659396324185438,-0.050338705342259225
-0.9001641798335364,1.6399988261099785,2.5750463884431603,0.2527268714929502,0.10301530287235941,1.6827407231126241,-0.9036343488508418,-0.3101642346956566,0.16984227704409616
0.08159428738264912,0.27937953936096277,0.32260742914628193,0.06196198840082801,0.22413299610990833,-1.2660865527327676,0.4814067512592093,0.12984666763210656,-0.2096277892797698
-1.0911941489340384,-0.186767878157961,1.053813866788305,-0.07772338423294682,-0.38632240080728436,0.07026697472986185,-0.5462124810571141,-1.1352914410258559,0.055862618703213344
-0.7032271867092681,2.3726421045673747,2.43950771833991,0.020948858755440777,0.43453273189756286,0.6517927483949719,0.7168665034705933,0.5939952530106986,0.06872093651988824
-0.2028848730733705,1.0362679880060321,1.2676100099333887,0.4107662759706919,-0.27822063583618245,-0.1761533734636796,0.4970190274537965,-0.7109457015380094,-0.14460369810132698
-0.07412530527986193,0.21240134311315084,-0.08248804331465764,-0.24153165391714237,-0.6731026334115042,-0.738455388780501,0.6667466105402469,0.3372188822532717,-0.015101317758050124
-0.5127041729916367,1.6259322345179799,2.6997194101931097,-0.35874151946094407,-0.7994782751557877,-1.5121966866741037,0.32983890181056214,1.3222752618419613,0.3035364703807808
-1.1894711827495519,1.8106125090802427,2.9546143831368847,-0.07183835542658842,-0.6284239221404635,0.4660473847429206,-0.1623443785917601,1.5495133993125876,0.09428465705937716
-1.219892061661814,1.2423468688128054,3.268822662513731,0.18045734279872633,-0.44787055865511405,0.12709649476159668,-0.04898166517700452,1.161548326980836,0.4441891623387089
-0.2495149195090997,0.8589638411970707,1.464232520777475,0.2795745852122122,-0.14249453357971006,-0.5525314870638772,0.06501815179219193,-1.3389723585198694,0.2849122051611188
-0.00904489505105667,1.0589552123255335,1.3054464513716906,0.4851758024563049,-0.0052383061840400825,1.0191902186473798,-0.22364859163584216,-0.21149914441239218,-0.04771504062880293
-0.062271959000824634,1.6872643159122103,1.5115405630210272,0.17148907766605692,-0.3650664410152961,-0.0986768529571333,0.7299038632114027,-0.01244313675417956,-0.046996543140719396
-0.6569916849508906,1.3742353796180216,2.832746569582587,-0.1027455208665684,0.6540123001977043,-1.150826567412788,-0.11434661326898017,0.883256237815707,0.5576840660981318
0.4571682374613641,-1.4524812321824463,-0.8943043515605904,-0.22343296177394914,-0.1317954540800753,0.4270347497079673,-0.08315640296131145,-1.8924645096399937,0.2752735173097769
-0.5415220958609401,0.30502448665139686,1.7592718044831286,0.4059018550898748,0.3149219191019065,-0.26687014045093815,0.1283569846507593,0.018290702021559274,0.0041593031661924
-1.2778108044611256,1.7519445163162168,2.8083474263473565,-0.3308771350585696,-0.040843571397622805,1.7860130165956358,-0.6362592252453422,0.4784486055400561,0.04940615947049076
-0.29797392862315336,0.47511211116520546,-0.20465523828878163,-0.04931133641590491,-0.46335143838037557,-0.5774784274358856,0.105941860038642,0.07030501406155151,0.13647877122177665
-0.21391349502496898,1.2710031019501444,0.3208440574315343,0.06092357606450897,-0.3750145517132962,-0.9462309082563666,0.6509756103142015,2.944885027115302,0.11417674908615327
-0.12674141531035502,0.4696355206192663,0.46538053135215707,0.16585086360281134,-0.13633915621574424,0.43279053733891565,-0.3000840044135926,-0.7719785563491273,0.16634103309104395
-0.25651862690535177,-0.017082743759826578,1.2767726082240882,0.29468075584751174,-0.4553553284383684,-2.3659684303177526,-0.10139820058652649,-0.49552589167420746,0.31016366037047893
-0.6337901427445046,0.6276915238282219,1.9851316491713944,-0.26100387827492716,-0.8165034275618203,0.3653112796874583,0.42216647906016985,0.054610645889119624,0.11143360974434684
-0.5796557901345,0.9260844258156462,1.1112926516083435,-0.239589145277301,-0.75754192901214,0.24975881661333516,0.7974776038778133,0.3621613939158841,-0.8417953713974534
0.28828303428240465,0.11020489930015391,0.016250281088969976,0.2459798131434987,0.13582263130668273,-2.4934587367754415,0.030426134458189886,-1.7934203757216494,-0.05333520782840973
-0.5891248274266918,1.47316698617371,3.167302265288309,-0.4132766270829175,0.3637503054369773,-1.5372845037641478,-0.7084550207974742,-0.5438636130196531,0.0183841691781988
0.050923038526833456,0.3587564080157074,-0.5193728720108807,-0.21436402239787675,-0.3031237848191797,0.2486368807521519,0.3727098030330936,1.0727667198272481,0.12373456303813307
-0.1259866294847041,-0.2661222547768446,0.0585669836535756,0.22161672571029883,-0.8678783524559143,-2.550966356328685,0.3573378449885331,1.6939400950826744,0.31084383548786626
-0.06104094880849169,0.8087286701405068,0.8832341299502748,0.3103033840531551,-0.6042138715610059,-0.5889923552368538,0.5045567164008584,-0.47966090341532386,0.14248361744520613
-1.071081834307826,0.7436047871317124,1.8591809332549256,0.25250620629886167,0.056088399975975124,0.26273334398731457,0.3377658148847537,-0.13095750193216585,0.10512657026843582
-0.7511808318996296,0.4570392470387051,1.4520577691063936,-0.15161615916048676,0.32341823541676445,0.760826959406871,1.2956362586568684,-0.40538732066069527,-0.305872263736754
-0.24489185384350604,0.01349175185348237,0.36647167252208157,-0.044232531577665754,0.1463598241500607,0.3509312807587484,1.3737160924285396,1.709259252760645,0.9388690943707446
0.2762035277528715,1.7817159838103025,0.9732408735983318,-0.14754294470898568,-0.15884719490405877,0.14334342930766253,0.9730738418107233,-0.2581290557118625,-0.46072219327386793
-0.3561025635025938,-0.23640471177181566,0.88529307127089,0.27497006411993197,-0.5655761137951782,0.3260533044166193,-0.575553914952776,1.0142200176474547,0.48303568137192343
-0.1921820349133781,-0.5669728898469831,-0.2439713895996367,-0.1377684439007012,-0.0960043099292202,-0.6612005719771608,0.28714967030254224,-0.7984883754065368,-0.5417139751485472
0.31773315084915904,0.2063277542274786,0.6993265166945526,0.1774166957328681,0.704692204014583,2.0224772934244144,-1.156033519083921,0.9366138813541479,-0.29287981146912295
-0.3194623037960026,0.49230132662787757,-0.6279945257580453,0.17968020890208936,-0.10469872088995719,-0.3219959053622308,-0.7356956441633786,-1.0870133876653314,-0.028985089507903943
-1.1133259061501377,1.6000563132154548,2.0326240601785024,0.09440452226372319,0.6245990170746349,-2.140532334428027,-0.7127759048068135,-0.7592740679145041,0.4353536982900789
-0.7509713178680368,2.248311963244478,2.1298305404627795,-0.36827469527128237,0.20904153481612156,1.3027668140203117,-0.9723861656139018,-0.034043382696195834,-0.1252962243801875
-0.7030754405424423,1.3953304460149516,3.3717769953410626,0.26134093351670956,0.6086158603478213,3.809600572661738,0.01154744546520736,-0.3606783719176369,0.2117472161687912
-0.07331975098025097,0.052075442991824976,0.27843475631537307,0.08853502737368474,-0.15446501481596467,-0.29827832384470526,-0.43647562698934517,0.08332847710977734,0.24396342132173274
-0.9890042521772743,1.5355624150165867,2.3825230664730626,-0.11662188715500978,-0.48668829032285027,1.174479149952623,0.1112818508656816,0.031857644711296096,-0.06351626011555342
-0.9638459591235186,0.649634399336611,1.546399249927914,0.5100234197026715,0.010551414576745983,-0.051547706298299134,-0.507873673442678,1.40611441061207,0.17552890066698087
-0.5155036625978358,2.0182679963398424,2.9270142985744565,-0.31080672949765153,0.24455561500995462,-0.8567636653404505,-0.2707650610622443,-0.7133608709659993,-0.34535757295447234
0.05898813395961436,0.8690474728610702,1.0174031382583353,0.17557933635006073,0.4924802191838992,-0.9689788239705357,1.2889540253451173,-1.1028623146062304,0.193158755972643
-1.4687165445413517,0.5180636130190386,2.4497054840482955,0.055304500706105736,-0.061061379289998025,0.004761377533213762,0.2603614219200143,0.3202275849602597,-0.27021340563466784
-0.6522212962626049,0.7659072158569045,2.255650708305806,0.05091149108926219,0.14456333698190582,0.11834649847678774,0.9700063096278525,0.1546296882150955,0.17872103005439258
-0.06763420241747961,0.9185748197919694,1.132534692551435,-0.041052778832333485,0.005724066552005867,-0.47782753799803707,-0.012853968689954568,1.0161701268576575,0.7808955921060443
-0.4686065643387978,1.1770576165212894,1.5836247182264453,0.0622960639453268,0.17873559693636482,1.5698120405721765,-0.6471663121304653,-0.9490645083687377,-0.07678245392383982
-0.05655811244120826,-0.20234329146192032,0.21423164971045994,-0.16272648572378437,-0.4538040036826212,0.134976584449178,-0.047778255782622514,-1.14461882134237,0.21082757537217914
-0.887826132892047,1.684102587064405,2.2496986345110677,0.13124139766840842,0.9431913751668195,0.9425687823825527,0.7911913926164962,1.242912546620851,-0.20829235396703297
0.026093795175753956,-0.13789329065706563,0.30055022927867214,-0.1484928492626218,0.001995609649868778,-2.0576255159216306,0.027821200756132553,1.099651067183613,0.412108332111449
-0.3850473687617722,1.5640170843306647,2.7548212170439954,0.569789370370626,1.0484308824145812,-1.0951747697569543,-0.49931627954534785,0.20861522450882972,0.3997717542307352
-1.0127055469832134,1.0679648579173504,2.2113467047874904,-0.34742064985989135,-0.08036385935278058,-0.10131543647725061,-0.19838442948903387,1.082648812706091,0.5487318831577326
-0.20824942933160795,-0.6906418040015251,-0.960155674467144,-0.21782002506320158,-0.6599297491030816,-0.8438730598785102,2.0118775341911417,-0.6256336101389954,-0.3398941867736162
0.3083798946272897,-0.6417558684802217,-0.5936403263526041,-0.20686333258868922,-0.6053919238675528,1.1544805198440993,0.8714387358185135,-1.5948706721600863,0.650868166003337
-0.00020671931203188206,-1.061168675964682,-0.5470998821020461,0.16637803817662244,-0.6505155167546425,0.34479777971078146,0.747494069280132,-0.6835438157913079,-0.46936240088961
0.21943478591805646,0.18382465689469418,-0.0001333592672118078,0.16798363784787,0.7737442980923949,0.8079118467100128,-0.013165807248972261,-1.6206519570266673,-0.7126883511826885
-0.9300400924920144,1.7996970838518322,2.3960032262898423,-0.24209503859125403,-0.1551051042770938,-1.297075290559121,0.9021852974909624,0.3905254716112433,-0.05508175466288497
0.3626884191888293,-0.22960892894183238,-0.9546245694005364,0.05771739561798646,-0.4543316960698276,-0.1621296841503589,-0.120192346516887,1.166645383676643,0.3630945625927348
-0.4086959788175339,-0.4695137133155315,-0.30148150718859956,-0.43783699829502354,0.2957217394755489,-0.06417274244238358,0.6462329239635951,0.33161200990411555,-0.30681400971188444
-1.3447568454700718,1.530567322566977,2.890239810868105,-0.6580581362026096,0.011150946186845158,-0.18344322946780386,-0.04186924137908087,0.9151095231828649,-0.6358322783477534
-0.6267099881381889,0.36219199324435525,-0.03317152020712322,0.1440088291038746,0.37109863672404886,-1.9228202197869646,0.5126907570634901,-1.9305989218435526,-0.2405703824916189
-0.7613861685938753,0.1725325999589312,1.6681716187218738,0.03227172156354884,-0.8275637944381027,1.0246838692546048,-0.3666746506233163,0.51077669472926,-0.6624362140203237
0.7360654347104045,-0.25279415295150637,-0.5122293143113062,-0.009612847534477085,0.4840487529669578,0.9728061847997822,1.1550718304257002,-0.4088454126388319,-0.24817784517089211
-1.100375816050089,1.9837027328870078,3.2168537090030567,-0.5868325275840539,0.812135071723808,0.2435337197382268,-0.5514131213998781,0.27079887847863005,-0.2513680310671444
-0.1774474871746164,0.7669890808550128,0.7791628929912138,-0.3864427946213528,-0.0820984530445761,0.38982810686049485,0.1659801102622179,0.12576519682657114,0.17180371643576642
-0.022097539228878527,0.4161082820073967,1.6758517990998558,-0.24488541446220446,-0.1291296901403603,0.8213966719752956,-0.2712194479460275,1.2296292644187135,0.5019890823850777
0.4025347470971893,-0.4024760400087063,-0.771387951996985,0.7673468081656049,0.4092329554487034,0.3652163224797522,-0.14109503947304694,2.6844037747572096,0.4552955401596701
0.10874103604140312,0.05579104212260888,0.8608295709201725,0.551388126874601,0.5774482767317547,-0.709624873483228,0.032586014640176804,-0.31519225129333495,0.3050279449994342
-0.43901925698072825,1.2879771639742466,0.8705004207138896,-0.012677217340341771,0.9095954245107172,0.14440199470540052,-0.5207433643889089,2.0074974297010315,-0.4967315843023258
0.6463202413795417,0.030361923938689948,-0.5541577125985232,-0.12991951283598027,1.459593630325407,0.1159785230837902,-0.3067686401187337,1.3887920358381298,-0.2758741030336656
-0.4922738762274471,1.2690834782789826,1.34184109913241,-0.08323675681610675,0.6347766551392092,0.9998899824474815,0.16726479027822191,0.12972753801181353,-0.19283693166122715
-0.753883562678754,2.298465855515073,2.7343959867052923,0.31504111484853925,-0.6247371351907819,-0.5293454800777224,-0.45073012357329806,-0.07252988152606415,0.22189092060565693
-0.6742731536961993,1.2914542475510817,1.9233700143408798,-0.22186635565645635,-0.03585511889268293,1.831757969053561,-0.20496548626460231,1.1894090344961499,0.05037157008690937
-0.2840422558796861,-0.6279924673200747,-0.6393467743810526,0.40363629251904815,-0.02953074766435674,-1.2992897434853652,-0.4380112393017428,-1.3723560666833983,-0.7949045335948777
-0.7151565923163942,1.221598301539195,1.4946414487853863,0.28575980240260473,-1.1934131564390595,-0.5910110908524268,-0.8957505570854345,0.41091187725601985,0.18959305880145239
