x1,x2,x3,x4,x5,y1,y2,y3,y4,y5
0.9992622000445355,-0.5808398668203937,0.3019986955858929,-0.48309930616563646,0.21234607779337195,-1.2979806393504778,0.20896880885199184,1.5013198275430641,-1.6942695936607686,-0.2634796199970649
-0.6345030380939296,1.945543813601752,0.6007235242675388,-0.11915150916904227,-0.11744596186027027,-0.9208982030180001,-0.22642301345951893,-0.02246007611632731,1.5713418282084133,0.4996285731752218
-1.4450426583335556,1.7365345972032729,-0.4831561156224312,0.12977642682365448,-0.12700021683761356,-1.0869531103543373,-0.4242708544239188,0.6726486460386203,-0.8341043866961038,-0.3315631072575422
-0.7502470742224691,1.4769444844092936,0.029388916866045812,0.543457201309119,-0.0660439295573147,-1.8453820733177433,0.5958673182299066,0.4308736942518073,-1.3282911045260113,-0.14947880648304518
-1.4030931170143481,2.232609315365797,0.3320087943607999,1.165880533800666,0.14930840565550896,-0.9506466371111455,-0.5948923935746707,1.4693415934912106,-0.7197454743677127,-0.7071939089763256
0.05892314739764973,1.3449966159242877,-0.23385153115097307,-0.9546047128526337,0.04532447393722341,-0.26871355060021396,0.22566906928741057,-0.4778455891357899,0.29518271159600906,-0.021591052903428543
0.524853613450715,1.3720964661380473,-0.46333304318924384,-0.21023258557723343,-0.10529454072292406,0.35410099189990973,-0.28370730765639834,0.5374867896957454,0.7815407708820677,1.0455161154391068
0.6598725454156359,0.5548833964653839,0.43043541851501604,-1.4788356851987163,-0.21205750231872478,-1.5238635040925723,-0.014182675517169101,-0.05460247991007867,1.353842865325951,0.4084306042794301
-0.8474142277413946,1.3384038147075255,0.3195090670451951,-1.5695097604890849,0.17086513308807524,0.7437369094496527,0.0013389649339091774,0.2643673148330329,2.469290793730627,0.12292788678293522
-1.763361954452897,1.657837339641798,-0.17692718812904942,-1.721549508316007,-0.1969360414997814,0.5395814857198188,-0.1480441568856592,0.4926267049215158,4.721311699394216,1.155669841907608
-2.0747935136548445,3.4507554267662863,0.21266028020159528,-0.7657904468994718,-0.0035968434279320723,-0.263281662541025,0.46290101176901044,0.6119779260387279,-1.4018516333658373,-0.21938555636628196
-1.3146653899501086,0.50079173403624,-0.35084268066432805,-1.714225196169026,0.18202889869214484,0.4156227066830669,-0.6788929666262925,0.9259094038855481,0.8149096760983945,0.2881169338265094
-1.5378240227574993,1.3853062228276758,0.04673230352945245,-0.7093913749093256,-0.05393909614294982,0.5883206462842198,-0.18490751371990363,0.38159132793807815,-1.9497853679257195,-0.04488765995494791
-0.03689646004289673,0.4025575686172551,0.9972433992801715,-0.43029321466163795,-0.13750846647068668,-0.521542090625515,0.5849950954485671,0.7804355956766112,-1.1159684266033516,-0.5931726665809245
-0.9908205812545695,-0.19310882541033147,0.05115813598606982,-1.2052084219590227,0.24295396173908,0.4108591101434225,0.3923379210569514,-0.40995649688909336,2.406799493291791,0.4924752874649777
-1.6898967808532013,2.9885930432395007,0.5899446992698015,0.4341723387023124,-0.3218881532057654,-1.5815486264617966,-0.6753889071741693,-0.12247481933982118,2.563880785856581,1.1200605622747473
-1.5857850565484928,1.561080192906315,0.6801684038987369,-1.0212336703816076,-0.24128685983479475,-0.9382052129572505,-0.6435766410163997,0.7516932658154178,2.8750564366582827,0.8067934562558841
1.0970866442128298,0.4997258555974702,-0.18436710626766967,-1.2264427735127388,-0.14670958404521942,-1.6289695052473925,-0.0762742802829492,-0.3405440365185809,1.7624601325497244,0.3622971953524599
-2.24904821517,1.702297483714315,0.0342694647181999,-0.056238339315838215,-0.008509834434061487,-0.9441072373044516,-0.7436320198737795,-0.40452071792434824,1.5128134478277784,0.7051177466570708
-0.3567734338974264,0.2500752679217144,0.39741510477678776,-0.34155834557364306,0.12149201296829194,-0.7728098371787846,0.09954228373521357,-0.422678991441609,1.3318507354990663,-0.19122773759906822
-0.47464237858701197,-0.03230520276556459,-0.3116412496176691,-1.477624136316893,0.05740275561662174,0.04886907121662348,0.07151872864112561,0.6269702870563808,3.806533867348028,0.650202803755773
-0.43963689919330523,0.247910335486222,0.4029285968509255,-0.2512838079466852,0.36481405687118873,-0.7461253863210259,0.17863293428001356,0.8039242280129493,-0.49503849194699895,-0.011120501198177027
-1.7209140821732662,2.2888077104017817,0.7634022485640883,0.3896435217429855,-0.01976956399664732,-1.2168173421923663,-1.2181686298950833,0.9629300848941914,0.19069131640533732,-0.3681101367571674
0.9223170413607902,0.8898078017491899,-0.4864275737181562,1.08395071283809,-0.2576702776052664,1.935102918063845,-0.482907235232087,0.5193422467603757,-0.03366213333603685,-0.041601859881508475
0.5293882365410753,-0.85356769392998,-0.24196096553627125,-1.4710415305731288,0.041559517731854866,-1.3378725636412785,0.31371891282314723,-1.4766045600085163,2.442230230589247,0.9404364572937938
-1.2675856259820684,0.9862504048050318,0.7641811159021954,0.2060060296047631,-0.058426615754020125,0.8104812781152041,0.18697486107572486,1.0445040157677956,-0.7957030153129763,0.3307149904566224
-3.014512250103199,2.6942226637568107,0.8288277169201449,-1.123320882284807,0.002825578975962242,-1.0009419394713033,0.19675129814476014,0.03025645028717683,4.354710486858771,1.258000508717627
-0.5311612758513572,0.9306871383017186,0.4288531675125821,-0.731594422182184,-0.48734506546072115,0.07967392140040042,0.3100143867806559,0.23974984503190988,1.3002747310276608,-0.040252204193992634
0.12414293083664579,0.9968357160645562,0.26697637030290294,0.17992396145240885,-0.10208622494256675,-1.1688824626667063,-0.6191822369841098,0.17542277278773216,2.9624210787505696,0.15395499910863442
1.2060320786354088,-0.5188941098475921,0.15896162853231224,-0.010520857279721851,-0.30244443633258344,1.2385221108847553,0.17522541557439048,0.4015221340500591,2.1881752106661927,-0.17901333279738257
-1.3124180886793877,0.993371383066636,0.09044426443596294,0.5056450470993931,0.3029550073314792,-0.16001736071479902,0.10239706826051614,-0.2509698259255787,-0.2567922164217168,0.376680229903055
0.5430596170961728,0.304942374142819,0.09521846251437789,-0.6993793390041918,-0.001927405022510678,0.7113226598212189,0.19058398553553985,0.6750779886514136,0.14346906303387796,0.7441399743970184
-2.7173971397270424,2.9623319297886277,-0.3005437989351935,-0.16329334403923457,-0.1055926609697944,-1.966931376863294,-0.6555415544882266,0.395005421439575,0.7027933211191362,0.6988420634734572
-1.9932513699142949,0.5138249781513373,-0.0541567027670927,-0.06661174719982932,-0.4190705091169913,-2.59710921612713,0.005991373083655397,-0.19288111919958548,-0.17635593002644323,0.14036741452841087
-1.7834937241024333,2.180398092201591,-0.07301640018237719,-0.33876184368489054,-0.028329017522210172,0.452831755568633,-0.18152329678430523,-1.0735637497185246,0.4381815024422894,-0.18896323552379035
-3.3923075510533023,2.9431103265816265,-0.4017670651157601,-1.5833996406889805,-0.06923097168443952,0.09550957408798239,0.20160843653477983,0.2448610736846935,1.0540152486381662,0.2829861481861197
-1.906663453530592,3.202820508340994,-0.44619753431915304,-1.7039021588156607,0.12978097906208752,-0.7432941220687318,-0.7146804555084691,0.4878162876798503,3.1087822338270197,0.8179433362451614
0.6617931149518801,-0.8671510577342865,-0.51215259586712,-1.0609569360817401,0.4360131026855528,0.047891605651820796,-0.3656362256764001,0.3399152640141832,1.8058904821370358,0.43982410338303096
0.6843300536678214,-0.9903419769495895,0.7296890582011636,-0.9424141427903763,-0.06618179799351066,0.11018276053484685,-0.02226609825149723,-0.12550256370774163,2.1736788613151954,1.0446124825311003
-0.665949960132954,1.5767274024821836,0.9580147105274366,1.0684433977703784,-0.1251148126725053,-1.4556206080842162,-0.2185147042998855,-0.46435466530834923,0.3303973906616377,0.04137087279051475
0.7353271822466176,-0.8027115849441154,-0.38067653939384294,-0.44915275821806033,-0.5261279062952638,-0.47614319023399865,0.41813107416577927,-0.49020305482094095,1.4008418286778421,0.1516734150849034
0.39553593486966115,0.37387164540538653,-0.3795651989119018,-1.7031264651176403,0.1302735934637612,-2.2641940345869194,0.3191096645810193,1.4151773971612882,0.9704503900225658,1.0029005772303345
-0.016784272046055614,-0.770282919465158,0.13100201088341915,0.9057099912227576,0.17002654736242898,1.2342500332888013,-0.19735417159477725,-1.0880151230328787,-1.6564066193224998,0.10647987511191556
-0.647289435104248,0.321899130222701,0.2555704116167076,0.4913005828664895,0.3087869080169436,1.0541265915650242,-0.3855597887379795,-1.2141879885427376,3.172048754439998,1.0543149118456923
0.7337488760540175,-0.07977576084675209,0.2689256781444096,-0.9580697799731934,-0.1296537539163061,2.381307282572927,0.5165272639956701,0.32892847805566794,0.6400925795285304,0.33280684152401485
2.187935915128576,-0.38060061858883454,0.6405916189062386,-0.3252944950780452,-0.11473851583937061,-0.4244218894509727,0.13362685450272385,0.7625890793872422,3.062113071007356,0.7044855176380476
-1.2162295813707382,2.055560254377347,0.611797175163907,0.3479837658836557,-0.3440661575356908,-0.5800738833914421,0.02188083682110065,-1.0782767512899276,0.4920392852064996,-0.05882848574373063
-0.4893378397370523,2.1844665473606217,-0.184374316976835,-0.746977071624241,-0.1368445395689193,0.08579180067064235,-0.34891795620303734,0.2308573741183833,3.217034429981425,1.090280029814316
0.17981941542245242,1.5236339452703573,0.357747710673352,0.692282775275725,0.061793436182044116,-0.6045784733985275,-0.3168204947229676,-0.03257887914620213,0.3108165423947813,0.16879501847531497
-0.7584701707593542,-0.666864036375578,-0.7782567808975092,1.0206012750691174,-0.12966518354493986,0.8689165211229755,0.2752555049160936,0.4996908346892963,1.813550829903165,0.10232836835792522
-0.4511349465073291,1.1868430954303846,0.17932338209819004,-0.06793674392651505,-0.046252717321823913,0.21859538696504144,-0.6479942639852037,0.6939740332915295,1.6079458540592064,0.4211350707253705
-0.12450198818204557,0.07171729055024789,0.4032726910607436,-1.4215531685334417,-0.4718883710970766,0.6278828217377501,0.6056227722470212,0.596917755290353,1.6545516855740507,0.9671393744217697
0.48795275309415415,0.7550741054550782,-0.14412137909798203,0.15710543919851844,0.03181139049056598,0.2111970444766442,0.7361515190628724,0.4163740157498096,-1.0519396044875395,0.05921525091537868
0.14334227699804114,-0.9272429307951888,-0.23809352506699413,0.7431002605989822,0.33214286319161845,0.7224283572390138,-0.38866166420465725,0.8301235658734375,-0.07359653332764493,0.20283568571701996
1.5052206168880389,-0.5044377728710607,0.48866522402829726,0.5336488164625011,0.2842102319207828,-0.6061393486089068,-0.009752387588814993,0.5284650356086977,2.167855220535549,0.6455659052219088
-0.45989164591588116,0.9820128547780484,-0.3023402876577556,-1.2158709215298118,-0.025749889705132742,-0.7661985818029343,-1.000090397809982,0.5425808820632366,0.8385628320173497,0.25875441753153516
-2.164923258628632,2.340653853323658,0.6852506864761964,0.27181660532464746,-0.4485871444492704,0.7827288213323216,-0.05138029917862387,0.9557643754402105,1.1228767782552065,0.3004131187738084
-1.5333549018782116,3.1280489096429287,-0.4548162099857632,-1.18388883399765,-0.08400247296405387,-0.8141615273478049,-0.22507343048411116,0.5867396162372394,-0.2721380234711398,0.1461465139330164
-2.43062312831872,2.5600916285903867,0.5561483472534163,-1.4768764067351672,0.08644199074045322,-1.2506095160459516,0.015413725316422504,1.2503680564833852,3.979340575226362,0.9908959582260274
-1.7703925365228455,2.095086620378217,0.882310338570149,2.3111177084730197,-0.025431262753602118,-0.7812434001406049,-0.3144769680979815,0.7667433648628531,-0.9349022749798744,0.07630835048222495
1.6539756187107868,-0.10311041665917509,-0.5015729041747339,-0.8910424473667216,0.12772090720674215,1.2892692200230833,0.6680184872148754,-2.0925436958162944,0.5786705236443376,-0.020194722295266004
-0.03619125972259479,-0.3144371485015319,0.3804895901601741,1.6247921148547833,-0.3019992997850018,0.2624539242496788,0.3852708624054803,0.39027875630578457,-0.8594425898427095,-0.30150081326325273
0.25549599526446365,-0.4426362509083209,-0.0744684035906647,0.5114062982139562,-0.2710720435928289,1.3249388263517197,0.18159657560811482,-0.14844054996505515,1.0485586260407789,0.0692164221584204
-0.7748953350349325,1.0534369073963905,0.233092561271318,-0.5301765807203961,0.8201192934290112,-1.2659931249737284,-0.16278256586547116,0.16612612247059388,0.2785811949444835,0.29152926453819983
-1.3618132649622208,1.4569384194651027,0.5827738803893872,1.4513008353644314,0.08933435523128674,0.4101409471156769,-0.12847299695705483,0.9232907358915833,1.345564819485771,0.4651844700852435
-3.7428463158377467,3.0356335659281877,-0.17474080314559162,-2.0956413806490675,-0.3316024116773111,-0.5104511609889367,-0.590506730353171,0.9531199712987604,3.8335669067653217,0.39672749983019473
0.03965775103938298,-0.037088414549287796,-0.46521547095884697,-1.913795038544142,-0.10480884200336858,0.4925172035386939,-0.09964383458938321,-0.36019594525978094,3.29260263821186,1.032843343354536
-2.257804599640705,3.118566559376605,0.3679360469069483,-1.3147505519450986,0.026714614261753818,-0.20176349151981243,-0.6265530323421264,-0.06796796727033946,1.398225712343761,0.8589933319777304
0.6696962835333583,0.16469677932523608,-0.3029957340500794,-2.6133876312706925,0.14994295527578552,-0.5666137357130119,-0.37683039482864583,-0.34828721118277534,2.3636102502567042,0.30791221362866245
0.2481186137426612,0.44044448156650784,0.1807131423544175,-0.8901197857003921,0.13229034294592612,0.9199881063595496,-0.05099026445782782,0.2535687038895788,2.576590510167867,0.5258372889462719
-0.9865311354664597,2.263509729312849,-0.35711112352397667,-1.7315245008238966,-0.1927491410099212,0.0005768330289254997,0.6647039292556015,0.4147788563348706,3.5011319916266395,1.0168721068860591
-0.6197558195172213,1.7911540043901701,0.5255913692763844,0.5358761302326521,-0.01676990325072545,-0.4214660970573485,-0.08914208514878341,1.2097858476871468,-0.6746802335381314,-0.50393134676593
-0.2271374229526123,1.1961293357388283,-0.07974645738992366,-0.4065494028463263,-0.04503974099007323,0.24855720184951774,-0.9259996210588693,0.2553711432595991,2.3822197898080444,0.9192163511478502
-1.9921126333006742,2.827416719953012,0.009772187160612462,0.04545180334457355,0.04738481218979013,-2.2496582107935885,-0.6146380282575395,0.6896778165754253,1.1311000035155176,0.2216842714135671
-1.3132723117482976,2.0635257273042082,0.5304266831429523,-1.795772622060697,-0.31516613181889047,-0.22772418892443086,0.220136829775058,-0.5047260903759648,2.599020572888041,1.2666869290163658
-0.7216862276791011,0.5702435547035987,-0.2466114054553153,-0.78726536258739,-0.32554768609762347,-2.337074264053156,-0.3309110609377074,0.4526949451381469,3.319147078443028,0.9628886044992645
-0.5855782136480194,1.2244001749398858,-0.008641339504695316,-0.7907233844406213,0.044133512555698196,-1.335871830737319,0.44686218631698554,0.6088503577281587,2.6391720625149357,0.8851524405002771
-1.7396700293912342,3.1592219069758114,1.5740694335873644,-1.353497709998289,0.22270626580789984,-1.5084035911953761,0.20508361447363027,0.0805357294935916,2.570619448301901,1.1885877101382385
-2.1831061199082313,3.2070745165906303,0.0651692723192453,1.3180127766934042,0.12168896326455596,-1.7618116670597355,-0.2648812635408779,0.9543794480734353,-0.5322743573850113,-0.11774392469339554
-1.7705079292044763,3.1157733600853756,0.28440413411908944,-0.3686532761161497,0.28479184675995234,-1.0149245257129407,-0.3154501429980071,-0.4676476103485571,0.7890217421679963,0.12037776791925744
-0.5504263382916366,0.3472342017702714,0.2328165789687632,-1.0788765353087277,0.12171235636506776,0.8217102448709982,0.21321967903707487,0.8767256886236491,0.9929286610355809,0.6180764916339009
-1.167105954918477,-0.1020858449996126,-0.16651348399350172,-1.9979274400406806,0.1956286791337851,0.8968759597925352,0.17972412814781172,0.5507232721515033,2.3614220101163217,0.349155076174052
-1.7798457238329062,0.9079130222336087,0.0852814657336327,-0.9145711310706104,0.2956438609374318,-1.4220338954969234,-0.28590237561910886,0.16270709384358809,0.8446084024995509,0.08439418030804899
-2.8333344199519876,3.218502964343452,0.3409008815677962,-0.21836179838520742,0.056022668743812704,0.36041716579219274,-0.5036677320059,0.17681354198573843,-0.4530270604138198,0.4882234805350959
1.1722075290997722,-0.3378742141323202,-0.3828069363766786,-1.7807625464096501,0.17655363536052146,0.23163202479294975,0.7816119136118286,-1.0134869135073612,1.1314436234932639,0.5748431366973136
-1.6722146550285353,2.7229061684694003,0.10209987133341775,-0.5957870832301218,-0.057601962264306666,-0.9042749081964643,-0.7947589911825332,0.4827763668665853,3.289102448820661,0.4490037339466707
-1.4786764348017458,-0.41471384309133796,-0.7258594314464476,-1.3435639466850615,0.2864310012955139,-1.2963826505148963,0.04189486152890484,-1.1839699079140855,0.6290908761939298,-0.2158754249282382
0.33517360662682605,-0.34698515197399726,-0.029417875707949095,-2.0064091176973657,-0.32962243760508564,-0.13698012315752517,0.12325293003682315,-1.2581918310176485,1.085311087260446,0.21302992236609
0.1880984281025225,1.9308833589726713,-0.057468305864736724,-0.1423618057934719,-0.12250560540779185,0.5547272543850188,-0.8438056670600887,0.8552941966082005,0.5873658585523804,-0.08334738230353037
-1.901703225563928,1.465118932824561,-0.41499472947080307,0.8175938966182297,0.16784783704268116,0.5538680473324582,-0.4257366197762985,1.1336883833367386,0.8169264392297038,0.7148595201542552
1.003429976973038,-0.5187836358806437,-0.01203719599034638,-1.2584905297908584,-0.09522347211788293,-0.8111130689251231,0.05899597585283948,1.364345150326801,2.8843329820449592,1.066101077774882
-1.8566929923203284,2.5924722471124513,0.19157240443678236,-0.6192922589146714,-0.15841419888511765,-0.8938384781212851,0.1366184328281032,0.16560863189860903,2.1531741376150464,0.4701249549574523
-0.16435868169515408,1.728490532776132,0.10540419707983543,0.3657343550869671,0.05328950316583926,-0.3945397613218868,0.026375530157883024,1.2597253960375605,0.2959898570177241,0.24800836696885298
-0.5527349972652589,0.22792593842863718,-0.591715513567158,-1.6520501532495362,-0.020567731735151813,0.6560326922037047,0.6654263741580594,-0.5649408342320635,3.833433185070008,0.8189446133697175
1.097698339744128,-0.4012544078647984,-0.19161439905743974,-1.6356070503494153,-0.2013297730272792,-0.505354616879517,0.2570086201979209,0.7056624662994172,2.644468496667837,1.0692970536398143
0.9365251730144245,-0.02285317788936314,0.6698859954824438,1.7582498812346645,0.148578661236232,-1.2511809512671035,0.027615129608387346,-0.18859057759956632,-1.7863162772074495,-0.6130898279576874
-2.9679973531591752,2.864050739576972,-0.09091233369064933,-0.4897641683035388,-0.27816793638924575,0.721669024732569,-0.25282131239122957,-0.6616641216251632,0.08474883168402303,0.6331362219513128
1.5661223036169452,-0.7939128684572546,0.4294293369928223,-0.6011992398465509,0.2127733933280057,0.8387959130915964,0.5004852476547587,-0.05900252400392968,2.651567799340241,0.9727977040460952
1.2942848946509031,-0.7993088870282099,0.024207059617206227,0.1386705734812279,0.3088729632196173,0.5930425828675719,-0.05542070885226451,0.39600174809573824,1.7429764700439874,0.8604730999174056
-0.7346959521354329,3.045773292396114,-0.5474413403517638,-1.9036767744715468,0.16867035740484596,-1.5629907262262082,-0.27162048757384494,-1.3460211799592914,0.4245694374780924,0.8012329511539797
-2.8192117166148654,1.8230392096609367,-0.0812175809014976,-2.0293941733704752,-0.4893079695709576,-0.5833809545433639,-0.047287230348711864,0.660173572884538,3.46813268870665,1.0138859119299588
-1.0547804739155406,0.747373266289542,-0.4290552757936693,-2.890526331371785,0.008020622495408566,-0.3459818800883568,-0.11160047748993746,-0.16016058810265485,2.0435781944891325,0.9036131497964626
-2.2190241261331334,2.0421293799959304,0.9873353368428521,0.3002556239375266,-0.02271530847563827,-0.6586488389441048,-1.420024745537728,0.23636620985996867,-0.946102749365594,0.4076859890323529
-0.549002122903775,1.473858248249714,0.3654928097419221,1.5016748239440756,0.024757733745406123,-0.6335695666557614,-1.257386597140961,0.414268571059246,-0.30820546816007593,-0.27982677059740974
-2.3205513671531013,2.8610492845539865,-0.32496220844160667,-1.1789948270183195,0.054158572581398286,-0.173728877799457,0.3003501344843825,0.33129905171657986,1.3099911637306885,1.0351720588343716
-0.8989261601114301,1.1343610006121265,0.10154347762108944,-1.4594927103882185,-0.03815771435225576,0.8738437554809502,0.04043705933557458,1.0125255840844256,4.282485383342501,0.770609727434949
-0.7067596878249147,1.369046396350463,1.1278968991520233,-0.4918079199605787,0.004871792359641798,-1.0802528395426776,0.30462171417981826,0.7204442906419343,1.688226427663984,0.09922315826771694
-1.338878403966345,2.7863911198251614,0.42564641224295674,1.2709970465506044,0.11676803379268395,-0.008797996500143845,-0.8067773865372203,0.262171189826633,-1.2728408790203538,0.7911811802882117
-0.5485669201386499,0.33096384106996735,-0.25858878982595773,-0.780769693898596,0.06397018985627898,-1.4176914426465936,0.15526343507642992,1.5141855196107061,1.4997767952222572,0.38947906892001233
-0.3851458244481839,0.650770431885495,-0.09180542933842568,-0.70221907495904,-0.27440527189125863,0.35542685777511596,-0.4483795637169243,-0.17783705365088653,1.4842213415516141,0.6607907432643967
0.06496581709652907,-0.3730144178607111,-1.2281121948163265,-1.042880273099735,-0.3587672569920766,-0.4117561853008025,0.2943816621089175,0.4616044359247727,-1.3409712663182347,-0.0398296370493791
1.1553114084893563,2.0648779532639376,-0.31614040832908424,-0.2866464484439721,0.32528969761333554,1.4553671168473672,-0.17296400742969634,0.7156876610699437,1.1747324786075768,1.0465047236262783
0.780084037971891,-0.23561565644099758,-0.008344572272605684,-0.14932241551707423,0.4428269702140921,-0.6685742007276012,-0.1991452073822234,0.6358186198605705,0.403000466709038,0.4930568679341221
-1.8479260703527964,0.9228469379610358,-0.13148549330748152,-0.8597188794204321,0.6898894290594596,-0.4406015342996107,-0.04564770479155904,0.2572777350697194,1.191313398941203,0.6244024310875529
0.236429414112536,0.10240787537980789,-0.18506037943349268,0.12180945948652301,0.27628140279117047,-1.4938199073116678,0.053242046103878775,0.027935708555940013,0.037635193963223346,0.5123344559150128
-0.15429553704867427,0.06619425198201223,-0.10814224208286807,-1.68149581805302,-0.30894325301009884,1.2666457659488544,-0.554794176308365,-0.30659296752429543,2.1488434058172974,0.3451058143355385
0.9315324303185497,0.3612446443912476,0.7295978120514967,-0.4383398394115503,-0.24958370856616166,0.09039546600239162,0.0852487816842126,0.17811512154527098,3.3730648018952185,0.8719075738958382
-2.3399613013487865,3.2305928833368966,-0.40989689675730906,-1.018521855034943,0.15171627053842013,-0.27346416453919087,-0.527599172899768,0.11148663124515504,1.3852592597473217,0.33650502552440387
-1.1690601511548004,-0.3814059926699406,0.029072925155530307,-0.48646634442454845,0.14400323621522637,-0.0636975209387608,0.020160136509827696,-0.8560598009300641,-0.9945833225816594,-0.4086313955069622
0.5088793804973213,-0.48595586852605366,0.326270072007007,-0.182359032291105,0.4981589941547958,-0.36469976158724005,0.4264236063837215,-0.17167066774952494,0.43596945215570915,0.39721807734083536
0.46631917077040225,-0.3663775241285817,0.10971484429548413,-0.10164606406267512,0.25190092564706174,1.2774097975020682,-0.23240438433486346,0.7321249474261788,1.7716476919563298,0.5994431114987454
-0.30985624607959983,0.07181500853896616,-0.5529593280438108,-0.4489869688994923,-0.2388061791325711,1.525349959932334,-0.5116052566235122,-0.22636407866981106,1.8952105694855639,0.5971768768908664
-1.682949522660225,1.974559162780095,0.31521879471217445,-0.44858554574006126,-0.29498820094061257,-0.8901371813501651,0.24173537900034722,-0.7644191386444605,2.9534698077186627,0.6716330078448252
-0.13159528327620948,-0.03078553818984897,-0.5560899509717815,-1.0364211230427254,-0.1744848877393653,-1.8053083078381842,-0.16642629991593097,0.2957983004236777,0.5414710102800049,0.44339739549750934
-0.4315294438339305,0.1749901098502622,-0.31447231607316173,0.9741462386689761,-0.38977617913546164,-1.2640949948449154,-0.07764934568032746,1.2070207075468835,-0.12028871515985962,-0.007529803510568971
-1.1678521476017567,0.49740486075990464,0.5536019014135234,0.2403896865392603,-0.011098739241646897,-1.9658846848510532,0.22713623643573047,0.02021655131386398,0.8531431787939305,0.26386961184319185
0.11982098842560691,-0.13346589822997068,-0.5627866431232781,-2.2146278310012653,-0.03582670333422732,-0.47851266630087885,-0.2264213410218824,0.2177869409022298,3.2075006771278654,0.7919123393541151
0.7072058515704452,0.6428293515607122,-0.7761978792726827,-2.388511325535865,-0.0017023839239067176,-1.7728169891416867,-0.4260798426908518,-0.8552929380426673,2.337092898672727,0.9394186166201998
-0.746515870547508,0.09767891028816011,0.31020707436455136,0.5864246517616861,0.009880052404536053,-0.9839202874373896,0.1480353459431403,-1.0961893190102092,-0.5658631194327173,-0.38556009895810645
1.1024255415748192,-0.9270305363501126,-0.2181112643631873,-1.0815699879255982,-0.21003928557660917,-0.3992145580491199,-0.04030869543966319,-0.18215536086033077,2.1516154685256215,0.7508561305012295
-1.3735322685798648,1.2498533868919077,-0.38034712301109175,-2.332139831804097,-0.14799932424824572,-1.217866825419609,0.2715374998743548,-0.08692220320125824,4.126496111886425,0.5300021722594929
0.9669036869788795,0.48026108460537564,-0.4432775539037951,-0.10605725287543871,-0.1812136090893964,-0.7957735497281537,-0.748362585374067,-0.5851358376685372,1.7078523080358403,0.6851249958354168
-1.3644255896746023,1.9394350455243154,0.3322712244229369,-1.1804367902656834,0.36490852369839755,0.1521367363633265,-0.19474971589285148,-1.2222448417141447,4.0512454600795085,0.9334227087052196
-1.4477613846035222,0.7251759857940603,-0.0445207854933338,-1.911898799686174,-0.09477228362170051,-1.0584752337518086,0.23459811978908618,0.6725375833839249,3.416627155611641,1.2017595523392122
-0.5567545848269879,2.630206596331987,0.5149325724814272,-0.6368588680841117,-0.11398204182826052,-0.37241460380829555,0.17050411481605973,1.2565443852349212,2.940268947154789,0.6009522660787695
-0.6105434861441158,0.7733065167810564,0.43030404349031914,-2.2112359057665776,-0.037919019098665505,-1.3576249398278237,0.45490065304696803,0.8670777788419369,1.002430179976391,0.48299227127865935
-1.5015477885227126,3.0213761066312417,-0.4261180363092081,-1.5763013918742512,0.008753009154590551,0.09415779179761974,-1.022744804110272,0.8108863970232569,-1.4443211293778042,-0.13652439439668584
-0.5109668770659115,-0.39521105435213455,-0.012780719330557046,-0.021846470567432608,0.21654131173742866,-0.5785917196746012,-0.49504409011791783,-0.06839956033540089,-1.488445761202709,-0.041040618950279946
0.6031840706130723,0.2175777238115788,-0.2529042854210483,0.9516661974007847,0.14084785742152345,-1.4026145059153947,0.2656347536587845,-0.21863720967794603,0.39578033396409873,-0.06141030112968526
-1.5241337591869106,2.1027508029661086,0.23931592326694384,-1.495490579433274,-0.403932604449456,-1.147045326190657,-0.6061330128020543,0.6004753882912435,2.3868710855890516,0.8006925348086137
-2.1669864559530008,2.5841391067563544,-0.22075528656775653,-1.8866516376865956,0.36856605139177295,0.2134249639265502,-0.16630607259915117,0.8763332465458258,3.3174015972499706,1.1429686303437834
-0.3847118502508013,0.8058633680734997,-0.1776037776687,-0.4391905787824642,0.18673921197571594,0.31282842507201436,-0.5619451961689061,-0.026732628502045264,2.805161185255491,0.5605584438091693
-1.016373657586146,2.5383866600125033,-0.5439902528733528,-1.26147312664559,-0.19282690844875777,-1.2098614320983065,-0.7943531600163134,0.7001843244413094,2.492897861625787,0.2967646767917142
0.2141695821958607,-0.04184241991595572,0.6906572107754727,0.023992560133002216,-0.0907216079132297,0.0014561422999648521,0.7966225347781474,-0.01985086389647684,-1.696566530718594,0.12246111043358353
-0.2530972278697603,0.40572771860604373,0.2522278877801362,-1.2918101053350404,-0.20262701340480133,0.4123869992639117,-0.36775217703462404,-0.09346864279868371,1.368168721744788,0.29430173623533146
-2.133273658777585,1.7191018112325276,0.11567613692884976,1.330309067301066,-0.592367226963457,-0.6893941422576424,0.09309101717506772,1.1184600069857882,1.6083524117544938,0.5762546303178311
0.589144991180943,-0.9660400024689517,0.09141256649844796,-1.372117261096655,0.19607680924792303,0.7353671955140488,-0.12062688908263768,1.099181595755723,3.3829875877760305,0.9317145487680212
0.7483457423864557,1.3981328106298747,0.32104173144388,1.8496452556176122,-0.2878029712911302,-0.25727948685546354,0.8280486768484479,0.46943681670810794,0.6520521810348638,0.02422545604573533
0.09059443699746475,-0.6885412570074745,-0.21416366002315587,-1.4327794623660193,0.027999552890066247,0.8515604114932204,0.3621719805835546,1.248402751477038,4.133966383056134,0.569073185226154
-1.5270838382058063,1.9984258304539106,0.3206549804653695,0.28629355395731504,-0.3602911134359362,-1.8400639521542004,-0.4457862725075732,0.036173118325918685,0.04896951968780372,-0.052949574418709365
-3.4393868033057466,3.221054520212693,-0.07750992649805642,-1.4156049865525397,-0.37407736312305084,-0.7554983071665404,-0.32166578033408905,0.9000321633903027,1.1068545401590388,0.8262522331895693
-0.7013742419193499,1.247201912517819,1.0630865818368254,-0.3505642859895959,-0.0983245225409117,-1.850931537082414,-0.26787448235500566,0.07299143078684486,1.0768405322137924,0.8844706631256767
-0.44516552065951287,0.053847786504000794,0.46245635750696706,-0.6751646744603281,0.16803548440437838,-1.1687964700075562,-0.5124444623911829,-0.046456235130564176,2.1017104176000685,0.6482898872578651
0.08934090069000329,0.1306466698346378,-0.3077630521810247,-1.9296103997648684,-0.07644577985375345,-1.2309873105399207,0.31608972417938647,-0.5899519708370357,2.78522119649971,0.9850204637155082
-2.7522467361361307,2.2755646464343022,-0.14217277564194444,-0.34508670141648945,0.07069828483274525,-0.7535995947881904,-0.6302427062041852,0.047470173060803256,0.23462649135429603,-0.3721592453998252
-2.5292375888935053,3.221109061132399,0.6690780643828338,-0.48678986328570995,-0.23569117609064422,-0.21953723325206626,0.34906812874671334,-0.5215990459641471,2.767446385823797,0.6648055869311392
-1.2320079467813088,-0.5455566344233458,-0.5116934442669155,-1.7249948165325788,0.17720312036563568,0.7853067722761777,0.12404982083371267,-0.7729303052572002,1.1509092944527155,1.2816160799938043
-1.5341535980177274,1.7403510015078103,-0.21177092220247998,0.10971152736071932,-0.13367723645462676,0.9923435657067371,-0.3047450272101114,1.0949499756620553,0.909653858308389,0.5074320114896584
0.29926257109272847,-0.27449332614434385,-0.5499498063336106,-2.038845134443552,0.1398596524635573,0.41573692612617885,-0.057821173928656315,-0.07219918584170114,1.4937191933305347,0.4289144965244323
-1.1668237933835948,1.919201078994575,0.44255476948733397,-1.1057660754536796,-0.19848129199683176,-0.44881592463568404,-0.07170087174006494,0.49651847964991785,2.430777057184641,0.6644038476934331
-1.4393894264601887,2.272842181908172,0.19778273692365514,0.3622067335143326,0.19537230310241707,1.494422395503235,-0.8752695501770573,1.6381531946258316,0.514767672002262,-0.470670923919765
-1.552213723069201,2.5555420609486257,0.35894428682416835,-0.33953485662014204,-0.3356760063286074,-2.381768930096069,-0.10832021240976301,-0.16712312314667993,1.4319456001835416,-0.09371791061879432
-2.1028322107988444,2.8704836683285193,-0.08678866722543595,-0.7345902466885547,0.3217358461506772,-0.5579559901201493,-0.2084576607563011,1.101235988264595,0.6852708003927694,0.627244162998419
-0.017913745465189233,0.26075416273587204,-0.029776343891283023,-1.4579023886780687,0.36510340468919744,-1.1552624267999139,-0.4043452674753587,-0.07025332859384613,1.6200443199732506,0.7301413089458721
-1.3211109209379441,0.35214143447762547,0.002222643501853337,0.2244260218539863,0.002959678566774163,1.1208219363309524,-0.40519210585491144,-0.8070589208013321,2.4130177174776186,0.07041953469637392
0.5366517169090743,-0.5854852239486059,0.19282758004899186,-1.7792049331171023,0.009942601704105712,1.3016879926976328,0.12473279197343327,-0.4785776539753212,1.8811495395762128,-0.19985637213366156
-0.02671939902533994,-0.44626184220200893,0.09292001132254286,0.14864977073326824,-0.06212610047717702,-0.31367719458330934,-0.5014519201468487,0.49565595017989544,-0.34307385941383545,-0.1145029801932962
-0.17018986661140348,0.6847487032216844,0.5781806590554764,-2.074031344584089,-0.08725004392889527,1.2079161465840402,0.36491844805284573,-1.6463079533172398,4.089681369962191,0.7996630921597785
-2.6908341920611116,3.3744532930437696,1.150140468731187,0.13906920722489968,-0.22036042196451908,0.4951926273320295,0.1563091547915915,0.5984714930627527,1.8899284364912732,0.5636099685053605
-1.4379130511717404,1.6791160136946597,0.20112854361826663,-1.5687329007232687,0.07246291558456361,1.0415028111157043,0.08962198608680837,0.42103021978660604,-0.5593696997799165,0.38465873000931944
0.8468128407738319,-0.7286864037974929,0.0931379420321073,0.23718828534494946,0.0526166805648735,0.9536148542554671,-1.0307765906827127,0.7386546819125172,-1.7769055253588117,-0.1270592971506121
-2.432270643691365,3.298346001895035,0.6279948729763823,-2.1725370157910873,0.03061283342915759,-0.9628188258724615,0.2518450813193008,1.3585520747761783,2.6873716421239995,0.27953453435116815
-1.7640542307939315,2.285753726010371,-0.7876893339026851,-0.5543774977451242,0.07422452999482303,0.22952345745742547,0.5736516942040224,-0.06312294070650244,-0.6602886877980717,-0.21084543692875976
-1.8772656901609441,2.3069242080411088,0.20731840448120223,-0.2973318997978377,0.16793291064660235,-0.40747137347577045,0.27659507740537775,1.4693065527422218,0.6068316658606517,0.3272485398082333
-2.411648508343198,1.902484331478402,0.17309668197609715,-2.40522473430267,-0.04446395925789711,-0.8506555160806686,0.001158806311662597,0.5390920104807537,2.678094495893038,1.0386170912124137
-1.0873159702007482,1.444432678576736,0.1351197408307535,-0.010469581289561936,-0.12156013454071982,0.7955114733509832,-0.08523347392554316,0.584536915430864,-0.854691824052001,-0.26849913194707814
-1.454167875660405,0.8325847269633357,0.5166828012442337,-1.0368174138899602,0.30235227705080814,-0.4252034916214331,-0.731590261299675,0.32854285362004115,2.039704836907127,1.6532413075317394
-2.260869152210575,2.3651386464758244,0.4824314452373632,1.0499676909068536,0.050479889614499306,-1.982821303287189,-0.0429859069317,0.08491499301338941,1.8278897002746644,0.02538842210576539
-0.15222362591443409,-0.30142663362337185,0.3206093518783752,-0.5251273440568341,0.5381593477235505,-1.1601553673641574,0.03450865847491938,0.8518841622655947,0.335598547673718,-0.10949471544184576
-1.240751685087344,1.91803092003054,0.4010815282538002,-0.8985018490339596,-0.0021302030672317902,-0.39606228650447833,0.21439250769057774,0.6848233994909614,1.2372096111616375,0.541488718213411
-1.847937219942855,2.4629134653162423,0.9711717831726565,-0.7765547464967056,-0.13205227567587224,0.9081491204952077,-0.38013409582974655,0.5158077071122799,-0.4007178448186892,0.32686903310707455
-0.6226785807133336,0.0576058375007944,-0.18177234428930736,-0.22560076331797996,-0.09536393487354551,1.1809276695478639,0.8699197673311085,-0.5567173293166747,-0.3195143163301446,-0.134967671903444
-0.87715468016807,1.0438592069032655,-0.563225724046294,-1.003673368552152,-0.20280671697582514,0.9211221796998514,0.5624312343694754,0.3588529173181521,-0.7995127399685664,-0.1411819382992967
-2.635184619024258,3.035011855229074,0.19523554294061488,0.033664296332118426,-0.003445317428271897,1.4228435782307305,-0.43380837209291817,0.3598454327482149,0.7958534152506636,0.31136059338962735
-2.8027249326642423,3.079129805492661,-0.033114749891084205,-1.7075692240257851,-0.24399991413121716,0.27920718914345705,-0.5640218979841408,0.14754089839589804,1.9234506520277272,0.6533124707360759
-3.0952380702067455,2.1715721154544845,-0.18568441765024404,-0.7410587674141099,-0.05286702836893035,-0.05155084299743537,-0.06226909692927776,-0.46270776906980887,-0.29309005646517194,0.3446468758590359
-1.0717334294543976,0.5319349268289699,0.7493053446978718,0.17427078654061023,0.23936283498935626,-0.1736736259792886,-0.10618682902883789,-0.2554930265076431,0.5069561108405596,0.7584944372705423
0.13880605197208573,-0.05851259897422101,-0.4665592079468644,-0.5875897102922736,-0.025635845278118265,-0.3564041552795455,-0.9084846527442448,0.08417920178237522,2.3627427335303954,0.3428964750228063
0.06370864512323385,0.04342886180241434,-0.3597818118179963,0.4736998362287631,-0.06562992889943842,0.4970710757869272,0.16206608164356515,0.261691438019358,0.9710431612220312,-0.6097202344975752
-0.9700854951839122,0.37714974986212946,0.8487573599594782,-0.9685867925888074,-0.013736925087674436,-1.061758732278208,-0.4118362180700081,-0.6801868598948413,0.07253993905353218,0.0269145397182696
-2.909695325462095,3.196816445643453,0.08966145177648858,0.5604974030088599,-0.26149470966799465,-0.9300933363124895,-0.487368774314527,-0.03166837741220319,0.13746078466823058,-0.5433022134230899
-0.3541676411191836,-0.201159301694112,-0.1346865120102772,-1.1778213715976542,0.4349993732095803,0.5869694862668386,-0.13673046338211398,0.253570160118654,2.6902515805909273,1.0885279949077769
-0.4434091285180072,0.38869820811035516,-0.32977768546590525,-1.1161428620295752,0.03322182073548355,-0.17465959320307234,0.4367057871483367,-0.23564217420338357,2.7868180707058574,0.9792377480806783
-0.9563897330805621,1.7212232239754308,0.9611158850260794,-0.5843131909700976,-0.4006446517582104,0.5642997334195794,0.05574954126129968,-0.1394577137939613,1.4046844342292184,0.18454921318222917
-1.1151542899884195,1.8279360079535243,0.9115760329285629,-0.057053317941808755,-0.4665741686798889,0.30506960392462035,0.05059353916037591,1.4555609837398542,-0.8878347590296998,-0.3212074452986394
-0.2819753947663428,0.5040714717953847,0.4243747253341109,-1.3780471343735097,-0.10173969858912164,1.1413064405104665,-0.8156691685047665,0.1226842304422702,2.534170999502698,0.9802948503062175
-2.049963289302233,3.3535911655594646,-0.1863508256892171,-2.4243783129840595,0.21939441992528094,1.7183511594170147,-0.8106194469121094,0.032538126295387104,2.60515954649436,1.222719767285016
0.9169008619436126,-0.8661783205731558,0.5046353634747509,0.165398847755922,-0.2191856104647163,0.8791299801602493,-0.2159597975808299,0.5211561476810674,0.24281862670375398,0.30434259693055016
-0.9121260937830157,0.4302058764237411,0.10925379760712564,0.7502019419658097,0.0032578122044991044,0.9142827197516818,0.8171679910382185,-0.6309893675950342,-1.5704775283594041,-0.5101466931143133
0.2616858072822663,0.2938356869080083,-0.8214496700942081,-0.15811312006884332,-0.41224502049730943,-0.4601940570221917,-0.022348544335948413,0.38631924376040283,-0.8833439675159004,-0.4109619762813559
-1.9332490124282549,1.141822871943424,1.0625483727856586,-0.48683916252208226,-0.4793064362353856,-0.35529111542389413,-0.0614938922347418,-0.02964173500645042,0.866003364125465,0.5842586933821557
-0.9107664663623765,2.462398542472614,-0.03886171482625962,-1.7339773449239049,-0.21990851888536117,-0.21329777840049835,0.09454672064477386,0.6367634909920591,1.6532766706780848,0.5060376907890018
1.1721834378102798,-0.6698975705443195,0.1391146466148828,-1.400790797159872,0.242349914640201,-1.08222103296036,-0.12496302019784629,0.45421485939405287,1.431577046832846,0.5618127827282882
1.143198789062059,-0.5355303606034115,0.02515917305023751,-0.49022285800633375,-0.010335882046540859,0.3635314923407198,0.23201483022722647,-0.5900941449186468,-0.6763223021061335,0.28445285429516304
-0.8973292482597565,0.5954522926736796,-0.3469139992359922,-1.0060312281071593,0.2553488247703293,1.4229621495079743,0.1253909139414888,0.13837764140036984,-0.36027242737055,-0.07387437044639042
-1.0586011274130411,1.4144260006822686,0.7002856239531087,0.004981940245673333,-0.10787376376379558,-1.6053341010668025,-1.04032398696384,-0.66268906185221,2.0319120877170884,0.8444891828234553
-1.3775617804912212,1.295038542889984,0.13124950355758475,-0.4177008124405259,0.24665691535268255,-1.9640242698005994,-0.32676164861728435,0.786617541586171,0.48240500755767735,-0.10761751536884172
-1.8815119658838466,2.8156703521995285,-0.07065038546732062,0.690497518888489,-0.27906958834264617,-1.0277583499096334,-0.2706988995175314,-0.44192812453286856,2.325370511384249,0.6361497834666636
-1.6970911387490204,3.4027081604630913,0.22284256439622216,0.7075975914566365,-0.3956508852606031,-1.416274536553996,-0.13923690591277035,0.8832806671129777,1.4115476986025588,0.11724638641333099
-2.3694533700427556,1.8383343125942027,-0.2615444301334625,0.7461914849084492,-0.019746637634765415,0.31942340160567817,0.1261533224684948,0.07489586941014245,-0.024377991330868015,-0.620186383181272
-2.270319885591105,1.1489394286949608,-0.1501007488363817,-0.517089561832563,-0.10555252342932658,-1.7272624062385655,0.6358309440224036,0.6201734830222854,-0.06135462172279338,0.5292249512256144
-2.43933782724163,2.8635303160257544,0.5568729496600612,-0.22803331573545693,0.22521745323215678,-0.3125645164369239,-0.9696653083001187,0.26934052841734185,-1.0254875669539016,-0.41863809601419827
-0.41593307806585944,0.9183987736659218,-0.29116906720336827,-1.546646572249259,0.3910963318417372,0.06791103122788673,0.18044489795879937,-0.8157607027011583,0.4093397627687724,0.5386142574481719
-1.7745005126831064,2.304179065546263,0.13069252120184402,0.803029546297164,-0.2883649097238199,1.7244754919989413,0.7507791184345932,0.23558564138506288,-0.7790119581092381,0.43914953958744635
-1.5132051891983105,2.0304463969252473,-0.6017427407132938,-1.966678776022413,-0.06001664957864348,-0.02234231136687176,0.6209498853307334,0.8904349132448326,3.4392879814262742,1.7851131323574947
-1.3257953282850277,1.2173041262099051,-0.07989049696425515,0.8582310082741698,-0.3357655102818246,-0.12769008875023197,0.5718136770156924,0.3592283111642417,-1.5499723012269184,0.18936034442034863
-1.3513969257729845,1.4886402967436978,-0.9780058724601193,-1.8276965721041174,0.3288132815364429,-1.1011437650901592,0.3411363036211569,0.3106683819385699,1.1099050601736344,0.3567113113558626
-1.6867459248658117,2.2244010035807706,-0.15315013832368973,-1.9582049738964202,0.1563823621010772,-0.3422487044997317,0.2413921044252523,0.19220089981417912,3.312006842906002,1.0966949793984433
-1.3476141571766866,1.0968971416223194,-0.07603101055033054,-0.8682093967492811,0.19433663703686851,-0.9286445189517143,-0.2568842554921395,0.392180912913098,-0.056586372483814706,0.6788211355239743
-2.7467436600386392,3.3338037753432284,0.06859959329726835,-0.2294609835833734,-0.6915974467919958,0.07639601130426077,-0.4799668042252213,0.27351008718727754,0.3472576268871073,-0.0006744904034437617
-2.0022795761511176,2.09872321453736,0.03677275389770573,-0.7593690713780498,-0.3959308769333128,-1.6297355944609433,-0.26581851875223284,0.8573937386867541,2.855630780334436,1.2957396221379767
0.09093118312841714,1.0393399211140433,0.09148465144663342,-1.7936221096119713,-0.2620024943137347,0.38479745314601,0.1968634699105076,0.3139548801661874,2.4164280754369565,0.8262791257844633
-1.632030157282567,1.190663821789026,-0.13950723244793997,-0.7286525082195687,-0.20869035933853464,0.7003603122938206,-0.1403815899522087,-0.27674985473871067,1.2917829943261208,0.7901184580288816
-0.09005386564197147,0.1607052816323602,0.19579124286009478,-0.6651171653463698,-0.0892589604101109,0.9825872224796051,0.410259939443813,0.18602809564695483,1.2267005444768846,0.038696824393555145
-1.3949979870943965,2.0264139861745494,0.7273069408059708,-0.7053816640007009,-0.5400853037722109,-2.1398812243408054,-0.11642059294075327,0.5541686240885499,2.7289418526113325,0.6411414826545523
-1.0315039279578728,0.37721457949991755,1.1701152941785002,-1.6778443978891369,-0.4389720381370775,-0.2897879467063641,0.7702094108693109,-0.39655113883878274,2.8547618858775774,1.2641638347267337
-1.5963401627964247,2.5067446206174604,0.031111770405587248,-0.8310505643138894,0.15924927745478407,-0.8064108343216585,-0.1501591856279705,0.21525549429681598,0.9265290610883892,0.3832075269669385
-3.6541063134362823,1.7692848425004728,0.4640209577259516,-3.137953840747134,0.28408912110985046,1.6130132388325777,-0.5150600212788381,0.34410921188562804,2.98718701344421,1.0439736502305221
-0.914189833564838,1.6254125650670455,0.4917416157141434,-0.4867953450970222,-0.2614163641214766,1.0307091917578717,-1.013227308974901,1.279046857792564,0.5702758651408357,0.09391076405846616
-2.792050980700495,3.2851256477170097,0.5602000688424807,-0.5862575997565793,0.2885676970108521,-0.4969981214145193,0.0057631278189315925,0.034124205083437525,0.5801147603378616,0.3993114318982647
0.04931620420497128,-0.09758494105557902,-0.29939911363971944,-0.1359086253335545,0.006207064697935926,0.03193936042332485,0.5197675792755074,0.8743463357424175,-0.8230287589409204,-0.2395549686406589
-1.5752758060274197,2.877337796245605,0.25326634394104647,-1.1714764401968236,-0.3823252073976145,-0.08604262724950615,-0.1554046346010467,1.1786043766830805,0.012129184202017917,0.22888868382024843
-1.2725409657280846,2.4440083900880434,0.682363777407284,-0.357068666063762,0.2612808767258164,-0.5878904808538845,-0.5360041782424373,0.40257832440258007,1.9066243307906723,0.3242917913409266
-2.8807087221604446,2.5599707348911225,0.5827890566517785,-1.3892539772272383,-0.3327364633858948,-1.2973873526038702,-0.1993387322788288,-0.46623213759728255,0.48027289064379775,0.33438096574635634
0.22526327193929002,0.5294616285568523,-0.08175722945802674,-1.2685822282800592,0.1091415378568121,0.616171355610698,-0.8811029993545788,-0.08157735800434916,0.3204363746200607,0.7490126852457635
-1.4143002998500978,1.241810458060427,0.1305672932738598,-1.4724697095676929,-0.2567449813504648,-1.594128047369901,-0.7533977340492545,-0.460044219703565,1.53611734409896,0.9035935394446525
-1.360253399479665,1.8024842088654394,0.12410738224275401,-0.22924905419509667,-0.11629996516243432,0.7680992117659364,0.08225137850779987,1.335318731430474,2.502998104606651,0.8255664239461193
-0.7983543205967479,1.3816926853306297,0.6637777491045614,-0.3633346731622722,-0.2040700981176672,1.091654526248762,0.15322711761770882,-0.1786831603641459,2.548851852354883,0.5250573905358052
-1.906407394893868,1.759951048942305,0.08530565380003219,-0.6586890353349842,-0.3177471243012782,-0.7458327343934279,0.2711219956318087,-0.5259904027724736,-1.160353410599384,0.29241211428548014
-0.07508823315093632,-0.1925643712632259,-0.035324630257094286,-1.3675967367386754,-0.12367381602902763,-0.3722489237701595,-0.1745153341347745,-0.7525804341270916,2.0219244008834454,0.9524062669930514
0.04214515548737161,0.6898025570307691,0.11128785185528668,0.10077609457851402,0.14979747302314242,-1.2262869175535138,-0.7363759373907824,1.55556368935957,2.007332130099427,-0.10413611971114221
-2.642481983765333,2.95383409929357,0.26401953161443703,0.6547407827599205,-0.009280001814427662,-0.2120175200385192,-0.2346259951858399,0.8258887030186643,2.8311649339065594,0.6137438305606099
-1.1777843401668275,0.13751476489941217,-0.2883219803305137,-0.09663702399129503,-0.18760776734222478,-0.71987112037405,-0.30088193037426053,0.386952857876886,1.318290736931733,0.8188085683055834
-0.9818286272485325,2.359014062680674,0.335362476185621,0.28871853572440387,0.09236132747530953,-0.9082207129537284,-0.6106512733103285,0.36966001821825717,-0.6947662088553697,-0.649073963467746
-0.6381528692869647,-0.7170773165741329,0.07676257999513322,-0.05101663119439413,-0.10274920430138786,1.0390971590400135,0.7887708414542378,-1.240068872245783,-1.0268980783543245,0.1409897645406576
-2.7656494155075593,3.4140957505591665,0.737590213864372,-0.3504492808296228,-0.608624294158905,-0.14537936457813305,0.18153305066365172,0.9282887587090431,4.265223543359913,0.8049425285248187
1.4926246464130302,-0.1692290367585847,0.11678161905397497,0.14925998603796428,0.12727040490963507,0.1397710091322908,-0.0543810416825494,1.4689376874545175,0.7453779798468508,-0.138122428920371
-0.40034029304208824,0.9122746738687348,-0.378579710602614,0.24540250006216624,-0.12148146079491863,1.9833812096048458,0.582817244793515,-0.707522259504152,0.6087728966060898,0.05303455593489354
0.6550384606251101,0.5538756468718424,0.300992353010783,-2.4134122003685046,-0.22096639763151782,2.323744762471188,0.3039797142427904,0.07892111253818972,3.672781568881764,0.6731421581717977
-0.8337924964344124,0.23314024100677933,0.40109289604092874,0.3032786244698391,0.24057222747377305,0.9495184811650231,0.39672252720264733,0.21108624965186573,-2.8690881129203114,0.18241864869028385
-4.3407370777119105,3.076602077456074,0.32004936413868557,-0.5067818355997321,-0.2748757399046774,0.39961757623013416,-0.47564835034268954,-0.7777904849808164,2.4920121253699015,1.1756257894846185
-2.2009307797719506,1.561566239220328,0.21901084520871147,-1.7820796506005345,-0.11573354730163521,2.0725992895590237,0.09162545934779036,0.0034610683554893757,-0.13284002823395458,1.0011594536207002
1.5480464864467915,-0.6095938488585488,0.1003125440728019,-0.03825077970572177,-0.02683264679649852,-0.31962762858239036,0.20239969768246688,-0.09849541421656591,2.066488779625563,0.3017325022150317
-1.4270408045888037,2.060108683686177,0.40898140516567016,-0.4158256747491891,-0.15533460338304425,0.6339472711942817,-0.6973714399617118,0.7304104491825143,0.975245254277187,-0.3339210831638684
-1.0209643881974138,1.3610937947716013,-0.8620802020692014,-0.051779284167352224,0.13277893904502644,-0.9981312231036121,-0.2822081492722914,1.5113475245860033,-0.10947304965455856,0.28333258326169175
-0.47075833240729736,0.7088787591285157,0.3755826416368028,0.08895611641429635,-0.3001341895445754,-0.6865721484120825,-0.3128949649214903,-0.13716101951615026,1.320540488453974,0.021836712754889423
-0.8621471657500366,2.3849983496566916,0.541855398094135,0.9178169694654377,-0.3433901113554385,-1.3495718203278753,-0.23730316626087392,0.08854433375633614,-1.5815194998598128,-0.006811569856044171
-1.8341069193695636,3.3297895090682736,0.9543727857140569,0.7360012597213337,0.018959448402960235,-0.9005572046697434,-0.04930618017633715,1.0229806910057928,3.0546386532607848,1.142178185119098
-0.6852211280461554,0.7805931918181548,0.06246518333486613,-0.3008272755049334,-0.2097086630249139,0.6447792271128034,0.44676582945551496,0.08672341257090682,-0.5939160590088821,-0.15816208661233755
-0.9361867670392418,-0.8503586396608769,-0.30589925555501757,-2.0609645546663566,0.05344799513080486,0.5958645644622984,-0.6477429010338166,-0.586437606210107,2.3864498012333133,0.047953514174980685
-0.8555095761139259,0.7465046354457086,-0.281218677894091,-1.0232636018171697,0.2035657373900726,-0.5678515945209895,-0.058931117339597064,0.12786083408970564,0.2273626459499475,0.37264502936837807
0.6302302177218946,-0.8179028574445809,-0.00610708279118649,2.430665391149791,-0.43277126450000863,-1.2443426581712647,-0.08472875987585454,0.1983329241838599,-0.7296001309704923,-0.2733561447750577
-0.021057197129257486,0.29574972847249303,-0.18412345305655792,0.5132929316695081,-0.2738678515560324,0.4719550147645136,0.3964304006700655,0.1471975596394226,-0.09009223362747809,0.26538132530333747
-0.7889787955546097,0.5751954571631765,0.10573458795314526,0.47629820953277113,0.19770832377629122,0.05644938945147193,0.6015819139558513,0.1928844409751687,-0.9901866616653892,-0.7506930071163562
-1.671476846249352,2.9672988991405678,-0.46251447656176403,-1.7944207644627115,-0.09299295755175184,-0.39987767508663075,-0.4458314773742683,0.15470233712396614,2.9744522708670083,1.0596465249023637
-1.023577634339951,1.0283623453849304,0.4330792826332989,1.5313739276786047,0.1752980607382226,-0.30482089813757374,0.398790754259888,-0.25193290456099615,-1.6741476868731722,-0.2945336721652103
-0.03970504350921689,1.4406820054213871,-0.5904983017033123,-1.5548675950087794,0.24246208456829296,1.251747684488675,-0.16692561691300228,0.5353463613678486,2.8598895058231215,0.6462090124792652
-1.9468578035244748,2.593084018045835,0.01567016170010671,-0.11796734326817226,-0.24574343040388638,0.19372371567502644,-0.5562002991644563,0.6688483331800927,2.291784900601045,0.8652220031884513
-0.8791923716699006,1.7782451087201716,0.041682043135316496,-1.357375297003895,-0.14060901017914185,1.5343758580364788,0.8051612444381299,0.30470974156718283,1.50079765258802,0.6403488182949426
0.06527637947912646,1.242839800782269,-0.9634821368605087,-1.0930290350767762,0.019149802253351673,1.2424930306272548,0.843058282970613,-0.7505072157929782,1.496840974013191,0.24169983026171502
1.8075301528727403,-0.530122732795661,0.5458598004642473,-1.7411083199489592,0.023425009266786104,0.7734056788852685,0.6663653080000556,-0.013567271199336641,2.406036944144453,1.0631373375413096
0.5017827287651174,-0.001207672974058327,-0.17924126796825904,-1.5367082620312549,0.4081567372557967,0.7909363529674988,-0.521749292104928,0.284389336843342,2.742924320248183,-0.13919068171419768
-3.0515109074021405,3.307153857517796,0.19793214837827264,0.06592210341138077,0.04956790930175137,0.8234914079510047,-0.4636260980149362,0.9174450526033233,2.18422662173995,0.7225924102246908
-0.6023947654853684,0.7799447159363431,0.7039738124869435,0.6567467456515754,0.043325916421066285,-1.0933723709656764,-0.5287282313575687,0.5707067480073199,-0.7773907931414327,-0.6326396503670221
-0.8254768371352863,1.0109157647890203,0.2997821566271907,-2.2465884506539866,0.1549976698007775,-1.7265005120243764,0.3725575236790145,0.1465516058867726,2.7633343198008986,0.4512474721925638
1.1266457313669753,-0.3844401320498535,-0.4249958891376399,0.6970605675563352,-0.14601242417001542,0.03381481806365359,-0.3273136075388465,-0.3798237609726322,-0.13656464909939514,-0.2737189014992895
-2.349359833870913,2.2767616833633455,-0.42271943517590005,1.0942829993497778,-0.06926188776554658,0.6899561083399424,-1.0121055345733942,-0.45236017472898943,-0.09827972187641554,0.13093062187781412
-1.4743368633411837,3.151036621489853,0.22247043972767644,-0.005896744861999842,-0.059069582574094164,-0.38786546303685904,-0.09967220460511517,0.7084500904932539,0.16930060829888238,-0.11404989817849269
0.4115361622370891,-0.49342093920382846,-0.8148844249272844,-2.035659881846993,0.23840961866592297,2.095089368990531,0.5483109200345899,0.011686992598669172,1.158206163362648,0.3224094665189276
-0.5066509223309733,-0.4769897251849853,-0.15759957773751554,-1.5566735990004341,0.43617710517355823,1.361184437770523,0.17621926090715725,-0.6646224452956694,1.9226710999168888,0.3840983291023589
-2.356340140972504,2.547695750499313,1.273976688804705,0.4087157090680306,0.08562224667189883,-0.3698290155965709,-0.5532216076667703,0.7698601034415087,0.3032384159695072,0.5213822056555713
-3.074210198326702,2.447987001883711,0.23302508697141985,-0.42049082324689036,-0.621716141414021,-0.44087852239104297,-0.37465953652236444,0.08164646545412858,-1.073300117803124,0.24321999053979534
-0.14422650171157364,0.6563886737386886,-0.0964625656234613,-1.2572788423153471,0.10772379053396065,1.1186675667809955,-0.0077782951677066135,0.028925611714746165,-0.12682058954030784,-0.07348449995262654
-2.6989868845821783,2.8430832135631112,0.33409626556508926,-0.44407881789555276,0.00939971090542763,-1.6849856891725534,-1.0318179214366037,0.6697093351533632,1.5618245621927564,0.8001587942818914
0.8861276569856031,-0.10330990013884056,-0.433974961616816,-1.8699008515544238,-0.4775423396652752,-0.25864846861928703,-0.1187583345760519,0.0014966814708884852,1.3172525165189028,1.1061836535637966
-0.4700279727389814,0.4063830122194103,0.24537917059404007,-0.4729797425966422,0.1727602669600484,0.6530447227589654,-0.5021845913121457,-0.79297701777641,1.282208194659507,0.36608406141412825
-2.1718253186134326,2.221695541627191,0.9667769529362508,-0.38831131124384655,-0.17313388917369613,-0.47883391465164155,-0.18105652629162522,0.03853477879426197,0.9641553435295487,-0.5675131319385431
-2.267102448624693,2.0310884076631526,0.2576761871808131,0.01121971498648977,-0.1725918934760287,-1.2918672088981875,-0.2811366938239036,-0.20158447320038617,1.0371593914679667,-0.13128795334598092
-0.9919055175701004,0.37329011230913545,0.23115252812235643,1.02471645084126,-0.2431162184810489,0.7076179691222158,-0.3427223845901111,0.11152099092270805,1.88616781784229,0.32757319468789586
-0.9612917743850112,3.321094449773377,0.6031098610500697,0.45279387265976967,-0.15808305973261375,0.23432991095410605,-0.6274768225738248,0.096046292207239,0.799703700779653,-0.41191730834813123
0.2711685355473757,-0.39158484081566325,-0.9132405720041148,-2.533050579025808,0.17668933276921595,-0.3522442897550814,0.10498059576859536,-0.5291846369188495,2.525712819269681,0.851268035122561
0.27396792516416313,-0.32488527529725786,0.1651425058939606,0.19853286998136221,0.07238468501253202,-0.9973340590923633,0.543915085175612,-0.16180242276271325,0.08977160086023614,-0.1480572861406479
0.3272596930985881,-0.2629661242383564,0.05331870855141823,-1.6784317438146437,0.5195957590012626,2.1819122068121457,-0.01860727789343999,0.2119814714918808,1.5184056394340408,0.9067881630132466
-0.4335315710708726,0.8371217243932836,-0.48184672956132674,-1.07511244816997,0.1844995829254328,-1.2633865723356337,0.09761889815595959,-0.10805454587016743,-0.5837364185544291,0.8407800995713995
-1.9826947884559867,3.354887942016852,-0.08061129505613454,-0.7056833388820271,-0.027997924643053708,-1.1977664306934637,0.43677300792213136,0.25432547874918243,-0.24772052171997938,0.055226391064813384
-0.01954419755241833,0.05754055971474292,-0.6369400486100266,-1.129893742632215,0.22506807311668328,-1.2006152621431438,-0.481039212816463,0.6796981849567486,2.1962612407962823,0.6506507418863775
-0.6299911833159577,0.7904344813412061,0.12304785554612512,-0.22794201453821156,0.0836605386040752,-0.5035529422602745,-0.7347680437186244,0.4743672793467889,1.39934245620198,0.2279445266301057
-0.7000155885070223,1.4599309318312383,-1.3319253316356765,-2.138184322740722,0.06575259203479099,-2.0878203033549276,-0.46211939706968386,1.1012758536571203,1.691403433708395,1.0617982215480257
-0.1710966323053963,0.07425540169569778,-0.27010797173789286,0.08594976982733551,-0.01926535455584272,-1.863540300446958,-0.001218748939167107,0.5803004716060757,0.09117956988327033,0.2583479563325625
-2.508878506781651,1.1100349979687856,-0.3428467777546491,-2.0247456650707893,0.18338861010039606,-0.14952911195831012,0.11566230567357853,0.10939290976303466,0.6302157672643918,0.8190583032673169
-1.7686337928415137,1.5349729808861445,-0.4992489557989972,0.9493651802624947,0.21798662962381946,-1.1882484915688232,-0.18517683941015106,0.6331673145945744,-0.167007464001468,0.2898034547886009
-0.48933407479012847,-0.5270142768113344,0.04885326386533989,0.3891399239939593,-0.4252002391350337,-0.2662429690342158,-0.5220147242781833,1.29111997587618,-0.1257083076232023,-0.09794259964762557
-1.1131482838016444,2.0517645869388277,0.3556738140332848,0.8368356754358308,-0.3740708730880383,-0.27326862752513503,-0.10068869131491724,-0.12720379882820734,-0.807515793017081,-1.1639566061102369
0.969254160385731,-0.8155248438816828,0.10731610792418712,-0.6319317872434043,-0.6459217664351241,-0.6852118893269424,0.7905396343302774,-0.35993366708221675,0.9714025106224811,0.10424961577456955
-0.022371893475376766,2.4237907567343844,0.5289927581419354,-0.17449866654572788,0.2636557779834485,-0.7406538158760368,0.08690750694693081,1.6054502154983297,2.7621866702502054,1.2232233361085783
0.7072393784628211,0.29297023747677775,0.0970910942999105,0.8988731187958522,0.4314244642372898,-1.6560620943098516,-0.14272301765558662,-0.832579309933129,0.4196107394437416,-0.1810134036253626
-0.740357991828159,1.4129907268366289,0.8501724302900145,0.9779938930230212,-0.025793655511025144,-0.7419153585265746,0.13566873087312598,-0.9006758826546623,-0.6699405189789147,-0.0070258661859955145
-0.8218760501489734,1.0621359440735296,0.1576264808803709,-1.201457078971054,-0.33919199189131494,0.27816139390684536,0.24571606260649514,-0.18507341766280994,-1.010129350849398,0.43009205682549684
-2.0288191099851214,3.4329189612371414,0.6375609648770123,-0.025795039523118013,-0.3084529059463838,-2.056028738565706,-0.038594621578585266,0.5388777371258036,1.8918522017163197,0.42387622244195666
-0.5749682645723411,-0.014401094054546482,0.5637679671644031,-0.3825453984695298,0.4227426497904845,0.9557208351988213,0.40199252188947104,-0.32266279957142685,2.06779869696874,0.47282890156594914
-0.623968717507433,0.30015356642953095,-0.6292016557443627,-1.782529823333981,0.020126900102235442,1.3807058614666874,-0.17560920958049003,0.17981780594162794,3.0355815325784627,0.6939469946798363
1.6454634870920495,-0.5823532983899797,0.5158427765660824,-0.42545775825803,0.07438823430348382,-1.107397765815793,-0.6473704945176054,0.5857039969673071,3.466631524053792,0.69006453990278
-0.22531364338074233,1.5052801858116585,0.14214485074027725,-1.8145945770900087,-0.12429357185967191,0.5987393349547727,-0.013896576867099717,-0.22979181349470293,3.801858558470904,0.7348253449453032
0.6037275889870166,-0.8162348450106782,0.8798747643483629,-0.751683826414899,-0.3725738875106201,-1.1496035362691737,-0.4265726602936753,1.1905806544860988,4.356788208441444,0.7064323113926368
-0.15748158773849932,-0.17162168145720524,0.3936529634623546,-0.29353031684779685,0.21913338247399908,-0.2261056786690878,0.5407183457283454,0.6312917322411815,0.9868422272048765,0.8174966230619073
-1.3657359007458076,2.516856893835244,0.36246959532414574,-0.16299189073054254,-0.19739766989029744,-0.9343533829283047,-0.4405767725720553,0.6767544960599091,2.8223966713075,0.17791309434888988
-0.21043543231003442,-0.679525509501167,0.3074664187995956,0.4196256016624044,0.45774803046356954,-0.8226383814012482,-1.1747500885831954,0.5238543165368511,1.2038479785447151,-0.014552198745869736
-0.5558562313212896,2.009840995907719,-0.15754517440192642,-0.14741992919867264,-0.21394465261028195,-1.6416887029804268,-0.391252842808044,1.4824155837368125,-0.5065781613339073,-0.7898778584866528
1.0920509664341078,0.1496761595431486,0.2968537202196205,-0.2767668625934893,0.35052855508565306,0.7686741496571357,0.7675410645400531,0.17977813306499496,1.098793402571429,0.374764686368773
0.19352904698790388,-0.005244376581578947,0.20678576288295336,0.04386466970003075,0.21307481063109882,2.538744720417635,-0.42077889685622477,0.17276076939034585,-0.5133063216617925,-0.35716003848057437
-1.5251125520067648,1.0918639674567987,-0.3448931571069914,-0.15303831650368904,0.21774668313637366,-0.06933458369389317,-0.16440652302385708,2.0970577289357633,-1.177483638939183,0.20937659989166688
-1.295920253456688,3.1136130180542905,-0.12533194119387822,0.6203357002423506,-0.10191718529796145,1.3284892193732658,0.11073033341775236,-0.1596652056583281,-0.3351838106419874,0.014774554973608748
-0.253312487382239,1.4289113408045524,0.4646129304963996,-2.290632754241783,-0.16131800683549632,-0.9899159761427525,0.13420271224887736,-0.461093483410561,1.606721468329684,0.7164075071280027
-0.1315936482292355,-0.8596318939360698,0.4874377960779164,-0.46139064996177886,-0.4139315391957778,1.2889494013495357,0.022439319229331126,-1.262193063762322,-0.054249334239575786,0.8291176569836965
0.6225730210363178,0.08930557759040192,0.05947438033059562,-1.2444416707859411,-0.1417597276537909,0.9696873619067807,-0.295884186000188,0.8128415240753443,4.0484186212586355,1.605604593503119
-1.2194356884635713,1.9355745108506142,-0.2003040527656808,-0.9537251920212511,-0.2673712523479035,1.2167853365346846,-0.268481170181106,-0.16850580261485593,-0.04275250331875702,-0.03383345435240533
-2.642489782581832,2.07183279291359,0.08287351593530365,-1.4028339422640324,-0.6668724958403222,0.46951937123439746,-0.18966832588150562,0.34039910948598867,-0.6933848660234133,-0.2972594035527962
-1.6685091929840474,0.5790218165158278,-0.48431169936494484,-2.092731197344247,-0.6488076838902445,2.238718833791325,-0.035042834698505006,0.42642400601988173,-0.4710702420438351,0.4774315764792481
-1.0029032417043038,1.0448981737487886,1.042719616872372,1.1065974759405275,-0.5255861150728549,0.1237932997809128,-0.6904908655864032,-0.6648132208200663,0.817549834370123,-0.2032621601636632
-1.7766628703680045,0.7991674009687408,0.4421355104000784,0.05329852313337702,0.3886656915957321,-0.34843529292224956,-0.41553477783208187,-0.45377343512312207,2.971134630563225,-0.008171445332460107
-2.2960452346006104,2.712331874711706,-0.5027539802586241,-2.106920844897421,0.12149034000243912,-0.37036486424515525,0.3506560272454687,-0.17829555820991141,2.427565362230278,0.6733209839923171
-0.43691440834513906,1.9078750313123032,-0.08700565547572713,0.605383494433723,-0.2705967921750638,0.025206709546336775,-0.021446376913262594,-0.8074485780306174,0.5923602478178791,-0.4741940380762467
-1.3212828513531627,3.3124834789454276,0.7046883050694068,-0.07489219777607392,-0.2155906421672507,-0.26916650723105795,-0.16601590339367783,0.5863372238741187,0.8875644394553093,0.49070825236718385
-1.4770738437153343,1.9841042571354413,-0.4464172287036879,-0.5838559251139929,-0.28188949965118637,-0.9758598042131766,-0.05257088555171243,0.6785275238829954,0.8789738620387291,-0.27932558668257146
0.7728251867129297,-0.39161721578349984,0.41586291663653807,0.06914940453941676,0.17382929300847075,-0.4731297844743295,-0.39397577888637825,0.5826185851962308,3.750864972080983,0.8450167741133177
-2.364524144672182,3.386777164144566,0.28185694319078763,-0.09350470414378526,-0.17809387960655104,-1.399975870253576,-0.615766990116139,0.4681572754608771,1.5571561052996548,0.5272643891129913
-1.9514341912778213,2.6853999855625874,1.1849092621358803,0.23517359280886202,-0.022528644462148403,-3.3082405623726627,-0.6987589836102809,0.03168066034956751,1.259640264993089,-0.08462553038992715
-1.799898083842915,2.7581888088876996,-1.0194157215579396,-2.374708671012776,-0.3358250026582747,-0.7414054117516273,0.39053139450818725,1.0791847320855559,2.535975412169842,0.5975899940604126
0.36919916932287106,-0.4733428497913297,0.8345717267402656,-1.2064696027677542,-0.13565877813651117,1.1491314245483815,-0.4072568453575256,1.2120827155815057,3.2192978256109557,0.9570036917228265
-1.8580450798879353,2.548874692209931,1.1139310716159834,-1.4164631012918603,-0.17651751659942072,-2.877807504017713,-0.029066989080438713,0.007433826319840835,4.51546854582929,0.773892376051984
-0.4469898063077969,-0.12803022146377485,-0.00676614216144508,-1.0038206495465383,0.09801482994978347,0.2878567227202009,-0.08735639874861685,-1.3718548384924698,0.8549670780868908,0.4191654278750026
-2.54676438599059,1.9301506289823784,0.36132965925032784,-0.28223481961274455,-0.0847965891170202,-0.28726784399593097,-0.6920528852087077,1.3277442433756506,2.4156398613703995,0.5769264902758089
-1.9697354388330472,2.254560926760943,0.0650796316636014,-0.2834495712684336,-0.2903082486305301,-1.6443017407590514,-0.9157266738858257,0.3383744532959726,3.3694779826655656,0.7530872609038214
-0.6590842883749033,0.981632790951662,0.5517510969239875,-0.7916629206643149,-0.13367616891415543,1.3677812817912107,-0.2723126388671729,-0.44161595763341466,2.9530052435089713,0.5408716600167678
-1.9715020396780834,2.7882661704528555,0.469471504031905,0.1342616735460171,-0.5997674142724082,0.8916971676236005,-0.5514544448712925,0.484319584997606,-0.6550489216256905,-0.08336314002197219
-1.6810399920146304,0.6842447060465648,0.24502907389923373,-1.4042300984274445,-0.14786116790013693,-0.21771043021677272,-0.610602686862364,1.632551086397203,3.1550832236775093,1.0812184663173507
-2.8340348945493243,2.9248014991802846,0.007198568030221836,-2.0034317574763194,-0.2289806555403781,0.3332981353475489,0.7382370290702924,1.28631055985385,3.363504117780229,1.064315045690179
-0.550589472254952,0.6795080715812545,-0.4646192748136674,-2.2148288975252406,-0.13631990067628355,0.5443120967092099,-0.09489398483065292,-0.8365363818200827,2.109266925108563,0.7104137883501954
-2.0478915161486557,2.496930739620735,0.45490454964987886,-2.1693913297348795,0.14987633028241215,-0.30670504744552846,0.08061865476233762,-0.2885447159957136,5.435688297574849,1.2058406283374863
0.9350444180542276,-0.672536719180118,-1.0609479592384032,0.49952714581025637,-0.1623042131683082,0.01506425367830741,0.03131023906551442,0.8456362391148213,-1.0089937868363072,0.16389067105560048
0.6392247596678774,0.04956771772614621,-0.7409738832966422,-1.1798763222651476,-0.4271501065952335,-2.8928126520643813,-0.1485886496180981,-0.6811238220536545,-0.39744480928155423,-0.08060483723058548
-2.532358424377484,2.9204632563897386,-0.1386835133071163,-2.226915931387307,-0.18301148821956445,-0.659191315886138,0.15133565805768878,-0.8805855071625368,3.1929851039058383,0.4158342345483264
-1.0587160039739376,-0.3161559502268343,-0.28921048749148337,-0.3831189059857928,-0.47385387709745386,-1.7482944765574533,0.01626373857239702,0.8170227606605099,2.316393295082604,1.0963690625578153
-0.5972198844922221,0.24683756881052443,-0.22150274433022055,-3.1475278035556395,-0.3304501942169181,0.6235111865917313,-0.5825471097464091,0.37452254083529746,4.27370048374786,1.0757970379984434
-2.5011410634687374,3.408904436611814,0.045444287078705924,-1.5075830371214678,-0.37113993818873786,0.47250817813689255,-0.05479056978765852,0.5454313149720054,1.767183163678521,0.9024188741111417
0.20515949494713556,-0.012867791403400441,0.20426426939051157,-0.6335933812649246,0.44346107512247296,0.9635452180391921,0.04474876392569023,0.03828950586656962,1.1835787934975772,0.6562680818730935
1.5796245257040589,-0.8700396798036061,-0.14083917179196664,-0.030709369187339353,0.3250314876141554,0.7066347456187984,0.5964994142237466,0.27566015995777055,1.4057756132988004,0.18461310298285905
-3.083451782854416,3.226593800961319,-0.5206518789811,-1.8842699143611323,0.19432124469677178,-0.5622315708881587,0.01860942452225227,0.7793319230034156,4.15484471504033,0.8355381751983397
-0.7058137036379627,-0.4470228068770873,-0.7736589464654366,1.2898186435523544,0.38595223908057763,-0.840392427942453,-0.103967099479801,-0.7909696445233303,0.75206910911124,-0.14814201934390875
-1.1130705565130279,1.2983793655162028,-0.44524785381053544,-0.17310108467758978,0.19193532599170351,-0.5076709776122661,0.12409927483077177,0.25461348696325803,0.24808579059655145,0.0001374688248269771
0.27719038496422427,-0.5016890326816108,0.7847288851425709,-0.7581955433228008,0.15560307534623902,0.9955356255524791,0.28697502371915473,-0.22618040814754853,2.514130520743319,0.8700730401131209
-1.2608114440229625,1.247210225766354,-0.9397693403727757,-2.3276771355479773,-0.0445381407267028,-1.5941249614911777,-0.8182659664482043,0.5842321678906243,3.4041388374589134,1.0968639819243504
-2.0045112686473794,2.8479046914267085,0.471964964889221,-0.5106673971249367,-0.11518901323409499,-0.5986815127243471,-0.843566213867485,-0.6029504573541984,3.0495747788129464,0.871934505237766
-0.14692346365064254,0.6655293225774486,-1.227019544793452,-2.126152325983985,0.11603382327593469,1.0432833710231268,-0.9750555330057354,1.2921348308793874,1.0801840414339612,0.5076953035070797
-1.718968492351287,1.3064375897097165,0.3568186965010336,0.0890263962844805,0.31264515302656776,-0.7837356705395948,0.32581052621268924,-0.2841767854389747,-0.5964810656389365,0.08092241919573233
0.08895926311397966,0.029832531300023613,-0.3378853416855206,-0.8624043534814956,-0.09370355199489379,-1.0388915767657458,-0.3609675913443026,-0.6417955424135809,2.0511082153006166,1.1323707282239897
-1.3904008575142257,1.4754781622480588,0.4694204007886284,0.5934436688419951,-0.2846668605065707,-1.208671746164688,-0.249962022298715,-0.12580530263591075,0.9097733777077431,0.2055977468830543
-0.0279494952552019,1.2030196204419643,0.4416412390526906,-1.446753675221026,0.0004748397946583882,-0.615310327513308,-0.07735306293351767,-0.6177510485467805,1.7715014277196617,0.37726625714422235
-2.49686426613423,3.142386232558363,-0.8274789614414874,0.3896824709603339,-0.2901166554096383,-0.1167921329742731,-0.7109944356501612,-0.1611683011916974,0.22037987709153373,-0.12708461240389896
-1.6443348258856028,2.6223346696243057,0.3484346772424014,-1.0421582265923974,0.16353687494588573,-0.3334588361178597,-0.18631055684131562,1.3245064884356377,1.470197332608858,0.1914690009501008
0.48146675667132194,-0.9000917908798661,0.08199667999524447,-0.06733902810618092,-0.3893824833493009,0.6439004598951749,0.4888979225088712,-0.49943733181349736,2.307692592314874,0.3825409902120631
0.5221712788680052,0.07615161380731239,0.22058062576638351,-1.2670809754334182,-0.012464237757735735,1.6508234336236745,-0.09981162324022258,0.23217620755571058,2.102959102545439,0.8346572514034273
-2.5099703569217464,2.7848537355889573,0.6434736581026139,1.1035033710710889,0.15422499356972566,-2.2771264866791032,-0.5276400186463596,0.21521940876405132,-1.7054623716184945,0.15227297999654843
-0.02465717739762857,-0.04328582200658626,0.6546840972098478,1.7933284348559815,0.04280043025405454,-0.25211239189136236,-0.1174144815463215,0.2909024153157977,-0.8559034082975318,-0.2918561932594501
1.1888899438299834,0.4454881337811816,-0.2199130685614397,-2.020154674949694,0.17457032970760467,1.2710896120601973,0.0017930837353088492,-0.341034444170354,1.6045699237442987,0.5069081833924035
-1.4141592386622184,-0.8368222922945008,-0.2546378830812543,-0.8495415863689786,-0.07922567502551152,-0.04033260245771711,0.4298795626318414,-0.6385426387229037,3.718161808887893,1.2637999738377417
0.03046893762525047,1.0786812820403444,0.7848354539195871,-1.9553276258581065,-0.26269238541444895,1.0029750284801062,-0.6548150499604952,1.0060724037274122,2.40131208788362,-0.0994567814216398
-1.8167491672971947,3.255736930551823,1.4778750461915489,1.4263470064525234,0.19282642515977727,-0.800136129887927,0.05801366095794203,0.13822886125188175,-0.48012557057482985,0.3500180843483287
0.5333740996556321,0.25296716140691067,0.052081788691130455,0.18397675310329586,-0.09004138101346405,-0.6252997279338874,0.0005545139925421749,-0.5967023604535856,0.04567086669729625,0.4480725649653319
-0.8206360890160438,1.4949206199801406,0.21897761903440888,-1.6572904350521864,0.10629430615542701,-0.013412857847002732,-0.13101987761097827,0.9506135573214687,3.2999889113678806,0.9358451092067916
0.939754130533048,0.3782089981774521,0.3321234511627432,-1.3198983665228172,-0.46099393024895824,0.5005250055372577,0.6185097542043818,0.5168500337272387,1.5095179716832927,0.7010841344717975
-0.10077418836493791,-0.2506845025851645,0.5960864273792621,-1.3015668951252368,0.34927697984618006,-1.053170527085347,-0.173007599904064,0.2654677420210656,2.647720911440782,0.9797535748523615
-0.25826683547636486,2.1666904247642265,-0.1776669694611556,0.4488587521277626,-0.4606569803187307,-0.34526520409781214,-0.06599187906554754,0.5259651035882681,2.1416733041821834,0.28165975980277075
0.9306889250124373,0.012469337905348432,-0.44056998727275015,-0.8545035886635068,0.1716085904236284,0.030289529289776403,-0.32924605498878096,0.5345895467164161,1.6217512779709229,0.5822907641260009
-2.411123826444326,1.9820517249412024,-0.21370939833422356,0.1404982898567828,0.17724756718734483,-0.547489190870093,-1.0325543283296796,-1.0003019381603058,1.6513037049180803,-0.8981375049404178
0.5805851025566376,-0.49752788124248815,-0.1466986906926893,-0.6682993727013763,-0.12760811184941795,-0.14341160399419822,0.07098937556389476,1.3392263769860735,0.444522033548554,1.2414628027628904
-1.5245013242847076,2.491167170394476,-0.6955218813619095,0.31441794008737867,0.2858714711964036,-1.8279268155751573,0.15703842651409158,0.27236963658563723,1.840482388532965,0.11463992128374902
-0.0856883359402058,1.1525672787201522,0.26127454699734043,1.3191696415332554,-0.3041789097564662,0.41142062545878444,-0.2770899444691784,-0.2265995118185363,2.004946497756754,-0.22683487181380857
1.9303570640647962,0.03877839118576909,0.4446796078113494,0.8045860363537091,-0.4465842177728781,-0.25660055200408516,0.6363338359088052,-0.9023021989425456,-2.1315840551674077,-0.257257115322866
-0.8282649845736939,-0.3990786874782478,-0.3957993025435963,-1.0496957257426094,0.18114610780979087,0.6220563878091931,-0.35719296394248806,1.1233661761209697,1.5326678166421117,0.34708095874559985
-1.993725015178074,2.711572526494439,1.383428263327395,1.6218410492221906,-0.1972940740210072,-1.0699516294000775,0.40288890677814154,0.0007580020105067188,0.5013871886868697,-0.5605005341132869
0.3852779288319817,-0.13328042243021054,0.284636092176307,-1.0370666199948388,0.04809589638803984,0.742516247233711,0.27035896226433237,-0.9664144213561078,2.673889768406132,0.39911060695579675
-0.9939294906633276,1.1933406019159967,0.2916339491052127,-1.8000969830176174,0.5422285972105575,0.36752459119769404,0.3131458119808745,-0.10007108047102471,3.9752627999783017,1.0154568388663643
-1.4750261770947637,1.2907802077103425,-0.00045972027762791306,0.6632436173700931,0.11159806986352769,-1.3506223478615862,0.06775867639603284,0.03988983766148482,-0.8509096032279284,0.15997677014370518
-1.000411165803327,0.365073836723667,-0.20049469169298592,-2.30322689655364,-0.3404048567068041,0.5272420663915219,0.04791462601566143,-1.4192453388569084,1.3096881439803632,1.3108573582192657
-0.9024740022609837,3.115785805334503,0.040207778551842516,-0.9230639966339991,-0.537807107321754,-1.2907535102832903,0.45733831691640114,0.5131786083394533,3.117891844155415,0.39106174300961966
-1.2757280020790542,3.055545438390447,1.1932510124040547,1.3347641915999144,0.11428437712776887,-1.2123283470166482,0.36242881677023475,0.039344215583098814,1.7769167538681334,0.7121561326824062
-0.0961402592100082,0.31994423360142066,0.5682780537021145,0.7337082230906813,0.14010964115934849,-1.0335754164305277,-0.06271322133870996,0.1859269855272214,0.3261221224743504,0.5920573758455828
-1.693330617548683,2.873425640536293,0.4020012622637209,-0.2536103509955985,-0.18639255377776118,-0.2715004793871047,0.35151492693731196,0.2571144685687119,3.9161335825084675,0.8600555289677126
-0.29178054543361365,1.2261390335040225,0.6436340298660453,-0.16963707140068746,0.004817012590923582,0.6030874882487883,0.8851416347367036,-0.34619703409646563,-0.09082123402229692,-0.3138411719895957
-0.37711206705099604,1.1882990622299348,-0.2517194445417475,-0.5964061780012819,-0.3775474239111653,-0.5450986710476862,0.3970118314130827,0.04537882826710962,-0.08441876431457168,-0.2778891846843273
-2.921031876928424,3.4206033144337518,-0.12078656388306155,-1.3207175436726901,0.05842911332702821,-1.8875200510463603,-1.2278714968370616,1.1039358233140233,3.4246008507447314,0.7375578498894005
-0.9393301053542451,1.9038691138296815,-0.47185383582223867,-1.6205160671588397,-0.6422563272409366,0.4451495283576364,-0.24125448915902947,-0.5472893803225267,4.925369783762395,0.5282086066945635
0.4882859945517492,0.5507902901929429,-0.20588839637536416,-2.028657279493758,-0.02897965262004151,-0.2114359337933961,-0.6032853433783978,0.6581467801578674,4.48139935400102,1.3220221690072265
-2.3045473343135114,1.433114735060475,1.1246293942443957,0.2633310128174196,-0.5474739703817387,-2.9341007298540367,0.42888300419457165,1.2813985310250107,-1.4588647434405404,0.036527151539962936
-0.9569332230756576,2.410380057244472,0.5625468964101491,1.1388569273492108,-0.37513931398207706,1.306319376825202,0.4278951909416394,-0.4996385157217334,1.5243111353884922,0.3047455182796201
-1.4399803197149064,2.707889208342837,0.3355684605345621,-0.3341388417292438,-0.14334177952128824,0.6104499530056572,-0.17326670347621487,0.41457335712799714,3.3331851460003503,0.9232671764748883
-1.208392544887478,1.1132883125521782,-0.3995104735386914,-1.4775646527277941,0.03225583289851611,-0.5636292822655434,0.6285697826299192,0.5624754446530464,4.261940037993163,1.3424932504938867
-1.1870098329924847,1.8509779717173331,-0.32509737398790844,-0.4377655184244147,-0.25920998208422186,0.14446462959944084,-0.180650367628558,0.8667229926913271,1.0258872417206129,0.8606557008428005
1.1824007160690535,-0.9465605332344941,-0.43028850420875825,-1.2789948113452734,-0.17762374001431872,0.8699006890326286,0.37963269989835957,-0.8519965155100294,-0.4237818236248587,0.2676069891523347
-1.8173067139615733,2.5743818996647665,-0.12531868048181283,-0.8560469203309741,0.03347224352757686,-0.08549714374399156,-0.363840715909461,-0.2310827586674681,2.3056662417859357,0.3352489649537119
-0.657321872915449,1.0338810704701258,0.4725271081374878,-0.36491202429286895,0.1305882897079156,-0.6903396818254649,-0.29905780741786586,-1.036700949697199,1.444808682227411,1.175842828663646
-2.1988150991444466,3.2068964732565073,0.5591901664472307,-1.0418504934500212,-0.3789605937463602,0.5978249811036767,-1.2216115533587835,-0.7239249256356568,2.1334293584203046,1.076339952114364
-2.4993885460646452,1.94752116173709,0.260899582893201,-0.7985789660579419,0.08345651848259895,1.6911743182910468,0.5830371356606675,0.5973978950411768,2.075801139123481,0.6260329329801058
-1.450449187701031,2.97649282715109,0.4557022786877296,-1.6133931219936322,0.01781530430604191,-1.1386142629631433,-0.17699092619872808,0.23740795055460326,2.703990430270824,0.7040760954319347
-1.7643757429188698,2.4459879785422762,0.20774073048856592,0.7186357631125073,0.04447510117265547,-0.8720987676415921,0.5249482365232346,0.39068155387172804,0.7068672813851524,-0.63827127935503
-1.2813835550965917,1.952126278688361,0.025133598855617726,-0.1732190717349656,0.09527920126687223,1.29321483619697,-0.5061583861391425,1.2279000857201154,-0.20128349268906082,0.05398137296312003
-0.11263324074793021,1.2288039583019268,0.4298986132304557,-0.9428088494600428,-0.03990101110614119,1.0014035155649446,-0.5201205509600464,0.1925614861224033,0.6160922134582791,-0.30453038658248316
-1.0753701054677416,2.047392157379153,-0.33559059693453663,-2.348707615958448,0.0763883336172215,0.15147034543773596,-0.7300524862262231,0.7138093381529096,3.4897391054990816,0.8381951372984584
-0.08948393052144897,-0.5835163272279748,-0.1622964835192198,-1.2476713688445387,-0.26067122168344603,0.9225948484424774,-0.10817310236992626,-0.16840036909243927,2.2092619809154592,0.5799963456756485
-0.5853115434080999,2.286222420394953,1.2215339729351709,-1.1668603171457526,-0.030015317274500564,-0.1274490118701782,0.31530460884860734,0.7181539653287902,2.168592791606506,0.9726519298908376
-0.6508781925542577,1.2318586153613755,0.3324314997159633,-0.15243623976938803,-0.05109117663244299,-0.28700470833808,-0.0854663483329199,-1.0807755797552951,0.8253634117547817,0.16583720157685272
-1.3791719076252973,1.1542787005135353,-0.4843270954011354,-1.9258497611212098,-0.02050274350982989,-0.2293158578851395,0.2653416233025611,0.3099269028149187,0.4532704984927283,0.2849002131530957
0.4612884766230115,-0.8461587516140439,-0.06260127960445981,-0.3453990628822393,-0.21363906923646434,-1.364448651676072,0.035896996810436455,0.4547800852084748,0.6159852398149099,0.42037365848998354
0.6083353997919959,-0.8026438805830957,0.09688504554700755,1.9837543457222422,0.2156642152912945,0.8841288350349984,0.04930057167525396,-0.9055725856005082,-0.1658591989010051,-0.07201926970033343
0.7398999239435015,-0.6703595819578532,-0.2121399331905011,0.38455802933084593,-0.2934169924580786,-0.07271029655631747,0.6241947630528379,-0.4101770724644505,2.4953835631214356,0.9786417678333805
-2.7145624745692265,3.056537224345097,-0.5858207465189406,-0.5984939699686809,0.1969863305309938,0.4565640417406451,0.17355042762127168,1.3578932810080786,1.0343587505001772,-0.006611669821057383
0.6628434542422206,-0.768434389637439,-0.47998664066517394,-0.47114136758089553,0.18482889044679846,-0.4613375013640653,0.6498764162095613,0.16994243435348663,0.5848904259867301,-0.35278976129068007
0.005388330973502018,1.6326972399840654,1.1891593934879134,0.6752290389735325,0.19702865905900116,1.4974332788977354,0.48728208510159154,-0.031029390575822137,-0.6978110071386582,0.1115029099544185
-1.2631689324296071,1.3027609671325138,-0.024622384923672042,-0.04998605193602057,0.10769645190746913,0.9649055258838113,-0.22864339559971464,-1.3880208578975115,-1.8799513743033236,-0.06990811906565171
1.2087484135439497,-0.5443959318883126,-0.3132044051543755,-0.3702870151735591,-0.00029174583457097227,0.6805908704982174,0.24672603923124986,-0.15824237528521684,3.813569949367288,0.9769777829674312
-2.42128603378439,3.0205140852970587,0.2715048945655697,-0.6825502606311247,-0.0800365929145962,0.13978257072768752,-0.20576733142463238,0.10193094258084881,-1.1889843776783746,-0.3843738913189968
0.5090315985313859,-0.9088558685108555,0.797385765199226,0.492398831555399,-0.07385152985068208,-0.21866430331337333,-0.2582148917319149,-0.12110526981458769,2.8416444212403333,0.641564066358918
-1.5395782342215323,2.8995021709937108,0.9419496651766677,0.6136463857571332,-0.2872268591895671,-0.9973829782790911,-0.3960449733246054,-0.5932330174078506,0.7282242226007349,0.4098661996362496
-1.54056360503967,2.72804824488911,0.8190447319448624,0.01117583871235886,0.01944214733328079,-0.7977903272986421,-0.4298029200587033,-0.06232730945543166,0.7766801577730884,0.2824828044639928
-1.2715058583031935,0.5082542708578641,0.14444272121763418,-0.874991029051247,0.09662486972075128,0.9138680179373393,-0.9767892596578962,-0.6976851781157818,0.6651316407123329,-0.037115057552994095
-2.527755096340259,2.9901715879352055,-0.5173148129145553,-0.5987901697363635,-0.43029044445381237,-1.0457810898511017,0.22653338823418864,0.3180288925034585,0.09833524690280698,-0.062006295415159784
-2.742723979219845,1.3411441307822494,0.1829558755074405,-0.06600414781877609,-0.2218376178750102,0.18495821851166408,-0.10120298641651762,-0.35710829383096165,0.30395281370589733,0.33386004288648846
-1.707006565980824,2.9543575424071986,-0.19212449435146714,-0.6414552154477897,-0.039145621443232165,-1.2710766790889987,0.17191365706856812,-0.04905778043617339,0.08803640709993599,0.8604005457530574
-1.1992099156703167,1.0966258936191906,-0.22358805156112735,-0.6772847027066352,-0.03102519632410963,-1.6045456018261965,0.1659162463091976,-0.031053419037965168,0.3688458221184937,0.20524922860486583
-1.7608271539542948,2.271540639741024,-0.01223545038776956,-2.1117994458733182,-0.08653871818047562,-0.8225726058044547,0.1932735701824711,1.0305867580014878,3.971381491275163,1.1292323244489693
-1.5693672287207598,-0.1253784256147279,-1.1178173744103732,-0.7158511374575149,0.2683098531199175,1.767714459239142,-0.04599286962847506,-0.9300127631505348,0.6057723330819319,0.20797838277091282
-0.395732144107477,1.0067715213935018,0.189277595555873,-1.1067279474173213,-0.19211331768350354,0.14997287111422541,-0.36073629720795963,0.26049801607175305,3.7938939874981816,0.8174558570931706
0.25147623781923606,-0.09709899114250331,-0.2554765722634906,-0.9533943702858154,-0.11729944716401851,-1.2358485267538823,0.5054641065693575,0.9859304493903567,-1.5370606925638426,0.1651955395754716
0.7872833830880562,-0.3916553575999643,-0.4912105804233563,-0.8254263713551411,-0.3424619673107768,-0.6439455929200049,0.45055394710195446,0.30199013345648557,-1.4073257411700397,-0.3922699795458198
1.094576911082413,0.7291311218741379,-0.46911036502850884,-2.186323141866697,0.02507797733515415,0.6944757454316284,-0.09345522298154847,0.43502394301724134,0.5759276830962098,0.5686669480477452
1.7996197265158314,-0.9232497193975853,-0.4632348170649586,-1.1139009232960642,0.22433795938496834,-0.07529668111922128,0.9074195835064676,-0.8137025520464205,1.644066864605479,1.0807133814862302
-1.3556427311912025,0.333260412133493,0.35965056724660466,-0.160455332997414,0.05249861339787629,-0.9697080138909643,-0.18310600276592703,0.5597391590244832,-0.2615948808067931,0.05460734404068942
1.0254536118151334,-0.21359630256045392,0.2747652230321019,-1.2871563995600575,-0.12213561779553407,1.4239843044497145,-0.1891836301448462,-0.8890653679012906,0.3758925523410218,0.03365370211340048
-1.8870017253393858,2.3373253405887984,0.06303544974633267,-0.2007614609390097,0.21714802979086822,1.124050931257095,-0.1532667877082259,-0.03361961623299604,2.4635302111349175,0.7590485802617544
0.21774001946103008,0.11434446348836969,0.13517006973723025,-1.6091576593967405,-0.26634656770358556,0.5097637406195873,-1.1116191775389437,0.691065357295533,2.225573198171797,0.5832562506262611
-1.5281503842883748,1.5571934130232972,-0.18279972115081466,-0.40725740617091555,0.20367531879831147,0.5378655276051708,0.3571435922883318,0.26634638644697267,1.656811829177921,0.6863399566153043
-0.24809985295593334,0.3102981339311872,0.33715066000344235,-0.18581924650101567,-0.24837861002147404,0.9179670343557301,-0.02829285971324281,-0.5147508290144889,-0.04593767095992485,0.5252072530474085
-2.41722100769472,3.2582087632891854,0.008802567651905622,-1.359058064489218,0.09206477092375445,1.3196780984794971,-0.11863158118449278,-0.6615623916018354,4.275489558866276,1.0619427932081034
-1.0813093512706495,2.8181281251880064,0.6698599014896884,-1.6961072565974735,-0.17211411590949385,-1.4709062030485742,-0.3661325568556095,0.5438109750196155,-0.19775711109494143,0.16897096806379835
-0.0835436193741068,-0.9897004891076381,-0.17082639995937918,0.8009217457938196,-0.19535198901749665,-1.184579344935261,0.13296974020673621,0.03286995976578543,0.7103876145074339,-0.3509077440733993
0.11757606680041412,1.0399645175209882,-0.24935055990363675,-1.507334778954871,0.15269923802822905,0.5784396906786616,-0.10764096787222706,-0.07603901961794594,1.7489819950605128,0.5798556670793984
-0.7500670245787696,1.2408137984447714,-0.3973875479096595,-1.63337501560558,-0.010217225632568359,-0.1097043912110316,-0.6157663110256595,1.3298230636072277,3.466675834967987,0.9746419914196303
-0.5727966378777577,3.361828195406366,-0.43748750829461963,-1.018832862504648,-0.37532401235338186,1.229162643992105,0.5249623870004093,0.9173565042591191,1.8555750256919055,0.7301132279873869
-0.08745347678666186,1.2395767607866546,0.2753290529124593,-0.07927180869305595,-0.13880585048837032,-0.3265556183389056,0.49688901686526665,-0.40003828854758017,0.9881739879782399,0.018550010881497554
0.14973357247403296,0.9573104215043966,0.5720587560812693,1.2469056709002564,-0.018090317097651236,-0.7000106607884158,-0.013652539818376504,1.28281811758276,0.17100521787323592,0.4706156431069194
-2.89572256365457,3.016719721132435,-0.3781166376881825,0.39014570957097783,0.1913545129908163,1.9183794472891231,-0.44565005193790636,-0.5767212078593066,-0.5631583706321177,0.012595037780823824
-1.4016197536318133,0.8199622761668621,1.1026182536155285,-0.37409404856861106,0.182605459268447,0.11606823402972699,-0.5680740925229093,0.15507380904990672,0.7844557621166308,0.6461830616875193
-1.698362716498655,1.590228643787618,0.66955159237886,1.0414471956306877,0.28850238295925174,-0.7934336086662719,-0.909116032747494,0.6788882994052713,-0.4972133399064706,-0.26689609051116786
-0.22529761993621833,2.637914804541242,0.5040871842954047,-1.5902457552316835,0.00488340344113404,-0.6791246505265487,-0.39805149914447824,0.6559097926622922,1.605992957500736,-0.04123206661062027
-3.5663121711712082,2.417240373293336,0.6738536971986707,-1.223496375698188,-0.17939495649164067,-1.8558402109527754,-0.18213907720619268,0.9174823777591071,3.325959074696538,0.8131754529835901
0.5451960400949222,0.7078212182289059,0.8242430979610124,-0.6587725702471127,-0.18339225767151815,-1.7839356059961802,-0.5414377901676358,-0.13731982468690865,-0.12881293526979945,-0.08082082168340624
-2.127089115372066,2.2958088642086882,-0.3191800379513497,1.6025349898621644,-0.1714232978828769,0.1152007722608892,-0.16285676573458488,0.22782558268906822,0.5310756557659886,0.2584466049631816
-1.179356222851765,-0.21855788052377,-0.4873154636471569,-1.3629187859604717,-0.061937865782495584,0.14991265394376166,-0.6445386978069221,0.35646605581043567,1.6458177397986162,0.301107924382717
-0.8295684173437062,-0.4325023102452775,0.2704496900438072,-0.9025574712544142,0.012518806704714672,1.9407588438293237,-0.42960170424116306,0.38757893695774426,1.4668976505652687,0.2360150920532331
-0.7966934092947132,0.9017330382670923,0.35920496548942993,-0.4600995355400188,0.4521902701845002,-0.5208436697101766,-0.2902179491920135,-1.1675491678974632,3.1398503574598666,0.8917790863509323
0.6748154680822139,-0.640102589120356,0.49552510090949353,-0.01371695257191157,0.2046376964366414,-0.9979182484521831,0.31749087399036624,0.7058576394303882,0.7021363517868832,0.061829567763120666
-0.30576313128736626,-0.8032279752078902,0.11850640729430184,0.34333271050424446,-0.07208464770998328,0.8144898104204796,0.3104831971733999,-0.03950352679917129,2.34455785804639,0.6489982365953662
-0.8937847371619626,0.8006558168303342,-0.20430736620056067,-1.1031376169093015,0.030284986258338024,-0.6535952185885987,-0.11527421636457419,0.1722837990062943,-0.6133702392968428,-0.02863019208081497
-0.8582994076673236,2.666570491011079,0.4104351773893428,-1.7908162693423977,-0.16898422080669695,-1.512558558281841,0.4301276002764641,-0.124730082696302,2.207302642195512,0.7513982149571846
0.16507709226688433,-0.43383562668590425,0.503796874648302,0.5417654929218946,0.4235723365836031,-0.014039847286517602,0.2524331766652103,0.2401886979238108,-1.6001798268416578,-0.4333343797267043
-1.7832227175439743,0.8826825787983221,0.5787836663591421,-0.7377019156655797,0.050601178786415124,-0.3798793736886248,-0.35991150416729495,0.560919213833952,-0.25054774779971867,0.38712559173245364
-2.7673591741699237,2.686734322417208,0.04412624803627317,-0.18246533742712923,0.07089021631115719,-1.563679582573675,-0.2506680596055451,0.16274587288817527,2.768529559310392,0.6785854317261696
0.7618890816251457,-0.5820269967702325,-0.43366839731795775,-0.4682237032997903,0.12367996371007958,0.08482389376561457,0.12091156632337567,-1.2636242266220146,2.00408766047644,0.20485139156069213
1.0843674805888035,0.2556449021651934,-0.6811264726719221,-0.7329410654152759,-0.05780034976777888,0.37860633769730495,0.5177655983859872,-0.24155234564393382,-2.304948722568561,0.19583603922477572
-2.9455160381229066,2.5881521758396344,0.6259641490832815,-1.5227890419497832,0.0004162999321090016,-0.21132966239015583,0.06745920720136825,-0.7289187845812791,3.54214059186474,0.7570142070396094
-0.5308306618875789,1.1355922125899247,0.3186501761612689,-0.1866760617963475,0.28568469527075774,-1.4353255483249692,-0.49226229867123483,1.1107946606986787,0.6853037896811065,0.5105793989551333
-2.28538978874103,0.8301124147053762,-0.47932546032004897,-1.2332970542919912,0.14776113649191688,0.7168525996135434,1.085355144122395,-0.37341069558810974,1.8586065797798579,0.20909060346626132
-4.186911697456371,3.218053846713466,-0.25032076234496486,-1.0221507916521746,0.1735513636119166,1.2612194233491403,-0.34934419001801276,0.35534299516993106,2.35155699348848,0.018892345366214792
0.813952600986509,-0.32778324135583603,-0.10208881236067302,-0.6754058432603083,0.15184984963693585,0.5555970058882186,-0.07343424257067044,-0.0399781126554207,0.08506033247481803,-0.4180812461591203
1.3837369793189145,-0.33900813100501714,0.634625936143749,-0.11603764407770464,-0.0732363850976961,-1.3269631765129049,-0.34128898558397364,0.12205267683177147,0.9918127036058757,0.23948246165129553
-1.222398499809357,0.7488644835789604,0.1322568141480976,-0.4547855599554029,0.08986948056784044,-1.0226631584255463,0.17611168257696583,0.3313049433028702,1.2859215864102653,0.28996953113552254
-2.0094247491770063,3.032848816791507,0.2022413451610121,-1.5869210282323598,-0.3156124175995232,0.9140991515055436,0.19125032954627663,-0.19148065202629394,2.002336251034036,0.3160152572426472
-2.11767094376741,1.2060074081941674,0.08782643807232235,-2.602068079527223,-0.06556796468209596,0.5167517054729356,-0.06838683915552067,-0.8529439021845971,2.3283572242063064,0.3033003113531244
-1.3490067641822394,1.7627391242351869,0.021699138182505427,-1.0326070778373189,-0.005809439161321362,-1.3267821369010062,-0.09442849015798242,0.5798262485159223,4.028711042467204,0.8325558340222419
-0.3340920158922707,0.9677246239620152,0.13922126294053677,-0.7853077443198575,-0.02192304431217666,1.034031811433798,-0.4173638066260217,-0.18013647745292607,1.297590006378568,-0.6687344926411215
-0.9122374102231753,0.4605271123042767,0.34058545172312227,-1.2016336651963997,0.006977975302088156,1.882791534676039,-0.42560951839399813,-0.18879765256785974,1.0566924868000276,0.5271232133418471
-0.49046200555969893,1.5340556059932258,-0.48386023450384436,-1.8935900425987102,0.11492226246098716,-0.6401992155240006,-0.5883609495341241,-0.19839619698856276,2.036812715711232,0.30514824665264056
-1.8752418746901782,2.280128049385571,0.1964686929350106,-0.5906539232257773,-0.16192138671728828,-1.3489347409336636,-0.3633918811876117,-0.18083367428695846,2.0350664935301914,0.6685987837158468
-0.669786502600423,1.4653162616993316,0.2620825705068519,-1.4550799830870254,0.09993233637941473,-0.7750964612376661,-0.440640444945171,-0.09999085991869444,2.2756199540310837,0.8379478331467769
-1.3420853019151964,2.875995502935028,0.5521422725267325,1.188518457228124,0.17084144548217528,-0.10273746443704118,-0.25104566749883955,-0.36884345048140427,0.06013479535421878,0.09994883421432021
-2.1568704132684258,3.066832520109635,0.19057481267339785,-0.4457303395541439,-0.23043850440733923,1.3737295038995023,-0.3569181938033559,0.6586359267776006,1.429574404652092,0.4968230002475702
-2.34285173377079,3.4534623991014444,-0.5043651710773459,-1.3643557336816023,-0.2215102017784871,1.0373524126304285,-0.08958423159561729,-0.25418666639349824,1.4124430188519443,0.2511145614909435
-2.0326828484706865,1.0144090010327385,0.014882285220146818,-0.2917823760644398,-0.4546123332513744,0.4562066275743417,-0.6387611850455722,0.5094428128450759,1.5780510735636963,0.44147602805462904
-3.7926420005716013,3.0246956331897286,0.291964998589936,-0.9050883922197669,-0.47304581689189573,1.6138777209262787,-0.5385008480471482,0.3477331385521667,3.3819783561845784,0.22426323341742258
