x1,x2,x3,x4,x5,y1,y2,y3,y4,y5
-2.5261984660076706,2.9546813803438514,1.6870157098933447,-2.32115606313848,3.5533801574170107,6.349339834172989,0.7829278294970798,0.801733733781849,-0.4239736833718549,-0.5005206564974817
0.04401885140095699,0.7618455547724234,0.20133122152174127,-0.05164719681150584,1.8627219517927958,-0.09077767777160292,0.28484273648276376,0.3368810178038034,1.0468463721012822,0.7925560244665906
-1.6003194839409642,2.807110943231723,1.0697981562806518,-2.3738616692473884,3.710230430728948,3.449964648747701,0.39291374088990666,0.424385824535128,0.8113251982262246,0.012227224388819057
-0.3101051668773845,1.14437449138414,-0.5316940538448579,-1.6813582996884513,0.9436090207798982,0.8451663887373368,0.8366394960874453,-0.05354994787330597,-0.38142454423685923,-1.100311095467206
1.0224991448077652,-0.30593053905120793,-0.5896767541361871,-0.19553761477081424,1.6601883679031033,2.119424818524371,0.6949215052802902,0.5917729187326447,-1.1820836772267984,-0.15415296407484302
-0.8236972991046755,2.9386327144702995,-0.6194425966727568,-1.7582032519814317,1.5857727961669768,-0.7060860190896759,-0.11275986388029739,-0.014357828048533305,0.41382813058269136,-0.6960691454105143
-2.17893818482248,3.17933958120207,0.7986269804894331,-2.60947911282736,0.9565284393179931,-2.0898839777624127,-0.4321888546365064,1.2346977337482699,-0.6862118507587139,0.10807694172131359
-0.7946488699720844,0.4401650267869601,0.7933312373129671,-0.3446656631765467,0.4206969910188285,3.9799323388453667,0.9910017558097485,0.33944905823289434,-1.2534066279634775,0.2988159014719177
1.2452240936386767,0.12979980953235515,0.0290958999940512,-0.4826414683140287,1.299878303940176,1.1667479044805182,0.6799469850374112,0.025100166270469626,-0.29085861901307,-0.5961542058025115
-1.2092213943072807,1.357391870564998,-0.08487172563690483,-0.42583877194422554,2.45964957711373,-0.28652270435180327,0.827336342125357,-1.5560856615857637,-0.18567142586634555,0.09068936500428657
0.2418370970970057,0.4150423798729781,0.6993425651395719,0.58844015320205,0.24132213665494523,-0.5493133912145725,-0.531833770617054,-0.3973233629723173,1.0449082476947427,0.4903527215756041
-0.4891728634865643,-0.9978104349817353,0.4235191851154482,0.5939417405385422,-1.6864510128387855,0.6557819862627318,-0.07441298212241335,-0.7561355934131296,-0.7209960975359564,-0.48161724974696224
-1.1575420685268052,0.992407566132762,-0.31732418477150137,-0.9252895321010802,1.1585460717909153,2.183674666495511,0.34079336281594735,1.5025048452580914,-0.814997849057555,-0.42657863570347115
-2.766003083991958,3.429415885392416,2.710751741216222,-2.3210094826791505,1.9379265342631586,0.6369329270183444,-0.5896109356433654,1.9993319680757753,-0.48409254498999066,-0.3211919925351723
-1.1194022642432675,0.39485712746279633,1.0766455925155785,0.48268096213290657,0.17618746207383007,-3.216422040724699,-0.29451842900969094,-0.27992711339815496,0.13430999007165553,0.7134457589547253
-0.3820161246467152,1.458273555690281,0.7674425615145749,-1.5382525914642664,0.7078226728661074,0.682323164528541,0.541723535720797,0.808422019166858,-0.38298159417711997,-0.16474555533992324
-2.0044511503846105,3.2981593129069404,0.8710130580838099,-3.3361525289283738,3.2910050625070806,-0.18672445845212593,0.22778955967615513,0.6908279157672546,1.389887883622314,0.7554212518559223
0.05665170174092035,-0.06596413252631184,0.09098438985702563,-1.2349041086818986,0.44678533617670835,1.1724595550177606,0.9402199820145246,-1.6686774512183726,0.06875330946186436,-0.853182998115234
-0.5960357393538172,-0.007140649573419089,-0.6444744385264766,-0.831497133038561,1.7048831272555622,3.048515051324616,0.7000728465752664,-0.6865333950718551,-0.16987243296540805,0.6879375848593385
-1.5653645313281046,1.5425515921207884,1.285353922797233,-2.807284537277657,3.3917357108746016,2.349801755864511,0.6565890542729474,-0.4154150619640956,1.3696729815385063,-1.0949891335579764
-2.513160753338344,3.208101814203596,0.4414298909502747,-1.2248042508398926,3.205292880201384,3.923995829508324,1.0771886187405295,1.8854639745501658,-1.3555214362636265,-0.39998895318781247
-0.8329843403586737,1.3528778128446008,1.0165852107591515,-0.945726209517978,1.5293641901777653,3.6338706843185156,0.6189469611813146,-1.629451966262169,-0.024839502398009847,-0.9790506291040232
-0.9163045661148301,1.4531790255820267,1.553958155242805,-0.7295639384505095,1.1809590004275718,-0.7743141872233412,-0.3697563763581618,-1.2613739233759276,0.37827030983852805,0.3007169611080932
-0.9825163519145291,1.8171421691102383,-0.9937162770823869,-1.3218598399230113,1.9236892785728197,1.6773374180462235,0.947502620228947,-0.7880020216380221,-0.1868919758335837,-0.33079545402228977
-2.444717069531853,1.7415193231707922,1.6898943069720123,-1.2296407842789818,1.8988760499826145,3.4690455663056126,0.773038028712481,0.8236000186433319,1.4390601814573698,-0.7784125127162569
0.8763683115803342,-0.8666240047637515,-1.0641642889540375,1.1420609158901978,1.6551023199867922,2.675936772268942,0.2876586027831577,-2.945184428255046,-0.1460442445270405,0.5133363281817359
-0.4487567722381091,0.8409634185401271,0.44962790401343755,-1.1904047531352189,3.7011240458119805,0.8989457412934596,0.8504516664484144,0.5217581930801495,0.7779317985232082,1.1468418032084509
-1.7599052478427843,2.5175149786621978,1.6748867902443878,-0.931199533255667,3.5682940491952033,2.7430961584811286,1.0880487598311013,1.540292689801725,0.07694525463379435,-0.20456394174634035
-2.131279747493679,2.822644996435696,1.3119928205847815,-1.1305193374950468,3.5363958732241096,-0.04498789752879295,-0.323481643659192,0.7210853990586646,0.22634278614657144,-0.7510508569897699
0.6700758863564144,-0.7507555787352725,0.0004095023140408733,0.2092021916952769,0.3919873639345033,1.4358895046998796,-0.044466409701827345,0.10010260104337054,0.044998022414673294,-0.9006518386765215
-0.021341717792648655,1.310807212964881,1.2224821109027249,0.45159418002176577,1.5820052798035202,0.32119837065398393,0.1972736507035595,0.20932719540702954,-1.0162730949328047,0.4462387904519572
0.8035060734902845,0.35500851650129683,-0.9952201359784533,0.5248290719196582,2.2432897450490428,4.115800688544269,0.7260878200874824,-1.7095818941752123,0.21644099056746907,-0.25069128123799334
-0.60962749821055,0.949479314011697,0.9370934956812178,0.3043814826935356,1.0151021697155254,-0.3500881034533926,-0.2140860714277075,-0.1551193104215965,-0.7599752057286335,-0.32835001896333527
-0.2809202582918647,0.31307326053236584,-0.9806520174008292,0.03261913909079824,1.9279411823210306,4.366546261158245,0.27023324098734386,-1.846157905440994,0.7510072680433102,0.6330967712216138
-0.2958964453898264,1.241073632181359,0.7558911444813141,-1.1931272096498562,2.0166469696400307,3.2920627502792597,0.8558410545200003,0.29998307402872754,-0.7719229411161306,0.37047314311641305
0.8046339289697192,-0.4681658547683648,-0.22900089681575,0.24217459592219126,0.7460091190197675,-2.574214538872004,0.13637215293587535,0.7651584446499481,0.13749759153854577,0.40138785005825933
-1.3144021097295557,3.255666727393338,0.641010771408741,-1.4696299975251277,4.595627378896578,1.7955994757782763,0.17507516541000978,-0.46338778736037156,-1.668984398777221,-0.8209182754492516
-2.3286928669638556,1.8056551554262472,0.684480702087516,-0.811870435040323,1.9951009632251453,2.842669916308031,0.4725815944893347,-0.16440568593470634,-0.6475907503367911,-0.17446000093955702
-2.4106000041554134,2.2987623486631463,1.873442065845344,-1.9263971087275835,3.0394321652645364,-1.68287872504791,-0.25924317152310755,2.2613724596277582,-1.041090022051771,-0.4667167350190562
-1.550682942210303,1.752611620656479,0.9546985503258282,-1.0874456963383028,2.568523262765259,2.2847476370613164,0.9530290925594316,0.4616171367902016,0.09291656146593912,-0.1828336711207312
-1.990298611154938,2.3471235642192365,1.6555099814374639,-1.2995890874536207,2.708018524781356,2.3191803246831757,0.49813552570729797,1.3369467622684108,-0.14062948262480052,-0.42210455762304877
0.2422108403895691,0.7287074430439582,0.6031261960479603,-0.41579505392850535,0.4029211271300115,0.4265101235030019,0.03182736880258369,-0.38840621606233816,0.32997226297358495,-0.4714700893281097
0.14348431063617392,0.08636431860243432,0.29353199535295277,0.03927734802937216,1.1671733034946852,2.026674966877126,0.33472023695312775,0.46016572930788274,-0.39704523488777205,0.04945317732937792
-2.695764889114327,3.034031093739122,2.3027136806169297,-2.140019561781508,4.244460191378423,1.9812213033339,1.2213113232428952,0.2463333448366603,-1.1104844349672867,-0.4322480997857003
-1.732297234008263,2.6100860154393626,0.9445411832565126,-1.8489444435430744,3.238111599404085,1.1380458811975729,1.0902037543383505,0.9548622466490884,-0.030154178236089377,-0.45579804909939375
-0.5681074663801171,1.9870948588892987,0.404463025219443,-1.1606754623249602,2.6584853828846113,3.066179489998138,1.232616715628949,-0.3959227387963204,0.4530017506543101,-0.20963687877887344
0.45645139139877555,0.23099967075763206,-0.7529435948866599,0.23626256273647847,0.8886427820497633,4.2967343929232875,0.6484061165706018,0.8117504928692709,-0.39160677277528133,0.7365909273663473
-0.7031765180609189,1.6661406518757018,1.25698273204238,-0.8475386985218158,0.9414812374256321,0.7469890328497699,-0.34879853782741804,0.1837596390983677,-0.4064197966488087,-0.3351763002020566
-2.1136522537554465,2.8037651158622214,2.3432944443630523,-2.445147309031643,3.0885097533193453,0.02473077816508551,0.20939146292433242,-0.6109213342060067,-0.27620422319272775,-0.9264419857020603
0.13701704381369087,0.3244831127870189,0.5213403001312856,-0.6963219673547276,-0.08753841126011047,0.7119222496437824,0.11461907900583411,-1.0405834700122407,-0.2872902897199575,-0.22273568550319495
-1.3833632746353657,2.898539853168616,0.9335961562126238,-1.7681615118746719,3.6144793164284703,-0.3345907468436329,0.11985737806607202,-0.2846983214310076,-0.12095928861887907,-0.5951334108493428
0.5350387667466178,-0.6642023169767702,0.06268275252434063,0.16371612191680054,-0.2254525499252774,-1.8231922435029095,-0.3830790923738149,0.3140455177447302,0.6933792600676081,-0.4676853035449827
-3.936758710541974,3.4258623534424357,2.802283996420035,-1.5038428144153704,1.8003625327358372,1.1450726807064497,0.07730650039143153,-0.8846861154972487,-0.22967666764008862,0.24041688875531683
-1.6773226366986052,2.118313272953063,1.0828871299831984,-1.9531097855166115,3.1602301998124176,1.8347115554205464,0.3915029666036605,1.902906782911816,1.2352639711540465,-0.3145468921316538
-1.539385461642104,2.1247817916850775,0.5920830145154381,-1.6647077704378108,1.6072078956283524,0.1432832820655433,-0.6911561741303345,-1.4616380410501233,-0.2550351032658747,-0.31443316845691877
-2.6285461573425546,2.7379518668684986,2.782897875862038,-2.0417069122888085,2.941712158564137,0.44757233176130995,0.05490281858105976,-0.18493974693347984,-0.25140781538855833,-0.6955736009568307
-1.8552739971871606,2.3584435123193783,0.7658376649807349,-1.6767975472491707,1.638704527937646,1.1932838169509759,0.5022912316443374,1.005803980582034,-0.34317074042605505,0.24034579404740503
-1.078472508577945,0.48905412585999763,1.3024825745141297,-1.5951327171248189,-1.178009740101388,-3.19473482043568,-0.5037547317041803,0.24823818066099967,0.0047588054060867324,-0.5349096258514473
-2.3405001385378132,2.6361112234676622,1.1704379059776637,-0.8539003124403723,2.376922818672344,-0.5966167824914712,-0.3012896655440096,-1.2863697979887696,-1.2525438507615352,0.6738966317279496
0.3830850215357731,0.0014916013927228633,-0.3092990022679432,0.5771879294371084,-1.7179103395051718,1.8768307152529755,0.09134208815762233,-2.1686573833015426,0.24523710499267543,-0.37801991969491566
-0.30275138136211327,0.8825685058943968,-0.021314731399658192,0.1275130190338261,0.39957260129907923,-1.1033839920168773,-0.4673352090943372,1.1975360021605717,1.1256642172850424,0.7386234979441411
-1.2540128761191718,3.109922410456976,0.8896997581147679,-2.9549732872412386,1.8839010178334261,0.4992026584608512,0.11896501490647612,0.40648244973029607,0.18858002667628285,0.6065481746128426
0.10438906868427994,0.8709944465343735,-0.22536199736135337,-1.3618654025816233,3.4941070007723245,4.288095391686469,0.9953916036694543,-0.13493410365467562,0.6665180004831058,-0.41420816445110054
0.17513821950113564,-0.6748078098813872,-0.4402151725957104,0.5901062714270906,-0.7110576004912191,-0.7432308467183657,0.9069844138118128,0.8493699951502824,0.1869128232483867,0.5971727450292125
-1.5834041749275198,2.1948665028785315,1.2555890803977254,-2.32707507523743,3.2888158614057104,2.688667751996383,0.3158207330013779,0.7667877791761,1.1565145370952417,0.6802641330027945
-0.8587781946949239,2.585300071422309,0.32742899839073875,-1.3517181511831302,-0.34634166119590415,0.5418893328034484,0.01992113972571727,-1.8939189104470342,0.4581127617312987,0.5314617184215626
-0.28726803364091763,0.32694448569126955,-0.630241114716751,-0.7250536250734061,-0.2490762736838667,1.1057101432002228,0.16509198193962052,0.8633739578130872,0.050619560816859074,-0.45889348704228966
-0.4031962216041807,0.8415397171405503,1.1208188453700443,-1.6999272781105759,0.644737634662697,0.1080500140262975,-0.12158804526582451,-1.0816332887393787,0.633096364257142,-0.8600386314469669
-0.6448109598560962,2.0573835064023873,0.7494707870060792,-1.4707553499730728,3.5108252714446095,1.8336672310061384,0.46889542531437456,-0.8458736485413287,0.7762845598130248,0.4290183156178339
-1.9539185858488481,0.8514666305641472,2.0308721143123645,-1.3486852839919254,0.013504442799951999,2.770421779383952,0.35878628152268055,-0.08754026592807668,-0.19949871911624925,0.10314093718637575
-0.18021782091086916,-0.8829980449316986,-0.8442603903531017,0.4790849467525631,1.0556138921275875,1.7406882907149592,0.8874641111328285,-0.7582660389824734,-0.7028080044124112,0.24978327513159446
-0.08775518807635382,3.225561635738579,-0.3127108942140681,-1.7100190009339031,2.9887037140160073,1.8297452995512642,0.5382912681282375,0.1079903033192256,-0.8222872031827202,-0.1027833551980604
-0.6611106969525147,2.68474883712436,0.8002967067005091,-1.7127486599570234,2.604158021022411,-0.06662017618057448,-0.3414888621654082,-1.0331754260456931,0.6505601784426273,0.4504882573261844
-2.2580118735082566,3.2258671544313025,0.870571919455243,-2.0683348921366904,1.986095959933893,1.7974757817649007,0.16671573746472704,-1.146097108380956,-0.8569142077857438,1.0404383086472782
0.43795549107869064,-0.45893909661517374,-0.44098909742467474,0.09647462319735009,0.5783347523720912,1.6950951070677467,0.20376025496933578,-0.5880182014438768,0.220408341351298,0.32227415899844647
-1.1120321538728077,2.1410989964430334,0.37798610887476075,-1.185979970262448,1.942766599686649,4.285597987524573,0.363811779961474,0.9510791224428987,-0.48860059219604657,-0.2743359311806243
0.037425683921842715,1.0278878137504588,-0.010130420865379677,-0.1841082232238753,0.29843888695909837,0.6310026203530963,0.2170484231054032,0.24958755465611113,0.10147510755137974,-0.45164048288359193
-1.4605490242458918,1.0876556716234567,0.9474290436831486,-0.8823398380578092,2.849947261788431,3.714851340371027,0.43011763138368064,-0.39070127034520213,-0.5450854273219418,1.0544849511102963
0.8503348176313853,-0.3433779642200675,-1.302587202402606,-0.08760378474233907,-0.493047669193304,0.9774092266536074,0.1921747393850241,-0.06875478034615301,0.5460260297567957,-0.29574112180852197
-2.3802341391320536,3.3146573596280797,2.9098365740842835,-3.2019037834483095,3.5271724863574043,-0.790457083101963,-0.2157387625899184,-0.7090391074701965,-0.31674501914722036,-0.9213695591170493
-2.2175217376137795,1.294112627933739,1.771808823358663,-0.06642379927032195,3.5044619526369347,2.5004687853145025,1.187302042673813,0.17610823060674818,-0.4159487767806019,0.0724636942451717
-1.9601111254639219,3.015543964360215,1.4631195045383942,-2.2586366087240966,3.865458405578161,2.049650545568974,1.3988186023855667,0.9417189097188802,-0.46381329736069893,-0.056726338211720496
0.05783127392117517,-0.11647655962086045,1.2877116292917534,0.23220424649108576,-2.074039539211721,-1.313954798642273,-0.48368486430255153,-2.253687116531692,1.1641984011247215,1.845475145997172
0.3381104796030333,-0.44241502084713913,-0.8467257713931305,0.5129568328989941,0.6581870865007261,-2.5917178151805498,0.10288194558912286,0.8937389465830978,-0.029250574647988217,0.24760774948128908
-1.4037548246022535,2.6512437353389626,1.416771275743964,-0.9038112668815274,2.4031667284736553,1.9864313940516367,-0.2544415057340512,1.2944356036640858,0.4194090437461671,0.151161426006955
-0.12257528837361265,0.4015650815336249,1.3393628702675924,-0.1100507380918921,1.927575877383803,0.6612169544673224,0.5390885076927571,-2.2402284601749565,1.1904328343539607,-0.133491889000033
-0.327042810085715,0.13136683945107763,-0.11299720413009103,-0.5237930837336678,1.7034368022167516,2.1029464959177964,0.9738119385288155,1.5234669660257238,-0.727252691472226,-0.27709260487312437
0.3838865775235333,0.017732505759904926,-0.7214266721015093,-0.11609438363205604,1.1302874813020112,2.515149846387892,0.6455493396982303,-0.707681959610173,1.4727618123670494,0.37856783083817497
-2.0826714601030587,2.27651754031748,1.7862113596827347,-2.082002634145931,1.659220572915452,0.880781987003926,0.19645804301355943,0.601562751546683,0.2335050261754695,0.28592889122870724
-0.1701916651694268,0.8423360476424684,-0.3599404572007026,-0.7330860953193379,1.5940957652823435,3.5684389290060676,0.25119771754777054,-1.1559892237143827,0.39242414802813846,-0.9500316579106851
-1.0533094994489705,0.5504550002020236,1.0007412072670163,0.40289905510224266,3.0817026006966226,3.692434223699166,1.001916047586501,0.44457099425054203,0.2152908293349004,1.110487254086947
-0.16801209173275983,1.6244767035095515,0.5058813536298705,-0.7512084210993222,0.6430393716191839,0.974268629838089,0.1725290904815119,-0.8556936472819173,1.2085649771783045,-0.7104492097587298
0.8769718464177653,-0.03813888135483923,-1.8264465204316613,-0.1974132014724945,-0.6653728709797087,0.4037351155440081,-0.05428062502256193,-0.708990301016704,-0.1858820649458469,0.3760545557311749
-1.4835185701859896,1.3308277488198166,0.48530207464106584,0.14954250756845539,0.9664731874064663,1.8847203738898166,0.6111228117168088,-0.5574876681360043,1.1656069653018233,-0.4280050277476208
-0.4487383691851546,1.085212225580022,-0.2952005470542377,-0.01609697102142931,0.7075276037942984,0.5280698037100654,0.48741091667926134,0.8695736352617911,1.6259218226479921,0.9411075583754384
-1.3235601961521748,1.8108884703120056,1.6192893055995734,-0.6930541145106576,0.6538510354886238,0.32856240871343145,0.06774770299898901,0.8209724370869959,0.7922171619035665,-0.2935715419530423
-2.7698407067239845,1.7927717057993733,1.1661862729944832,-1.4116249565642067,2.3278187405083766,-0.9604339512135474,0.19789730361732433,0.8646351420007756,-0.19862510296008187,-0.15983618750158873
-0.836309627334181,2.0974780391572145,0.9282655758991739,-1.7126690156262447,3.6456936387467556,3.7082115701744094,0.45235447702567017,-0.624788931978808,-0.04067388104366451,0.646353145066589
0.09243496719366055,1.2209023652209772,-0.42600654929156956,-1.1619678343401223,2.88952619455189,1.6924189034620278,0.25658786585964255,-0.9530358147808874,-0.011318464459566639,0.23734166381683527
-1.1435760402242983,1.7169553810331988,0.3598382873861646,-0.7539487803768408,2.4618365477401047,4.446389218721987,1.200808708804148,-0.10506492900577344,-1.418098496356336,0.4824600174911466
0.4002214025476012,1.1277707500770902,0.3352531506555445,-1.1543424121223824,1.4150155355553036,0.04677629907537317,0.6181071193885787,0.6165996261356518,1.2695751275405802,-0.6168749339590085
-0.3382924031361424,0.2418810866891965,0.8624661099491358,-1.317168292398154,3.1148647475333577,1.9954813013839139,0.8380436277546619,-1.6296801595427903,-0.8522527215514868,-0.5065524760075496
-2.3499962240042183,3.3539141499799543,1.6788120979087056,-2.169647752240557,4.872919478061336,1.1486509627465238,0.7431843044990808,-0.8385027242872891,0.3789787000981244,-0.06552395882324906
-1.9810914229989773,2.5202523767718894,1.0981374160085913,-1.8208383356166753,2.146652623650131,0.6260098087024135,0.256994560967863,0.39778660105498664,-0.5058112281530553,-0.9932895298552266
-1.2450200720398843,-0.06660200035621422,1.428853409422431,0.30685872302549994,0.7932285925978724,1.0104967487387326,0.5726315735968796,-0.5302261015395492,-0.4086000986408115,0.32298362755728344
-1.9935683868858107,2.6830189022369515,1.7920446937373016,-1.8938700857617439,2.8124179049591858,3.274392835582601,0.9342999135173513,0.5861610652389253,-0.09953175630425841,0.14861945245140462
-1.8059598393828091,2.732737723172238,0.08971932442519168,-0.46540325421381634,2.324488807866042,0.9124641209910684,0.0091249470855626,-0.43946444477908964,0.3391708061093294,1.7845781293344765
0.14483644235432802,0.37635080949065136,-0.3041149658660911,-1.3095520574784338,0.08992339435371886,1.9721745229530019,0.20778036148697276,-0.6070333486108705,-0.3287012898157988,-0.15586471171953756
0.5528163960342394,-0.8282608625153041,-0.0657960331598777,-0.26231090023544373,1.5715753964385706,3.3980169352367904,0.8862949820730592,0.7510680312425337,1.4674839171028782,0.09154461230907486
0.8523540178643003,-0.4558271821031451,-0.051104457805924826,-0.07032979682563796,-0.23484879906846295,-1.8999101168929298,0.2632599107494823,0.3811920974573133,0.12219271085926334,0.08010107914854674
-0.4310132198367084,0.21562006176937376,1.443189656985747,-1.4873320012940714,0.30569219407523995,3.036447311133833,0.7514664936299075,0.25791345169253077,-0.09201277262609449,0.5871859377871512
-0.8226303264632294,1.8986827679647718,0.2583090461733442,-2.498391800760618,0.3847240429124279,1.5350940588247177,0.07574806233835758,0.13161322243771303,1.3821200866896932,0.09404230823158952
-2.06831981988595,2.3056850628664054,0.9567904051749974,-0.9824711602230384,3.146055153479165,1.3432712971845482,0.51262216035024,1.089276259850391,-1.0720650124875593,0.3223870670417623
-1.6050116690073148,0.10965760626995325,1.986580677845388,0.22969540260654628,-1.4976609534997978,-0.11662373427390521,-0.3394352704813028,0.6642279054873073,-0.4686390486914831,-0.010124029813528983
-0.5811133750153604,0.27187834160403845,-0.11333238886415681,0.8850105401526356,0.47264797395747316,-2.190770444330641,0.02665522817356515,-1.5815042199137588,0.34092287969421453,-0.2711996493283323
-1.1747328112908042,1.8728590246656864,1.3742901181492464,-0.4174124669442346,2.3731883252856907,1.047219225450319,0.4026432964791342,-0.9063231463335476,0.07699118478835591,0.6732202653823413
-2.089862121253422,2.3999007313554497,0.4047930325181529,-1.4857763064605607,4.486547598685064,2.4652200512899,0.8831534013452031,-0.0470946267612935,0.4171767271887816,0.18571174331063353
0.8308884849572575,-0.6583527340037303,-1.7612450146105836,1.1365913168147088,0.6621917768891874,0.28690896101914554,0.21223071012720268,0.6222698469547292,-0.7307832639247438,-0.9380684166206564
0.10268603924406676,0.18499961807448262,-1.1784346785960547,-0.4259276379161829,1.8653113033634618,2.861317113811561,0.3864533745299434,-1.3623035189633639,-0.95118670853266,1.1155781535491516
0.5819306385452834,-0.11504443072135873,-1.3062808040010616,0.8597667081728003,1.3474989327044216,0.4417306707522002,0.022009293291189544,-0.40608963707059476,0.13674710995602887,-0.37179530144962886
-0.33116953545529987,1.4051692268138614,-0.11568470198551191,-1.006806228956771,1.0942799581351517,-1.1122022294370844,-0.3250164347942741,-0.736140190917762,-0.4208239378614312,1.149460428487345
-0.8827610249604747,0.3251989272078222,0.1374767672259367,1.0471602245457956,0.024011032206315952,1.5501434989644634,-0.27144484328240776,-0.7677274353332069,0.31450538706206954,0.016182827095992152
-0.5018974196094347,0.43184198172111365,0.5804685276541093,-0.21434219123512502,1.699443401451788,0.09706986819858465,0.1342723541497929,1.7581783433114966,-0.3350973288289795,-1.0699340394664227
-1.0390355290409647,1.2830879229840777,0.171965482975774,-0.9007442710756108,2.3009736492514543,3.022164259828816,1.2350724410865628,1.7651297701576387,-0.6750409240567851,0.2213054001412978
-1.3909828109540818,0.6020555676907311,1.4036714103123467,-0.08393998028199337,1.6039743429902988,4.371262779966597,1.2088048383417016,-0.10055929984877761,-0.8017002536731967,-0.18521883682991105
-0.44358452717770236,0.9299454785986283,0.04994133448797272,-0.6832483978990782,1.9395409547031153,2.7499991071791112,0.8963696618956697,1.330862926675209,-1.3151015535599222,0.4003829535567558
0.10737729757047144,-0.18986815742839191,-0.8803331587612386,0.44398913125986195,1.7989873614046912,4.053755988038127,1.1193650160111142,0.16602402729127008,1.944748316371,0.1663719703120733
-2.4949631669127807,3.017101244692711,2.7908401093284527,-2.2463206463165055,4.636439387141663,6.36031705626964,1.1383893757068388,0.056596174665777196,-0.3897658059262526,-0.19171574773858618
-0.47294331121032057,1.3336230712208992,0.28452591944187555,-1.3638100572624852,-0.5911693616036315,-1.075414423299459,-0.17098671306605462,-0.38301401444164995,0.33801001982467554,-0.17412860311323947
-1.2296750889910746,1.0957660599755794,1.5773342006742317,-1.1683068365241884,1.2991917227495973,0.2696664761895148,0.46283147690394716,0.7136252921434749,0.004431478691036833,0.40181484752881436
-2.183962447660424,2.868476985232299,1.6013839770104206,-2.3041306617074175,2.026645264369181,-0.9698527231695014,-0.04271743037794009,-1.3765472134227266,0.8086568091325202,-0.5733154437401649
-3.1142459517491425,2.9135451770267506,2.772061543774393,-0.8839812111740677,2.4323103278553755,1.9497122184522508,0.7112168690693671,-0.1536074598119247,0.06846779761862604,-0.614270438801897
-0.2770001295836273,0.9497678095340567,-0.5703244143720925,-0.6517846382942711,2.4153355239728773,0.20919185772663051,0.5896204469534885,-2.0734821252964295,-0.6351339644496361,0.042154873926725664
-0.9482848674132286,1.362968297263531,-1.0019471508202906,-1.549650425739927,1.119832708092395,1.0414522678969482,0.7410770984069124,0.7568628220213732,-0.628892703882284,-0.6787827481534942
0.1630010468324889,1.2620000361901775,-0.37675320910636184,-1.4606469518386571,0.6854474482313919,-1.5225529490673382,1.021646781258409,0.24668977048483812,-0.4881490823237737,-0.29546457920766617
-0.2243918354704081,0.9992507444039442,-0.40534336685094485,-0.6520115585346485,0.782757360085409,1.762948224730044,0.8052242011556672,0.3334517141095569,0.09468783951857897,0.012806156788309838
-2.4179049702444657,2.053929055665553,2.0016222801168007,-1.5862703047061235,3.744553648288572,2.836629425162073,0.6307345752596901,1.0569154841444717,0.3792322621479832,0.6207123584716794
-0.9932787554830956,2.427804529096061,1.059890213107857,-0.5890964975219792,1.3331289364347552,-0.9930492216127108,-0.15745139439477612,-0.23948315313154506,-0.5526211168909935,-0.9608756788446238
-0.89036280889499,1.3827097341544454,1.192749520021588,-2.112332491913596,1.223541467476648,0.6615153042830859,0.24700033619139994,3.1510505609545674,0.18182315250198705,0.3304643396322091
-2.3272226430620613,2.7759355370778596,1.7036701466068085,-2.075085975852379,2.215855461041574,2.44068642457962,0.9779670927310902,-1.6297867025274146,-0.18648628354741464,0.21195035133453888
-0.19649209331712056,-0.7237700363005546,0.8373576150924701,-0.32900963693497964,-1.4395422502973725,-2.5477560936694945,-0.25577164195556096,1.6752840781425213,-0.34006316589236835,0.22436231720849925
-1.2276255940224832,2.158454569721559,0.7895872921405622,-0.3467436184922013,0.7937489431618826,0.8995060310281003,0.3938120470904382,0.6599182046841904,0.34985442319624643,0.5877578903716383
-0.5386566851625306,1.4983507246609489,0.8360892119506661,-1.216329574527239,2.2764059282593934,0.23014083572295418,-0.33272308457662036,-1.800249108539761,-0.2922836057015959,-0.5139071615406063
-2.0514762127214525,2.6560930292184937,1.8076129529450402,-2.0523326553591756,2.1752312258051956,1.9211126927089492,0.18186776277200117,1.3751708825462436,0.06893100388863475,-0.3340648977433664
-0.7310550354188121,1.1251479458632434,0.34347908427519125,-0.29409652569952216,1.4853524160752207,1.6711770906320198,0.30577476013896127,0.34162238130135886,-0.3513178450219188,-0.6899956839257358
-2.8386038924008505,3.3960868159857034,1.866309863001781,-1.2404625208790747,1.6808546767279355,0.4929623126908387,-0.3628904327652365,-0.03685869762871591,-1.4931514408617157,0.09703357972489682
-0.9971789391400635,1.1648690383047433,0.9349331692333929,-0.8569138045223907,2.914969418332516,2.7004582314028367,0.8895875440823366,0.4011299503841021,-0.9598041583995818,0.5074605555548076
-0.315069930410242,1.4911579029457256,1.0337886986450358,-1.0887739352201316,1.4923063175384106,1.5795658118967084,1.1548524402170042,-0.36756584527015246,1.1183744082852731,-1.2837608829371858
-1.9093913543405843,2.900825398496571,1.8947255539656973,-1.3343191304498825,1.7563802900819212,3.6847468930712957,0.37917709862707377,-1.2103040543347505,-0.8782893412962366,0.04918521179354829
-0.5264438247008627,0.7406876326381262,-0.08465920125126955,-1.4951075152100701,0.9893076455429848,-0.20545493011184396,0.17282407338891626,0.8252165767051374,-0.39428156860116054,0.5226596491891314
0.6383741481100489,1.281469309231157,-0.15626470401478068,-1.8780765234641856,2.793070788086232,1.5759890095562725,0.7006198754828408,0.804617038069861,-0.544120142575679,-0.9425287568665363
-0.3991402558575313,1.725764554294543,-0.19122061158892992,-0.9957259515267249,1.4100549704785865,2.0038717510078436,0.8741173835545123,0.6107631688561256,0.7127182557569712,-0.07444133541169391
-0.6331121878295674,-0.9882550368602084,0.7438817823489156,1.357736915098145,0.8325245274349943,3.5579927097542927,0.007003103836858847,1.1978087195525482,-0.4009001838008185,0.6305577867738984
-0.6427948360228599,1.9651161248136022,1.3172839182042833,-1.521929661267358,2.5982028095967036,-0.5992086611155085,0.13012585578785651,-0.3520712733871597,0.11644757935507116,-0.044828658746498544
-2.7064069309548655,3.292055349582326,0.6559773233575974,-2.4995526898709666,3.225883142183378,-0.6933048041757581,-0.016625443417425615,-0.2369694017742549,-1.1467464532979073,0.9373884109977323
0.19721165891896997,0.2621567814407184,-0.8477240566148982,-0.40306198394187803,0.7016121510869834,2.9665463943237675,1.041646252370046,0.47729958125771754,0.601196199025004,-0.3729348678091828
1.276256312065795,-0.647677462315132,0.46154839007705023,1.1222679955909876,-2.079238197856209,-1.010878726387328,-0.5196627180614305,0.2069636380481952,0.718840384249523,0.4285534432343839
-1.4087763643813667,2.7328294933724666,-0.24317186562235016,-0.7145696087938175,3.8994579157161686,-0.4002214026468821,0.1383017005143767,-0.1618422630735574,0.28566128175315814,-0.4793745257567814
-2.091568908215346,1.7371152952259608,1.4586734782820392,-1.6290825876669626,1.2468055469363162,1.1865258456150203,1.0612564945198415,-0.20043125443767396,-0.5583595567126749,-0.46012266012985825
-1.5714582662137828,1.8290902751274754,1.6785806674673662,-1.2615794041050998,1.297783291942177,-0.6259093438497536,-0.010982934771339728,-1.0397211380403073,-0.1838290331683187,-0.49480995052205584
0.14128456560507835,-0.3121784213286378,0.3327626438420566,-0.38125232017454525,0.6103391150624152,-0.7546927954761127,0.37079624790660304,-0.5609732089476671,-0.3239411862965833,-0.003617664650181023
0.2975831246019176,-0.8119349726815132,0.5067172084029093,-0.2334801346253445,-0.8308121760570532,-0.38701404418718593,0.019375709914558618,0.541479114594123,0.8449497767717525,0.09212416375281163
-0.646713673375003,2.490664041462553,0.2862343781820346,-1.157570639343261,2.2485614916433283,-0.4644550930850392,-0.2548729604295217,-0.5573529545802983,-0.6044638469261121,-0.0914902018355862
-2.417720549865298,2.010900549197713,1.8366479673207088,-1.0386580512992514,2.9066452964337213,-0.8786513689244274,-0.6501832929047296,1.7021595281254145,0.25852953061803635,-0.13592681731422568
0.39589167384834706,-0.0426497073923483,-0.5010849055467569,-0.7942729586309567,-0.049042700648576604,-0.9291896901913357,-0.013023469965280778,2.364729826335119,1.28347980853899,0.2511228966254486
-1.7505791919078348,2.3322171156976546,1.912877766846092,-1.5033867601590787,3.3818688755293387,2.304583259474057,1.3705711103253972,-1.6486057106506067,-0.19795757094137753,0.24232662883006734
1.0218375855875421,-0.2283878193658394,-0.9989288138210429,0.25753340139015357,-0.010040441994621063,0.192715328557292,-1.1049828311790597,-0.945122204152721,0.41925672524021074,-0.06582928958590431
-0.415188753114072,0.33737620390499456,1.0210370626628755,-0.7906741864034267,1.5470496345118088,2.900598492072943,1.462364904288502,1.4993272708497092,-0.17178349213581356,0.24553561741263802
-0.6388294858014776,-0.19914756291266356,1.837656118820992,0.6279314220681246,1.6172277690523398,2.785713449512338,0.47597274253082705,-0.4944219456656578,-0.7590398264951643,-0.363913426272078
-0.9982245201319581,2.3602426960219143,1.2924145288149123,-0.4293265154893352,0.5099855521213923,-0.9337278615101061,0.40069207463061085,1.5344320092698045,0.16887963813051324,0.15797959587311045
0.15531202401163038,-0.5237174802143536,-0.9878196913024021,0.22862766504431137,0.34578124383182796,1.344585361752051,1.2263983653906183,-0.025379530474395937,-0.2977817089279154,0.4517987050945498
-1.487099928728057,2.289031964525293,-0.18882932755438608,-1.9302238569214742,1.9287684123162039,0.27020298591820024,0.05462139238435468,0.34784953694028053,-0.7337925383967091,-0.046672702623781544
-2.7929956521640427,1.7559702605707548,3.2577486022254556,-1.5809768215284938,1.0525810724967875,1.5701679485703122,0.5046566723239133,1.446715979021891,0.7367611200948525,-0.532070407929616
-0.3866973487763577,0.13930884620598039,1.248394477876843,-0.30733536666507405,1.8316351925834837,3.5727789336592726,1.33656273866493,-3.73543053249702,0.010672093093185174,0.391212555151484
-0.2957665343263921,1.9854262114475105,0.90389914963364,-1.6548244057052972,2.304974799096103,1.0516906926536556,0.1911842837629127,-0.33242498057150727,-0.040115321969782576,0.3382117146915269
-0.5280455924481813,0.8336207073713771,0.30606837292544115,-1.4776692452465288,1.4709647059370563,1.6929543242848424,0.2902016907697388,-0.28988876013234044,0.7644647791323163,-0.6010212686140304
-0.3945827405634445,1.942667299737027,-0.27456040147234373,-1.0788627506425235,3.0590487614504527,3.275937241506969,0.5017527641713206,0.1946936909360038,0.8662697239053104,-0.06499575614428914
-1.7595585771400706,2.319914654580112,1.3226757497906012,-0.9196026050178141,0.6578598072883317,1.4155152222999534,-0.3351395682170842,1.482348705497086,-0.6733313399542907,-0.25887441684728485
-1.85645236262321,3.331358860655344,1.4024187893988862,-2.7484592346897974,3.233857235141397,1.2137860558161058,0.3042296033457135,0.5010744708225205,0.8695107958449367,-0.39248796767037125
0.09915164668079675,0.16382355451323294,1.8039090394042228,-0.205046360164805,1.2728764913581059,2.32466845746067,0.8927615097523717,0.928749447033408,0.7117075484917512,-0.11604646359990127
-1.1690508918455782,0.8987031972265442,0.35423339443166474,-1.9690973016303188,1.915292382863106,0.2742037709429662,0.15094686118287953,0.46708447352089655,0.4334228919129261,0.47893608276377897
-1.9924971532578293,2.2155024359449715,-0.16885330757102598,-1.1606111472429805,3.1627825156545315,4.463043913864642,0.5052495856520797,1.9986135302066446,-0.4483634170181032,-0.159922565865797
1.5475969993354146,-0.7643273543718518,-1.2524928847925831,0.3454995349778585,2.3419152142456556,4.675331019255363,1.0934378315769095,-0.8858764463726185,0.7843689492298177,0.40233262442158635
-2.1323384421259273,0.898288660153598,1.648478655168406,0.7511942098230103,2.060331720399107,2.404348363019687,1.5134591609970658,1.5236290534841326,-0.07114031923535794,0.524501652470115
1.3987879328915294,-0.7645090913913608,-0.7565094208507228,-0.19722032156469413,-1.6669493823109853,-0.5833271544597651,-0.4375633109299531,-0.04764314329796959,1.3280046087544823,0.020348767342612466
-0.556238866652559,1.3229702185601182,0.6442159799815659,-0.7105077922806409,1.501062324627696,2.8248507845915656,0.7279532821339428,-2.2768942809027224,-0.3646258318059772,-0.11487650439040824
-0.3621265110061038,0.9505367053722149,0.6307125264118697,-1.0340530027847301,1.8326172892499588,2.663031973752446,1.1001106268026013,1.210308155505337,-0.0742680354750507,-0.174756511698319
-1.4832670856573673,1.3809432687170191,1.1973167035281047,-1.4798139149561336,2.054457432421799,4.171703392401769,1.3668572805272357,1.3529027977912382,0.0966351160779118,-0.01447749658155663
-1.4445787536022132,2.8537773522598098,0.1718868886648195,-1.0414494578586624,2.392948080189149,1.2578578543569674,0.7736366327422077,1.9322275829554516,0.03616473606149848,-0.20904568648701083
-0.4454819334948348,1.136289598047811,1.4760418691465151,-1.042179167116025,1.2424076839463136,1.1662022980811229,-0.10138480361757908,0.9050983049412981,-0.5181859850822002,-0.9675899442771235
-1.4204698913896678,3.2933691393956943,0.9044817458299775,-3.2074060314648882,2.105479808753973,2.6213048472138247,0.8406547592784026,-1.2306033764750635,-0.5673814222410638,-0.5983021637081776
-2.1501329636207833,2.6546286698735866,0.9560318014427378,-2.7432753699744605,3.7660388155737925,0.4346757890486246,0.12282256502751053,1.9244354555080214,0.6923257275036575,0.33026571124329224
-0.35770445468105444,-0.5781072485161296,0.2476310423912744,1.5078839118089324,0.3294399701370759,1.4225247288559342,0.4380113289207741,-1.6085938324154068,0.2081389328642547,1.101681890274028
-0.5608489937840814,0.2782054674691352,-0.15913626369795575,0.025248922123060354,1.152774652402611,2.8821898088945472,0.40722452882821175,0.2193993499111208,0.8060284727668969,0.23167508216150198
0.8872600428073995,-0.4672059625550251,-0.8999406862928222,0.3410170003848355,0.4201279056938606,0.7352796701900891,0.39718879867571455,0.6352027155782036,0.3776142612890033,0.23963749234277115
-0.5848353568500447,1.7023814756197728,0.45816438130677045,-1.2022761513872529,2.138792147614886,0.9771510076915267,-0.0690566964396347,0.9368841435149287,-0.056009584764687315,-0.5218550799981222
-0.6354731409589174,-0.27673083128842757,0.8358752180089948,-0.7016842590010661,-1.4509638132416405,-3.8662284371737003,-0.26787613499825585,1.5128226523045085,0.6571112074459892,0.15546323187869177
-2.3309026384025193,3.302923995055747,1.9470047198146012,-1.239846045689882,0.8397970872985848,0.08885255315978902,0.4824329600992886,0.8261715921112847,-0.9349832199881261,-0.3367172836680453
0.3878159738175564,-0.034096553355352666,-0.3174484739845361,0.3423908825287732,1.3703831815546885,2.0494628570670828,0.706026667453364,-1.7217047602259807,-0.028337479916704093,-0.03522181334538045
-0.29400082902810226,-0.6848623474878821,0.8794360211867561,-0.5298030935055239,1.5695520071914788,-0.7184581622987342,0.3890847964290198,-0.12107517317218733,-0.3433311093726887,0.015635600741710984
-1.1180392052178165,2.9072194576671495,0.4586776418247988,-3.2209469223041727,1.4880973760976972,-1.767063195515333,0.3834446170408988,0.5079176514352052,-0.3638870111611818,-0.9326825268279234
0.3612662047922126,1.2058433599013294,-1.1755061984767328,-0.9143617518874788,2.6508658125243927,2.5129855496623796,0.7795357683145515,-1.54514795899133,0.6540037233343223,0.5823053398687262
-2.7612388307416693,2.1914833050926346,2.028794944915232,-2.164997335427067,0.5770797486419532,0.3952761236922473,-0.05361736711326764,-1.153003330617586,0.1191666077005557,-0.11861357681343053
-0.42667300456049545,2.04469771223421,0.7500107966434029,-0.7899106424567514,2.3252584079678726,1.0487309136013874,0.49532555845551834,-0.9285518432482359,-1.9615525381897663,0.07642362442063966
-1.099602438544201,1.3527870563714477,0.8042015777807865,-0.6742530329978637,1.7933115289315014,0.7078838678743442,0.3815613233902664,0.7551576747336298,-0.017884937087463144,-0.13977754335247167
-2.8677809850193956,2.977670392267762,2.148011921073524,-2.693608766637189,1.662040425410062,-1.8927185181289778,-0.08843225307568185,1.586502600131104,-1.014523120149118,0.11667937905144866
-1.7077406894149425,2.398843518063373,2.540687831191008,-1.6683671678537804,2.857894769645972,0.903600546030469,0.36856598125933726,-0.4139890347365291,0.6768561646151341,-0.20523226138235645
-1.8014627079420436,2.661250228326171,1.2565802181840569,-2.629610318398217,2.0031108172385643,-1.6323588483615399,-0.02498438466294428,-0.8331802278435348,0.21512107441652847,0.2953621857230585
-0.9238603878569868,0.6538995056055443,0.766909475881834,-0.14915336998027084,1.7456259007177748,0.5213153408351551,0.5358547176462077,-1.6951080243680112,0.0961723728589464,0.36547227809082694
-3.2860355659161913,3.3263795400797136,2.6955143215784445,-2.1661872617450153,3.1947257928468296,1.547721163778884,1.0173455361353236,-0.8996775579320806,-0.5183630024968204,0.7952615382663194
-0.7830511887544296,2.860322909151071,-0.03886735251223654,-2.2463239972191062,2.3469058327266747,-0.38696374558064844,0.449734745968279,-1.6618358092294108,-0.24709410973973095,-0.14639263429383667
-2.2646088159171462,2.275906240130011,1.6889987454125923,-1.5838892410280703,1.5159668167988736,1.5029874204378095,0.005910959353031602,0.7555679280330947,0.5204504382380487,0.0387721132788708
-1.0994903159469012,1.0343842282946167,0.6908822337874859,-0.085388785231637,1.4841035712913784,3.164423803538066,0.6200178355205723,0.668513938606668,0.5931650211023707,-0.225258085971207
-0.2796848267669753,0.4059931920940787,0.10073515537208598,0.06736010781223271,1.2450387480147997,0.7658792934817866,0.6897236213674335,-0.23464607161659945,0.3972463084427921,0.6585056322812988
-2.374346567725104,2.7300928557753954,1.3636405058854548,-1.56543739361179,1.3599551684526185,-0.03730594878874438,0.7009429709738605,0.3066022352251339,-0.10856860564062205,-0.9190393463188143
-1.0674698834852885,0.9965433028923434,1.581523357046842,-0.7164513356004483,3.1443906317247494,-0.7103274460579385,0.38020299249849937,0.4125457246801969,-0.556705979834518,0.15680673716670274
-1.259591363988164,0.43533536948213003,0.6647722365213855,-1.2978356269917948,0.5701925430390113,0.1724874733530825,0.3944898358750634,0.1784659091734195,-0.21875019245992755,-0.08200664260114483
-0.7852117604501718,2.368249118263209,0.03168090754149321,-1.6576962729501592,1.765827928969601,1.1611799562482776,0.1821234699048165,1.0191529059717752,0.7514730357014582,-0.15013685476914174
-0.21469842443786516,0.08431063910420766,0.9277503507224255,0.814127170604998,1.3247662216836218,3.8531579416027775,0.6272155049745786,-0.8582025551047132,1.0407070207160831,-0.39200403164291936
-1.1751677062770998,2.825717689073075,1.5305651824374638,-2.964298193347974,2.252103179857197,-0.8686539798406946,0.08266043168741931,1.636853265337712,0.16266943654574803,-0.5297896184047205
0.10432017585166162,0.46147250414532603,-0.3401914179747324,-0.45562522091923907,-0.5656609959946901,-2.217724548501052,-0.48515893852111,-0.5793274021572696,-0.09208782818197614,-0.819524802845134
0.28501702364705,-0.47778536144941597,-0.6028673512088358,0.6175558958242514,0.5318709866689717,0.98742687788924,-0.4285037872380058,-0.5977470692862819,-1.0184818535567717,0.24671421873195423
-0.9879636626055981,2.1792185248270166,0.24166964334258367,-2.4838244211233294,4.322765059584091,2.5317654762001665,0.8367545864083421,-0.792753614181844,-0.6010726647658348,0.233575011847594
-1.358510314581172,2.308507572490151,0.9123333328133078,-1.413824655739086,0.964523612824258,0.13952425018999218,-0.4341504170010242,0.06938620225944289,-1.3995353188277522,0.12597147722765606
-0.8622157501467184,3.335657898904646,0.061381757696613165,-1.5218800828624377,3.0327832502546572,2.817029740702572,1.269230407545614,0.03145260945855183,0.2146073863823021,0.4842877286191947
-1.9426065414208358,2.2183712079716433,0.9142862571231429,-1.582068687856657,3.7946569463503304,2.130803799126853,1.0403635405810494,0.37553676611325604,0.06507933581311624,0.019958098581881654
-1.48946664582244,1.9411636215690042,0.17096175760415264,-1.7545594444511599,0.5426517906083931,0.14787875659087657,0.13451118131718784,-1.2828934202288624,0.3876962850715814,-0.6099797350546227
-1.7876214254198408,2.1476846128792215,0.08428677290452165,-0.4908538807799089,1.5026616376477033,2.274138629610758,0.7969410900414574,1.8173810169689324,0.5092956203402659,-0.49488691923717115
0.19687533541239394,-0.02889165403993499,0.44862053151970493,-0.6801857326932739,0.32617551090513275,3.219593617198375,0.8323397657904871,-0.08954282361053537,-0.6362389099805978,0.16676407145072167
-1.8566288947074978,3.235434978191809,0.729703360789023,-3.2276702061488107,2.0330966175833516,1.8947576739558236,-0.3273104111468269,1.00745518928349,0.06601198257156064,0.5615816267473549
0.2581468039227441,-0.004039333535604039,0.14710888686289592,-0.31178325210809904,2.165144348592658,0.16809539216436287,0.3458320654464837,1.4306555304582935,-0.49705372309435303,-0.3086449859528433
0.3959464913044531,1.5737858873002883,0.24299612092554684,-0.5878926654081094,2.1764901682495594,2.535703192699562,0.4598595213287656,-1.9669344504826185,0.718593896449141,0.15064640892850426
0.3245193392267818,-0.19198387999789568,0.32087661340056994,0.07991952649429311,0.7872104673639322,2.620002321278556,0.456319788070287,0.5973078432807157,-0.18445640978213002,-0.3106446203925206
-0.41610529609877184,-0.17636721682124368,1.0585000660965511,0.2737172694062372,1.0434839602890245,4.54002018154794,0.8729641996706384,1.4686954741019544,-0.13570630912763626,-0.33787148989406224
-0.15911999254248124,1.6494800634031468,0.8106449660444205,0.36813006497394984,1.4834308864839083,-0.5636038038712131,-0.03896704523942254,0.7252109459763554,-0.23259174466425156,-0.32446102511212593
-1.289291919707721,1.7098510243160283,0.9655487156851462,-0.510337886804997,2.6464422015804434,3.1798597580122743,0.40550445857148903,1.201298838763448,-0.10493771331918045,0.12076516168017244
-2.0159941818004197,3.4254286642247376,1.7571629276467946,-1.5111360915160121,3.8990262618980758,2.56147906579673,0.4508294914779569,-0.588892787582298,-0.4114634891998853,0.4207994502547556
-2.485107852596378,2.871349445843159,1.2446509393205734,-1.9857981838166903,2.294245635363943,3.8867370156685728,0.899358759101246,0.26270659865974644,-0.8318769925808814,0.9203991297877473
-1.023741672308462,0.5680899286935275,1.262093844717396,-0.9966165691052008,-1.3315449221986542,0.13577884095446277,0.4476831002021122,0.4473517018319244,-0.24106984197932116,0.5480203925695464
0.10797009845050326,-0.3664118535124733,0.2484474922326952,0.24025100791929155,0.00271729033091081,-0.22658327144754328,0.011828060358906873,1.0814496385142671,-0.482889385600674,0.04978652189157738
-1.6398508615960916,1.8267107786423629,0.43490806700138485,-1.3724201413748238,3.097290954544636,1.300214943787546,0.9769028294921959,1.0441821401986957,-0.31042529418001613,-0.7141555037056775
-2.859030164161831,3.0558383152627107,1.867877548127816,-1.6367356070604293,3.9140171510460124,2.3082878933174475,0.1304372134911598,0.2124037810256052,0.4835499636440939,0.06536370469374554
-0.4587851819233706,1.1863464611996215,0.16380165411876457,-0.8450959070755416,1.1055218760632108,0.9496901603907518,0.9283262851587987,-0.44506931267433436,0.022886654140776015,-0.1920885599117407
-0.504625424425388,0.4422477960696345,0.5410403773290196,0.314643875166839,2.719530803337646,1.2108065855413503,0.5690197519943988,-0.02407394933699654,0.19972790706013624,-0.33879552745158115
-0.2721762836024277,-0.547220911366212,-0.8457603245489064,0.7987055384508057,0.4468467310904556,0.6988218335172349,0.2719852565077009,-2.378875030915068,0.8168984290166041,0.08113852020319842
-1.152806577685405,1.6855566768672414,0.7788120816112066,-0.9726543748554995,-0.0009577735252533914,1.0919812736102825,0.07140352669228561,1.4940563814789527,-0.30037966671418037,-0.3945051644075398
1.3290049793233005,-0.710667816416924,-1.9005355266573638,0.5684726884382855,0.7855891865385096,0.8599796446104879,0.6469692190661713,-0.3220107202505951,0.285851060667795,0.1356594005128236
-0.4016697373574175,-0.7455312313140108,0.7757561123082167,1.1689076236352776,0.46280915105435644,-0.8411899802586387,-0.22822097569901548,-0.01707859660117192,0.6679426329306042,0.07785701860882457
-0.12550945206553657,1.212682366803052,-0.5261863623516518,-0.6123941141119177,2.215067551115048,0.1525001901277001,0.3731879330168092,-0.29804784277859897,-0.3795053749640302,0.1237088390757468
1.0552863531021657,0.20106564528173565,-0.13290627311322042,-0.2736396348378584,-0.06871871680987901,0.27692862479856384,0.3460822101894199,-1.233747809011089,-1.0407922101837341,-0.6511986263174692
-1.9194664931365337,1.4240981670126667,1.9143813248182635,-0.9956702730917179,1.4534687496860745,-1.0375725985790432,0.07081025177824794,1.8357099570922248,-0.7636443192521054,-0.7443880818783534
-0.05925802041367093,0.8885281075728693,-0.2819618260445311,-0.25875697892645133,0.8630018475098182,-0.20508676355684424,-0.5526134280315695,0.4780030959008821,-1.2375002964583288,-0.022851744076445996
0.14876935468824784,1.3316115791296057,-0.17330366372320344,-0.46619411231111335,4.012627848220367,3.038312348406417,0.40123778383279646,0.02380790052880779,0.28446407604976515,-0.2979231024626053
-1.9153822295299887,0.481738114936789,1.4796237952484583,-1.372882044711448,2.222430700249372,0.4134966045327295,0.14953194108666662,-0.7004910453660648,-0.44578395799215986,-0.36649923477737495
-0.8932897399125385,0.03420031007591984,1.2442354136402267,0.057807751158244415,1.8271318576218913,4.09508687186377,0.8997645482934533,-0.39342584048593315,-0.06267360278530179,0.11990906037458657
-1.2725822900768846,1.1633940343987814,1.4917317257266167,-1.2292928825249894,3.7525597646638076,3.4074208979202005,0.9832537290415138,0.625666476695326,-0.9058702490833822,0.259118940090607
-1.6885295702589758,1.3428525832986988,0.7582336172449095,-0.3398289987781431,2.9469154251479295,2.2367210410001825,0.726533516225779,-1.7400180964511534,0.05559813769090218,0.003847383362035909
0.9351940375991483,-0.11859247222865288,-0.6148216858282601,0.12203626990230217,0.8840512694117627,3.928957591201356,0.41575913600591463,-1.1640309141583,0.6363478820060505,0.7783025998725714
-1.245119924469693,-0.4629062764590721,0.7485387610234953,0.11338038955454222,-2.145081261092164,-0.2454051534216557,-0.12754940019423922,1.4761019644350493,-1.3950124888289457,0.14355075710777732
0.5026636805699165,-0.2880002474148132,0.38053107477777093,-1.0790862230019287,0.840698227243307,0.5317101240964102,0.5333590961605424,0.3639592158195311,-0.6314175913764188,-0.4531841770703699
-1.3081230837740259,1.3081819468962088,-0.023703382993315415,0.7209563252737248,2.023558896091145,3.495978259777688,0.5589875130500521,-0.25650156749728853,0.6151590294957557,0.3056624014056088
-1.8370046864889045,2.0385573723145844,2.1349570735706966,-0.1894951242071988,2.986348200679979,2.1768269771035267,0.3976200379406971,-0.7827401798781319,0.7597072238814506,-0.8933872373182995
-1.0748152994535844,2.5131305351715567,1.6349720591340502,-2.1054889167323565,3.38903596459262,1.7900048073605892,-0.06777976965525137,1.226937682191418,0.0849226701994191,0.2156537351977757
0.013509365933556687,-0.16227359917811734,-0.1390369427656189,0.2573856301247108,0.6307854310599232,2.6625115351112694,0.41467677086560767,0.47414693876060254,-0.15723698940809483,0.23825559020274878
-0.9702480736027097,1.0463926247779023,1.3581202681338367,-0.7350929704886232,-0.44064880701365744,-0.038361699224390255,-0.05392437384407765,0.27532147504791343,0.13000272188180056,0.0800700400133246
-0.47673514476099377,1.0643501152179464,0.047263002567537404,0.12015476300832392,2.2983705155068854,2.6005029662335706,0.8795375185389578,0.23735643983417376,0.5485550015522211,-0.2895351158865072
-2.52018577824608,2.7869236690215726,2.1120070818824055,-1.4040953978519894,2.650668102397274,0.9938664878202519,0.7006226336919767,-1.4370297841660042,0.7811382739083512,-0.5017610422793343
-1.1301015406724502,0.5281263953015751,1.6004592223037868,-1.1101185906187476,0.4002496225408524,1.4150474645499322,1.1643122187755928,-0.7246237684339801,0.05706000905255538,0.790680026507728
-0.5623361915036656,2.1487001559324472,0.9334953209002206,-2.7284482169753397,2.0214705647025535,1.2425914521779737,-0.0589934004298852,0.2867564063970532,-0.1423006543218936,0.5271620833222556
-2.68659623212076,3.1327623606078925,0.61240176552488,-1.2595673906472422,1.599486951345883,-1.9533848086499173,-0.1705627263448528,-0.27383150709118187,0.7337370182018359,0.3345681289858164
-0.9575771485300639,1.8930185418250485,0.3647223237496833,-1.0361502306025798,2.8323656180789207,2.292335183832818,1.0808030356420488,0.5671128302096474,-0.24487410553379588,0.2672946875194024
-0.9650343824774328,2.8452759507844103,0.726922485606946,-2.4038730731387017,3.0203447409884507,2.2686317888343783,1.2554019961254048,-0.7466610653835708,0.9901295968403352,-0.5664038907915288
-2.3346480742743383,3.272941299750449,2.4832491270967827,-2.0385041741606624,3.4600261513795094,2.307206643052826,0.6688889338470205,-0.12702948435972855,-0.16343239182344685,0.05696205056350007
-1.0999079597999168,1.240340363712757,0.22892834157601666,-0.9442375539560236,2.4312075500080668,1.3561345970960719,0.3885169711375988,0.477267535728047,0.338859281863314,-0.23239765286678646
-0.17374801151790223,0.23121914836128443,0.5909835245692944,-0.5802987556895016,1.78562889603375,4.1804573194003325,1.0254642299727699,-1.2230573305911463,0.045656501488987165,-1.0467776423074395
0.5659511297000194,-0.15139928093066468,-0.46823663777319036,1.0727869663275145,0.16624803363454607,0.7340658757158749,-0.19219633438984499,-0.07581574674550749,0.43923999951851,-0.4700226943487564
-1.556188739702635,1.568787811451462,1.6927249477844422,-2.372816391162366,2.177749398077539,0.6680682826799111,0.46325380980942443,-0.3032596197090476,-0.898838762295979,0.7490910316447734
-0.9391722512907529,1.0926220435938467,0.41189935407424105,0.5145283576022486,3.000008626526742,1.660041267563407,0.8520792046200025,0.8143880764744041,0.8294693370156772,-0.6812439152337288
-0.19613965269036987,0.7617670029606609,-1.178132103434916,-0.12826179108463828,1.1415721764855435,-0.5364926802797106,-0.4501935960896402,0.009733074424152194,0.12478124733149426,-0.3997253556694959
0.14943060712337242,0.2562089531696832,-0.2222065980279151,0.4392407891305829,-1.0505622346617152,0.3768906103544103,0.31417723644665124,0.04594095305585208,-0.17473153235310945,0.1084931033561011
-1.8662635786464563,3.1023361594668133,1.4997132680332803,-1.583327672928827,2.911836691254256,3.687196876669743,0.5395060904964946,0.10998381831151532,0.13361523047617477,-0.4829672173485974
0.6103713302403162,-0.8138985193241676,1.3426336770791278,0.3418073885770311,-0.6719253991849181,0.8936044623148746,-0.20361533527919806,-0.39235703863250393,0.2624559702876538,1.2285328998065834
-1.2349408712829977,2.860369180189367,1.1085303995074955,-2.1003490926970487,-0.10287125455931463,0.828654965514134,0.598967319766048,-0.02861054064810531,-0.6612045224183221,-0.5976682291872298
0.5011338742220126,-0.20766391888556224,-0.19484764375642094,0.7971069219883307,-1.2043368085254837,0.11217732278698955,-0.3632435470786133,-1.7141816831660723,-0.05888250160023824,0.5794361168870502
-1.4973873012339562,2.99438538654746,1.914109323930714,-1.641839439030593,1.0940250133394007,-0.6438432194362158,-0.6283965026997101,1.2099670671978577,-0.9918325811632268,0.26054488725892516
0.19430311391233224,-0.9870878740066393,0.7114510553417375,1.0791683444624036,-0.5591016378574915,0.9063049080781813,-0.09238193419847009,-1.2042732492214268,0.6019488240219452,0.281461032205097
-0.565788475848724,2.6657560128990427,0.9251838046730559,-2.4086255471077083,2.147661220341906,0.8315794914879032,0.10797779683441013,-0.667655554357314,1.8361478521418375,-0.8058648567943116
-1.8081125727874534,2.047509300013544,1.8637413453125224,-2.493656874108818,2.115452988190695,-0.3660824326613148,0.6078837446013996,-1.1292919440774656,-0.17595355470742766,-0.38801388743984966
-0.9917782098337151,2.2751007790082585,1.7841350132320737,-1.9763332044938628,3.78707683588311,2.865361131793357,1.2520442072935887,0.015095090523511323,-0.9000994914913971,-0.4470273887058692
0.38840561790727757,0.2795508735913188,-0.14972726364357034,1.2279120343871637,0.9359476319510657,-2.5797573800595535,-0.24509294547634966,-2.2745856516213014,0.7961716452952247,-0.1963325962616319
-2.4024147065587753,2.7388282144004634,1.382589967004078,-1.875545471428445,2.1570700010903785,1.8454170244842987,0.3752952627973726,1.0146831130123286,0.9187735876250066,-0.8108809842155209
0.542428550619008,0.5739382915995768,-1.5629478250206905,-0.3051796826073145,2.656037696839647,2.3347652445984473,1.656743958151354,0.4800128346952138,-0.16752821179694205,0.019195823050892433
-0.5502293750710202,-0.3384056057782927,0.9094036003943105,0.36389765706521093,-0.11926835820324506,-0.498600664642866,0.006505071591632257,-0.011634309389454034,-1.2264203713519302,0.49286846443123716
0.4050850012794233,-0.155776057575286,-0.3362110626298844,0.16469625471109298,3.5719772723476817,4.788285979221135,0.832263825660237,0.07901257597306369,-1.8773687246605597,-0.3148941299391496
-1.4722735528415396,0.9402692770678822,0.7887895333562701,-0.2437136726320926,1.6391747422678224,-1.1075465551031187,0.13643699518491362,0.7520955525537494,1.5652967521150427,-0.6508040546391524
0.054357253286618376,1.818386013767412,0.2434885844647444,-1.017884307823001,1.7827654545520166,-1.7092633744547174,-0.060677813879825335,-0.2775811091443336,-1.055090223111726,-0.7918091314171243
-2.809554937297793,3.1638881218858224,1.5620142023401489,-1.8721176314145866,2.5688877873507865,0.20111249339933068,0.8608395401134713,0.3678184636405336,-1.573344818285103,0.06351748836892782
-0.9839055373243637,3.0418940471763127,-0.5622684576846337,-1.3632151129869117,3.427976761619569,0.7163045269124829,0.0483812551337368,0.6779008589805756,0.36122470712820987,-0.21766369501841984
-0.6619931588310235,1.3950808380331825,0.5665151329863486,-0.34255788278417953,0.49505165950610774,-0.3216391609483482,0.060232305092855695,0.9587432550203325,-1.3778865109343252,0.2764733874589779
-1.5476397725298956,2.55588150250863,0.3339067415778443,-2.109014802718402,2.072030460317715,1.172802320032476,-0.08609314147213112,-0.875402659794055,-0.45134405189014376,-0.12459978675788866
-3.0269420554578454,2.7251302661030468,2.6588968356115745,-2.604265788587023,2.988296740416535,0.9081391576204432,0.1958383992181489,0.14755199606157365,-1.1014440335862512,0.4794902404661861
1.075689077808537,-0.7852754004028846,-0.6048526649540704,0.3653058360552271,-0.6075882702959531,1.3581314108914273,0.3630662772141021,3.5100520851031094,-1.471440822753099,0.29762933816253456
0.10956259168839824,-0.728394467919794,0.615572352737327,1.1373974333242733,-0.2958083102894569,-1.5258875419362756,-0.08956979811710944,0.10675606452966721,-0.3483767797193134,0.39310852051051554
-0.41937511673962197,0.33830712760203197,0.6011044772702758,0.026020170044713346,1.8049533142203988,2.1329214821469717,1.0352316825787085,-0.010933224224536672,0.04735658334272695,-0.4431163201629382
1.278059856652961,0.28947037798667297,-1.98107857587289,-0.42640469321379787,1.4117575097252602,2.9261358038129717,0.7423256783977387,0.8404545482249298,-0.4710118569467047,-0.2524010717166967
-0.6144476997713976,1.8388596987934682,0.008843948238396208,-0.9270436817734837,1.1010150330567965,1.7123015425414323,0.07698762936900398,-0.35401305733299193,0.23726963855732228,-0.30402176214092713
-1.5862757333563489,3.0917645337503226,0.7121014061386939,-1.6565079819116566,3.2548216016726177,3.20132900509194,0.979365183040693,1.1234703648879527,-0.22871618010251185,0.21008342743823313
-1.0248920994484583,1.2947913228153065,0.1806110253696707,-0.641543721937993,-0.3121459393406961,-0.8984291829578412,0.5482829115195128,-1.7996475972212151,-0.3077813133905983,-0.24274120160690021
-1.4789775255984088,0.9595793207039449,0.6415698135588425,-0.6726192923714472,1.7140706614011223,0.8841678785231897,0.2005448478472405,-0.4721325448029621,-0.28985375362268806,0.08908326284342466
-0.6164006871868941,0.15306141305443122,0.49664513904012664,-0.398825243337747,0.20295370722213357,2.9943715437402014,0.6998356517668669,-0.9623665965172886,-0.5573772409161933,0.1754180263361297
-1.4751664669208364,1.110680468206017,2.1752391125051083,-1.3656823545600076,1.5165365497513301,3.5829442839747627,0.15111556525900538,0.3754844820943388,-0.3276296516929332,-0.1078688944571683
-0.7092460276444409,0.8541583753065507,2.050594799936919,0.7124574435875853,2.642826517266838,1.9734678053168548,0.3293187610517116,-1.0080302356507769,-0.007864084534350387,0.3268331314568747
-0.7993121007046594,0.974537500806135,-0.2963811810347216,-0.60920858495039,1.3462185431817275,2.417183628293447,0.6594292141599787,0.28481139767417735,-0.20403572913430962,0.02504556872439619
-1.4703993178623618,2.2304048682648983,0.49636857418818,-2.299198602651644,0.7845570618280924,-1.3083162696803783,-0.13546497773349497,-0.6853451494446019,-0.5576546161600409,-0.3038341875068043
-0.6049249496301221,1.2505899071213675,-0.08370614742887625,-0.9281427713736169,1.7928798457898234,0.051394257254954834,0.7182252440888336,0.8887453558834848,-0.9560453562266638,-0.8921385417886436
-2.854109066940753,3.173293623938081,0.9699482583274438,-1.0482034900574695,1.8510321281150257,-0.7778132241302695,-0.08913861114676234,-0.292014419156275,-1.0262108366829072,-0.32433085459405003
-0.3313500434232555,1.1686594807495179,-0.3699226563380667,-0.7686528323029784,0.48232423021640497,2.8239155885057583,0.6234387583211565,-0.0018871707281526984,0.4615473968697018,0.0015848316949389884
0.7463456479291941,-0.6906746169306437,0.27614129545679356,-0.007348255126951646,1.2353530990246235,0.32925629338380574,0.6440485447507256,-0.724017925079,-0.048837669692895,0.9458492263537718
-0.8151089778785221,1.5156615614545523,1.1899908434728697,-1.0174700026682963,1.251000794424452,1.7424491664780875,0.6579113499046827,2.3271391898896705,1.2781080804034128,-0.11143149200692773
-1.1613192969734702,2.1458831232218425,1.4860229363245347,-0.7353338461425836,3.3517770959474706,3.298855868640104,1.2262251940231408,0.632666723071371,0.5480294614336159,0.30276396663196037
-0.42835644497057707,0.7527217730268303,0.4050514925578783,-0.9437117143687668,1.0467772136198943,1.4588485590462512,0.07469759749538209,1.3496732714820125,0.6716328975397677,-0.08360620278738584
0.8807219661743932,-0.44311319649878,-0.9165152087001635,0.2232682296294141,-2.1734595246993047,0.43371763401403296,-0.35638950185182156,0.3115310013869737,-0.5828446504502235,0.20304646934199977
-1.5866146505126895,2.759173761328087,1.5565993308387922,-0.8630456586555422,3.197860756925534,2.041878306395594,0.24225541964270558,0.30492846640783683,0.22719393014442496,-0.22547268704233217
-1.9788364217188317,1.4708769027360509,0.37527924621074205,-1.094191419170549,4.697333495774415,2.8528277080967746,0.6514880970000211,0.030568037687618704,-0.9802746018161621,-0.8544838242463689
-1.4240472950130778,2.317598142522343,0.8137881142545783,-0.7612212684331219,1.74165194839505,-0.7492475327393096,0.19801836052114227,1.643979318505288,0.15370774400607115,-0.3164049686901221
0.10866909647592175,1.2671942266878218,0.3639977949211679,-0.6637063781814703,2.310408978100008,0.18501580872336254,0.3654116921610672,1.2825374632059374,-0.33352195408544794,-0.23907477153237117
-1.0244169802856598,1.3845405685460195,1.0170273652691737,-0.6088837771910816,2.859779513225581,0.6577412989651313,0.5798408756040271,0.9314137821891014,-0.7002541412401082,0.12715660031545306
0.27613547093431884,0.008674415073663733,0.29478227673790325,0.089168622755368,0.834025684585839,2.1507410072669297,0.33451202545899933,0.7499989313319891,-0.5517590408049635,-0.030428375484246737
-1.6955382897048288,3.2485368942222212,1.155765532230892,-2.2458592603697776,4.75438830182688,4.438641267343189,1.2707378329141423,-0.8413351887242897,-1.013661147454714,-1.013183512734915
-1.7933952942897524,1.8211802259675651,0.7816427080717474,-2.1163978693432837,2.32429868295523,4.336101681579333,1.0604400645322054,-0.18580797243805974,-1.3516629091882353,-0.5396996823344674
0.12934988609002854,0.0703879379662713,0.7578098233374148,-0.5866856159585474,-0.24139262844910042,1.7467280327808838,-0.22615398112007473,0.7644268318042939,-0.9081521790632291,0.29916196112182275
-0.07128532538530227,-0.916840096579071,-0.48994427554829256,0.5813610306184074,-1.7001461708418217,3.610062338002814,1.4931469559552581,-0.12323810076776781,-0.35152114850245686,-0.4927262681873291
-1.7783798162194344,2.5919232743018417,0.40523058018023034,-1.7416081153037137,-0.5983551292183615,-0.5825513354304641,0.33524826311953604,0.08643092422347635,0.13780741151621753,-0.3153829415007887
-2.4820340205565623,1.7749180352358809,0.626652989226635,-0.6832548601921887,1.6610699316665605,3.2384952725850558,0.6399600579810467,0.13467446883559944,0.03761131707444751,-0.5744038438022072
-0.033262131254851536,0.4740530456290335,0.8069245068734535,-0.13629706208111608,1.5663869300888627,2.3988918117961067,1.3776508750800647,0.16625986906987747,-0.7469300659534328,0.65119419002227
-1.620914653271172,1.4608149674958462,1.808884193243885,-1.543067871646949,2.3259297248210764,2.3949866804188273,1.3305286901470408,0.9380735552613363,-0.586537690693165,0.4860603246607575
-1.7585140386108247,2.5708751883145693,1.7350733608467062,-1.5090389961909194,1.1974826588782508,-0.7289174707591732,0.0039033082245067035,1.8461525134759367,-0.4483511539942503,0.4075936191682227
-1.1354316978152057,1.0002279689264864,0.9544337682149203,-0.3473435364396289,2.999792361017249,2.861291347048279,0.7959338159867527,1.114833830883736,-1.071891094579311,-0.2781404271618203
0.5865607541215141,0.4285340297883371,0.4273432711750532,-1.5808366966646656,0.7293831131725499,3.2625593905720427,0.920504502544345,1.8994300480833681,-1.297480050632261,0.056911548508880555
-2.3123561613904338,3.1964712007809633,1.7233052322959186,-1.5706105059285365,3.006572651118067,1.76475682617016,0.7300095174836903,1.0203816195270161,-0.4715857117887964,0.21642274917924842
-0.3589881413065368,0.5337035233638594,-0.053387019489209674,-0.5947072145847218,1.5823495759677,1.8078904779511165,0.7983810559681989,-0.7142464517381943,-0.23209233890180792,-0.2194848557184826
-0.1856113014908075,0.5577584029532803,-0.2882147519743721,-0.21249576591626637,1.8204601623291077,2.4681222431756296,1.0251215583054292,-1.0670893672291513,0.9763926444269746,0.529769040857676
-1.0374874753991072,3.213297841411573,1.9202298482831965,-1.9835935529543245,2.19457455042205,-0.4570804885296247,0.04381997245317498,-0.7354399977842714,-0.8951081237917988,0.6354925820240352
-1.0181502481806315,0.13972689952339357,0.37523031937891604,-1.8348624819033446,0.7493829304599994,3.83904171819714,1.0659810267878806,0.34200863897995043,-0.3999085529929235,0.3209028955657784
-1.5959427961253245,1.8998516859135282,1.4445527828709028,-1.3253064497776057,2.6366832277674246,2.243226777773841,1.045158369430263,-0.04268810485565873,-0.5084375306446289,0.2691485053023228
-0.4457324176866185,1.6520852302333484,-0.39207797698789865,-1.9432256620363275,0.6526354489267021,0.020406918216881564,0.16373871073707025,1.3830958717510557,-0.21116743851324563,-0.07597779420975084
-0.14622207257705386,0.6961388994573527,-0.23580016096180434,-0.13610790066011388,0.8593564739438304,1.836918437852987,0.2834379233596213,0.01759183102319483,-0.45024659688131,1.202346897955728
0.6166853744819544,-0.42564835394267486,0.007870830091805973,1.3768494874497648,-1.0193622938416418,1.3051139828477345,0.879412731255314,1.371680707332778,0.36686821586353446,0.5448287221086943
-2.9140934056889036,2.703895521843502,2.8787488368049394,-2.4918420834288866,2.3052650916516657,-0.6986468995601474,0.04444017885500934,-0.36762988157317916,-0.9718770811370698,-0.37796201729477646
-0.008451227107071524,-0.4414412241792216,0.34594943772591313,-0.9421202571988949,0.3329508350183694,3.6190199591005077,0.8829549578476711,0.2838402910141235,-0.49540946764505783,0.07974858602667512
-1.5583983355304247,1.3035233791381193,1.577899235423041,-1.5787009676993728,0.7816483876364799,0.8618398036595867,-0.11686688381045585,-1.8057698467789884,0.3063584780761174,-0.06315355121708922
-1.9338102834773347,2.938644165966084,1.721923488676105,-1.5721355696163175,1.740555310750202,-1.3624403371981917,-0.272279682159187,0.27903221617370844,-0.9646715163781745,-0.025950573285588745
-0.4862449369564833,0.16638164130757893,0.25779942584342147,-0.3075087417605625,1.3947047084495785,3.0088583019202977,1.497119091105402,0.6766860675603192,0.33779293480180017,0.05620991782401578
0.05238578554049322,0.6332557635772911,0.2552762254367637,-0.36906176970337706,-0.021258790005891967,0.4492866954479381,0.17134833931153506,-1.2456792897350848,0.07010658455495869,0.17533665340277124
-0.9276323602613253,1.434339103357606,1.5946261388816247,-1.3266561704321225,1.2952530238081115,-0.7120971219998591,0.2494477846357548,0.22376773463843522,0.053792842661204716,-0.7180035635856598
0.36649584598127455,0.35769903262591285,-1.818213252694247,-0.010755282590708898,1.2669562738828215,1.035979279442168,1.3847927681215217,1.8834197774653232,-0.6488474096065088,0.05278782154274895
0.9749344969546435,-0.8162308566479577,-1.2184968161369327,-0.18582446216792708,-0.48652118791982135,3.100870298462676,1.242447556174552,-0.017543102956640605,-0.1166007003446629,-0.48402946113351214
0.7663287878984142,0.22069355585849237,-0.31659151731278107,0.49998170140393833,0.7271709984625404,0.864767564033137,-0.5934148059081604,0.937384931091453,0.6762305537723243,0.09193759283735466
-1.6728046252120916,2.886462074629619,0.5915664513595607,-2.4280549395062994,3.3133982400747737,0.6878591821421003,0.5601023569148681,-1.5680779502067075,-1.0565889882772137,-0.4185196096094345
-1.5036035083507606,1.9294132554378005,1.0276448000022702,-1.3473182554983603,3.219426359768542,1.4004262101664726,0.7192007882629607,-0.4388856713879687,-0.08175186931272686,-0.02288908770518512
-0.22574702002544994,-0.5355961252579184,-0.5138062608678088,-0.33290688248206607,-2.0382708902015554,-1.4300556040937205,-0.008680942041079349,1.3297291873421953,0.04286445276816364,-0.4477156510666131
-2.0904731291431142,3.216474029141497,0.8828552163556269,-2.332649870582831,3.8894798419967094,5.604628748041376,1.0503368690991248,-1.4871462442122763,-0.5635932433560762,-0.6804215097318904
1.0478169536832336,-0.48928963925084856,-0.6078418527073396,0.7451360853066465,2.0755042760105633,4.012793492679229,1.2134307328527663,-0.5956911344005223,0.026394367434593783,-0.14412574949126003
-0.46176137089460484,0.3450637615670529,0.006298939562930528,-0.525901237392358,0.9852642767192845,1.5172079351074839,0.4779938943132714,-0.40927859850218234,-0.3475253289009889,-0.260928916380698
-1.3620306164165197,3.1865105838860206,0.3988747465414306,-1.4025426279148128,3.271029435620639,0.2656474579815988,0.6166094267729453,0.10033247606024065,-0.07659737564060776,0.3650425782740115
-1.5527377627370345,0.9502469349781688,1.5480568883701677,0.013198740282903744,1.281893018347148,0.11674557212518077,0.2356356356248057,0.8818852964020001,0.40308657776925627,-0.7021839861963016
0.7464547874383687,0.037300796748880094,-0.5421620674532531,-0.4980290605413912,0.30893260557896157,-1.3385826224246384,0.08507665206889793,0.3652779558176215,-1.1442950978368243,0.09219105494693809
1.6451869155673517,-0.7264784782349225,-1.4772944224756497,-0.29202954421558786,-0.7626797419094766,0.7609152321717352,-0.13411554670112236,0.3182705490030515,0.4592772642329443,-0.1459819053053613
0.4260964484997954,0.14196463198118647,-0.35274437041888773,-0.9158120106468738,0.3188382820577334,0.8612484883645163,-0.05365538565643561,-1.1250850895372408,0.2845496517838247,-0.03347400930167507
-1.2263374358222614,2.086603002531682,0.681198348876907,-0.8194737271555176,1.5850715747749669,2.8101069863628387,0.526951749857325,0.12475077115539498,0.9387530776525108,-0.12417549259008773
1.861384032236903,-0.7327426987843243,-2.056009583063967,0.3191207390223408,0.7056442422854552,2.0666643547379002,0.6049415190290689,-1.8168333718638785,0.196266324155129,0.03467849963303591
-0.2240718216672721,2.8685063720918342,0.9939134056915169,-1.6928701723320831,1.0721007111965934,0.3053821976937326,0.1779152747127063,-0.29756008864636413,-0.21725857214029975,-0.3232124155183699
-1.4392113579558408,1.2130991959415263,0.7166360424885154,-0.7992731624456391,1.8871885343458423,4.241153533869507,0.3279154657395627,-0.8869045912876492,0.06654144411305249,-0.5038017796941577
0.2591252421396373,-0.4449229015800984,0.9633556473551687,0.8263184202161296,-1.013041378700954,1.6008556668306555,0.1978417306773592,-0.5030249843728026,1.3763134013306633,-0.4162668579029502
-1.794030705436398,3.278693529261802,-0.16621776940807578,-0.623767947927107,3.0476501289838023,1.11649791595699,-0.06397944925859723,0.02871740928307817,-0.9664205554670965,0.8482451387917943
-1.0849452801555965,1.222570095998254,1.709334994891112,-2.251144307090603,0.8879338487807465,0.5607432872857884,-0.2768618937464319,-0.5488790497969275,-0.6446753693501209,0.52721683870011
0.7049616643677588,0.26276623558367485,0.7189713869045659,-0.20438880092219217,1.0662179768579159,1.4263442399104784,0.5663856364265072,-0.5309531040766503,-0.5646545940315173,-0.037426048161281374
0.2434842317633776,0.004492826659862059,-0.032902823864130806,-0.1622094691791078,1.170512968384055,3.1013027571625127,0.9141086595474186,1.356834708023665,-0.1388854951846309,0.2861833404217945
0.9200513757315288,-0.3461994358868987,0.590893531414642,0.5476697367015438,-0.9346839047601181,-2.170888416919558,-0.5376629297782831,1.6255794264690306,1.7290292784991763,0.07131075678845476
-1.222809603738401,3.096844086922201,1.7375708788191466,-2.756064872488151,3.2185474485314827,2.2796115783143662,0.5064179029886146,-0.17081447043463738,-0.7502658581902636,0.47756362195196034
-0.24736331813015702,1.981553890588239,0.34070098037385005,-1.9677143464320739,3.1934821434731786,1.8459274117321174,1.3268111382752583,0.782751156142416,0.4351572470023963,-0.7028799973320423
0.09823306581362118,0.042685489220238404,-0.8104883867693116,-1.2758675217925743,-0.7697961100614736,0.9091151840048332,0.07660990930874281,0.5322873704986579,0.4462625835462819,-0.34196745288174984
-0.038155139555394305,-0.6915499076631619,-0.7512363524371589,1.5748842731950095,-2.127765752140447,-0.6520521306876503,-0.4378175642139795,0.7995058546159312,-0.86206262141118,-0.7017167607409343
-2.707957016418572,2.6976668813071893,1.944798403577515,-1.5548580843493336,4.415704955445468,1.3244963966364003,1.7136010619670878,1.7549582415781644,0.27468920528753,-0.34560796318892234
0.22650821267489196,-0.013767173202072991,-0.7003830639001396,0.3969559333191189,3.163344562313264,2.9711140047462288,0.8825270950426565,0.3919048097148172,0.16300920580328335,-0.15131729155727316
0.3815052578721453,1.1801410950598465,-0.8440245725342223,-2.1646499556074636,2.787242660371627,2.3413939625007796,1.484501635447174,-0.5650761039189971,0.12686157336605186,-0.6067131707415222
-1.43584930144176,1.7611810409146114,-0.060376385438892184,-0.3360541104138498,3.0773730949165063,2.3470930911535626,0.4231419559689267,0.6848305187684359,-0.5258134630035045,0.1952527454816553
-0.24717830025871299,0.43384489771724977,1.150170634609393,0.2551170914894476,3.5090814706824474,3.715300696921824,1.202910490653136,-0.19040316842947924,0.6057033789469981,-0.524129537674183
-0.4874964513466065,1.6936127940209964,0.37225210867956776,-1.0054011570939971,1.5203211850747835,2.2661569631966882,0.6779694521222934,-0.7777073952516294,-0.7961684482693377,0.7145390988931398
-0.6693245167582682,1.34247097461013,1.1150571423281324,-1.8309102847792877,-0.5878205320949907,-0.12910387985710814,-0.17118848025218358,1.390766106506963,0.0990938281728547,0.6110522902115001
-0.5347261868388028,-0.7195893413098067,1.9301657657965032,0.2964411397378992,-1.3911715892968894,0.1451527425305951,-0.6238036670837969,1.7826921756251868,-0.22236118152354836,0.48846103663937773
-1.164127810338346,1.6044349847406472,0.8652174708491486,-1.2376784104387661,1.5295867928670268,0.7481682256461033,0.46801444124987546,-0.9490431685691176,1.0963098894587686,0.15496061844513043
0.6502845818364138,-0.059875979178105276,0.45452313956453716,-0.7843304854592833,3.371130049312447,1.9991216884694651,0.6262019522338624,-0.2459770962253381,-0.7512965532350436,-0.4604654059404079
-2.536584028717912,0.9787555274157058,1.8815058888608907,1.2675498291697338,1.9304152947727193,2.3179944691564947,0.5791580239705908,0.4461399138207016,-0.5187847564797397,-0.5559028387942384
0.4061026068977572,-0.35154742400276706,-1.051046894395596,-0.3372676154194875,0.2209137507557294,3.2717268420511214,0.5169178892573272,0.25298028220996077,0.7700203077645769,-0.9418386996499134
-0.4221754241689379,1.010825505765681,0.40435801770956903,0.3177719301692701,0.6556141757688297,2.647448579863342,0.8950295768031957,-2.018403574227093,0.3141796785382213,0.2809812649816497
-0.5560208826263034,1.3513493534538212,-0.102356787991849,-0.3856080968107835,0.920619486551684,1.2389356237393112,0.5783910116419001,0.287317269044419,0.6243175924281907,-0.6107002661906394
-0.3301015859195377,1.7053598643735763,0.09073638845654193,-0.6210253638630416,3.0224174440450495,1.9532185263734783,0.2760125841589266,2.137043037534536,-1.248711573492881,0.2589252765967752
-2.795219291211007,3.105159995720993,1.766218784509324,-2.2913552703051536,2.928678394214195,1.9319929935624311,1.5892696901554972,-0.7295974393099967,1.0596805933106452,-0.09521190647487926
-0.14068032618047047,-0.5465318329748649,-0.17064467668009725,0.20790270271807468,1.5748153495191912,2.954826455169982,1.3077055535419342,0.7985442817071473,0.6537849203494414,-0.20115634704850066
-1.7157270070697723,0.827653098444352,1.434546016100987,-1.7069159980715787,-0.6007535842246534,-1.9109168421996086,0.24454466977506753,0.48802124415437376,0.7515687227593789,-0.20961936839278644
-0.6012865018317152,0.7462955719289182,1.1641893091449453,0.5110785776403659,0.5928496762756479,-0.5313888262881716,0.09602091109901287,-2.026596783175309,-0.45960991978854043,-0.7106308620112495
-1.2135103348076353,1.4219181628462292,1.0921113049333386,-1.0020496187806684,1.8788986956848097,5.756710386842757,1.047427188203604,0.48710096369424744,-0.6195000833578549,0.9930931661399973
-1.3559138785228926,1.8707735609138103,1.8624369772163727,-1.930962655189742,3.040186881390806,2.330948657766227,0.7473252858529192,0.03500573427396281,0.13908425275184597,-0.3211459095441741
-0.12194155168571616,0.5435805354070418,0.3323502060046149,-0.559560184175098,-0.2575134913966377,2.6600897888617436,0.16465605906592665,1.572411236950498,0.8857374128856642,-0.46930677690794603
-1.016838610551133,1.3791695181412171,0.8220358175580426,-0.7187446847995635,2.836495216720529,1.5299982451393428,0.5564325611066393,0.2489901692107143,-0.5238226226733654,-0.2812913904598661
-1.755413114832773,2.1785648046784964,2.5158774528296353,-1.7508273717378937,1.3245527377595694,-0.1528270859066777,-0.46341771008916155,-0.24514438368442804,0.38137943379512235,-0.7484799027280015
-0.8378958745492341,0.8518147317709357,-0.3564423650007635,-0.42181342315637915,1.6043057814927144,-0.2139356810881929,-0.18102122799972759,-0.4786395069135336,-0.6467016196847793,0.15870392905534403
-0.9200230269228828,1.5297488740012386,1.7037186266143862,-0.2694419764392943,0.9338264048553959,-0.30743822638500257,-0.11091736864787301,0.22320993513269896,-0.05228381327522328,0.5456407942010969
0.5109001864741836,0.45974872036461445,1.4967518488224454,0.3819834599663806,1.049996935008725,1.5695264417710904,0.4496302312320714,0.7838958082668296,0.49651455492118557,-0.23367886314999228
1.5361789522996896,-0.7751267932598208,-0.4806267648988777,0.7770400885897926,1.3788568876893246,1.847310702827977,0.6570060179181791,0.9984970477079589,-0.7420774216229965,-0.057630440766880515
-2.0347018537121766,2.657215926968391,1.2370380065405937,-1.4934585957157929,3.60207637919407,0.917753198411424,0.45304291971702926,1.389934166960183,0.21307561369433065,-1.0029503369257495
-0.2143597762267289,0.9412129948355448,-0.36295369392763727,-0.890582893097602,0.05873274003329276,0.15023455855047896,0.921807418928727,1.5748371399993029,-1.8907324667421166,0.752451434383103
-0.09105072827531543,0.0035289569568075496,-0.24806828343068577,-1.1112057944754048,1.6495128816733562,0.7454301760093652,-0.09740989764499056,0.3201504689855177,0.37241285921645717,-0.08683536094655447
1.9614710974087595,-0.906054109561794,-1.0863723215697139,0.0011008745897651078,0.2168643959597174,3.910410884055803,1.4279611573677167,-0.4209252019119454,0.23663151303804045,0.5708214014566825
-1.946969090454253,3.2916909030749153,-0.2505660013566409,-2.5185070861166516,1.5097069925457343,-1.030091344062984,0.4542510679661056,0.29564738142430425,0.7855835949809785,0.8118154313668992
-1.4891753724981358,1.8995732959374152,1.3038645534845388,-1.210154663431085,1.4231302937284611,-1.0012868056519308,0.6091468977665657,0.21990321574193372,-0.8485808541215918,-0.017580710674551744
-0.6260108299234933,0.7923158297314887,0.7676028587560142,-0.46332512406421134,1.1697247330647262,-0.17777779675176664,0.38755835631451374,0.8754317231993238,-0.24345824148269798,0.5741544598645381
0.2208484837898087,-0.3826221237326257,-1.1393073464750503,-0.7997948774717866,1.1410914964643968,6.532496584978994,1.395621148973541,2.1068336487942187,0.8455503475412597,0.01277140971730754
-0.6825701367749061,1.4768817970004524,1.2676482245771754,-0.5310108752464495,1.090517837384796,-0.839813394648548,0.4357058505015562,0.6543132674607837,0.1131873503403475,-0.05551220446508557
1.0586781350999825,0.6765429110453025,-1.3339733103440485,-0.7104107997116021,0.36877306025431605,1.5623673710611974,-0.16881052910233105,-1.1571574508756537,0.07901380014505516,0.6351733272593311
-1.668242738973314,1.6752947279835588,1.1687814996381518,-0.732243010498387,0.6583251960547638,0.9312300622608174,1.0178240017846034,-0.03946932639511519,0.27251253905747563,0.7020232208523927
-0.9920503164904914,1.0013635995404773,0.1162817418512458,-0.6750958061185582,1.2888944409115035,3.699009591877096,0.7772485377014534,0.51717768083948,0.7234243550396385,0.48310535065187765
-1.0098121725073796,1.4520422554197348,-0.04853613256142656,-0.7462674746414464,1.9083776200644231,-1.094240467645407,0.15946817202461053,-1.0161788210393456,-0.5924456960099135,-1.0765707879364015
0.08464467976272284,0.12891136610312226,-0.5627151995269266,0.18437843878011165,-0.8612377971581275,-0.002354868358948603,-0.22654908987098402,0.21447878231885292,-0.8759382702872158,-0.08600955692997493
-1.4670920896908874,3.4457242903531915,0.1112167234423246,-2.1225138479877863,3.459926670697696,2.3850928827551567,1.2815558095360517,1.052002896976497,-0.6964283283122465,0.7856183311098711
0.7783065963389394,1.2729767500877323,-1.1068356613455055,0.7876339767189132,0.39455089609028815,1.7135119171051876,0.15104710976428873,-0.4266833798694776,-0.3043623931915095,0.8143994863627165
-1.8121789249518352,2.92154577247421,1.6976037857784163,-1.9819245307731699,4.632864338851988,3.4389651293763324,0.7643907536578216,-0.63407657814371,-0.197553140362661,0.11508701141587545
-1.975859418906939,1.389379648553449,0.9156852783626629,-0.7077042298282248,2.256651510757928,1.9616187830260245,0.5599226857029868,0.7701492384822771,-0.7148481393770872,-0.6454770266960249
-2.012876377611229,2.417440007853193,1.7485824227151978,-0.5951805036290926,3.1544498749411405,3.179280096922831,1.2356889923383825,1.44547015463808,1.3156128026125469,-0.8081628267869648
-0.19289127391226693,1.6590148337757697,-0.08942755245576224,-1.5056426388164443,1.1253813983742003,1.9672714658911128,0.5390826441833544,-0.8765557249626565,0.689830818117103,-0.5739233806983689
0.23151652205779505,-0.49879409291868493,-0.46446185967302794,-0.35658652847745714,0.6688071762916398,2.462016109216947,0.04044140208316162,0.3095720663336895,-1.085233164838674,-0.8440693028916174
-0.5401999865149916,0.9363873153937345,-0.48614275358602477,-0.728919425603558,2.1563320486674886,2.826139861747357,1.0122388389628574,-0.11919266095740945,-0.8714764849833218,1.2238749184996207
-2.404001354625514,3.2295580623758395,0.06400039975146339,-2.843098174558292,6.014876474524744,3.3249058900437296,1.5631675741061313,0.11830682555670397,0.21822503553404798,0.1487209012528369
0.8522347519020677,0.5900348814326364,-0.17085297463030055,0.0913442374468572,0.8054202487342563,-1.1419011842755633,0.4150668989120251,0.2877614794423805,0.2762653660019694,-0.19858675868902562
0.20758736066027916,-0.9165714094359128,1.3410010811894277,0.05269810856889749,-1.633266003650745,0.14721543547981808,-0.02633575963883744,-1.179626360713655,0.6091026099573201,0.4959189501587386
-2.7666806563460953,3.463218658282811,1.7566129221354034,-2.313699116836723,4.620894755099015,3.5305241581666613,1.467040569025263,0.7262135453806111,-0.3019342579544339,0.0254670346444759
-1.9903136094485712,2.951502956103071,0.8599281919340636,-2.445122167996893,2.793938802729074,2.0132269758057775,0.5820633860808928,0.40987310237215524,-0.7247078893151336,0.06112737471638511
1.367348662521582,0.017381079913962427,0.08029363366199017,-0.2515246253367643,-0.09889589590612968,-0.5165518620771686,-0.197413949528263,0.43558121508615893,-0.4053837993979922,-0.4414442218597791
-1.9691854931118715,3.170019569581001,1.313345224298217,-1.4555985716780862,4.526362435445133,2.8081562242554567,0.6485578934082705,0.23225693775921094,0.26416588783329176,-0.05687613597048827
-0.104689205804931,-0.4957531255887244,0.49051058917651896,0.672382459820511,2.072463770353177,2.5469657140420052,0.9824652573290359,-0.8436230351603837,-0.3751003298268668,-0.560558698937868
-0.48621306556651367,1.5036593960999212,-0.7870726370602706,0.41698897473845864,4.444140135035127,4.377912346027915,1.0130761284247336,-1.282457159837978,-0.006852758411341463,0.8656606834374757
0.15063429762184347,1.4987656376856506,-0.9027148553278941,-0.0026144985244343946,2.015919543511943,-0.36324926418139203,-0.14945419979454685,-0.6117060599684785,0.2922415654039912,-0.36131153085598156
-2.9036899235607714,2.737433344393293,1.1319710257211717,-2.7504209258313534,0.6864646219622871,-0.5125649541461942,-0.2651697020632388,0.5246565380635144,-0.8067739247113588,0.27927442351612514
-0.36619770651345374,1.0343385895305452,-0.1926561159318857,-1.769152132709616,2.185526590028039,3.5402819090080935,1.7312646748035652,-0.7838600097348404,0.26504039868707335,-0.5420842154930234
-1.3334898816068743,2.695143562753419,1.5821806160412537,-1.5815966145550477,3.9711934385948724,1.1441591869549292,0.6892117439874066,0.6889413307374168,0.9678185292152952,-0.45203757800244154
-2.7999451154904724,3.2598858476108763,2.496646180827766,-1.6428259679831352,2.8467654346907683,4.057339013059305,1.0031845790021428,-0.005301344781791478,0.45189070005884907,-0.1647324729383849
-1.6864517077867225,3.101580077810767,1.3641139666920687,-1.8845404752953627,5.238747635815633,2.064414978837758,1.5413819123377133,1.7855392060558253,-0.44905529004695555,0.04126238024146011
-1.2471594025865698,1.4640917753345226,0.5325371688325127,-1.0899905357652986,1.0122528931097574,2.3714582914617273,0.7263042060604904,0.0735143501155755,-0.9631080987013574,0.27759978490463566
-0.47147660333953906,1.471749096733642,0.37010058250975225,-1.3029198253740002,2.7931714856896295,-0.9877914543395361,0.547719913471569,-0.27865303985096457,-0.8453916803176256,0.4705517320182797
2.458448022439434,-0.7264169814853936,-1.2441387744248036,0.2584755942102349,-3.7194872403765724,-0.8239127766229479,-0.37915388421031027,0.37872949952650714,0.5680300892553647,-0.27949902624276024
-1.0744850458215898,-0.1446358169559957,-0.628357117876048,-0.8047269389299156,0.6890474218599656,1.2877067161542661,0.7585605851759685,1.626669112066447,-0.5486033969488598,-0.8045696370669192
-2.501251586788388,3.299131082049959,1.438365329551523,-1.4045465943667317,3.2230348597641707,0.30484972740924654,0.4511276980861823,0.04507486762637977,0.2697733192066191,-0.31658223960842063
-3.0731699564198256,3.296812096709748,0.9763440176913787,-2.8088463680181226,2.6102563479214282,1.9040409713796689,0.5528052789033177,0.7703159509336874,-1.252284383120477,0.14717276661860856
-0.7263630868046228,-0.9266292472681589,1.095720914245516,0.675366710255597,-0.3076270789199106,1.8030349171555655,0.8826543766637265,-3.025926691689802,-0.24917867491157328,0.20930681111311578
-0.6003590647754644,-0.05590697330527106,-0.0975265162131589,-0.21690512601393874,-0.5229107276467112,0.1814906948770857,0.14919173715474546,0.8056316196280159,0.3588087551095181,-0.32886078898065596
-1.8105912931016757,2.6105435695543524,1.0058215691608152,-1.721450303011938,0.08181873874467027,-0.9256368754442601,0.3538175403250548,-0.3886019047505085,-0.5776958574932051,-0.2746014184549577
0.6135067631529896,-0.7225454624070129,-0.35809980122123647,0.46933271983037295,0.22878649361924985,0.7920582893518939,0.35280541301987195,-1.545571220951037,0.10082402024063057,0.019396450034511924
-1.6813982191842316,2.623919019241789,1.47449514551829,-1.4261961251301876,2.10255963382784,1.1263219953342938,-0.37674754523112536,0.1460044956378846,0.6850801403115324,-0.3776457129835144
-0.6365096394445677,1.4976377637164044,-0.39538279002198506,-0.8354237933371285,0.1928082745295232,-0.2491886325410172,-0.1926984715439544,1.0325107190112666,-0.8118947588051114,-1.0330137000453936
1.136588325087646,-0.6885810729164504,-0.4346686874970089,0.7962001886251117,-0.03002450370821752,-0.174934551954875,0.06194453882025749,-1.4006555208815177,-0.24764054285622994,-0.789867350754237
-2.2438934832135615,1.010830873254915,2.7971472411244673,-0.6916967296557962,2.2844280195654103,0.7916723551977107,0.48012517262772764,0.07875631413834405,0.025254570432547006,-0.06795293897398613
-1.7237547828655149,2.438318101814925,1.0042548145001133,-2.5921402874247246,0.9580076007134412,0.5211098267965093,0.23473480321736703,2.091012544693317,0.9561632169690809,0.5067501092858444
0.3690645826055037,1.3318649779653389,-0.2651090383081575,-1.6003425938245082,0.9916616561323002,-0.36872092282834845,-0.09496843212935223,2.1331365237558155,-0.34953406525275327,0.729073756324478
-0.6978701577163365,1.5983826580059417,0.5490856240332793,-1.358062178681319,1.0463274601414445,-0.28482565287188777,0.08107179879404983,0.07835821790808647,0.17996253518477276,-0.08068509071151773
-1.9152983675070088,2.2334714020179858,2.0294776378675734,-0.7775580462334546,2.595423893857414,1.850450044256466,0.42581671380958847,1.0488194409828868,-0.47751522165270316,-0.6835419448397175
-0.8427987893391164,0.023051359083884337,0.06110308266920444,-0.9079586734204467,-1.27207296683905,0.8487158534215471,0.5079276539965362,-0.29804877102942784,0.5245711433185041,0.20641301119722874
0.08636261188168924,0.2271994296537565,0.018647930401270704,0.255336925940508,2.405892134312677,2.4196785664702776,0.2642957593930766,-1.339409537007945,0.5848003010573407,0.08308067739682275
0.11734085477873198,-0.5184152228259884,0.826000038685366,-0.7687228088743332,0.18625057497030412,1.0451206226157452,0.6258926532992791,0.3722951080019843,-0.36355759811091387,0.10003410364333672
-1.86636462125658,3.0793637970506937,2.550421620394827,-0.7730901262419424,3.8958016230067454,0.25694941210754196,0.36514092522193603,0.15389236324010921,-0.4210756516383897,-0.09090778294932461
-2.3565856515593557,2.2657169081317083,0.3422289662023502,-0.8704555583565771,2.3061503245946833,-1.166759279829207,-0.20166964507610757,-0.9099433617499294,0.5713084960769996,-0.035505893614702404
0.6644859465490117,1.6758518207749944,0.6545633782257106,-2.0533279156752378,1.8545352899861878,1.6561589402421668,0.207592192630639,-1.2929435981342015,-0.4253369179050502,-0.512082021436741
-1.8624906366765046,3.034471304827858,1.57118272842903,-2.1491766205632468,2.103753574810079,-0.7147304508858827,0.41401863773745146,-0.42792102384707176,-0.5349661956108767,0.02463627196949977
-0.5295832347051275,-0.5993727275072113,-1.0914742727988218,-0.45132483174824756,-0.9327617113834471,-0.8286757034989869,-0.32946068619433333,0.9696944203212126,0.1629897107402789,0.36345644414241884
-1.1318315505211063,2.357046209365703,0.8933145547200068,-2.336138261789547,2.111479712769794,-0.6690842452680901,-0.5394088720229502,-0.25120955150459495,-0.27038554115996116,0.3091422142227696
-0.17252725295556545,1.4052109643628046,0.3839435877945474,-1.0158241875944405,1.2717081018253789,2.4244880979844003,0.5376899918891349,1.5763199979392721,-0.515732149185255,0.04852278478453243
0.5725634280474593,0.5219937624166793,-0.671688746254418,-1.2312299058438398,2.807291271924538,0.9668774602779888,0.2854295204602055,0.770672772027963,-0.6193390096193553,0.6211349849392622
-2.000728557877358,3.358403945765142,0.9660631099009197,-2.5008402634889184,1.9947202587940585,-0.16243765327459636,-0.1255523215173389,0.970093340558611,-1.2967934714742386,0.39355696316230615
-1.9083270358247673,2.4333480683867235,1.6413241621540944,-1.2513506096388292,2.3075676991355936,-2.4078458017254385,0.40586708419651124,-2.061360873240334,0.9869497570402983,0.27139134128805276
-2.014770509130954,2.8006408147006394,1.8654604118508709,-2.217513877274338,1.8932134919386479,3.089781715861323,0.47179261890774093,1.270082001473229,-0.8788081331275475,-0.8040338599168412
-1.1582234206615931,0.35409302675135557,0.38707352313836235,-0.7974338368253189,1.0195866258645885,1.7616398506075013,0.8967635193521549,-0.41651821147930673,-0.23705262186331424,-0.2333441448013468
-0.3536820561925948,0.8412485576393407,0.9670856388015682,-0.7403269151101441,2.218805746721574,2.757184828581239,0.6054706262528736,0.49353966975478153,-0.3498425683200342,0.6347659803528688
-0.17417085751967373,0.583971746695251,1.071879486915664,0.19033298250499908,2.9101050016671994,0.5304562313178867,1.04052851681607,-1.4209948657617968,0.8216976120943813,0.6024910064949744
-0.5387416593598819,0.3987437525782378,0.5024090119005701,0.28224124262168293,1.0432616382406943,2.603511364152508,0.7383423006084919,0.9376241283672226,1.6836626375580486,0.6430934047278277
1.0724793491847584,-0.7727980393767468,0.1897037090592506,1.808077915164669,1.3044202640821245,2.1439753578941323,0.8299898422292802,0.9195564027998353,-1.060132060188299,0.3366341442552603
-1.7304525713297298,2.7464048420735345,1.7600817630770575,-0.8891941708888615,3.686305172778029,1.7006424810895528,0.5654404869488211,0.7139264148959085,-0.6771253478895448,0.3162450261292477
-0.8401743455075066,1.8913901317518458,-0.4479096890607654,-1.8741282048980126,3.2393784658826643,1.9379808263485556,0.962419110708113,0.052182913707482625,-0.1040822465058729,-1.331950793529023
-1.0653622432980157,0.46836261823164493,0.7105560524606872,-0.8313086875633363,0.7565391215743515,1.3540894722686596,-0.5876654081035912,-2.0864942051023405,0.9032217941637732,-0.7323987119353655
0.15070166957674275,1.3797933495639594,1.0515036168095915,-0.8236920788952358,1.0176446773650545,-1.0554047012188925,0.3357514172512505,0.6790553751903092,0.40098986841898704,-0.27876505113816014
-2.0290721890098724,3.104735527270246,1.5122180212712837,-1.5198481053487587,3.731396602793895,1.905171262925206,0.24816797837967533,-0.9200398362339086,-0.6838390975521098,0.15639672069678034
0.3236815731974159,-0.6511479830939452,-0.4797610999376694,0.7260242334615417,1.1100244464178943,2.208867514354296,0.9477562554988922,-0.1999235568603087,-0.8825795547521906,-0.7630565050024711
-1.2156953892030975,0.5047858888889929,0.542598602238563,-0.8086351448987925,-0.37832916603374633,-1.206065997973422,-0.1273161517306233,0.02157968771363468,0.29070694119688345,0.46748464303999426
0.12519039531900442,-0.02536273541831613,0.2806628607255393,0.8235515742589307,0.05206690293970151,-2.3642160787877886,-0.09012714956267553,-1.06955498249777,0.8099841635901285,0.1033471633066726
-0.21977267062759134,1.357869930433734,0.8250649576629461,-1.1368782641650603,0.3412512599765786,-0.4937904764459006,0.47510589659523034,-0.03735559184357759,-1.4565140641665484,-0.5154320872676291
0.867050019570654,-0.8859756066698613,-0.4688429526741297,0.3312323386625223,1.967470047259984,2.9246650882444425,1.6457850325414782,-0.6374056668592099,0.9461328116971853,-0.15608088901104739
-0.08353866780118746,0.21131053561505553,-0.23860661637114047,0.5959935009054307,0.14335943620159358,-0.6764940872745502,0.10010524220633185,1.220064948840038,1.0735329266329372,0.07755581470317463
0.9245386650450355,-0.612985612581179,-0.36657218781112055,2.0022789639877567,4.063738218768401,4.026438655348373,1.3860844906601675,-1.5118506953367854,0.10220523382223726,0.5983230356212533
-0.4147525297973219,2.182435482765138,1.1499422156664503,-0.4695811639761303,3.4760106703328786,3.380455346229324,0.7179607681957799,-0.07311897800781181,0.987747154075443,-1.1935391037780945
1.3018309213680777,-0.2725748295835996,-0.9268379681266421,-0.18096236624837522,1.7500079975093201,0.6276498629928402,0.24223233144090148,1.195397499644062,0.0759166022617017,-0.59679334188693
-0.7679882711686822,2.3483637717548156,0.3616100636461877,-1.7205136554678175,2.199866168149909,1.3046891960151639,0.2250823731549779,0.246772625031578,-0.27995649889775476,0.11356124174413697
