lhs,op,rhs,est
x2,~,x1,-0.2388134478502168
x3,~,eta2,0.7249412900864693
x3,~,x2,-0.46749668134495315
x4,~,x3,0.6737489471188547
x5,~,x2,0.42133229912022013
eta2,~,eta1,-0.13857171451811523
eta1,=~,y2,-0.2745721861833367
eta2,=~,y4,-0.7988233689077444
eta2,=~,y5,-0.1728483564094938
