lhs,op,rhs,est
x5,~,x2,-0.22586124891452358
x3,~,eta1,-0.4624577404757359
x3,~,x5,-0.7503557788214343
x4,~,x3,0.08610294251800199
x1,~,eta1,-0.11280657180273501
eta2,~,x2,-0.0831650645895064
eta1,=~,y2,-0.8200643352937405
eta2,=~,y4,-0.5290976070171413
eta2,=~,y5,0.3316438661871593
