lhs,op,rhs,est
x3,~,x2,0.2894154337599919
x5,~,x3,0.6869840267255463
eta1,~,x5,0.6124377245539352
x1,~,eta1,-0.23043184240634218
x1,~,x4,-0.4466046276610667
x4,~,eta2,-0.5258582052352128
eta1,=~,y2,0.5236503590962975
eta1,=~,y3,-0.40476703621860166
eta2,=~,y5,0.7700908958268085
eta2,=~,y6,-0.6183039515835684
