lhs,op,rhs,est
x1,~,x2,0.07873638249805116
x5,~,x1,0.23908717830151271
eta2,~,x5,0.43383088198668773
x3,~,x1,0.20057723884792178
eta1,~,x3,-0.35846553005954246
x4,~,eta1,0.5556211045170918
eta1,=~,y2,-0.5620178380125359
eta1,=~,y3,-0.14133447717478548
eta2,=~,y5,0.3978015378012809
