lhs,op,rhs,est
x1,~,x2,-0.09735681550631084
x5,~,x1,0.5231162241524434
x5,~,x4,0.4068653983321441
eta1,~,x2,0.17444393481290543
x3,~,eta2,-0.8158520661248759
x3,~,x1,0.45775234202899506
eta1,=~,y2,-0.8008832738426912
eta1,=~,y3,0.3691177474521474
eta2,=~,y5,0.48870921129183065
eta2,=~,y6,0.768440934949312
