lhs,op,rhs,est
x3,~,eta1,-0.19792883863132255
x3,~,x2,-0.12413352935058183
x5,~,x1,0.48746720757492223
x5,~,x3,-0.13812692517109698
x5,~,x4,0.5169231607626339
eta2,~,x5,0.4952150278077758
eta1,=~,y2,-0.28036051623155167
eta1,=~,y3,-0.3454503354407313
eta2,=~,y5,0.7183367110241676
