lhs,op,rhs,est
x3,~,x2,0.3698563598321462
x3,~,x5,0.5052304092531599
eta2,~,x1,-0.4468545703626019
eta2,~,x3,0.7427186007384032
eta2,~,x4,-0.20806830741454946
eta1,~,x3,0.2704776873940802
eta1,=~,y2,0.636583060942925
eta2,=~,y4,-0.20043156994589778
eta2,=~,y5,0.3630145269371862
