"lhs","op","rhs","est"
"eta1","=~","y2",0.518350456329363
"eta1","=~","y3",-0.849121801179987
"eta1","~","x2",-0.0273186386112926
"eta1","~","x3",-0.758499907679156
"eta1","~","x6",-0.9737473542169
"x5","~","x3",0.933360952629561
"x10","~","x5",-0.870647161450135
"x2","~","x7",0.1377430943459
"x2","~","x9",0.399611664139372
"x1","~","x3",0.29885574507881
"x8","~","x7",-0.537693789327862
"x4","~","x9",0.113142106794234
"y1","~~","y1",3.08267292816823
"y2","~~","y2",1.03591766302455
"y3","~~","y3",2.70852430419649
"x5","~~","x5",0.776320187538604
"x10","~~","x10",0.708274223428223
"x2","~~","x2",0.209144951736771
"x1","~~","x1",0.0840611214111774
"x8","~~","x8",0.263018795320063
"x4","~~","x4",0.0126367929819193
"eta1","~~","eta1",1.54122929324733
"eta1","~~","x10",0.0405266641143303
"eta1","~~","x1",0.0255442403826327
"eta1","~~","x8",0.0198005955309516
"eta1","~~","x4",0.00135442502374614
"x10","~~","x1",0.0075893667632508
"x10","~~","x8",-0.0104799796880859
"x10","~~","x4",-0.00499605335641923
"x1","~~","x8",0.0126319286247457
"x1","~~","x4",-0.0011467804496025
"x8","~~","x4",0.00028249669755124
