"lhs","op","rhs","est"
"eta1","=~","y2",0.479993404788515
"eta1","=~","y3",0.840971805353916
"x3","~","x1",-0.781439651809096
"x3","~","x10",-0.478898743038096
"x8","~","x3",-0.207862826339824
"x4","~","x10",-0.455905550926725
"eta1","~","x2",0.429520658700155
"eta1","~","x4",-0.854665712240847
"x7","~","x10",-0.212163224271273
"x5","~","x6",0.244000613830025
"x5","~","x7",1.03208228819744
"x9","~","x7",-0.4514058647639
"y1","~~","y1",2.33687814669004
"y2","~~","y2",0.254456340583567
"y3","~~","y3",1.26637108764186
"x3","~~","x3",0.761923401545198
"x8","~~","x8",0.525904647980182
"x4","~~","x4",0.17593694620788
"x7","~~","x7",0.0473333890291078
"x5","~~","x5",1.09434215111674
"x9","~~","x9",0.175254372693053
"eta1","~~","eta1",0.76509743386427
"eta1","~~","x8",-0.00091543339040338
"eta1","~~","x5",-0.054119873853675
"eta1","~~","x9",0.0236508772989579
"x8","~~","x5",-0.0562509884266004
"x8","~~","x9",-0.0251167711398972
"x5","~~","x9",0.010653619925866
