"lhs","op","rhs","est"
"eta1","=~","y2",-1.2022112282074
"x3","~","eta1",0.399861938163464
"x3","~","x1",-0.370916514192632
"x3","~","x10",0.812468568767332
"x3","~","x9",0.609046713565704
"x2","~","x3",0.696825232063974
"x8","~","eta1",-0.47737513836807
"x7","~","x8",-0.88574185562407
"x4","~","x1",0.119593185296201
"x6","~","eta1",0.166219877414615
"x5","~","eta1",-0.121130061612962
"y1","~~","y1",0.914727718404346
"y2","~~","y2",1.06262940175732
"x3","~~","x3",1.44697508232204
"x2","~~","x2",2.49710201118499
"x8","~~","x8",0.274607560881259
"x7","~~","x7",0.881943563195541
"x4","~~","x4",0.0118542962749572
"x6","~~","x6",0.0290404255618017
"x5","~~","x5",0.0167469172823996
"eta1","~~","eta1",1.63166818975632
"x2","~~","x7",0.099389708311006
"x2","~~","x4",0.00682001153029607
"x2","~~","x6",0.00232283524726832
"x2","~~","x5",0.00155361900958188
"x7","~~","x4",-0.0030226685260911
"x7","~~","x6",0.0119000905097338
"x7","~~","x5",-0.00124151138860026
"x4","~~","x6",0.000523038314113554
"x4","~~","x5",-0.000502670237431103
"x6","~~","x5",-0.000979169741541481
