"lhs","op","rhs","est"
"eta1","=~","y2",0.243158300103329
"eta1","=~","y3",-0.206444282298909
"x4","~","x5",0.343437296985802
"x8","~","x10",-0.428554985280865
"x8","~","x4",-0.603754963265871
"eta1","~","x5",-0.59547876159839
"eta1","~","x9",0.455017224159667
"x7","~","x6",-0.556576514751864
"x9","~","x3",-0.465635738142138
"x9","~","x7",-0.583446029602695
"x10","~","x2",0.929160641752711
"x1","~","x9",0.496852327777195
"y1","~~","y1",1.68066224303473
"y2","~~","y2",0.115234461767024
"y3","~~","y3",0.103993746275893
"x4","~~","x4",0.131934796477262
"x8","~~","x8",0.624782354306771
"x7","~~","x7",0.309495388434346
"x9","~~","x9",0.534216600813129
"x10","~~","x10",0.98411649313805
"x1","~~","x1",0.580823680948613
"eta1","~~","eta1",1.24748156267803
"eta1","~~","x8",0.0573104553749137
"eta1","~~","x1",0.0258894165132247
"x8","~~","x1",-0.00567476624646461
