"lhs","op","rhs","est"
"eta1","=~","y2",1.14227757056828
"x4","~","x9",-0.250229066318051
"x10","~","x2",-0.351115021275707
"x10","~","x4",0.997814905439564
"x3","~","x10",-0.359417870607572
"x3","~","x8",0.357957522513428
"eta1","~","x3",-0.595615562505197
"eta1","~","x6",-0.481923489430682
"x1","~","x8",0.300305595501127
"x7","~","x1",-0.215601039648172
"x5","~","x4",-0.59832496610653
"y1","~~","y1",3.62230956960076
"y2","~~","y2",3.07636142077409
"x4","~~","x4",0.070288215204659
"x10","~~","x10",0.978356438223263
"x3","~~","x3",0.369807753971616
"x1","~~","x1",0.0912575117791641
"x7","~~","x7",0.0353573603714493
"x5","~~","x5",0.418577879855425
"eta1","~~","eta1",0.980853436841885
"eta1","~~","x7",0.00608586593478071
"eta1","~~","x5",0.0660985459909563
"x7","~~","x5",-0.00298882921278152
