"lhs","op","rhs","est"
"eta1","=~","y2",0.743427950775391
"x9","~","eta1",-0.653745233678066
"x9","~","x10",-0.165633976358946
"x9","~","x3",-0.874754367802836
"x7","~","x1",-0.80066732920973
"x7","~","x9",0.173976325328825
"x4","~","x5",0.311666180079449
"x4","~","x6",0.125113527597758
"x10","~","x4",0.535204443700075
"x10","~","x8",-0.947442648563789
"x2","~","x3",-0.925309446021843
"y1","~~","y1",0.990824015393014
"y2","~~","y2",0.332030100381905
"x9","~~","x9",1.72530616225181
"x7","~~","x7",0.817854536602519
"x4","~~","x4",0.109296279229752
"x10","~~","x10",1.16516559821902
"x2","~~","x2",0.80294491714606
"eta1","~~","eta1",1.58022104245635
"x7","~~","x2",1.32483090719248e-05
