"lhs","op","rhs","est"
"eta1","=~","y2",-1.00863876348937
"x3","~","x5",0.761702122831513
"x3","~","x6",0.169825228578813
"x8","~","x10",0.831258813339259
"x8","~","x3",-0.0119957734599742
"x7","~","x6",-0.86713221628025
"x2","~","eta1",-0.192034338015221
"x5","~","x2",-1.0103719350927
"x9","~","x4",-0.127367539944608
"x9","~","x6",0.670927433287957
"x4","~","x1",1.15270632831899
"y1","~~","y1",0.858881471810865
"y2","~~","y2",0.845063298421541
"x3","~~","x3",0.654268639105748
"x8","~~","x8",0.735305209342211
"x7","~~","x7",0.890325040235213
"x2","~~","x2",0.045421010262044
"x5","~~","x5",0.792237070214948
"x9","~~","x9",0.432558656607775
"x4","~~","x4",1.19887631919894
"eta1","~~","eta1",1.64909343493648
"x8","~~","x7",-0.00205928111465515
"x8","~~","x9",0.0378847626713942
"x7","~~","x9",0.00225861869340722
