"lhs","op","rhs","est"
"eta1","=~","y2",0.173972978116156
"eta1","=~","y3",0.15832718668152
"x5","~","x4",0.213093218899351
"x10","~","x5",0.158417480518685
"x10","~","x7",-0.977045701962906
"x10","~","x9",0.623916206041493
"x2","~","x10",-0.00842349844622274
"x2","~","x8",0.410893852853966
"x9","~","x6",0.224954050307211
"x1","~","x3",0.90704518462222
"x1","~","x8",-0.711921004359672
"eta1","~","x8",-0.531289897453781
"y1","~~","y1",0.97822334601066
"y2","~~","y2",0.0376287783136839
"y3","~~","y3",0.0260396026773678
"x5","~~","x5",0.0475936144671774
"x10","~~","x10",1.22668366765409
"x2","~~","x2",0.394296717088799
"x9","~~","x9",0.0539834818945224
"x1","~~","x1",1.37564594478362
"eta1","~~","eta1",0.304689809315929
"eta1","~~","x2",-0.015446503698811
"eta1","~~","x1",-0.0148211043481145
"x2","~~","x1",0.0140782167857689
