"lhs","op","rhs","est"
"eta1","=~","y2",1.6100170852557
"eta2","=~","y4",-1.04769510981778
"eta2","~","x2",0.899739461510633
"eta2","~","x4",0.842732249847699
"x1","~","eta1",0.291728512305625
"x1","~","eta2",1.96065372511395
"x5","~","x1",-1.78769153637855
"x3","~","eta1",0.312663437754935
"y1","~~","y1",0.915168489246213
"y2","~~","y2",3.39060417800537
"y3","~~","y3",1.84935390143833
"y4","~~","y4",2.68426603278454
"x1","~~","x1",5.71717323941765
"x5","~~","x5",9.0794792346882
"x3","~~","x3",0.177600867782174
"eta1","~~","eta1",2.16473662161035
"eta2","~~","eta2",1.56187342346993
"x5","~~","x3",-0.149125444813893
