"lhs","op","rhs","est"
"eta1","=~","y2",0.870642786242536
"eta2","=~","y4",-1.01734388196559
"x3","~","eta2",-0.477466267675668
"x3","~","x4",-2.12484106277047
"eta1","~","x2",-1.68598615329341
"eta1","~","x3",0.0420808867064058
"x4","~","x5",1.68080022723082
"x2","~","x1",-1.15355465652643
"y1","~~","y1",2.2598851062283
"y2","~~","y2",1.14744182150742
"y3","~~","y3",0.837514496564546
"y4","~~","y4",1.78454131695007
"x3","~~","x3",4.80072059863196
"x4","~~","x4",2.87109624955813
"x2","~~","x2",1.32868511866817
"eta1","~~","eta1",3.09880354885772
"eta2","~~","eta2",2.02608456891372
