"lhs","op","rhs","est"
"eta1","=~","y2",2.11695685812951
"eta1","=~","y3",2.02970798321913
"eta2","=~","y5",-0.453552779160058
"eta2","~","x1",0.764679831034516
"eta2","~","x3",0.547009432865848
"eta2","~","x4",1.25371445279468
"x5","~","x3",-0.414754105245557
"eta1","~","x5",-0.415509922984901
"x2","~","x4",-1.09838667904249
"y1","~~","y1",1.07624214999261
"y2","~~","y2",4.2919218236588
"y3","~~","y3",3.00402773796648
"y4","~~","y4",3.24443231409706
"y5","~~","y5",0.505951184553149
"x5","~~","x5",0.143323500657958
"x2","~~","x2",1.43316981407553
"eta1","~~","eta1",0.129709719076826
"eta2","~~","eta2",1.94651128596075
"eta1","~~","eta2",-0.0808593958032963
"eta1","~~","x2",0.00732556354896518
"eta2","~~","x2",0.0638769447528812
