"lhs","op","rhs","est"
"eta1","=~","y2",1.93125670905359
"eta2","=~","y4",-0.768315237617204
"x1","~","eta2",-1.7661965756114
"x1","~","x4",-1.78405353927953
"x5","~","eta1",-1.30760982695489
"x5","~","x1",-1.18083504043609
"x2","~","x5",-1.52298347113717
"x3","~","x1",-1.06441154280753
"y1","~~","y1",1.05161942714467
"y2","~~","y2",2.45429593847696
"y3","~~","y3",0.962920204697801
"y4","~~","y4",0.518658599048313
"x1","~~","x1",6.00685613132496
"x5","~~","x5",19.5125558907427
"x2","~~","x2",11.981353681673
"x3","~~","x3",2.38152429876197
"eta1","~~","eta1",1.34604308203868
"eta2","~~","eta2",1.55026229113864
"eta1","~~","eta2",0.0196013606528031
"x2","~~","x3",0.0455769444206482
