"lhs","op","rhs","est"
"eta1","=~","y2",-1.39938557692533
"eta1","=~","y3",-0.211164858673501
"eta2","=~","y5",-2.15768818531994
"eta2","=~","y6",0.693623461771023
"x1","~","eta1",2.12674360470973
"x1","~","x2",-0.991007178016461
"x1","~","x3",-1.29246352307227
"eta2","~","x1",-1.95932262206638
"eta1","~","x5",0.405430429671134
"x2","~","x4",1.36457490759132
"y1","~~","y1",0.97722324788276
"y2","~~","y2",1.87587533354241
"y3","~~","y3",0.0490675514256141
"y4","~~","y4",3.10311101666399
"y5","~~","y5",14.2316311546294
"y6","~~","y6",1.26763628101434
"x1","~~","x1",6.61884949646369
"x2","~~","x2",1.82265898662889
"eta1","~~","eta1",0.216464724327873
"eta2","~~","eta2",11.3157445015761
