"lhs","op","rhs","est"
"eta1","=~","y2",0.413243523152646
"eta2","=~","y4",-0.712710327613024
"eta2","~","x2",-0.820682361679375
"eta2","~","x4",1.01210384639325
"x3","~","eta1",-1.16227339053421
"x3","~","eta2",-1.08212637275552
"x5","~","x4",-1.19457757709994
"x1","~","x5",2.11928647094257
"y1","~~","y1",1.03411372273225
"y2","~~","y2",0.156690061197504
"y3","~~","y3",1.75323598450953
"y4","~~","y4",1.48832897886615
"x3","~~","x3",9.14216863410595
"x5","~~","x5",1.52715235553885
"x1","~~","x1",3.88220132186492
"eta1","~~","eta1",1.54284353616618
"eta2","~~","eta2",1.69364360443458
"x3","~~","x1",0.247741132539739
