"lhs","op","rhs","est"
"eta1","=~","y2",0.768805458449237
"eta2","=~","y4",-1.80070278383076
"eta2","=~","y5",1.11602327484953
"eta2","~","x1",1.0738866621071
"eta2","~","x2",-0.872548449387846
"x3","~","eta2",0.816454549729777
"x3","~","x5",-0.465635494191566
"x2","~","x4",-1.20015304773454
"eta1","~","eta2",1.77723427780321
"y1","~~","y1",1.71942966582412
"y2","~~","y2",1.35190524786903
"y3","~~","y3",1.73070516318872
"y4","~~","y4",6.34344555424138
"y5","~~","y5",2.72095358640814
"x3","~~","x3",9.75943204668666
"x2","~~","x2",1.3329340115586
"eta1","~~","eta1",6.92777524441013
"eta2","~~","eta2",1.69926210930546
"eta1","~~","x3",0.238076140628578
