"lhs","op","rhs","est"
"eta1","=~","y2",0.263370209392043
"eta2","=~","y4",-0.583459812075252
"eta2","=~","y5",0.813795054690179
"eta3","=~","y7",0.329797265395777
"eta4","=~","y9",-0.49257301070051
"eta5","=~","y11",-0.779887329298045
"eta5","=~","y12",0.315236393790607
"eta6","=~","y14",-0.502824938572052
"eta7","=~","y16",0.194212601820179
"eta8","=~","y18",0.549125841743397
"eta8","=~","y19",-0.179142901634756
"x10","~","eta8",-0.731405753974258
"x10","~","x6",0.873622541727392
"x2","~","eta5",0.306456829161813
"x2","~","x10",0.0617549376464889
"x8","~","eta4",0.610299502186245
"x8","~","x2",-0.288824177719272
"eta8","~","eta7",1.06124484658282
"eta8","~","x8",0.0807924239559563
"x5","~","eta5",-0.963927385601743
"eta6","~","x5",0.158032229254046
"eta2","~","x8",0.73044891101559
"x9","~","x8",0.716775297177134
"x7","~","x3",0.995567977493274
"x7","~","x9",0.13017456155573
"eta7","~","x4",0.549573309886993
"eta3","~","x5",0.407073751042412
"x1","~","eta3",0.337145149026927
"eta1","~","x9",0.712096367943795
"y1","~~","y1",2.18602739903243
"y2","~~","y2",0.107306203922944
"y3","~~","y3",2.06385939608868
"y4","~~","y4",0.566516881843298
"y5","~~","y5",1.38437576255416
"y10","~~","y10",1.91919311885074
"y7","~~","y7",0.184142806504638
"y8","~~","y8",0.860409312943117
"y9","~~","y9",0.189014560733573
"y11","~~","y11",0.576144475796929
"y12","~~","y12",0.0855999146475596
"y13","~~","y13",0.988814835309049
"y14","~~","y14",0.462479805813182
"y15","~~","y15",0.960210799083662
"y16","~~","y16",0.0300652232425893
"y17","~~","y17",3.22838329842436
"y18","~~","y18",0.740051021074599
"y19","~~","y19",0.0933848869510516
"x10","~~","x10",2.11148168655624
"x2","~~","x2",0.126833994987596
"x8","~~","x8",0.963729558573726
"x5","~~","x5",0.94158940485276
"x9","~~","x9",1.07550007265338
"x7","~~","x7",1.00756721434764
"x1","~~","x1",0.15018263303235
"eta1","~~","eta1",0.734093254725925
"eta2","~~","eta2",0.890265576689574
"eta3","~~","eta3",0.205812647991179
"eta4","~~","eta4",1.80618089949713
"eta5","~~","eta5",1.66926224138105
"eta6","~~","eta6",0.0592269444949655
"eta7","~~","eta7",0.320049260842178
"eta8","~~","eta8",1.10483064107186
"eta4","~~","eta5",0.112543520593909
"eta1","~~","eta2",-0.0965037301509727
"eta1","~~","eta6",-0.064333756020477
"eta1","~~","x7",0.0305311096155054
"eta1","~~","x1",0.00399350422219778
"eta2","~~","eta6",0.049539226469187
"eta2","~~","x7",0.0398243198353745
"eta2","~~","x1",-0.0385360052271659
"eta6","~~","x7",-0.0145954444372693
"eta6","~~","x1",-0.00416539474560351
"x7","~~","x1",0.0370051589954085
