"lhs","op","rhs","est"
"eta1","=~","y2",-1.05680243989643
"eta1","=~","y3",-0.656787069748208
"eta2","=~","y4",-0.431515771218846
"eta2","=~","y5",0.561970687267054
"eta3","=~","y7",0.187435406955277
"eta4","=~","y11",-0.726432315787082
"eta4","=~","y9",-0.890596358780093
"eta5","=~","y13",0.83894981659373
"eta5","=~","y14",-0.31120391126972
"eta6","=~","y16",-0.342859912693633
"eta6","=~","y17",-0.348895715431652
"eta7","=~","y19",-0.657740033879257
"eta7","=~","y20",1.05349362108803
"eta8","=~","y22",-0.912991151664896
"eta8","=~","y23",0.498211130726182
"x4","~","eta4",-0.324628034885858
"x4","~","eta6",0.872465441946583
"x4","~","x3",0.846430717719191
"x6","~","x4",-0.230409979829806
"x6","~","x7",0.152501171614699
"eta4","~","eta2",0.160203795881085
"eta4","~","x10",-0.167136844309223
"eta4","~","x6",0.70583127088993
"eta4","~","x9",-0.0331904289725609
"eta3","~","eta4",0.954884917649799
"x5","~","x4",0.093879794750402
"eta5","~","x2",-0.700864890739621
"eta5","~","x6",0.827874363438599
"x7","~","eta7",-0.182696789205317
"x8","~","eta4",0.193922168743421
"eta1","~","eta6",-0.825520041031616
"x1","~","eta8",-0.937027825587725
"x1","~","x9",-0.812620743017683
"y1","~~","y1",0.949965259100976
"y2","~~","y2",1.25197754494291
"y3","~~","y3",0.395973293461865
"y15","~~","y15",2.26418490099444
"y4","~~","y4",0.151177247742029
"y5","~~","y5",0.385792474551367
"y7","~~","y7",0.0394853399562564
"y10","~~","y10",4.17197910000882
"y11","~~","y11",1.64104988270613
"y9","~~","y9",2.87592045781614
"y12","~~","y12",1.81719508699246
"y13","~~","y13",1.6966811040974
"y14","~~","y14",0.178561614681889
"y16","~~","y16",0.131807745793477
"y17","~~","y17",0.165193136177418
"y18","~~","y18",1.06242644366378
"y19","~~","y19",0.42421140059661
"y20","~~","y20",0.974981333712551
"y21","~~","y21",0.983307033872294
"y22","~~","y22",0.745967306596933
"y23","~~","y23",0.273918499712227
"x4","~~","x4",2.22140891834453
"x6","~~","x6",1.01885697213016
"x5","~~","x5",0.116287208755267
"x7","~~","x7",0.0310121820940877
"x8","~~","x8",0.20566627317766
"x1","~~","x1",1.65600687218821
"eta1","~~","eta1",1.02175979235243
"eta2","~~","eta2",1.52814892701762
"eta3","~~","eta3",1.21474785337259
"eta4","~~","eta4",0.592002208316936
"eta5","~~","eta5",1.46447865418564
"eta6","~~","eta6",1.9812544330179
"eta7","~~","eta7",1.51150840064936
"eta8","~~","eta8",1.75615198552253
"eta2","~~","eta6",-0.107426755292798
"eta2","~~","eta7",-0.0133369436836125
"eta2","~~","eta8",0.232886658758304
"eta6","~~","eta7",-0.0914988531218329
"eta6","~~","eta8",-0.0181072192313314
"eta7","~~","eta8",-0.120874094086773
"eta1","~~","eta3",-0.0262146611466075
"eta1","~~","eta5",0.0647233681217262
"eta1","~~","x5",0.046275235185685
"eta1","~~","x8",-0.025754581939097
"eta1","~~","x1",-0.0130689479845967
"eta3","~~","eta5",0.103234376223991
"eta3","~~","x5",-0.00947783054224942
"eta3","~~","x8",0.0718378638442467
"eta3","~~","x1",-0.00957363895938663
"eta5","~~","x5",-0.0549073491370889
"eta5","~~","x8",0.0291160024203471
"eta5","~~","x1",-0.0794187664044004
"x5","~~","x8",-0.0115819343693134
"x5","~~","x1",0.00207005189763977
"x8","~~","x1",-0.0431297683125434
