"lhs","op","rhs","est"
"eta1","=~","y2",-0.679733243944301
"eta1","=~","y3",-0.472883264579347
"eta2","=~","y5",0.873259360301914
"eta2","=~","y6",0.431368500944856
"eta3","=~","y8",-0.496504518790118
"eta4","=~","y9",0.511965072393881
"eta5","=~","y12",1.51445197492923
"eta6","=~","y14",-0.961332476804203
"eta7","=~","y16",331.788142340619
"eta7","=~","y9",0.356295143958377
"eta8","=~","y19",-0.223034559773002
"eta8","=~","y5",-0.857666952476732
"x5","~","x2",0.224498322159884
"eta5","~","eta8",0.579848861721567
"eta5","~","x1",-0.163285854921619
"eta5","~","x5",0.969149455430417
"x8","~","eta1",0.62436164306515
"x8","~","eta5",-0.0592624083381964
"x6","~","x8",-0.0130462495671043
"eta7","~","x6",-0.000219652109602156
"eta3","~","eta5",0.341306364058601
"x4","~","eta3",0.469862698667252
"eta4","~","x4",-0.392781982283797
"x10","~","eta4",0.501203416727624
"eta2","~","x8",-1.06063093922558
"x7","~","eta1",1.146862491827
"x1","~","eta4",0.980221956861543
"x3","~","eta3",0.115885034704265
"x9","~","eta4",0.862464920521918
"eta6","~","eta1",0.523319981447703
"y1","~~","y1",0.998775911785765
"y2","~~","y2",0.414185806223901
"y3","~~","y3",0.197822238340753
"y4","~~","y4",1.6295822347064
"y5","~~","y5",2.59144726736276
"y6","~~","y6",0.527565641911069
"y7","~~","y7",1.01904495144414
"y8","~~","y8",0.277360810189266
"y10","~~","y10",0.947599621049993
"y9","~~","y9",0.211757551620166
"y11","~~","y11",2.41649049122057
"y12","~~","y12",2.98573878542373
"y13","~~","y13",0.995850022955278
"y14","~~","y14",0.868802653496547
"y15","~~","y15",1.14647766141224
"y16","~~","y16",9.16415074083057
"y18","~~","y18",0.912449353059556
"y19","~~","y19",0.0544371733069603
"x5","~~","x5",0.0474341975400456
"x8","~~","x8",0.442363861809346
"x6","~~","x6",0.0114618868766317
"x4","~~","x4",0.21680683239688
"x10","~~","x10",0.261969709166368
"x7","~~","x7",0.987789632120847
"x1","~~","x1",1.34981713260166
"x3","~~","x3",0.0129504430186979
"x9","~~","x9",0.89544094589909
"eta1","~~","eta1",1.63920253957641
"eta2","~~","eta2",2.17229658728116
"eta3","~~","eta3",1.11137832408269
"eta4","~~","eta4",0.249140927804568
"eta5","~~","eta5",0.989636250586497
"eta6","~~","eta6",0.236063615427865
"eta7","~~","eta7",-8.21690759792999e-05
"eta8","~~","eta8",1.70715558583437
"eta1","~~","eta8",0.134395569966548
"eta2","~~","eta6",0.0652166616552012
"eta2","~~","eta7",-0.000144142727641671
"eta2","~~","x10",0.0108955135083354
"eta2","~~","x7",-0.0109815563911279
"eta2","~~","x3",0.0121535496851586
"eta2","~~","x9",-0.0624614181069923
"eta6","~~","eta7",2.45354258046092e-05
"eta6","~~","x10",0.0358315056328936
"eta6","~~","x7",0.0885642183163486
"eta6","~~","x3",-0.000478982435763808
"eta6","~~","x9",-0.0545591500081027
"eta7","~~","x10",1.06976151560112e-05
"eta7","~~","x7",-4.89546319112873e-06
"eta7","~~","x3",2.65959217673276e-06
"eta7","~~","x9",-2.51204991361968e-05
"x10","~~","x7",0.0148445142387201
"x10","~~","x3",0.00205956996842795
"x10","~~","x9",0.0166071558468885
"x7","~~","x3",-0.00319541539336191
"x7","~~","x9",-0.0264003507824088
"x3","~~","x9",0.00122861782077071
