"lhs","op","rhs","est"
"eta1","=~","y2",-1.0724913928251
"eta2","=~","y4",-0.554098285871049
"eta2","=~","y5",-0.0408951131933363
"eta3","=~","y7",0.10810912547139
"eta3","=~","y8",0.302868371174444
"eta4","=~","y11",0.119531339296736
"eta4","=~","y9",-0.361177247345319
"eta5","=~","y13",0.83310081223209
"eta5","=~","y14",0.411250059508202
"eta6","=~","y15",0.544846729243236
"eta7","=~","y19",-0.878173410384621
"eta7","=~","y5",-1.16276894543169
"eta8","=~","y21",-0.689437541973871
"eta8","=~","y22",0.670238048397997
"eta3","~","eta2",0.209076398041179
"eta3","~","eta6",0.694550952326603
"x4","~","eta3",-0.102851144551529
"x4","~","x5",-0.737104161252139
"x10","~","eta1",-0.446322055664443
"x10","~","x4",0.0984123417402029
"x10","~","x9",0.648826508689718
"eta7","~","x10",-0.0516646915335133
"eta7","~","x3",-0.178909309139312
"eta6","~","eta7",0.0710339729757221
"eta6","~","x7",-0.971507495914669
"eta4","~","x5",-0.55690142362326
"x6","~","eta4",-0.832781870306822
"x8","~","eta4",0.463326790786632
"eta1","~","x2",-0.796892505337189
"eta8","~","x5",0.245489686273844
"x1","~","eta8",0.364517556038336
"eta5","~","eta4",0.398630330463136
"y1","~~","y1",1.02155674230144
"y2","~~","y2",1.09317238321358
"y3","~~","y3",0.484247070669801
"y4","~~","y4",0.83756538115101
"y5","~~","y5",1.94222915911516
"y6","~~","y6",2.28931944486205
"y7","~~","y7",0.0278925735509901
"y8","~~","y8",0.184642841742895
"y10","~~","y10",3.05616346525954
"y11","~~","y11",0.0145529674651193
"y9","~~","y9",0.138806054331506
"y12","~~","y12",1.15219592850166
"y13","~~","y13",0.456067628733843
"y14","~~","y14",0.122074257330214
"y15","~~","y15",0.493670871995347
"y18","~~","y18",2.26107847180611
"y19","~~","y19",1.02245609494224
"y20","~~","y20",0.938362833450803
"y21","~~","y21",0.562477982656011
"y22","~~","y22",0.562944182910977
"x4","~~","x4",0.921402551642351
"x10","~~","x10",1.01077919160092
"x6","~~","x6",0.934275610642906
"x8","~~","x8",0.276987821828864
"x1","~~","x1",0.159229381830561
"eta1","~~","eta1",0.460641405715249
"eta2","~~","eta2",2.08377503016711
"eta3","~~","eta3",0.25058458511998
"eta4","~~","eta4",0.306990579659351
"eta5","~~","eta5",0.145157337165292
"eta6","~~","eta6",0.912927884661797
"eta7","~~","eta7",-0.0201278783580845
"eta8","~~","eta8",0.0988079492546141
"eta5","~~","x6",-0.00440113310498664
"eta5","~~","x8",0.0231261824049682
"eta5","~~","x1",-0.00284986363063331
"x6","~~","x8",-0.00850962532311171
"x6","~~","x1",-0.0130907885451206
"x8","~~","x1",0.0134168235051082
