"lhs","op","rhs","est"
"eta1","=~","y2",0.928103085293484
"eta2","=~","y4",-0.522201013225982
"eta3","=~","y6",0.135776955693919
"eta4","=~","y8",-0.490788419230496
"eta5","=~","y9",0.550656820694317
"eta6","=~","y12",-0.498764699321001
"eta7","=~","y14",-0.440785831556453
"eta7","=~","y15",-1.22402474396973
"eta8","=~","y17",0.0914253751216232
"eta8","=~","y18",-1.24477355236892
"x1","~","eta2",0.759336877050778
"x4","~","x1",-0.110974164321472
"x4","~","x9",0.832081943980917
"x6","~","x4",-0.00612164697670601
"eta4","~","eta7",0.789222308007235
"eta4","~","x1",-0.402779064643053
"x8","~","eta1",-1.13953166620113
"x8","~","eta4",0.0594541480461907
"x2","~","x8",-0.894598436167816
"x3","~","eta3",0.90074985513006
"x3","~","x1",-0.817338648725556
"x10","~","x3",0.172345953185913
"eta6","~","x10",-0.277621803228637
"eta7","~","eta8",0.622306400442949
"eta7","~","x7",-1.01005677796391
"eta8","~","eta4",-0.172540042359372
"eta5","~","eta2",-0.526792975265965
"x5","~","eta2",-0.394021724227819
"y1","~~","y1",0.885111177688602
"y2","~~","y2",0.706600828016063
"y18","~~","y18",3.00581296453096
"y4","~~","y4",0.277453928687428
"y5","~~","y5",0.872110251242729
"y6","~~","y6",0.0199061732402527
"y7","~~","y7",1.93133530238188
"y8","~~","y8",0.655294017926385
"y10","~~","y10",0.771024833066618
"y9","~~","y9",0.486020579540379
"y11","~~","y11",1.8114988772232
"y12","~~","y12",0.140485823581991
"y13","~~","y13",2.3638284821161
"y14","~~","y14",0.358065333690118
"y15","~~","y15",1.88151103811024
"y16","~~","y16",1.98737342930967
"y17","~~","y17",0.0278597163231881
"x1","~~","x1",0.686535930822383
"x4","~~","x4",0.725884372992198
"x6","~~","x6",0.0354962985905095
"x8","~~","x8",1.37797074259043
"x2","~~","x2",1.49606278978292
"x3","~~","x3",1.67171622052366
"x10","~~","x10",0.0617694412757661
"x5","~~","x5",0.19419862629314
"eta1","~~","eta1",1.45588527835433
"eta2","~~","eta2",1.87558939665258
"eta3","~~","eta3",1.81454186535657
"eta4","~~","eta4",0.979571738122012
"eta5","~~","eta5",0.382136134995866
"eta6","~~","eta6",0.134251018054889
"eta7","~~","eta7",1.21980818045421
"eta8","~~","eta8",0.154599490303934
"eta1","~~","eta2",0.117980817934948
"eta1","~~","eta3",-0.0993193021808647
"eta2","~~","eta3",0.12189769713429
"eta5","~~","eta6",0.00513654765799761
"eta5","~~","x6",0.00393587576415098
"eta5","~~","x2",-0.0519723650583227
"eta5","~~","x5",-0.0293582059098671
"eta6","~~","x6",-0.00451075394732665
"eta6","~~","x2",0.022110077529774
"eta6","~~","x5",-0.00265108673275455
"x6","~~","x2",0.0140417895026581
"x6","~~","x5",0.00249382273076069
"x2","~~","x5",-0.0427817039309498
