"lhs","op","rhs","est"
"eta1","=~","y12",0.105777326277809
"eta2","=~","y4",0.740865792365777
"eta2","=~","y5",-0.548904208236133
"eta3","=~","y7",1.07247710493858
"eta3","=~","y8",0.567059668819603
"eta4","=~","y11",-1.0455255085871
"eta4","=~","y9",0.426620811690613
"eta5","=~","y13",-0.736211387608044
"eta6","=~","y15",0.522025146873217
"eta6","=~","y16",0.135686339180437
"eta7","=~","y18",0.180611677814459
"eta8","=~","y19",0.293197541051026
"eta8","=~","y21",0.0989678797884499
"x10","~","eta1",0.355817672878206
"x5","~","x10",0.647848632083175
"x3","~","x5",1.07910614900517
"x2","~","x1",0.187415855172782
"x2","~","x5",-0.694088642755852
"x2","~","x6",0.0678824508510656
"x2","~","x9",-0.764497584214871
"eta3","~","eta7",-0.875797919768884
"eta3","~","x2",0.695947490686682
"eta3","~","x8",-0.325384959915464
"x6","~","eta3",0.0107630959488129
"eta4","~","eta2",0.716834418811039
"eta4","~","eta8",0.247955225431464
"eta4","~","x1",0.111977481247882
"x7","~","eta4",0.212586551717497
"eta5","~","eta7",-0.224676438121117
"eta5","~","x4",-0.26114702382985
"eta6","~","x1",0.270593500274305
"y1","~~","y1",0.567004379035692
"y12","~~","y12",1.8197576112066
"y3","~~","y3",0.976615961749194
"y4","~~","y4",0.682081946689521
"y5","~~","y5",0.408245790138867
"y6","~~","y6",5.1212730853924
"y7","~~","y7",4.72751139972286
"y8","~~","y8",1.57502047452286
"y10","~~","y10",3.24166863781914
"y11","~~","y11",3.14363681968482
"y9","~~","y9",0.654304605399942
"y13","~~","y13",1.30731618255013
"y14","~~","y14",1.00957402951582
"y15","~~","y15",0.630561913757287
"y16","~~","y16",0.0266562901957467
"y17","~~","y17",0.921192420499622
"y18","~~","y18",0.95524719105682
"y19","~~","y19",0.0937931618723862
"y21","~~","y21",0.0118640254581682
"x10","~~","x10",0.33145175491837
"x5","~~","x5",0.439322070383145
"x3","~~","x3",1.21673526366369
"x2","~~","x2",1.16669740329213
"x6","~~","x6",0.0168485805853685
"x7","~~","x7",0.132369082919106
"eta1","~~","eta1",2.30247527584304
"eta2","~~","eta2",1.98331152664014
"eta3","~~","eta3",2.52683751002342
"eta4","~~","eta4",0.71141388885003
"eta5","~~","eta5",0.365052042432558
"eta6","~~","eta6",0.0617410883999738
"eta7","~~","eta7",1.76886810413751
"eta8","~~","eta8",1.85164664353118
"eta1","~~","eta2",-0.140535141521543
"eta1","~~","eta7",0.218457760356483
"eta1","~~","eta8",-0.0266869059083685
"eta2","~~","eta7",0.120946376653993
"eta2","~~","eta8",-0.00352562485178499
"eta7","~~","eta8",-0.0302766727493552
"eta5","~~","eta6",-0.0218995877206277
"eta5","~~","x3",-0.00895674950968254
"eta5","~~","x7",0.0023917899861152
"eta6","~~","x3",0.0296597576557627
"eta6","~~","x7",-0.00485290584237519
"x3","~~","x7",0.00227289415215232
