"lhs","op","rhs","est"
"eta1","=~","y2",-0.453210144261929
"eta1","=~","y3",-0.454036999804818
"eta2","=~","y5",1.39715461353667
"eta3","=~","y7",-320.729507175125
"eta3","=~","y8",-0.154923980946025
"eta4","=~","y11",-0.124603435546189
"eta4","=~","y9",-0.171337738871528
"eta5","=~","y12",0.277607081025657
"eta5","=~","y14",-1.22182788059698
"eta6","=~","y16",0.21673462351318
"eta7","=~","y18",-0.334647393824219
"eta7","=~","y19",0.635826887432992
"eta8","=~","y20",0.140741345262399
"eta8","=~","y21",-0.714372835554472
"eta5","~","eta7",-0.142409150659647
"eta5","~","x10",-0.530250491506259
"eta5","~","x2",-0.508248018032646
"eta5","~","x4",0.25807666542353
"eta3","~","eta5",0.000156927562259493
"x4","~","eta3",0.333458629478654
"x4","~","x6",-0.928265619594737
"eta1","~","x10",-0.727711141935558
"x7","~","x10",0.145959828655521
"x7","~","x3",-0.343849432164455
"eta7","~","eta4",-0.755513316961475
"x8","~","x2",-0.89430733718313
"eta8","~","eta2",0.31717289671045
"eta8","~","x6",0.71968358335922
"eta6","~","eta7",-0.370267061780775
"eta6","~","x1",1.06449858247205
"x5","~","x4",0.290696468437959
"x5","~","x9",0.981945808982118
"y1","~~","y1",0.972612326916262
"y2","~~","y2",0.195028668096413
"y3","~~","y3",0.156562100331245
"y4","~~","y4",1.63250491477892
"y5","~~","y5",0.0802351481480309
"y6","~~","y6",3.10803939891108
"y7","~~","y7",30.4942939839403
"y8","~~","y8",0.35736384991674
"y10","~~","y10",7.27753677818238
"y11","~~","y11",0.0171568334210263
"y9","~~","y9",0.021888441278811
"y12","~~","y12",0.382230513606908
"y14","~~","y14",3.9951919964081
"y15","~~","y15",2.29548098009421
"y16","~~","y16",0.0767518822137416
"y17","~~","y17",1.09864617386157
"y18","~~","y18",0.0837609185932599
"y19","~~","y19",0.323952005246635
"y20","~~","y20",0.0219298326123147
"y21","~~","y21",0.683045618470932
"x4","~~","x4",1.31305523417212
"x7","~~","x7",0.143604230469534
"x8","~~","x8",0.856031745343058
"x5","~~","x5",1.18295980264227
"eta1","~~","eta1",0.550353517649568
"eta2","~~","eta2",1.09095204139661
"eta3","~~","eta3",-0.000294761881662247
"eta4","~~","eta4",1.38194821253285
"eta5","~~","eta5",0.537783708097638
"eta6","~~","eta6",1.14935461746191
"eta7","~~","eta7",0.598502450470038
"eta8","~~","eta8",0.488384845967925
"eta2","~~","eta4",0.076718570062954
"eta1","~~","eta6",0.0508144419155066
"eta1","~~","eta8",-0.0423537773025748
"eta1","~~","x7",0.000925906148999195
"eta1","~~","x8",-0.0366933726751081
"eta1","~~","x5",-0.045551183413207
"eta6","~~","eta8",0.0215620920082011
"eta6","~~","x7",0.0103805126559393
"eta6","~~","x8",0.0339846865930193
"eta6","~~","x5",-0.0873815530850996
"eta8","~~","x7",0.000287140342672934
"eta8","~~","x8",-0.0228578629522058
"eta8","~~","x5",0.0844076919861096
"x7","~~","x8",0.00109317499123261
"x7","~~","x5",-0.0325594827134068
"x8","~~","x5",-0.111197522401325
