lhs,op,rhs,est
eta1,~,eta2,-0.10631528116177283
x1,~,x2,0.15493171281360837
x2,~,eta1,0.10913877652842326
x3,~,x4,-0.5116375465478231
x5,~,eta2,0.23436102846269052
x5,~,x3,0.37896982001067336
eta1,=~,y2,0.06815324081825899
eta1,=~,y3,-0.1348162977199913
eta2,=~,y5,0.08755346253990547
eta2,=~,y6,0.33947179444432435
eta1,~~,eta1,0.0
eta2,~~,eta2,1.5300952875014353
x1,~~,x1,0.011113458319128494
x1,~~,x5,-0.0021871505163734745
x2,~~,x2,0.020013662283822488
x3,~~,x3,0.264663358697358
x5,~~,x5,0.17927588330403726
y1,~~,y1,0.8866992793771715
y2,~~,y2,0.004347899880678459
y3,~~,y3,0.053986697316756295
y4,~~,y4,0.9960517188070035
y5,~~,y5,0.0061877640894682975
y6,~~,y6,0.10510305665622703
