lhs,op,rhs,est
eta1,~,x4,0.3397928506504516
x1,~,eta1,0.24183446731654995
x2,~,x3,-0.15936212405824632
x2,~,x5,0.4866323516960212
x3,~,x1,0.4261843529703506
x4,~,eta2,0.36646479464286186
eta1,=~,y2,-0.20566661050479093
eta1,=~,y3,-0.15590347694059417
eta2,=~,y5,0.13832852997577658
eta1,~~,eta1,0.14815785989022964
eta2,~~,eta2,1.32393017921373
x1,~~,x1,0.05840156816256096
x2,~~,x2,0.2592360606116562
x3,~~,x3,0.15380768757238275
x4,~~,x4,0.12016675917030364
y1,~~,y1,1.051973688589259
y2,~~,y2,0.038484798312573794
y3,~~,y3,0.018337876416719558
y4,~~,y4,1.1846625361627106
y5,~~,y5,0.018755560680575767
