lhs,op,rhs,est
eta2,~,x5,-0.24800240325178224
x1,~,x2,0.3611668006942471
x2,~,x4,0.24785733331559287
x3,~,x2,0.3645403471525686
x3,~,x5,-0.16084616692457818
x4,~,eta1,0.37432393429771704
eta1,=~,y2,-0.4076203494097136
eta2,=~,y4,0.4344178748405142
eta1,~~,eta1,1.6006702831440192
eta2,~~,eta2,0.0674171621658294
eta2,~~,x1,-0.005680420010465894
eta2,~~,x3,-0.009724186489416854
x1,~~,x1,0.1739277541473174
x1,~~,x3,-0.0020282067166661776
x2,~~,x2,0.06252459611610008
x3,~~,x3,0.1116577353312119
x4,~~,x4,0.14508692151369973
y1,~~,y1,0.9978079274918027
y2,~~,y2,0.16727394575866839
y3,~~,y3,0.9316157772988128
y4,~~,y4,0.13526458380872133
