lhs,op,rhs,est
eta1,~,x2,0.01022011429508212
eta2,~,x3,-0.5257803233882923
eta2,~,x4,-0.40383823022319576
x1,~,eta2,0.3650092294769707
x2,~,x4,-0.2061305459027189
x2,~,x5,-0.5232009360495853
eta1,=~,y2,-2.3563852605975426
eta2,=~,y4,-0.4455900676346408
eta1,~~,eta1,0.023016341760898118
eta1,~~,x1,-0.005666776266675313
eta2,~~,eta2,0.44969849124225003
x1,~~,x1,0.29130581064978184
x2,~~,x2,0.29071937121232894
y1,~~,y1,1.1467593392831366
y2,~~,y2,4.49590865950991e-19
y3,~~,y3,1.9638345348531683
y4,~~,y4,0.33447692228853426
