lhs,op,rhs,est
eta1,~,x1,-0.36187483259887643
eta2,~,x3,-0.41491790362695485
x2,~,eta1,0.3567155002305493
x4,~,eta2,0.5150947442893276
x4,~,x2,0.19412457317923076
x5,~,x4,-0.12162327373962825
eta1,=~,y2,-0.0722922587365586
eta1,=~,y3,0.27527676342254165
eta2,=~,y5,-0.509560580613568
eta2,=~,y6,-0.5234240846823464
eta1,~~,eta1,0.1660207160612973
eta2,~~,eta2,0.2457726572333876
x2,~~,x2,0.22644102284408957
x4,~~,x4,0.29599739171668643
x5,~~,x5,0.028547594717108903
y1,~~,y1,0.8566018492037933
y2,~~,y2,0.005793009062140896
y3,~~,y3,0.09403590105522563
y4,~~,y4,0.9629137960726014
y5,~~,y5,0.22881275816088023
y6,~~,y6,0.19281069375603627
