lhs,op,rhs,est
eta1,~,x5,-0.0035731711349580066
eta2,~,x1,-0.28557992570956175
x3,~,x4,0.27355399218031656
x3,~,x2,0.10456477757910837
x3,~,x5,-0.4214388351227825
x4,~,eta2,0.11374053456178823
eta1,=~,y2,-1.9622202008371126
eta2,=~,y4,-0.4308801338624724
eta2,=~,y5,-0.33570234246597014
eta1,~~,eta1,0.003622051611154733
eta1,~~,x3,-0.007320267847929252
eta2,~~,eta2,0.07655632955385613
x3,~~,x3,0.28832122995557286
x4,~~,x4,0.014899023767640478
y1,~~,y1,0.9534631443580088
y2,~~,y2,0.1664293519358649
y3,~~,y3,0.9596094475423383
y4,~~,y4,0.2857988980479407
y5,~~,y5,0.13094013723806827
