lhs,op,rhs,est
x2,~,eta1,54.842251304244385
x2,~,eta2,206.3165811115485
x3,~,x4,-0.10575900093704353
x4,~,eta2,0.11342772151715198
x4,~,x1,0.45786732573886013
x5,~,x2,-0.15379521908183694
eta1,=~,y2,-0.3450738480925263
eta1,=~,y3,-0.07490587930920332
eta2,=~,y5,-0.3785706758919377
eta1,~~,eta1,1.5718211077231354
eta1,~~,eta2,-0.4199350387741454
eta2,~~,eta2,0.11079069761911757
x2,~~,x2,60.205188481105424
x3,~~,x3,0.01896874803768329
x3,~~,x5,-0.0009232402765923323
x4,~~,x4,0.22268673076431678
x5,~~,x5,0.05140149905111027
y1,~~,y1,0.9085211335699851
y2,~~,y2,0.17068007979058758
y3,~~,y3,0.005521959558046899
y4,~~,y4,1.2772293355293485
y5,~~,y5,0.22579089717668507
