lhs,op,rhs,est
x2,~,eta1,0.3740514442737123
x2,~,x1,-0.1012319124925022
x3,~,eta2,-0.19354557089248697
x3,~,x5,0.5860553175104168
x5,~,x2,0.13740263906837216
x5,~,x4,0.27965465878599666
eta1,=~,y2,0.08262659685668754
eta1,=~,y3,0.444576908396943
eta2,=~,y5,-0.13122605974875776
eta2,=~,y6,-0.47686538865670886
eta1,~~,eta1,1.5843469012762954
eta1,~~,eta2,0.11635086295343088
eta2,~~,eta2,1.5713609167823466
x2,~~,x2,0.11648164447706874
x3,~~,x3,0.43789060091084525
x5,~~,x5,0.09628947908842184
y1,~~,y1,1.0335560600390419
y2,~~,y2,0.005886975844852056
y3,~~,y3,0.1789355027063033
y4,~~,y4,1.0501951342670517
y5,~~,y5,0.019540572123099557
y6,~~,y6,0.21973270130066103
