lhs,op,rhs,est
eta1,~,x5,-0.25376796918298905
eta2,~,x3,-0.35862558364093494
x2,~,eta2,0.45513275899231714
x4,~,x2,0.11856412793220723
x5,~,x4,0.6101236509286672
x5,~,x1,0.42884673632399917
eta1,=~,y2,-0.1662663690694298
eta1,=~,y3,-0.050166856213490464
eta2,=~,y5,-0.1872387766447012
eta2,=~,y6,-0.6031577204315591
eta1,~~,eta1,0.21024360370024125
eta2,~~,eta2,0.1496758055219221
x2,~~,x2,0.18567422924459756
x4,~~,x4,0.01691861471123008
x5,~~,x5,0.3246738038104568
y1,~~,y1,1.8221318673080797
y2,~~,y2,0.13785196808450925
y3,~~,y3,0.03941249023918961
y4,~~,y4,0.8396318720615941
y5,~~,y5,0.03086416204993954
y6,~~,y6,0.22164640357898974
