lhs,op,rhs,est
eta1,~,eta2,-0.4221339165074177
eta2,~,x2,0.508527117940605
x1,~,eta2,0.1729845192971973
x1,~,x5,-0.1451515868743385
x2,~,x3,0.09565653119100212
x3,~,x4,0.14370099548679396
eta1,=~,y2,1.0237809885885159
eta2,=~,y4,-0.4228835656322268
eta2,=~,y5,0.6256497224378789
eta1,~~,eta1,0.13713149437960045
eta1,~~,x1,0.00826959822264567
eta2,~~,eta2,0.10857719704160247
x1,~~,x1,0.05712151135930071
x2,~~,x2,0.006907862295824839
x3,~~,x3,0.018533788572386627
y1,~~,y1,1.1761331581934384
y2,~~,y2,0.17728753569182396
y3,~~,y3,0.9653660495914398
y4,~~,y4,0.1411178105464419
y5,~~,y5,0.2796593244652561
