lhs,op,rhs,est
eta1,~,x5,-0.2948378212070496
eta2,~,x3,0.21217956904885177
x1,~,x5,0.3435009559361854
x2,~,eta2,0.1004048498723039
x3,~,x5,0.2511183281883531
x4,~,x3,-0.3176524517939463
eta1,=~,y2,0.532017258617764
eta2,=~,y4,-0.10421523595137114
eta2,=~,y5,0.7151900832541632
eta1,~~,eta1,0.112271411511551
eta1,~~,x1,-0.0076890858177480845
eta1,~~,x2,0.0038851076111172987
eta1,~~,x4,-0.005302294327031328
eta2,~~,eta2,0.056427357202463155
x1,~~,x1,0.11996574916982769
x1,~~,x2,-0.001543475057805701
x1,~~,x4,0.0016183501912820195
x2,~~,x2,0.01405460338560118
x2,~~,x4,-0.0023091283989822202
x3,~~,x3,0.0634900167547384
x4,~~,x4,0.09028464990726347
y1,~~,y1,0.9138146031601082
y2,~~,y2,0.1374439544358177
y3,~~,y3,0.9408210272229607
y4,~~,y4,0.007598637471587195
y5,~~,y5,0.18162191627555072
