lhs,op,rhs,est
eta1,~,eta2,0.1112260701188756
eta1,~,x3,-0.3074115339527361
eta1,~,x1,-0.5192835369789319
x3,~,x2,-0.2639759598519278
x3,~,x5,-0.4252252693927196
x4,~,x1,0.10264361408380192
eta1,=~,y2,0.4048464542744753
eta2,=~,y4,0.08903191883261609
eta1,~~,eta1,0.5929770663418634
eta1,~~,x4,-0.0031754120347645205
eta2,~~,eta2,1.5214496145825525
x3,~~,x3,0.2000475990495844
x4,~~,x4,0.00943412952266983
y1,~~,y1,2.796947259272014
y2,~~,y2,0.25766158114336557
y3,~~,y3,1.2580330913744557
y4,~~,y4,0.004695276334420628
