lhs,op,rhs,est
eta2,~,x2,-0.3751425355417323
x1,~,x4,-0.17772251508037754
x2,~,eta1,0.3282391174059217
x3,~,x1,0.11369349160843686
x5,~,x2,0.153306743252656
x5,~,x4,0.5245558001237035
eta1,=~,y2,0.14895118566446253
eta1,=~,y3,0.2797540414228605
eta2,=~,y5,-0.5124195008420329
eta1,~~,eta1,1.6638172711640575
eta2,~~,eta2,0.16392317694659955
eta2,~~,x3,0.002569380943389845
eta2,~~,x5,0.04766277339731495
x1,~~,x1,0.026644090870066407
x2,~~,x2,0.10190528130188353
x3,~~,x3,0.015795484496435738
x3,~~,x5,0.001355677614751923
x5,~~,x5,0.2910931179756362
y1,~~,y1,0.9278465420250038
y2,~~,y2,0.01929242777630393
y3,~~,y3,0.07588554734580648
y4,~~,y4,1.0195270544722292
y5,~~,y5,0.21622744592018145
