x1,x10,x2,x3,x4,x5,x6,x7,x8,x9
0.05963541715069865,0.23699717089019542,0.7963602676490941,3.294869073053504,2.4115926982678606,0.8824001119296672,2.074640592670317,-0.6405123014334086,-0.862542837882105,-1.6925554007066155
0.2332396123512405,-0.20090394995282979,-0.2929679441971203,3.010129361960053,-0.5699848096322998,-3.156806531193204,1.093530106984453,0.20319344169985906,2.892907348086462,2.5180629857333066
0.27689233967650667,0.15660621172885786,-0.28710100419164025,0.8920046799527979,1.2553650448053175,-1.1268502577639024,-0.30905346798465805,0.0952635550773182,2.358069932399686,1.8153271647545635
-0.5562158878196172,0.006688692454222401,0.6587667918327106,2.592518612169914,-0.15413334558763836,-1.2325205542206628,0.14248965055833016,0.4442373873854456,0.964607558779903,0.27865327749927066
0.8380283293611615,-0.4985698840217695,-1.2298014234407408,-0.8923983205156072,2.982958346171565,0.5959345524838926,1.4253893601413532,-0.0893939183930824,0.23975193164141562,0.7272307980731271
0.866299117913823,0.45881120660644087,-0.8722308632124359,0.14746224297745902,1.969503315816456,-0.8972922733262285,-0.5687087698505333,0.5496916184576025,0.6128596876005041,0.18418776910918877
0.23832385965546773,0.0642099622134635,0.2515149291485862,0.46277656999582306,0.374241731752329,-1.1577028788050059,-0.0505678678466183,0.8708456540895232,-0.6828259209494522,-0.14062890956802687
-0.29766151601269214,0.8104473479810581,-0.13352712968077135,2.46866780226332,-0.8249961095197054,2.933441790725606,-0.32091726098598916,-0.5450101500283171,-0.6955457267455504,0.5106404336691432
-0.16399564451831772,0.9792593788518527,0.9244856669646909,0.6460935095907934,1.9189747468213767,2.596983024542299,0.9300711387883213,-0.5976124550233898,1.8607407771051516,1.0023834260994469
-0.9677369670316495,0.9252834160716731,0.26814467015702886,0.8251551370155816,0.9147121847015816,1.6852143495797776,0.5333756376662177,-0.7243093788477578,2.849547531599245,2.1252611423962633
0.85907891656905,0.2276404244834878,-1.3448115908185787,0.6438596840920063,-0.9905676516948901,-3.2700470669414297,-0.34945732452087797,1.7740087275924783,2.452448667283957,1.726971201655789
0.18981100264588457,0.28172336318758384,-0.8985581210784301,1.6309310319767958,0.708917435039315,-1.9674111803162786,-0.16115935323485855,0.8771106196233195,2.9452032277889004,2.1954973704056084
0.8617968596191246,-0.03223061827352743,-2.0232669535940344,1.6900203259459672,-0.7841365020676144,-5.527354304730469,-0.6716569846874013,2.1671125112584386,2.4507058134726285,1.0919459538932104
-0.9198410701255477,0.14740842033410378,1.772883783581976,0.35536366995484214,1.279589928407562,0.7722324803234555,2.42279156419316,-1.3840716020402166,0.17233714476272555,0.06735419453718577
-1.1049749367991994,0.21803528502594213,1.9516033753332183,1.7193622522919116,1.7316336881200725,1.6620124092708761,1.001357828608643,-1.7013991252796008,0.5476194665202629,0.5400621107295829
-0.3833892780056022,-0.258106118421843,0.6535971471770615,2.258478903587177,2.240334092230312,0.781920806809157,1.8277918529152781,-1.257450800856198,0.5914933735163206,0.5111418579734381
0.4339026728660992,0.00043289448368631183,-1.2368553413756174,2.439360223932597,0.2412061421084426,-1.0931954827885355,-1.2042074150270279,1.5529982156201882,-0.11761276517591146,0.1967827281333325
0.10065073954326244,0.33874184962197457,-0.8532494413270715,-0.13571788647505612,-0.24861141293911682,-0.810111253437756,-0.5999273389571371,1.0659676952988268,-0.8268813703069362,-0.09297985207234066
-0.6250475023668735,0.6041973843133632,1.3767905841929684,1.8527898500407223,1.7658346350053762,0.4887627633801155,2.057506685301261,-0.7858730016930273,0.6072439869920634,0.3957663245120968
0.22346651798490882,0.05735260402092038,-0.5383325052257756,2.23382103588189,-0.4360746612668419,-2.323647158709204,-1.0243061540305545,1.0066471881570085,1.2809167851692864,1.3460534008392095
0.7210387224182495,-0.5639544837826201,-1.4629422658923341,2.330630553629575,2.801692463109714,0.7950138112246024,1.4693218227925025,-0.4251604479407029,-0.8041726402206546,-1.0253645893117442
-0.6366709923975692,0.3655291495788113,0.9508166542457194,-0.8578598972390317,1.2781745036697352,1.147761120771531,1.3176859863827706,-1.0751004115250957,-0.535654121946993,-0.266031199670177
-0.5455567184408177,0.8959181358097921,0.4334902140843352,0.03753698730011079,2.122214899103007,0.5480858600250864,1.4961047320136382,-0.33315770903429376,3.3319966301037347,1.7444499984807749
-0.018949761738424747,-0.27027657207409644,0.5413778774219618,2.4169334861106035,2.6520757456675583,-2.1159070574196024,1.680540877605287,-0.8191659195492773,2.5468179275396614,1.8045336414938709
0.6979171792637917,0.26233976869663334,-0.9622922366354227,3.26943193742658,1.2567293772488495,-0.772595296683737,0.656344544744987,-0.4140465349131513,0.3488667439941435,0.746274522048934
0.31900966360424693,-0.13863449130356892,0.12427694763822279,0.6888486714802309,0.3444863601587702,-0.6748645268095598,-1.505286846850909,-0.025820409334469423,1.64729947933919,1.216227054843494
0.28876842770522776,0.10009821142670959,-0.4002533324434433,1.7651074250884045,2.3561309808416335,1.3035886520707556,0.5968759445086479,0.05390453168209342,1.3928820978732759,0.6304628382597098
-0.01825014070006847,0.1698896262306248,0.6001881385471902,3.1101440915284577,-0.3701744940733537,-1.4066654273972188,-0.13743448106507825,0.22235381979018756,2.97441718751842,0.5775862347450841
0.6619630015476204,-0.42308102740390746,-1.1297297120895449,0.1316727598986298,0.5011305167215745,-0.6307177275063671,-0.5178554206397262,0.3866697535133967,-0.45836118314127783,-0.11065775584879904
-0.6277600433520042,0.23363892548250456,0.713076305745985,3.0452139748019897,-0.6747147608317952,0.10483214154418752,0.24783702144509254,-0.3035061464238419,2.9840343555987268,1.508993021469221
0.5657289219506293,0.0591358499234723,-0.15516419100333143,1.2145072625995441,0.6970690397694119,-1.0582534774618049,0.5208084870617744,0.24075587376730967,2.643327032474564,2.2088809559391223
-0.5481328567353001,0.034149315403269605,0.700737289705105,2.960176156239854,1.0327162834830714,-0.9184288918314967,0.6388547370618032,0.8618919050803959,2.6030493278659055,2.826541551702816
0.15634384908495733,0.011208507125224601,-0.655010108384595,-0.9482914152659924,-0.9994001013686913,1.0436080799972494,-0.20336295080344238,0.19155578673931706,1.2317654616505727,1.528125435710135
-0.6438303629648463,0.15580014726328292,1.724590776813522,2.0145239346839237,3.3789950790196244,1.302994403821812,1.6145813221292764,-1.8308129530602821,0.9019404378930442,1.1850495004173718
0.7227986847327872,-1.0806423494761255,-1.8608327502732827,-0.29652367803594926,0.3308744288880716,2.262208612183775,-0.21778654575297798,-0.10081236611601965,-0.17644382096015598,-0.5022309089872723
0.3298568607642015,0.47792284288861897,0.23532786303109898,2.4854589133933316,3.1706717337926023,-1.3227248849269175,1.7295424293969388,0.032958358829473455,2.0872288105902173,1.5704558465115133
-0.5448172032586042,-0.46545764894479036,0.4193848783575444,2.5511267620289515,-0.10360747315234298,-0.7035628325953494,-0.46590032694399147,0.4745818447791676,0.030855017299803,-0.0697080917307009
-0.22958403745973527,0.6411030159945428,0.5423077332584401,2.608631393860567,-0.9002581883404107,-0.9934112541878951,-0.647908965101271,-0.12846601665631333,1.059552118233741,0.8610364009493323
-0.42278508297324324,0.011701439372761245,0.23379083845749668,0.9745039888640612,1.5611100435011491,0.3530063680555178,0.9292788671788964,0.01859430166817462,0.2946514118203625,-0.6959681044233611
-0.2384191331167883,-0.05467572068818622,1.0016445944253158,-0.8516009345165152,0.3979939264064445,-0.5199076362982172,0.9682517386070996,-0.4628981994908317,0.7257471726951334,0.21029178754295594
0.14792876225775792,-0.2801016946599494,0.6540061337670562,-0.06440612554430647,1.920120641047716,2.68253979212136,1.6525683861542722,-0.7433082914082034,0.8840075134968248,0.48137016328515375
0.5323272104841248,-0.5616668035880923,0.022759603916212953,0.5763403322097866,0.8728749563561384,0.9353586732496888,0.97722226650184,-0.3641018822505981,3.178454250927257,1.4910349296944494
0.36217087018505095,-0.5679480532230363,-0.44758306737629217,-0.055052182699353414,-0.5414334922669439,0.5690518973346722,0.31156847485236144,-0.4885766165243955,0.9135644460535111,0.33612289391354294
0.017248860607515727,-0.06687014525655902,-0.7552210008256297,1.8631644206972595,1.582529879259853,-0.44761158899914255,0.31679151158132796,-0.3522031648285123,1.8998331352585156,1.3309780350893199
0.11175251822810263,0.1962090109688735,0.4216110457923992,-0.8477710700547569,1.473914875025363,0.31965342071508696,1.2735598664568573,-1.2720537018164029,3.443859741876418,2.779258867569798
-1.0190529043636865,0.3655747939223884,2.8303600527480617,2.595381153662933,1.6001633404106288,1.1886063678567333,0.1701388537327083,-1.0721816844138474,-0.25178249975186406,0.45559867286282246
-0.40258160083402494,0.5145725552495639,0.45202576869618155,3.291362824241304,3.0908358010385157,2.9176727027829292,2.5166351493456385,-1.4455133153444115,0.22362363564577326,-0.2505289067493354
-0.413473873756279,-0.1260989531682797,0.15345215194442838,0.24370222099360994,1.6623923175795938,-1.699889101060191,0.9691933782367939,0.1429453011326308,0.34386891174706347,0.27465631098408244
0.14464010936135924,-0.013401077608693954,0.35220873266680275,2.2392708534565973,1.9005549882525368,1.165371151140301,1.3862557235792676,-1.5819142649858144,1.272924870319995,0.48913597497383393
-1.1068009988558827,0.9094216039799229,2.824956042122934,0.7134984160664006,1.313748344226533,0.4926377520825709,1.7740715086313326,-1.2065858472520141,-0.7375641235733821,-0.5071606454618021
0.6680986845581188,-0.20443908531024807,-0.991154729382743,0.5701749098024773,0.8544126371005281,-1.5589681330132932,0.2506537353539033,0.8085345898836539,2.4840928626846024,2.637006983144382
-0.012027919019596,0.24596179691567274,-0.07567275657032418,2.1533740254912916,-0.6371282524613644,0.17810196674622292,0.16882389200361544,-0.5995939767895639,2.499969169876092,1.66176834520576
0.29251085942787064,-0.40306100851375815,0.7256461046572091,1.0668074957989706,3.0508107580659916,2.489694421464536,0.9441146948782244,-1.1525810058185424,2.175360195966224,0.43194771462394516
0.43983297135745403,0.6821757557594517,0.029490309485815852,-0.7606186933858586,1.1376312384888183,0.7354586165816419,1.4398615535330128,-1.4442972935492897,3.2552145157874603,3.040311537109222
-0.5766312323908679,0.3878183235189245,1.4951764079093781,0.2142049021369974,0.12740355724212593,2.6016838673592293,1.5772947913287014,-0.7668618155238516,-0.9210628195081307,-1.2499185201352279
-0.22511546561922793,-0.25670302891087715,1.3430416271825638,-0.17475462833647915,0.8620647359569513,-0.943279852415849,-0.38749356546967934,-0.18358294610780138,1.276017277636054,0.9719972980511211
0.4141667051917797,-0.8335989418452334,0.10223557169766112,2.717219031373824,2.2059965813190505,0.7528692464865836,1.1080432236365256,-1.3046748719798476,-0.3113043650737699,-0.5604250994931675
0.21967272054793094,-0.46244329107207,0.08383317447374307,0.3753810080284985,-0.08033213228534664,0.8512547220259802,0.26874779844779995,-0.759164587823436,3.4131380125227135,2.593043052291058
-0.8265650441035806,0.22202499014456695,1.3194149151819998,0.5085052268833214,1.7341734675288523,1.0728098823894872,1.6205977548569712,-1.132449988948577,0.6676346239430015,1.2493097479731312
-0.9862254827319252,-0.06527071121107278,1.7009544823870104,2.039344623125981,1.5522984146753847,-0.08344345254337726,0.9527938025367477,-0.6692593363909601,3.1446371676081206,0.2564829600189727
0.5278708950669886,-0.8773492623676785,-0.3291948153089671,-0.08105275522870681,1.6418738904314112,-1.4220268910196563,0.16720503688344907,0.22979107644649277,2.3995213986391652,0.8867556643882849
-0.19180075735361413,-0.1564824349202541,-0.7869133236142868,2.623842883460511,0.5694732846537987,-2.511802110160172,-0.15067505069189813,0.2771477246177184,0.9494624288019557,1.403908906747126
-0.006976668992983753,0.24539422470475877,0.9011958263565625,1.7731145582262746,-0.6082007901491083,0.7520708229139872,-0.2001228671713369,0.24756392505035096,-0.1890971884810736,0.56064633937952
0.22440307881541033,-0.682888007325313,-1.3376083867445698,3.3624482639368516,0.861911789343834,-2.772456255447029,-0.1916963841193515,-0.17038399893960424,-0.6626414755785904,-1.56817997849168
-0.24433051347517204,0.06829489488092626,0.4078227018926683,1.7698485046733268,2.899738299519421,0.33061996851437303,0.9753124768426045,-0.14206222145470926,3.23565715459834,3.20710507857134
-0.3590493248696242,0.14991146926936114,0.021158141095384157,2.402167126114291,2.900418698390733,-1.2827184908593248,1.2033564592024766,0.014747250290511616,1.74356107538157,1.6890981926425377
0.02204447961709742,0.31470668810371366,0.9123620215367411,1.8628657026659807,3.282693972090726,0.39573239270784066,1.9640643835519975,-1.5543183902283597,3.444570104606207,2.055160380844509
-0.6166536749185311,0.22195757192953872,0.6834565650825999,3.4112721783639692,2.1111332685774955,-2.033490521565484,0.8976898683654508,-0.5482780255655424,0.3584407112669472,0.9625651885042408
-0.09654830651886971,-0.7237482051186122,0.5944914430450825,0.3868070412818698,-0.2336459683149884,0.055017468136175224,-0.9696424603752101,0.30019471977290363,-0.7132646698231646,-0.04655402085817039
-0.1846623462102424,0.6852238054657072,-0.07350783538748834,1.0079198928988062,0.7329099409214532,-2.8798452963775087,0.7830058929206342,0.05675993364348448,-0.3090555060896637,-0.5763873569910991
-0.18572734378769998,-0.11919732546464608,0.513119982429186,3.159473448142662,3.434572267375934,1.0840441404295968,2.577016099468966,-1.0809846880203067,1.7940282750738041,1.5344087047226298
0.32237184346971204,-0.11260771845126805,-0.1678588090444508,0.2246944616169968,2.8453652809423207,-1.3910038491830932,1.1421155517820334,-0.27729451913910447,1.7980406799097843,1.2861223568931197
-0.402040970943785,0.2768080107072727,1.1522218133241797,2.181959885023419,-0.049229089246023205,-0.6228705944898006,0.3518007611347697,0.1997629564714482,0.6480057574258229,-0.01969185557551641
0.5329663985366827,-0.5767224976512924,-1.9451891506549226,0.21686014936085574,1.4488762935399069,0.2788185719388828,0.4616702525951454,-0.003651577264494774,-0.1483168164117361,-0.47316844270967323
-0.24646164950701258,-0.2510848083165158,-0.17762306907734385,-0.27483100435719066,0.26896226227421605,0.47756008294782215,0.9975121348474856,0.050943672111053766,0.6691621285658316,0.8037124637127963
0.3539358702637949,-0.24433988793217976,0.11140658651421181,1.810257885979793,0.7482020465006252,-0.6378167798927957,0.7033491821504931,0.07975989979451578,2.8128326217122908,1.901601088046986
0.019109303507481478,0.22962419055275096,-1.052959677420803,2.982184418701116,-0.2433521175047636,-4.4840869843079325,-0.7476282374613601,0.36300508368120904,3.3926256796551364,0.9657293995995568
-0.0657678956126969,0.040985886647836894,1.1798528929604537,-0.29228279339742147,2.1684625452175763,0.14792491499225058,0.95815157696979,-0.7238061093263153,2.8191444517217374,1.4443247725855552
0.4636121636311272,-0.5548513448429317,-0.6104127160637491,2.0249636616013054,0.7174837597181956,-2.133913595531332,-0.365319271971154,-0.0893666290384092,-0.7133047312429792,0.5749947967037916
0.15512235150390813,-0.43852582464179946,0.7299394003034702,3.133619646497528,1.0886849574472799,0.0481296189011311,-0.04863499202521331,-0.18148606117574242,3.2320173771767484,1.5744456201753967
-0.22360382586139024,0.03550972468407774,0.6200741221473516,0.4916866345783468,-0.23457017421450033,1.66458484455833,0.397840033751914,-0.7182551854502249,-0.7259576515566881,-0.5385941426282258
-0.24222351438339243,0.08149570431658507,1.4579519646452157,3.2764099251867735,0.7175965131797641,0.4720927578785937,0.4474185916452805,-0.07914754230089206,-0.3354460767313193,0.4393763281128012
0.584238722365725,-0.30771870790756917,-0.6339450967881995,-0.15301374048737204,0.3057285946685422,-0.15259527171881715,-0.5815567326486081,0.773252876191752,-0.32230087077341507,0.555001509965552
1.024676101575914,-0.2492273961249776,-0.8957247014770787,2.0366638275905475,-0.00658866855599638,-1.3008732343387304,-0.829048328359861,0.0650203647364217,-0.9080602131922338,0.39324720165644295
0.10062160819302454,0.8366373801932562,0.29916510907275584,0.8356862120602555,2.296558275400018,0.3943045737733517,0.8740668729725124,0.1430893345800245,2.9774261645616926,0.8879418202942372
0.3416611836839101,-0.24927294208577333,-0.5330635323975367,-0.4321706733858476,-0.2758063923722147,0.7129353282208197,0.5151578619997994,-0.2677439753276796,0.28062155769337394,0.5161962859841029
0.4539919060506714,-0.2844571815103331,-0.6858214127040893,2.7392151948913215,-0.6325226040156431,-0.43643509792822177,-1.1060201439507424,0.3745677650247339,1.651405562357672,1.1487086303524705
-0.07517047321421583,-0.14520355640279656,1.1049592924897078,2.721809425744278,0.16336648826468658,-1.393634109401338,-0.35343434457074707,-1.415068469800487,-0.10697007356353316,0.03562957320980803
-0.22582559421293,-0.3061735604197921,0.3730304822612896,0.0005969138339163571,-0.6060159991061558,-0.14720307800892377,-1.0152937872721803,-0.32494645010187934,3.392827246276564,3.3537925538490496
-0.21273527106631723,0.02413378443778217,1.2526852565688846,2.0540942573092202,-0.036113063090671305,2.679762718840277,1.3922834881713144,-1.2920313254937958,-0.03505505801343911,-0.6801483334141566
-0.06549090922695178,-0.12644713318123882,1.1052050107438085,1.6842922985043023,2.959808609745159,1.3914184168712311,2.7956937611046797,-1.2083544383671734,0.25185725269632586,0.15222654795498342
0.6002926341257937,-0.24658489112105633,-0.05282036526245079,3.218632291761579,1.7988549852143718,1.1850128561584514,0.5459708413550861,-0.6306864051084751,1.3227994188107468,0.14593459028887987
-0.6118617667803288,0.7629760750699501,0.8781751330089681,1.6435937338045354,0.36051819342604974,0.7065525256581029,-0.40483417010075085,-1.0361906342771205,2.592656277103429,0.6856837815743401
-0.10534261515373906,0.3230489748750127,0.24316240408758114,2.596596812337956,-0.015245144269723898,-1.1903782591536658,0.7271120525052657,-0.4159156962630482,0.7168477955403763,0.10497923441399827
0.0911078789117619,-0.015372136939822569,-1.6035279113393357,-0.5661228331425707,1.8274439977935808,-0.6884936480529216,0.660306872431949,0.15507148424610215,0.41759372435972963,0.25631920722255913
-0.3042312417018696,0.4553528106500069,0.018521236344899855,-0.6269494516022993,3.4122282945027225,0.3284349158240702,1.5910935267466555,-1.1790171096494395,1.0936900636293916,-0.02642831178849532
0.3772467504913067,-0.20040087326772846,-0.5014546440677324,1.007446511966477,1.0480622809740785,-0.7863175385080323,-0.32649833946705575,0.8236359211605362,3.3042565843020597,2.341907551360855
-0.7363200427152335,0.015580947966197396,1.0977151104337872,0.6569746335612945,2.8231964782390477,1.1839522634559814,1.6475993796536932,0.05318030390612072,-0.9899243607706346,-0.2881546537144714
-0.12817856809422054,-0.1234239659502608,0.29724452962833803,2.4168996052894745,2.0571995881940714,0.39920587367848515,1.7265446965643039,-0.9371689002407507,0.392679538937762,-0.29756610822292956
1.2428018980903788,-0.15929861506302723,-0.27248532083885485,-0.4235490138669499,1.2100870273381115,0.7977203253144891,0.46499255000387063,-0.21162374944694617,-0.31797993242827727,0.32646499748443353
0.7988524977013207,-0.370540985793937,-0.7819292456479533,0.30294832892571333,0.5618959958296945,-0.14496339747606518,0.5490947440543229,0.46495861381883763,1.1989125902251656,0.910912159129092
-0.2459234259797282,0.33463261135985256,0.18910276147835017,-0.65853358684324,1.503286394385555,-1.4323916769796774,1.3218461461264868,-0.2299031286724013,0.4607655642019153,0.05945385624782876
0.2899612569631346,0.07271414369909647,-0.24845490521820499,0.26609274890654167,0.9518171819831818,0.9206876300038063,0.9884430938527438,-0.1434721683353265,1.497518416331105,1.7842437751930336
0.34654400334014057,0.03154089585838265,-0.8675586144534262,1.629767548267686,0.3806757603823592,-1.816666149202456,0.39261930251174126,0.0343103882069019,-0.46353852285255936,0.8465041780570922
-0.38767659499149626,0.6845433876360943,1.3639573858652603,-0.28067590740872306,0.818630148132788,0.7469001290895678,0.08370589970310251,-0.16296005281464707,-0.5379656431634798,-0.8814513371018841
-0.012565629495656176,0.5731000287807513,-0.09101647415215251,2.2684253033571578,2.7054417285591477,-0.007612038900562723,2.4710841015191245,-1.440326650308344,3.2699338324755693,1.3412282364100334
-0.17506299172379217,-0.2611369154243205,0.36414410312714557,0.9665776801213428,1.3443791816113353,-1.677479119796331,0.4509310124751124,0.8780086006800278,2.512939167687487,1.6372330780812883
0.05778275084843479,0.28096173056060486,0.06069555463190803,1.9112201418194572,1.1157684355764141,-1.7449379965154244,0.7945537907635107,-0.4786851084783777,2.137628538299154,0.9291062546041755
-0.020609541750743324,-0.09796276802078911,-0.34669748524950267,1.03598476044148,1.0277582591425594,-1.9782907869780928,1.0263741365330348,0.7144637872286282,2.8769038771602875,1.7929272020937663
0.1755830939115473,0.0627367735191874,0.2503986603143724,2.3751127298552546,3.0813839593727845,1.0559058682870794,1.945956818163953,-1.0299986174354916,-0.5609469348491467,-1.163808270353186
0.07793020223904289,-0.06747498511329107,-1.2712181639448186,1.659758411130806,1.2648446434621525,-3.911878510762695,1.5845661944300393,0.1816266772469121,1.977920619195129,0.3438305675409401
-0.020252372192142674,-0.12363776746310427,0.08832325882035842,2.4986986466442813,-0.35208164721958923,1.8516852148474294,0.06162106969874454,-0.5276856534544562,-0.07549928406380679,-0.15404913206550824
-0.6587229807333137,0.1144360861510466,1.5683749813649248,2.8668171349686227,1.3501955606957945,2.681722838343819,1.9770115021455137,-2.115615492004449,0.9680574760863012,0.16599376446261432
-0.5865028930822501,0.45760092901073995,1.5327039019442614,1.7186929377498381,1.7692027980416642,-0.49045562309752144,1.2681166332915033,0.09346250012787596,2.1471865774292818,3.37495883133187
0.23653809414046367,0.4076132196919023,-0.6692471595132757,0.9349034783620511,2.143950608537979,-1.211496378491863,0.5005955150734401,-0.23848538729005256,0.19120362420611214,-0.43616189655583604
0.37503392132221186,0.076092741323167,-1.2871637648227747,2.5770068112304516,0.5737245655830348,-0.5201705668558059,-0.33844012475672247,-0.09505968329424157,1.009778444787257,-0.24283930385116845
-0.08632796723094191,0.32931734270382546,1.4253166191470716,3.0123123377630474,1.2047276870075936,0.7661497659565413,0.2059521880665334,-0.6809994355140793,-0.3558029033245822,-1.509060223036015
0.16600200776111648,0.09992959058855634,-0.6379990708370309,2.0893489989501086,-0.16485106912401248,1.3874250889851811,-0.08105049544785274,0.06491620133231878,0.9743089712013744,0.5927391105482068
-0.8090496458078699,0.6852834555855392,1.7299580930067948,0.07776581087836809,1.661537869895303,2.278877550711011,0.8903737614406836,-2.005300784805944,0.7148077524958099,1.3457403863888864
0.01883628789596873,-0.14669328838306614,-0.10915113672038355,2.1763170032379113,2.338507434063647,-0.16058883640265864,1.0993946010259577,-0.83422530894086,2.50193266341385,1.729954650320645
0.5440098158473424,-0.15716145742865142,-1.1119624769717813,-0.442574597383653,1.2895892283443393,-1.9426114969519228,0.27711658503370346,1.0541191229524036,2.857707529658969,1.5471334995598662
0.34286015316073454,-0.13300752459192758,-1.2693257181260063,2.045280990061616,-0.904553570850984,0.620725238223077,-0.1302636195831579,0.23926252104707285,0.5558867950356476,-0.4185437820361163
0.1393548190176306,-0.5735731334349138,0.8536664397153211,3.1200705033585985,1.0133640333039655,-1.205155607121163,0.4505639120075761,0.5979818884687046,2.66287159064952,1.358263319385941
-0.26366776808295944,-0.35488126168976736,0.6380610470848672,0.07969689351384135,0.42979516792347816,-0.8045866621743486,0.8673226903850526,-0.17046344144058947,-0.7112357501578517,-0.8318646492036093
-1.0763262136975882,0.380520709455821,2.4202682741680337,3.0960902699452664,2.815350054540507,0.03553788349407516,1.6308048619682949,-0.07065240096071551,3.452588405468262,2.385787999696866
-0.5225634813342943,0.27907193845463313,-0.33877774541779415,1.435453238599119,-0.6790436543012548,-0.34169294894079705,0.27309461187629414,-0.13974743853070926,-0.3320617728128459,0.22402374243210207
-0.8319420089238058,0.8817039167503227,2.250817403704695,0.4003921898465852,1.2530837524168636,-0.5319660151051525,1.7354681943685508,-1.0625107191620364,2.280385604294391,1.1736264548535729
-0.2053681385920202,0.277348422949714,0.2938601873770859,2.0520756437841783,2.8609812208399994,1.4785757022133632,1.2618611697835167,-0.5219495207603203,0.6910927844171919,0.6065997130612876
0.08688680109965218,-0.15176928673902926,-0.5203902180104141,1.5827665065146603,1.2729752281716271,-0.17357267548374794,1.1290944703450478,-0.7245894239042452,0.4896615886552682,0.1415788040291326
0.028033771900331083,-0.15972586184230705,-0.7053236999563424,2.723428451275308,0.1725803070276013,-0.9710415677617573,-0.1613095059914362,1.0278689862376011,2.140938294737837,1.2830431132990536
-0.561536577971204,0.3006538954687984,1.296277707555255,2.99702992077203,2.555422902427417,-1.407122989397492,1.0505253491503783,-0.011945754103401391,-0.2780296581947369,-0.5428228003506559
-1.112897392177036,0.3353235620195867,1.61856554087294,-0.2091880627977415,-0.9578063219776444,2.9933648951740417,-0.06479766052400492,-0.4043323956321176,-0.7565882183011073,-0.3952794779991149
0.19866695781103233,-0.252402753332512,0.3181977952480175,2.8767746533309566,0.4004414170581241,-0.22893913556514733,0.9209706150593908,-1.171714312860158,3.443480112236875,1.9830481759245842
0.23621290754603536,0.08968374284890746,-0.6186521025124866,3.4487422005383817,-0.10181315202947916,0.12828662731565066,-0.26899155412858305,-0.22458659349947246,3.457945133597055,1.993482803555185
-0.07796634422490219,0.410480196216809,0.6693634826240377,2.674500286402213,-0.10776156943462556,-0.3303563461120984,0.14800825910441487,-0.5898627111020605,-0.477283041670885,-0.22934000058411366
-0.9312890087733294,0.49859818812834555,0.3538938573620997,-0.9054886253182894,1.1489765209374148,-1.7116477362572327,0.40450620622633876,-0.16670570788331143,3.0734106756331956,1.8217710475523277
0.29796144157062465,-0.07368466033721582,-1.3313361164817246,1.299096723574221,-0.46560200115290595,-1.957572325519286,-0.6718317402025286,0.7176567140354938,0.004278964732180146,-0.9750881092083993
-0.11741160906382697,0.05588559860817294,1.3965206944748108,-0.7932690761739982,1.6766758564910273,0.7894676836761393,0.9849488118741139,-1.7195271842773345,1.8065682711739157,2.0942760285434536
0.03833829111468473,-0.16436321192009062,1.366518303997188,2.6577247063650584,3.258899503752011,0.39680525509678144,2.157045208511446,-0.9068637934943583,1.204393415987672,-0.10756235552353595
0.6626049669727752,0.34033947008240273,-0.5694841700318024,3.2954131225568783,0.008232080099517702,-0.3846393412020658,1.15552392285668,-0.6868535973628974,1.255086107372526,0.878948537385121
-0.43345267703322754,-0.05824158516669708,0.6684496335226823,0.7945696276697796,2.057000667268517,0.7328738624662042,0.87611645386095,-1.3813466807489907,-0.6883542246775873,-0.6724217435246078
-0.35292167482749087,0.2625415187016975,0.6526243987353112,3.23721192875413,2.4321004415160385,0.5774630690791245,1.6162439517194798,0.4719329968644285,1.5048782420365385,0.5661715175196677
-0.5077124889891089,-0.10725141422984098,2.0256751479642157,1.920951115483894,0.5147944305264314,-0.5942779620781096,0.06962840380088357,0.09319688080949894,-0.7936861425102092,-0.5131641484676639
-0.21092487040864025,0.07710525832096493,0.7831287184502888,3.036705796149124,1.1487844410998664,-0.5246597934450232,0.8352063734091048,-0.6432774095883811,3.3917546352268344,1.8534428628235098
0.014823207538637747,-0.32797976957726643,0.11534835850022238,1.5164391847979184,0.1273823685053268,-2.416594256608072,-1.0436384922192707,0.3695037635013279,-0.6176469450327309,0.4377857021206809
0.8914532697358656,-0.5187812520491962,-1.4297708300384537,0.18608686731396729,0.29505622281608423,-0.3372383978128433,-0.474484202443952,1.504677939219331,-0.26622041680474307,-0.7916416579985006
-0.039525462537630146,0.004944495397093177,-0.3076115783940628,2.0945945451004335,0.0990028319425913,0.8748895129876625,0.8862796523522073,-0.2198294030993389,1.403891871199487,0.6332028637364213
-0.3167808811691419,0.26394792773453424,0.5539612146322808,1.1592089072443703,0.4859063918321598,2.055172550174039,0.343496096109049,-0.29872139732802694,1.043859926145155,-0.12404819701479637
0.076997366691944,-0.1537547432778952,0.7205341395622993,-0.4117363407830781,3.218661227505792,2.2310770156864472,2.679073791691691,-0.6616212624076276,3.0160608179315087,3.340352084540528
-0.8140546016874012,0.6236004479717914,0.3742274840377289,-0.6655038551785515,1.7163065851021209,1.192746669196059,-0.009781805483501188,-0.6766718432412065,-0.28063789436660447,-1.1769797935675594
-0.0370150780754564,0.7108587112305195,1.2909250472056124,-0.713307882904801,3.0817047963293778,-1.1543386240855726,2.0504829979245023,-0.8684009003004587,2.6417722850377667,1.5290389416449568
-0.5660722898659005,0.322732082546714,0.5038377981916221,-0.030362539183954373,2.8964877547592733,-0.3666598263132846,2.7276556675705956,-1.150091039577657,-0.7598615939099305,0.5609770406336737
0.4784636375127037,-0.4123612540020922,-1.0675424052799862,2.033114345611273,-0.04048785377299868,0.8521553054950743,0.16229444249943498,-0.35040771973823454,1.654885285085009,1.3395567029829334
1.2502676211670105,-0.1595724573012424,-1.369821460167236,2.7682249489086326,3.0664900693583403,0.2088413527924845,1.1068182913432054,0.07051297354919277,0.07758853960195466,-0.17409187311814875
0.5395309814623598,0.4180499792319825,-0.27543358188534023,-0.2469008550279006,-0.6321488496472498,1.4704939591554291,-0.4001723195273804,-0.15515706336115392,-0.01608564348255026,-0.25516495608225
0.6102729010509179,-0.1791853241849202,-0.7133727813264357,2.589693689755672,-0.2138839591540913,-1.8375517963526735,-1.3632116045172271,1.2760863137348304,0.873366737169929,-0.19472154381265225
-1.0533903914516753,1.0089052142014652,1.8350155077875956,-0.13090498606016454,0.36270207211251115,1.2802941190812507,0.695760513383849,-0.6234290405177123,0.4826529762124856,0.966226558089059
0.25145670294565664,-0.3425619469458612,-0.612028097812963,2.429192874755843,-0.2889643492726309,-0.7075033783747373,-1.370737159600331,0.5589468181158818,2.4549466073350734,0.984297564618375
-0.4563564313295356,0.11854806820192135,0.39137989451585353,2.4074659756687304,1.3427647373085105,0.3088377131166039,0.1843332034496312,-0.46702628658513096,0.25009880661963413,-1.319981483914965
-0.7419267695179451,0.03543237044702733,2.000563438487291,2.2347238119095105,1.9505993259866803,1.1259963582179946,1.99661763565862,-1.64490260952127,0.6104923721920408,0.6739936861895023
0.2170099685488008,0.2501022604252303,0.2367392851986531,0.8617497891034829,-0.6931194051903782,-0.6166561736814347,-0.33560983179878423,0.35025553372801377,3.4299389870734602,1.968686223626717
-0.20394675697939313,-0.34032976049767655,1.4237913956869757,1.3346381514510806,0.08981994761195078,0.12175452367248119,1.1389443777533257,-0.7702505843018181,-0.19804781223648904,-0.9454527484557314
0.437001361915155,-0.38618507015459463,0.21282409928078555,1.1991515066345526,0.6937906399933476,-3.313155354472233,0.17845674787805393,0.17851427085231378,3.386335328977909,2.2190493633491855
0.23094857136022207,-0.16651878500758024,-0.9198076067937977,0.4243558304611237,1.0968114190602223,-1.735916802755421,-1.258248960634903,0.9309658819707062,1.7753808569783471,1.0128792133763376
0.1859106550142573,-0.6159476269860475,1.174994101063657,2.5234210648014463,3.050131012550776,1.1406740891257197,1.9407815898921046,-1.1491505115379095,-0.1220022097041158,0.07104699326811771
0.4963301475312882,-0.7047876385762871,-1.3356372213339152,0.34296302466363926,-0.8573137438576333,-1.4332714651243161,-1.2269350623724102,1.288617506071488,1.8995574072244201,1.224675365272771
-0.6470453401583208,0.009837169182181775,0.8726967743761332,0.2664515960209559,2.268957664359795,0.502677750910901,1.867966917798955,-0.7232093106053147,-0.027313011356854044,-0.07021727070879402
-0.22876904090677827,1.1154963894405447,1.5788508980404403,3.166938626374642,0.7972600438972695,1.2788876912956018,1.251006019654243,-1.4029805883074025,0.5966744373029826,-0.4356970067222803
0.20519730815936152,-0.12188153451192069,0.4549343864819482,0.34321233197936607,1.5458325808884257,2.197964479112383,0.3597094397417936,-1.1926683921032024,-0.6937476572327802,-1.2709572373698115
-1.1314083606282817,0.5773083072538836,2.6891447486564846,1.4820699595515925,2.910027502075854,0.8063190869512245,3.381101616308925,-1.6496629199748771,2.721315547868796,1.1689998219036013
-0.45841043578495927,0.1691523309847824,0.4818910600789542,2.1958345807918684,2.3768360026086737,-0.7035259150765589,1.9513662496252135,-0.40486829703495086,-0.7541890147758141,-0.3171061665923331
-0.13069412354269866,-0.4005130151308279,-0.3389014742858638,-0.4613031571961854,-0.3149000365678283,-0.5195221042669872,0.35754297366014764,0.6948078711740063,-0.6613012171461139,-0.7966818261163362
-0.41692880607721006,0.8971089642701668,0.77610383339644,1.4757154567844624,-0.09658002394463083,-1.0423385407426113,-0.4211771929023092,0.09894316339923591,2.8585514343596796,2.5745455694826127
-0.2583603369029318,0.10087796968914828,0.14989715177260254,-0.10393783422697989,-0.42038533617973206,-0.39030796279135954,0.25364770383959057,-0.517589314409381,1.4659469881518699,1.6647529983121365
-0.19285465600947466,0.6100510291279546,0.057200186912335985,0.9570698186926727,-0.2027231479124686,-1.0215870264274554,0.0974741498634292,-0.4415901474300785,-0.1375438053890884,-0.5943057854078301
0.2715732294324429,-0.3188859312431695,-1.4309732303520564,2.5454383923466213,-0.7277693718616075,-2.8097401946701623,-0.45949183101392593,0.9469616912742981,1.8736824348798407,1.0035177125951127
0.24256350843477503,0.2009132254534734,-0.8849680804043624,3.4247833980970643,0.7090970078513452,0.5297901902691211,0.7608394380590159,-0.9789575034122996,2.9667325847348818,1.5170718369828964
-0.3701888755105333,-0.016498649565473297,0.837329565191394,2.9969343199938763,-0.6145438938889309,-0.008174428468660677,-0.10447607429646798,-1.3031543654903204,1.6542841353058573,0.7456247377435642
0.8783344598925535,-0.2868528867522448,-0.24326281951680956,2.344295760397672,1.9773273187568443,-0.4758052313433432,1.3760722926473639,-1.223618196116139,3.463191290833997,3.3160305911394508
0.640864650890149,-0.7085369667250873,-0.4734557936785753,-0.2291075306243734,2.8042555317332765,-0.123833733602146,1.8316151158406409,0.15232692157550895,1.833610989180292,1.455800026836211
-0.38395359306084337,-0.31768807333023463,1.9080877836739567,-0.2931964310176559,1.792365173392326,2.3881982464138702,1.4824265228538362,-1.524911779465951,0.8181447093309511,-0.07846969615916717
-0.4390219312033002,0.265937665957026,0.8583291446847262,1.9175280926043365,2.6931896718791775,-0.0011363447556002049,2.18545262713915,-1.4434210819753235,-0.9238271971964305,-1.8433503264590019
-1.2329462704119358,1.0365630054928192,2.9408088415682063,2.9083220736480406,-0.601119759757114,0.5722123136340704,0.14640414386510442,-1.2670678645452838,3.27782755451336,2.6105672688939987
-0.6787763886517822,0.3114706019214082,1.4040751826459583,3.0595060247151187,2.020118697036302,1.2633598767452896,0.8815785402932862,-0.4294988932486753,-0.46941451946642543,0.6820827098282984
0.8578059907113421,-0.0733674390021402,-0.3721375456906345,3.34834101603393,0.29076129414098895,-2.74519819226999,0.35466791561837063,0.7940065405663514,1.5467021583352678,2.232925049003536
0.10770849152032443,0.09518662548574083,0.7714628407064048,2.858275703487306,0.9431330187366127,0.8159025423775876,0.9143239384140349,-0.5443546044382174,-0.21977771546443114,-1.4352149629969753
-0.5793346173299211,0.9747753138069903,-0.16663302669294455,0.25353892593564864,1.025749188440229,-0.4890527920334238,1.24491989791369,-0.08671011263786184,3.3364964224890867,1.623618021043781
0.6312776629617536,0.11942210777317425,-0.5255474872679136,3.281110367161771,-0.18647262704141299,-0.6561349387633906,0.023095850113374745,0.738365990365562,1.490777368728898,0.7841886520701721
0.1095291342992287,-0.12381051253583808,-0.05678052869452442,2.3675721019439746,0.4696993340009308,-1.2058060493354885,0.173049302271607,-0.38824141168173354,0.22629937843570747,-0.3272187718037024
-0.5522365872890345,-0.14212489626247835,1.6403478068700552,-0.7434164380444024,2.981345332509952,1.387038279023898,2.546317012509439,-1.0149337568584418,3.0101210596269086,2.043198997753293
-0.6313644021754916,0.2916987877692042,1.1691575003989614,1.9581561323166259,-0.642409893888297,0.4084109447852433,-0.3660931780715801,-0.43662668104656394,2.78435249251958,2.500131888245497
-0.34813648748228987,0.9693069146654253,0.5937827612954655,1.078547250883553,-0.849436248018931,-1.881507423396363,-0.781495729433697,0.9486633390555117,0.617186235447625,0.41699853359057404
-0.804849032663087,-0.025066781824410578,1.092709817796527,0.6018943326209987,0.1647556316980583,0.8065345857198564,0.43749308511955354,-0.12572865081389928,-0.582767111702903,-0.23384684312596202
-0.4199966415009841,-0.3561687756937562,-0.06831181074015003,1.670740178297418,0.7715432245883778,-1.2465042887456057,0.5630204972455537,-0.6468337247543005,-0.07515395862165986,-0.8681667472019321
-0.2525178184321371,0.4774727657217509,0.25061523978773625,-0.6505672529789236,0.9452542650240119,-1.5397025916483338,-0.22057485166928525,0.6448011538460786,-0.4752153379864811,0.12365105363408067
-0.16052207952445263,0.137861377979591,-0.994343861358672,0.8894019730334501,-0.9521687633181682,1.1614111253893,-0.46183712253803644,-0.5898332079880039,1.708772856535517,0.431911349941918
-0.9117688065817527,0.26096191990308415,0.7071115843249268,2.9441746397901083,1.4482216259241438,-2.5618412835331483,1.0135627456733354,0.31472814998695053,0.9904866533702705,0.7154295305298556
0.020322221613510036,-0.5507839626273613,-0.5939260753457655,2.4938110223243295,1.8097678709011498,1.5750667912803098,1.1874998376147246,-0.33988398394656805,0.0381587754384185,-0.7961445263788121
-0.09300726487070331,-0.17814192910510337,0.19733832287451497,1.0206558093142593,0.6804880472902406,-0.193557442821641,-0.40360039480883725,0.25061606037187684,3.1520217945220397,1.7254988481594915
-0.1850519741413628,-0.13795993183363675,0.9335461126555512,2.2675665814865757,1.0673196435082608,1.5715443302789662,0.6902285699385547,-0.9492687648412382,-0.7029384185146565,0.8115902127873564
-0.28632921712288373,-0.5161882866090952,0.7060622528052198,1.3870808050406125,2.233916219434439,-0.562680167825861,1.4991434768236105,-1.0047727516987657,1.2135197892441054,0.3769258459933014
0.03087466332380498,-0.11073631294589151,-1.0733228149398162,3.1020694855861786,2.1003295090852707,0.36537485302041406,0.019506127040577654,0.7441188842113639,3.150562922181,1.7030228690992364
-0.9595681582507267,0.6780094980785485,1.65732671931633,2.1386678965081645,2.459966033187368,0.15937402365972675,1.3403498896235544,-1.5821190583683131,0.7180062779461116,1.1619598624596101
-0.45588961895297575,0.21517235279363686,0.37944040574441035,-0.519827934052544,0.048414894251621154,0.14439848924347165,0.197855810608054,-0.4824595702206326,2.1955982340453106,0.9774325948823906
0.1769358063013214,0.6254699589057837,0.6351442353876213,-0.7482084379885805,3.3250673065322838,2.2396850399055634,2.756491585097044,-1.9007217891542525,-0.48240365230830873,-0.498728013023011
-0.6502514401184133,0.2079669899607913,1.77919396098949,2.093484941642312,1.3324129992413818,0.34739267073927527,0.40113857749980797,-0.8602359514536441,3.458679412005308,1.4732467040743635
0.8114966316009654,-0.15534776808285405,-1.2956714944639645,1.0065806264661723,0.1550712934158991,1.2395407154496114,0.08779035191738434,-0.7977306056989728,1.1324380354455283,1.1820618225782076
-0.20269766630543837,0.3559309015055776,0.0995008042199954,0.4160177683558226,0.3383757829902836,0.5615100902426151,-0.15717687402165806,0.18167627624403862,0.35674746257988477,0.4563860187689152
0.25708421594279607,-0.5185674274481008,0.07266821952525523,1.862594939416295,1.1161796715029784,0.854006331430663,1.1719039567142109,0.1064939863583886,0.9008858700902962,-0.24348756253858503
0.3709787211811011,-0.34794273486852345,-0.12319873896782917,-0.6139507356946401,0.8413668111268062,0.11051245264138733,-0.33112323302661256,-0.5173603511908839,0.12436006041162329,-0.7283344795538444
1.1376737202077194,-0.5634989939191642,-2.159536926743942,0.2307814145320397,-0.9636235828576117,-2.204011759189625,-0.35268058407619585,1.3699411790809515,-0.24364901584840448,-0.19900788224314434
0.32675429985817167,0.6164376040984246,-0.247252392783074,2.9276247897217704,-0.6998529834967766,-0.24928042724605637,0.10898091982016934,-0.34214375506178574,1.3394200505524942,0.8348664684254068
-0.70447290552156,0.5349030134585583,1.6656569469183562,1.748166484893348,2.9556252382324493,-0.929724676709957,0.9149354572828216,0.023853577334306934,0.31833905318847133,-0.5574877540370777
-0.5417318090098434,0.8440968326086258,0.6690588986491296,0.004226202967802406,3.1735380250749623,1.010018245285135,1.7234014812981726,-0.860404198334975,2.0407217647222518,0.45730508800898223
-0.13900151868723362,-0.23544575680721128,0.33022029715078294,1.2378386711738951,2.040860867308254,-0.5733753969647016,1.4617328532376488,-1.0240682797017404,-0.17257598384661843,0.6801887495564434
0.22211752687728195,0.11167659126577427,-1.1144141914231347,0.14865221106984028,-0.1732219631827292,2.2519792182861824,-0.9580760558974756,0.4084429384728436,-0.9028021762348251,-0.4169671599575664
-0.0388492178167216,0.1345069152405054,-0.1732098478992928,2.4139483636054617,-0.8098817400492235,-1.5143777185167364,0.4623305145073632,0.363337697643665,2.587578773528508,0.7052327227852248
-0.5059986485883975,0.10467592904805254,1.8881883859113002,-0.9928944005113556,1.3628892730418625,2.4829204431770435,1.7407436159335028,-1.1849724481540176,1.9162838427387348,1.2030347498213116
0.2259775083061376,0.2635742862261188,-2.1156410037255315,0.09003049832262833,0.9403095896382365,-1.4330690361830116,-0.9641984823026029,1.1502339917692064,2.313882430808351,0.8664972238839643
-0.12172197986746702,-0.6286023689892926,1.160586941104963,-0.2928371689079957,0.32104017515446537,0.3363969955759315,-0.6271723370747052,-1.0654533637209527,-0.8019321584457808,0.03012915918210157
-0.28311376260251625,0.11468923968680854,0.5046928290121855,2.0899005556695553,2.004733063343853,1.0765845424945732,1.8816883755126415,-0.8629634054901287,0.09046803235343703,-0.9866054807135759
-0.7210274751471013,0.32627231269329443,1.3985113515158056,0.7164563800550217,0.9917844138479788,0.3138951353926902,1.1073010224760644,0.38147421581188545,1.8222175721970797,1.5605831080909514
-0.11225777862691201,-0.07827838609021337,-1.8316779858429872,-0.36204389912291657,1.0392973172203002,-0.9136045609726728,0.9200513109319031,0.10202374166156092,2.652487103792929,1.9735707436178995
-0.0031980396891915347,-0.33157037238821724,0.41216059297108665,2.3971888432709703,0.026794178293856996,-0.6985805103163678,0.17395965290715779,-0.35092478395188176,0.437973064102418,0.9240914852806428
0.0362961811921246,0.49952178979433487,-0.059630839996886,2.6194775232638667,0.3998312491637681,-1.2872456738327402,-0.3544710419705251,0.3061918178487872,2.735434427136884,1.8419966195492286
0.04086034852243021,-0.3330950847945229,0.36280797859510755,2.6844597947881983,1.4947430086656954,0.017961816910744055,-0.005559422626029093,-0.7919077672402611,2.8525123913249826,1.3659669290348293
-0.39845604708139765,-0.4635347090682668,1.0225475708241922,-0.004715275684667231,3.384191824335482,1.025176678007552,3.3925169232856924,-2.0251012168912816,-0.05196385003613224,1.0406767714748377
0.18585101013242653,-0.17812362789381478,-0.7313037382343357,-0.43529170406511486,-0.5656624149891547,1.9115512740729617,-0.3461363010426251,-0.07354519996720811,1.0306223342449368,0.8813532177309955
0.05544200636156704,-0.5758850785873749,-0.19819142626056976,0.8026552867421788,2.789774324709665,2.9878191636329436,0.5028746955416504,-0.9952706736700088,-0.08841738971142621,-0.33742411301878983
0.8383801825281791,-0.7316585195178156,-0.17476109784069374,0.7508829291757246,2.7386526445140844,-2.0755567497927645,1.0660779915727823,-0.596690200896043,3.1583209376121273,2.0383457424739873
0.21447944760641122,0.18322976825263695,-0.12565163756124012,0.3417891283795289,0.7478268237452044,0.1365615279337258,0.6670712834485095,-0.8184160294195472,-0.44282475609435457,0.2906107391235894
-0.5900004889279027,0.33235549389303215,0.13568788070831558,3.461878777360269,1.0463356514162023,0.4559976669499449,0.9652939639352959,-0.19695952675739478,-0.7157676775730495,-0.1489577350366671
-0.41853135197218555,0.15973123509421705,1.1448509786571035,0.5263600924732486,3.2460529338907023,0.4802886278585766,1.9315172681371011,-0.8854708352487967,1.5445869129617824,0.13887923604100463
0.2106511630085238,0.22367593701078436,0.3292543807956137,2.9736163671825127,0.8124520523845731,-1.3943554158354587,0.6567462671413437,-0.08083375593573291,0.22080547760265645,0.309660272330827
-0.06306412938177725,-0.7050661327953271,-0.3317325283271971,1.9979487206084676,2.092621451968264,-1.197116957035532,1.2174295851514838,0.027592484568661122,3.1010438428176057,1.5453247207970437
-0.4977161173336536,-0.5145668358446475,1.5423438593271876,2.580668478428353,1.0191936547968585,1.021046339020811,-0.19428396318024915,-0.976899995743892,0.665715005778619,1.3853731928065232
-0.3572249511780263,0.0788805270695331,1.9557077716480034,0.15341631141419487,2.655126278382824,2.257433193108054,2.6747015857674823,-1.6119394506926403,-0.4818356987730117,-0.3727940298442879
-0.6996547649616033,0.3403133560298377,2.229799046937244,0.7167136357084174,2.755561051310775,3.464116429387269,2.0480523770807184,-2.602798001185399,0.859174477293321,1.0896904801874263
0.5509966005311268,0.32665944225297455,-0.35352882947015146,0.9417397817932531,3.2384304251189393,0.8213806427119817,2.5436471422883686,-1.4490384159728706,2.433564026615296,1.0404646420981853
-0.6742597083874969,0.36025026846679037,1.3768953822542016,0.44577002781734,3.117009046470094,3.57518267611427,0.7957649544414439,-1.908956244870573,1.5895049491172504,1.8423662886520988
0.2354504520203622,-0.6217687410459207,-1.037203067752615,3.1291049165568046,-0.527394242431,-0.12967419081169362,-1.0286798938989423,0.5123435123241675,-0.7754827203998806,-0.9123053111966049
-0.28388394557742364,0.7508157508257068,0.7340826957381672,1.6814968849132659,1.1376777584244646,1.627411850388261,0.969518936686106,-0.7576138136215781,3.049213120359192,2.8420180047363512
-1.0261310971505984,0.23466511215892427,1.829407074927961,1.820653834431758,0.8861304099435066,1.1921869580225382,1.194204128831221,-1.273124180676762,0.45729967834617447,0.2850884798184415
0.04373688588651903,-0.26499632346896185,0.5294712269631955,-0.8320977177470136,0.10004396676192484,4.221195637041902,0.680360938846378,-1.2416996513505205,1.03490589771725,1.7534130353197523
0.28933098425483705,-0.16329611655445,-0.5902259364009843,-0.959420115481606,0.1456919108289969,-0.527805733430913,-0.6018154298683908,1.4354648544403654,-0.9163427969894036,-2.18932153961097
0.2581501639500534,-0.6524379388005472,-0.24683023291666747,2.1595446839497514,0.046966914245927915,-0.4183908780523063,-0.1930837525277223,-0.37576466749729664,3.3052883988587753,1.7172016439134679
0.3383832110428226,-0.14066408814378462,-1.688860767452372,0.6254780088708776,0.3876507973817207,-0.6631366840944906,-0.709898105103015,0.8606187490237408,3.0916803546683314,1.4687253620751735
-0.9115191064585206,0.26379990513238777,0.8065728635979088,2.8874542578192623,1.6054472532940376,-0.2673180466542993,0.6981141838692269,-1.0554757193899316,-0.07973958408225845,-0.3173495434933876
0.00873861488873611,0.31174929354678466,-0.21637517170899953,0.461078272675604,-0.1603522921397138,-0.35957823638466413,-0.54854596437519,0.4585443085976892,0.5516804240579825,0.912091239402729
0.021483644870589926,-0.8858155416879686,-0.30773636284862466,2.2216550770414503,0.06358517729053581,-2.5331842758217915,0.28131050210398556,0.19063091421093964,1.0229038571836173,0.6868719088215045
0.07252614578284125,-0.3953417232022608,0.5052374258511323,0.5798865842072651,2.081621584662807,-1.857898491671621,0.8565272782891747,-0.36171043347004583,1.752997899779245,0.7827731659453857
0.16588180376267006,-0.22429923142554098,0.34200359424507787,0.8730078910085723,1.0796770753418303,1.4554299532869586,0.15971053741103738,0.20756416404083258,0.846098205005458,0.1741481053172252
0.19204965696987691,0.6336328277569859,0.3143880737741084,2.972520371058114,-0.6088469359032113,-0.856738281326674,-0.39728095503419264,0.18049527603972368,2.974628945940482,2.958623372102105
-0.5759111334361697,0.3368590150952196,1.7406415026169744,1.929866399169951,2.947878905286995,2.1111987798719447,1.6929349076677667,-2.6054654693610115,-0.8695191648624244,-0.9324734320053503
-0.0915543240369585,-0.11670576897691565,0.40751113668765754,2.0939623654439647,3.1671656154636754,1.6670604323862115,2.2410037938284377,-1.2289200008684396,2.2653711279882565,0.7639217831721525
0.21431253313762877,0.6360370680840564,-0.9984706963062053,-0.5997184271520983,-0.7377558310562589,-0.9846752402597295,-0.40987790709493965,0.9237776898328683,2.7084800377991693,0.6950627955550732
-0.3584182520220088,-0.11082284820235497,1.2195730375888443,-0.4375813351152086,2.451724547136722,1.5850759867142954,2.578581254065934,-1.2502292717251051,1.9346521450694176,1.5912262747480084
-0.0986629764112359,0.046277262267689454,-0.21240366680137265,0.24325405997382887,2.9619421451653,0.641918319553099,2.04294983471118,0.441154538013161,0.8874685898851729,0.06537553740185839
-0.48572621170464303,0.14993315239764832,-0.013388749818674993,-0.9446288346198066,1.483763628866921,-0.5283995524228654,0.3121666487211936,0.5299919593318203,1.393700489604695,0.7906188606791228
-0.28606008172761527,-0.03350251408396129,2.194466472518421,0.7548783140861084,1.8838193807570827,-0.5775198787108182,0.9404169683015798,-1.4494164626968875,2.7066544319308052,2.353658541661076
-0.7906238821860299,0.17045971142688615,1.7532285999572177,1.580019416323161,2.543532454356276,1.2635560209853007,2.1989632247967257,-1.393372582950397,2.5316981618496963,0.8925750252127987
-0.3105837097819945,0.3143128617991175,1.27789004863011,2.7206936698604203,1.9337466028066426,0.142521861702105,1.6867589486399188,-1.1964538438384147,-0.0027302432748094185,0.3368899129807239
-1.1416017283005844,0.7575615464796146,2.7378886294106035,-0.06896179557831894,2.0595607093055808,1.1756511375814878,1.7322428497165825,-1.6998357024422945,1.7949090320695822,1.120584547140159
-0.1312584925517243,0.19359526431402344,-0.38610369198457656,0.3541687296767406,1.58885227269902,0.26814141083966603,0.37322063381126713,-0.4108904459093772,-0.5532792566831042,-0.28482786114651737
0.5020662954945714,-0.10601385137207528,-2.015696984585158,2.0764175974053956,-0.5276767856958828,-0.6393996634228806,-0.11937473158198189,0.1921388522748349,0.8160428627870537,0.43944011648453046
-0.32381451392789373,-0.2582478791408175,1.618509790994964,0.8363873453898814,2.870240008543853,2.3915092257331594,1.9360406881397543,-1.5707113493788893,2.5230140952358777,1.54706417410467
-0.034829758731360114,0.4352439617790133,1.00653313810567,1.6207429793907648,1.6659496049930365,-1.2172016209549197,0.826317300829528,-0.6904811033581211,1.9310433167221728,0.7029071057709873
-0.2678534533413521,0.21517790816729526,0.7055701762455427,1.5663046557524596,-0.17577071491781637,-0.5569994377334807,-0.1575556782306683,0.1578469691715884,1.6422076227929816,-0.5389271475988188
-0.5065322784947657,-0.3088085352833529,0.9307349288382086,-0.1562755540718861,1.1514788682097992,0.6325717872705274,0.9598257791364345,-0.5030269803855444,3.2047846263765347,1.2599476232734772
0.48798145156400136,-0.12558018220364286,0.3009672043615722,2.159968114471614,0.8241948693707719,0.15629537996543452,1.312476882927776,-1.566342946035815,0.5419092999765318,-0.21367058557555388
-0.2665808883156416,0.049200350300069015,0.9440990524216828,0.9754284547393479,0.6407346458115584,0.24823157149478803,0.03695377686790696,-0.4934663859420742,2.175112101788307,0.6138080923616798
0.6055923497453233,-0.20955650340981527,-0.34893965714969105,3.349476020977275,1.485170636976457,-1.7422193779440722,-0.47654217942016774,0.09156385650596985,0.6154448860629378,0.6699512272840029
-0.5305265237892887,0.7528757025044415,1.3738462065657997,1.022813646506651,0.1565515413765708,1.4022260041453398,0.729341233200834,-0.048272325137017395,1.2982687334402807,0.83976950888106
-0.14570910801809922,-0.40667802694373245,0.2829159948505644,0.20912860184030957,2.8333593906253958,0.9460941727292957,2.2988280919704405,-1.5158673644930998,1.390409699783155,-0.28078115873270704
-0.43826475392110825,0.12252435497554152,1.1076456612913017,2.2507578838807225,1.1220166844319017,-0.7688412577043259,0.164951872324825,0.3579522943947354,1.6424891769440086,0.9010408610280022
0.22928530465132085,-0.5199290177053325,0.5961119614384487,0.9428598875725076,2.958676717064281,-0.23445262024735453,1.8562685732163635,-1.6945305457844873,-0.5024438942327004,-1.192126999296864
-0.03627374612838994,0.43791330334536394,0.6123067056826718,2.1493151161764588,2.497878867071906,0.3286611604883972,1.4042851807321324,-0.7572151557347566,0.7701549991049479,0.20781635860587905
-0.6369798976179529,0.11727132116051764,0.6430156961092289,-0.9081919263071186,1.8591276627458657,-0.9634244427611648,1.0001021053866235,-0.1127315177242711,-0.43836595089026387,0.7173513030230552
0.5071377057095797,0.4694643849990624,-0.5532426214637816,1.618865073427465,1.5706083884188766,-2.8530536310291197,0.28397126184663846,0.6470664759255735,0.2654353949012418,0.21824187911356532
-0.4566413911252675,0.18818959746522876,2.150664579305907,1.2327994563686682,1.7503722837729403,0.7165909255757221,1.5452182616735912,-1.422835324039073,1.0501066273878905,0.12970578988507908
0.1733840947037632,0.10693127986471554,-0.23833717803121068,0.8121366933973098,1.5854952163337255,-0.05053085283127767,1.2667235632377898,-0.42496711232313356,3.3846918690984538,2.3536664884470238
-1.0417904412634524,0.4288108636205491,1.639161749968167,1.9791004833095864,1.8732519065150606,-0.18802486019309333,1.0335664225911905,-1.6074868241455915,3.1378414555577487,0.4081723464914053
-0.23754177787022132,-0.005517208712909603,0.7799719468147437,-0.12153713722059922,1.8429286302454644,0.030650077050668245,1.0889320482638212,-1.0415090720532931,0.4732935076087623,0.7820222404854817
-0.8333959253920137,0.6129031763208082,1.964171609570839,1.0096092756168837,2.7370787704190103,1.9053310025065642,1.6468124524535748,-2.213254865909568,0.18411349843552172,-0.14885088431487523
-0.3026667362510523,-0.10916292779447037,-0.5589858247753455,0.793742838937227,0.16364712139460336,2.6450083302629195,0.3298993889007127,-0.4098866686622927,1.0612404714248376,0.5687386866238446
0.11603981421129951,-0.5200692852759575,0.34133559732326374,-0.4855611054580963,0.8351489997953199,0.9875418387038669,0.9916676950849601,-0.6688914757497755,-0.6743796162031823,-0.7353662481028652
-0.567251640429553,0.7853911551530602,0.8401358671935288,3.3381678232955068,2.6902255540356492,1.0096913612066412,1.782908550792643,-2.214556175664767,1.2229952088574403,0.8370609090701904
0.5480392826706978,0.060705459303918324,-0.9073882180692946,2.1878044671833017,1.812945604414502,-2.3983021222172356,0.6476927945567102,-0.006731105977666841,3.2075016965949015,2.643400939599189
-0.22097243360373356,0.4879125278976884,0.9618098985174905,-0.7535146978229984,1.6302721185274978,0.9039688953342635,1.6043653448753152,-1.5634021928736088,0.23910205066766532,-0.31788872577875665
0.14966573916733292,-0.27568643865888687,-0.23189862283700818,1.7988680238363082,1.8747848405678091,-0.8892087082259316,0.4269393388469402,0.1924869775708823,-0.29153776192134784,-0.3277899792671416
0.1363972000185113,0.5717992241309882,0.801859340406461,1.4501396212984234,0.2634171672842498,-0.5991324868280372,0.4565330534185756,0.34491790368058406,-0.8424648808426562,-0.9284999173996876
0.10724165107573846,-0.37622415610761945,0.10783969209413405,2.9614059374303876,0.4334964581569609,1.174212988290173,0.917230079410957,-0.7184203864078281,0.604551234434425,0.19221489357840513
-0.30878894191576767,0.03098381738068593,1.4261498341912993,0.9401113215629819,2.527177171900708,2.192615581423432,1.844009229166898,-0.6192960680505794,1.837160970520293,1.822331981621473
-1.540174002374276,0.37057469079207167,3.484534524323425,2.640798274579615,2.7362046242688876,1.3336184776112738,2.5592215293641636,-2.7781973294586213,-0.03228898488816778,-0.1832771976861568
0.14231794019487654,0.07328468641151425,-1.2274776741196913,-0.9933584248256448,1.1860691565999577,1.1835083918073024,0.21301009163379345,0.24053185771317823,-0.19272585476611148,0.10529962950967399
0.6668085671562833,-0.5501750358593206,-0.25810453738928923,0.3691517710929568,0.7312754815752738,-1.951723107838555,0.15015847467398022,-0.01849881844713591,-0.21263666692152783,0.12991268074349763
0.5651957971859323,-0.6447403744726216,0.08511155474880507,0.5994248762845766,2.2631373213155137,-1.433923394607185,0.6165307040556884,-0.18877975010001638,3.0905644944198496,1.6152758713761486
0.6145254615791893,-0.6006667290481842,0.08818293734107738,-0.5964363113927195,1.4477437227481849,-1.1641521164498376,0.14261466978576892,0.6069697250581665,3.264991367230542,2.336288410763274
-0.3908343505308494,-0.002045717547925687,-0.7497608468724949,0.1000445375923893,-0.6952493631650887,-2.3188032311480624,-0.39044581568002734,1.2789794240199066,0.9996446003296362,1.2732242748582019
0.028026321569858074,-0.3092038009196496,-0.6672373990755072,-0.18980912769797265,1.151928370196047,-1.0426126071024533,0.6436856106749108,0.2815918336171917,3.2145442933340034,1.5406951329257619
0.5240043094057693,0.12351975475456396,-0.5147902082079147,1.1815070970356487,0.17992732214349116,-0.15759644927229932,-0.12170485300666135,-0.07486267606597216,2.956206411202824,2.081032617316772
-0.15027764841812294,0.6103330906256238,2.006465948846758,2.179362051332701,2.9180735647688443,1.9036210596996244,1.1459369866708702,-1.9469032127002566,-0.6952751114640312,-1.0596445153521312
-0.4046692190887142,0.35348900156241714,0.652029505849407,-0.6493434766787656,2.641993477720273,3.4121691504313105,0.8096274350890854,-1.3642393717784012,0.8520514178642178,1.0925688599252237
-0.8123762886422042,-0.07770357414680439,0.22766609762385895,2.1764573395601934,1.4860711828918993,-0.7404085972329776,0.8020427255366174,-0.02941704461158992,-0.509003143178333,0.01537863489719037
-0.911936772396457,0.6210101888416473,1.4820395146362766,3.4311299194317044,-0.23501463314265925,-1.6913165083687074,-0.005642348086301966,-0.9147141309875432,0.8314711922387541,-0.3202296458846828
0.5055702912025629,-0.3333547583322258,0.6270482395661879,3.4470541753327435,3.2052299871155903,1.0460108938846147,1.0363308208161768,-0.5538167132201774,2.358697565168049,1.197176011081554
-0.3795195106539373,0.11431311808550296,1.188041545054698,2.9363677025558683,2.0217379035145044,0.06139064291759477,2.3100870393592015,-1.8499880202720034,1.0650355949996357,0.9113295786419716
0.34531709658420406,-0.4407386894345739,-0.9959609570581781,1.1263604400686793,0.3136266030940018,-0.860520912802499,-0.5557241618230208,-0.016563669077711004,2.1454069955867068,1.6518613354563378
-0.13744428565599895,0.48262780198579414,0.40017035327525013,1.9971210950622074,3.3513198712963588,-0.9186618038089551,2.8231343272381,-0.7614311751446377,3.304068417991946,2.3392579516435084
0.21519225491735985,0.1944492482262138,-0.10094118010061688,-0.05513991950963992,2.140539577075978,-0.053492460910781414,1.6632995266012176,-0.19601187366292078,2.4973982066771874,2.7470465148372396
-0.46314322786498174,0.44023103435423805,0.6754838860097415,-0.5544663274730803,1.1167497751768058,-0.799538659883425,-0.12542262358887304,-0.545886790385221,2.7846535985919405,1.1260405505327058
-0.6458833517135036,-0.41155731936469997,0.9274003063567505,0.9920679003588928,-0.535283206196649,0.06301973104259073,0.13545435221983523,-0.37925946414105666,1.753501137442485,1.0633394005393924
-0.10117487884196626,-0.6969463518953462,-0.6661577964566678,2.502544640440057,3.2518423333265414,-3.1262544511457326,2.260415721202108,-0.09852404474319461,0.6016835393062345,0.3602002790508357
-0.3281233515051003,-0.3022242652942332,0.5444874792569986,-0.9251575454939112,1.2415711208266291,-0.3502635073265169,0.049289558140382946,0.8623535687397853,3.0649335211891584,1.9028066338689622
-0.3633001735326864,-0.08104837234185047,1.0766175140627328,-0.22909955576667462,1.654760524605281,-0.71985853453797,1.8566952961790133,-0.6061722596547627,0.524201333547538,0.12973116936556223
0.4673375033423559,-0.3296839743507649,-0.7447201659679974,2.7290245927235763,2.9953813124638553,-2.1081912663453135,1.3661725491247878,0.48875605527903043,2.1034350196630007,1.5058970741841347
-0.05006264333907827,0.14950322707796215,1.1558179528238774,1.2887548165405112,2.9590981527815488,-0.1088042006080227,3.0761542982665206,-1.3176944899617502,2.266787614288902,1.6168589313486517
0.446380740042936,-0.43267990372474835,-0.29649571875397895,-0.06552197883112643,1.5174492350910471,-1.187876451981066,1.8646319837883802,-0.20499299687497666,1.0375567475707852,0.2647175150255268
-0.05560050269113998,-0.15285769585410533,-0.3137446024996831,1.3886966005583412,2.0860218232415506,1.7861877201703842,2.092664105400362,0.23283486456015787,1.6510516191702886,0.44570154684566876
-0.2553572463538949,0.5777883368924679,0.7099815993876901,1.609901535200569,0.9754064963928282,-0.8534079201261605,-0.1248920453741515,0.7651729625728024,3.451642834748408,1.8240879706926652
-0.579309543072122,0.5930896600958929,1.1275873686496574,2.459313134345867,1.8517423710448324,-0.4032825426860538,1.4322296391154976,-1.5548107016561428,0.28179189008634786,0.7364263006810932
0.5555795884246154,-0.36492096315384237,-0.009741029867561202,1.5530994473179107,1.612765656395899,0.7662930932299088,0.40365644653163185,0.17319608553099244,0.6765219231950448,0.26168387813343236
-0.00852795845415683,-0.30773240164526955,-0.6669394716515535,3.103953107408837,0.15987727660622886,0.4847689736607843,-1.0232898473555192,0.8294477789865156,2.4497425239010484,2.34442650546459
0.193971234526063,-0.7840189335043902,-0.45365461224623344,-0.13026719207037485,-0.20632034751828865,-0.9040001437081395,0.028180677652068054,0.4899599078685445,-0.9700866186682132,-0.44594113177870254
-0.09976226743609974,0.20307944396773292,-0.08390678358482696,2.3086973853724837,1.641435835215015,-0.977383151286066,1.6494025214595325,-0.9380621732002185,2.4901120863300226,1.2255603360963323
0.18676073874724491,-0.3065712850877813,-0.8541339149662609,0.6852329364352638,1.4378817683562808,-0.0008119651361449542,0.09433286945134346,-0.02927170120689529,0.7422752463364097,-0.6562108497469071
0.7103072514106433,-0.12835477179055388,-1.2372005859670838,-0.2609973431931958,-0.5562454400972234,-1.8046519896623043,-0.6281230552612764,1.0190905504635077,2.9253982125162947,1.4279394732293686
-0.5940060219247034,0.14520529531845475,0.18695975224504288,2.3448680932894255,-0.8592206151581111,-0.40782995593037363,-1.3348721173496643,0.861445473157704,-0.9505575473646755,-0.4140882888007975
0.003876517624221375,0.03180236553846708,1.1997904745083012,0.08013727222699107,2.5434638184336453,-0.7180025905040179,1.249567314775037,-0.3494091032927412,3.312386129043939,2.187888310462238
0.5709738410090568,0.6603506934510215,0.8765001480142205,0.2734347082854913,1.8540502344793213,-0.3553768357682634,1.178570258950051,-0.3466574011559676,1.905894078202698,1.700212536464272
-1.0210341857699743,-0.008519654865557542,2.1804575456542334,2.9012613157813782,-0.08468967900752244,0.4153479508113056,0.27566155089217764,-0.4219043058790431,2.3769431695986087,0.5154980109511157
-0.34725779088024294,-0.34444620445384555,1.4974257892791936,1.8905372068403112,2.5499019459316368,-1.186641755507638,1.0976976040018818,-0.5359937867948333,1.626788619095013,1.240397714428091
0.4035508561596945,0.022411626148789148,-0.6858273207266957,2.0837061259557927,0.12641289975378833,-0.7192808777594744,0.15482487693967203,-0.4217079267377501,0.4722277337324814,-0.45511907148299957
-0.41031306366326187,0.21570521720174102,1.0595912709011013,0.5212764580973956,-0.638383402154967,0.5046397340977651,0.24387383407611413,-1.1167225177767146,2.282574072344173,2.190353994379937
0.2559518683852662,-0.4888532243199786,-0.8705721333136788,-0.8655979790708255,-0.14656909850640576,0.7042008408804087,-0.12100577440730788,0.27426060588286016,0.8716785554633981,1.1071572373883711
-0.12055992525798813,0.23967450234768015,1.0775105027284062,2.502635426717152,2.8794402135707915,0.6778432818072369,2.1759064232784593,-1.8273833877739583,2.0015815415588745,0.30871896372474433
0.338110102576028,-0.4564224679757059,-0.27144068006533606,0.690394827813124,0.7467500344529798,1.275060840976586,1.045380402388694,-1.081590429299014,1.9149520019924005,0.9922553748633025
0.37574422792710804,-0.32151425802336897,-0.01720876591009509,-0.6851336053850051,-0.14029912404826428,-1.523357809216269,-0.33534902784942455,0.5967952972947881,1.3426857010176718,1.7249674752611521
-1.3422934608404913,0.8004641423079927,1.160508322185595,2.786300552227028,2.158551812981027,0.07548403233504253,1.5267541559044104,-1.1264120413622505,3.0082493742268577,1.5414077479772412
0.43116574444287825,-0.377293178258768,-0.21343905540581523,3.189554965812576,0.9394963348850514,-0.3057090549605869,-0.4085347005019586,-0.14027316126819894,0.31106684790360917,0.03664779260580352
0.3321784371984566,0.2066697981888152,-1.520440757608451,1.600863379273156,0.03845611312023367,0.19123235612343675,-0.563391428249934,0.4013604703198511,0.100167492078443,0.5302398288841476
0.537800618337309,-0.34201121384994393,-0.9845912635824023,1.7965043364278364,1.9412995776382567,0.24308304556910376,0.9768010842851361,-0.4412416436038442,1.686365954504096,2.277618918093596
-0.3560697921903611,0.3144397368705019,1.917082622425159,2.1929040674369196,-0.489126956965541,-1.426687479919501,0.466640639844234,-0.7754956549247581,3.149281304209545,1.492294975355789
0.8658915584133025,-0.6088985707975445,-2.8549730166960714,-0.1942470820455905,-0.08648222351631629,-1.60760089954379,-0.5403410412770354,0.7596242051020692,-0.9509721618825832,-0.2842769721007756
0.1674968551249038,0.1367945971694984,0.7652721860134895,0.48586692849214774,1.981660009262578,1.1111211495980478,1.3856573531896996,-1.1943618717727857,-0.47106735245606235,-0.0822053872206553
-0.6412652734577435,-0.1696359571576011,1.8611135946715336,0.9614484976998352,1.896875163110233,1.367475406821323,1.8188430521485512,-1.6961274040589032,0.09039974920167948,-0.3038434707972604
-0.524294755938469,0.17298822581729964,1.2648936615704656,2.906575187171624,1.6562013659710937,-1.6675539377386646,0.4254559692473071,-0.39854458764468786,2.276841553008666,1.7160011753839135
-0.2250964054640822,-0.20704951121647977,0.137295215989396,2.763018105855935,1.0296424648496276,-2.813648491142823,0.7536514487982576,-0.27493650294119115,0.16253215568491153,0.5682853608116137
0.21898920732918484,0.2589346735805571,-0.29119633232471714,0.7086683058163488,0.6459362369842452,-0.3245567028194291,-0.46897711894778077,0.8232632365027116,2.991399318364621,2.359375397320022
0.5062291199385982,-0.7625619973253307,-0.4201631377742367,1.959971163463273,0.2541215161506343,0.19287542751903397,0.42441745747216475,-1.1009712518949857,-0.8259043322029085,-0.756261899747282
0.14300015964911522,-0.04739219218384395,0.02579064707316288,0.2634540147344062,2.0779689411031628,-0.3702629805935432,2.2768669897036453,-0.7522591559445956,3.0715552285586805,0.8445749467439695
0.09893937527494309,-0.3138122344164139,1.0898247496183995,1.4577877904621324,3.307223318580519,0.6986082739097004,1.3383234255567276,-1.2981856848220747,0.1495377509742719,1.3633637327435388
0.1080894473738012,-0.2616278626576702,0.04139950509991231,0.632047869393723,2.825624518817114,1.598827899735677,1.2326826260844135,-1.5557157251479252,0.7632763116513794,-0.06338242876458904
-0.29084339811286525,0.6930299021518271,-0.22740171944895335,-0.6902009759656549,3.2195795376858767,1.3593875726897209,2.2406660948091592,-0.8305400897376857,-0.024108934281560468,1.6390351510441923
-0.09974146114331159,0.017998684036586048,1.5260617345057055,-0.5154671918429701,1.8124233994127419,1.2331603642545985,0.15659218316232937,-0.5298268840508322,-0.7028103890849082,-0.09460034294023585
-1.2476256086933237,0.48666016018588,0.4055195934371599,0.7561962353708269,2.3980892824193374,1.5228852045982073,1.8013081893562541,-1.1972070055585844,0.545109790212225,0.39613654460975317
0.15227997475911623,-0.5040672230242046,0.12152291469499148,1.8228259365042572,2.8859048176169293,1.50434159226045,2.180352119554773,-1.4736177297170496,1.6790630873784762,1.8449112961169478
-0.42808906614147074,0.8079453230335898,1.2123270497082623,1.2677796847220986,2.00948000608417,1.6393159057756397,2.560507142843589,-1.8446435646315795,1.9504334774269432,0.14619271927754945
-0.533835131529318,-0.38408139179221307,1.927191812933357,0.6512065959591833,2.633648375084014,0.5909681495739152,1.9514151151624823,-1.746775621888764,-0.11491689277518768,-0.6702006711780709
-0.30677312722713984,0.6527921774742194,-0.2554260303287995,0.14484518495541354,3.0086364377636485,0.6410343314295941,1.6681959819765928,-0.7094971594475041,-0.18903395335595463,-0.514094841035237
0.6791041749575593,0.3621979510385646,-1.6939329085582033,1.3872198298594127,1.786502443558427,-2.48026014468658,0.8370275488722334,0.41686550409494777,1.011653497910065,0.4478481042492347
-0.6847811231441547,0.7756885072606142,1.8991548766567634,1.8001931928956885,2.6919325497542586,0.2876585334524355,2.357929084774822,-1.4569185806832503,0.36943932137143487,-0.6766690465677632
-0.48730481996965985,-0.02368413516986592,1.5105173722730274,2.5261270560731326,2.4423090579934326,-1.4120686902256572,1.18621506661008,-1.6854886717740007,1.756407554920183,1.4105055869509158
-0.7113335439676941,-0.027798941146013667,1.763118689513236,1.314511308484236,2.143790499128291,2.399424220544092,1.2306747353594913,-1.1559270074764139,-0.45788013721480336,0.0061253772420937855
-0.1155483801102436,0.29120715736826047,-0.698980516043229,0.45942714910069204,0.36843280202009066,-0.49388047807512053,-0.8449680513682405,0.10671360962982357,0.8402516881607365,-0.4389643159154347
0.32190763615965023,-0.3412541197010654,-0.5810969642384266,1.8689422617752753,-0.5797739236394818,-1.5335219510745355,-0.6074069932239636,0.524496668049674,2.588589972528922,1.0308151611466143
-0.20106864240369735,-0.49224698383449494,1.7963696922800072,2.070103172307756,0.4045975547576657,-1.6219061099082643,1.3650958161114262,-0.7235581550455367,1.0807225643164209,-0.2727096736044397
-0.31614831318595304,0.7667576555117261,0.8792531389763648,2.236094505954717,1.4050437281802362,2.67701475683241,0.3710361728412397,-0.9522386571897811,3.4477643008348036,2.269511230326298
-0.26892956766081155,0.05163760976374322,1.1860974346512503,0.0605717457286612,1.533043168947088,-0.6964131952747737,0.5735809012326484,-0.013568215824106746,3.077652312180506,2.3570417235474728
0.31069149735822765,0.14697266990813365,0.14119232877660262,1.301729867374931,-0.5564618760734152,2.1589973271179344,-0.48293120400388556,-0.5630729767740795,-0.2271887284928915,0.21173151398809523
0.4316546557087812,-0.165889705082772,-1.3197752645965934,-0.11657760777434856,-0.18268112761927424,-0.047670991462283485,-0.30369941807974493,0.20642113949812463,1.1705166184953772,-0.14319217861431355
0.35190777482110425,-0.5521082950599725,-0.7132012933495099,-0.895149649474352,-0.9039522276693626,-2.164698073449351,-0.09972248012732784,0.24209375037609845,3.213938358025689,2.3433352883063563
0.04474563222794559,0.566755820988893,-0.06812284066199382,1.8704952204649956,-0.44262803727109434,-2.272132365323079,-0.0015051703327653998,0.6643725085359482,-0.45136401041940666,-0.47545747196593174
-0.22028456858481874,0.3129239657161049,0.03395045292247642,2.171471931704341,2.0303288713741448,1.6009542579416327,1.1270707356566303,-0.8042662093838034,1.6547955814188966,1.26639301431448
0.48483290987700306,-0.42218694945809965,-0.6124342397811162,1.011574536485325,0.6859598951179993,-0.18218942655026238,-0.11979479981999883,0.5505717462581047,2.57110738787921,0.8378824861125306
0.09426025708782648,-0.47886272398797386,-0.2973441556348987,-0.6702571553894812,2.826311046318381,2.1536460532683477,1.1865052454807927,-0.9159897119065714,2.1367472071793348,0.33185833967967204
0.6063448459366259,-0.4673821391843871,-1.696680312763521,2.7473412499051038,0.9531712778373667,-2.0402763696790287,-0.8196999246279375,1.3260696471688276,1.0799311292609892,1.6339127014980237
0.36432064349120696,-0.31148062028217743,-1.5592008522543979,1.9511633201650125,-0.70602241891865,-0.9942793937472241,-0.508014194472928,1.0152315374747594,-0.29510806263410716,-0.451437968838557
0.07383961171110617,-0.4045965266984538,-0.8825150658163149,1.668830008930291,3.141166757540307,0.474797843187434,1.0002717092413334,0.35512787235430376,2.878533254416711,2.3085357533379685
0.11585766455820119,0.40971037561806156,0.2936531517987881,2.36228563589829,2.5573684188335637,-2.477570366541702,0.8148238979215539,-0.15307900071877065,1.7432298052482755,1.2059787543098284
-0.4353197993467859,0.6276823641085527,0.6247940620085712,1.3868516066879741,-0.0858345216257329,-1.566234508989353,-1.019631203653176,-0.5852143878067037,3.120611549404874,1.4597264854071843
0.9726497236134202,-0.1032214642772654,-2.072128413087228,0.8505363634437573,-0.9659815579813802,0.3102269361887692,-0.10691440330857267,1.0136548453755683,0.17028298252679952,-0.8416077163100767
-0.4677199888586183,-0.07548579857437888,0.5530996827068038,1.3067672719706431,0.21167857587286387,0.27993676065242457,0.6707711031071338,-0.6534769327819029,3.333011835214619,1.768178854742758
-0.6474440576099,0.003461168977351506,1.0251784115563456,2.6462848038432853,1.0022203749518401,-0.5785992149536987,0.26902058713626975,-0.7591497197161952,3.050145034314169,1.6805984366079825
-0.5895248419530457,0.21979804621769194,1.1012779772514754,1.2088626522587114,-0.05184009060778305,-0.9977893101601588,0.05654448354958773,0.18451607695489422,0.8553953579137719,0.3996505396244206
0.035630080100387845,-0.44579534147721167,-0.9687676405020709,3.347449814332534,0.1497031630168193,-0.3722746416907781,0.41142125917919037,-0.1965685054111147,0.6347152267227629,0.39411730675406387
-0.5393422799864265,0.31021889085474774,1.6994529082727912,0.7420705901065945,3.4612916168256946,4.202052707328143,2.515658621977947,-2.420712096260671,1.8907749942191927,1.2743420703763293
-0.16012626617951725,0.024220994673999543,0.03153119576810663,1.8890020220333836,2.1347418927834223,-1.0238289634768032,-0.30459661101204344,-0.09284996967617525,-0.41283058445375564,0.7080278460069842
-0.5708233509188044,-0.48956604071541815,0.6417046847398816,2.5397629498055156,3.096164643713915,-0.04116430674515781,1.7428317933109965,-1.6434320270063911,3.335588498042881,2.050575125848825
-0.23578774501298433,-0.01700592145664131,0.8348047731161911,-0.924719524741029,-0.737058265655562,1.9177643838291034,0.8869335333089646,-1.5527723337274735,2.4235735054256606,1.7420839325155766
-0.05825641876289356,-0.14896138991830504,-0.20450104755876053,1.2720477946767934,-0.43972250600891183,1.256295189355979,0.29368551006424715,0.14648159707060934,-0.5658076984986253,0.7207278135042806
0.08763684959609166,-0.029655956488724322,0.17937924585172005,1.2693574916794548,1.9856933566622206,1.9490587296478732,1.2868971447868152,-1.4618508100002423,-0.023565633506329786,0.48794184132431623
-0.3423659166058239,-0.20380251493230186,1.1538286253244985,-0.5153422064808152,2.928039172192717,0.3966846106699579,1.0732065325599782,-0.35065164239930946,-0.04563406066840914,0.9856089987792342
-0.8407303731666866,0.522614671343564,0.4052748539335662,-0.6070914976250388,1.4762439842287716,1.0077991094737353,0.9492361351667103,-0.7100404535589953,0.5153362619671991,1.0688417631799076
0.2697284305831398,0.24276977288974635,-0.6044242247964771,0.29021475892641124,1.491304977795088,1.1036403242658432,0.8629133089390258,0.13914345895719304,1.0752252110685716,1.2731024191830862
-0.25060261948166185,0.5766006499020919,0.1293518703794985,2.5974966260463717,2.5933376417922878,2.2622729755490556,0.9601377752710244,-0.9128461614631194,0.42541143444101404,0.9974948543347991
-0.8409179479463107,0.13587204798463576,0.872402699861827,2.212630057127403,0.8929528165238374,-0.9193145482304884,2.0780713487388645,-0.515584945933995,1.777166814566868,1.1466948205606184
-0.3712807383390034,-0.037255038609397134,2.196563839686457,-0.14102907410168397,3.13117741058427,2.761144293463722,2.074970133206656,-2.059360802702914,0.8690098910080795,1.5509013702108958
-0.03651181270317174,0.5258387044743319,1.3374270721349202,2.421478800520505,2.0130322194020587,1.427450683782355,0.45546239411890327,-1.2438468078152414,2.678797337068627,2.1981837115354623
-0.3212159524258701,-0.26978594814220275,0.17550544607155755,3.3236535393609197,0.5441403565416674,-2.426090456960303,0.16409871535850762,0.07246837211190064,0.9721908735939229,0.4888611502415041
-0.24716811010408798,-0.22846109942814571,0.12576316141856814,-0.7001953088451591,1.5435645241089064,0.512104244493225,1.7479673226842583,-0.5024997850665182,0.49725059679924355,0.2157424260841856
-0.7011337524260237,0.4132371376182107,0.7288671672641275,2.5297743872722998,1.060085196424006,-0.10126950555510017,0.2816899346092769,-0.6357752513403218,1.3803889143340142,0.9695099757635516
0.23824341238950997,-0.48618195922353097,-0.4560499745156437,0.35863482967464244,2.858094567860504,1.83332944113869,1.928063233019832,-1.1588818637657292,0.5733686549118386,0.19061432144932894
-0.3379157608260523,-0.39654049801456615,1.1187764300106247,1.7862040386306828,0.8025686991826386,0.2916387942863271,0.312470687335313,-0.33712998539867284,0.7565996416671241,0.4518992834316025
-0.9358470878883042,0.13877753611885965,1.5546551126408799,1.2249702655968489,2.2236068032391967,0.8564519965866182,0.7040468781366728,-0.7345678157851528,3.2300277776562787,2.146879760192413
-0.4939148561020533,1.145393708488806,1.0024361856144126,1.5011280315043711,1.3830438102207347,3.3758247970229944,1.5186134787718817,-2.194443409706299,-0.5716686551466845,0.34467391296092753
0.05025470995481227,-0.13068367293131355,1.3196480542340616,-0.9886555713582389,1.4104682733879685,1.7546496823931732,1.1852868456554557,-0.5912231791360556,0.8191224021000347,0.1584929885338652
-0.0328844579869428,-0.174517706065008,0.9973787710444745,2.471121183760475,1.465390675097861,-0.22654363307247127,0.019546139157371946,-0.7863102228994232,-0.2686407268873935,-0.46917886596488007
-0.2551188623821044,0.012488093115550339,0.9792213471437846,0.23428642898738383,-0.44255283286705394,0.2761283176511754,0.47060232148275055,-0.2979232050729975,0.10279465592070536,-0.8683405771820418
-0.3336819990550362,-0.4303717869340258,1.4562746412304033,-0.6298428591057854,1.7570756379216483,2.2156278004858043,0.9734983715572528,-2.0003704636518838,2.95131398389945,1.6153043157892257
-0.5108788389523417,0.21276766789273305,-0.5730526626316406,-0.9052765587602294,-0.6540976929304009,-1.5479502140533312,-0.8386607720099406,0.6824962183906719,3.1128464917832614,1.7914926722869817
-0.3643609720823452,-0.19882808214057768,0.6818937488265956,0.8350318749080192,1.7094448429506692,-1.3614305688819635,1.2508979711936627,0.3842299607980013,2.4665348732802213,2.4039370203245576
-0.5881677134267769,-0.24297977627480336,1.0449503966657052,0.4547938713047237,0.6256476161475484,0.4772494326121588,1.321224305500556,-1.3322406524307808,1.7900701641088252,0.02657715369678309
-0.5339334769513626,0.26156193650762505,1.1352819004329116,-0.9490726926185609,0.658330841117827,2.269344750110273,1.4822290944444516,-0.7613886474634107,0.6534138678754045,0.17447232810228755
-0.013551013918867885,-0.06745073095697783,0.18264714077070276,3.0598698460940996,-0.2044371553006702,-0.5105145285126891,0.33779489380803335,0.1904855220740952,1.7618564071504972,0.9475297794354128
-0.05231832190215941,0.3058114341639328,-0.7661714519561345,0.3662742152064318,2.7483123024340324,1.395195270276841,2.000047870195609,-1.3521437316133857,-0.7910723259454938,-0.39367949740649893
0.03263320511084048,-0.584431652276861,-1.3428075522820508,2.7528591084139915,-0.6106169158009174,-2.407689259558276,-1.174023712809724,1.2522936229717314,0.349705896253629,0.838459851026849
-0.29556724958517255,-0.48254467064641804,1.253795107497597,1.0781636487606643,1.8866345824228965,-0.7985233080352039,1.059252702754117,-0.1753860362883003,0.9246569164010146,0.46182923010797167
-0.5429025990394829,0.5080008059022803,1.0779467857578353,-0.7780997110784642,2.7442645291273617,2.085621499225355,1.8789636949621085,-1.628354802994193,1.1123119027133037,0.5892854164937017
0.6040515283840067,0.6336649238574672,-0.14731809841757323,3.2763374292455607,-0.10402049130979674,-1.4451334793787598,-0.7443783738046551,0.3538396655040062,0.2863810543024661,0.6113061612582688
-1.2053457524046076,0.07002759089640465,1.4083192334975445,2.770580624802667,1.3899933665184907,1.0819176739441556,1.250037532245195,-0.9636292280018026,0.9906406853175511,-0.2065497684129042
-0.5604486232278747,0.26428915573178074,0.4198285787146697,1.3765942848842743,0.3923697114663163,0.28936298404560723,0.14045353720550738,-0.7354586299413323,1.1734083631249916,0.6954335652318484
0.12062669959553786,-0.349893809578268,-0.5545661001555087,2.07268128355944,1.8036362017505234,0.11445416848744255,-0.11722900566347048,-0.09246858850304339,3.191973792628013,2.7557171731956385
0.23492743079089293,-1.0023002873999054,-0.453421020326832,2.9225557179193595,2.242919654146169,-1.3055944395951853,0.8405918299698033,0.5764562745298983,2.85751258346617,1.2659111194781605
-0.2501398847410942,0.10313062351427275,0.32344816211065464,-0.8884715823144687,3.362478015111259,-0.3865115083813961,1.4542068507338426,0.3648053699975783,1.1296576465730936,1.0648433219812032
-0.2602873138069344,-0.0035685421123247065,1.2613326507287739,-0.6561210627466787,1.7965665660788948,0.6732909206980773,0.8918611164626169,-1.2600645159958477,-0.27826843557226877,-0.7958163722466537
0.42182283272749477,-0.705504088611741,0.05909722791610952,0.3581441667700298,0.07750794847565357,-3.6679192367326614,-0.23955620459545812,1.1942048600437873,2.7588073095229584,2.1206602806728667
-0.029403231427732067,0.3657452547792681,0.321997830929184,0.37475504816819893,1.5560400062060356,-0.28810478577748777,0.5302765233770526,-0.8224347794134784,1.43375746101801,0.8232485448964401
-0.1376097676459061,-0.11721608358861527,2.193279966902614,-0.5492753285712028,1.0201707366969184,-0.6221598833843194,1.4228541880247119,-1.4865568035496852,1.6367198716781917,0.8630603412554533
0.4502444771595085,0.5368869049879986,-0.027262746499879344,1.827664914136009,2.062945207481894,-1.4096809763576474,0.45091947661243464,0.3092751849768831,2.2455015173846427,1.7016083709643406
-0.7836976088130028,-0.49742132579583176,1.459477181611328,2.887604835357639,0.7064254388770339,1.4868710496049673,0.15967594265748636,-0.8493252050388176,3.181081030704836,2.4131585357060703
-0.06785183585932289,0.034983454705371966,0.2419902596405878,2.748192691002292,2.2798906600097846,-0.34546264935252513,1.9623521464123905,-1.3631272140900492,2.3502048579854353,1.6948127925929048
0.21586435559264816,-0.15045993313465886,-1.5997301366595436,0.4062595265219089,1.9003397848046775,-1.1804212553018523,0.5193840266952199,0.17129280222016352,3.2562456972863583,1.6423549873962677
0.16890755996036533,0.36163417877833365,-0.3662506092778946,2.577970681835855,0.6488526849739726,1.469094098889089,0.8728658820967179,-0.9852427123510985,0.3507276410989797,-0.4334754472461402
-0.5676398528227578,-0.41530231663906964,0.7043252728237744,2.6611881889927567,1.658904850207624,1.7242251016605292,1.153339674836107,-1.2067942587062206,3.318130642970953,1.6665991408946903
0.0855564603844814,-0.21464293587502636,0.09861046561511834,3.1385500868823373,2.963201376081142,1.6593419830846372,1.3637733958161284,-2.3004042904498205,3.1638056092805007,0.5724648525077447
0.23423201340076677,0.17023381542764315,0.741381682437428,1.5070526283504786,1.057834445377944,0.2152773036145112,1.293133977117504,-1.5162598551989894,1.4292018245834388,0.42152753175124436
-0.13656579888594644,-0.1825237514480145,-1.425384804161582,-0.4462993872710792,0.45269339360171257,-3.9082965802520726,-0.998515932612953,0.5964262420686226,2.9067074667306003,2.436050846366014
-0.4408392154994465,0.22692969487767584,1.8202458797377363,-0.5916247825313663,2.5815511457371594,-0.16136208181126288,2.0164057339418506,-1.5078283078050527,2.7901956753424435,1.0584640853739231
0.05529502731697191,-0.23173517756614562,0.7418331617515481,-0.6213256323758538,0.8340858162384499,1.2776521231905367,0.5821451956191389,-0.59444723309887,-0.019582487556269457,-0.3513368608392975
-0.09405023479870483,-0.26031675603919074,0.7898218476378336,2.5268287801050597,2.393574576039756,0.8106363354903636,1.935997491056146,-0.6845819532480584,0.5789420525362337,0.505812276284312
-0.3849344028709808,0.20580313552746018,0.8581097636572447,2.3819381759325533,1.2262725205611722,0.08933640222048489,0.05012355072278928,0.04551949363807887,-0.09961250339620664,-0.4972239570990553
0.1888242697122568,-0.23921242802607134,0.3351646362028584,2.9703746733861878,2.1191413152042644,-1.6414171355292528,0.47730572136466837,0.73198892594302,0.1209935619938729,0.4196510943453893
-0.2775625269140757,-0.09131367422427286,1.581707150062406,3.240330348812966,2.4477383919058586,1.0084925703455385,0.8762986425057204,-0.6455572032359809,3.116567654239166,1.932031612544753
-0.4064210697551492,0.32056303002746267,1.176559802559011,1.3922567572505882,1.4365732513385145,1.9106676078913183,0.603331982407028,-1.372510485720571,0.5345796622018053,0.20655561650389587
-0.9574300631913443,0.7152166202958951,2.3493378617016907,2.6078039028966673,1.9809157752546964,0.9790004994610559,1.9609927506766454,-1.1469680790606305,0.7426233606965889,0.6170485252685
-0.8256399406882441,0.12010498738240968,0.21069957382890037,1.7773778322220588,1.6722995824210982,-0.8791369429342983,-0.034200586282509673,0.5240460414867021,-0.25048294791969994,0.19394933572319775
-0.9064942781251366,0.3859510457433626,1.9277651944348313,1.3803454007326885,1.9254779607050136,-0.2680151193055367,1.6738234961192007,-1.1766404625137785,3.304043013298169,1.524904434449769
-0.8339540079770564,-0.5474365121754409,1.8127409995988466,1.0898961589522118,2.549741409607467,4.024229289522365,2.893423803434048,-2.7137691499079106,2.793397423002568,2.600361964755572
-0.20767029881841523,-0.2736070315722086,-0.22984912600842086,-0.7847192675071594,2.591635884836814,1.16650836052029,1.851500215766019,-0.7625877086521983,1.936672773650431,1.7425578439883664
-0.986751697704405,0.2154335621336625,0.45149661365505633,1.589485740610404,-0.9012491928770066,-1.4267794962666969,-0.9000196350635866,0.08684796942218298,3.050836732329028,2.5868615326648254
0.3021472124385678,0.5960512245937354,-1.0805356604339358,0.19599872230325044,0.537769207557496,-0.8195972677394647,0.23864105734041696,1.0557589433450707,1.188861669190144,0.08675591177999584
0.10651837268948484,-0.4538888319487159,0.9329800385604906,1.4544890019877061,2.9505623204550617,1.2908015491166915,2.2114426372246907,-1.5390614861668805,1.1065514051875605,0.6024985821626895
0.034912978782280064,0.060105494015618,-0.5525857364528929,2.6044937166384527,0.6653575593921206,0.07631476633266743,0.8185933653824287,0.4009719680991204,3.0494444000241403,2.3243051971574444
-1.3671931449471852,0.8359784035777217,2.629145923403662,0.7288718712185418,1.4608658912418653,0.6806610737482295,1.0021928221159098,-0.9464444680567508,0.006033028127212958,0.3134582354438236
-0.023585040103728354,-0.3159507845975533,0.09513168230905956,-0.7759016903445224,3.1315263306157615,1.2196712196208095,1.0180322738639132,-0.47499275377541983,2.222401139559966,0.8064772146570667
-0.3463854547064185,0.13117625873646493,0.475142299289267,3.2676363908857597,-0.769983201333559,-1.9111884161436474,-0.4701400586335663,0.8096815049530492,2.460605709214799,2.5130188414211143
-0.10440843770940347,-0.3765965427533852,1.2931171636400525,3.2649986128093644,2.402221788445522,-2.0063793522174995,1.8570795983080657,-1.294566947556176,2.2093438671143573,0.4856715675594742
0.38591995428450965,0.30953787692763096,-0.5822327832936598,2.9900859893613614,1.6393318898234304,-2.6206216392882635,0.26290997662969046,0.5325207772262306,2.673447547870333,0.6728409751097899
-0.6624664000800824,0.22072819433815147,0.6772643147615465,1.6733138166428136,2.4092938495978813,1.0679990936209138,1.9426107958855374,-2.091882351289528,1.286969622210651,0.3970521920310148
-0.3089551116731662,-0.3227524204798775,0.49384143741696324,2.209241562412453,2.8843040512940035,0.41143605320916765,1.5620729190409126,-0.4881175990993639,0.174803965605846,0.5235131294827938
0.5282275343434512,0.19613802592733812,-0.12869264102396147,3.0666300473363526,-0.9392759036725581,-2.972292502726175,-1.0011980890770478,0.1255596503636526,3.3642337469108234,0.3853910125135985
0.21418103202947053,-0.13272007414885498,-0.16602509725040165,1.801522770806924,1.6843363661903208,0.4854631484659242,1.33024693484721,0.23243770281438839,3.0567593526059635,2.3333080022256585
0.22472061985097871,-0.2035223304257635,0.40455436309388904,3.33203937640445,2.8583318689898682,-0.44990138617070996,0.3340592333699923,-0.8292546767650902,1.1369756721374245,-0.6903854100141837
-0.2566296960835029,-0.2222972922442534,0.11501540432477272,2.23968965482404,-0.47040043653436836,-0.19259778416883586,0.43579245193066984,-0.09469318275471482,0.5833828259338523,1.3601128437169852
0.29179542627291455,0.04932420934710798,-1.0963334503772826,-0.94371295725213,-0.1550730739153442,-2.0942415934406737,-0.5341155673204568,0.5222687313488424,1.5605593635517243,0.9273979015200916
0.25998422444416774,0.4913666118961566,-0.8191619679647966,3.0132450600662057,-0.932604108468951,-0.894597655502845,-0.3680992420930817,0.6337422929970936,0.5199709887828718,0.23633178831307225
-0.28569854875221734,-0.07237589945277818,2.2355799198586523,3.093858103752347,3.3394759405922585,0.8747904364392415,1.700402871319614,-0.9580838525940611,0.44032141787510715,0.6408151402877355
-0.20353465083341632,-0.5873119179278697,0.4019282514313739,-0.1098696537304662,1.3494407435439988,0.8636023436615501,1.1176672637270264,0.29164621656241724,-0.38694475276628426,-0.6505086548240337
0.23039254896337097,0.18235392390854774,0.794590730483163,1.0003450135701417,0.7138669422801471,-0.23785596133604664,0.15749463741452205,-1.7635865176632932,3.340396643646291,1.2201532974035758
-0.5554948830903313,0.4019779817116025,0.5589425415053331,0.5213443571234244,2.0362796538842076,2.821104918822972,0.8806073693170398,-0.9445760531575849,0.1930816724791562,0.6195896189951788
-0.6138121212114127,0.5188352409598767,0.9615197979047005,1.7482057200797758,-0.0464314434897789,2.097621649297232,0.08920210877606152,-0.6325949140181211,1.7024695221599861,1.150360117255293
-0.9721590368091972,0.7546225735270682,1.7226538849532185,0.08786919537752347,1.3367651147650244,1.613798694678017,0.7713485515024036,-1.0455482810443233,2.0358097003249327,0.8671664472351069
-0.1984915760268345,-0.25786021591166175,0.7160578902968406,2.645788368989839,1.3417255896508848,-1.3865775700545733,1.131417640085356,-1.0997093701702443,-0.49852906241992934,-0.7205489294943871
-1.0021887805540086,-0.33513148515182,1.567569162165526,-0.8293389655496137,1.9856147828014423,-0.653121988366724,1.1105742293404475,-0.0139006793612999,2.350479741224848,2.01069127208151
-0.02575906385612306,-0.4755150597785908,0.6325559064052403,-0.9417760807060196,2.5477451179917305,-0.24053194203753625,1.3719665801312684,-0.43626526002323945,0.4328904088535044,0.36921919406677745
-0.2683034276832008,0.014158347544057641,1.562465327087372,-0.04481448566517787,2.613563420429968,0.7998045216722751,1.5384280125066176,-2.0573031597938356,0.8205395076418327,0.4548209974021081
-0.061399032588499464,-0.2004857715583935,-1.4404364116180675,-0.609647725805759,2.048295073616075,0.1074150457210179,0.9208028496380884,-0.47997970231361464,3.4495457185144076,2.671672655993522
-1.0566785663350473,0.7491422993349801,2.6107166589909925,2.314129319451748,1.1625550018140496,-0.6621132379641723,-0.1840139110187598,0.30654527807350707,-0.7645852782321453,0.08980560390331699
-0.6693650397030486,0.8001860326977289,0.8777608238410577,0.9669342633967151,1.9071883030657202,-1.5686435022275091,0.4834819560913782,0.09278077540977668,2.13874811621817,1.5520499117909763
-1.109795880074161,0.31207663477018527,1.5184837460497838,0.8302543774032178,2.7216399795935473,-0.7972867888816932,1.4211853648212973,-1.5645328212174652,2.033932640256567,-0.5073640310618321
-0.8938085121491459,0.46947761355568607,1.499939922614559,0.6074641522759789,2.9012789024693135,0.3802619098585813,2.1156805778501933,-2.149346978072184,2.108993314809526,1.7228183417234861
0.06231500820173638,0.2790223917619616,0.5073668163143861,-0.7496331869501942,1.0785977720950646,2.69656464441168,0.5068181643164992,-0.8230960676446831,0.49367921745888976,0.29356946605555667
-0.039893035319229136,0.507146452787465,1.5684064391352541,1.8850587727142019,3.460548598291287,0.5998720034272297,1.9536117814540603,-1.408584783425997,1.7701728724331982,0.5559700113407423
0.02549850923607886,-0.08465558414269209,0.0895029461154592,2.506608669768175,1.4797274675278103,-0.005667288408801152,0.9255196126789735,-0.7568415734098706,3.057877055300545,1.4502149905781012
0.31120012392147267,-0.50860703096879,-0.7658854372766836,3.082012520033942,2.088038274981983,-1.104161965903786,0.41541018335423724,0.1187537610425822,2.5340436103494834,1.3190678064263939
0.31959294375782016,-0.6105553342312955,-0.2521542448043595,2.2993248114738645,1.4716407800231148,0.6966146963930245,0.9772486391880034,-0.5796711696692523,0.9709746110429396,1.7268374146568923
-0.8388209244092905,0.07250479411597116,1.7936168851840069,0.3861825915786976,3.373754933763543,3.0579890214793886,2.328887820391941,-2.044108061286002,0.07474628908268155,1.1388664786765943
-0.5869839903080727,0.26058398769621327,0.878918917856705,0.037708889446939065,-0.9944245071883427,1.4320008532426793,-0.7281903169090669,0.21109288165259976,1.202538427440877,0.9976277263177468
-0.1112897632822143,0.9881540251604475,1.3567075857375939,1.0575432425217564,1.6920525801634745,1.5794781196493624,1.1653536114850171,-0.6160952072300878,2.313478246003322,1.0872251675184754
-0.12042314745415547,0.3398943487740575,1.1027896682487384,0.27923999233214936,0.23662153066347602,-0.3429628711485079,0.6766610872185843,0.31049729240088675,2.0138027968632133,0.9948835294835658
-0.3145563676922243,0.6174051382965908,1.4985116668885676,-0.4807315568872792,2.4083444831689325,0.31379847971991875,0.5804752109970392,-0.4460320952214027,2.576401379758478,2.312209783795986
-0.8453620030783532,-0.009998529065862337,0.715047504672353,1.8949867775072553,2.732562252540249,1.0260772158551075,1.5707531333779903,-0.41173507074414917,0.44773281199327,0.4427273279683664
-0.3961563806197352,0.3490299654575268,-0.449692035133452,0.07117616279463612,-0.9300433782473166,-0.8908537248790124,-0.9397519092863283,0.8068443926716131,-0.9087020261473484,0.4241077626217191
-0.1929489182759026,0.5202353525594768,-0.6122177363368649,0.49272023458593495,-0.6105500154052791,-0.4857049799393333,-0.6273160586811977,0.4202318034678652,2.095915037209444,2.9525674596460196
-0.4105302392311069,-0.3285322723197851,0.644499287882746,0.2677985997137078,3.360851293702015,1.23157390223208,0.8034240621437877,-0.4623256162614715,1.8674041244503012,0.5392349614344822
-0.2387371421915965,-0.02370566958429418,1.1195829947151585,1.2878830124002048,1.134790459732899,0.8246085322652339,0.8246873860541373,-0.5095081180228842,-0.31069216201236827,-0.007341142036774572
-0.42550462392218535,-0.4607632377348556,1.5871892895901074,2.607441375953227,2.15354939560608,-1.3442656695550628,1.1779194693284971,-1.043159927200793,2.634698515399005,1.6815116918146902
0.27579147469992976,-0.11852810129153726,-1.0632874603373241,2.474845090469832,1.1082064297795617,-2.958045400973343,0.23362224062341796,0.4903851533075895,0.02409981899180469,-0.5369533596903021
-0.11285604855079537,0.29108584609101,0.8876142604604257,2.272420359131819,1.290347074916359,0.8742821437871897,0.36577453513975267,-1.6223734494721918,-0.6136912135334865,0.2965891970581969
