x1,x10,x2,x3,x4,x5,x6,x7,x8,x9
2.233317121778965,0.7072023270442016,-0.8372440808492252,-0.11107292976104521,-1.2482444495904632,0.09764702166042205,3.249061579002876,-1.2446327381549416,0.3772948660718811,2.025166125699018
1.3419039126235095,0.5992745958427577,0.08368853797419445,1.8200971243191426,-0.2985212678697033,0.300495525550094,0.6348548862903916,-0.8297925034480249,0.19843339039519958,2.084132761423184
2.0350820103187557,-0.5797447807072003,-0.7804593356048822,-0.8848988923408851,0.6099344158349076,0.8697870926623215,1.66674915385146,-0.05784246339280956,1.1306398199115462,1.2662113334460712
1.3202424420797443,-0.8717782841940291,0.8183724766587059,2.8676652140409535,0.22004509803095323,-1.2245960855004667,2.195347793997115,0.3584248291907611,2.9763067611624874,0.47419780775163906
0.3178841273434414,2.92718559229197,1.1821946279557067,2.728733518782309,-1.5617208800470508,-1.1350572514996768,0.9322072811354004,0.02758980212938598,3.4318288418636946,-0.1165361045336914
1.2195635667850602,2.664891285079127,0.04507358722633806,1.0666208876071193,-1.3578923540426882,-2.3358722374691436,1.0422364681163951,-1.0891738783599882,3.1574969824960446,0.5254282635349979
3.293467050976566,2.965849147230297,-0.5922038333672328,0.450684301754523,-3.633872477272946,-1.7693707817022726,0.6022776585583994,-1.0708804181149048,2.5757113771865146,2.5048578249082483
0.2737865675770803,0.8434443011898762,-0.4112418507803767,-0.08868527835171403,-0.6576286144856538,-2.229658630925789,-0.38108715503637636,0.07896492849412129,1.4165744807980367,0.05331965477913471
-0.9701133855918098,1.814815579369312,-0.5227222721202114,-0.44188996195993224,-0.04388897295174265,-1.523725164456631,-3.0050508461363474,-1.1038167329086588,0.9413256723480925,-0.6811009624856162
1.744858353766689,2.4005370988511783,0.035360217031222385,2.9085331539536576,-1.3629397277468718,-1.7777105992841689,0.5167768829609544,0.15738916140167672,1.8847349036007248,0.6541840554386441
0.9216907892908315,2.3273971950533503,-0.5902904408860655,-0.8454677491026887,-1.7965952684411315,-0.07844687420669005,2.0590274230937515,-0.7647160772642485,1.9106557613217587,1.2259386654586795
1.026634168702802,0.3417739257880692,-0.47098154845886675,-0.667655706578304,-0.855797110853434,-0.659878969904599,-0.8517618758473435,0.8207739109741191,1.5618143233706672,-0.03554111253761692
2.196184574680033,2.232263541929841,-0.18302635477565066,1.0579260515021414,-1.018500661490508,1.1928050028957669,1.2303432472981224,1.4747945815128283,0.4275930390513478,1.50009234315072
0.09780913697769456,1.2263817862682513,-0.3565188378296253,-0.14463360091421118,-1.9275878181384585,-2.0300096191158152,0.08434426687050774,-1.0533806671975328,2.0591013204140785,0.5711734201229793
2.6687104878971204,1.3079602446157401,-1.386185016909424,-0.08826408051279344,-1.2116569721849522,1.758372747642567,1.7612431887804716,0.420991383205464,1.5980170455302933,2.182629003777583
-0.9919109969488427,1.6264073124240643,1.0270397489045116,2.226211223631725,-1.3103400031258716,-2.507172191676775,0.13406201794493366,-0.5330904106156403,1.2857644977648293,-1.3811505712024448
0.333563219141644,1.5252394207925706,0.28458716310276166,1.087494365754758,1.0486207936660725,-0.47876898990240024,-1.668509304712743,2.6366844699092407,1.3050189260677176,0.05557063043737967
1.0028506174436234,1.166028569846596,0.014016609048038753,1.221354046589795,-1.8528524580544479,-0.16424070598067686,0.9577964396090739,0.0414209855266775,1.3234836858251033,1.059598894917339
2.494582539986811,0.5622946573752168,-1.1896053230916932,0.061294999595663535,0.17086293886734794,1.2843315096506616,0.8828074382311927,-1.964838449630105,2.620165789187517,2.259456703831481
2.293423649442641,-0.9585925528274808,-1.0670415532613031,-0.3473121931687885,0.3395432655161295,0.6537568265898779,-0.2004692795158023,-1.6579696433966633,3.069630904896406,0.8569256237047329
-0.644888920671786,2.079559609063824,0.5738522623803998,2.5607245737595963,-2.2877059042176584,-0.3184312133557152,0.9359156733017355,0.8655637915459915,0.20478898209013874,-0.3121172454559657
0.92088583128985,-0.3441542913231431,-0.32271596101779576,0.0393645540160672,1.7283744996885364,1.077559675548713,1.9635525373910179,1.384688617856951,2.7809793025106084,0.7793123069278058
2.9570661522628403,-0.9138531984071832,-0.4117281424900733,3.442429918566546,-1.0676711903769753,2.843517226462456,4.044018028802833,0.24458547880433396,-0.6019314973578149,3.087063371450968
3.0031252434490563,-0.5224529917912049,-0.8668973851755408,-0.21260509478548661,-0.2522888970892982,1.2158099919359917,3.3601820706382277,-0.6566235702197175,0.9869273500358442,2.6186489658790966
0.19450180632529857,0.6046899567193564,-0.219856712119319,-0.5004790160894641,-1.7542884130518477,-2.6299136666338576,-1.401367539107896,-1.483595543577344,2.6249361999584178,-0.16358890198658899
0.47220351357920065,2.167877044943596,0.34232964309501757,0.1089102245475051,-2.630233190493392,-0.18082445257680518,0.2698872030997906,1.4031455811687665,-0.9498441302339373,0.43437943750459956
2.3175276668508076,3.3741552497358596,-0.7048826440690159,-0.03343684232866251,-1.2498160415386093,0.11533790994030413,0.2332602471986369,1.1338413652042736,0.634204513868251,1.113628914637739
2.449024939905289,0.8571743003485386,-0.09915052721686857,0.5143588943230952,-0.04861678060015201,0.9184963917669504,2.211138296805932,0.5255257470694401,3.2861841795443016,2.024465528171907
0.840865438403406,1.8217252445843073,-0.03168389178464326,3.0485060628476477,-2.40345028883433,-2.62517423812593,-0.6105660384303281,-0.9426362492295958,2.005802282528034,-0.07456308152658572
0.32006261073947373,1.4303433008345299,0.5277803267463007,0.35830399011063485,-1.3375728552171495,-1.9320991928289528,0.06885099129051135,-1.7688888506162166,1.517359534697707,0.5274182768957355
-0.6989647683197455,0.2589634463901165,0.4843755074849124,-0.5289030320062162,0.19589623950430826,-0.7002808827617031,-2.148457075523925,1.786513718852784,-0.0988391252897749,-0.48965724016395246
1.677428293440725,2.2095337518628706,0.11561583479790176,-0.6843558786338744,-0.3172823690032878,-0.5693007416109255,1.1740805793710662,-1.7503970681573107,1.9591510690177127,1.2352977884833232
-0.05688031306413255,2.292652931806384,0.1457742941464575,1.6101858201792107,0.11484787046184684,0.8470814745726549,0.38283118516432796,0.13272838777121596,-0.7988578801985908,0.783072894403642
-0.8223021579828748,0.7556808744439965,-0.32498520607611925,1.6172348167837054,-1.3020143990691802,-2.7582448024528814,-0.5622086013578451,-1.9534593711916577,2.7810970514222513,-1.0419989363432944
1.4155084403791283,1.894913685245978,-0.2742573631809179,-0.27977195656655673,-3.430470819901711,-0.8682537309247946,1.5795885661443345,-1.4400004220900025,1.9409283063395422,1.3681420253483076
2.56634543666343,1.1360267104233235,-1.0510459902350615,-0.879408410429049,-1.224158415373757,0.446441713462259,0.500821779681845,-0.8038435512733894,2.739927600778884,2.0509274395733232
2.759980853658026,1.908721358817918,0.8620280024816416,2.2444640336323047,-2.411848319865452,-2.273263620671508,0.44900961758095786,-0.24548473963596515,2.7819253658042338,1.4943269963449601
1.449077207171229,2.4867825734676923,0.2803948159916071,2.929029957959617,-3.3878046961876427,0.44121027405117585,2.6088959872360533,-0.6866313777403575,-0.863524341489506,2.028635767257265
-0.32347613831607536,-0.8874301039455035,0.6863202595455178,2.627484492140328,0.9353170906031236,-0.5062723111814295,-0.9792311973397037,0.8337990563809263,1.7072720738368097,-1.8050680427133332
1.1423082957010817,0.8897728246536818,0.06903371208638363,1.7017972100138916,-0.7026399046717898,-1.8244209727276324,-1.114360831077758,0.15559000330684777,0.5368408990953875,-0.3837259782325349
1.7107428276641512,1.2147729028264296,0.07580579751302985,1.6352212723530357,-1.29979332438578,-1.9134852202244836,-0.1903801750783757,-0.22308489629524955,-0.7588016250932841,0.34420005612366883
1.520828973230865,1.4166776148298328,-0.4789382991293186,-0.9985606099989885,-0.8869774399304258,0.6806459080040854,0.3172818249143154,-1.4597715303787622,-0.9837732880059818,0.9829028718134822
-0.8182853146123313,0.26934217731397214,0.16380094839641285,3.4076119337398074,1.2979517286189288,-1.2446177844922812,-1.4444117617686152,-1.0697182602858015,2.1739950480094965,-0.04122798784367212
0.2974872512912803,2.0324411947426446,0.08897031448137749,2.4322170486058443,-1.569177167242188,-1.4934364475105113,0.7771098821718574,-0.17953215090673824,3.038212262862081,0.3145549836720158
1.5895110824058283,-0.08281722811426129,-0.8637891377855336,-0.9387219916122852,-0.10125616059379093,0.14030238334753117,1.6400402789294832,0.5214196185408498,1.125288989511294,0.9415134189277174
1.2285002658572317,0.294112104154181,-0.26723552417992463,0.48072778344220723,-0.4912510463340749,-0.12192373993242811,2.3893345772996843,-0.7288509779483544,1.531590399698934,1.6865513087167836
1.338231918655644,0.8707704749183571,-0.5153476387710474,0.46382588716058604,-0.054645716058068956,0.5243063304277281,3.015528336431754,-0.08454630907953939,-0.5737525556434016,1.827543438527592
0.22057987670795765,2.004124949089393,1.107280706129817,3.2637220129009847,-2.9432682992464887,-1.363413074132052,-0.25783266269233934,-0.7305583920658453,-0.13694779287992043,-0.15488718867980938
-0.7308683302544527,0.08820068564014272,0.7841301378856653,2.4056678234647024,-0.47300431951956906,0.8879363458065994,2.1488069730204566,-1.341057806080422,-0.8728232369729328,1.262574551245049
3.397601971593728,3.0601498911850724,-0.7021868057201518,-0.7236637136624604,-3.6681592323515066,-1.9685980118456268,1.0621101880181691,-1.4011389433268375,3.233258283290687,1.8870061322013965
1.2044939248357984,1.6294462420949705,-0.9097044078911455,2.4438312810914207,-1.0406240909485636,-0.27560113925453794,1.9665590709069911,-0.241939651895855,2.3614774848037254,1.7187492495030747
2.138069564293072,0.0562807634019904,-0.6717635819515114,-0.8198445316959329,0.18518739276320034,1.5319754090168376,2.6011334623969637,2.293327243644101,-0.07858564626613285,1.8764711812972847
2.6916597032404694,1.6556138167196632,-0.6897709282806037,3.462384107565467,-3.2016753830215317,-1.6487338094121957,0.14274697362223776,-0.8674916218884172,2.696227492869023,1.5785076479067244
1.8461787929187587,1.2411373935467624,0.18125369946141723,3.454460027577527,-0.8522653572597421,0.23405697622665855,1.4024269332440704,-0.8279099512689195,2.252524264156218,1.238448428597952
2.0125581593334534,1.8050033425684706,0.11524021183628552,2.114377856239447,-1.6593479528488384,-0.4408964273853045,1.9546648494100354,-1.5792831056121182,1.5748490399652315,1.8806648752367492
1.2912236647031223,3.3844400345728465,0.07085844098817079,1.589037423104997,-3.609458507667459,-0.9202042547817579,1.2483642217845863,-1.4450848014633209,-0.36477224065585456,0.5696099897586592
2.2379843342459345,2.4355285354079204,-1.471639506830243,-0.8535406288935272,-2.358597417256649,1.013342728491962,0.7257600676061554,-0.41718359980247766,-0.48312790584852605,1.3368223635698226
2.4706353503766505,0.5759934782035712,-1.4602227894762545,0.6770441706923567,-0.9149159921637792,0.5334421096748617,1.8864691442389214,0.5695272641039759,2.1636443650520434,1.8121447114316624
1.1091893074412376,0.9659595494157609,-0.15625899091433718,-0.7567144578550256,-0.37930955761207114,-1.3932396234220414,0.7239252056915871,-0.3374901801287622,0.3152778768446305,0.08700412576540954
1.1650152518241845,0.2372227541809282,0.4423615098865066,2.1148808825186722,0.2974283382630113,-0.3123307492845133,2.0070118427187915,0.3328180114602256,1.8147372589479627,0.9914711061209768
0.41062451626896856,2.0625917669862437,0.47517492852101934,2.995481566346175,-2.7932077869467813,-1.4185568993664173,0.4220763201125032,-0.37324778558263927,2.9472625487622603,-0.1970952695302685
0.46228407211812894,2.552369313901912,-0.5057989564900848,1.913694138031775,-3.304655510061771,-1.6192664144562334,0.13419049136314626,-1.078472290227416,3.394254744666747,0.3612590925276888
-0.3862394337785148,1.1465325333392635,-0.3628363961879525,-0.6051354494830051,-1.3623428273318894,-0.6702434314711332,-0.1952834931340781,0.937732127289595,0.12040284988673222,0.39303348436429486
3.186026005636939,2.2754497311175017,-0.4548349209117417,0.4502478792070901,-0.8451300957017868,0.6271529353615677,0.24439432543686923,0.757366183204927,1.0629314616772692,0.8079505722948528
-0.45075410218506096,1.1402691438149581,0.7795735653461309,2.652114712130257,-1.8182758797355099,-1.8454921937287545,-0.24748606467465276,-0.789290821823653,2.612577105806556,-1.350328074149583
2.7535256991080437,1.3293004182151749,0.09039628424658847,3.12459528800255,-1.788833717557456,0.46678010746725696,1.5027847849532248,-1.1792993327335064,1.990443861352135,2.3611107654467363
-0.9165812377711731,-0.8102504484349549,0.5479620196235157,-0.7383628911879192,0.363971391783236,-0.4423428664963036,-1.6584450511101696,0.14600269294712312,-0.46442718223367685,-1.3762138014391365
-0.6620545114333178,2.551222208099288,0.520766214675165,0.14313798470589711,-3.7605397942173666,-1.4183660960491407,-0.014060799024205574,-2.183993673914549,2.156421506409122,-0.2636561740323807
-0.18298286540134145,2.7418876918199024,0.5156960099267808,0.24420785007644707,-3.7113984330376666,-2.7946318870093494,-1.40801102182217,0.08342760306779654,2.5526074191927073,-0.41552902448537876
1.3903108661375079,1.409677504913196,-0.4326963183559297,-0.20888316283209607,-0.10421839513606779,-1.9020240659017023,0.4107006317209841,-0.3127193495669497,2.9514515672551207,0.1439049588245131
0.7251461235193504,-0.5630622212907028,-0.3771323534903257,1.9771381001033506,-0.9721744594761829,1.3810542420867284,1.7066622573451529,1.9324042392783463,-0.8445466794398366,1.249135434175169
-0.7729922790873396,1.08383369928575,-0.6274792474677316,-0.6485710879720596,-1.3097139998945673,-1.4499826442760613,-1.3103773454810685,-0.30378163889048543,-0.5302095714421177,-0.9390665737505023
3.3050513607632066,0.9183806166951818,-1.0893384058648534,0.13093493370020237,-1.0524949043132132,1.4492460748145706,1.4238689404800715,0.15247490405634714,-0.7277276964079358,3.10976923365881
1.1546790985369642,0.44986357947583944,-0.9018909554324535,2.5491509653108926,-1.839497734739107,0.09256094255771319,1.1662103988139456,-0.328053897186317,3.4536485247518236,2.4148442583194507
-0.7566683680851881,-0.8882686834457635,1.0537264733171319,2.8141373178504536,0.5140211410573067,-2.3497300930005673,-1.329839926316283,0.481414035511265,1.4234631148365424,-2.0374306440849543
0.9304813771282594,0.9109148460231355,-0.3901522516959349,-0.4815818441129748,-0.8704446973114048,-0.25574070043078106,0.8075743739496621,0.2651620720231407,-0.6857642667517743,0.4150327416598121
-0.7609972128303779,1.6836589987530681,1.329637122065283,3.2970373731228237,-1.5965135324478095,-2.4679878711859775,-1.0751672780383272,-0.32383383217543105,0.2092471588703042,-1.9788016159361932
1.6098836616224537,2.3138563910474903,-0.04996346844893345,-0.24204753147117863,-1.0108640077717046,0.5110668154972715,2.1943789417638433,-0.03618770953999888,3.434019059459584,1.597868800555921
3.263985212282117,-0.7870863152682505,-0.3410863664079318,3.3648705179835403,-0.13762293616712284,2.0150160890677054,2.684593749762969,0.40329374931157047,1.2092288620794345,3.460426033194587
2.34555846959393,0.9747819940751739,0.11330010376181443,1.6692021642064283,-1.4608429643970247,-1.404317878108396,1.9275561543201825,-1.6018651327504916,2.5986961853342416,1.1812917873812943
-0.3384673333832442,-0.7863184059934692,0.07539114026118396,2.746444506029994,1.9404477761867032,-0.2740081479736551,0.7177217749816782,-0.6107603806970858,1.5029180144601533,-0.8544747332360794
1.2698329109225899,-0.049717136051598776,-0.18476857381282003,2.0809500809296546,0.851404774605702,-0.8308378790539883,0.24686821649911195,1.6919451400521521,3.3658628421904444,0.514207513419799
1.166066193692004,-0.9297742444008034,-0.7938735023860746,-0.05917211417392998,-0.59714845937264,-0.7297543539010993,-0.26593597123728546,-0.35390429067028123,2.549362094502438,1.1008332250981232
1.8160225897551419,1.9623971317332427,-0.6612396683636488,1.830604309303086,-2.0219791355437993,1.1648820244966878,1.3770206665697504,-0.22293388983277304,0.8114843115962056,1.8727727334813713
2.162724042892304,3.1777294787190566,-1.0087522735327406,1.0369297864733555,-1.5388358177050545,1.7460036020893783,2.8497473046909683,-3.8363682574396814,1.452130400467634,2.9375746852575624
1.1514792888984826,1.1551695528849528,-0.45168188600280906,-0.560597034664895,-0.03667997439700416,0.2948981795402843,-0.35820493783915436,1.1594161100966442,-0.9356320379979691,0.2819615247990265
2.2744079202652907,2.4687033927225457,-0.22848516989291137,0.5320683880791228,-1.152218274631047,1.198641403552453,2.5200825708560957,-1.9790584898030033,1.5350910124628028,1.8412380450478647
1.4569611886235738,2.424295755608746,0.0003477655487620357,2.974660294421975,-1.3380652309552057,1.9257694131696026,3.3765272424823247,0.32804581948995676,2.804058106989337,2.4064318247610004
2.0568021413507127,-0.3534219401716051,-0.27633031986882073,1.4519288967990978,-0.7944098432546104,3.091898809435925,4.492403485702355,-0.11569715529400272,0.3101496862130959,3.061587043927764
3.309835262576037,2.2446275348583047,-1.3569170567868636,-0.6115538632502892,-2.780895341941229,0.4277033308212872,4.820308859310778,-0.9597215921695056,2.424184039419143,3.7354696981674826
2.825608357414432,2.3001084729198973,-1.148541078259802,-0.980187532947454,-3.14073751492599,0.5070410574532553,0.9996972357314171,-0.20351048185615028,0.20424659371561726,2.0755767121324697
2.2775365064009705,0.898904970920368,-0.3459593740892569,2.2359864614979457,0.23128344861240177,1.723039770647671,2.3942568587167075,1.3775635461538525,0.30773200168602854,1.8135477768699524
-0.15687488039597053,1.4456910259022684,0.7594878221273282,3.18135915662932,-1.6492523709987235,-1.0899211901799486,-0.24470886208686357,-1.2859625767224478,3.2939658993315515,-0.47621647315114746
3.087298418511118,3.046971729222589,-1.315059264127127,-0.4695779280633886,-1.8462726875506232,1.598211320154465,2.189106914143115,1.7466583983720487,-0.5805332087532259,2.5921672174083397
2.9699856185480606,1.665952758658054,0.08226613394801838,2.4788909883971444,-3.4711983821933594,-0.09945886104535617,0.26989146706804046,-0.6060962491459512,0.6478232923418972,2.1047637033052595
-0.18020287696597193,0.8241667394857577,-0.9585030529516547,-0.19303274256621283,0.958163199874571,-0.18066348509489952,2.1273149679174903,0.1830609632384705,3.2539898539528123,2.0257110373400935
0.24287399648721353,2.11767378147718,1.0646676612944588,0.8918972041155198,-2.366189754235734,-1.9445637744150206,-1.150468705036406,0.46817759095059386,0.014596957890138595,-0.5805395276905123
-0.7208356449478794,0.714791031373752,-0.09277618391822284,1.0253238584399593,0.46976160404768313,0.25517842895964243,-0.5007101690703135,0.5396878796672113,-0.988735339610304,-0.06924253146607268
3.142371953149131,0.36991230311615975,-0.164388742016431,0.2831802568224231,-0.5058702070835751,-0.7012175795237643,0.6680299656530688,-0.03758044852979252,1.7097629994506414,0.4603791520916456
2.9082661533640213,1.2665262291307764,0.6663510812433833,3.3014859823721654,-2.4109239237559628,-0.9180180101972679,1.5227829185699207,-0.9814783578444484,2.18166221401139,0.674815008647481
2.0007170434227937,1.5771984934998686,0.11677692068523271,2.164340036623872,-1.5962541908851422,-0.7332087105863476,1.2724736616109564,-0.09706037513841215,0.627936534343343,2.032624852557341
2.2223697462937366,-0.04111715361946111,0.3045676852352499,2.2833783567413266,0.14994669077632786,1.9655067494929706,0.6286786328610369,1.0956205694922763,2.123904085966358,1.514609596056634
-0.22475960373769754,1.0259182958753903,0.035777820881522066,-0.6677029172280142,0.3861490862944058,0.028167106210914672,-1.054858195080497,-0.3904691120452688,-0.3325478237374141,0.4292769484633972
-0.9520667325926571,-0.9468186536984364,1.3540287514594402,2.5923721027827615,1.100685456691589,-0.9231857554150554,0.026061818839505816,0.8308733639346098,-0.690780967340201,-1.2775346942148151
-0.4286313154260615,1.968750775297016,0.4442298546534539,3.103363611283055,-2.9447082522330765,-1.291139778871015,-0.5927443447633561,-0.04086901030340317,0.18303480313584264,-0.41537237407785305
1.3542055840349807,0.303371421155495,-0.2632825139635692,2.542567844072912,-0.28299121317318005,0.330070988935928,1.6538424872441593,-0.7792313937741511,0.9293158703279463,0.9757731732515974
2.190853617650019,1.8774909187456186,0.22295256683052234,2.038930726638473,-1.7740722857068618,-0.2393221946397025,1.1490995686906618,0.3983609214998928,3.1072077345672735,1.126824546853644
3.4638857886465884,2.817174588519958,-1.2173335207242375,-0.49718952421275575,-3.620651108104565,-0.3386598634834608,1.1957261238287769,-2.308608602167972,1.7785346747072621,1.6979456755078841
2.5401442874283693,2.121069217182545,-1.1206169901917442,-0.455966277109926,-1.5934821414948017,1.7855299702706797,3.3702895168739824,0.13263210426057181,0.8518131395513333,2.7478856312558677
0.7941944640433596,0.7706836731501845,-0.25464862121178555,-0.2700079699299145,0.09014757376533546,-1.8130482330091444,0.10356193485893694,0.27508355416785846,2.625159841920899,-0.6289220805264293
3.106853547613606,2.24130741181754,-1.6869146145983018,0.06135083885207604,-3.0164185711704232,1.8718830099313717,3.0328484898996204,0.2934389935817266,2.371905507756553,4.235160157101897
-0.6728947995194925,2.6798530464011776,0.7523322383765769,2.7861702742247085,-2.610645687411718,-0.0406644955210127,0.2576814979004892,-1.0566083586358928,-0.9497116276909421,0.051189099780377154
0.047349116005546144,0.11887107904893668,0.4911679241526222,-0.4340761571144691,-1.276669908694105,-2.0069034987193577,-1.982236361922465,0.3272035879183485,-0.7258363926790362,-0.7612984255483853
1.3368267076159763,2.754261882746146,-0.3738528687146572,0.2279842033037116,-2.126322667947405,-0.6847176966197325,3.415351894116993,-0.40817515342243527,-0.5452122493140001,0.9465649517053745
1.2574783728326868,3.4415795372266906,-0.8401132815648913,0.5784412573083957,-5.077325939780131,-0.6230455904460641,1.48636444567591,-2.593854258716682,-0.6360255729337949,1.5639115818656582
2.706576134925086,0.36577252130906546,0.09429373239347344,1.194279418819677,0.9824362022191401,-1.308113498687159,1.983743106314172,1.252575043260517,2.4016499397100586,1.2922988047389457
1.2879267635647444,2.240146751612965,-0.9428662069966143,-0.0993356483833473,-2.908025366368744,-0.18579274820464065,1.2566160216097322,-0.7323644751398831,1.1316355320793505,1.9821119932273203
2.791539503244293,-0.05468446418484074,-0.6663118044168936,0.8657353069167804,-0.7046809511492906,2.629095318798411,2.8164886957465733,-1.2202966566093323,-0.6522036067661419,1.9314707952313537
-0.9585893611299049,2.5552217645573494,1.209959620425074,1.1836414023376953,-1.9131026349863571,-2.7161521602850844,-2.467859566596201,-1.921964913268004,1.2259215011949953,-1.3214901366490681
2.502672658085954,-0.7546696355008002,-0.48580308396985383,2.975330160079777,0.21167540235863802,0.46552428099860904,1.9251400492157351,1.1325536600364061,0.920012300440616,2.121174406513883
3.0737286158742405,2.3447414379845735,-0.846796579689836,2.2821941606743175,-1.4660653646060005,3.833269449009147,2.2857714923287635,-1.1658932297404496,-0.8114786989830125,3.9273972731219
3.1165562365405375,1.1058144325125085,-1.2823047446182505,0.7616925591153876,-0.5854165685783728,1.0419186409272145,4.003734417126404,-0.3601240794378111,2.9798544762782706,3.3551503105286997
1.5728473301805872,0.31084727065124307,0.0660168795315132,3.098501078359021,-2.3858242044292317,-0.9052456539248283,1.2685271823468005,-1.0624694639331906,1.8108054657891652,0.9682022323401319
0.9992615344234794,3.4190637991232,0.1487794455248306,2.686970674467458,-1.8001786527928245,1.406965568745336,0.02107905994934914,-0.3648025283808492,0.2952567859249573,1.7423999735217393
-0.2033402115740981,2.0749381651454772,-0.11240841554775945,-0.03559574798118703,-2.8081534124761447,-2.4119142067758554,-0.32183354540816267,-0.47309875678900887,2.8765110134740013,0.4721684365879201
0.012929791193217799,2.09254257222517,0.004423324297109267,0.04176937241710443,-1.041318861392786,-0.7906315029220825,-1.5528153027094094,-1.1257399088907771,2.1206112876024754,-1.2336908226675398
0.8691879450819953,1.3513555291600903,-0.7999113771234703,-0.6263413022637307,-0.3693470576008306,-0.07914493923332565,0.5134142143109754,1.4052990706908408,2.7998848951573376,0.2657342079308336
2.5076024678791664,0.2929635516414899,0.1975671700276131,2.972515015570152,-0.44903330351403353,0.678459294654799,1.037038461672406,-1.1963237269792475,1.5797491521533167,1.8415436412830604
1.9239441369094563,-0.678174280460236,-0.4309718916422124,0.8812649708831775,-0.960068999070897,-0.2875915020305448,1.5510442859904325,0.7558909186083755,2.4149824439570566,1.1581208109738028
2.8491057788380165,0.3748265383747875,-0.6275801055123231,-0.5911546326320339,-1.1484250358548769,0.3629512534363599,1.7112251238819243,-0.3629511760307825,0.9088892887228479,1.689652498888653
1.94679776854667,2.738045805809359,0.0474195836668625,3.1445978565579136,-3.1631076106958633,-1.1817481651964612,2.8613449356805827,-0.47887908601965706,-0.7621851530784578,1.1019323358828792
-0.4455793535820871,-0.5809199266781189,0.5709108210829719,2.7334687890882146,0.15548694831024193,-0.1567721231170857,0.44000650168927885,0.9283575183498866,1.255110978733406,-0.4552482253723263
0.440257074091565,3.247787395730751,-0.017350793172374424,2.50722890802599,-3.1290872149461455,-2.826247114667459,-0.5854563999172175,-0.26265546117605154,1.5152050236314354,-0.1238838996016736
2.3763536113029975,-0.3481314733631099,-1.1301571197860922,1.1234836239646033,-0.26839552897424035,-0.9621090491281862,1.8120600280594044,1.958161815042087,3.142311393030986,1.6769456729906413
0.8752900123619884,1.76383445120205,0.03306257199718854,0.9976840686057107,-1.4720128745964205,-2.912826805362505,1.4216075059839288,0.4167744105688119,2.1246764939145075,-0.13810763552005456
2.3268117724483948,2.278070621529598,-0.3502124189587118,2.1964334975553954,-2.210295785624502,-1.3020236333226272,1.3042584122104053,-0.6931778174677369,2.1788820075829056,2.058711581586993
0.6794199483285774,0.6416719849559933,0.07021449782554273,1.2105705507358633,-0.7937606527979023,1.6914625289203027,-1.1373935326323754,-1.4533309726435026,-0.413768555388346,-0.09428858208265477
1.7009894384495166,2.462893102849506,0.5771039485795306,3.0982945597289104,-2.3987815065840907,-0.6798838650796374,0.7684144293663386,-0.5724630565822565,1.4076492607501545,0.14992489327652062
3.0088465700096023,-0.9970900008071181,-0.15258825452851585,-0.23552408028330918,0.865843412223813,-0.3356493328167974,0.16609418795326178,0.6197902516226974,2.2076687074205057,1.455127257868492
1.9942562317987749,0.6740795281829874,-0.724304533569413,-0.12784656055669918,1.5879423143712346,2.2553060085770626,1.5398611497901933,-0.18456156101759297,0.7370510669675832,2.6173344927706164
0.05810901302789806,1.4881892395804814,-0.03683421494474787,2.3873248255184647,-0.3411680563192562,-1.588946195852296,2.0179380876739184,0.3411707549843756,1.7115786758303368,0.9291566389504233
1.998433847056166,1.1341506816526885,0.3986206818304643,1.9282717877278834,-0.5444579173310959,-0.5789194590898891,0.3708319126672311,0.5031185609879153,0.004000432396759734,0.8030803660344641
-0.8659707964430192,2.7684175038129437,0.15911637086506758,0.3016606526029908,-0.9989250479147119,-1.284106597691343,-1.4264592253064565,3.032561270037702,3.137027655497393,-0.38313680753542384
2.5854040540598917,2.2603860762263865,-0.4812820986726121,-0.14869383063196884,-1.5861441004825636,1.2001791453157118,1.9564803682899723,1.2033878032234924,0.41689274060359116,1.46113056790899
1.8411298300790016,2.4271999553069508,-0.17617384281998652,-0.6061538947233738,-2.9235610533624863,-1.4579132545242255,-0.7837181728887596,-0.5913149553844319,2.6514212588129893,0.7840653993801313
-0.9886555447403104,-0.6587618000777195,1.2424708788297958,2.1561545490203606,-0.07349971510745212,-1.0046811661292931,-1.8220127238892163,-0.6922749333376207,-0.4746205824306017,-2.1959536081297713
2.6457194962433372,-0.8615765866296194,-0.3079212355575211,1.289229622276118,-0.7028752331754453,2.2117500329457904,2.6067568498323124,-1.3789955553535869,2.6535863275747444,2.4988766722622575
2.1143356093757215,3.074858536943359,-0.9253652634873745,2.2159985627544723,-1.6068457378654675,0.2219474229111068,1.549612884035522,0.1877305559102462,1.3080521851495246,2.155515856620127
0.48379288071552207,1.0294591364698658,0.5175180544964031,-0.6439005782403232,0.6178316836530022,0.5180195693246977,-0.4061042247464515,0.5378979638305601,-0.35309719330877376,-0.41627659792382327
-0.3643174678036081,1.948795551904316,-0.09938041993969135,-0.28476426093740315,-1.3617192455304845,0.6867354200301201,1.264528149276935,-0.7826493923902654,-0.7264745522776077,0.10744401680556111
0.5107214378865077,3.203484788923605,-0.8339898831146809,-0.17004678806365792,-1.487937071770292,0.07653059640251503,1.1333131896457505,0.08935530789621886,0.80477877792215,0.808670270373545
1.1951529082110577,2.0494221185659924,0.5448081337137589,0.6465606018199408,-3.0199945528405867,-2.7759483666023206,-0.32967074844531075,0.4925456300817732,0.6587512011431527,-1.3110538108380503
1.5414892493319248,2.697768538765995,0.3245159436080452,2.942774775606383,-3.187998045996281,0.5193898277821235,2.163774691109691,-0.24214208107620072,0.2632708916977142,0.8238268721663634
0.1301320482520698,0.9026003174953929,0.46955657832687925,0.04321870643877812,0.565070389515355,1.5998356868246209,0.0792381463831458,1.4246482625274064,0.6371885476373882,0.04810786947178193
0.7078730100875377,1.7228854695374496,-0.4748534974545453,-0.5872218348851781,-2.941823609883323,-1.284253963857688,0.8100305420104491,0.5229986260138727,1.4546535217040377,0.9867835513374199
2.96342975658879,1.530684068652418,-0.3375539814776103,0.31992731383491835,-0.2902674690833585,1.311962492287231,-0.7130697904510037,-0.7829648640310319,1.5078957996268283,2.3030683445857356
-0.5544871069554078,0.37886720061377965,0.5060402433370109,0.07238325256866407,0.00917173994335157,-0.12727464138973088,0.29200773896700755,-1.5591416257689947,0.6589563897351878,-0.25855909195659027
3.4508857660563326,0.27967857076739766,-0.4251105982045923,1.413286931696328,0.08958307098402082,0.47187870347554334,3.9516228419781902,-0.9041461472220843,3.350982087049859,3.1838524956637264
2.9967313778710944,2.7808963306466437,0.46840261284756646,0.4857101303540574,-2.334856520351441,-1.0656913505840184,-0.2817672225537158,-2.36071557817215,1.5867846364097855,0.2922713329597366
1.8951992825408706,1.8241910586027665,-0.32254623156370865,0.5357659168215352,-2.7061701207500626,-1.6138822364368215,1.7650741598775173,-0.8329527342989712,2.6362459042587094,1.413861198833248
0.5492948917368095,1.3886477792211291,0.04340750916577718,3.056313310225252,-1.1453826467481516,1.5963110214886107,1.6655130611224798,-1.1429457193706885,0.7620816805305675,1.1835653864450897
3.359849238683582,-0.2681987033305099,-0.29309218901859035,3.208058098462815,0.4469573038910314,0.9084019737015936,0.7121921703509095,0.7295032379832379,2.8451894809189757,1.6883788517810039
0.04008572469399563,0.8469489104651822,0.07028850240862236,-0.25430456415192126,-2.007157677202698,-0.3087490497068852,-1.238346599570916,0.5657074784694972,1.9453017011643592,-0.06294546554268267
3.253369834437313,-0.1360937384803108,-0.2331409359277813,0.6189841907489206,-0.0307819662281599,0.5164596315509011,1.6679302638214035,-1.0481043966911399,0.4763613514469054,2.0964994826933423
1.6665907721408062,2.5739541015156067,-0.4472401159863826,1.2896859592035943,-1.57820641277766,0.9105827152111979,2.6383989825349126,-1.0675182948178386,1.258679514022504,1.8238722383807269
-0.9467307855200022,0.3300290733604181,-0.04973409681085115,1.9645344857009044,-0.46007373500304954,2.189758053119931,-0.3565057563094757,-2.3558110193024064,-0.8582519594999668,-0.585269659752982
0.0006444661202817947,-0.922656193244201,0.686734364797196,2.2471818281709934,2.4935862062118663,-1.2305928159839628,-1.944146597706288,1.42422221109887,2.0524331892965595,-0.8445034809138212
-0.28023411978315504,0.9474368203059671,-0.22256167390897802,-0.6410150365667187,-0.6207000203690335,-0.6796425010927476,0.47679401069660493,0.2068577344134332,1.1431758102363618,-0.6701376311754673
2.2316622878489163,0.7692600255625539,-0.6529254609873303,1.4915595084832383,-1.6489521039245243,0.7340347856538882,2.486248907696184,0.7019090082638354,1.7098106578915346,2.866937122270089
2.0319976635214028,0.8005709332858428,-0.8437481867947277,-0.09848924877910359,-1.0415478984476854,1.7801773373210765,1.5637601784345634,-1.1497816304211443,-0.5308826549901435,2.760486497256599
0.40911674254707386,0.44055741321339315,0.3451861673957105,3.1571108506138215,0.9113276066990096,0.8927462723089212,1.2722164246044632,0.22752872252013245,2.42453401256216,0.49422806740968694
2.8870873436124405,-0.8998388687004928,-0.48830321770947327,3.287576922894358,0.4413951642796805,3.7254852097802167,1.8052783836508337,-0.6231931720668287,-0.21378474633311317,2.9902542904469
1.5684521648077259,2.501807846848618,-0.14397801260836818,2.8759523896010926,-1.3197706924514003,0.10237472706272352,1.7750057692188348,1.0020192721516645,1.469615856002144,1.0345488528167701
-0.16060698037321497,1.4628583331657712,0.27670725561426535,3.228434684428775,-1.1545420935610984,1.3659958636627656,-0.18664698622062526,-1.6648315016436066,-0.5510454204580679,0.9984771236970359
3.1653153026432896,1.2326621397368624,0.012869382914428074,3.4440473303704318,-1.0084400194925163,0.5588111296703778,0.9752152048838696,0.00313250286168146,2.2788968518200488,2.121859495651208
1.957845427912284,2.984440083207222,-0.7154359735563034,2.374117910338108,-1.7698779395781035,-0.6910311258202464,0.7805247567413924,-1.1212154691726592,2.889430334249882,1.7885729564744837
2.5081415058768184,-0.9114013498516973,-0.27650844390616003,2.808529931164309,1.5329591115827506,0.587945508308574,2.6298853495193932,-0.492001450323756,3.2873664298302625,1.6903994049645377
1.012898317185218,-0.9681446006567912,-0.7406558685352815,1.3836326357506517,-0.27663955618421804,1.3154483917248938,0.9192884597783735,0.6874477098780887,0.7275888359737435,1.6282840755087369
2.27458234053279,1.5793919768846836,-1.0205328990695215,-0.22128522790322158,-2.3218845582287053,1.1885816199200372,1.045026593473904,0.47113266430742373,0.9461484852533981,1.6475095417521288
1.3058622466431853,1.783827343715402,0.504368876686675,-0.970903229495198,-2.024904454981072,-0.942600615431867,-0.3693754708612898,-0.1588942653552162,0.813891743132632,0.6610200419092975
3.1232274915607636,2.7509441448730034,-1.8764742565463546,-0.9894082775987444,-1.9109634799720145,2.709121215472792,2.0564657759018696,-1.3916728863518106,3.0200128951368415,4.501992834494347
1.5529243907971506,2.1662491110564446,-1.236035051161347,0.2061471013275169,-2.9797699667215944,1.7415673331984582,3.0986735741186506,-0.19457942953475016,0.35318219657036165,3.560264279315862
2.7010456559510065,3.146812311056207,-1.1522121610999618,-0.1563664892111778,-4.885003975391694,-0.8566161546733488,1.9755891998269548,-0.5376360817784055,1.8600296050056895,1.9847170891646682
-0.7374462069510359,-0.5971649840626394,0.2157541340481202,3.181299950359194,2.643932063009106,-0.34064051491529823,-0.15430374935500482,1.4420680212721853,-0.16773354126330342,-0.13626703959944342
1.8812528449284787,3.271833635615036,-0.18169612402848143,1.0459755828129693,-1.6436195656220718,1.9473543260009487,2.082444457503543,0.6322472144661768,1.7587568065651058,2.0473670142736693
1.4134249725926002,-0.7003605136282192,0.1236552432736151,3.023039567139506,2.4078905680816,-0.011246500449752617,-0.7590085881371467,-0.46133752822416885,2.479920334838201,0.2772670724230298
0.22945172813045778,0.06891161874618246,0.6868960523689092,3.4372655196375685,-1.3573128960633551,-0.7485176271362907,1.4539013670519658,0.8608996583024707,2.475829717751089,0.8991143937268435
1.4742484117840853,-0.18647989296223155,0.01702533799137479,2.286746192715101,-0.8668316229501905,0.16074681468089147,-0.3319989052318282,-0.03690195080781769,2.9392060808954286,1.2715553699654456
-0.09540422637760748,0.8850393245082515,-0.030684125374023347,0.8365716440389543,-0.5656337357427192,1.0449591760946717,-0.2381717064339549,-0.636158626781124,1.7955301541543904,0.28567139872795105
2.9088078739586973,1.1145915091407725,-1.1083198761721111,-0.19567802408229895,-1.3268699035896876,0.5346502217902541,3.228798821441986,-1.502240631682901,1.5854780658687782,2.0854071057141033
1.218829325601003,-0.7227024194188363,0.47063792757374245,1.860043481851691,0.051056738987702875,0.8856147144883698,1.4729310448292827,-0.8000931207017763,-0.043594828810969655,0.9534342917951666
2.4262143376118397,2.9114172993312804,-0.21674273616631862,0.5584869361767164,-2.7522541538520047,0.8438348468850327,2.496480525658837,-1.4153126228169746,1.5819390204230488,2.1908041461559846
-0.822539935052983,0.5507594596404026,0.9737021358808258,1.4113938538182476,-0.10672098669737645,-0.5366014431269905,1.4319256355314194,1.0661517595417185,0.0559938218114755,-0.21040113489533346
0.6919842118036821,3.049605786505074,0.6302676801646326,2.018460837162563,-3.7449491568030564,-0.36206632530872696,0.5672484513369946,0.39481305587050936,0.7159842062512287,0.8174292971876659
2.33076474250954,-0.0922364932430837,-0.7417518048164206,3.049736500478926,0.23416342854254352,2.1515140386495077,0.13148271480683163,-1.538491277545983,2.170601735140809,1.8655249284439699
-0.44603280699221604,1.6861219591460865,-0.3825696836910959,-0.22229220775912228,-0.9793210609108288,-0.13518957240780882,0.4169390927644033,-1.2290080330849353,-0.2557676479069697,0.3305842875655455
2.1794405931150713,-0.28758097722329434,-0.8775987960339552,0.467993701325502,0.6282639623733497,1.9045191048848327,1.5679645658041215,-1.1947238134627398,1.8324270066486084,2.5512453274722646
-0.9708154796168426,-0.9568754504362643,-0.8463087165493186,1.0126881473821046,-1.1577296408421776,-1.4650315474585942,0.16931633070142485,0.03208470441817458,3.2024974735714666,1.0533442666528845
0.9905771902651916,3.3483326291394357,0.05830700095442698,-0.6810647418658465,-3.605101621117075,-1.248552216046734,-0.06003700624535302,-0.6909695876434334,0.13078736430794913,0.28630282197193235
2.136939047490165,-0.4143709487935592,-0.5682576239485744,0.025913830660948767,1.258001832394298,4.201671511567859,1.8363762695620685,2.3766340492391484,1.1154815487685594,2.3295879950398617
1.9349023320075736,3.0771949771995537,-1.8286805835316813,0.03206483506875335,-3.4753969493508743,-0.21560794158510843,4.468872477308027,-0.9496899647279602,1.3358344308417727,3.9322793000036507
0.7033791340548194,2.628097801479905,0.7633358066701846,1.8815871017346426,-3.653461274842125,-2.3715376359939393,-0.19418831286061328,-1.4987789743034343,0.10761262346075329,0.32067905999418306
-0.679006582538607,-0.798019541408237,0.07590773937666967,0.02594233098693577,0.8538131406389216,-0.34665173575888747,-1.1320008375954083,4.095889235033352,3.370418730111859,0.37562932560349976
0.7515458206222909,-0.7125615497125218,1.1737156337386982,3.3374657118140263,0.9353096942592983,-1.473223856993009,-0.8409678775076791,-0.11785474384598274,2.965166733287327,0.20292161027525848
1.531771766731683,1.4648942145402604,-0.687663019794482,2.7232038470579774,-0.8674288723824166,0.43624306181955497,0.5712255643164384,-1.6339655276595733,2.796535491166022,0.8414894731696866
-0.6315979415825581,2.285822990400893,0.6364138055373693,1.6498880189288148,-2.413450608589846,-1.6782274635026848,-0.704156802752326,0.43026078524849176,1.013712737500589,-0.4248629197938583
0.8593809898970952,2.9815959712139706,-0.7784446805196081,-0.596313272883809,-3.404886322429905,0.9639936501047321,2.081890665192645,-0.2746993479265038,2.9932207125504733,1.810930986955321
-0.31041121456612275,2.658621266233356,0.05437201753204372,0.24866436948917636,-3.778860276036163,-0.9183109259146728,0.4997986233797473,-1.4257425678833198,-0.005163983298348884,-0.7185413808705247
0.9006355654092542,-0.04607214003393445,0.3886890796399134,0.17469852746577863,0.17506701764224886,-0.39548024149731636,1.4454718855038888,0.2653680948674349,2.583041503901674,0.6888917430101283
0.9658074265484005,3.060885452568682,-0.9789058698573537,-0.24483490894453108,-4.671017079826563,-1.5766953528674912,0.639186722394593,0.3074543308515991,2.401034417413626,1.1197047128345576
3.08167902675853,0.5119664398107813,-0.07479193790283445,3.135522524631205,-1.5357838551317957,0.5842605148992255,0.16316500944972756,-0.5031262702730265,0.5389765341839339,1.489589472305771
-0.060202231800350225,0.1343098745668383,0.02885701588948386,1.0552017674535437,-0.13342689817357592,-1.4720659770217277,0.3930649245536788,1.4425700670862278,2.8793392303767344,1.0242864456453515
1.5708811435622971,0.9355149479536216,0.26977807257894937,1.8214804724502476,-0.8375876968070043,1.1242358882835235,2.4940722516298752,-0.7472151702400165,2.685329599116254,1.3711981145049665
0.0034990745965719494,1.009281740619027,0.612120388392877,-0.031593612460560916,0.8841806892227523,-2.180268888705509,-1.193563124725678,1.5684896513123463,2.810855199885934,-1.4412389590688162
0.5197096494029483,1.6948217843883513,-0.4029908396184886,0.4031597742453912,-1.220701828899531,0.39374401173788665,-0.8071387400862935,0.828991598078407,-0.619917073846378,1.0042064041798393
1.8088057707963294,1.2293937416023164,-0.19252570086741844,0.8103122868827877,-1.0276550963925064,0.8858840934132604,2.2798106096000255,0.3417696350208749,-0.8242970686053355,2.297704203836996
2.8193379381275703,-0.8837038914459542,-0.7476220862506786,3.0722797967966633,0.9129140291089864,1.4166421716665407,5.749535483549556,-0.5388931861329929,0.5527919840651694,3.720961498253307
0.2826584021167129,1.4546886043727252,0.1787785035112767,-0.5865047850309948,-0.1256885968466709,-1.5168771131515073,1.440100703995694,-1.490999718423418,3.422872170100738,0.1742071778311263
2.8078502784887895,1.0430189125197153,-1.0090146169993683,2.1260765180683063,-0.10563374499086935,4.346437846152152,4.646583605132692,0.5354522515873495,0.018646497977604426,4.488496592775004
0.7952130722039186,3.1657508340986578,-0.0930793196096251,0.2335282373585872,-3.9246947637213863,1.2672086493466117,1.0148411405826396,0.3440260578714844,-0.8998008371634452,0.8100126879766577
1.711209744352979,3.3085175592335467,-0.43911056130083226,2.560418727501946,-1.871054564162937,-0.20883372658586752,0.30519074919133055,0.24615295793452313,-0.507385505649728,2.0752237144297614
-0.07437262125592425,2.2259406352890494,0.7509973268881666,1.6511071735849456,-3.3936820252085704,-0.6727343074179606,-0.20298917257750085,-1.110621296471913,2.143583009668256,0.7862402961354826
1.8587908875637358,1.0617194546082258,-0.09488275293579987,3.168557335568101,-0.008564856134076104,0.5811779434867563,1.7937026117674968,-0.9058485670010251,0.17532127613778425,1.269252641513516
0.4316020162470924,-0.9663424269820147,0.048272487691195666,-0.7356516550045635,-0.4616461811819654,-0.9944014576188092,-0.3661711252231436,-0.2887343145132274,0.27217232236897004,-1.6388856458356222
-0.843982028547688,2.0644732959330248,0.6038376855857903,1.2415456653766648,-1.7409333660113717,-3.8096478685002575,-2.4065328790355967,0.19908780208372098,3.409362327661545,-0.8542853933455845
2.238212298508738,3.3781624817591362,-0.4426830348846135,2.558111391744261,-3.324015488521067,-1.5904054713156497,0.8622721663938748,-3.30155747111209,3.447638695565365,1.2081827470361741
0.12326042093934841,2.2173051342638685,0.5529777110676081,1.6356157293758744,0.18492934395984428,-0.9251802124381211,-0.7260158748135597,-0.8033653256155577,2.073513833687162,-0.3285026570828786
1.4050273528632515,3.243882564848777,0.20342734142462854,3.106359973167299,-1.2539969675333764,0.7641566418386634,3.0012104922169422,0.017354638790964615,0.6861065076801243,1.9235659152892581
1.4706004707655356,0.20816234147447465,-0.4406517127519803,0.6315222799927425,-0.3640752515887779,2.1313467277096256,0.7011049867960284,0.5517257060860198,0.5005027120043049,1.667119051357275
-0.12972234325429677,-0.8767391261063148,0.3372201320596256,1.524158653520019,-0.09191363071337987,2.180784334327489,1.5089021746927909,1.1029538863430033,1.4110538261632475,0.5960029229065019
-0.9469395396047746,0.612596893098156,0.8182877124867382,2.9466069537566497,-1.0514474134779015,-0.20887188724590264,-1.6677661350958077,2.282011816415084,1.1255345378390795,0.3894635712045923
0.3479821783033421,1.9185846960742485,0.7446293339146743,2.9724366586866515,-1.8603572172636371,0.24063693072717646,0.9903507406760794,-0.4880002854905506,2.810437988356642,0.39969790409404476
2.6055519387515798,1.8089231931363972,0.05332586475931278,1.4619702984559488,-1.2204878584278882,-2.114327412708003,2.392852237838071,-0.6458159198221073,2.148080745325764,0.7460246721835053
2.752457066487466,-0.3991081576712112,-0.6079667554915282,1.9656847116610963,0.6433995929414356,3.1313038699499907,2.4543548206361767,-0.7579151201764824,0.807111615935328,2.021651663522157
0.1634721268624435,2.842851666821011,0.18339667735434043,1.792374325959086,-2.7645589664839196,-0.051712082988986885,1.3240520240396316,-0.8623071295390801,0.09709035100068175,1.0299718042970538
3.031666171804096,-0.5521034498778477,-1.0779854607010768,2.882087926759746,1.8360057307077844,2.2816386404910456,1.6979806761700746,0.9754792913487648,1.781594941968772,3.380752046107559
1.4859492611448828,0.956298873025559,-0.2055417252350583,0.2873129937449084,-1.6654645587279053,1.1212978264022957,1.2200202084740885,0.4808780131961461,-0.6532282517275438,0.7624648903876486
-0.9387305766244778,0.4913539447201092,0.4112564018624211,0.725481083067071,-0.18176894799857843,-2.6108374395617666,-2.298392132149583,0.030150045692451412,2.9876582547624118,-1.4603272518321477
-0.915081872540755,-0.45755567972339184,0.14408875751296113,1.9644010488354646,0.6705502676444589,-1.1274072796079293,0.5371080114226354,-2.1387552932146425,0.004073328030381296,-0.2781815619268768
2.240161899492361,0.1336331021364605,-1.253611603102931,1.9691042896938038,1.6209684217874505,2.819129945130321,1.427422840397921,-0.666951844225783,0.9799963058024759,2.12549974411006
2.1657832461940076,2.8498722684822173,-0.29598458988026305,1.813314948361366,-3.2487814137781297,-0.9913220074834762,1.8732939983565544,-1.5326051474029818,2.7883576717175442,1.9836815656570093
2.4630349139056156,0.8581511245866178,-0.11283445422523847,1.6137656480119307,0.19780150649161232,2.482504739299359,0.2494106254575099,0.9954834175656418,-0.856845272977976,1.69633415738539
0.4148058991966612,-0.35730834405507583,1.1734506061810361,3.300027203675792,-0.16529215892554286,0.26398274854093046,0.3494476795550771,-0.7356508659464369,-0.7730788488771895,-0.1776976207030308
1.7306490508231782,2.433282962698296,0.19928862257920182,2.9070686653973024,-0.7057445384429237,0.8700662717062626,0.39325756048647587,-0.054497914418679856,0.740592993287642,0.553412819835206
2.921355945881835,3.0569401988387144,-1.5432202198391816,-0.4243217277742004,-2.3577508577975665,1.4943813205482213,2.3015758091907608,0.634942856949604,0.5828387884654687,2.586648867053253
0.06265939933119724,-0.42573761316871395,0.3006557112129621,1.0081215418600427,-0.4386875950799393,-0.4454059160953297,-0.9371852926286548,0.6168564174239134,0.35076465666374923,-0.6645520780572142
0.3974520818627487,-0.12524216466331994,-0.5122759669679269,0.19181019363765772,-0.0007636954918532865,-0.2569758169870485,-0.8027860306150744,-1.3667947068197812,2.9119177747004956,0.7697871473531793
-0.3797484527047357,0.7093091617619798,0.8982594924542922,1.1021829549662843,-0.8173003723992147,-1.6138950630861746,-0.7990497647607921,-0.9996552519871661,2.1408924495217216,-0.93079912652217
-0.9584636010801999,3.437220631878567,1.0216418253868162,-0.40746033703696727,-3.691257854494923,-2.8814319539506843,-2.609454757124272,-0.5002928976188652,0.01765636057404385,-2.3362135019006423
2.3257070634976085,3.1169536112184595,0.34238510561081736,2.476631274830018,-2.1939156447364003,0.14944584609090728,-1.2532013302928593,0.18523206857914315,1.9524630761043635,1.695577221303919
-0.5723863444529784,3.2584483014120273,0.31378062882754393,2.992611058169322,-5.02689100747324,-2.410297121453936,-0.0703179412083171,-2.0802703685394968,0.292462232426435,-0.34284301000984313
1.0059607886608837,1.0625349881915147,-0.6665368304290421,0.38674830481495115,-0.29422180204290155,1.9112845549262047,2.0098862502912556,-0.8328448992777906,1.0386378400369258,1.722845886479919
1.6944417376166307,-0.3583983242291474,-0.29306798052219507,2.5200002630120775,-0.06784329832503351,-0.04851151337492532,0.02941409773892793,-1.3033484367461488,1.7819801423619377,0.8669337135938493
2.4557356717569303,-0.22762355502584475,-0.6869936366046193,-0.955331582162077,0.4441933744734804,-1.2636927122928197,1.1787676142914292,-1.7246091894658462,1.3025427865437709,1.1646706402726144
1.955058283715959,2.8106985160228235,0.32572338804045364,1.2986314640435794,-3.1795028883953904,-3.3312008858726614,-3.6131021000880765,-2.902668160234433,0.6735422994854778,-1.6104017091200287
2.9398375523502818,-0.9848562491958013,-0.27217130787848826,2.2817811248845468,0.8218666675989612,1.1202048186956497,3.400635397745326,0.3308723307703889,3.1613686524563898,2.5419052086655824
2.527541803659783,0.2618382634733174,0.11202738817380664,0.6407571929063489,0.41162824413324867,1.1218949574690589,2.48598697317558,-1.4646672855148783,-0.6848606925898455,1.0686211048791696
-0.7226296024624559,-0.3137895765084331,-0.2048294841594128,0.09077954595480864,-0.387717122464277,-1.9698542214771246,0.1989944881473873,0.5391147030189988,3.2862696877714273,0.36161472370363495
1.9125829648168255,1.0687253160361538,0.058076222253997355,0.45000494742946917,-2.132615631044708,-0.7379501688257428,1.159134815780333,-1.1584171715659832,-0.6472292088918637,0.27205634236920245
0.8561422712112565,3.3663945533512445,-0.5937046513316027,0.4196225089264478,-5.073382525044826,-1.5560657823912278,2.478131971990315,-3.7099923230513805,2.0747462047163374,0.9959889046862017
0.9019577365384854,3.457011115393322,0.5171175080734243,1.059237788146151,-4.24924217213359,-1.6984057576306348,0.8704538357983267,-0.17709901660887897,1.3395450720442241,-0.03387392325256051
2.1956078688080067,0.38230027855089355,-1.031638378862376,-0.08516698304473813,0.06954638075543015,0.12476732730380624,3.2714111017846332,-1.5910875626013337,3.0836438345424684,1.1124981620547643
-0.9510126557254055,-0.3072198289911804,0.3529496071872814,-0.22812561621147143,0.4688518605788808,1.105792189939216,0.06342387613100639,0.023115353464751562,1.1362624752153594,-0.6373239849610381
-0.3530705210952292,1.3851615249661657,-0.17019469695039408,-0.23632269308527698,-2.4487643505320302,-3.456203860643272,-0.7745626033360026,0.40308235095862355,3.25044290965348,-0.2428201620031977
2.8874472829053404,1.2540023651314596,-0.9498893570599006,0.9991672442990611,-0.7375150743392745,1.152988533623156,2.5249861917898024,1.000607798215371,2.4151530068720515,2.9465948828626414
3.4298879663265414,2.949275795720308,-0.7150456569874659,2.8243862022243267,-3.2203778082927124,1.6755320414155817,3.9868245184891706,0.03284113141878546,2.3676324931863717,2.613243840337033
1.73986309653806,0.8810576790081961,0.6492319136063509,1.2513965400578702,-3.2073215146714453,-0.6111067493471323,0.00676566213626591,-0.6540210583290255,1.369063815287964,1.526182271176412
1.162121872509732,0.3794448216306554,-1.2195800025858665,-0.8248126095815583,0.902524656758866,2.5577363501000367,1.1028709399835273,0.38985053925798535,-0.5933094928074469,2.141492042312256
2.1041025277443137,1.8757581216397545,-0.7393538079999948,2.3625657180473847,-4.629010077112525,-1.0186738711376055,0.7190748956469935,0.5101006099821415,2.768724517257466,1.7689367796845419
-0.33154221789786364,0.5878617272596478,-1.0947267660430677,-0.9262764425379326,-1.4818327578025525,0.8947360766438859,1.8439558777408906,0.12255064499533533,0.5979206579160201,1.4874693581038751
1.9693064149145552,1.6053904731731898,-0.34029174655645456,1.2079558327662543,-0.7877797931871188,-0.01884686206108291,1.2841288936517559,1.138255017354315,2.9521157920049688,1.090944768520689
0.6893326134763389,1.1279708556392363,-0.323079703357874,-0.6782534716893167,0.7991932900391628,0.5759988706650431,0.869136606808758,0.8535165780255135,0.7527287162418701,0.7362412000714084
0.1762235071160707,2.871592585931435,1.017149083776309,2.540157158471441,-1.4528086687002242,-2.008977577025705,0.24556094553583388,-0.07273780149995489,1.4892084583061642,-0.34791454882284206
-0.3558919128218272,2.8235545328883673,0.9643827117788761,2.8814894929194135,-2.6964277745532956,-0.2618974475312884,-0.9487101952424514,-0.9396877287484954,-0.6933338619917417,-0.43445979570607157
2.239661370881198,2.706256196262208,-0.9890048950727404,-0.5152103631635665,-3.453283227172003,1.4207816879822157,1.2475875264891818,-0.19188697112369804,0.9133014675721083,1.513727001097057
1.0174632409162596,3.1830351766992777,-0.5970369690516539,-0.44646192206838753,-2.053845730194729,-1.3034411560197101,-1.162800560770915,-0.5866674878887148,3.0806086096772782,-0.14929045599878796
1.2946734246614717,2.3043890812715873,0.158110491438903,2.7182337848893736,-2.6909959658223754,-0.871868183479735,1.6644464373270422,-0.5526448987667718,2.945950123220511,0.7675629293906693
1.2280882395358184,1.8941911917346963,0.5550335447410404,2.8303507146090334,-2.5732275479119373,-1.8113029394733002,-0.07128047777227603,-0.9012755799194315,3.3331907817016777,0.06018369681683669
1.1762417920154307,0.17048460556674816,-0.978362471685825,1.5044955264855329,0.4196473378861571,0.8813201617346546,1.8494345749447338,-0.5559852567624443,2.882017196500557,1.560213610043565
1.9158845011286023,-0.7020221190900955,-0.05668642217508202,-0.09409200190557188,0.2444794181445918,1.3377162094131854,0.8283336054719052,-0.15588857771486817,-0.31246812787287814,1.4497228511258533
3.229271936342239,2.213981615573653,0.00848211537704402,2.338624159197148,-1.1035797244548065,0.657678171437143,2.1559786233441764,0.7110858521889509,0.34087375113523977,1.307382694758442
2.2893795442933365,0.9105927186044076,-0.765443337649412,1.3709376437288263,-0.6353455593602427,-0.24474337985378422,2.0221117492573013,1.8247136688263073,0.006492547322416664,1.71845769387455
1.1853326626364655,0.7229205312737019,0.6452530957295108,2.9224042834882904,-1.8683148556552778,-0.6622422668834298,0.30904563954579317,-0.9936990924625707,0.5217057088666888,0.8319802328365952
2.9912762191751594,0.7701248751356362,-1.2865060247236504,0.6867009945606701,-1.6538026625110853,1.861757499436067,3.4201868511011635,0.37762466797652605,1.4552339407740948,3.104898455511338
0.7941325532955081,-0.29224588167787835,0.2596486137148284,2.538651656842534,0.09088538801220429,-0.7821406975967293,-0.19720078710803005,0.22358083245874563,0.7347752646906411,-0.019376089776270335
-0.8187401618932072,0.4347171491200217,0.6819163055737365,0.5650853475188944,-0.19425147086645586,-0.05346263082398854,1.5073121712045354,-0.24152468259478832,2.2097181023627095,-0.2673752546057314
2.1991034715930176,1.353021518501595,-0.18254665586928331,1.3208558263806918,0.3496947986807714,0.4835943348321203,1.6344417065615018,-0.03445747726497477,0.6917050578258968,2.187645601956379
2.6445691924820776,-0.131151431072423,-0.10745667146882265,3.108249285081712,0.7698931695927196,1.9706726054695225,2.5198090040424503,-0.8319460352444638,2.6980630125276246,1.6851695055697509
3.2387745396337646,0.8394615398621059,-0.32198384340497416,2.5842752065871735,-1.1446992070218929,1.9850228794104738,2.670569051100803,-0.45152550754023646,1.0080287596433601,1.6514722429754962
2.6993503108247174,2.0651267046574833,-0.9458038413328718,-0.5833030681860731,-1.6698265546116915,0.6602423163760628,0.01459447393450523,-0.4964576954140862,3.076350601114581,1.4391537353403745
1.6882097082601875,0.8252428525342126,0.3340498133755173,0.8254775469188715,-0.14155432506560062,-1.6730542713674783,-0.9703443663736324,0.008806811005563563,0.9299105346069618,-0.18498232883358184
1.831769971076874,1.0089989024570052,-0.04160084346965148,1.3706956211039096,-1.2351963770276155,2.0717932312858185,0.09424303824463412,0.4471174395160226,-0.741298760158394,2.190076397235474
-0.03196858379242484,1.1380413377206913,-0.011549516328788978,-0.01738162441226454,-0.46408852832269804,-1.331356782273228,-1.1370163544038745,-0.9290591750821933,2.229457607561818,-0.5959868670943517
3.2531506746450907,-0.9900701176019578,-0.23362799114252208,3.2372352376152147,0.869576202090728,0.7401652043765133,2.907867502111875,-0.8639834243950154,2.738139910331056,2.473749141311872
3.1294764057097186,1.9778823294404555,-0.2327047963370567,1.5177089142269464,-1.2678423853345646,2.897611848636736,4.233968401946729,1.7677203405451924,-0.17729558610569918,3.024383903229119
-0.09706910286994863,3.0359409821636287,0.9508332860325599,2.564077032762336,-2.241245719137792,-2.7620239588827635,-1.4887809715168583,-0.8384013231991099,3.3297206652103606,-1.2747902763719665
1.8146076462643421,0.24484557310710886,0.18198572323098638,-0.008633112854181002,0.5237837218591788,0.12491365467913909,2.0456041132464837,-0.16674846254033407,0.699035805228539,1.0174740855881559
1.9341439368581979,2.187784330020772,0.005061119645717829,0.2609877068669768,-2.6164364490996883,-0.6346696014553947,1.78127008551518,0.2261305540292567,0.05961651915642063,-0.18788946444315677
-0.3817804253307583,-0.9500675015774946,0.7949281214753239,2.3438863656799365,1.1682904230667417,-1.4573509412756576,-2.1803746426914383,-2.2059701122727358,2.2932453448303503,-0.8258422151805583
3.2240278945043226,0.5074711173765467,-0.1916218204217175,0.7999704784580017,-0.44400479040618857,0.7370211336116534,3.6863984366976403,0.691110715904016,2.717080513778819,2.23841032159837
3.045580521687378,2.4943478458932864,-1.3661918315036905,0.8141663535631978,-3.9171409569668536,0.5020143730182476,4.188565297217738,-0.9072207940813739,1.1008973121593089,3.3469369279737733
3.2691873949049723,3.336005268421559,-0.8017307031709024,1.2895455880331288,-3.5374613595653406,-0.03869791153800961,2.021684972527922,-1.3962685181183014,0.7083278371337194,2.7158388353862217
0.8419134621215114,0.11624109443472785,-1.1093211248373305,0.6561057550800569,0.03020395774137606,1.6961727831596336,0.8368904908425083,-0.3877792283130401,-0.5696140351474297,1.8961570765597824
3.3105303609553625,2.8898452940492105,0.008736497377978103,2.7685056561268637,-1.9093573893841076,-0.05132793371081057,2.8315057587812498,0.05284243278624794,1.694345667639639,1.8661301074438705
-0.9319948185897228,1.7919054143024846,-0.8735992286184335,1.5930726285194097,-3.4811885844899595,-0.3269478560483322,0.15124804048502316,-0.9929277894372048,0.6225631500010811,1.4723986446130106
3.3091842563847846,-0.1213614796191802,-1.5771222166423295,-0.8989959730364856,-0.684554626012704,0.8373278396550261,1.1940331598130953,-0.5557575717669508,2.2680736657715537,1.7213831749065387
3.0385104535936653,1.9521645181176694,-0.277863601850122,0.41348805466950034,-2.0662344659951937,-0.7042112991073826,0.5107425179946683,-0.17272401775159457,2.6368587312314307,1.1683488792285852
-0.10308994618758405,2.8594195045419473,0.5219131184417432,1.3090443376168013,-1.5146451578575908,-0.8522135059438807,-1.744417031203161,-0.2849356452437999,-0.5576291970813793,-1.5227683252825206
-0.6269804641876677,0.8208270178402928,0.4391507580375567,0.2828226340516524,-0.0922351207934517,-1.753500195326937,-0.10736841574538625,1.373913752628646,3.289246325649268,-0.538507650202497
1.6700599565190353,0.22108867026824108,-0.5832320439764143,2.3875374573028996,0.8789066585660623,2.351880987220026,2.4060087017252276,1.1370311589995397,-0.15296669081360081,1.5906159005634457
1.1004425764312677,1.76874640628975,-0.03445510486846512,2.343527683081612,-1.0631893836036568,-2.075837396360438,0.5722032969408409,-0.1483830692015142,2.1199300929374263,0.566711614357709
1.1553520923373117,2.5474495908910177,0.003807619440690732,-0.29306867586081675,-1.5248587239011777,-0.267686970352888,-0.4905311003037091,0.2820961555540299,1.8434046422376205,0.3567355192768062
-0.15234705184680453,1.5363499841053065,0.4894862296540237,0.4968176783271874,-1.1180255236657572,-0.9229738595028671,-0.4779897211724677,1.0061468046509885,-0.6925668463529995,-0.231211313296048
0.5713515296027574,1.1231230271098074,0.8598933920613471,2.3240980843594135,-0.5612760334679876,0.27309993143193034,2.887016214592435,-0.8456377468528135,1.8813795435635208,1.226084003930154
3.0061320333452333,0.7585775232406604,-0.9043771020216513,3.3644401011366076,0.7302336942052349,1.1398067241028387,1.67335966345092,-0.33111398075355225,1.274849966735673,2.5980628169427598
0.8279081966348332,2.518525162247924,-0.257659727201548,2.8118745890867323,-0.875304240197689,1.4088241840748235,1.3258270839800441,-2.779758636813266,1.18955132493176,1.1394502276377876
3.440831271272584,-0.3140496335461034,0.12253460021689278,3.4031275452653027,0.4166785247587337,1.5139908715015384,2.3671110736815906,0.6016034256248325,0.6372968355540309,1.9912742360155784
0.7686690576594546,0.5504123232544456,-0.4257236600185913,0.14406596864058985,0.1955496792564544,2.6368800162880897,3.748060377378937,1.1145899226125364,-0.5051012174832165,1.8656422260191043
-0.8465045435234141,-0.7793960872525775,0.7341595918374553,2.481951238970059,1.0280541789061672,-1.2885663741142206,-0.24062183430871623,1.2009235537802503,-0.9364185500016795,-0.4280977700153353
1.7025446077070723,-0.4965808034722674,1.1844774876107198,2.4600816134075405,-0.5443544110590891,-1.3172263742661499,0.24889658446553203,-2.205787555007136,2.1520929546579466,0.334707363564943
-0.8193584044248091,2.1569113214007154,0.5924070047117675,0.9769301056797077,-0.30126443448250706,-1.7653652770342803,-0.8629140933591419,0.6525495734982001,1.5998724617756057,-1.4594993847156366
-0.7391597654574855,3.0798354143341786,-0.1021996237387963,-0.4115858406537849,-1.7707773213109688,-1.9963077853048243,-0.026362441642841312,-0.4264935905550008,0.5964985362304676,0.8879625639368112
2.6425923784583754,-0.2216709901930244,-0.2684964712512599,-0.1012668340705124,1.9521367819133477,0.5885842557961272,0.020911360871362063,-0.37743294056295057,1.8259203957913295,0.6375570547440387
0.6081079662452338,2.973272804987621,0.4270889428868223,1.9907392176400607,-3.155339473900589,-0.13220239214686347,1.0531666962210897,0.05379210730731195,-0.445815409806702,0.07114345522057963
0.16809990756054694,-0.15627881688708756,0.12812029530624597,1.979159929216888,1.3077252695460544,0.4263718647620166,-0.6836356210665699,0.07216183328567854,2.3327224075339266,0.9472746260298828
2.9893770900106245,2.6208226473289953,-0.8269027570814466,1.9552302971639608,-0.7588076992810032,2.249144834593475,2.4634641618488833,-1.108720469965583,1.2640577263173634,2.6933936401735004
-0.8110381811391187,-0.6894637781487944,0.8970202149152742,-0.6075685285100656,0.4812628453356028,-1.0572657229596236,0.7529991514707701,0.8474909871124532,2.332911199921818,-0.8382812373392049
0.7592258831830427,-0.7477540338806885,0.3115305595733598,1.6616594488649485,-0.8053867886565134,-0.04832214833066634,-1.415379426487473,0.32398591957398787,2.091172531018181,1.2063789632305688
1.661144631006652,-0.01884601617271442,-0.37479325658612295,2.447145234305749,-2.130059582263921,-1.0398402404078202,1.7652089951861756,0.29642657430139235,0.3047900747168797,2.1337415326399207
0.4530730908810725,0.7754400539947544,0.4497295505898531,2.775781488976121,-2.2589098329507733,-2.6646291034429495,-0.7522356499076829,-0.28605684141201454,0.35483966176447,-0.43574817726682974
0.46124275016455973,0.600052981571296,-0.35133701632999775,-0.09363765024968806,1.9002044843728354,-1.0424866223271634,0.29134041474216976,-0.6365015594482535,3.3247197401462945,0.3597286280242755
2.5478905881439364,0.7912883890383082,-1.2445270362305134,2.103340492090641,-1.3237347776981454,2.9081437217186856,3.2004498962852024,-1.1761365733661235,-0.1994050622859771,2.7146858253001724
0.5084410146585423,0.9399904681564133,0.6967327006704022,2.4184730421851133,-0.28513485583689846,-2.5733099833762805,-0.4516082079356625,0.6702154465949813,3.167899742504435,0.006905713449738316
-0.42316690771288634,2.718152049245332,0.631003797378554,-0.5726808296505937,-3.8224345435172333,-1.5507326050800807,-1.453489423267907,-1.1402793428810039,1.87026957247329,-0.7412407656049745
1.0453738040799174,2.1874130736180515,-0.2826975731754422,-0.9536069186328314,-2.2598374782804354,-0.11546662100981464,0.2592970545376672,-1.4028166729850953,-0.4050243736618221,-0.14249700087332504
1.1108717610276746,1.1085714864876222,-0.6366446661998846,1.6475020091079662,-0.8046606527275456,-0.4467874547141846,2.647234196637095,-1.4135843295424115,2.677809163457934,1.1775673811925953
0.29641844380516935,1.5297877076272552,-0.28018101365217585,-0.3920412775119839,0.31622996061643094,-0.07140950637394183,1.0652353705296431,0.11792508118328064,0.7856516488374137,0.7855846183128767
0.3931510627959025,1.095182066534075,0.527755694482047,2.292751087683728,-0.10961064578521627,-1.2538945166729276,-1.0248918671836478,0.12274791592842547,1.4842549813057144,-0.46409900788236164
1.3244735249862214,1.7880973055550484,0.30076332222436375,-0.19733556992827328,-0.6939644499201856,-0.5822668953733303,1.2268677413247255,0.7595983262794767,0.06388806098270594,0.45566852061810564
0.7844961612376078,3.0820466619612734,0.5269848076359539,3.221218246308492,-2.4431486654891077,-0.15950497632315452,0.42155938648359226,-1.3612731898492854,1.2678503469935976,0.9254616061393744
2.776247410400685,1.521979461064305,-1.1933736970788298,1.6358347657229992,-1.8686321597448445,0.14293511540693116,1.9308864555914895,-1.5703643021196723,1.5237747893234403,2.6667714463084637
0.6279003667970966,-0.3043295343637866,-0.17344430980506992,2.7514668904408532,-0.7458922788263411,-1.152451992508321,1.546119011152676,-2.0303871415374646,1.1150127199738304,0.9556695305906082
1.1593707256771677,1.2625424016287492,0.42464973672408696,1.8442988183292197,-2.636608880901995,0.336311351716972,-1.5411500238947127,-1.4413217690661295,-0.8192074753688084,-0.02261650360883392
0.5918038781160628,3.046243194790698,0.030034754374356543,2.3885042295307177,-2.540250960535512,-0.5396275377088996,1.1031728269977665,-1.0931713375992604,0.32558999253507226,0.7712922029493132
2.4999047967403603,0.7577292920245027,-0.016419449030800837,2.6230876880186957,-1.0587990584205436,0.9245071420613278,0.14998221758328725,-2.285775065336012,-0.7688687697735666,1.4797427780738759
2.4632589073563316,0.8174260592995681,0.14094397384596846,2.759192084632919,-1.7819250403580191,1.4092406989923962,2.271933481099339,0.04305920453294632,-0.3021567544958955,1.9797428584751893
3.160151870020532,3.3869266975101695,-1.3238676871274428,0.23796554806456238,-2.824014496285434,0.25030866738821644,1.9300802872312304,0.4547709200101308,3.4160803050264494,2.259167484281457
-0.9988327745369716,1.05683381220453,1.1914326508200388,1.7492717530173811,0.28500507201290876,-0.14004297639330826,-1.0672590072300534,0.8401817859283588,0.9007219240672899,-0.9543964668853655
1.6023677653519202,1.3266050528827509,0.6869529545591367,0.7480126969857543,-0.5757572843977539,-0.20333340933482114,-0.3476106503127669,-0.23923342177968288,-0.27975370890450824,0.3436056331016492
-0.6911021368599422,-0.5173074888590596,0.16507901924010324,0.830041406715156,0.9568541037958003,0.34073029367586893,0.7481780894801615,0.8456797240898711,2.287339654961962,-0.14384225625032848
1.733946472024158,3.150344121077005,-0.10952133275725018,2.8693536079902997,-2.6309304511425062,1.073028446266037,1.547105469749641,0.38429560251380357,3.2777949247262663,2.39595848989883
2.251005677279532,1.863606766240581,-0.8791187213868347,1.2434827549583982,-2.9177201695516217,1.3608241379072756,2.70100373442363,-1.8030701073407456,0.639294046846669,2.567389671704246
2.05976337258275,0.3837165791789854,0.03130904463159931,2.5089765850563093,-0.41908785023900813,-0.14899609875223152,0.7008665943215201,-0.8778125467840151,1.1652269448271118,1.8326287495518878
2.7138476440926564,0.8296307591424075,-0.6436262656584246,2.102086558447495,-0.8606298516737295,0.5930990412073953,4.316862857540243,-0.3786937102707272,0.32292187402476435,1.9272848245200886
1.7734280365892579,-0.8613071810944096,0.32233120402539894,2.4369232025779466,1.0642278939679173,0.20447372448596526,1.713983147975075,0.7821991382390157,0.6815701128768694,1.136613788637391
3.17876706714601,0.09013577970633913,-1.1110790947017382,-0.4196717082295598,0.4154283568584803,1.9617532782524552,3.599719014930009,-1.8655463758247077,1.584877863537964,3.305839489886939
1.8565835953985848,1.6058057613328631,0.03421178230119004,3.30578493665368,-1.239476922752976,0.3273124243819365,1.9794096588908245,1.5894450434551541,2.14316012344202,0.5942686370584574
3.2017466429287884,3.1199212385445376,-0.7591043180652164,2.186417261707745,-2.42553498172342,0.025689155836656874,1.6376405972543893,-0.25734244330891776,2.002517096575915,1.6693235567353075
-0.2927808700528821,3.2752964113983865,0.05077979598738572,-0.982638585404554,-2.6737406368227994,0.35379473184187615,-0.460387432831099,-0.15832040204917427,0.3932777988117999,-0.9065854756521149
0.3674844098749679,3.436750793692478,0.7285771930866574,3.358418148923751,-4.444743161379704,-2.702914177390583,-0.5147907625094401,-1.0868285699937845,1.4344579712147798,-0.3212838558141813
3.171780554156949,-0.9252728322321211,-0.6773451324221215,-0.5630866006958378,1.5138200898828682,2.7365629274302643,2.7100472607929924,-0.6672784883350484,-0.5838414246014745,2.343754382249212
1.1641233901777164,-0.566437006047012,0.7477810742754247,1.8456397621784038,2.3467480117093937,0.17617041480444312,-0.26922687933380357,0.6723747934927207,-0.7558931484842673,-0.38183018774638855
3.1855357121001324,-0.8507997475466783,-0.2067145382432286,1.7870158407450147,2.205073594395733,2.3176936300588733,2.135807161540331,1.20498462425744,1.9493665452018836,2.744220028069443
-0.5687424936150827,2.3764686822107963,-0.35444598507936786,2.389043349314841,-3.9605620486660045,-1.946850236292838,0.8236552983230462,-1.1289219155956067,3.1672803116399235,0.6754701484938702
1.4596594682221693,2.6696308869268357,0.3464940109196829,3.0043704349652156,-1.6131700399340816,-0.13739418827593175,0.658350293678462,0.3487315111592533,2.698525914705018,1.3615045969208792
0.6081106722025909,-0.6441806256706779,-0.34467840963479923,3.1509785821164025,0.7244044776181828,1.3979138970710805,0.11361111847950726,1.287918285018279,1.030258956303709,0.5549038199890093
2.9357276448557443,1.7180500090244277,-0.6259707429621713,2.7148197125406317,-1.1882153023810444,-1.444750076388363,2.476113388833826,-1.3148437350576918,2.2723163763915704,1.556708912578148
-0.9761215264611015,0.561776806472738,1.183877891058325,3.0835491218242694,-0.8528583539516004,-2.0834956888350504,-0.9699791552991197,-2.07534760720593,-0.18761141222845934,-1.14136380342419
-0.1935491859633952,1.0942271653028648,0.4799470445281352,0.262598489156773,-0.8373372977661727,-0.43161162118710467,0.21747337697702906,-0.13589552996805934,0.1898094212429977,-0.873644291135211
0.7890950981516813,-0.5794537353331605,-0.31943795106276374,-0.8973912409596174,0.44688219842814647,0.7343170642781034,1.234914691548768,1.5689827527483913,-0.6709368663179769,0.7409081057321134
2.5231499492622365,2.2811515733945646,0.43470596673740836,2.7451549252488445,-2.030499987881964,0.5376241420085855,1.851365924108629,-0.5830516418582858,3.1968670395508356,1.231672993433774
3.427796091912435,0.9290197048467865,-0.12132783535422617,0.8452110514948079,-1.2498890642795284,0.13047256789020256,1.7042215159110712,-0.29144386852622967,-0.29264479716722536,1.7013888644198523
3.008257019318555,0.1467937260269605,0.41295034252046264,3.3011030930386944,0.2197505574317534,1.4136760126239654,2.046945964994209,-0.3839212983104128,1.441898440424021,2.4928207543036676
-0.7400005070241774,-0.3644008108215949,0.4002644581188619,1.426816387921102,0.9225337422413581,-0.8113991051434785,-0.08332820633656905,1.3305606784025998,0.5164261097210345,-0.6601690631425567
3.072934339827773,-0.14091678222449133,-0.902919630773757,-0.6792387495088297,-0.20955454077784,-0.013061836296864637,1.1658421875064202,-0.2653118705041737,2.8801414578263285,1.6159243747609515
1.8067432257414175,0.2057030176732686,0.17189308163039718,-0.9268397911156236,-0.18336895283198906,1.5043239182275312,-0.749089976776062,0.5330664842356514,1.2059790530209913,1.5432406655628617
1.173442629620712,-0.15781340326061966,0.050018648303429836,2.3015546184680495,-1.0033980169666732,-0.868765598698718,0.8892259401756739,-0.36145431033049147,1.6156523069020468,1.777255330802692
-0.4746978467681803,-0.27365063553428637,0.654664771344335,0.40885808702343884,-0.00016727928646566214,0.5770868045414537,-1.1339750514227471,0.18601812750470892,2.4106772464269453,-0.593749512467022
0.8674846090350476,1.8065864958950182,-0.4428380390728473,2.886480188211815,-4.546197243336489,-1.8211242298439116,-0.39890741700798293,-1.1808605703352812,-0.0010264043869898654,0.5463951699894782
-0.6360062051472493,0.4287946487781287,0.7919070123757281,0.14215070221377535,-0.5626524951945675,-0.3868219199550066,-1.8135045485263088,1.1382967150019034,-0.10118274554310014,-0.4021820287071587
0.8047107793382129,2.437867341578303,-0.3820990663103902,2.439443612819005,-3.1800630223935977,-1.6696348475362772,0.8298764623627941,-1.7106682408353457,0.21489358945170944,1.0925730041239612
0.5854728078207649,0.40019811958641593,-0.28045683568313473,3.1707694820327497,1.1181096576675853,2.364501357970364,2.3034864308783254,0.507219810800646,1.45630392329223,1.1745962307855882
-0.2673414970911806,2.036892796316203,0.22768415739735504,0.018096421358335446,-2.236517874862435,-3.1525830154011016,-0.9099775432550611,-1.3768815346249224,3.278834414096096,-0.8475815302581988
1.7467408256525196,3.388491259259956,0.035254817938068644,1.1154109743883418,-2.9634369499665056,-0.3989081944999866,0.9910513501712559,-0.9431490130546673,3.2815345490055368,0.7273847648585935
2.2439841962393143,0.5693049848335463,0.07785338698454186,-0.7514007008946723,-1.898074710538442,-1.5829979581190996,1.2368121280020161,-4.226519642238613e-05,1.2596078881636728,1.3239116399229502
-0.837015972084763,0.7677762394309402,0.3329671986179462,0.12262991510210708,-1.9729336043723251,-0.6693253917284485,-0.4652002139761459,-1.2350585612807956,-0.3524311272924586,-0.5661584488238103
1.4003458158458573,-0.5278043456279752,0.43457834483449576,1.5372519168838452,-1.1248857681560533,0.05998582925002538,2.2893657489083217,-0.3259284910876001,0.513614129170638,1.5062502246084584
-0.7233770542098639,0.37499614325641195,1.5445260986342513,3.148000046353033,0.8766262285181329,0.005270517876663439,-0.6107364639064179,0.7237663339195521,2.6402545506198947,-1.25494392748746
0.5168374713900401,0.8376497181530873,0.2906019240391246,0.0001271666980875441,-0.5002502282078154,1.031993149338371,0.3617260264275574,-0.34386482495604986,0.6093896929070068,0.09640449161270025
1.5916273812443982,2.925236374337743,0.11005647356470322,0.6280795163823027,-2.403029432167696,-2.497545561063343,0.42981911383335775,-1.5509613588484843,3.4171420489358226,-0.023627215349121867
1.2997590237287855,0.07341095283764543,0.20692385859996804,2.0527292647137054,0.5460779808030283,1.7688427132803661,0.9302553098551753,-0.8912411186614577,-0.4888445681896648,0.4660965908262295
2.9562125047362646,2.0842119076669925,-0.8804453144828911,0.19654379005888467,-0.8180598980989368,1.2914325525688932,2.072721830379169,-0.7041298478737544,3.402130090409191,2.6020718374520793
2.9372236205780236,2.7905126613868667,-0.4882402795659141,0.2462334010768752,-3.8467191143582298,0.47591844545765527,2.834482372630165,0.24487234961326176,1.7380834911244731,1.944024186591933
-0.7451003807110408,-0.2905994395884067,0.3084994890335016,-0.16530629521819185,0.45600702609175237,-1.0193388432141612,-1.4632851817994907,-0.6224006724846115,-0.08850850193345139,-0.9777424662527656
0.6518310095106881,0.26117057207096694,0.015739415913503252,2.9737805796600183,0.6637843510541257,1.3043545457163934,2.4430891457728503,0.5232620717174699,-0.17046081625306497,1.7644411700382678
-0.23751344942007746,0.3516657565883654,0.1468425605480378,1.2603473572985928,0.54430304817223,-0.4531844846784111,0.8162080467293832,-0.24719650241379076,1.5991930648548038,0.07583774218961148
-0.848338166789501,1.2596250257332344,-0.2012462383911267,0.5984015281135344,0.19402967143897545,-2.131560545516606,-0.48097598258491453,0.9770605324676224,3.229676790489603,-0.8575485017403238
0.8038459589526539,2.3572682762770913,-0.7511493585559751,0.3757103826357704,-2.0299846928458254,1.051568906503987,2.2536972708379603,-2.3223286213925127,2.0176474568342826,2.5250890182878525
0.8848542990527453,2.8833328032793846,-0.046872427558761254,0.9247828241638452,-1.8894537186139657,-0.0715550333030216,2.745881459305489,0.1095594156840027,0.576254418089831,1.0800612810765138
2.66620304620102,0.6667911987420703,-0.8442674388488604,0.47233209071364435,-1.8393283554191184,0.1753004186617182,1.688922030875744,0.48783942367622907,1.033149809500384,2.630568204435743
2.3333223322075733,3.2126190772861793,-0.1745602961687267,1.741981934446566,-2.043855660122223,1.032153601381773,0.9998547959581379,2.439926687274589,2.9540552026321016,0.8870420228241975
2.3361406400486864,1.416090442559884,-0.32617367428910893,2.227164246729805,-1.1996784272998349,0.6401601222607864,0.25924859825931984,-1.1322174467141255,-0.48035921504043677,1.7896609174602875
1.1152993199380963,1.2324290828141922,-0.2758718573209764,1.4481990549884336,0.19281189143254393,-0.08736855838747234,-0.4149971029976504,-0.2117761607182392,3.3678044613781335,0.5971007973317498
0.06913930887539266,0.5646111451605289,-0.5305223813916236,0.9064980417621964,1.082172159421473,-1.0358056836840928,-2.219132902434816,-0.7778342026784373,2.2993910447770047,-0.45529216172567183
1.430912507915337,0.25693683488269503,-0.13227208933441165,2.349635667058437,-0.56478057898412,-0.36306130728592323,0.4478341084809278,-2.2433670094280047,2.548173012870802,0.5111683082352962
1.3512345326604627,2.511990315770493,-0.5563054614413798,1.7349956046387751,-3.451022030579735,-1.9156507122750608,0.7777350703436419,-2.190186808210159,2.4245972132411175,1.8312655481780111
1.9541931112422208,0.5223223305240008,-0.43683843031248526,2.8263670914375556,-0.5977192778271314,0.8695918419930763,1.8925199773231338,-1.0894849262586,-0.13002666019878228,1.2797648285340186
0.7498345657998273,2.675710205030174,0.4395351979321077,-0.1829795650877024,-2.6078632362198837,1.5664394862246622,1.5760625863854745,-0.7732209718320752,1.1059352185050937,1.6911367263990018
0.27581872617533376,-0.8355941863194412,0.5173470525388275,1.1055729653983963,-0.24740049597822272,-0.5264032377545566,0.6554246720360433,-0.036840606808403,2.337422543458881,0.3531966532447709
-0.5736076414426032,0.33122506002359464,-0.648888149873051,0.06532598226736863,0.4802228411034377,0.6217372427867458,0.44415272118604776,1.047505804477588,-0.11171005427431857,0.2752882317280691
1.292747802830744,0.3477590624794211,0.37423391362618263,2.541356476229066,-1.9349093296709041,-0.773384209058757,1.7972869856502078,-1.5485159821494379,-0.024463797267872622,0.9448749872148278
-0.09944340510524718,1.308425040818181,-0.49606659878538595,0.6017269305636228,-1.9686788292846218,-0.5955754501127111,2.2100161277907935,-0.43432580247576846,1.5789266198423708,1.3835330915037187
2.2580607736856684,1.5811910833733354,0.10548526621334808,2.258123674576875,-1.112681075131011,0.26717733857029313,1.0489328299513008,0.037785215344218186,1.744215638270457,1.8211851626227282
-0.04534487446942681,0.25622117149729684,-0.2941316665462881,1.2754179969077843,0.8405436894001703,-0.9857098173919268,-0.9178268966257845,-0.01692598239841653,2.461063309657486,-0.06737746669026183
-0.7943941417263736,-0.22441724790388784,0.31123936233487315,-0.2033706291036066,-0.015024535132968008,-0.6530288756355025,-1.3747199117169127,-0.07683259576222302,3.15405436126256,-1.4721221317813855
2.1343433788335866,3.381294155422207,-1.138873986192314,2.4370740057170006,-3.907303321749057,-0.7658046224225965,2.846826076829523,-1.4824508197782185,3.10474201496079,1.9958679671223345
3.2157399521148227,2.2492780215841113,-0.8126908971545996,0.5641530483238626,-1.2475650091657016,1.5897122229790612,1.8024717538336874,0.21580990205725234,0.7766793387217805,2.8070344669147693
0.2826606503699187,1.8927708274174417,0.10026405918778263,1.2450955855217027,-1.9587629068464856,-1.3229323240244213,0.8542261239155563,1.1794567368569937,0.9156686744463638,0.7080411309368267
1.4652580510973965,0.7672019116098714,-0.04715619663514275,0.8289776311586692,-1.05052085337382,0.945579364069892,0.3882996029103183,1.2746270956201515,-0.05103802432561655,0.6768943076604265
2.512985136349616,1.4097367098699234,-0.8188598063472698,0.8665922913149344,-1.2784995950857774,2.3346681768807587,4.147207510005774,-0.09470174892092131,-0.019957403268184626,3.225304804168719
2.803805344722711,3.172370083818019,0.6417192357096567,2.9018233108287013,-4.49377233798589,-1.8805669583920341,-0.8489094182484471,-1.0763086078907182,1.6127995131713249,0.8962772451708704
0.7028808282096348,1.2218939482209477,0.9261025107258282,2.0096887671160566,-0.5394716308661581,-0.07255739677846326,1.9225832675165038,-0.06382384401085278,3.3907484003573245,0.29086132140114096
2.2372750525458724,-0.30432189722885117,-0.2821372214468007,0.3955693254538539,-0.6871966988170393,0.9524139020394335,1.3535528212005823,2.1926628040844793,-0.20581431393598604,1.9024534476821529
1.1862442151105261,2.305032544783692,-0.7754009519166218,0.3054539382809507,-1.7798122766581221,1.4705933469556731,1.9902560860509595,-0.08159455090366793,1.0092876588486512,2.4465744715400994
1.2440563315017097,3.0928637855656333,-0.6171211336075375,-0.4648848424592211,-3.4941200632403415,-2.1068035063320893,-0.806791681035287,-0.15517542859691866,0.7679751878145231,-0.21830284368265787
0.4280403897328531,2.231343610883797,0.779392635317117,-0.8704996046792126,-2.7259168910659897,-0.8085829240957165,-0.8794761990269414,0.6415868890626997,0.7479692861027523,-0.6356609750094898
0.043733231858586574,1.6609318118066199,0.3757782377874692,0.02360514636503397,-2.5436581386129173,-1.6462762443486845,-0.8252237504743328,0.23304500222288882,2.3666754291624055,-0.5048276672043254
0.49859529136338554,3.1867252559560963,-0.39229660581457293,3.0931773865786125,-3.4173529142065244,0.8715948083994913,1.46922711511273,-1.1040001057112658,1.7631258335704096,2.1698176370107163
-0.8311391184608488,-0.7707913712710923,-0.2716480850994326,-0.6459926028771854,-0.42844211855556613,-0.702838847445856,-0.18502925263538758,2.1982115616181863,1.8844880636802213,-0.33714205579235523
1.7245506844796306,0.4122111327351139,-0.581277550433194,-0.2322133046776924,-1.3361321311061467,0.5165353993683497,2.8843894503088703,-1.6167743051080659,-0.15893236340428152,1.021308417975171
1.7492376035627744,-0.8129477047227732,-0.39634139778741834,-0.8841376100467931,1.593141114923954,1.506807005683356,0.4117345041394885,-0.03263635031893016,1.459371994816272,1.5277513942469294
1.8230852278335599,1.3888454101939844,0.08520389248981491,2.019926530928592,-0.5932337911704241,-0.11918291068186743,0.1578720445197956,-0.31143665503609763,3.401467334666032,0.9771837757652536
2.427670848556889,2.47588435061534,-1.45973378660608,0.2445844023679189,-2.323456101548797,2.5135015464117587,2.5258469705789324,1.2442294656606718,0.06967366203777892,3.7144586833231004
0.6584221130888903,-0.35424743714776386,0.07410532455347368,1.6851331991575718,-0.030128676257127108,0.9066833964608804,2.7352876557000503,1.004216029666904,2.167990277968136,0.49062517826563085
0.8225086765836231,0.2884794541810549,-0.26154603080780264,2.2566553579781283,-1.868513825695552,0.30533052300755503,0.17532601958645266,-1.491121237236234,1.874935018121362,1.5469650624879627
3.248859886369795,-0.8309774539116777,0.19842633978656962,1.3851024865260628,0.1568271286515921,0.15619040244897367,-0.3065247989427159,0.6692094449305572,3.1866717092693513,1.1879349577427623
2.1738152713234133,0.5806381390901625,0.5222951384178862,2.058120656263032,2.750788315069081,1.0691551905642473,2.992298733804063,0.31257990842267214,2.0722655973931596,1.7246743373818183
1.925652332636195,0.3972314895421438,-0.2508649313225935,3.0778322997011855,0.32365429736650025,1.6731248684136673,0.9869993338908545,0.192417691070616,-0.5266921574239039,1.8523347273854243
1.926699796957541,2.226432660548548,-0.5376243035409642,-0.8276015767895398,-2.586649646662952,0.5608938300063302,2.81329165100846,-1.716909589193893,1.6017876746548683,1.9139316742858599
1.9641655991903355,0.1852407388617825,0.3412503639433748,0.256176448966704,-0.47858261718607864,-0.33364209126689415,0.39777253140809304,-0.9479983556611494,1.875356896826616,0.6035285776382912
3.200245545588591,-0.0018447879037831738,-1.0380968953798564,3.0709424395543294,0.3499759182261018,1.0694414862607189,1.3482557599734075,1.4509549892218976,2.6129583922202575,2.617686004340952
0.7640213677237397,2.499011658213344,-0.14361383733681532,0.277708843014453,-2.539732738103708,-1.126295972268573,0.6679553620563955,-0.49841360151921416,1.979352042692323,0.8795250430263026
-0.758397002085911,1.4491150963976014,0.8168574307859915,3.050992718054049,-1.6997814699277207,-1.0537440445156063,-1.9523432775640286,0.868702658776933,1.954750549243971,-1.4045295115931966
0.7776027960435088,-0.9974289409126701,-0.16982662555041472,1.4478370234920046,-0.12267345630837478,-0.24894932973483974,0.8336008450675931,-0.7126553970864152,2.691723218909789,0.524214217357897
2.8890927555132992,1.0244862897911422,-0.4755725757566872,2.057926608024993,-1.5338716847673415,-0.947083195986668,2.0709294939564264,-2.471210683440574,2.6192517795361447,1.2017643398955948
3.2828144348574737,-0.4179888935279834,-0.45859391630096463,1.372056851280104,0.6750380458477437,2.606194878334411,3.4414415634044477,0.1650206989856399,-0.37040203036163866,2.9068099486425742
3.3236230123682615,1.4071485676910882,-1.4959108343141594,0.1557074556163156,-0.08584214851984706,0.6100871927324212,1.959228466902564,-0.31736764188373895,2.0848735227830515,3.022109216960066
2.0965737780244735,0.7847103399566107,-0.9327065958227003,-0.48878651533123674,0.23332612882787693,0.6466644444380519,2.1773320197733677,-1.2351842975188796,1.301412341071455,1.5141081033359864
2.6207025608556345,-0.6540256434198499,-0.30772715478333823,2.6500894792494925,0.33081260004130025,0.001367639794863984,2.985458103171053,0.5270273247258974,-0.5301265509583701,2.429595983396111
2.2909034973891944,2.2916778131444926,-0.2556077707461038,0.7495593122540123,-3.8734561756417047,0.2007974174857815,2.0167740047021274,-0.6842838207717719,2.8943981791273177,2.1298974659269674
1.9985369649138076,0.9405062736496994,-0.18625437227125619,0.1124196005839031,0.3217797766977086,1.1010087862073372,1.2167169196979686,-2.043179136381502,0.3959238430527978,1.8916212820662917
1.8820228881299474,0.030871863444134062,-0.1023979816490651,1.9973901094594684,0.38861627182286845,0.3693131914345951,0.7655079579998353,-0.8297565891378439,1.7974682469328451,1.0215661367668214
-0.9974831950722528,0.47146070619822744,0.8763201160991573,2.0398677159882674,1.5888157467879915,-0.8636764906355964,0.24242888868753132,0.10165053529805632,1.2284831611652822,-0.9777234429386477
3.2284268806481995,1.2240355625269874,-0.16476087265828326,-0.0749731312916968,-1.575910080533207,-0.2965198955528458,1.178714329305154,0.04021054003363754,0.33005680729698583,1.4200232660012244
1.0318433420503488,0.26722547060433066,0.2540364013586076,2.3980679836827212,0.4519767780636788,0.7092400987786555,0.7989740377162212,1.7871537821002224,-0.835202913800787,0.4695765438046563
-0.7689965113554705,2.992028566487598,0.23194227946248325,2.0288040735279256,-2.455057507730559,-1.6531008653540726,0.46974645425038386,-1.106390728312987,-0.05549924368738801,0.13707814404455979
0.20959103840963134,-0.5191257421007025,-0.3636793340602117,0.2597900055776705,-0.17775353030580582,-0.5448131464176544,0.7283349989323161,-1.523373403578792,-0.1962924151762817,0.936571205343568
0.6183372316223241,0.6026567974684907,-0.6339314430727487,1.37371881750903,-1.1218549060122287,-0.6799728848754618,0.7546896531919999,-0.6474977920476579,1.2415370053403834,0.4850873514597975
0.8082584646113875,0.20584901581959603,0.48595669508172423,3.066077031012612,-2.5329217587982145,-2.698975683138745,1.4152787991871445,-0.9044805378540447,2.7763677503853823,-0.23342621928540447
-0.8544037352837506,-0.6913115697703129,1.0286262069845928,0.5370158848107611,1.9717105108626491,-0.8378374072325673,-2.3868751117338367,0.8866797489858252,1.0851359555414524,-2.4719223300791175
3.072031024893988,2.1297805006716195,-0.6546049794951816,1.7335749509387068,-0.16303276685620122,4.087235648648551,1.9030400245081627,-0.47011669504141884,1.3080673421227407,3.5870344019282747
3.072854709424602,0.5539228357931845,-1.170851559157918,-0.3148260687965513,-0.4133950170815271,0.8006681769855277,2.7436163822222577,-0.9145093990712387,-0.11513224389048837,3.152675489952411
0.3410055064839126,-0.9999577261502649,0.49526639820062124,1.2424322595384942,0.31032152833439397,0.12771457333915665,0.6300556682836383,0.12095743697311306,1.1816406980987217,-0.190722931748684
2.8479839076982514,2.485542539515182,-1.1512371893416313,-0.31460315280237006,-0.9155389360843061,2.2038781353287202,1.4871654676084594,-0.7377824424630858,1.892442868845384,2.5590984778056645
-0.5286999048142489,0.12540150690629526,1.6141898494329316,3.2832948473676655,0.12566117263021911,-3.058393312198217,-3.9653409228450305,-0.3187466221381314,3.208784155606839,-1.775470976252678
2.84120662754707,0.7786582984938915,-0.9672864408969194,1.0231827760746688,-0.7813981496804048,1.345188425483633,2.4850957588169718,-1.6161984344549971,0.6986136837521957,2.6246568410680697
1.978318395768596,0.9154807871223165,-0.40914079778686896,1.076141150989466,-1.0144366012937038,-0.41051921946258557,-1.0851801909486039,-1.4520128974008568,-0.5913890273556555,0.02331096962069865
1.445512027413947,0.5812444202951139,0.20013916714237262,1.0011903140131944,-0.8911665098564693,2.114316241901842,0.4490998728247137,0.4823824866512537,0.47754584478271456,1.4536627012062007
0.8457048261575848,2.3246686390577738,0.056160911144705,-0.2910983707754169,0.1600734470560406,-0.5378613816329533,0.9393920867058505,-1.0616770521460506,2.492613735948409,0.8619058415777032
1.8200778553384946,2.932923204873255,-0.10949691519732585,2.7963080703894896,-4.300229370055314,-1.242459626600167,0.9591619923264204,-0.045257362873358506,1.1552654891212346,0.49623752282953665
-0.20212499102488168,1.529440254458179,0.2105649197799121,-0.7597768625893978,-1.6784576930055428,-1.8083695599040766,-1.7293721894702547,0.011366179625282134,3.4001222668564663,-0.2219245584148034
-0.13566983340449823,0.44706276151564106,0.42922632546973716,-0.448713862469737,1.4264210767068248,0.03979798655224687,0.8655827420831144,1.3012376360942282,2.52609136441809,0.06483853846508318
1.9265655103366126,0.7918227243791993,-0.11686906364948779,3.220153339270417,-2.0088730493901927,1.384965604790961,2.416641971938341,2.1859265138866872,0.44396830540282917,2.0235843222591425
-0.4849708130641853,1.2309655584748498,0.7037030286945277,2.74056725218181,-0.03676297473605839,1.608183801491078,-0.18423763211058794,0.12435108292910299,-0.4069780838817776,-0.2331901996915684
1.0052591112437428,-0.6933448221366679,0.31682917804251526,2.7273621618993356,1.0444928079347082,0.651009385893327,-1.1438166500826261,-0.34051253101084855,0.20290388656901137,0.3646451956183678
0.6263323129840788,0.6043246184021178,0.557869005194484,0.8129858302782873,1.2842909528646385,1.7033369474109807,-1.845312889584293,0.9068352425698198,0.3047203659497686,0.19439120759719705
2.7480461091418436,2.8396262229311713,-0.734529828730502,-0.3012662608459894,-1.7683262618813138,0.01066381569506658,1.1642431028268483,-0.517072206337541,-0.5334377119428004,1.9236270895161258
0.5200978162895937,2.6482384534003396,0.5578530179663063,1.5095333282702312,-1.8761197405217016,-1.2551525103305459,-1.6699075360112217,-0.2182464707120728,-0.4219400786941364,-0.6112798121260681
0.9705413311327247,-0.7885348559408437,-0.10099984079853629,1.1505838028197277,1.0618134919873488,-0.011582318644332401,0.32060103941431045,1.6364725671144633,0.7836689198394484,0.7426101422347541
0.3974301370230462,0.5766852298147256,0.19170797008401,2.7588884651096017,-0.7520478355105494,-1.146327585030449,-1.1840546758685604,0.7663047164139904,1.8823256890765925,0.010771869500189771
1.0702298335154912,2.517645149991055,0.07146429636899548,-0.7103768948638931,-2.5282243488891125,-3.8766576662435392,1.3778306040527797,-1.5609003699310917,3.2768410157241545,0.667461517368798
0.6805971091140415,0.6015486217506629,-0.3797498884736109,-0.15786668012772487,1.363271208263493,0.21518767054687457,1.7399323367850745,-0.02957992423211351,-0.596136291980188,0.5586091554435831
1.7479262618776286,-0.8554634917342698,-0.4511641355166492,2.4394878173596988,0.2601761957099496,0.08617846549648314,-0.35817666098575657,-0.8508086509535892,-0.9897239927499245,0.02589991600955169
0.7189998654128256,0.08651455291259635,0.022757851256745676,2.8836977316207704,-1.2208495076534691,-1.4771747144424738,-0.8409516254251659,-1.031480843078616,2.1329814687668165,-0.47277850600773746
1.6770225259517186,0.8323497456435038,-0.1932587862261773,-0.9504406904048949,0.45719960021842515,1.7698248640000558,1.115275019186837,0.31297851749707245,-0.5625265119740865,0.2978261956280302
0.48422720424059706,0.6618322678165067,0.26639753589764087,0.09993826017020613,1.4698298786160304,-0.7263868623529464,1.3154299797916722,0.3457217713787345,-0.6680557444540973,-0.5778562681374783
3.0060354090657393,2.799708690435328,-1.1777684082646138,2.0331611922981554,-4.329048345161678,0.9202221823332111,1.4209600950449648,-2.8549248990389544,0.8926779958298776,1.6965467130409284
-0.18982151997582508,0.3201541447502545,-0.556968035190271,-0.7148633630470511,0.307138085713548,1.7026973195846913,0.7573908896770455,-0.3192233072494689,1.339280643862364,1.9259067500257347
0.6293005223304038,-0.23477214076485264,-0.43644467420769173,-0.6754127650450114,0.6484908852772889,-0.34308872759298303,1.8209418625859255,0.6176394778264152,2.106681664812969,1.6301489958850435
3.4145236335083746,1.7522626396425336,-0.8641452060001574,1.7010937432277107,-1.7809729823781304,-0.07280834572592637,1.2236186589815943,-0.2745974567357789,-0.9614079242736635,2.6343983674457276
2.8397065832326933,3.4230552818956816,-0.48477329073996056,2.8320455610282074,-4.103625612686921,0.34675429020421,2.4568479045588463,-2.6071420383883064,2.1771508345149266,2.403165977794148
2.1561412796446273,0.8929417889619284,-0.30709946303039903,1.5801119844367464,-1.0505148860789322,-0.2939795682812194,2.6972925080176373,-0.30742003410048135,2.780487668801856,1.5440877731726952
0.07269508307463757,1.933505901024442,0.251792884300276,1.2592228500468692,-2.261200339151323,-0.4653350685887924,-0.05434515483666811,-0.4071959602628479,0.8257391828862917,-0.29171902799819566
0.9977810760019175,0.28164978238836835,-0.3715050295755688,2.230075046099261,-2.6274445425639787,-0.5531996967257087,2.4861172067720796,-0.08505192420539832,1.708353392786989,1.2334027675454229
3.379198626959586,2.092843619463853,-0.5444308660587578,-0.8905333172187073,-3.087020554299114,1.2928173759302235,2.510002831423001,-1.6068624514702508,-0.09353087813701288,2.195118533511912
-0.33887311352718064,-0.07199059639249639,0.33933003589402405,0.41869905480252,0.9472137226768258,-1.433274296130573,1.3295938104698595,-0.22460215267051645,2.4359687345881453,0.4830618769148894
-0.3766350723464663,3.1510005969489576,0.9251762632754232,1.6248416890860207,-1.7183501047743905,-2.1649505851686035,-0.8524962195331947,-0.3122230012478678,-0.8491929562635434,-1.1104471771622437
1.0396940427887444,-0.7044360162246449,-0.5590897666476669,2.016964300724862,0.09085901029958728,0.5530271891031111,0.9100847853515226,-2.9617804404274444,-0.39718408641469327,1.6475264470952413
-0.9858266945132532,2.299732605582302,-0.20172127207271345,2.62069452014305,-1.3700152305583542,0.6236106516101336,0.012610973305821848,-0.36401985707527595,-0.2774405246458028,0.4283087335092432
2.7850819191096643,2.2432046660577947,-0.5302250061013667,0.19546526706101064,-0.9494722241639786,1.5666042488157916,0.21280018107855486,-1.2625646711256477,0.8369236677533698,2.3047054161794613
