x1,x10,x2,x3,x4,x5,x6,x7,x8,x9
1.211146688261207,-2.6300119649661657,-1.2305876120615378,1.2336183963685148,-1.5922846672795772,-1.1079196930999744,-0.567867751899426,0.0073433390733844695,-1.6213642607607932,3.4413663759885518
0.6881289856309545,0.48684462306445947,0.0249498687658356,-0.36120504780652807,0.15137345708403976,0.5146421924892947,0.23246016920326287,-0.44629321941489647,0.4040934717620448,-0.4892433688390684
-0.24048241685032806,0.38837664042196113,-0.1917736751554005,0.7029693152529954,-0.06659217647380425,0.8013574891329305,0.4758023171786351,-0.25027909463928877,0.4776271981274843,-0.5320717287286474
1.6089221631493724,-5.141279655319599,-1.2086347030053033,3.2507720045092094,-3.5265087009634732,-1.2150297551280473,0.5501639945241515,0.09356122804738243,-1.426954518177414,3.2011734092417443
0.7951859335868737,-1.1160609147838094,-1.0626282115678456,0.8366983051375065,-0.488778441692541,-1.1523945604310366,0.27765123918173806,-0.21071737710780716,-0.23843903257739088,2.439711081461309
2.5213430063063713,0.9169230139900617,-0.7527255287727468,-0.3157642339912746,0.7640908212454559,-1.197521594743732,0.21254927076952382,-1.240709753782063,-0.5780460619098761,3.4466041174422744
0.3096150445373914,-1.2976386322629676,-0.28180917118658827,0.7004106621083754,-0.9903203766749865,0.6616342229288501,-0.30563156103776223,0.36762532389720115,1.4502996548994997,-0.10272443844970391
2.680369766119132,-1.0993212622413253,-1.6034955117279663,2.890879411077884,-0.7931268010871251,-1.1405435382907476,0.6721603506083311,-0.549395101269051,-1.297808884900225,3.402786523306328
0.9255938812472578,-2.0908379580898226,-0.24819430672553375,2.901035354927693,-0.8764358781003181,-0.6440526807578932,0.4481576107273513,0.8038837782405105,-0.560068486535152,2.8268417180062984
0.7514335278130124,-0.74912430417699,0.011376155235073234,0.1599271121150363,0.6385214052316024,0.013375352573215012,0.35742861199611653,-0.6829337705594347,-0.5936127439569218,0.8930913681302206
-0.10576032433247194,-1.6654947045358617,-0.38441789982314567,0.14134145677500332,-0.7955444877631097,-0.6722877070037776,-0.17685057511010127,-0.02112496814963745,-0.4294943899074609,0.750869549057813
1.6332228552083123,3.510814024670838,-1.128148481209234,-0.1842387041649839,3.318112315566456,-0.6065862470659829,0.2064847232828435,-1.5386356501398677,-0.5233307940916184,2.9940864788220196
-0.1544039704382949,-2.327152311921094,0.026132636063801527,3.1081660881069215,-1.9360040050710658,0.18049865666627232,-0.7795057787889079,0.9753371242126037,1.1112840990828419,0.27451392071663405
1.09307338611012,-1.75732812050746,-0.005191709643710502,1.2900263378305823,-0.6701029594762105,-0.6399447842940256,0.4285228363112158,-0.26824131490119363,0.8192053076023214,1.257225186317695
0.43979884659843776,-0.03300625125290883,-0.3768200223208773,0.13559202342354792,-0.41145041610832367,0.6776681404244494,-0.03707743311477133,0.5084870765006293,0.6094681145949211,-0.5381111309490142
-0.8085678896898321,-3.120953934303936,0.7565405102101348,1.3509139770240743,-2.528672815313122,0.08582657907162732,-0.3027315313317827,1.4358788227426686,1.3650759490461766,-0.5136864479196013
1.9889484846043106,0.2621693431402577,-1.285696822532914,-0.7051123174178429,-0.014982371569605808,-1.8018720688181444,-0.25825120867447265,-0.9454316466446845,-1.259788125144848,3.3204978810358208
-0.28072937625526895,-0.6462477483395721,-0.2210412566063784,-0.09277088121700516,0.13015096062656625,0.18475956707736926,0.6848338386334285,0.40311114050625846,-0.13858272343890737,-0.13260705849172882
0.8195868257948857,-2.9304692819970395,-0.1948523904774181,3.1302195243747555,-1.8353053011441147,-0.3688764783055136,-0.26407346198897474,1.3735151952288696,-1.406805115020366,0.6157820985016647
0.7560604140658935,-1.0475421328008203,0.08766499818737317,1.9138832084460482,-0.518950193520432,-0.06276436004211053,0.3671853474424214,0.5760279723713362,-0.13224814476387498,-0.09788815335964651
-0.593408724276993,-4.106531179790899,0.04214567385260308,3.3718645348060488,-3.3017729755421703,0.2598809923876778,-1.0714356267681673,1.3544854249653677,0.5970870878918916,-0.583824999200081
-0.36467495610265965,0.19967912941088106,0.1883215984004315,0.8373649024052934,-0.4862009282867984,0.3993439117701111,0.22208936594599424,0.03887185707407679,-1.1939273030169535,-0.16562693333775957
1.149471612269648,1.076743129746193,-0.565879040728426,-0.29688187743148553,-0.5583989035514401,-0.7968053736255148,0.4157936782573258,-0.4202238241225609,-1.0069544891969973,3.2996140452110225
0.7470271477056832,-3.4849186119185664,-0.526145854722879,2.259439442010379,-2.4773362933759784,-0.7041514648422904,-0.5378911612017847,0.67040655791171,-0.5544561599951513,1.7952801795841733
1.338118422222683,0.39654362055871123,-0.7295433229408496,-0.3754110532156383,-0.21990638028786097,-1.0881861974195342,0.5157507504961756,-0.5058540952744031,-1.0875328628149323,2.644207684469916
1.0423519276517517,-2.5997305532869857,-0.2907562244119462,1.9124222776458324,-1.623089162634049,-0.04888976213963489,0.423759424748836,-0.45274384804706536,0.9612055015551509,0.7631920838289412
0.38946987123644317,0.5485119884179528,-0.4109187283231599,-0.524104586348004,-0.06496878374434076,-0.2933275332559417,-0.22910525528240497,-0.13828065052271504,-0.3230426404756197,0.595463492046205
0.044436024349130736,-2.8045485007353266,-0.04720087905571987,2.3556172195718097,-2.5431189405857046,-0.40998384406238564,-0.7169671804336125,1.4886159555713971,-0.05043515951940978,-0.11905306034229146
1.0815256623243192,-3.0740183897265982,-0.3345551496116351,2.8243869280211187,-2.0691653886881296,-0.7233362900608002,-0.2023136820779642,0.049924182700200326,0.3052217794696725,1.2376202700026528
0.29014282611479175,-3.756367669081195,-0.30947954099160385,2.8650082410558335,-3.7258454879467644,-0.21561966314778883,0.08566868760910838,1.5797699981333806,0.04462229532842034,0.6526288780082294
0.05530555895423874,-5.683976797366883,-0.4029374874596903,3.273837648134971,-3.836287655268797,-0.5196275585063437,-0.43779018561397043,1.126729938121622,-0.3559459247253104,0.30273265238261793
0.27573500166177106,-2.1985377893238662,-0.10820353394116357,0.5770290090166577,-1.9504922832200564,-0.17220145021222558,-0.9441064160140678,0.9860535193685878,-0.4684448283671601,-0.022929376679569624
-0.7917852406203028,-0.4004987212767546,0.08831000144789226,0.12076725014618606,-0.5901195675871433,-0.10485205148337141,-0.08554052774170928,-0.03294345731608528,1.0826546862620408,-0.9922098430458698
-0.9737771269575579,-0.0885040964285413,0.16276400559718646,0.9291818815628154,1.3683613504613918,-0.5398719897293586,0.33103820922883104,0.631656344774399,-0.13751777069832363,0.7786056075439356
0.7285436667300973,-2.8525186561257967,-0.8163385441643088,2.287343573654191,-1.2422692057174747,-0.2512627156896672,0.6220139129055478,-0.1995583874469155,0.5465566120160343,1.5721855755571132
0.13630330207664368,1.4566652092777321,-0.15626741748024137,-0.5034468325820856,-0.8215829307696786,-0.2145652842520035,0.7291559901328111,0.46143217917743035,-0.1602924562728742,1.0572071015515618
1.5009627111298767,-0.1822401395159139,-0.8378477327280229,0.4826520196672328,0.11939697838759405,-0.7604933648565257,-0.360634416092696,-0.4417728612741917,0.4541368233443718,2.4007977043427635
-0.42154728143950226,1.0037210089614432,0.3959436002790694,0.001903131915560241,0.34524084769765573,0.42985836444010805,0.04328001746827709,0.3480309988590268,0.2758200814755073,-0.46475552550032506
1.2165955112623075,0.22001822580956645,-1.2161110070520729,-0.6873200930084813,0.7559406400296863,-1.634272350559871,0.48896187712645817,-0.27568369068024995,-1.6939362896790628,3.3281007757737795
1.2847430654481493,-2.330376529935899,-0.7372706545931607,0.8874787094848111,-2.005458242293548,-1.2962877265221187,-0.24180216787832318,0.35231374793344733,-0.6968858461526245,1.689480283339659
-0.03620174389367769,-3.1367889166252567,0.3522994950446226,3.157492041620544,-1.6431055729526844,0.1325341837928555,0.13569139095436783,0.6691030337499104,0.26545913082318795,-0.35502446198082793
1.9642073805481282,-4.907152470128535,-0.8045517129439705,1.8657949059581038,-2.697856934681747,-0.06838401973694981,0.08128374234412356,-0.44243558586054754,0.7473117748507315,2.1763684181012355
0.3594365708556657,0.6064752936733884,-0.06399673787006871,0.06770520762646814,1.2137710484161994,-0.31858318551008363,-0.20261542897276932,-0.6290894500636288,0.2844676951008643,0.8421858630729504
1.38253656222276,1.3085045820306191,-0.6580499451578368,0.03052880088055665,1.1493446325651577,-0.5609236996082851,0.5248328915379967,-1.6852102698836091,-0.6800303400490583,2.08192724218452
0.0023835711229771746,-0.9755560550895296,-0.33837278445436475,-0.8067873817256125,-0.35464688406434774,-0.3522378413898459,-0.23597643905323165,0.49699525871373673,-0.6673895536737263,1.2577851357978007
-0.23583820987029785,1.8109965361772857,-0.02976080622308534,-0.3082040672306544,2.6325768094541044,0.31200477679269367,-0.3605913782719882,-0.9291312893125554,0.25675361163081456,-0.3479717083043352
-0.777197312347984,-3.116579397207874,0.7533501399742811,2.914552320668782,-3.10555555990169,-0.3154446174268021,-0.30730302241603513,1.4383588739367272,-0.075593583432258,-0.9266008329254996
1.3243979838243665,0.8596373363355889,0.012891950391411392,0.1052309577693189,0.6596916724034033,-0.7880718675546001,0.37124781359315917,-0.32704129577379665,0.17006651795060984,1.0427625494516821
1.5095255329331756,0.7601615270032956,-1.2324572715429856,0.21396403963198596,0.7806410352253917,-0.9581027023447226,-0.06582753109291534,-0.6778785444489837,-2.4740175140037315,2.9474787046939213
1.3775138609699704,0.20878485162679195,-1.661317454803899,1.7227305471379046,0.5495491358946065,-1.2085683599195667,-0.46204266454924936,-0.8878926756597242,0.06996498773158293,3.3210744757300548
0.7724981221798618,-2.1080375540388534,-0.5494330972302714,1.1790822846076026,-1.8802826126510983,0.16602839749116005,0.19965559506159325,-0.687646936572507,-0.07408229432302578,1.6844927059702264
1.4108618031332494,0.5790800355448683,-0.637089476309095,-0.5112035241423665,-0.38404130654214436,-0.6128944992552378,0.4565662592089422,-0.84730298788067,-1.2197706452746948,1.2106415105982555
1.2661310254961018,0.3216296564475482,-0.4282794869960349,0.12903522997190087,-0.040447937988513344,-1.1060156320423014,-0.0706705580221392,-0.6990662729313695,-1.2013709715525034,2.075176508483469
-0.2014741252014667,-0.8700496677617138,-0.0144534447468423,0.4527767234507212,-0.5648187641735906,0.873035736704229,0.4044797348075323,-0.3050563571710713,-0.37578777201286145,-0.15181960232701164
0.0008800603128975478,-2.4359589853976704,-0.18805866830800674,2.3077934190271097,-1.4941561747932566,-0.5589150281175382,-0.05746601532237133,0.06903952211203145,0.4297760644213854,0.4716192414041884
0.37267843822341484,-4.864794090006037,-0.49778981230620134,2.4008424680677645,-3.8479457694157366,0.17701147476020185,-0.5273362835344085,0.8545743570728028,0.6475905719319127,1.7209205568066461
1.271451945135775,-0.7196629734742969,-2.0718131288456223,1.1694436451288555,-0.8509653564621372,-1.2226198549311467,0.017467808127758583,0.3365463562448882,0.5504550804055695,3.326141464403775
0.2023648887688387,-4.15420196360991,-0.31524959949273446,2.9375056891445572,-2.8504218962692542,-1.2183592998635053,-0.3458150369657328,0.3991700516468565,-0.449952365240508,1.6793877733666682
0.9937047747055046,-0.8307628391504165,-0.2891486652185343,0.4420113797052152,-0.4865852479828135,-1.5045554165807424,-0.1194620581679619,-0.5324527420074573,-0.7213031490546239,2.4972803163756234
-0.8642351283769879,-4.80366681561069,0.376091636357247,3.244702262929822,-2.9917776868751824,-0.04367534249753459,-0.4869315629865113,1.767976953657299,-0.7210829325504208,-0.7689081727020608
-0.41786612249612265,0.5602305789232113,0.00047953168355289235,0.3516428938251739,-0.6911792864460008,0.3288241664827603,0.6249826802150876,-0.0679563204501547,0.6837262298630735,0.48940414673805566
0.7309832733908997,-1.153419573085762,0.02051847789383616,2.2175272788252114,-0.5599061117205444,0.04671724848074966,0.39881502502891486,0.15988735457104633,-0.44258338323129043,-0.2341561396005093
1.4388521297302777,-3.466491407166518,-1.2631293925829725,2.808245359731593,-2.8031612269807966,-0.8078105470095662,-0.5368282391515491,0.24652602729637052,-0.0883142471669721,2.091234646806164
0.08548375922703404,-2.893109080831922,0.01261450969758037,2.394843749300664,-1.282867270946876,-0.6498021309266138,-0.029474689911198844,0.6415623492376253,-0.4928437997911448,0.8215718265184151
0.7905655575200492,-3.0525259983477055,-0.5468213491002669,2.6920686763911963,-1.3358322493850279,-0.17708509662381933,0.22004453510346383,0.5105075725571088,-0.1774701758672598,0.45216228400386393
-0.44360755879798064,-0.832372402708963,-0.04837663584977345,0.21643762918279763,-0.42056967837130177,0.6085767650670032,0.020003574954265968,0.40037434076983736,0.8648312892157624,-0.7773167350245302
-0.9684816952116121,-2.3976313152753486,-0.05201602924667019,1.7213821692956661,-1.0245524443142748,0.46250772491362896,0.22451945923381422,0.4346569346952761,0.4493649175753166,-0.8749042021153567
1.4161989555664063,-3.874680744746048,-0.745261098895222,2.6979267620606158,-1.7519200336830354,-0.30492194553606894,0.14082082845580238,0.39697787131221235,0.7099071732594829,2.0804683672319864
0.08258074428344579,-0.6486888559232111,0.1621365587266736,1.104585879338733,-0.3322677910585448,0.11016267810439608,0.055124795577525754,-0.22193843078670455,-0.09279748060415043,0.7866869611436802
0.47905653214547356,1.4557686013104985,-0.6929077614368764,-0.8262153810413444,0.795978558682545,-0.9174610865128486,0.40548878363112073,-0.3271271783867661,-0.8748233790296908,2.2331505359717654
0.1718337993649292,2.2503498575012726,-1.141988362752357,-0.2950687044526702,1.0130300986862997,-0.34015021609433777,-0.1432186361916809,-0.29901802609182027,-0.702228843552475,2.419574188393208
0.5215662107459146,1.442870263359432,-0.6264347770642398,0.20253534873194723,0.23101550372257984,-0.8499808889465825,0.13687536762662278,-0.634492071938012,-0.4943610820544085,1.958734549886128
0.7914964744498051,-1.9945780322216335,-0.7898445044019008,2.5174977993605903,-1.5201816160748616,-1.077736775693377,0.06432748251426967,0.11381931493339836,0.210019614517695,1.9959112968656738
0.9006186515721877,0.4708965827754958,-0.2810018652323839,-0.22015342244983216,1.034960344071672,-0.8678267499664153,0.21457779436664598,-1.2851638862608499,-1.50846093214399,2.537168185938338
1.339503213027053,-3.063643957556225,-0.35622323377151627,2.495650729052574,-2.3396441006396103,-0.7808229792513386,0.0008505020061906066,-0.4353018586250975,0.09481642585231305,1.7031711137431862
1.2275355353878004,0.9103161036706048,-0.7461959094943266,1.0021957825676817,-0.5050586710994226,-0.34149363044928727,0.5585409096689506,-0.10235634200063828,-1.1116747760021144,2.886405104774314
1.701645211155415,-2.5158028981238805,-0.8490596733840169,-0.33329571986611795,-2.6948673792821527,-1.3974304504286417,0.2562305267766569,-0.547640795514055,-1.3708188308510048,2.69434162919029
0.8714171278217099,-3.6742257530844946,-0.673107304880793,2.903730329893805,-2.2062991514872903,-0.995923127787472,0.7155815899770863,-1.5636693744050036,-1.149368115387524,1.5845235968804379
0.2616649440835682,-3.204962983025655,-0.6140932050549281,1.4381092153469215,-3.0851809904825487,-0.7782312845261649,0.021883227306527753,0.6764879280615007,0.6225180069141882,0.4630747006631606
1.8237453483671155,-0.911154299642879,-0.9798602574213835,1.302015958661717,0.6603727806229592,-1.1538737998670638,0.027930803601693588,-0.23600260360204076,-1.2147500925274504,2.7923470632309773
0.42979651713470723,-2.5240803961745057,0.29053861748961723,2.1346972916574294,-1.0691566307953413,-0.10786936500045856,-0.034647057481401525,-1.6415322513419148,1.3427240432461838,-0.9816274677450774
0.4923028536327234,-0.5357555915966257,-0.047297834607485885,-0.6144372836628913,-0.8385404118933075,-0.3584892105826498,0.39384512795122595,-0.19163848016805715,-1.858827789329504,0.9075749935776491
-0.03891948911314267,-3.809603870110109,-0.47790398696630765,2.264234289914213,-1.777599209159975,-0.16575087140732442,0.561313175333391,0.26698220362670394,0.09981714242571453,1.170693691753689
0.6352415179474434,1.5616115992985107,0.2957815204462165,-0.38781954093153925,1.0383668033608375,-0.20030351933242888,0.3757873823932112,-1.2999538424065467,0.9050144982896497,-0.708257499713079
0.44203191403436887,-2.2104926595663144,-0.5987789935947391,1.8528912563373554,-1.2613435935688517,-0.46601699883545267,0.4697675983546473,-0.29012328807818855,-0.13606846565766914,1.2204687917354633
1.4833726915223189,-3.641916669372217,-0.6682753387527641,1.6374457475405255,-1.7063661054343386,-1.4175383066551845,-0.06112866906790762,0.5842474350982957,-1.0199363400908432,3.1335649042770477
1.0327611486453583,-2.383459147790571,-0.2514161271397853,2.101840548898962,-0.2815424217857101,-1.7214760463391836,0.5549527926004842,-0.8404807731014656,-1.3873243229911663,2.734847902322047
-0.21269660635342372,1.025714750982798,-0.6095378197112216,-0.29374991850751975,0.277091997905828,-0.10427976607504133,-0.3780168130696839,0.5201633301942407,-0.17723257979867257,1.2728452717767502
0.6394406341820232,-1.699110624962277,-0.1161769170602788,2.6447783452115163,-0.7899686572719424,-0.3829439101832264,0.6432466670866112,-0.14519847423911314,-0.7069871357910655,0.30973771229193825
0.9767184663739513,0.2794515567835791,-0.3452960653941165,-0.428873255656009,0.21309394866409914,-0.4415163178893488,0.22768116497871393,-0.32715363326004143,-1.2539431997569221,1.5751406533322485
-1.0128142313748743,-4.9509162487209215,-0.07064127930970013,2.6527189678389975,-2.670784523795233,0.2973105875322118,-0.010291990439810605,0.5463865312497339,1.209152106461324,-0.4523267813902897
1.2027695178681244,-0.6512544078118583,-0.42554291848280196,0.22727964868325445,-0.19563990443908294,-0.6551694288323137,0.3498235787950256,-0.5378428322718494,0.051838189060044955,2.279376287201875
2.289199968641623,0.5822562487956093,-0.38694418981676565,-0.5724189820853044,-0.07738415609884478,-0.8059046377287069,-0.0630768427293823,-0.38903069584139616,-0.7477037946814532,1.3226795753953433
1.854473346114661,-0.04542235506071676,-0.918472106173149,0.30640220772322535,1.0491341833206147,-1.2632841088415492,0.2316487348589056,-1.0346818126403488,-1.325772267557219,2.6744733055870213
0.6955484317061945,-1.5515756099230682,0.09236240250549706,2.7249321807776825,-0.4680757463788537,0.3011701365673418,0.10654453801659705,0.9690807819319284,0.6593772888971902,-0.27002213615924986
-0.25570795483613507,-2.6883413754296432,-0.2829044791838117,2.8793356425071903,-1.3174447108502405,0.44128348641760995,0.07862846200116103,0.990654117694334,-1.2872832628295936,0.09661990083973082
1.3455359074103344,-0.8187746366734489,-1.1379059719179985,0.9018708844826036,-0.6808669849721234,-1.2944417433848752,0.6403377588912228,-1.1185262381156234,-1.9009447532715749,2.6342078477373656
0.7665538546759474,-0.6411593158300513,0.014349605759636952,1.7266365233502272,-1.1225478598672884,-0.08666413914540416,-0.08763285326948717,-0.33383068449126907,-0.8797406928227396,0.08916533694347994
1.4694806956465105,0.5751368366771215,-1.2110705119643215,-0.6457653889085917,0.8482329108411217,-0.8989088685027914,-0.27144051899307897,-0.4459765416524689,-1.7013054889214485,3.3361842124189636
1.8716774802328855,-0.7253469351636824,-0.47479313261603145,0.38652324029216856,-0.7658338687773092,-0.34171278569404456,0.0524761183038345,-0.5800960120379535,-0.09753356554078654,2.1267651211059486
0.2880116688202696,-3.1214476886517275,-1.2120929677057974,3.146360076050077,-2.0632044844449378,-1.3727086834593052,-0.2972239526115319,0.02508022734542388,0.39830868134014236,2.8562811592187747
0.7650945550780198,-0.8062787359548146,-0.18394847822420163,1.1255109891351633,-0.7481543193775623,-1.018277575022974,0.3703268130091141,-0.9299523834304977,1.0313138734178513,0.9613519441212239
2.0321604265582724,-0.5365260625058078,-1.1879565366618428,0.2654169542055351,-1.5402565606487673,-1.1993613872793452,0.5030593108333237,-0.00012684377998722907,-1.4785261714790128,2.8804046985137015
0.521023537981736,0.9757678764755837,-1.0563701322391934,-0.5317447924488045,-0.06992796059897506,-1.0692360860273884,-0.07718663548280362,0.4487283225795371,-0.9570019210474103,2.5103428448810416
2.2963977249542857,-2.6103872173920277,-0.9394146153651716,3.381684759961665,-1.4611334060133705,-0.9623289234503025,-0.04658743352268646,0.20952392991638552,-2.3213069126225596,2.6715953067558966
0.7313857278467859,-4.169932436616361,0.20073310825544258,3.2019289594158282,-1.8554396791152303,-0.6067806512244661,0.29515949849258016,0.8479974068985764,-1.0809296965031032,-0.7130305173547258
-0.8548537821383853,-5.175133759616062,0.7939480913911042,3.233344991357284,-1.4160199793203345,0.23523544544482372,-0.39883463502330685,1.1431925409366923,0.1796879259275832,-0.9117455598542855
1.2220373002207232,-1.6424148516402157,-0.5654108892569678,-0.4135609283988384,-0.005912266618662723,-0.8998372997197257,0.628057345652387,-1.0530643323919489,-0.7663179901617214,2.425916439370191
0.6480265593568053,-2.389847907568573,-0.27270978441528815,1.2506211457169578,-1.8029115066145225,-0.5195693387537834,0.12496274080920193,1.1305624952393476,-0.3841764911180946,1.3888382371309231
1.6562926102557152,-1.858979994352764,-0.39359907459198396,2.087529207411274,-0.37577855646442065,-0.5306691026974079,0.2776211988713579,-0.21734274538115897,-0.16263695711508694,2.102205021029304
-0.1168263027753334,0.9876151743064695,-0.4704911971789482,-0.34076731957381134,0.7413114066601771,-0.23854773058797774,0.5256911899321983,-0.5270192486809752,-0.879729893619254,0.4354151867940763
1.1971102508797986,-2.5996302885191165,-0.37612758376442296,2.3478214293159687,-1.617170804350993,-0.09119775400667435,0.27998561584782095,-0.04929589845841764,0.34360405488651563,1.007395190061668
2.222651765710435,-1.2111732493167318,-1.0496126317613015,-0.13049501891266735,-0.6042809196442988,-0.7153160091492181,0.276355502588267,-0.31474261358341205,-0.20787598351902747,2.586205301122765
0.8838642842748536,1.6203236220615704,-0.9917398340517195,-0.3100466822834207,1.2500065305173735,-1.404611841493174,-0.05081213961994219,-1.1239426919456204,-1.8024267515832026,3.390161481662152
0.03822330891349593,-1.5003204369927947,-0.49997494105463347,0.7757367920618596,-2.1391169606855986,0.032779568106543755,-0.45604100245045637,0.3994709628329475,-0.2652357124735016,-0.7527744285976812
-0.9267555603826153,-2.1954242966912165,0.05876796509649581,2.250165813891107,-1.1767440790175685,-0.6822546383355345,-0.21755404646056622,1.2023720977330403,-0.3277149292923442,-0.39079643295504485
1.9476103387438948,-0.7598616249317571,-1.2599228470842154,1.2259288073447965,0.6265298292532043,-1.5858780567913833,-0.048858345441802675,-0.3320384288115629,-0.6880535745390106,2.6218845369801587
0.5860898586572878,-2.950519019159308,-0.8833165318317198,2.1934191918178843,-1.0576014537325436,-0.9583995489530741,-0.28735687129233833,0.27632521640922814,-0.18432878034810848,2.8107776846278223
-0.727719070873944,-0.12240005012564274,0.016819247351257526,-0.8890003422135749,-0.18126703773351704,-0.07524417517573526,-0.024309323157733764,-0.9670512861905292,0.11792077219514535,-0.6330074416629632
0.014924941695128308,-4.202112184185648,-0.09831150588566528,3.1669999625686636,-3.535364009484386,-0.29242180836850235,-0.7205379533022056,0.6331694717951085,-0.3605133596217771,-0.7369261107742489
0.315880594437588,-2.603016322506545,-0.38536795553780423,2.914672250886575,-1.4184018793410165,-1.0813021546883792,-0.2598038976507152,0.7407502875568531,-0.056680935159290693,1.9099552254793992
1.2402559474350345,1.6061922019898538,-0.7819948797472756,-0.6752955152667475,1.528073976123938,-0.8501938107253514,0.32572538399582246,-1.4544576535863363,-0.6022269505801594,2.5575763788385757
-0.012961087163970528,-2.7621978427991505,0.5426112473012016,2.8635033041045403,-1.6473759212099692,0.20950377174662974,-0.12262306748520627,0.6915308875445192,-0.006121051340691101,-0.5746488076920111
-0.6147478273325883,-2.6052990850007256,0.1742670341318928,2.194911074151139,-2.4282384817059905,-0.16866447596847378,-0.4779666434226585,1.8016063242233824,-1.3508512369181684,0.19838360954448642
1.6711553223116795,0.37886312984945625,-0.915807286482781,-0.37709045329472923,0.7342675105217051,-0.9373409972759882,0.5045796710453878,-0.8445197582075991,0.00734637045558067,2.854961270837081
0.3013355295006448,-5.092114246208413,-0.2167334350237575,2.3063648998380146,-4.464682173196535,-0.4603034778856279,-0.35537155084553873,1.3480236429263077,0.017576485571631523,1.0129247253720846
1.7175553670880437,-0.8587241976707596,-1.4581861529407194,0.5259046467592543,-1.2579584299535256,0.30233125982548514,0.7318845693813507,-0.9101713767572422,0.7633285595828344,3.046876407138747
-0.2616466161606088,-2.9410115819617637,0.5042992830401375,2.8372165927257376,-2.1785173582007142,0.31720333321370975,-0.44459530623970905,1.4213789134591424,-0.046751462483426105,-0.9568240968864374
0.7225721324870592,-2.8579357648696986,0.3005182502667149,2.5130130137174347,-1.4014515733935577,0.6533367774981677,-0.06251878479617837,-0.8136623093638997,0.15746237091252394,-0.40833073544585097
-0.29788619861129884,-1.6650581923216057,-0.41699027974675196,0.24075735092626016,-1.415021459872364,-0.2798878568302421,-0.5496402007791616,0.8354169519212217,0.8206244572502213,0.9841485495337801
0.25527778930715483,-1.881678123760722,-0.40016339962510167,-0.007580408074391531,-1.2639852298842758,0.29670942088624286,0.03970287248638171,0.5754809188778014,-0.9131232126153089,0.7191332464235196
0.8976578683260484,-1.4225309401655801,-0.3925593169923519,1.6297278859956221,-2.114647015799881,0.2406227698019493,0.2966120955422882,-0.7045810702042522,0.4897240384988144,0.7819406918389988
-0.371486080490731,-4.010094715306156,-0.11906718340691441,2.7921966747316582,-3.1672430479924243,0.3540328330082896,-0.6187962147982823,1.51309381733266,0.41376072461388774,-0.19652362730242012
0.6648050328332692,0.23859429613912767,0.43973743042048524,-0.4320636168067652,0.13777944510468268,0.24576398248158543,0.006272000447997583,-1.4929700994182786,0.9550216903154689,-0.24423052769739495
-0.2783971388898573,-2.118914394028544,0.31053839378945364,2.3012600554546947,-1.9830497076844384,-0.07068916403565707,-0.05314019536104185,0.8814518755547129,0.3157937215970853,0.4777940626921968
0.593450538358574,-0.2500869221115372,-0.20269397213407125,0.5318277175984463,-0.967931803257833,-0.10101664517193526,0.37747422295635574,0.030311314608751916,0.861894304397364,0.2858050793508804
2.200415978886054,-0.045324396381550655,-1.0812593730867932,0.5285836406938458,0.55440466786187,-1.1255759729880634,0.4564121417773776,-1.060971926625133,-0.6911090092555812,2.935641641795516
0.2932581304130426,-1.5038759731449054,-0.38770902630567006,2.0377364781036147,-1.1055267523537466,0.014308834938191524,-0.5435528812827171,0.10967725624914093,-0.7118703635666468,0.4685138079849933
1.5215745602082131,-1.159707707366654,-0.9843999076221986,-0.05683808565588544,-0.06166304589215494,-1.2121349476211125,0.051646950054475824,-0.45525076873025705,0.49454372068567487,3.4493943330774037
1.7894797777722722,-0.9518638648064911,-0.34760143399826565,-0.7129927928791844,-0.872348763937244,-0.9422960069488132,0.9918025533627342,-1.1169143762715095,-1.9233212111109348,1.9168113605210193
1.9897295679139193,0.4544303091152113,-1.0253369684628264,0.38026660452102146,-0.0842133819118371,-0.9858151650405191,0.4104016038884372,-0.8088976250411495,-1.2805948842830153,2.815115270140129
0.06964294746610611,0.7871510702430229,-0.024118584936983135,-0.9421986648002094,0.38584756433930045,0.028013645090416563,0.3338766487584554,0.734078399894527,0.6927709098680604,0.46538514719884594
0.3606375935922441,-3.4262115648631126,0.6658300985040434,2.9750811794419194,-1.9455694912749342,0.2656392744696381,-0.060673280724492906,0.39558652013559736,0.5811092943145217,-0.8937540611261612
-0.8588519273352044,-1.0969052626015239,0.13183081591253307,-0.06226343912139154,-0.6886631089934521,0.07744521905562102,-0.494106402441675,-0.13645214265758446,0.25332030085631163,-0.76335964086667
0.808129372403211,-0.797590769781846,-0.49755364183150175,0.4206855945085195,-1.0075748802139417,-0.4322150651815029,-0.5816792105935207,0.2602016589562518,-0.6080605390367533,1.342115990942578
0.5483928522264587,0.385747805625532,-0.49172475434102253,-0.6118002086170904,1.2739447554092582,0.3956495732130087,-0.4692273056409113,-1.3577821302222275,1.1953855205799195,1.034001680513557
-0.8858692669475714,-1.443798424890006,-0.200532436420628,0.9969025636325048,0.13387616687193682,-0.11441158106665589,-0.5345240385721635,0.5538754055574326,-0.40881973091910573,-0.82810623202627
-0.6080421696507706,-1.5840326855091327,-0.4551552191019369,0.8825589985139715,-0.6062212460911551,-0.3453893203204869,0.4986460185656547,0.2811476304648252,-0.25670583400106123,0.7891519395321984
0.6681138125115275,-3.3962069255786544,-0.31917476762348945,2.850515901161745,-1.8002387866501552,-0.7472946832470864,-0.08542072987576164,0.82337555684414,-0.5248661457957162,2.077919361127893
0.48934332843470724,1.6042208092823937,-0.0429941279681543,-0.19967852352882198,0.6873376781657345,-0.40261002584091626,0.18246152986299893,-0.025172227865870055,0.6626174927867893,0.15840229854796406
0.1718046953954551,-2.0539740821053303,0.36401558731129985,0.8017486789146133,-1.8605399137271428,0.05923649275243257,0.13556369788293654,0.9053475811166196,-0.3390510684753937,-0.07108513186204779
1.5407408456728,0.3592409749710011,-0.3089933935652018,0.06931839531430573,-0.4048755199458203,-0.7966900446220097,0.16887519948134155,-0.018896860392627057,-0.6678911806508062,1.3428718936623225
0.44078218589121937,-0.8075743723121268,-0.3299517047518665,1.3289219806697448,-0.6713829399734846,-0.9000624387341793,-0.5474260239407068,-0.06761019531312502,-0.12806209154258932,1.435376973958585
-0.24767043821289556,-0.5267874970155753,-0.5703236636848031,-0.2809184186642929,-0.19458809819269723,0.3346763769156051,-0.19346111951061412,-0.23852591370680337,0.9423913888783333,0.25652535528454656
0.2508327719633593,-2.375758713650643,-0.406766173661373,1.6157230771362903,-1.8721392576605913,-0.13588462019568037,-0.26829986722985266,0.2693804743447521,-0.42051360666952897,0.4434316746625935
0.36647535766725825,0.9358274906419841,-0.8385039113228596,-0.7779800951798501,-0.6303520220559385,-0.17357132823522578,-0.20569404511302777,-0.20084505219038828,0.2731256588454872,0.6472774093662899
1.4594471824878998,2.1205046865162265,-0.8242237141277492,0.19947652192128662,3.3215956081197584,-0.8651219225322534,0.618450996733293,-1.9340306553626274,-0.712189096605077,2.868724785101261
1.505941704106535,-1.120035621662894,-0.7517356940072901,0.09613672123002637,-0.834365631231362,-2.004355895335797,-0.09923141468871732,0.5607010397222795,0.6452065786475393,3.3957903345145306
-0.8250020123099372,1.1933285432030178,0.6293975118007448,-0.4124709929591136,0.9954495528350548,-0.12718578054421495,-0.4301019518592688,-0.2149954893434402,0.12194253845024453,-0.6602871153289549
2.06384783084682,-0.5746912816705982,-0.6465846048504067,0.34837574781715275,-1.221021886146181,-0.38130882537553906,1.2680335208218172,-0.41006130978118305,-0.29491651844260997,2.3889219407437974
-0.3723156281046272,1.591353682253914,-0.8452192240079023,-0.22857616209321008,1.3480328840669042,-0.24302669920149447,-0.5193555025862827,0.23397467230717472,-0.7111766685761691,0.2995266055010415
0.8543428462770845,-1.7356617344430858,-0.11949645499120537,1.1763569422810027,-0.8754984306451141,-0.3033998607322076,1.354435458858446,-1.1877477105269798,0.07883163701060525,1.398276877219549
1.1744371157469682,1.4044790327200682,-1.1667181068726198,-0.9045416818056122,0.6439508914413282,-0.1077217299727739,0.6011211621995277,-2.4281980223508954,-1.2060606025272662,2.627990735007016
0.3717304722359099,-1.2003020138403686,-0.29333317190094416,0.7772947466044173,-1.790012411162731,-0.41509834638722454,0.5094827193473918,-1.1435831039240436,-0.34029698714824297,0.5425912678976512
0.9460081867651938,-2.492717040578451,-0.8349353811591307,2.55527602057131,-2.8576697035061507,-1.386523350033701,0.48405566616215123,0.1329627296036,-1.674733454498194,2.715961405577666
0.48804564990542787,-2.026777819396249,-0.9661058719885564,2.156449384140654,-1.611696394875987,-1.151831991911518,0.2450175101304183,0.18658932750326057,-0.8511710354800034,2.0069808485351097
1.3641002031958807,-1.1096968549300328,-0.7068348976430632,-0.043594935444985605,-0.3096513050326712,-1.705810672482844,-0.43228811707562165,0.891139464042641,-1.0848753723822657,3.3462705782913957
0.5008804006302745,0.15719262804197284,-0.10792651703222193,-0.6065855098681284,-0.4762963994432791,-0.16374700175641266,-0.28243910410977724,0.17622429092571162,-1.2713397596382243,0.5049237506140911
1.363494730467371,-2.577525114851007,-0.6679543586598146,2.179714850902009,-1.0430645273025607,-0.9088057658699518,0.45117197308568924,-0.4815995557414824,-0.6282089201496951,3.286094103581191
1.9315724383328559,-0.2280222247240263,-0.8246920288968155,1.4342501601663362,-0.22934873364161756,-0.8689502482945515,0.15744640276989824,0.44600794065684835,0.14457956910884473,2.81951977371912
1.8426269752742057,-0.24368871989780327,-0.6025406825668859,1.062066231690563,0.9068828343091396,-0.5565471220040344,0.20368886611952752,-1.9711928530113063,0.12544276017888306,2.3871878767148544
-0.8715229515856879,1.5594636910678052,0.40420765443008466,0.19544542213100957,1.0282205009945025,0.774090569983281,-0.20740754775350784,-0.2937428599837283,1.8136207820909875,-0.47792182645798054
-0.8031895376444974,0.5557465632259142,0.4570599520521932,0.6170361162735956,0.4478012354732349,0.33147392054531827,-0.4472703494302803,0.41803404480150874,0.6720385043788984,-0.4951110068453638
1.3903465064282468,-1.028203539661286,-0.8673941582044515,2.081222564556656,-0.7734642917944923,-0.4210030688154828,0.13707818570254635,0.38418173177284226,0.11523906479746004,2.0960470140223646
-1.0088842788815984,0.21817874882572655,-0.0331047705261949,-0.8958038160886634,0.8685415180678145,-0.5045229810181684,0.06391150939972516,0.18119578004655185,-0.3838648964029538,-0.906136919242805
-0.19890040748341287,-3.896785201304339,-0.07687526497609166,2.4787731724973394,-2.832852681822189,-0.15356507564065283,0.1610698093957863,0.20822448945494715,0.4728478481946778,1.6624111457860056
0.6558028618610626,-1.981014296689437,0.08903767047430443,1.812439467970485,-2.1274605552934105,-0.5566471832428089,0.1501982451400698,-0.5775306479181239,-0.04154722129959481,1.1823940981732486
1.3449536054068447,1.6233750812347374,-0.5970749111706771,-0.09452283695591535,2.0010643529734837,-1.190342112243178,0.31452023266005524,-0.6306632254502946,-2.0393057530670378,3.1987438258332013
-0.6218834862221346,-3.921149349915579,-0.6132881634656312,1.3900543597795498,-2.334060075148009,-0.2263043771807004,0.5554519590648246,0.5170902858030888,-0.9366412745758899,-0.2076231798974968
1.327640836095369,-0.2824320007571084,-0.8111032147325111,1.988711784090634,-0.910827628143173,-1.2568977708993767,-0.13793054872584998,-0.8092547813411468,-0.04823306455987101,2.8491972951927926
0.844663287960289,-1.1298076268283432,-1.1499174435656094,0.7384589707980238,0.3024280644359296,-1.3082905696151066,0.27533588361054007,-0.2871422037374421,-0.6111815426405907,2.61922986376705
0.8339114517696984,-0.6367770292227164,-0.2824225208082835,-0.8896733377223436,0.05070519990986989,-1.2405356910790695,0.45576945390570334,-0.7873419128099726,-1.3855354585783077,2.463300037329178
2.8047971574070494,-0.31608296331640473,-0.35388260124267173,0.16498437828614265,0.6815153137692612,-0.9883063222429236,-0.07420707326532029,-2.0386379092033056,-1.5059086133215651,3.219862077161543
1.2934283484647546,-0.016463983538965127,-1.3664377656351436,0.46740869865632706,-0.06856130620421835,-0.8874381114820482,-0.4114352848462264,-0.6511012705703851,-1.4185658713349243,2.509103003101842
0.607071204656311,-1.1199744633603073,0.3939170285098704,0.5943953585219022,-1.4297283083110772,-0.5040189225969225,0.09963657981622244,0.04448255650248066,-0.24472230580525836,0.8859522577451988
0.9749782877248439,0.0410490681146827,-0.4625959699801207,0.44364755009046863,-0.3409564503951413,-0.8798466656535547,-0.1035359045043544,0.4675436317115024,-0.24085307644372478,1.545083763599131
-0.07635704143989727,-1.094034438269324,0.28166250105091445,0.7436377272431696,-1.0600829178125135,-0.09425039841848708,-0.14887016192200125,-0.028828526501260165,-0.1608546689257487,-0.46153498665740933
0.47290350481382226,1.7689017729089445,-0.5260074494233901,-0.13275286703658296,1.0685454748790615,-0.3865762360627134,0.17290775909935777,-0.9591123440443917,-0.17527384397889298,0.5732347781566693
2.041517469564533,-3.338448697909152,-0.36845086273034877,3.0859808722249724,-1.7231668184124207,-1.339573476832245,0.3531613241702738,-0.0262989964582947,-1.3224773471488322,3.0481776439937276
0.9211912751377875,-2.3966029280920718,-1.0029424563001879,1.030762706109443,-2.1455670123338724,-0.7301382425221715,-0.5643219154602709,0.08649026647760949,-1.1508437300403136,1.830930763079921
1.3127909588859736,0.18826406090993097,-1.2050624920549875,0.6784127390421879,0.7126556233104006,-0.9781300952974594,0.13162989717200668,-1.325713743382444,-0.5700743776442482,2.6791539744060424
0.5727340978769495,-1.968463085607762,-0.19215146941514624,2.3522306849405425,-1.580987680999429,-0.27763597590229044,-0.03423364786381511,-0.6804751625078982,-0.787842252010649,1.3404840540302545
0.7123113565965419,-0.9004888417580006,-0.21285428080646146,0.10064130737871602,0.6592279696684263,-0.3762376347844303,-0.2693933248526653,0.22322619387812365,-0.9010460470749443,0.6709758053455481
0.6852553072564396,2.0403266129254836,-0.6894675270843673,-0.537231949084367,2.251296244309612,-0.2204313015093604,-0.049006485051056925,-1.3676233480914037,1.1759208643226087,1.0707858040657423
0.8437248746867654,-2.730822748101202,-0.438798886767037,2.562193175781537,-2.018990483757934,-0.2996345148232514,0.02696823572312764,0.6046404889417788,0.4847083980648485,1.1186500400357313
1.937867140072093,-1.2461675380614212,-1.1508174886126055,-0.7022544637326602,-1.7980693925223004,-0.6923346185320877,0.1407911570951796,-1.1678096476992386,-1.0254624118317317,3.130473391894669
0.38383535606245517,-1.3914416859930083,0.02453166969183109,0.4454928625896031,-0.8629480379508555,0.20339610553608387,-0.3588229305899133,0.5694286221783276,0.9306771575518341,-0.4446772917412236
0.20293469833392294,-0.2395945170424916,0.2080155721384117,0.5227631350332127,0.3414070760046294,0.9477540601241584,0.37143831043013603,-0.4027582382314865,0.7489997171391234,-0.7000001189657129
1.5964330944482787,-2.430362342385431,-0.9537364418857182,1.702752990064441,-0.8058664581719586,-1.3315776740030532,-0.09030437081609691,-0.5113681180238845,-1.7632358008967521,3.3231169101412616
0.1196794960175854,1.4895753384772235,-0.12432017550754838,0.9393223367627395,1.2516490401734865,-0.4649397308991279,0.7670172128795966,-0.15355501411209976,-0.06314533086775424,0.6051521543121663
0.8443425604858179,-2.478133209394504,-0.6950041983353215,2.946914773919291,-2.6826896340131383,-0.8927534263459628,-0.08692693012640776,0.03893236233004782,0.3341858428090534,1.2559513688429833
-0.5062885727985186,-2.221148349885261,-0.0006050136559756849,2.4238998914720074,-2.227033225691359,-0.1569595975067186,-0.16329883418671248,0.9317038602215029,-0.08430804754495862,-0.8229601136518367
1.1056981559389707,0.7461418303742555,-0.8741178000141484,-0.4253452010791392,1.0101994742592986,-1.504833339561196,0.3187665515661974,-0.5817706252943394,-0.7142092451529709,2.7200703489110705
-0.7459966050921476,-5.581750527909085,-0.07797448292849649,3.3685931974379058,-3.3644670016279976,0.18617699446682703,-0.1707240977282131,1.8973548771983877,0.3596661626873878,-0.613398012661966
-0.7404524290403376,-3.7847934997685355,-0.045770845852661654,2.2792642471900515,-2.230151485954884,0.10740715034152509,-0.22823194179676645,0.23551902016047777,0.8842568665965201,-0.6031652540941446
-0.34938335118739355,-3.6192586767782076,0.43552993891417996,2.7656768037752495,-1.9225615010210084,0.026576168598237644,0.3146037041208905,0.8295564097366541,1.2538881909001174,-0.19776087070190018
1.3870684548650232,-2.8847530226214677,-0.4853165077920704,1.360419180875557,-2.9039222197635466,-0.7784555005118381,0.3838565570386448,-0.15669443081338486,-1.1021746105510282,2.881383395850516
-0.035162752482088895,-0.9100320127729914,-0.0687334749105725,1.7175375906587207,-0.937202415042777,-0.34952764453554946,0.16618667131855347,0.7246396050663125,-0.6017294100503895,-0.39984393822336917
0.7422531979278462,0.605021314298456,-0.7992480232178498,0.044379851124790815,0.32954197448872125,-1.30146269752621,-0.13003252632466766,-0.865726911192797,-0.4667496426228545,1.953902687436706
0.8817361609308239,-1.0454803971686326,-0.11283432334815366,0.9635464193998731,-0.7666284282449628,0.18159544671920108,0.4661955583807937,-0.03930002223661566,-0.9230414381257217,-0.5072564749229591
1.4675516223274496,-4.931799621529656,-0.5502396026506255,2.77698141957207,-3.410309428040908,-0.5514109186064355,-0.3853449003915994,0.45889473254905333,-0.9971716369914085,2.0785382010581084
-0.3722603821146401,1.3112192844196209,-0.4365976308832865,-0.1262865648908862,1.1869669711435658,-0.907611437179207,-0.01764116584350922,0.28304486121612715,-0.986119998373024,0.7361084647242162
2.258053327748673,1.927149023710964,-0.6927638576791599,-0.5144858405361745,1.7559653840389067,-0.89597255911012,0.3849444044261332,-2.2069939922630573,-0.8642274281754306,3.4308203131421013
-0.360997861104444,2.1483042517221733,-0.46078907060911534,-0.7444350297329286,1.054639333304764,-0.10484637361339977,-0.43449012533733095,-0.03171775812203604,-0.06368357463639901,0.29951656487735767
1.7485544066693828,-3.5981563902560354,-0.6041523679315871,2.701510350075793,-3.3307847098731047,-1.5105424293674643,0.5389012371490026,0.47920742805997596,-1.0351094158348288,3.0596897480580996
0.5414503149252226,-1.7226239154003604,-0.40986173518508656,1.2137616003759937,0.11848430440021822,-0.7501090681026241,-0.5799863878895495,1.1178291714558637,0.40978839578811127,2.1030886190793328
0.8519747844241984,-0.6485725237773442,-0.611142024597153,-0.9942851292136495,-1.3722451774458204,-1.0042403319527484,0.01834018174656543,-0.6591320765712139,0.06270396401628142,1.9577057577617238
1.9887762582515212,-2.2788980174402886,-0.5629651647245292,1.4750831667307809,-1.1787787326939965,-1.4981954905304269,-0.4952092886663976,-0.1955488525053436,-1.025917456577264,2.4093578147654227
1.3576494086277326,-0.6505945104235767,-0.6894363778905406,1.4613254160083824,0.5312028167665906,-1.700285527001539,0.22731846335765082,-0.42412402023593004,-0.46637528315205906,2.8816553113658485
0.9905726818441558,1.0570974916266298,-0.7962337365609184,-0.39369130323592816,-0.4431406483576736,-1.1485856277598472,0.5862958076507243,-0.1133716741947936,0.23713662627825713,2.29098922970304
2.0721341456152422,-1.5445591013502322,-0.6252306428844143,1.3108481048357272,-1.2662819683176607,-0.44449547860691574,0.13773396996541967,-0.45547489945202824,0.40301207924705207,2.5164273227800167
0.475588873743623,-4.300963837241018,-1.0151774964034512,1.6857097711193938,-3.4393653367227115,-1.7960394374546746,0.12095861669584015,-0.6075948496496812,-0.5668252675852256,2.706993678861605
0.2733436659351449,0.7084712919327413,0.014915476943766352,1.1242414219919157,0.23988996687702208,0.18237013414678716,-0.011667334070235374,-1.180087701694089,1.065603804100654,0.2778047276200013
1.7866186184467512,-1.520542371292646,-0.9252707184916706,1.1430200110885274,-2.5611215734149777,-0.2556461557783791,-0.09768217826981976,0.7640551379928863,0.21717450884752468,2.212463981519035
0.588077877082281,-1.6082567292440422,-0.4184487265124999,0.8691463295281439,-2.041145496860023,-1.456743639684149,-0.13000873647557787,0.20711169718851008,-0.9578940266048184,1.7684799169479564
-0.06063547806440934,-4.471792702457784,0.14838160990637136,2.824902533021596,-2.918679999987384,-0.07803728584903061,-0.3299709529641961,0.6359754022310684,-0.8726975592106483,-0.022475592291613222
0.25303932503703847,-0.26213044817229275,-0.6145906231040937,1.109509774752068,-0.2941026588921194,-0.11267797667793997,0.23712225838480686,0.21681401219254332,0.20308966642953333,1.1276410114135227
0.9942060893358302,-2.250325945889302,-1.631386094556214,1.6732103281876403,-1.9200425235687602,-1.444251494404533,0.48471512935875544,0.7932921390870804,-2.0301492804512824,3.415817697788486
0.6918211399908983,-3.7856865970411118,-0.6033218632035178,2.8682571934789274,-3.5648230131193834,0.04876018514342195,-0.23070844808414834,0.9586236939209966,0.27592871584527984,2.1592150069142955
0.03998152297209433,0.4781019337648245,-0.28878172257763435,0.20197892822707897,0.5307584372084316,-0.6106302081927856,0.4524396199367434,-1.1264945747965462,-1.1108030189618998,0.9905423231190051
0.7051871532862415,-3.5592446101261737,-0.8450941693731795,2.644571419067094,-1.7595465521364726,-1.188896351186588,-0.5108633462754206,0.15721425915623077,-0.6746725427942735,3.3937428163788432
-0.23443945210319017,-0.8775670622941577,0.3528278127222183,0.5622803660771587,-0.053627543391928136,1.0265001091555408,0.3953545786199781,0.5539423794769406,0.10439770502606426,-0.6274612427105923
0.8614361242424571,0.6627915769875534,-0.8728012391339082,-0.23143620987920432,1.083588358708516,-0.7183471057454887,0.32978846383753696,-0.3665755314604309,-0.6450819214124685,1.3077162119156354
0.7998940666022197,-2.3736333934054956,-1.2536949390018963,2.206931709649554,-2.088516428667889,-1.2186819598297556,0.21493422807840035,0.8693478011578462,-1.5708545415758717,3.373713745362979
0.4556884399822128,-3.0238417646465443,-0.9745181307216441,3.4264678853939214,-2.3986416119474976,-0.9597079214419975,0.0599004832988794,-0.41040446408819836,-0.14174999236008584,3.1702005025199878
2.2433837830289285,-3.9248817093141346,-0.4165493615109737,2.3427396030181993,-1.7137178600011211,-1.1876899631129165,-0.28608404010953825,-0.0918802190558623,-0.2906116112627917,3.223649074603192
1.0169314217175776,-0.20892745270515184,-0.7252428559665288,1.1828961612877107,-0.15264535836347493,-1.1660685781787186,-0.674008989275512,0.026175167800104426,-0.988555957120445,3.0315176490464335
1.8955955698788356,-2.7118693853393476,-0.47729466595481496,2.3607791320984433,-1.232780380519108,-0.6464328063136289,0.557665756622712,-1.5049424790485073,-0.6460487514209805,1.8850036524031704
0.8744836223033614,0.6513944347292557,-0.6948122145772169,-0.7004526967764688,0.5581595467751165,-0.9320244239633924,-0.40127511773573643,-0.21665998239099377,-0.551240946577388,2.4419686156972733
0.9123429023970635,-4.302157086132147,-0.3894632305842325,3.2362902631669224,-3.5190966364892406,-1.109604487201813,0.15457639704599552,0.2945355191905741,0.3661740266937895,2.992145344665406
1.9418561003462387,-1.965111516703301,-1.5011859445776197,1.7640630496137688,-1.8563854712989005,-1.6483049046003007,-0.00410095092494879,0.3634255367553784,-1.549593470019405,3.1730516019478996
1.5828181054710044,0.8900588825067454,-0.1634583312301515,0.27149904388052515,1.369555520123698,-0.6438849028208952,0.7346576255724905,-1.2693398057032048,-1.2475091680513983,1.646927508748107
0.7149743549502205,-0.2636886493693205,-0.7601718484824268,-0.4253349558549072,-0.5249552608568391,-0.8360178695000057,-0.16947272656411927,-0.3964216791695133,-0.8166227222448619,2.1510531539196007
0.13298467181531656,2.3669386605779232,-0.33951015672444385,-0.6101174421926894,0.07736035770687466,-0.38233991211092044,0.21243575579448326,0.29441798214591475,-0.2765413028244833,1.0114692284246312
-0.5916325492640382,-3.7084489172738504,-0.672601376394345,2.033555508754318,-1.7706447556411276,0.03762188302488987,-1.0099182642872777,1.4836759345544746,0.12249549273896634,-0.5436708233598901
-0.07638021248108573,1.1815286402872387,0.36134091528695106,0.43048664053899,0.9838643067445718,0.7425718626124581,-0.1718358961910284,-0.4807095823321089,0.3401001631599216,-0.7686426334970703
1.285751905784877,-1.896651951416714,-1.213752513249286,0.42505222384648533,-1.2519120991872028,-0.9812267728906449,0.35341394355241823,0.2112417425469284,-1.4794744330119252,2.1254546630886337
0.5267101607987007,0.3146981259869348,0.09319746638506538,-0.26826496019820445,0.5066420980124793,0.27866350495779085,0.18420368369525839,-0.3339223651952808,0.5626547861511917,-0.12319887127530349
1.9854810545242054,-2.719542605318392,-1.4355615484813202,3.3112567546178093,-2.5553684262544594,-1.1662114316596226,0.34313393974534634,0.19832555651454603,-0.14074033727794497,3.2025826659249335
-0.6384043303162722,-1.3702567788334157,-0.3729327868765764,2.333183898486011,-1.9048577527669366,-0.8797049805461885,0.2855947905150883,0.5807721650442619,-1.227130610406488,1.1438219539021448
-0.2480485981643955,0.4945385937276522,0.17356408743995705,2.060415966641673,-0.9737770672723538,-0.14114775290496337,0.7156167075665016,-0.24322887526523157,0.43899902088548465,-0.1743904094115979
0.432622072833308,-0.7072246079359796,0.11552829102322786,0.12073832480173952,-0.3386966464311896,-0.7581257910947473,-0.26807233233267613,0.7178756477495762,-0.35236107296894575,1.4925637330137764
2.0048659012235976,-1.9308850148355272,-1.3352440618528634,3.105360951017814,-1.0018973316030488,-1.667000967973965,0.3701397133557284,-0.043431811074314375,-1.6830208745704673,3.1839376825665413
-0.05837704593844939,-0.8568912039211616,-0.763072165291707,0.28344955678935513,-0.7746821797266726,-0.8194227815499271,-0.3143531471653454,0.44608196736075223,0.6217458206838761,2.0440662534303176
0.5829579234895107,-0.13393299064363462,-0.12579663897209617,2.0322317044107248,0.32879570058779595,-0.38660721528895975,0.5013409197930578,-0.45600018406265064,-0.5334096650951197,0.5163325311433171
0.3472417614178982,-3.329947379846101,-0.10667844406155766,0.8532373205504558,-2.3031633431693015,-1.0075905614367844,-0.38633238830689914,0.4998344352187426,0.019371062872784752,1.1039234894429013
0.12484623191578616,-0.4979342146813425,-0.07686328592117893,1.1643611315674742,-0.3982346517853256,0.27361487347935,0.2399218060776778,-0.6199931068522327,0.6992620667716393,0.23304579927983582
-0.22088285957714884,-1.0092637872294732,-0.49801908347004026,1.312588823459103,-0.06517282251331417,0.04615139238597274,-0.1499573149928394,0.5003822805708156,-0.8046103141897001,0.19353681682624857
1.078582707645912,-3.5245303902541325,-0.652742089806018,3.0060922842834037,-1.91432542998963,-0.6518419620452968,0.011897147839020211,-0.49031741543466967,-0.45309408215998903,1.9200337915593608
1.4197417817627345,-0.41585508573084917,-0.3733297843156095,1.2946358573457912,0.012060537227095018,-0.8471371027953197,-0.6443071865348189,-0.48397175468079506,-0.5359202084310085,2.0926005109332264
-0.4424940540098907,-2.8989253532288193,0.3107778622953684,2.7761660310628633,-1.6350981554531365,0.5819578543585305,0.13365537657639978,-0.4318625911476372,0.5992660557701033,-0.8135063013406045
-0.47848156145213017,-0.8082429946282218,0.39409038141367636,1.3347679803776709,-0.7637311059946347,0.9009892900608736,0.044763408598318705,1.049373278506343,1.2010240424054444,-0.5966842474139165
0.7043705218995585,-0.6914530445111473,0.0555130700082891,2.6128104616562777,-1.275478543018441,-0.5137427138325127,-0.5340134350301007,0.10705380236663589,0.11196740471817268,0.7660909513241585
0.7628550620100113,-0.6302132939020976,-0.9321929492056811,1.1787830716378238,0.5661383953655137,-1.8668530864190203,0.2745536109826684,-0.25124709976646226,-1.3576741037929476,2.7905997147191353
1.4584605402013875,-1.0486454824703044,-1.2735983403649414,1.0491831764071367,-0.5212476160188707,-1.3152693767170756,0.13750934488267222,-0.7984976842924825,-1.2325313868120136,3.029194350889944
0.5276621420334587,0.5714049247982258,-0.5032995594362306,-0.7996366852786964,0.5880984693439372,-1.0756071659492792,0.1827040812528689,-0.6415305479113771,-0.9379148781641555,2.3798365057396165
0.7029303786347411,0.05801700506830166,-0.34926447145492073,0.5042025701010611,0.34566268195325,-0.8350439785705833,0.2028313501864793,-0.1919977111520585,-0.5976727426904557,1.5037502754180352
1.7424845549683674,-1.9406395780238188,-0.8060127856737552,0.8356277254359072,-1.4650248250194384,-1.2710498875397123,-0.24789461252449846,0.6520745137801381,-0.3516794130553299,2.444619764825833
1.8426439366137004,-0.0807270825719646,-0.7798267161451821,0.3419371728926224,-0.17772703126464817,-1.3146753690666453,0.1590490066232961,-0.5508155482237533,-0.9129710612231863,2.832133194951558
0.9221118550960423,1.750354150745803,-0.48976822806529047,0.3700711950848019,2.620900416751896,-0.3045665935071427,-0.019348077879965522,-0.7390581709595303,-0.6794167283760209,1.60590645972751
-0.5516202195943926,-2.2691395067211015,0.24917247934501885,0.33941322429141807,-1.0690388671596516,-0.16317370227505262,-0.38888974057140224,0.4987979424677106,-0.41520866812816665,0.9039652671268672
0.04720425959854616,-2.067735879241298,-0.29532153811290884,2.160136408210664,-0.286260245156988,-0.034537484646675734,0.21740109746168984,-0.5354314405945312,0.8776382754579004,0.607044968054784
1.0091672131062048,-2.8509520919383653,-0.2965147251595541,2.3197358912002217,-1.2250331545285809,-0.9377647301816942,-0.344168864953239,0.5723969588497227,-0.6223061335010185,2.007913377270964
0.23364503445206203,-0.07966266893487174,0.26999739629469066,-0.8905045677205848,-0.2829877604835454,0.32270739491332273,-0.31642046661604284,0.4216874225663548,0.28100372878941604,0.21258725845383508
-0.24103415705841422,0.43110378446450837,-0.02653132136733511,-0.7396926551154386,-1.1211327191977143,-0.05158949360425681,0.1522632000882427,-0.13435293677064583,-0.9880455295233411,-0.15168658939480684
0.8845105883073269,-3.423243296697533,-0.5892364141830309,2.5516832087596506,-1.6280853743631793,-0.49762845600195393,-0.21670198006236557,0.47054885134954055,-1.3686658033463492,2.812341197072533
0.012179469151807428,0.20989218119321218,0.6289999050463673,-0.5809380997376646,1.1596685115634857,-0.15826086931443073,-0.009624713569381452,-0.3283150314395067,-1.3347268776548213,-0.5554858030834999
-0.22911667214798706,-0.11194771175910478,0.6355050747189226,0.7426872724195619,0.7093060195643563,0.052980903801503755,-0.17746247675577428,-0.6341219101723846,-0.4560156546953791,0.07636011621742145
0.24422721034437542,-0.7737583160432,-0.5564781918401374,0.8514825395147865,-0.8148155941044811,-0.7882551094230883,-0.11490974193407136,0.040224365428454326,-0.20926645764150884,1.4014465178597892
0.30313657641412045,0.6195684002310929,-0.17216713410390677,-0.6512811232161184,0.5457012738733247,-0.0006342665927267611,-0.7239907805854109,-0.2902824255958303,0.3293990641026136,0.5799722352217054
-0.6844954463094213,-0.4757341161651234,-0.13828875267117197,0.47945942571737143,-1.0217579886718697,0.15957699950360427,-0.2069359163611414,0.5059352099503073,0.4390495999665883,0.08457248362252545
0.7444936893100556,-2.3308703666808195,-0.5730405875190675,1.3843369315117688,-1.5862545472927208,-0.7794723008973762,-0.15129205323641437,-0.23256320159610455,-0.2093777042827116,2.46369416925457
0.3891809770967298,-3.056676472117283,0.0540804843523273,1.5355110903963416,-2.5597270331862476,0.03324021568577218,-0.39820990090482866,0.2747100077996757,-1.2811314778042004,-0.09246499032203148
-0.36035500068529075,-2.0936294371153705,-0.11546849673599428,0.9104560653487077,-1.300341209682043,-0.3724892118962261,-0.06450436512960506,5.483043809900723e-05,-0.8279331441029872,-0.1871300224314424
0.5849844919214059,-3.048368501345954,0.2461364323296004,1.7910670991279658,-2.0932199848983606,0.535057661889588,-0.3599496194290188,0.5768191654038055,-0.08196969345640788,0.22322622182266882
-0.4694063833180374,-1.277884355553049,0.31371979312604464,1.3406806457130722,-0.7326486139131853,-0.38475471108848425,-0.10031866521530963,0.862135780367317,-0.6763841347758214,-0.569898769058298
0.28965684824868326,-1.398629201288949,-0.2734688290062474,2.1933678457515557,-1.228979235420091,0.2782530409788841,0.01575238385052563,0.46014450567833,-0.04373601016299689,0.4035059515628099
-0.7802496910377422,-3.26518380929569,0.16904406748368514,1.2376870990785287,-2.1723442585630113,0.04713433122579336,0.28089147542302445,0.03132063552251879,0.7486788977501566,0.14497997418540054
0.539462022456198,-1.9184978058645883,-0.8222551093029098,2.9896516345327115,-1.4555799534330758,-0.5145218204519371,0.5326651520737165,-0.07026026836477328,-0.702111982491015,2.1291860643329197
1.0670220900774132,-1.4906484666098374,-0.9476624395757045,0.502562625885906,-1.9473064775012878,-0.7916185109813846,-0.3978419417241712,0.4488694680467954,-0.38917555407523075,2.364959756619241
0.4110593905238027,-2.3218484084590014,0.1854671091799453,2.321376356307191,-0.7051579189646106,0.29655893767015523,-0.35571879637297765,-0.41938065390475276,0.9321826708650471,-0.25692022158668104
0.47944770467439396,-2.323889013802578,-0.42935274302355486,2.327449175809534,-1.8395362685714345,-0.32510041117495353,-0.16458578983904473,0.5980079145229977,-0.8630470783206251,0.665687817582693
-0.7973663035862751,-3.0538344958225934,-0.6430289728848627,1.6272002034482136,-1.5165995591518269,-0.48265454653773143,0.15347635946823596,1.2617554298671458,-0.3113176161318433,-0.27205821979148004
-0.8325779792573782,-2.3127944059867147,0.09670769012998182,1.1103314407418705,-0.6700591873990371,-0.3797486438313989,0.10025851766494982,-0.6623856071953769,-0.2098822137379295,0.07431425621246857
0.18532703385890623,0.23573648167520428,-0.20792962959307268,0.14381191579596075,-0.3963684920408525,-1.0441929063930246,-0.30793880566429965,-0.19685300762876273,-0.5388870932691158,1.1660193273617114
0.7435510234492146,-3.0122615591233326,-0.9930194504727652,2.6216326476660847,-1.443962150905025,-1.4886614513267349,0.2857085209051221,0.4973141707944618,-2.0613878104276817,3.11952545983013
2.316188702786583,-0.3782744401866608,-1.4508395892251111,0.13036565558266444,0.30490284326763717,-1.4625691505102596,-0.11765742458372347,-0.29777723702279907,-1.2595009175316079,3.355308814399094
0.13911822697184434,-4.07916684153714,0.013270825898410315,3.1869733290976887,-2.058284835494132,-0.8422015736348363,-0.6746172455627069,1.3084456736418524,0.2578083058850569,1.0552854779112781
-0.48567564454423384,1.2453605037249529,0.20432125223594264,-0.9988278219023385,0.21060699241752648,0.5199994090788376,-0.20025788243384546,0.9129672281424632,-0.6233667759234799,-0.38274972794628215
0.7655688164984755,1.4521722984202734,-0.6667974474607541,-0.7286353314736109,0.5552875396971191,-0.9483892865681824,0.713283460078109,-0.30876760227842237,-0.15735416086683057,2.8426174299459066
-0.06601727138906989,-1.4833362296157326,-0.40500205576986387,1.639150674629811,0.7605860366198991,-0.3282809062169327,-0.36788214281606624,0.6832342311214301,-0.6622168893034471,0.6467226237510999
0.6519099586434526,-3.338902982924719,-0.2151515202280184,3.2999515915126123,-1.0516350230742904,-0.3241613658065662,-0.03785374944735259,0.42407882629613175,-0.06715061960039606,1.0951806189451978
1.5344262283623211,1.0347287002242076,-1.1932128891726461,0.3260941406810325,0.8414804875723291,-0.8407876119521549,0.35460264800633445,-0.8872776055834927,0.5801630328817294,2.788467610306575
0.01487269793329686,-0.1283102489949996,-0.29369686199451783,0.7061547932317107,0.057445883614295014,-0.35770214463024314,0.12933292926730625,-0.3717688898255404,-0.42434195881945097,0.4392412158511698
0.5385277409857439,-4.8416260168365834,-0.7468821867117779,3.3395903880539537,-2.495069937700043,0.23583390548181285,0.4456378559833511,-0.001549023563885199,0.22959914046199245,1.7777050743173977
0.19903789616245768,-0.37662745969313294,0.1752054504242017,-0.22085244577599206,-0.06012277990509778,0.4367376739996996,-0.3312737561581465,-0.6781901223642703,0.5898650918108608,-0.5878098358831509
-0.03663745002602774,1.8706089454520263,-0.8956123938107142,-0.5516780782310196,2.413414729567394,-0.2883751670376938,0.4341618115342717,-1.2812464579790341,-0.9269070100723683,1.6162062984642782
0.3556225366524377,-4.574168720409489,-0.6810811780453124,3.249548022221197,-2.6690901591940785,-0.841711204118381,-0.48913758556496956,0.8152724976740032,-1.3260264722070356,1.1208816645588544
0.539477671024256,-0.47698327697048704,-0.28424610926934474,-0.5442183508581049,-1.357066864011706,0.17546878952808254,0.5216056766304116,0.9090290121218397,-0.25440684337541064,0.3006718422311161
0.6795645165435391,0.27889091259671955,-0.4759050208962086,0.6917492192848815,1.2530568717966581,-1.3329269750535382,0.3297793545324399,-0.33225013824215316,-0.08895260006995051,2.587047764870045
0.8126505889320803,-2.7133004101505347,-0.7328319350406044,1.735657854261972,-2.0379619113216965,-1.0216762899343308,-0.5764317366369298,0.7815443647264567,-0.9421715494760295,0.918355963442246
0.5769342618702538,-1.1290842165083401,-0.04938512764910676,1.7697250196469976,-1.4153366846526145,-0.04211620429270873,0.24414157247652712,-0.0016088550553842174,-0.293498543840263,-0.06658187492774736
0.4393202161676769,0.3913324046682201,-0.9784180221892068,0.5553433267455226,0.12114686608150131,-0.7455518290591445,-0.6385343792131926,0.08410955002172492,-0.12165675247837796,1.7213066823082053
1.0196014794428028,0.14803910545936289,-0.8818135591304568,-0.6572374452798657,1.140597487555446,-1.1043116808959568,0.3466668191580335,-0.7726373908088335,0.019388448756686785,2.540611541818954
1.1987322868429504,-3.4718768081926337,-1.4513899838268072,3.114040148061801,-2.108444946363198,-1.2379728175810276,0.6113201597341026,-0.7487557837943883,-1.3186634520595584,2.9297660061480375
-0.905412373224105,-2.5916376205733402,-0.058046468736120724,2.064221970898309,-1.8062706747041017,-0.6709598980649273,-0.45546645582717754,1.0213840217451942,-0.4276073755570166,-0.15232654428163694
0.8379839438397821,-2.8211089128821496,-0.5681132284805815,3.124151540988815,-1.1014248310955448,0.13400520422021456,-0.5226583501348459,0.6256323978268401,0.6792284471528638,0.360622789066795
0.5389928615758516,-0.2769717263531921,-1.190963130329239,-0.4668118822984294,-0.7174181005497249,-1.7109232193091695,0.16384199055074636,-0.1812446536819841,-2.1633105519371667,2.7751742443374825
-0.1401002355587393,0.19255262602504952,-0.09915305354433636,0.6752155081055737,1.0707085988139478,-0.7849609372031726,-0.0888382136979674,0.6363354474613001,-0.5215133414543952,0.01693016398503322
-0.9433710234134786,-3.8481707001495513,0.16626503207777363,3.032454473337509,-1.6126965480175834,0.5723708294717671,-1.2024865455534732,2.1537378100716835,0.04942313411124811,-0.44537331548539916
0.48726862523195447,1.601859871810262,-0.006255284815003721,-0.8829033045512592,1.4767695195546655,-0.440310314344076,0.3931901140397449,-0.26168347911472967,-1.263467693066786,-0.1633696746158274
1.3391767109884571,-1.9558824362575769,-1.1946358938925157,1.6095556378597378,-1.186948640479695,-1.1484697831149862,0.3092859401694397,-0.17718724065967806,-0.6479529642218191,2.959403724406336
1.090848328687927,0.2280342793502527,0.09446098228019262,-0.48179476901980456,-0.3612871052580227,0.31220577183781034,-0.03322323963274073,-1.0481165612271073,1.024555055516107,0.3525192604723242
0.9635425607797834,0.3900464027913477,-0.11033423031467621,0.5641374775936234,0.30792390375747164,-0.6841320046165686,-0.41395523224295494,0.40047172554298305,-1.8235592581899698,1.0281076705038035
-0.5116365553161143,-0.23931019489913924,-0.06121724364762719,0.5866884054520638,-0.23156928119968181,0.04814792426365707,-0.39918055697666366,-0.05153992688702247,-0.45374059319315724,-0.6213019978527298
0.21017459952608072,-2.8672462661027396,0.503273197158131,2.49516350988224,-1.1638818067752903,0.2994568876724184,-0.47407574775701655,0.28238040631939365,-0.3986323171202515,-0.802438961569491
0.408914291418104,-1.6959593338095813,-0.3874521689564563,0.5898095618847843,-1.5383263235324902,0.2949197138842154,0.06115489028046648,0.23202897674604422,-0.16772481811072099,0.25424593718258337
1.242994650549895,-3.4559489893390407,-0.8362209196925309,3.290963618717286,-3.1082058929621317,-1.5251486557187819,-0.16072542996412445,0.46687530873016136,-1.3272007052691943,1.5142407577608616
-1.308195503720531,0.901402522037053,0.05793169255815406,-0.5380516144935195,0.2630768025734984,0.0031862356659428134,-0.846993408418679,0.5946859002995765,-0.7287704026048317,-0.4758360163000851
0.2787255824904913,-1.592654025425625,-0.1718280795016459,0.9067745988405997,-1.8433914499273854,-0.2377616631263618,0.18353789311681257,0.43345092267107466,0.39414304013078405,0.8356016368049632
0.20233989184695975,-2.7659731619840473,-0.55061664305751,1.8464520918362037,-2.630498457757116,-0.513927729437143,-0.06877730745866162,0.6768081588718309,-0.005998841520806634,1.7154734189245895
1.5877283645477576,-0.20237505608324488,-0.4540634401273001,0.3142063387589682,-0.7581687098376753,-1.3499664435731877,0.21797909436856636,0.06932041385138657,-0.8657911890538047,2.537327063558506
0.5932387552183729,0.8107373338241944,-0.8246520331933979,-0.056991632044653406,0.377253985088944,-0.6934043743609035,-0.15576554406597803,-0.2228589140423211,-0.5829891284847625,1.8607176130371461
0.522933313564055,-0.06729054775355828,-0.7563562727510169,1.1001058058812188,-0.6151701002956212,-1.6886316915051074,0.679127351197649,-1.1222499125121732,-1.077345017413323,2.755813013495858
-1.8213022683707225,-1.963631400380248,0.2263368484042592,2.889631340540396,-0.5061749154492206,1.0426667794018978,0.1752323136163384,1.524567730270734,1.6043726868172314,-0.9776989803488721
1.4743384206277976,-2.749501049964624,-0.6841195106013452,0.9149873643266944,-2.064797828931143,-1.416806396342481,-0.048465214217126504,-0.13679038641679275,-1.87111400544239,2.7988086015769236
2.0473296501720695,1.0973222796314803,-1.4450433915809933,-0.6853675396513279,0.4424191332957983,-0.8294377370116661,0.11185893760306648,-0.6209115125210176,-0.7970298946996405,3.3804963598083733
-0.22509401491933928,-0.879333850624202,0.37686041640902934,2.208090329178633,0.31378309957428235,-0.4865881023218751,0.5154866726819112,-0.7363677615939223,-0.061431291121700204,0.30317406128195046
0.9133752635502189,-0.1453652875726441,0.03054595953268618,-0.37925924363428953,-0.10316177656066754,-0.601822218479485,0.24024356448574397,-1.629032987390296,-1.3030716917077665,1.5075810377797678
-0.20592784193598393,-2.5338243510028655,0.09390216155602936,-0.15602327855963016,-2.1588166544621914,0.2712837328351248,-0.5390796924647678,1.9244719564291937,-0.5918931817913778,-0.6917251200158836
1.1055467134315264,-0.42781613392721957,-0.8763611478891568,-0.9063391537368182,-0.14135491432876524,-0.1451326917805394,0.034942925854282214,0.16334126747303448,1.0545043768288973,1.1858155945868707
0.7399252254601217,2.8415997422294357,-1.5462785592342243,-0.4562039446843774,2.484197644655103,-1.035470812799294,-0.4647364511814201,-0.7135531638887569,-0.6989294236097493,3.1622879711467835
1.6626376309533073,-5.9317736124012175,-0.33474277218790394,3.125341547250323,-3.5584850046796808,-1.3253793444724227,-0.5350020212209768,0.5695079470374163,-0.15002695056662502,2.268197177604506
1.3957790651270923,-2.789917503362387,-0.4292033097911327,1.149255066024645,-1.9212632178631193,-0.5441818731156429,-0.0073328222154821245,-0.47055614179490435,-0.49388597505388143,1.328932714952575
0.8250808088754954,-3.6385435201618255,-1.0849393018273006,2.1462650272267276,-2.3941226324684637,-0.9701447088711246,-0.16886530276073852,0.9619316631656324,-1.2188345758993286,2.628636743958491
0.07478332480736632,-3.678782870916835,-0.734091693639059,3.25010957670714,-2.937127684623286,0.22248332865910836,-0.03748195357491674,0.7436233879839356,0.48163466548446127,0.6883150901461659
0.06843736374007396,-0.9731063073090986,0.065132977796551,1.2238510004674827,-0.49895795590096126,0.6607320409053482,-0.2602425758984574,0.16257378751500565,0.16042990954278816,-0.3541962560933257
-0.040325002598798766,-0.600472850840451,-0.8039677657688746,-0.2884027908125152,-0.4871650788231843,-0.03874116977420938,0.2676817561781968,-0.38993294666177497,-0.06716844278999608,1.4861441988890207
-0.03241950492693344,-2.9070877438507092,0.21548068478199364,1.5109708176968129,-3.3825992715823863,-0.002998294708288555,-0.3371703735238344,1.4076976596086568,0.8147752479191188,-0.1924447621015376
0.8546791224996918,-0.08031273114738942,-0.05603376152941932,-0.3146623498576706,0.9527673262869841,-0.627926994822553,0.5674536104968108,-0.6119199760863672,-1.2093736134047974,2.524455705393874
1.8895963315415254,-1.9527854809601648,-0.7320266407186823,0.9993991863666751,-0.7926164874872704,-0.8184187718805722,-0.5965862275074145,0.19499559799784633,-1.2668425906441432,3.0365435264652128
0.8012303192675935,-0.4817452898272936,-0.7164004837555135,0.6786158775228854,-0.3797376812943001,-0.2710202307187474,0.010091687183082343,-0.9226312464422679,-0.7488621573622485,2.059759904774253
0.22659998288601493,-0.9108596362783726,-0.2907741952364354,1.9473828132248916,-1.5275963309869647,-0.618046835572444,0.8766881783821949,-0.8708236334818029,0.8317709926512291,1.5299836922633663
-0.4505069729254347,-1.719449451424113,-0.691759543556727,1.7227893701429426,-0.9195765169793675,0.14597423139065394,-0.20324567559661597,1.7430659254154786,-0.35414438225417116,0.4674212420998176
0.835788916318189,-4.883008524746916,0.37523045833170826,3.2762799183642732,-3.3156449944380864,0.06336246509297419,-0.09058202735824553,0.7501549093077104,-0.0648742363349642,0.08218898135446384
0.27954318187394345,-2.6293796274488463,-0.4522707793759634,3.1021638758573324,-1.0714888755399703,-0.8064777866037212,0.13575214549782055,-0.9250173827394246,0.14672395486652937,1.2847743786278283
0.9147767474494503,-3.067714966058843,-0.8864693070400934,2.69443419057607,-2.5859394873068413,-1.4352491238549783,-0.5789859272750857,0.7835096085498738,-1.6437490352716453,2.5503532059220504
0.6415360134010876,-1.2399877979095841,-0.8155570387256385,-0.08369760463295495,-0.8758449320796272,-1.5942990163475659,0.3192557800613634,-0.24959911047492567,-0.3764377763964212,2.009592197062035
2.0167627750585786,-2.3291136969325974,-0.5401576682652421,0.3449523832599055,-2.3163900879227155,-0.3948693999488268,-0.219340831238739,0.09324523125965989,-1.1061857071617933,1.7437582308242896
1.2171373899883609,-2.804114146542881,-0.33689737443755313,1.8137857907846229,-1.5853739347051186,0.0034594079729076037,-0.37024367462677865,-1.0492842246362717,0.3373011124245446,0.8266770261658771
-0.20604989943922836,-3.4552878093848944,-0.7648287410282428,3.198796735896906,-2.8453241672589855,-0.331930503667398,-0.6580112123579521,0.6412109165936349,-1.5239222348935644,1.2207465597326959
1.2955072682129225,0.22464511003751983,-0.33505757863989744,-0.2793736140979416,-0.8154495843767026,-0.6329437251819432,0.4835482887558596,-1.748661866079964,-1.1128158247541775,1.5058504019243952
1.1704893406613364,-0.3442229889852167,-0.22080733311750972,0.34018227201922624,0.7331719644034433,-0.14825600651577928,0.414527315841387,-0.7985345188063218,-0.7689545917688906,1.2687669953952057
0.595061044412128,-3.7924854734546365,-0.3805420138714988,3.0832325228965223,-1.5882158796333496,-0.36111012541077425,0.05130321474697297,0.7656225455695339,0.3587406793316112,0.3116533890715645
0.7186849009612817,-1.767480664626061,-1.1375497563456276,1.9556509213277562,-1.2656276464093232,-1.2891658173309581,-0.3884988017610632,-0.09509775740327131,-0.29677668031216753,2.3736655586330424
0.24532275300685924,0.26041177594768605,-0.5548317846994892,-0.6071939114326708,0.43805385921865675,-0.29681246052703136,0.22665481277216262,-0.5956587542491092,0.12351941881829263,0.8763407941851955
1.208322948192111,-1.6984593033370192,0.12721016766230717,3.3480567663298446,-2.1730349783717315,-0.026577293542964665,-0.4015784629905469,0.5697271176925267,-0.33445139121849693,0.5283449310977435
0.7054809282336916,-1.0223114422425408,-0.7557645822860577,2.824160418031218,-0.3558518637714977,0.16800450379147985,0.5639735893552631,-0.10341867618098873,0.21680532482024556,2.1259556509271538
1.0238184737254568,0.8172080667372683,0.1420062884070771,0.2761524310861152,0.05127656489441626,-0.37500665386186816,-0.4130814212557661,-0.448466716138342,-0.3114185699811768,-0.30179055322950066
-0.6804897295438391,-0.5231826481559508,0.04277188115509868,-0.874915806953928,-0.30664154123713083,-0.050634027696729526,0.06473483516407588,0.27170765130184227,0.6000719035398069,-0.9867922699000105
1.4213968287594796,1.158250248799202,-1.2326261652579344,-0.33389879908765663,1.8507310124288028,-1.647391214952367,0.1345370691402491,-0.6893612748902146,-1.0080087529796238,3.326198963326628
1.3164598065494735,-0.26248028689582337,-0.7866630659369428,-0.3474085463415717,0.2443213294235611,-0.6801498788463667,0.771234008372946,-0.8467418991374989,0.4233839975632003,1.8904812493087286
-0.33999763878500017,-1.9981850203659004,-0.3380976525482519,2.2877300316469382,-1.728508127871041,-0.4014246122099391,0.15929018547927445,-0.04102956636965588,-0.8352107890098831,0.9426017895032226
-1.0296294275185276,-3.0708530763566735,0.8198817548618186,2.0733593435908437,-1.6537693647339073,0.060333065614540514,-0.5048873650665086,0.936283149116067,0.43842174290153657,-0.5187266937341423
1.0476847305676518,0.6880909318316704,0.4001069581848547,-0.9859158338829399,1.149491699860543,-0.3135500152186614,0.43703080258138227,-0.2199308301075379,-1.3022156505841047,-0.11364496656784195
1.4168935790137234,-1.6987934875718151,-0.8555755334030052,2.0177717261791,-1.042691418906234,-0.7667440799398794,0.025772388119871488,-0.8028265557643881,-0.7765388834726007,1.0767482578692449
-0.29855526969907925,0.5176874916624976,0.043332795628971854,0.07809540314261465,0.3125511523645275,-0.5328326927828965,-0.5577578909831505,0.9148609235547851,0.9126042760655239,1.0074562230960828
1.3612687235986638,-0.45139831827369004,-0.169113903402371,1.6417997733081164,-0.14960101834139328,-0.905794129290915,-0.1674135315959977,-0.0322638109015639,-0.2003289674449885,2.3781574204717004
0.7031942158103996,2.0897971983499746,-0.1062544856650952,-0.8560827519206169,0.21977503373435145,-1.2591726436726778,-0.015358536504837907,-0.25074040305200995,-1.4456855794867536,1.4722635078244823
0.7716909639982737,-3.7312175269950227,-0.48966840767375636,2.6690287656328473,-3.0489057788025673,-0.6426874119613414,0.025797709925618292,0.19869000924731983,-1.1477113898698605,1.731392627779516
0.7788314388132627,-2.72820974304289,-0.7383368029122775,2.9063160121298375,-2.044529646525126,-1.2369002924291703,0.05979883322172305,0.09783318436052202,-0.8424303450204799,1.4998599974408449
-0.17466261518495868,2.0984930217740763,-0.7768109674594277,-0.4184235796347059,1.0654140841976372,-0.7018841870163791,-0.21434004314457425,0.35322594616628394,-0.976136292965504,1.6028432068216687
0.3569625832179709,2.0860433936261895,-0.4468844336552057,-0.6889359215519595,1.2224264373921911,-0.7217319093551531,0.4268727568591882,-0.2013742395196848,-0.6612453720376811,1.9083313821622903
0.9654178370871748,-0.6853082958390536,-0.7897478551199915,1.5703741513108933,0.7412700356387718,-0.8896395011471451,0.4449775621173686,-0.4087194284218983,-1.4022677028361061,2.1880534020999445
0.13738163726760047,-3.499623502305276,0.5091909669648074,3.370171474597546,-3.1549968482957147,0.42336340204832956,0.3562518880150945,0.40003174534975855,0.07647696413584157,-0.7529991546354565
0.5701613726655335,-0.6625415778378307,-0.6993675981216354,-0.41293250429713513,0.16822969079807976,-0.493326365634658,0.35639001425248096,-1.145122165026505,-0.7234457450380073,1.8391836863044455
0.2791766702021861,-3.15938052153538,0.034713262724116525,1.8755542633038407,-0.953733812463066,-0.07261428348810191,-0.08530686518671704,-0.41360832254950475,-0.13214275958874766,0.23778019778586712
0.8511536763326956,-3.388469468386616,-0.029606134096472874,3.0097896801066817,-1.700457448543498,-0.8506757141902023,-0.09032693095088173,0.19578648447921632,-0.5512239772486381,1.717347577192605
0.35990250438309157,-1.304669673182836,-0.5772429176813791,3.098813354963461,-0.7641446100821394,-0.3315719532636821,-0.027075238332210594,-0.09744994520919803,-0.5850332483553394,2.182614088101663
1.6244746218193902,0.41364651474592146,-0.44302260128687526,-0.39191968713406367,-0.5174797526715398,-0.6948494899567258,0.10189136496681422,-1.4367685691042051,-0.7105682763199762,2.7769531040560977
0.7222275631252849,-3.7420326875515677,-0.8011827156485036,2.1282520367052418,-2.870516721602136,0.01359447567622765,-0.5258147068776391,0.7614192705391236,0.3476508697015214,1.3634473264380471
0.6454640031003904,-3.034936511504283,-0.5594195281270576,1.292997854450598,-2.5375413378004774,-1.3061366098334177,-0.09698949063759323,0.5258493229104728,-0.26531479153687104,1.2801886144490005
0.16181395428428916,-0.2057377268164717,-0.6085111755343242,0.2017953923368616,0.5810574691959342,-0.5594086075033834,0.4532661661368382,-0.014325921119239277,-0.8889171672787145,0.5388009075061051
-0.12210500283940079,-0.6987628222804709,-0.4520285252072854,-0.166003731749245,-1.358506916899084,-0.043001965013816,-0.0219191502235805,0.6543296975934106,-0.08785814274427972,2.0901091427194545
0.6968354818721663,-2.899762145928958,-0.9578973228155924,2.163632560208399,-1.3004496752021741,-0.927509407057868,0.5753198782965009,0.17502098272599995,0.11286551299778567,1.2837080616495844
1.0034145178804916,-3.24530629248995,-0.1846154252010173,1.9924730429667488,-1.1313820862956412,-0.8722749144919261,-0.7619531419793126,0.13354211722330384,-0.18916365856480183,1.363219668929304
1.6341492620948674,-1.5508993300593603,-0.34997581991166904,1.3046800352952208,-1.6560294268136362,-0.7566035940924606,-0.6108964196317928,0.5887384001114969,-0.5446173749987715,3.0671128590332923
0.6922425470128852,-3.1217768505042014,-0.6391584759251309,3.43815232888255,-1.9278408734055341,-0.7743125548010347,0.20122032697807418,-0.46366204247090276,0.2061453117185235,2.594784754893589
-0.33512870205930384,-2.371001564079764,0.502353963165891,3.464008855883346,-0.8604181858848786,0.3669602576461084,-0.34076518371509457,0.0013720086869412791,-0.5534927065854397,-0.8243649392676332
0.7827176870849951,0.694234060755274,-0.815213065785718,0.437370573744438,-0.6382226003249086,-0.2815917161266863,-0.09763496172077102,-0.4097662673916122,0.14610935573349607,2.237910431219963
0.8082942887142355,-0.29381262226772925,-0.5508796123827033,0.7286935141190556,1.76707717491842,0.13688524721309622,0.17287516782783874,-0.4929861359603851,-0.019379074360716782,0.9099441219107283
0.9628057851584044,-0.5327071188395693,-0.11149229277525355,-0.6730821454918905,0.03745278799619846,-0.4235896379668521,-0.052298753624018965,-0.9996014769592085,-0.2572824536856988,1.4786490752396295
1.3834365524808199,0.7212541332616482,-0.7586112102990141,-0.563728660894908,0.7024497916516975,-1.1351266679782432,0.18409893803703678,-0.7902712847868079,-1.3380445131627112,3.3946016201689577
2.4248752684607626,-1.3305465754756514,-1.261333639387123,-0.34902834642935754,-1.5282164496138164,-1.284230018932302,-0.12673725122207008,0.07950016580058739,-1.810046480996407,2.752227376704375
0.9119285933618801,-0.8596105148166283,-1.1273983932107476,-0.1629782479027415,-0.8726811100170707,-1.1395836166127915,0.1509912765803289,0.12127416660132823,-0.43635958087165544,2.5723846155124144
-0.25481603941819897,-4.7834891413720175,-0.7497081085799225,2.576120210745914,-3.9902801522120956,-0.6553881444653046,-0.43631394083314,1.592146585077808,-0.6594777271744332,1.0357415619201804
0.574697378849632,-2.7626021942136574,-0.9151631094346068,2.965509439161567,-2.224683987660808,-0.9820674604330475,-0.45438502090453625,0.022229859397278173,-1.0156898663283662,2.037490126760821
1.0474958150975433,-3.3410906862462144,-0.6590177803319281,2.05393804819002,-1.2420919809441422,-1.2658058577775955,-0.29071427881927,-0.13756614328400218,-1.2986053440172545,2.2479335090186074
-0.38650884853425166,-1.5056724407655846,0.5699880289564764,0.18785013437411568,-0.5432910295869962,0.31405331677486165,-0.27257435100172356,-0.48591341152883927,-0.4802842753219595,-0.9479082084872295
-0.6630379391842474,0.5069141922847374,1.0013565897073127,0.7809711265174608,0.3223868520729304,-0.15275167082669416,-0.6233179121803808,-0.12448781092069208,-0.5626925101249295,-0.9908484496266449
-0.5264729780110763,-2.8266920473266564,-0.015661081790843107,3.1085083611997586,-1.9115525388285115,-0.14438921273525696,0.025106631934175977,0.5266300419374561,0.27444469635889734,-0.23741272507307887
1.808347057770026,-0.49324224449060755,-0.6683491582223263,1.1469144699411564,-1.2073636921179973,-0.3788429527864814,0.024752154978013363,-0.036084210507888584,-0.15905301783390183,1.4094349191703461
0.38167002583950177,2.250526612027863,-0.056084317065347125,-0.5517669835096788,0.8018840749045261,0.5909523879390646,0.14532139191665866,-0.1647474950638509,-1.018999960119017,-0.7324978194902596
-0.012991626052476902,-4.594252738684582,-0.3419335552695873,3.3606993762260746,-2.093228099096526,-1.3233493515799217,-0.21592827486871324,0.10338140603655799,-0.12247223844348482,1.7309158956062038
1.5460919031077383,0.4051571705605096,-0.8142053417171485,-0.7703433451542848,-0.4122335628926511,-1.1323098017638025,0.36384183512488344,0.13408815166174093,-0.38946230220123307,2.058449413622173
1.3693024947334371,-1.3298901520042394,-0.3361333747037317,-0.5839339431831745,0.31063760242285143,-1.4858575450192686,0.8048716951953039,-1.023837400224656,-1.1560652373637443,1.8013636270443323
0.2687707544981005,-3.3487472408580143,-0.08338717486106274,2.522124250520071,-1.4921247150791055,-1.2342068679106746,0.22024114855801843,-0.5472814329015384,-0.9517162688642615,1.6009904263760295
1.0637241129707582,-2.2501303824244814,-1.1723279344736013,2.229203534157996,-3.1122543728447036,-1.1921560282509098,0.2424998918576261,0.2590060852522818,-1.3185393688131688,1.4191103629813213
-0.483958367425186,-1.739308560279955,-0.0022475132034887,0.9346148865194202,-0.7522361360116389,-0.26259397978669474,-0.37133076932137793,1.02159799946798,-0.4684728823856979,-0.5220505819805621
1.1000197131577736,-1.4071913982576614,-0.19181729978156287,2.480049944503878,-0.5250636134186345,-0.7147147653249368,-0.3859270232863815,-0.240056284790162,-0.30040379756183305,2.1166815458602755
1.198436278781231,0.4452561989582606,-0.3866571164872434,0.7179597405159506,-0.7100306324770672,-0.7979580745425575,-0.5334174326661671,-0.8025486161253009,-1.3771647638382765,1.9881330965624961
2.0645898229510293,-2.5764430990085825,-0.5257463074872549,2.7708272280540935,-1.8794228406619091,-1.0473586679155205,-0.48810569180296204,-0.16408989445169364,0.25900537932520856,2.5031985180363163
1.0301902058393722,-1.2987930473253597,-0.4879938431254096,3.0572717035884356,-1.0158900878772943,-1.2785458979102935,0.05688567528759325,0.3236081852402409,-1.242253376487371,3.0545935779890057
-1.022987611579952,-0.7735144637352385,0.21054164335338177,1.9170336106856753,-1.1708309866846471,0.9872920886480133,-0.45460753583930563,1.0002006520861721,0.24053101471399857,-0.596519864927579
-0.07204991951723795,-1.9534465887561447,-0.47085241325221266,2.793950018865071,-1.6143114564411865,-0.4626950082783583,-0.05435871764389126,0.21662182844955324,-0.30628876577437203,0.7351994501037622
0.24478057798153693,0.04668126790176391,-0.12060860451060151,0.436795169206166,0.5029163116933301,-0.13735230850531224,0.0796384765057096,0.7871012291826545,-1.5278590521170456,0.8586633535813966
0.7654383512928051,0.4250754849761904,-0.9824484539415711,-0.5017016304066868,-0.6615440451330962,-0.18570303096150195,-0.1221392683493336,0.2286629441417274,0.2673558776801301,1.7239783158281647
0.03389013015421219,-2.259686308632597,-0.29926360534130725,3.027147254719199,-1.7699807286127864,0.25057152733044974,0.4100904094540928,-0.08554398105206784,-0.05643345089043669,-0.4893657024376412
2.248968765445328,-3.8677247006263302,-1.1865037740454396,2.3564972498763352,-1.5086100376052258,-1.3155724853489663,-0.6849310733465468,-0.31181416487861424,-0.7722835324880806,3.1214122591316382
0.39410034194895893,-0.8589423563116226,-0.7682696148636172,2.577392440358791,-0.016784386179183947,-0.7043239077615077,-0.12914768573794305,-0.4279238036225217,-1.483141317162833,1.2920419325525927
-0.10857689439689559,2.3484222027833814,0.01512847342956448,-0.6749195289075964,-0.5132489515652539,-0.38450885838445753,-0.08481930483590391,0.0519025031341801,-0.7334891463164983,-0.20893495576146326
0.17613512047159557,-1.3457434707132025,-0.5384056217509555,-0.1645098101044863,-0.7863533014934787,0.12205076709689555,0.49096221447100963,-0.6872770690986119,0.14755741879693476,0.35762356166770215
0.7585066949058933,-2.952721351253346,-0.1698994613360378,2.241471802390576,-1.2123048445849405,-0.18036250104592366,-0.033784867815982556,0.23787993406617347,-0.6329010533185438,0.7685557726329597
-0.5735912353494359,1.2816546859812388,-0.5533948237390891,-0.33054829402416286,1.5601182154331326,0.032675549898393934,-0.33024546908635083,0.08459545841754171,-0.5727821476356306,0.9862663184848182
1.3081827379306166,-1.8034260565644487,-0.2094623877156617,0.7256616739817641,0.18515427223333272,-0.31572857729931403,0.027550620052642305,-0.2692851669662214,-0.5472922082100782,2.178093588507117
1.2982769251912232,-1.5000399298818685,-0.42733118660262986,1.2929457791102825,-0.029668877267786883,-1.40281178135477,0.5225639802231488,-0.4815620270719442,-1.8163018533757407,1.8043239159680207
2.8513556426114635,1.2451080345568393,-1.2068408495283827,0.4484895592155882,0.05916869221412076,-1.9258401959221747,0.6271918671639136,-1.0472195262742314,-0.7215760945499936,3.329857249223706
1.4352227042085297,0.24033427841819566,-1.032760768038186,-0.9331947519229022,0.6536255028303625,-0.6471707537865556,-0.08443655515345572,0.17718856562386368,-0.9721671150701008,3.268283156244131
-0.04995389762678983,-2.0255868490550424,0.1340925512790149,1.2669988160494579,-0.5033953068251182,0.6319111760062472,0.56840353444601,-0.01033105447400677,0.18298427962909808,-0.8230816783287348
-0.7664977228424903,-2.7257247043977566,-0.2047551393425231,2.8316168015763576,-1.8992255160072236,0.007302027297726444,-0.5821932653062918,0.8953823921964611,0.34609428626362787,-0.19861999784890216
1.1460279856032958,-2.8542421027953915,-1.0175319091888946,2.434289645614783,-1.4879945091911042,-0.397401805846018,-0.0028172319704405646,-0.3177002981878808,0.06800852849341851,1.830205803491074
1.544861098289551,-0.29683912967604,-0.026208586644582508,-0.621520779064807,-1.2415491715722347,-1.1111718973126934,-0.1570644407296578,-0.8325029708047098,-1.1072481077074923,3.142712389695274
0.23852868105591046,-0.4200190890916447,0.03658835871179496,-0.04743498539670066,-0.6752590789608611,-0.674540642249279,-0.18183432306999142,-0.19942416758335246,-0.08772348609861409,0.18667877754547102
0.7684087486123192,-1.1248886452516353,-0.8441569712531589,2.561049998881776,-0.8214746397341294,-1.22457502086753,0.14798701733471714,0.3117334963553861,-1.2071935019508666,2.4633114683075696
0.6781556923877238,-2.4013953007825894,-0.7864441501808679,2.139896240882918,-1.3093561444726673,0.2481039355199442,0.2382914578459912,-0.04370791081391956,0.3067459078638442,1.3449463893213078
-0.6924871762848249,-2.0316079368399604,-0.3430652610586417,-0.3618860185052769,-0.5765377820737075,-0.09807563521904158,-0.5691665212866854,0.8335753571811375,0.05782740506651315,0.06445506194054973
-0.15704991612427524,-1.3833727523657695,-0.2507457312080016,2.4037615452315633,-2.087094403090832,-0.07610525582484286,0.0738884455917552,0.5831042670074688,-0.4595598592459827,-0.29120632583749595
-0.27120045205874216,-1.4750029862815117,-0.30616313858755384,0.6733973351571874,-0.6901788379427937,-0.15698437365967352,-0.5723067956602103,0.821810614052268,-0.6681566862075607,0.08726861507212602
-1.0935559921525992,-1.6725719688898757,-0.14369853656016354,0.6954383749052424,0.2228280998406767,-0.07477319622785628,0.543023039652141,0.3513306447058576,0.4329987126074017,-0.13577663628129322
-0.1818802363770708,-4.7569408387526675,-0.038152744225672754,3.4244882064962674,-2.8458869939780076,-0.598957820680148,-0.4000111864670699,0.4622409148355777,1.048305210739058,0.3517974365599448
-0.4319227275187885,-0.6034397730540341,-0.23659432354319582,-0.24701479754264533,0.005316332378284097,-0.2857039967594675,0.21700564961900276,-0.42943978316621567,-0.6222062187011331,0.37226571230081085
1.2142992839649274,-1.3620914747106347,-0.41699479219748975,1.6635815046781777,-0.7300235567256878,-1.3986545368991004,0.13736466049418153,-1.1823879864223379,-0.7377759655725191,2.936484068499474
0.4861983563716695,-5.490978942266868,-0.31849987739252134,3.1729923323211118,-3.4102187321366095,-0.2525648228646329,-0.6313504944958126,1.6486330814281025,-0.9519187871680271,1.0236858694554658
1.0491016920177463,2.653455505701025,-0.9716640835948495,-0.45123487096136106,1.9410150935845139,-0.7513818529661295,0.6452527929999741,-1.1261029794167756,0.22477040847603377,1.5846546721384938
1.7130531334778347,-1.137916026656979,-0.7376900534791746,1.0139499240830876,-0.5498281105197691,-1.0450147296404608,-0.6778260523001802,-0.7452719294079562,-0.4711723781491102,3.219602129537777
0.0011988034814318193,-3.3138361953827937,-0.16007655907925103,3.348689099233563,-2.3958467266063734,0.5558701839666459,-0.048903429250818115,0.2911870637718078,0.8063750247632534,-0.5729652539531327
1.6936089876943328,-0.2195685921502103,-1.2389678801758346,0.18386578259604858,-0.08896760574487261,-1.4178767611733176,-0.4162866660012303,-0.4186150513262131,-1.305281841276575,3.2209857917595537
1.398643009574121,-2.602188207277019,-0.02030544477774797,0.8671991648969675,-2.4321383418065974,-0.9226530754927683,0.17479935475261763,0.01089195097025275,-1.1446913738201707,1.9441723360647627
1.9363946799649252,-5.155271615418078,-1.4316882362731957,3.0111336537986446,-2.2710760100021594,-1.2596673455286362,-0.3086552592933255,0.40626863174614325,0.13924942595394532,3.4034821986748574
1.6469524934194844,0.8995228641666725,-0.6981625913522801,-0.05452970079306685,0.48566986949605917,-1.1898118917434026,0.1684663200403601,-0.5144301595252319,-0.659459292588228,2.7382877247497386
0.17496101166071448,-4.96014412093213,-0.32286777672575795,2.1481966482368935,-2.8166645190120594,-0.2000248630328458,-0.020183286300073794,0.9142191886643395,-0.4834591205083555,1.8308659212482894
1.7025387047376508,-2.3641108799902804,-0.7872036691113178,2.4275155950684626,-1.7222340630284176,-0.9221653798915044,0.722360511796243,-1.1920181408003507,-1.0807083120122127,2.859338429522876
0.9808911971479133,-2.0744169100265086,-0.4794678198059608,3.0778179945915696,0.05166535409373888,-0.673414713334066,-0.46394141001750894,0.5006724558806984,-1.1853986016047644,1.6016390378372174
0.9825473903453574,-3.8755273418403613,-1.6327352924483665,2.7536995326402516,-3.2656371710239993,-0.4479648881619775,-0.2611438018940261,0.5244410563041162,-0.34715370811034796,3.2823987304976816
1.1040539967926972,-1.687253725806359,-0.4806622184580397,0.9521338625964813,-0.9663043638453536,-1.1070472065912325,0.17884657852062188,-0.48886498383430194,0.508683765582255,1.4233209226385606
1.3710066234837737,-3.9558094667203023,-1.2899951014443414,2.1865111771881143,-1.9079394235996,-0.8738645292457675,-0.34688535890671235,0.27094647171257175,-0.5704154577460097,2.2717999312882173
-0.8075372951160533,0.9649688149856459,-0.14398142583186146,-0.8133836242984375,0.413744416004431,-0.040375099391999104,0.31490767321997076,0.659698439961611,-0.849206490126124,-0.6651827431594836
0.344224041761644,-3.791150618582946,-0.5631153576823539,2.3763762463603357,-2.695728825848665,0.34848693036635686,0.14669065946779455,0.8735307241051975,-0.036486672649847486,0.5200953288046377
0.030917355180941953,-1.967987931050978,-0.7472565668792178,1.6485424233080357,-1.334168608616214,0.07870328385871057,-0.25901575821801665,-0.25886397995357646,0.934771062899456,0.6187914569697619
-0.5018564666945255,-1.3333503026944358,0.16460816059635117,2.0891233215754133,-0.9908015079007667,0.04698055352208123,-0.19028881836142642,1.3600791694265848,-0.046172103533866214,-0.13872803678750123
0.8808544220038104,-0.0006525257624179103,-0.30873266199139543,0.13678282443738632,-0.5666868492283461,-0.7541377460963058,0.5025425482215137,-0.7908325591242112,-1.0713480694397002,1.3381424389724663
0.2219903604752726,-2.09626450226166,0.017433863770333548,1.7164742547917315,-1.0924289297241665,-0.6560899455071505,0.0023292140334831915,0.9076363547001409,-0.3228938006994493,0.5378074839043157
0.5487081291097322,-0.2301965142391664,0.5852012849534237,0.13346435837812076,0.12325225647435334,0.16690946995978334,0.9753478900736818,-1.1679829321283424,1.028654038380521,-0.17265233091836085
1.2315591045520136,-1.0222090530281096,-1.425062233996694,-0.20751498126420165,0.3057177573679745,-1.0706253244254353,0.25225621714814833,-0.3957032371224193,0.08756092669907097,2.6849604306884762
-0.1518095314481609,-0.45622213214920543,-0.29362529694094486,1.8636436396550309,-0.10050204504406664,-0.05284557178017108,-0.9289370201086515,0.5948691965999923,0.4346636369393502,0.9614037563178632
-0.04812777570624945,-0.6944835851949422,0.2313148266281257,0.12596796880098982,0.6191592866468981,-0.5063011353593998,-0.5031266759478121,-0.30512066988781905,-0.5641352943851575,-0.6889431466946512
-0.5450461632757336,-0.6668227674479907,0.28599640730128917,2.1377668696077463,-0.4076019404850769,0.6354820977442348,-0.3467740971472027,-0.07517983481182568,0.40017990397641534,-0.5681912313224287
1.2930023679801042,-2.053470922731015,-0.1627404301263065,1.8098786686167956,-0.5803945158119839,-0.6670253910012189,0.4057212941250413,-0.9230793774569309,-0.42827289662539947,1.062643472467804
0.9634771071126471,0.6182335837057591,-0.36570718007109104,-0.6289191549969146,0.0010104207459969154,-0.19990582926655012,0.16500375810541335,-0.7808278082058087,0.08799353078712316,1.8979002684722572
1.3693906083814706,-2.4562565549595545,-1.1114578290754373,1.8181099387615585,-1.3828485652988631,-1.4699755477448342,0.3491298995640608,-0.9007308374047008,-0.518432831390802,3.3899995726318135
1.7869447366617035,-1.8339845113192614,-0.6378548794788641,3.087805829236957,-1.141614008931,-0.3683985497166866,0.2570552108383977,-0.1475236776653432,-1.0155923717334536,2.0796907017822415
0.8466930701817057,0.932615521232594,-0.645919210967916,-0.8614441623812155,0.9320012809885458,-0.602136559150493,-0.03154442011528431,-0.49707616838386204,-0.141506598555183,1.9066757442988176
0.5783781110884207,-1.416559506787061,-0.48658867700955627,1.6980895446799837,-0.32097986415268764,-0.26493509196105763,0.21008144087051048,0.12121135609339612,0.6698220588293204,1.3576442228323025
-0.038266134084008134,-1.3708251766788992,-0.6990365903652948,1.8522164353098711,-1.5386554561756327,0.18160245684588355,0.1759684986407393,0.03926975313061898,0.33335968424085927,0.8094876296204043
0.06474225047924928,0.6647523066609607,-0.09890718128736525,-0.12193806513788064,0.14907502445634763,0.8970306699093674,0.026387820574093716,-0.6565152680567565,0.6543358928680941,-0.19531172836705146
1.2842922136514259,-1.6257524391961036,-0.9859624628271066,1.93393959017462,-0.22627476306782113,-1.1662477550005916,-0.25412306081223346,0.7583397705418619,0.27105621217192394,2.8467195005465187
0.9050946065844161,-3.2833698882043834,-0.9173638994557012,2.3886723930163622,-1.3819489734059704,-1.2222206608210606,-0.09688733584355327,0.5677713897481277,-0.39796047303821686,1.7453558205165942
-0.798477689850182,-2.1806476692633447,-0.11019017135922149,2.659647848292554,-1.0446511052638139,0.7438021851106957,0.16473331487708695,0.20695663853696564,0.9884706422535122,-0.9640316303743172
2.1511065900653525,-2.7870154641640337,-0.39670685218133583,1.8551392261059618,-0.8492663149875826,-0.7520211723143885,0.03729837842904665,-1.0246011000207909,-0.06260646788100682,2.6562080332446065
0.2823155767762288,-2.7634654604598508,0.03165696373534953,2.377722610550831,-2.0213108641760447,-0.35740090410408915,-0.6568305249255649,0.8669351235751775,-0.29819665798489353,-0.05907867444860737
0.44548754774790317,-2.2650461729550577,0.13172238971449238,1.8220047922876557,-2.207060421037965,-0.856170738099468,-0.041335656124965946,1.0014962428388579,-0.238549467884204,1.1114086261811953
0.4210936191671997,-2.635017943018283,-1.039063545287782,2.851939214512157,-2.1981838290032876,-0.4601405879765199,-0.10923229434086991,0.18686143160282243,0.04421135305921424,1.596723053500393
1.347098848936961,-2.2624867306488134,-1.1004578123594144,1.789548267720753,-2.5615078880522577,-0.6797142545342483,0.5597478028532464,0.47432043213437763,-0.08787692690263867,1.6267532537753167
1.9329771570307166,-1.4641523910175727,0.41035820847416365,0.8690087007934435,0.2700120229628436,-0.5205557068972606,-0.10302675888601891,-0.27660345342360787,0.3613263076737494,0.7608197404520074
0.3644457445732913,-4.163769015888106,-0.5097594500223773,2.4010619812266305,-2.6751703983374626,-0.4150690498590776,-0.30057682876266834,0.1991966949710945,-0.7035901630649347,1.0232303112502446
-0.31102707219694137,-4.201366514458663,-0.5026246176800452,1.5522215046575667,-2.4555452124921824,-0.25282686183676123,-0.4405982484430821,1.5167171599745204,-0.9899335030837317,0.8157953824412114
1.1662211442148511,-3.720855648416557,-0.7118229537626206,2.9083132028460614,-2.8069826086883194,-1.7508346848766982,-0.33370472558982794,0.17135989105240268,-2.3926135323188493,2.478586399647844
0.38894174676611126,-4.106861615204839,-0.07587263058121503,2.0056247495025494,-1.5994046578629362,0.2814680152870745,0.17644744503066023,-0.12361435435026602,-0.3823911798903923,0.8228850159538008
1.9071026344809174,-0.8817834530267636,-1.4877929364274185,0.09968060701699821,-0.9507689659306165,-1.5929675785410466,-0.21828780911236345,-0.25795968743700065,-1.125577217190363,3.2963137739587376
0.6282254905487954,-2.231926579902597,-0.5139302252561907,0.020145883636878192,-0.4551201937037132,-0.6727961397016009,0.05781736612635349,-0.7250759078832516,-0.5938025645062067,1.256245903396021
