x1,x10,x2,x3,x4,x5,x6,x7,x8,x9
0.6517492554170905,0.3743199523214805,0.505650815573917,0.6773848394757911,2.978037117449291,-0.003801900288915095,0.6046079291980337,-0.846144223700143,-0.8830060397163916,-2.337057898861999
-0.47516854922050034,-1.2275865989692754,3.153474151012456,1.9292847165601503,0.8249017466145965,2.6471948521793234,1.3871396058395575,2.523988610943067,0.11444526891730623,1.5516140740895112
-0.05888800077261391,-0.7030797943838796,2.713554464079783,1.8324302581502583,2.72695282196165,1.117180025971877,0.7903675218587246,1.6719551898681182,0.9498845717970422,-0.05167254705922164
0.4409931834803703,-2.5991509261592283,-0.629873065688177,-0.051149595542828816,1.6307341805961801,1.9816140117819785,-0.7888545133144369,3.1837441574772587,-1.8147748256466307,0.4615741084994426
-0.021801806519657223,-2.1544594525237213,0.7737441440354482,1.2838888214670532,3.4028546496635492,3.122257772292137,-1.283377224744666,3.224544020997599,-0.4598866782482349,0.6048773072741984
0.9188929649800127,0.22363918881972467,1.662122546111997,0.4937017406754505,0.6000044911147613,-1.481320376925749,-0.16917832343553063,0.5601390122144829,-1.8500644078964656,0.11114882002648996
-0.30736549662218887,-2.1638645038967548,2.0423978764860067,1.9309176965212713,1.8437239197171964,2.843933273187018,-0.6372711990007269,1.9298270916562577,0.7619663570428941,0.719830348620746
-0.07750811535480057,-0.3116470880591169,-0.26334488516436183,-1.2645490128998134,-0.16379237798960544,1.8586763519856324,-0.027999367413073906,-0.0018162579106630883,0.10440701505803635,0.3358299419767019
0.18161892522402867,-1.209819723525293,0.19081045600450275,-0.31470697906099276,1.089909734468549,0.024678371692559008,-1.1606735568552553,0.5055012665877587,-1.5894957730529309,1.2226943002835298
0.8362638235595935,-0.8610972042951981,-0.9840528053510872,-0.7002820859528077,0.7623174280344085,0.627511777408799,-1.4350858345428161,1.563789131765568,-1.7610390445980413,-0.15184980370762302
0.11743248085509966,0.5464434604005257,-0.8621076110107444,0.8790664206684983,1.35629618716061,0.06045579925855039,0.24156511561849545,0.4408278367820211,0.05523821011369177,0.5139754545398698
-0.2673363017448594,1.6196511350520735,0.6128567967278211,-0.19571490796059382,-0.4291411608428939,-0.8989682555260409,-0.4128111217035443,-0.39491705436902724,1.0146614015736946,0.47375882061654256
-0.5984875478719585,0.2852907223798643,-0.09588244789216194,-0.8810823119911074,-0.9367336976304826,-0.5399263432754614,0.5450759090207056,-0.5185196351144735,0.6182320292933727,-0.7125378147933848
0.01907576536682869,-0.03987496583746066,-0.8579840827485107,0.29842588774418827,1.7835864071009948,-0.7858171286936451,-1.4099396197741174,1.2783202688642592,-0.07971348582145131,-0.58809790144505
0.83283368047479,-0.2574920564644037,1.6516907434974257,0.5869872845331169,-0.5954483323090792,-0.6615672872026899,0.4150960756488518,-0.0034266449205874183,-0.4920678998136719,-0.8385471660988727
0.8515079488967962,-1.2867819779215774,1.9870939553312694,1.472878373368965,2.580413238756163,1.4147188192406488,-0.9101324010519846,1.6629301180934388,-1.7904037110182909,-0.37349127244139146
0.5392197714366606,-1.7086705138858573,3.3405200483375523,2.0494319771843097,-0.5200971983116321,1.4216500950181352,0.2125628312865777,2.754021912811121,-1.886270515916737,1.5337327938248644
-0.04655508689802567,-2.5938448148783397,2.303889932547065,2.602405605199692,2.6514348801787015,1.0258686692458856,-0.7162587615878533,3.381925745819884,-2.785184241733667,1.5176323453299339
-0.935471089625017,0.6587914570132137,3.229014767832095,2.3631827620825008,1.45656631323261,0.3066054060674433,1.6968901203515199,1.6179777845616172,0.9352609310450231,1.0011284496719068
0.31857054155100223,-1.8540031999476552,2.6111343980776938,1.026591423779404,1.0084487686841181,1.0444477879255412,0.6920544038351819,2.59095224436541,-1.0949919424214194,0.6331786351813834
-0.5886666616429567,-0.29220198815519727,3.0143906018068227,1.1573361985276898,2.242582636679908,-0.05687801007959067,2.045382557975662,-0.00853499878174413,0.08489463840660445,-1.3139755611178756
0.2643180369470588,-1.5524737777867803,0.992479502958862,-0.2378246785960445,-0.25992100199194035,2.806541196846808,-0.08883495620341642,1.1825203288482231,0.20838022382216725,0.9091067920781235
-0.15891817458412935,-0.20112462248137308,1.0552234308394852,0.04129336756298929,2.064941344344674,-0.08029825571995033,-0.21204424815271938,0.07632174735042851,0.2587286215791647,-1.5597930801210818
-0.6022804493639043,-0.31317851486747705,1.774697162322592,-0.07481803633388928,3.2426851809745756,0.2958510865164462,0.9749334116985704,0.08146803116362111,0.7009839195706139,-1.7015421646979632
0.12961944458111443,0.8372284988910752,-0.008138277849677689,-0.15310354802123233,-0.5272869871635701,-2.538531734792903,-0.5085246476506253,-0.07320979165957198,0.72026067960571,-0.2993612945349727
0.1327796243704415,-0.9398650780527132,-0.6830177277657763,-1.5787224554767654,-0.17493618993461935,1.3663521235923244,-1.053203591393358,1.2915651271942385,0.7711980654262138,0.5432897475056195
-0.5918014541616022,-0.664588673063365,3.2042342541168845,3.103991877155535,0.38125632419164956,2.2447742544213805,2.0837510010015277,0.8496562333126862,0.8618128498795926,-0.24924654431298826
0.8767445234731472,-0.945008526839968,2.969426280008147,1.8314668328320023,-0.18739501356842114,0.7229114224978225,0.9413258745130952,1.656594197810239,-0.6266100588748823,0.9724860313801174
0.3915917739854117,-0.12049367421969626,1.6720396962234059,0.3672567919476835,0.5392292623003474,1.4570290850671281,-0.17047810240406214,0.37211492586566286,-0.8121157897480862,-1.032412952345649
0.09277485254525292,-1.1362011934006957,0.627476636015414,0.22233552079941235,0.20132294751154456,1.171448548557887,-0.9567975678065701,3.131768821047956,-1.4351411151926763,2.255115548157842
-0.48904259257832766,-0.716005344561158,1.5757418365319817,0.20986511130575738,-0.5714525212878148,1.5529119543555865,0.29070274128437334,0.9686147588663792,1.1639509687073701,1.5136640577561993
0.03992924645507051,0.22204624392218106,3.065402293254807,1.7579607800658685,1.235191208419578,-1.40655583703349,1.3952536935856015,-0.614045559281885,-0.23162814610844704,-1.2244830975421912
-0.8749439165962166,0.9578093524625924,1.1894904711169696,1.4600635937581043,-0.3879525856223355,-0.5103907574345752,1.7397396063061823,-0.7898606290580338,1.041715051701719,1.0109859808315333
-0.16798525725473665,-0.9917402298509203,2.7963836075000152,1.7426020666419402,-0.3276331428060386,0.22134399020111403,1.2941484036455195,1.7536904425335935,-0.6936304744769831,0.597974129297363
-0.48365259399153504,-0.8247688837537468,0.44771910361800793,0.4578993276816783,1.5082165519811537,2.195653709405213,-0.6184994828211603,1.491106962372763,0.7283528028547475,1.3289552882367148
-0.0028899417970772675,-0.5714947089690471,3.460973366517651,2.1966595132674236,1.0012133681931754,2.652948679863937,1.938936367236007,-0.35866911035447147,-1.442453549716581,-1.7790027865888698
-0.04085560200342677,-0.38211318824804985,0.7588501100634955,2.4395097738479063,0.3915464459510636,-0.9561622617267348,0.3408755316131745,0.6656925074171514,-0.2872639721420231,-0.668653350566931
0.6572746470061972,-1.7513130671062271,-0.8909723181635927,-1.0117661331242342,-0.1982554464391878,2.025094962750886,-2.7228025408508487,3.053646443692455,-1.782158006048614,3.5591935768240557
-0.3436413573821716,-3.516405208320225,-0.21110020059183987,-1.2366008407169398,-0.4001823311963806,2.945219899580698,-1.4751379394571567,3.4056339776907327,-0.037335734749357766,1.1196770820434745
-0.8127457806739069,0.23455126525865594,2.779728426211185,1.1860050531687223,0.26352620918354686,-0.8156656892403223,1.511758122157946,1.0179411686702249,-0.013198135274260161,0.4231210518521315
0.08322617119222862,-0.3416534676890251,0.38683426474068794,-1.4231393380192197,1.1799796278299879,0.4107658485258197,-0.5419819264934747,1.53680390046173,-0.17847170145579305,0.05614726850469953
0.23441096869090824,-1.7422461167856444,-0.14865710422709477,-0.35832990045495755,-0.5428744938446188,-0.41392067448430764,-0.9205234211254372,1.9566280754724188,-0.31465357821043144,0.4495954597972878
0.6967968189602661,-0.7754751130452756,0.8412487485143085,0.3963730935458459,0.05620894282931399,1.5262697248348351,0.4451148161236955,1.0673165751803242,-0.6161465384944725,0.6051677319565634
-0.26912315358132183,0.6154160943805674,-0.5498431333486847,0.31760504551093344,1.9879112658574694,-2.5165960764556052,-1.399545946549039,1.6748279015873515,-0.9241073076483857,0.40323555208290274
-0.34831839499094885,-1.8678036925606403,-0.956002157649036,-0.977756639115696,1.8767843360451582,2.8710528677831872,-1.9508789029229672,2.149254607724932,-0.8268675255693887,-0.24901500584687986
0.48300035946482983,-1.3294104097758421,3.0289379874827587,2.000915114227763,-0.1954764443388337,0.6265082778128461,0.15486132521215112,3.0056894896872333,0.2601472613360516,2.9197781092777113
0.182733769840925,-2.494967082474716,2.906786319439508,1.8855138209389284,0.18919164496286012,0.3442900289425986,0.8192222395202103,3.2279976250454343,0.6788947845921222,1.1072746035237735
0.017272552316881566,-1.79115142697259,0.958402686470158,0.5231432917975066,-0.21615533271455079,2.211551929477519,-0.8289442482620412,3.459606421171431,-1.3460607831416744,2.6230051476300726
-0.4808136892651504,-1.2113340316080303,3.1365481164632856,3.166887441052564,0.6068040259698941,2.299441153993909,1.3314262552901996,1.7125089344645965,0.052020280862376964,1.8390192582113682
0.9391987243706116,-2.1389747454329133,2.011754433384295,1.7434531814642187,1.0855620924840887,1.1738575503209625,1.0954873013253383,2.696504751294293,-1.4391577343447006,1.1575920784905565
0.7080204807048289,-1.5729905225672727,1.7498027501960194,0.43283211550529704,2.2308305086319775,1.1297176028651106,-0.9705708330280971,2.4295895501806353,-1.4423521176057237,0.39986966850139716
0.08505742259997649,-0.6816386719595536,1.5282373492712242,0.23526037291661106,2.6168825166449956,0.6400120723020759,-0.3341344435252851,1.0674635106980817,-1.074111267034919,-0.41757912940005215
-0.17222670072105495,-0.35865515320638086,0.3567611689820285,-0.23980946663400898,3.222076347274613,0.11104343342939395,0.7092037615350236,0.7580812098250072,0.9550234542927011,-0.5546115370394651
-0.28330928109632186,-0.5423909079630165,1.3620147905374642,1.2109165566060502,2.3811982294356353,0.19937438114824513,0.6049111958172685,1.0624932859020548,0.6444145042116606,0.7704832150945623
0.3564556711383652,-1.0255365486404924,-0.6163799537276216,-0.2305777339786271,2.3308648952370836,1.1412979625764033,-0.37539263820174623,0.7530615914433916,-0.2705215729914401,0.4690726393915316
0.6985656821924056,-0.9410527349018102,1.789122900673433,1.3152149387007541,1.192827315211907,1.6088413190338051,0.9509271056274391,0.6941256465156864,-1.6589190441364043,1.6457179923507932
-0.06790098026825928,-1.7516371526150318,-0.36443030160284773,-1.163141262406083,1.5209008857782123,1.6225920402522898,-1.5962714596735117,2.9325700486741217,-1.056845777192749,0.3310635821795138
0.13417662467531494,-1.6167637152659762,-0.8153375027563735,0.3235032080393458,-0.4019858893507844,2.723803650030117,-1.702513161265079,2.3016381734044105,-0.31371682296185854,2.12103311352943
-0.2808580845441665,-1.1059550603590353,3.1873863659074075,0.7953999605617975,2.5760729695395304,-0.6649938874925805,1.8666646832537985,1.9480521131186657,0.8535802721437197,-0.581974535685718
0.6476769102753719,0.6313422316398162,0.28833606431500436,-1.158557374960429,0.07740091966793061,-0.06429998869594551,-0.13474646263070422,0.10364604463496319,-0.685113416672207,-0.06084014251008443
1.205318479682059,-1.776921816485925,0.0024815157211846017,0.12720591157386682,3.29219668494894,1.7571600915865544,-1.6037930848847926,3.192830638992727,-2.8749919488363354,0.23379851535237828
0.2863343213950209,-1.899418586027472,3.427984820534278,1.710614235311966,0.6034542303196981,2.3907339415604025,0.5221966176463426,3.024069703614747,-0.6254172596872363,2.1839377328835297
-0.2553105437474718,-1.6136932356690477,0.2821838032942243,-1.157412590256,0.6433523770903387,1.755297025951868,0.041910983304383365,2.5151472511630892,0.3690867814400208,1.0982587114433187
-0.09142168610354354,-0.819293058188204,2.868367270754946,2.46609294208405,2.409757054316495,-0.6883554349806914,1.0572842224710595,1.8769574169576169,-0.055052220479947934,-0.5633939185949923
-0.2268442468386805,-1.8206193611636245,-0.5625857471279141,-0.3829254507587728,1.2921511828597962,0.512937687103442,-1.3463531726386255,2.9831082246155476,0.13997392331703276,0.7161823616552487
-0.07417748311829171,0.4942364836208536,-0.3329021708171599,-0.13022436930259704,3.093997359290359,-0.2965320557147419,-0.44364533919345983,0.16030129022945783,-0.11040619494012831,0.044750531212630285
0.4854355843386049,-1.5342742392403432,3.322479812624297,2.6506961954485373,-0.3794865688106097,2.4078268458302006,0.27236909195276604,2.294413175632771,-1.594461075669236,0.720273371848941
-0.3804955157832502,-2.489214363301315,2.884937493202626,0.6735205729383672,0.06038414799759351,2.413649125221255,0.6910175928801321,3.4240701557948414,-0.6812149564292173,0.7456099949635461
0.11734276403272155,-0.952264669085385,3.013332866583104,1.9757018482752864,2.330052298104763,1.614652990522849,0.0496039942229588,1.1438701181521567,0.3876906740417997,-0.3861448133529277
0.1912840279452097,-0.32098965209586316,-0.9996142688040583,0.8582163214871499,2.406959287180022,-0.985914860542911,-0.740197099663719,1.1337213185831048,-0.6208917859322205,-1.371599100586196
0.11294963584827893,-1.7660995019686276,-0.9841597036587824,-1.874623691659735,1.455280705159729,0.5204293065736347,-2.793643858391851,3.2704341511765858,-1.365063976445304,2.7788151690052727
-0.018998951203191783,0.04951045854498733,1.3755973528071515,0.13858208063367933,-0.5818578032355755,1.4125160307742897,0.07919604447139068,-0.3003010822767076,0.30644007664730755,0.4548084923958524
-0.14813866943202036,-0.13561712759813546,0.3405422914704983,0.007040340772576111,-0.8740343226132026,0.6135490059561828,0.27416421505889027,0.31166675365991825,-0.5578476631210406,-0.18137382821412645
0.03499350245629383,-0.9195832669960994,-0.5012411829629415,-0.26018595181398235,1.530224247807193,-1.117340100069922,-2.0834959439543006,2.986397907597686,-1.7103111190775453,1.5742539657317471
-0.5981060798694499,-2.036432264620791,0.9261705231960509,0.943754327183252,1.0069123395274175,2.897695758915486,0.511771055901847,3.452698663059687,0.6177694008846241,2.0913149318762354
0.4732396667793185,-1.7720280106988286,0.983814735246525,0.7178693264061367,0.1479043521195047,2.2408652730400833,-0.7187273552388601,2.9716901197605043,-0.950032585741223,1.1739377243319595
0.2119840387379545,-1.9178205518467417,-0.654789460790395,-0.3341578435247524,0.1352954315393875,1.5755194510039239,-1.3533467940417174,2.6507722302174552,-1.4308952974587212,3.1549536178418305
-0.010091338552159806,-1.899434243871425,1.7311396917123334,2.6687222442023018,-0.3150836062568676,1.8093810721070192,0.5993547330730061,2.7895259932070284,0.49962310658167225,1.5217119166310125
-0.2674045522681641,-0.21492953150905847,-0.7165165327849199,-0.5645038648444606,0.6244939609838449,-0.6540862514769806,-1.0352458730644514,1.431087237366416,0.2812593636688152,1.0179310166598738
0.42760037175170795,-0.250268030447691,0.2134168411581161,-0.31389608620698817,1.7306922689519277,0.5783813266910254,-0.12473265273858755,0.40999937316699886,-1.4322531054057979,-0.7221784318331461
0.15751823591125225,-0.9216992516422953,1.0402357689767183,-0.10898577898080336,-0.9709772383738831,0.6018175536957856,-0.06096133754518629,1.7297458599110849,-0.351696194607666,0.8068838821242699
-0.061791551587377556,-2.3280058669390455,0.2179366992550016,0.8790967115864425,3.4525082374073026,1.780657963417771,-1.7241749889414024,3.406414580912987,0.35242287104979236,0.42305548230871315
-0.16009106028675427,-0.3336954748536595,1.231230890372066,1.2571865787061347,3.0879495985690024,1.4573287612968062,-0.9322495631057157,2.4100653875616076,-0.0547195196554773,-0.7993744039197176
-0.7351607113707547,-0.3740138038323834,-0.34732997852720116,0.29435604496013223,-0.3054861130746771,0.20274766660098806,-0.5128992978768245,0.20406298424790403,0.6286979704346343,0.2855276365519338
-0.19428832762179515,0.8798960731595075,1.6271704621481642,0.9677054164181442,-0.5740461380856543,-0.6212846171941728,0.39122355033236705,-0.9446223375621936,-0.03936284639952169,1.130595604267238
0.732402685530692,-1.2586841244409641,0.5328010283398625,0.051858269509234285,2.112030268798361,1.2910277989707781,0.1551503589242155,1.5918364345449016,0.0990706811977814,-0.5700575490063046
0.7671559783759508,-0.6128956101404593,0.11532407456844962,-0.08040585585314093,0.6781337650616803,1.0662556238622451,-1.1795767100095258,1.7445658109632474,-1.9973110004408812,1.5342218051148313
0.227506862565542,-1.3250860446067367,1.9607270921915996,0.5930449813452982,2.9644399996259283,2.156443775817876,-0.7501543020690059,1.361538961506855,-0.8301990817515801,-0.6003574084116479
1.136350300346698,-1.3145686483709234,0.1398453915482436,0.7252279732252561,-0.48852180605249595,2.096700782034293,-1.8192897572411948,2.992830607032778,-1.931647417805488,2.5859737969582524
-0.17711864499865337,0.3729475041813287,-0.567867134888131,-0.15885545049597077,0.07182501944497899,-0.11621486307741562,0.0849488997066733,0.13235456236802023,-0.25034478095585905,0.8345656529240527
-0.16735909239675872,-1.3729978350503322,2.3293157550833086,1.2609892863288492,3.3890544318405027,0.8917983268907966,0.7002082550189055,2.5801698813211202,-0.994478413905531,1.7641488534800214
0.7665580760483538,-1.3164594892997914,-0.3814556754348485,-0.42329589207538737,0.19626074570504493,0.6397658962743579,-2.6444051925943812,3.3763419120067395,-1.596428622424858,2.6359275205033423
0.40834664113743463,-0.36933083283686585,0.4993919747353368,0.33783180773816446,2.6735304367814905,-0.2891174524333544,0.5381339281168372,0.7114861002128481,-0.1362991753569905,-1.0326779696655266
0.3199126817521287,-0.0748759847053642,2.839195864287527,2.1681073783467464,1.9787078964921725,-0.2506077722244602,0.8014033092716786,0.904076818914336,-1.1884998857897868,-1.0300144276484038
-0.3084045585832242,1.0605789083780217,1.5546064270910511,1.7102645117828124,0.7161943053867352,-0.7040921670138024,0.8845844664157637,-0.8462629645701244,-0.6025974043616726,-1.1281676340063147
-0.2226400430366274,-1.161057964635673,2.5079486183792556,1.5899137411410642,0.6938773588119556,1.2167504511500535,1.1599653762507636,2.4316513065068635,-0.20286059617840485,2.6062070364078864
-0.5072728371914318,0.03858759136193094,-0.7285682776249606,0.23964851633798145,3.0598527443962755,-1.0701954549963875,-1.2106018108927667,-0.13623154126225034,1.6072133185613753,-3.222938628576262
0.7508975854045185,-1.6098671803808626,2.1150403950862287,2.1421417655689075,2.0446566107376727,2.2162472220291254,-0.816157672434466,2.8803475923365047,-1.7061575070273927,-0.1035439591442836
-0.44422680971360795,-0.14037319458327058,-0.0871849290124066,1.156565988346629,3.035657257382259,0.8379035513793304,-0.8827604442133941,1.7702323581364516,-0.6855534704730875,-0.2516195511622856
0.3247838858624024,-1.450298084434237,2.025761253577896,-0.14441579478981173,-0.5562071596860548,2.2275461107007684,-0.7040860668372964,2.991186112632206,-1.0831488626207688,2.2178551997513463
-0.25419009689677335,-0.5181019563567095,3.0798102514382695,1.39202385551722,1.7541394951871259,0.6266360537214926,2.2227760273937927,0.28459528354361674,0.6093675924838586,-0.3055011864619357
0.7222898320049027,-1.4204950026895484,0.03923559780519459,-0.30614528319409307,2.383623481336831,0.8445084846366573,-0.36206595051075385,1.65233672471079,-1.9242334103365581,-0.7665325512487328
-0.3864118733553078,1.1140719866512534,2.163831146365526,1.373945493046531,0.2571893471500757,-2.095416332267468,1.0243361019067827,-0.4201765297999429,0.39631184462387054,-0.3100728239869464
0.77138510481422,0.23854272056780793,1.8661683972700245,0.6831712277769609,-0.8002208181080213,0.22871753723956267,1.8187910157338758,0.42859581463368124,-0.4348081297194337,0.9158988734768462
0.3264102094050191,-0.13335373698535136,1.1311215281474385,1.1353865079884016,0.14671214562924928,-0.21000630616178545,0.03281343381507129,-0.014006784423648444,-1.1893188584698249,-0.7133041991275512
-0.5832244829422659,-1.042612801919626,-0.4195542042767234,0.5068501349445237,1.722838499095226,0.018508787664893108,0.06584906992094214,0.0010048393990673699,1.8385378482943375,0.29842516978202527
-0.035197011845187164,0.47007509854958646,1.4249044209056438,1.8934677784742677,-0.9573580917523132,-1.8821937690021648,0.3325018212623581,-0.12852573686983615,-0.4915838114266341,-0.3448196936257566
0.052637621431257366,-0.7391980769134423,0.5161336273289947,0.16012176306341977,3.1602731695057082,0.4529517983562401,1.1311927944976867,1.1907281490720347,-0.2824171166326792,-1.3013404392798233
0.20575114278327733,-2.142790897921946,-0.3960417454266998,-0.4742800511975066,-0.34790288271854086,3.2872592380958516,-1.0619088500330172,2.941965057189761,-0.21797966881599232,0.10686465070335038
0.049621624389255,0.07640999638507882,-0.6530926875730649,-0.8041019267334579,1.193666947854712,-0.8056374669346577,-0.6672613617400316,0.8239217368788523,-1.2564636696859808,-0.5879778295839557
-0.32014494690694295,0.47423445196557035,0.909946207557381,1.051560702959205,0.3514245267736731,-0.6096508461140872,2.5669717163373065,-0.16719497076509127,0.5422794521110099,-0.8604723309249203
0.40983175741803585,-2.0168902176371533,2.3593739135637057,0.44677250734358126,-0.5914898834198221,2.4624083890183117,-0.489339133791872,2.775373447188908,0.12296480244739484,2.4977086879257997
0.6241564921259791,0.36498066073814944,1.254418156838164,2.5352997764953322,-0.9654607214418358,-0.007643961844447972,1.3158180808336133,-0.685632930033577,0.2322606575210885,-0.47790833010045336
0.11601182710772888,-0.36647395406533945,-0.9990743479954322,-1.1164746521284024,-0.6806353722115215,0.1381757675158501,-0.879340219544196,0.3351922566917318,0.6953496640708802,-0.30998321784803207
0.1819223020219538,-1.455237128880321,1.3994644697084366,1.166956993714411,-0.9556638491831118,2.5070358982870675,-0.2320957386568282,1.3997997106472733,-1.4200353988913013,2.469091231949408
-0.2863685211718971,-0.6562285384118236,0.1519897358904534,-0.49540435091701,3.2184963036000314,2.156278782260228,-1.4007761544816129,1.8783571084031783,-0.9140042651195265,0.5596825439066273
0.017706958434040364,0.7113182547320586,-0.16456497785065627,0.13475265365992115,1.491427467707838,-1.2613618229077992,-0.09398251877788429,0.31444866678698347,-0.1064060552004926,-0.4111597227378545
-0.2019045764423093,0.0035989785036771014,2.7390725606692707,1.699317027200852,3.2524234923891715,-0.7208617184949693,2.932736262892003,-0.6275968212154441,0.6448353837950099,-3.248329718227387
0.6359593882453785,-0.1930997111164148,1.6251598040184132,1.2587865115085393,2.5938814836194437,0.24346554283619812,-0.5924012611677524,3.2265243531583128,-2.2027205678699375,1.1982527577875302
-0.1399827565430373,0.011379150057439669,2.4910424724954674,2.060549735451029,-0.9242774714492705,-0.5356342659540163,0.11950158815061973,2.6007997211743517,0.6246673243761742,1.691192129914175
0.20243668967668424,-0.10069674056749041,0.492644747439863,-0.6078385563975411,0.23262870439358685,0.8676021049034527,0.20730878058744429,-0.25573961990973504,-0.9861380175057739,-0.04002147373201825
-0.19743055136975934,0.30481026197977606,-0.3072907349418308,-0.7789441011892744,0.8998914236556994,-1.4358099856148818,0.5431249887482253,0.39260670125438235,1.154772131299773,-0.5358773189854087
0.034770974647078616,0.48515825788607836,2.0443677033596215,2.3963209749886207,2.578463362675735,0.5501726427294372,0.745835151779318,-0.5304396324733585,0.36241975607116095,-0.45533629194297376
0.36294910788296175,-0.4091397552591604,0.9925801298194943,1.0272751599506347,1.4601647718350779,0.07076840757694494,0.218811188448049,0.337010776799487,-0.3758267128568664,-0.23580930118913973
0.4173044163596615,-0.10086293104920027,1.3051558969204127,-0.27117717606252634,2.3527960466051443,1.4830594410196893,0.8633573254600854,0.051394553219854755,-0.2399891825424653,-1.6411470822000804
-0.370915941183989,-1.961186280631659,1.4092475543227452,1.389773173460153,2.5472164995043447,2.51356015140507,-0.461720549684566,1.3842799384924138,-0.4664154932367144,-1.4070987598114584
-0.8558509113903159,-0.29356405424898313,1.9514002115872962,2.4295134184872973,1.2989445440096667,-0.6250622153917683,0.8193333487847976,-0.8445665225901682,1.1212299028020138,-1.7372467116255463
0.6969593922023257,0.5536343895023638,0.4671221111625876,0.49843400394711507,2.107635379279831,0.3414408432061308,0.11473395591687258,-0.3376905152744758,0.20776458182259702,-1.0723597054197018
0.3864405674855263,0.2806816277231393,-0.677568059509944,-0.7740505018890673,2.605679003590871,-0.013810319667630064,-1.3855894831972508,1.9085999573827634,-0.916603270641344,-0.29735775798056413
0.21881783371038366,-0.06521969151888712,0.26102619614423195,1.0227310646980963,-0.07634552562315078,0.4995594174903865,-1.3500240717761895,1.9332591682087075,-0.06544497851482242,2.1917623766230303
-0.08520748875853683,0.1396818940583432,3.279764530006968,2.520670222995451,1.753450430653575,-0.3865225942650856,0.5388530052537757,0.41026190617083236,-0.4273785426969561,-0.44710595658472974
0.21625536623054403,-0.4713820239084688,0.31220863704229185,0.7802540973579057,2.0646127316670877,-1.4182886870278848,-1.4855690126085614,0.7463321833480208,-0.676095217641651,-0.19752036260140504
0.036497556808514145,-0.953152583444584,1.7585613740202355,0.24141859879494296,0.7359056658543954,0.872929475988161,-0.596101756562812,2.4968462338615107,-0.6466436970338687,2.3692345728938866
-0.17941339798159606,-1.284843768736257,-0.7801911022128853,-1.2867977802408244,1.9660572432912686,1.5227167253754406,-0.8151049922672927,2.102305321055372,0.09647427413126128,-0.9999448312503443
0.3694062296576207,0.30017878065978126,1.0017501653216607,0.5539713485216572,1.0293255193468895,-1.4726100762530838,0.6394933786171819,-0.16374545042379873,-0.2983637114987356,-0.6522251439198263
0.2504116025957894,-0.1937123149635381,-0.9024755032341709,-0.0035734898162095826,2.807710350419239,-0.16786315421632161,-0.04432344589697415,-0.019534190972792298,-0.21927044891481312,-2.349106571396668
-0.03507609123443998,-1.3842576362047119,3.4132456054180462,1.2007330679040267,2.5532513286893592,0.9238859406838614,0.896135300643186,2.56508573040307,-0.7827741721258338,1.6213324603835018
0.25209948515178643,-0.8005565970362807,1.8939272761077515,0.6991701292860173,1.91385989875066,-0.0687403316439367,0.18613699672851225,0.8611267375341689,-0.40995507521993624,-1.1777082267558978
-0.02521991871877472,-0.39348836337342047,-0.9970196494069125,-0.5713769023420734,1.9842082258344944,-0.24696345366752198,-0.7676828674165154,1.90989009205067,-0.19895829392196127,0.6731564087907196
0.1254119493371183,-1.0821930623600065,-0.4469123597609894,-0.7456554141509317,3.2544434084628584,1.7575346148885729,0.029448485593876004,1.0170926084344218,-0.3899219705639846,-0.7894513501968128
-0.062965110627032,0.4857347016793188,0.6059841345066768,0.027650838254418945,-0.17255483493492652,1.4279583126584163,0.9286339159118083,-0.9744544359902076,-0.21460145531123767,-1.5125983557332403
0.03157730969732036,0.1062572454850782,2.292114603129668,1.937963275225003,2.4901451854999417,0.017209513964191965,1.009838173030116,-0.7619858377938016,0.8553587726904792,-2.6161742033733737
-0.5501086399423558,-0.6141040931784204,2.2123904303849824,1.5761226239504569,-0.6179492430659436,0.07510003634504823,0.6872111756206551,-0.9590353776718125,0.6052240411354927,-1.0436178097901452
-0.45869912446134226,0.11249691453603804,-0.9410669863720388,-0.10919769641145219,0.5087518881238844,-1.246861068039612,-1.2325607086494212,0.23353096983246302,0.03632770141127878,0.8651612474846977
0.08046370619801116,0.32481515453484944,1.1047196194750133,-0.1896282031197749,0.53724107716998,-0.34040131818384173,0.8470010976016861,0.391725429930029,-0.43866285298846097,-0.4050639797476845
0.7049749513992836,0.05438488506989177,1.1927947548260356,0.38713822515540686,1.430563243080405,1.1509273878969077,0.5986376679087839,-0.5634060799482921,-0.795709536989252,-2.509839071155641
-0.3700364034661153,-0.8995685149635535,3.460831357391579,1.4363458826190714,1.4186808277751357,1.6386427018425207,1.6905354717121064,0.7392753522455826,0.006307929793900016,0.7154554763583494
0.9029803030763124,0.557563174502841,-0.6974277794250823,-0.890570520752715,2.4051754375248975,-0.1667463235182572,-1.121484973966323,0.5121501217480433,-0.5880119813968023,-0.1605131661683199
-0.07853457739502025,-1.5490492259417445,2.4738453940568625,1.3482251361332673,2.2368394844999515,3.120488778107992,-0.09634263617203187,3.454313586905907,-0.22793995448465804,0.1890581613640403
-0.045834828930347134,-0.5818321039890828,-0.8371298663118566,-0.7405380859866939,0.7802296015965282,0.9176772379524256,-0.4236213456395407,0.35764229199909114,0.21501794530219584,-0.6151298186452988
0.08358089810873388,-0.01004740387688711,0.8545483035181596,-0.9223780175719646,2.8748273511778133,0.39377540196823946,-1.1024673281610458,1.4788641294628375,-0.7001856711863313,-1.2568194898368583
0.15656612392081065,1.4465136420738283,0.22418351008589488,0.5020082476612789,0.8636027257767285,-2.013525529817744,0.9667529516774636,-0.9738655445808047,0.5066876597245942,-2.1233910943403353
0.9983856073454628,0.7184025405578877,1.112519572154007,0.974890907408837,3.0983024011275173,-0.1367895039927955,0.06011029939797363,1.0157447650939604,-1.4030341688659373,-2.2730344320050344
0.38373365718295915,-0.03202476855584363,1.9723958295003392,0.8963479509119946,-0.17791922574879493,0.9901509251418172,1.2591416673181686,0.3379599830148001,-0.8215191586996738,0.08457302263894506
0.7755703764178195,-1.4291409602062115,-0.5503978764276374,0.33491324072862483,1.6321421499327662,-0.12429632935375934,-2.123549713090662,3.3054923155143356,-1.3019675977001373,1.1052019219862441
0.07405064866365002,-0.5272007156821581,2.91854350840042,1.8101369828629195,0.3362538790517915,0.8794468679449255,1.3485728335869198,1.0083194707428507,-0.5220402380218697,-0.39823358136066483
0.1852647411180161,0.44622011519035304,0.6677532514586504,-0.284418649423191,0.7747820471837623,1.0186402221109514,0.5618041498266241,0.4306828633223463,-0.534338717859839,0.7090384761490351
-0.10849800209279921,-0.07052111292892971,2.8629462451283487,1.761743077920643,2.5396631726690857,1.3363552594282277,0.8079818247001616,1.0028627319207795,0.24487170273413514,-0.5711320742082615
-0.04242007567218753,0.16825243525968872,0.7677648309318086,1.0690403585407833,-0.5471959051256399,-0.966490282314659,-0.18093214480669997,-0.32816514750506065,-1.1083973903008395,-1.1518730879119934
0.13045672908478734,-1.520818805511596,0.5265509144544294,0.5677530562795532,3.1566813717817412,1.654278398418523,0.27259935802594537,0.8848902845557991,-0.4479278307454493,-1.2151145127560714
-0.10356925607763723,-0.7370635999895169,-0.6431495299663752,-0.9510975767786416,1.0103931928074124,-0.3476815401464865,-0.9831940744102342,1.5452687074587588,0.3937333798082179,0.7991725611453595
0.26411767111615814,-0.21176259941075457,1.9594236867166934,0.05237435333212291,3.232342667738987,-0.05322195759481742,0.3008238847066713,2.977307070737954,-0.5616806131661839,-0.053569948938748224
-0.16334743896634682,-1.65493804223043,-0.19061181310361452,-0.2764332822763242,1.7781641328400246,1.0433878330895738,-1.3432918197001116,3.1692072967396525,-1.0091238949295798,2.5879927178360567
0.3780112662821738,-1.696110651041601,-0.3272966463385266,0.5172046838210357,1.9958890660850308,1.4674059979505574,-0.5852700259643676,2.0392560318243413,-0.5347324505891843,0.9823222331811674
-0.35790739192085574,0.6664746946661907,2.5317015930463596,2.370176362958968,1.2784504558186818,0.019465590812508038,2.0743720909408463,-0.4606211059254738,0.5475329620394835,-1.0404527476921537
0.3442314763172602,0.5816212728306552,1.3787752377486644,0.892472017844176,1.1378961918611372,0.21080383834984368,0.37770637145250063,-0.1489003685041902,-0.4032884058947076,-0.4019744654365962
0.3389303493510855,1.5110554330932728,1.50468013836216,0.9695247995183947,-0.23623104792503724,-1.7915550294678095,1.4252214913413666,-0.8698574420063824,-0.1756655603905647,-1.2366226362895698
1.0223336978506736,0.4221843600464929,-0.5268299693136832,0.45500700178832826,1.5634012235521118,-0.4555991087704243,-1.8529004005177165,2.621671507994669,-1.2839509324811873,0.846704332835353
0.33400923811056316,-0.923065089398174,0.5722217885443825,-0.03755206956384268,2.2459410352304237,0.5824570055579772,-0.043242845152231424,1.9071305296630094,-0.35800812952116823,-0.7103389197168486
0.28046413879809956,-1.554296110696831,1.6343179929610798,0.2178346197789849,0.06554315473430505,0.34418569558111506,-0.015840766538629314,2.9197977241402984,-1.2462709649573993,1.7293612990351956
-0.04936615808621673,0.22850002612246362,-0.5370998834862719,-0.7793133940520736,-0.38671670145736003,1.0265579067337116,-0.7101071436651545,-0.5080870271819163,0.8106268749136896,0.21869696520832915
-0.40761117524338214,1.3911883908551104,0.5263580984429661,0.48526383907057896,-0.26303637696295834,-0.5894432170810239,-0.01780291928748999,-0.8210089085484606,-0.28069657148474425,-1.9363425488317083
-0.723852194951963,-0.3738560557359574,2.287123627272049,2.393698912010828,-0.9768902841857998,0.5441916433083317,1.266905529328806,1.5249098493881834,0.7631004210734692,2.919337826410115
-0.3903961566793663,0.4468407510280733,1.2761205348539661,0.31443267996512253,1.4413863915668665,0.5090049089644075,0.07046734388170203,-0.07510465768805386,1.3320817743351718,-1.1589042314962186
0.510085152263188,-1.1027469724716132,0.7362629986048663,0.5229122398301933,2.302217211613002,1.2852915324094787,-0.27083561954987967,0.18191130916803622,-0.29359344165867307,-1.3422686488439375
0.5319450450543558,-1.9662288712701674,-0.9643569863314994,-0.059422297558543766,1.721690719838779,1.3255527726894356,-2.5171324448056716,2.9548006765848065,-2.64321404826768,0.3988661186074123
0.21732866589917618,-1.6577415793159258,0.029405470853711257,-0.004395638596807511,1.0933531313020088,1.0269934488111072,-0.19231569941628895,2.252140797573049,0.09416812420656012,0.8189462457885996
0.26482569710146786,-0.643828139209285,1.2569766618148241,1.9357641173792726,1.0019577119633376,0.548265225115757,1.0784243352165546,1.4797095721108038,-0.7494604140582688,0.4863129804722036
0.2207425163900761,-0.750298743406521,-0.3537429634615372,-1.2756650157996219,0.2915249916678717,1.3862543986295952,-1.8104017016835745,1.6929370881147965,-0.6223166578082182,2.6513059418446616
-0.6498830526905104,1.2294680431757907,-0.21777693137751364,0.44847414091228865,2.113833984751103,-0.6267377400455654,-0.1171014303382294,-0.5011499088738547,1.2240835025421077,-0.9014072772749067
0.13162684217751972,-1.688806876744981,0.37442881710057696,0.6797090529772511,3.444321082454765,2.3445419099584073,0.43398169839310574,2.080507522102002,-1.1280969688761724,-0.23428113663597783
0.3036633229870303,-0.593256112141332,0.6945177246591827,-0.49950848357186833,2.2222237362339183,1.2926446815450658,-0.8004688360013174,3.160876088473243,-1.4806132693613725,1.5696512067484094
-0.31622512589781404,-1.1568745664039777,0.9468731208331367,1.1091228903463046,2.593373436096752,-0.0833123489627661,-0.2276672805730928,1.8429378357422483,0.5616524705526209,-0.9348567798704891
0.03871776295429992,-1.5976103267088864,-0.14073572877245832,-0.5507801085076067,2.635621242861727,0.3161817130493578,-1.905192666534976,2.7400016657887676,-1.2347134010484249,-0.13129617436345864
0.3897648557774865,-2.3679861661320656,-0.7606552674840368,-1.7122312450800363,0.9592863440710491,3.018027554844005,-1.3567572435733626,2.3289108496560873,0.39528808155781336,0.6680859836547063
0.39855639411283317,-1.4667171553247629,0.19634563982464281,1.1974982503509233,-0.9862831299458867,1.5959087479055103,-0.06327248715074973,2.6994975406513753,-0.8086644327680165,1.0398700304624147
0.612762789444593,-0.281956271414681,-0.15424286056556946,-0.8762022526559465,2.7151589341637483,0.6286833917405756,0.6939320001657506,-0.6041049883263017,-1.235011853999198,-1.38290281650586
0.2251117781833555,-1.0069529903259846,2.1495651061907597,1.8108277931015393,-0.13871799869921442,1.4395041661787167,0.48753794773128434,1.4446895820319043,0.4540308056592331,0.2540889550465566
0.44644429756255855,-1.2191409842387533,0.16574907604497602,-0.34308125915438054,3.1087031357643298,2.7177645069332534,-0.9984814213543047,3.4441145137991453,-0.9134175069346245,-0.3406007513540896
0.7214802792579306,-1.407279572300856,2.023079378974244,2.4655264973203583,3.248215247517919,1.6919179282841357,0.0339102321998368,1.9306542872670547,-0.3415088336210815,1.7103300580647378
0.34778957252749765,0.11237160304680725,0.20308531459424017,0.4008526771077501,0.42531296516176753,0.9956041735507446,-1.326074396264545,0.27481353063355773,-0.2204228557867275,-0.2671558233966176
-0.07620731352133733,1.1848459859654799,2.8588106313524757,1.3693937210793086,1.9554198676683505,-1.6535533390084187,0.9517869737737998,-0.6258995173807183,-0.22752114620832006,-2.809852167339093
-0.4324979609284871,1.0681540555866003,0.9193266509227167,1.2331344417891439,-0.3670737766267572,-0.7806253666717804,1.1061327384895487,-0.38956297671869444,0.9020061038182694,-0.7600871599846362
0.2632319770811856,-1.873603190943056,2.5312219939631597,1.8344036214918702,-0.4817744250329262,1.4129945518912765,0.26919332428764564,1.5079373242244514,0.9418295968521071,3.0061280741119356
-0.539584630229487,-0.5056703537970271,1.8738178987062986,0.7856088447588675,1.1482526741253372,0.30212072774306215,2.1877985130272197,-0.7535605978818793,-0.25115796510035054,-0.706177137330148
-0.21791271803582282,1.0164729213222023,0.07789751890385532,0.7924900028580001,0.9736940575710704,-1.8524687756135267,0.7096248466211235,-0.708598430899542,0.049953325554313574,0.8498457507942193
-0.14897314094573777,0.738676093659644,0.1617521420283361,0.09579315916025612,0.23875693788533225,0.6569630648703215,-0.2514928335751843,-0.704290109129126,-0.14405374782358582,-1.1351330122552143
0.15670140483101475,0.07486864594812513,-0.5761524154384984,0.03371900360740166,3.333797074503525,-0.08772169506964654,0.268836441264557,0.38426091970829845,0.47331856377419657,-1.0812949994369203
-0.8475223165489699,-0.17247594027222307,1.7757584893905158,1.6824519172538155,0.5060119231228593,-0.8225598248961296,0.27312031594841213,-0.6687277001672302,0.4363820194172658,-1.148059688878768
-0.004031840848304938,-0.8006278439392078,1.2151868666137533,1.6496443814159698,2.5107738590902566,0.6877965792063998,-0.1594373399506872,1.9152316203092008,0.07932324714773026,0.829322479874284
0.2650992998505352,0.07151898241084141,-0.9922385874477546,-0.38473133810006,-0.05283602676790333,0.12362500618468071,-1.1122239303658252,1.7261924026299384,-0.9337876877033147,0.7462683731688657
-0.46332115560831744,1.1073321065644612,0.6605448404915848,1.2635972053028444,-0.4719823249345748,-0.4494983937378297,0.9892095849791054,-0.5439794265367524,2.3429997643100564,0.04397564086621186
-0.26351693383298486,-0.666213257820905,1.0241106030269225,0.5880862751595719,1.6980559350857587,0.13426437535424854,-0.24942322351546622,-0.05395375333486652,0.1657017934447286,-0.40153024944218524
-0.19315592358598044,1.1512747249916093,3.3731058745625564,2.238730346837779,0.014613022942377318,0.5019628015387829,1.3705774173180212,-0.7442339018305886,0.3074064381264558,-1.4319652098309645
-0.5623619276857537,-0.3890421176686463,2.967023188859355,2.2049235118382917,2.2544488389805184,0.18229822179520355,1.8242189572979775,0.04466320376667854,-0.6388447787908234,-0.5190612704362563
-0.5753060519903394,-1.3855573004638273,-0.047672721280882624,0.19896842803848336,0.4219952873291901,1.1870351693972172,-0.8644967413010384,2.28819040569857,-0.2710777726210973,0.845274169537054
-0.2565516614040211,-0.32908343631032694,3.220879074629554,2.0044112543441925,2.699179969129048,-0.7949098392398692,1.7024068452803651,0.5337458260117269,0.35336717518066235,-1.0894440376505845
0.8833827054521637,-1.5434808906660311,2.7163119336282815,2.3630168360572017,2.9109779701471683,2.016029484928133,1.2772069491290925,2.5088385771008994,-0.9635672560526478,0.19870332482294817
0.08458891098640539,-1.907680874633286,2.618281975972566,1.4149878007163055,0.9092497639719543,1.874300527931233,0.8922900900158011,3.0110525536308366,-0.8331198595315468,2.0515576528907307
-0.20851075288017132,-2.563541443969816,-0.7431570486396177,-0.2405330566595743,2.9522066092236656,2.151151479213601,-1.0522523900513123,3.0328086195511226,0.26093098841464873,-1.3679771749858416
-0.34176980888440595,0.06682102489782679,3.2755623338265423,1.7613358857596053,2.4315790481715025,-0.6994785225516469,1.8711754445279742,-0.6397287597320162,0.6662615995244021,-1.227768851302911
0.40765427376450497,-2.0021296774049304,2.0188220743680843,1.3681134766965177,2.27541691329048,-0.275671197436624,0.8924019404354433,3.119804365582258,-0.5947178450259587,2.5203423871642374
0.007057074680713931,-1.7231646289152385,3.4633084859502477,1.8492516240497399,-0.976767699513597,0.6843890952661738,0.7992980541795578,1.5422029350126052,0.20635627105977056,0.4977049862083488
-0.7823378898497829,-2.2919310107383026,0.36203913242143604,0.584996612766828,-0.9810297870452387,2.1445280443298675,0.45895073452277557,2.5601842033014597,1.0924703611030322,1.1348959951241848
-0.5582672326807041,-0.13904671921863412,0.20382190367146813,0.7489829550858071,1.317212785698071,-0.009461425031102384,0.20429619357255027,0.5360303302912066,1.407417302254652,0.311232564314571
-0.2908355860954258,-0.6415849087205738,3.2386243921140068,2.206878949926268,1.652913286048634,1.7286745803951407,0.5264918415915787,0.762265114035388,-1.1199278788095597,0.06253127613404724
0.3658607496205624,-0.21955432155173482,1.8266926082736505,1.105338345755138,0.4619166785127211,0.1496480288764607,0.2918028150503435,0.4876405744157597,-0.6074140842571861,1.4262603196694765
-0.1431027811953007,-1.9891568085250788,0.7741286808462113,0.4110644920603342,2.3944255385819275,0.8221276559025842,-1.096158566451643,2.9170433161487614,-0.8158640079263502,1.4143298835411948
0.29725261911583506,-0.9065615809308545,1.1227045936010325,0.08153785356052695,-0.09784734195454947,0.7043518384168008,0.4060718666945788,2.029600063455494,-0.43496451981014284,3.171675223004042
-0.0011100120571771572,-0.56473693826976,1.2177028489304695,0.4126392514179501,2.5193421969985788,1.2892064966247017,0.5137299490900897,1.1853821977424448,-0.12546471519857655,0.3657517634416697
0.20092052236045246,0.567815578267157,0.17171250127212168,0.09647911517043462,0.6954612198490702,-1.4195550450972183,0.5355744859373472,0.20831807918819267,-0.5836340529442631,0.40660707456565814
0.2969303343421667,0.8436112791396755,0.5389639609574945,0.5881075220736519,0.8117220683218924,-1.0633062757369827,0.20938267783697845,-0.7151399955411641,-0.5736198460249402,-1.4592401077615056
0.15974835924019723,-0.9901088035600498,0.027457062783277753,-0.9015238051917407,0.6756428297147461,1.256917597224749,-1.4337383692559178,1.4030464492891563,-0.34680694689404273,0.5023327021485298
-0.4166569632036918,0.14432244075646766,2.474824472763436,1.7434335086936654,1.1934209134778584,-1.241288762106589,1.147003672199334,0.8747389979199167,0.5225083311292563,-0.08060957548012415
0.991780269882266,-2.453414597507237,3.0765517100018434,2.1436954735625573,2.4986015543275917,1.0737600125140283,1.0338427352976998,3.065389062369367,-0.7097393877010402,1.9698579116669706
1.0646531506686603,-0.86292049237178,2.069552006042031,1.1319867863368382,0.8515309007283256,0.9362005430385785,-0.771802816499346,2.153077886613112,-2.2549307275403607,-0.6591823977049888
-0.40870200414901203,-0.41489232853071273,2.868600718595612,2.6100447511388003,-0.11533943787962053,0.4342160564236721,0.6459191445403918,-0.7324542875546509,1.4122989776747465,-0.38439189683407293
-0.4998752998654184,-0.37439673805454554,-0.7242372829186972,-1.5606412137974695,0.6443672926918596,0.6361288688649869,-0.41748836655537847,1.386298927203324,0.8014551509478188,-0.39896714811174494
-0.28071634035770215,-0.2959024903647309,0.79278093641399,0.37933486845506376,-0.8216311302886539,0.7551406594889125,0.8343610065869642,1.975105874176863,0.4091137897152042,1.3066823374817262
-0.5544072698053496,0.4212346880346751,1.3200272742817925,0.14544251013872825,2.278629179537425,-0.322388147114081,0.7731871308832099,-0.4160208848242366,1.0581658120556028,-1.9244969901192737
0.13060917190517626,-0.6471176316975866,1.0297057228693105,0.7002919806805795,3.451110924836704,-0.7525500877244499,-0.023052009816733686,0.6479254351988841,0.32619321463988493,0.6453625195832631
0.05408902004840117,-2.0471853621216645,0.528844552016994,1.2614424184392106,1.303045854597149,1.7196948896460011,-0.696315766221431,2.213018143386929,-0.6372128567208171,-1.4747151320908505
0.371863597004416,-0.0005523610849023931,1.356794939380224,0.2904380542858367,-0.23890865960582186,0.1238806548502244,0.1784160790514686,0.023042649071174814,0.5524383299155382,0.6203254596192078
0.0017761981374580273,-1.5810626896902054,1.929119117688936,0.8178917723794352,3.102168146812941,0.12770098420739998,0.5428376137721884,2.1635931247231523,-0.2135493378844626,-1.232702084493996
-0.20222810357664878,-1.996975247398958,1.5403210242616727,0.9312655343871025,1.2076588784114635,1.4706973366947556,-1.4889807485944635,3.0614352629117425,-0.4067604570903025,0.25318315383130185
0.15562424866653166,0.10116810924871401,-0.470717307604401,0.4335574597554532,-0.16423753619396408,-0.36272555205484575,-0.1852080567235222,-0.1493184491888394,-0.8648585775078853,-2.172228553939354
0.12361837772035174,-0.8846898793363791,1.2716657979650279,0.7239110762671574,3.3470480037263934,0.24810425223727386,0.845889422109175,1.7206839323607985,-0.23441459345217286,-0.9392646701692118
0.8040698405102796,0.8430633029599237,-0.41942471611831333,-0.3223976506628435,0.6749964075309731,-0.9474319322372485,-0.4603132458184641,0.09990333836264775,-1.6803366880255004,0.7053023742784722
-0.2624749066603604,-0.8583313607755552,3.1330160170969235,1.700861664789781,-0.4768315933014383,-0.18641263866283636,0.7395252480119643,2.174267675744123,-0.3599375631535574,1.019988106356585
0.28805220097524187,-0.7717761223415889,2.0457463664448445,1.1585683564792681,0.11421308865818047,2.019342607755793,1.18198919929327,-0.33963939251799335,-0.024797416935319335,0.42890020834248144
-0.01376604716790645,-0.4406642975937148,-0.01622979299214955,-0.41679062231788194,-0.5673361819316888,-0.45203873004029044,-0.8057241710643088,1.4378636761376953,-1.6297822475661088,1.0278255091814938
-0.39116207771197214,-2.6852701803131893,3.2417195497312914,2.634821023344952,-0.016868714798551232,2.131457958989901,-0.7634938045925105,3.3927300264186906,-0.4508841600737621,2.4144293025964076
0.415431277315917,0.6961941568406971,1.2197884530550227,1.2173347972248698,1.9743047037560952,0.7553673158608022,1.0273198648159911,0.09882812790739237,-0.42920583474399915,-1.5472787325753825
0.27369410433699287,-1.0515058277898814,2.2824665717893633,1.795898509724632,3.12410779757192,2.219278437468017,0.04062788042284482,2.1012105683342206,-0.7800376677618359,-0.22878522931021938
-0.28075582653909,-0.3506924609155668,1.508217325131029,1.406910365152464,2.107595530895144,0.12528731754932196,0.877249847241176,-0.6304469789909923,1.2002527093123332,-1.0046879813720304
-0.1787199970233816,-1.1222972905079711,2.1746037292012694,0.46335003378936,1.8560568268751458,1.5851302193159986,0.8214316766959457,2.4057471463937734,-1.4634654460650123,1.768850172092789
0.12040219340126576,-0.12672906660469288,0.6099602636827233,0.5153084083314478,0.8336834680550851,-0.9692841794197105,0.3247821781483509,0.6340639462656483,-0.26695456264775413,-1.5912933907189282
0.4600985217884563,-0.7003128401791691,-0.7494975284165217,-0.2975864250067095,2.719438890515495,0.16950789829997356,0.33138785225765943,-0.04992781726681106,-0.29262326603281275,-1.7246265415667719
-0.19099652216402,-0.1668939799041546,0.5968686970424533,0.9621352562132329,2.598710270956656,0.5878757553718295,-0.18215814461109378,0.36405304774826086,0.304008626150386,-1.0460682806152715
-0.06568828369931443,-1.0172356816122632,2.830874979158006,2.015272780945164,-0.5336909499355496,-1.221343983029128,-0.16084456886960974,2.247220161994714,-0.6014865962258146,0.5552868943903628
-0.4875983117139415,-1.8881667608526176,2.2327654143038096,2.269576830616226,-0.7912861724621257,3.1855193478291532,0.6671198076292975,1.5391223577829223,0.29857887863766075,1.8670888306427105
-0.6188530592824133,-0.2108416619036295,0.8919757131944686,0.5985740365185204,2.2580739112844848,-0.6073805101171131,0.9549476430135843,1.4000900446415105,-0.5515246097061274,0.37495713060297
0.04952594103060854,-2.460593837071462,1.5236694384844274,0.35061839086617536,2.756394846312075,2.2629952480518587,-0.2216309876981707,2.973074011182313,-0.7744659997325408,0.2652964577025585
0.5780682545576243,-1.118620359733915,-0.3049936768619861,-0.3867779391998396,1.6460831452551377,1.8377949115073402,-1.0136815816091658,1.2231435699633613,-1.0220181013682514,-0.25775788453652976
0.46390135849742437,-0.32843314890675807,1.0918121814225437,0.5946974881432983,0.6669380285984152,1.2790177946819097,0.666378713752019,1.3997592469068856,-0.5786651321386744,0.10012872833806585
0.5495438489267808,-0.15530576445811245,-0.31017294439779153,-0.3302652197535273,2.797758313397023,-0.5679247569778507,0.6552061951810466,-0.965402700522794,0.00841845552308417,-1.8991350634051434
0.09399639243050362,-0.10704077917861748,-0.22358738377230025,1.1065742983144902,2.898608809028329,-0.6750997778933975,-0.9630954868761221,1.1589759687358834,-0.14232815849314168,-0.5779216792904935
0.6634988321147887,-0.4750562436001108,-0.6546009942516318,-0.797264619732196,3.0014438386024294,0.6271402286521346,-0.6304917812452147,0.32369397671377986,-0.3079899968040451,-0.42607706203608897
0.49055940365698936,-1.2146452406017967,-0.6312313795413881,-0.501010997958263,3.16082347979569,1.0551373038053764,-0.6557392520518147,1.3889461800644796,-1.1254908769857026,-1.1005150538548838
-0.10969579163668208,0.29032194325156996,0.8581233827728245,0.17463942778083197,2.6496095022046324,-1.9397795166136365,0.34454574906807545,-0.6150905235971502,-0.7793341778616445,-2.6493245980280067
-0.01809325669933893,-0.9299725038497332,0.033294400611444175,0.5394429309693229,1.5279330409341725,-0.6096365753578443,-0.7259331308673345,1.859140729645783,0.013965498057529148,0.23835565321090868
0.9316625019651747,-1.2069143539302258,0.16397431356278003,-0.16553311238681762,1.9573731326331352,1.7773646647745267,-1.8982514338462173,2.2450886323611585,-1.4509416891957627,0.47234225318742296
0.2860452143873826,-1.5794014594943286,1.2928637060410524,1.8181367204905627,1.8625894569214747,1.054020144478409,0.1601121720705293,1.8492639062364487,-0.2917227328996992,1.211731423271897
0.0798778054913096,-0.01114793562639048,-0.012266066014638977,1.004308438920902,2.9902324858426197,0.9032084578836799,0.006310675517145481,-0.16183146061086862,0.8211174978282654,-1.2681254676436344
-0.5869170495789082,0.32906147621150467,2.622343737155127,1.6253244393227386,1.8420577213597094,0.37005220591405186,0.2549132737771965,0.31821533181452355,0.9155626957684229,-1.573677777520484
-0.5166747797033033,-0.5605665022906107,1.309205306518951,0.4804774778395793,-0.4655458344563007,0.23977596902761023,0.16056526168980728,0.7183866195006716,0.477569088718213,0.8829978587455343
-0.8010728621329382,0.29366828584460414,0.5032727158429571,0.31205527421600965,2.4141687288565716,-1.5402793992905246,1.265285783978011,-0.0653526180041688,1.1247220083008576,-1.0634144150209135
-0.35463305868608747,-1.3842325014837495,-0.9900969166118211,-1.621768183865053,1.2092605214153038,1.2623607062302886,-2.6639428796161058,3.353829553176432,-0.41310704800664366,2.0458998715411036
0.2824015517345213,-1.2908383883416938,2.021284341228535,1.7113599352173505,0.1367901334457915,1.0331834100110626,0.10884251558245928,1.9635511186248,0.22040589285281526,1.0790661090823248
0.7931547529925739,-1.1368334115636778,2.3672544638467095,0.38755781168616876,1.1261804307126408,2.0592570707205753,-0.42453621496696037,2.542099352181571,-1.279053189681801,1.1418787436996798
-0.413580763496957,-0.107225649696013,-0.8777062337085276,0.09972341518939785,2.774924357605331,-0.8953357953100705,-1.3552348038769322,1.4463066083624132,0.10327218395812895,1.2164339539386093
-0.18002968555351717,-0.5147833300534385,-0.18000101439204708,0.5872587116857693,2.4042180930442294,1.932336630770919,0.4771889323002862,0.2827533916992506,0.06954835573410101,0.09365894049588552
0.7949994908655584,-1.2241669403372686,1.469083915587147,0.8558748738561771,1.0874482043070377,1.5145260672917815,-0.33607687234432226,3.259638813637924,-1.688530927843846,2.604244162706111
-0.3933634033366985,-0.15406479500956116,3.4198245952758723,1.5866269069782872,1.4020220313403504,-0.16069218291887247,0.8391032358802613,0.6934131892947188,0.2439142906992447,-0.25283512534210884
0.33942565278173276,-1.179621413686567,0.2722519253678508,0.26819508030769806,2.212609233954754,1.548699667222202,-2.004737678213944,2.618815781679894,-1.3844547903010724,0.3905080947647619
-0.15158815360602199,-0.39716590976328026,2.1518519803425473,0.7679466971774055,2.306085944601744,-0.9266617539065256,1.936597142465716,1.0625082144594988,0.3838103853987694,-0.6706099601954126
-0.3120363997623947,-0.6579415902204432,2.9396227016522016,2.1978885569869195,3.4259869938013825,2.080461524255569,1.178594565622054,1.6313667703375763,0.16441234318742864,-1.3885851216458216
0.26494576354523,-1.4502858137258234,1.9956905290159983,1.4937805402750672,0.06207214176801723,2.0814750116170555,0.4944707239625976,2.7145963384665994,-0.10624668405874702,3.219643431884587
0.2899751105731487,-1.7559321608198768,-0.5335670462067768,-0.1414346204821227,0.24722027052301,2.3822545742580776,-0.9678934823978248,2.8917918334769097,-0.9712205645869539,2.0434693091839504
1.101837816785056,-1.469931799324322,0.4514480643264771,0.05675767730476218,2.454236040009686,1.6961516829798855,-0.8247669165649444,2.652042568956933,-0.812478770632451,-0.3617602299975944
0.11306131808756337,-0.6162384884333917,1.9317087966857311,0.5076190393424802,1.6628631080480574,1.39479282892776,0.16073607796617462,1.8633839590699042,0.5789866775322838,1.397637332002223
0.07462448266100863,-1.397019074590341,3.27901505181988,1.774857453297508,0.02650808948663541,0.8144869171063577,1.1386848109466239,2.74554775210892,-1.2378034721297129,1.4406318393525457
-0.4512480983904918,0.5109934436433814,3.072462104030831,3.426665898278519,0.8751552985891813,0.32254504049112526,1.8112778594909726,0.3789525175131263,0.9416229844167295,-0.6005783361259298
0.6048858842767165,-0.6854411014456016,2.0632574243493864,1.9873820164648988,-0.36860497644964973,0.8980597442863725,0.40388017193529435,1.4547420206116368,-0.8565056529469972,0.35823221209488915
-0.6998312744875648,-1.1745292789861288,2.9988770092361365,2.233545899155243,0.6633948616064202,2.2635597000466148,0.5372636417230627,1.9527076298870698,1.2881295851310464,-0.36098725465391235
-0.29311403383115553,-1.24327289502256,1.0834517100714587,1.6511834080923056,-0.5520963828349721,-0.38216541440424767,-1.7805682245379004,1.9703241264054099,-0.5154087293373735,1.602706902665984
-0.20176270899628446,-0.5010889014073372,3.2226975053122215,2.2914849259008605,1.262782802740595,-0.5812766629596444,1.3386538036387696,1.3999678803775932,0.3227760526548489,-0.3471368084718087
-0.32295952528323446,-1.6903671581019695,3.435571466708268,2.1548697473381306,-0.4923719556351802,1.7359396599368897,0.07289258446858282,2.2789059927056825,-0.7558826201169807,2.047567667655007
-0.44921052760674446,0.303539929006609,2.8880531300435752,0.6641802031336004,1.750653364850037,-0.6108102168496085,1.952090877522315,-0.49672806690254334,0.8563884857622819,-1.7146266358605853
-0.43303679646860066,-0.4472219532148421,0.7239941363717672,0.02461709349278507,3.0246931395209407,-1.0334863027744345,0.9622812213878161,-0.0505400632455727,0.6340627234114309,-0.3748519916440295
0.7982924540596197,-1.4746753368870187,0.009196101806039358,0.7126033924906525,2.9009701609863687,0.4447677994425095,-2.360564022660888,3.4246999207705526,-1.9137994431760847,0.5494215594122513
-0.23732609363406917,0.5942759665869846,1.7793196013372805,2.0341869296605144,1.026993133255191,-1.484232900910612,0.9529284622422897,-0.1577592243925532,0.3537652184577951,1.0369637862576528
-0.17613930108248446,-1.7547603547721446,1.093257423409507,1.2411315661760793,0.5315340280587271,2.441128735148977,-0.7564202941433821,3.3836101413679023,-0.2889103400617813,1.8682110779710475
0.1548513187893412,-0.921161424206491,-0.5518786826486777,-0.6107123090501697,-0.13303497496017458,1.5783997116965718,-1.3126511974543194,2.0883938335948944,-0.3764776363423196,1.6457788684531718
1.2210995092676367,-1.2882444291156563,3.267276453107997,2.0542020289138994,-0.45911787616074284,2.1602681678148965,0.010291846797022552,1.9820211250515425,-1.9668664929387871,1.7333004267306862
0.05078431579336146,-0.6813220658349013,3.278972756408548,2.625003284958858,2.8758423741768073,2.2615613189444734,1.2580047579919602,2.3372258607014977,0.20473242387377466,0.34692893413136594
-0.5034813373489182,-1.1546469608422016,1.0977861665163404,0.6739402905510785,-0.1739322863385495,0.8122863524895875,-1.5466872552711415,2.396161055300883,-0.3576631568124702,1.8069017170542174
0.7858136831961671,-1.2664514299377005,2.6408692182298594,2.238125182963465,2.6389191445272946,-0.44738217983833545,0.5318737590820131,2.6242638146768855,-1.2683495277636108,1.1059978071032242
1.357806867470491,-0.4518059417505512,-0.9981515394220568,-0.7411947226198935,3.2003166733288317,-0.4561958955108649,-1.973351687027007,2.6437145402919353,-2.323342930284484,1.5154012095644616
0.26706349000212126,0.4683063017774925,3.4373823252917513,2.1625535675634397,0.7861919721055448,-0.2641874195811089,1.049161705343307,0.2562346257814003,0.3666646374148538,0.6080109095893382
0.5783690755501752,-1.3573799899335217,3.3681259866890176,2.9517686069680917,-0.5151629334531749,0.35587732222396107,0.6360628896501896,2.693512594052431,-0.4751233318801524,3.0050789488250973
0.7256192643129356,-1.884495194319489,-0.6683108978935632,-0.2892153161928119,0.5888487430100131,0.935239930887152,-1.4895661482007805,2.995718823576455,-0.390732096203494,1.1686997851968481
-0.5638207773194166,0.9261171342021944,-0.5055653696790812,0.35110397714194524,-0.8480549206030006,-0.6883593925638255,-0.9555424102071196,-0.9783860075962916,0.00044032070734339773,-0.08943797476252857
0.5445946112129849,-0.2486632301239354,0.6314310438932995,-0.48123706052962517,3.074857781889837,-1.4822331836778673,1.0145268786502686,-0.5028960461433264,0.7153947498083646,-2.037611892925243
0.23731191999175244,-1.4435638128540837,0.9565057713679026,0.43389645561778534,2.179459196548816,2.0358158291625683,0.4028793609670396,2.9795042535245764,-0.611295352900107,2.2585412452461
-0.007400511463686318,0.6477937136491363,-0.8787715264781334,-1.637616703875998,1.1333422517758054,-2.0931138212066824,-1.2446607656746753,-0.9250074598338016,0.27739952135185186,0.1731773980266071
0.2879326605476533,-0.3176020410396336,1.6723985166816475,1.667873576701545,1.0640693759475557,-0.7383070791057202,-0.07659235674626341,0.11357062529030415,-0.7117697512920309,-1.1276654227058711
0.032544876783589374,-1.3639252439388325,2.103354600688763,1.0080479799942477,-0.2098167037776829,0.6526520775568685,1.087725161568965,1.2299716137552799,-0.5476244024323681,1.563918135040534
0.2962040236540517,-1.978134948321209,1.469693092007517,1.1593250746124169,-0.49459140026498916,1.0879250035011148,-0.2162625893788701,2.8740219963142,-0.7893955235061563,3.3473048342928178
-0.45382094894933933,-0.9056937125792771,-0.21843327515521416,-1.2768718433834065,2.8529612225420373,1.601162668185184,0.3487348714463283,1.4840461884995482,0.1919541235772519,-0.15735516838180352
0.5514771012302571,-1.6015292093520217,0.9757653179798951,1.0096471473940378,0.5976456116697699,1.171427192792293,-0.04604618362977875,2.4208653875405015,-0.7874060174410679,0.9764805616700145
-0.22613050196351778,0.22114957603977786,2.5422603268179533,2.252905159436289,2.5663428855263994,-0.6876466232556564,1.3803855868813772,1.0202441164084282,0.04257749490826023,-1.8165044464149391
0.25829341285968077,-0.5940206412613412,0.7959249734139269,0.12448962655140947,0.2849872075689701,2.5207529250570255,-0.90260877739851,1.4007640686229923,-1.5247305522589336,1.5883923650885836
0.6701148931728964,-0.5306925518923582,2.9240059153618896,2.352977483930816,0.5166831641245793,0.4825745710662294,0.601204443703963,2.0618054250898434,0.6797592990075402,0.6414454746814818
0.398216217168824,-0.10028843767188923,0.5335486575670503,1.205650330782977,2.337352891883056,0.5648847462315127,0.2283760300859301,-0.7640908557333446,-0.9788386807717724,-2.2790045666056975
0.48078460816144647,-0.04339942178714066,-0.5690387487507047,0.8714022044594162,1.5008526125155064,0.39536359186645254,-0.43151152971121987,0.1044613300060857,0.0857668762992145,-0.8881714779089864
0.09270998697009881,-0.687250148919435,0.7913231123526299,1.744411076266677,-0.15193275493439107,0.985889542248622,0.09659697539126327,0.09764901430836548,-1.3489322165280315,-0.37411123357798454
-0.3540357084751472,0.1794167099942223,1.561019827833317,1.854748906929263,0.9941571193171612,-1.242055120494422,1.508177172436457,-0.8138948202056531,-0.2061394547356464,-1.5916728518493883
0.02855911042713421,-0.7085358340451071,1.063273715054049,1.0277363954364955,2.1454803504249758,0.2732543840250355,-0.14452817250904448,0.12915605372432504,-0.21201482428096394,-1.5115264296696234
-0.16942038422563338,0.4190165973115724,-0.9567256327496421,-0.7226156873838927,0.7841016133772107,-0.9918936402516678,0.3459933086995344,-0.5764953084844091,-0.4061017632243952,-0.09232539081961436
0.5727255877825086,-1.09519186688807,2.1442751427052626,1.5651578910688269,1.7931100331320504,1.9990746360675842,0.5116378184207782,1.7711618935337783,-1.609398304053323,-0.26310613359727064
-0.05382620628462943,-0.07154140846163963,1.4833160397774852,0.6037007062108333,0.12705163227384908,0.5271250984679283,0.49597361266149786,1.0701920824318614,-1.364930438735187,0.605761762711917
-0.45099911566036494,-0.6884085572555921,0.7354361478738434,0.2871513778129454,2.408522910272884,1.0992548708743834,0.8805138686272174,-0.7500691361793915,0.05885828582333234,-0.2244983054982408
-0.5868623645098856,0.6429418452861853,2.135305403186016,2.5147613933026314,1.2738988915819056,-0.3350737053360516,2.2715742234404996,-0.9439680435817708,0.7723618418522936,-0.4284234564554174
0.02282286275727414,-0.98086240163481,0.03867105090880352,-0.2608043018474098,1.1901992946693762,3.090775039976489,0.6017897570246074,0.7828045984388214,-0.7216652333706111,0.02442801007978966
-0.12870043814605994,-1.5147719561743336,0.39578772695387743,0.24317732259990585,3.4206231109392053,0.8769188828482896,0.29497348611966623,1.9805685898342085,-0.20350985417615344,0.2857405664264726
-0.24803226930798494,-0.798606743132389,0.9721662880450761,0.4397206094697381,1.7515615654335042,0.11201431880464599,-0.4750092543820489,2.696967972443161,-0.8070486590562157,1.316369718288126
0.3092872937519585,-0.8693486968868226,2.761773091715144,1.4063562954314408,2.153914453560962,-0.6631859705768903,0.6098601784885869,1.7768684850468048,-1.10158044413232,0.9983820083138304
-0.08791311688574649,-0.07120795302263278,2.618816851156579,1.2462870225909661,1.9091730447106166,-0.23386436318616718,1.2705258092153227,0.8450123444568298,0.40077165104589024,0.7358392849229196
0.4818595968966134,-0.744773849821828,1.7245970594399171,0.6580838186454333,2.458702420875522,0.8206529119691033,-0.04512534816875205,1.7181479699041238,0.18508391190372397,-0.3452613868261991
0.7251592115119596,0.15241804871913053,-0.6361417567340268,-0.4380188171365392,1.627569902750317,0.5734112573072585,-0.15624037710289457,-0.6903635649346704,-1.6661641290541869,-2.189403524451683
-0.4378725838920344,-0.8279885272075921,1.8699481230783714,1.3941438615333301,2.6110967875367335,0.931623580012495,-0.04684507920081882,1.277697940554214,-0.316524959078922,-1.4490784912830654
0.21529089430644013,-0.20637415865192363,2.60775195796321,0.7755833770770524,2.6936604678619225,1.0019207546589353,0.11343523175680786,1.371911198477505,-0.8867355075123544,-0.719319681571621
0.6096791698446296,-0.2623254080836904,0.29117526226785806,0.9903275718314545,0.4150108540004873,-0.13088357736929057,0.9106062262426511,1.6723103608878929,-0.5977987685017281,2.6712204790294627
0.39441115053727793,-0.29530113430634125,0.542685681172941,0.6527553004599147,0.345015600806426,0.8894892077595877,-0.1763063431926175,0.3324898634685165,-0.17949346177059503,0.009069825426670897
0.8937876072662602,-1.4573244194314905,2.5262323459252363,3.008148070413057,-0.2170686306483396,0.9594979384954755,0.39808971226667605,1.4743838424681108,-0.29705169153032207,0.9116218346991734
-0.1459027896124114,-0.22846814140138946,1.7413657338101585,1.1377559078573904,-0.18182025136283997,0.5937836154826555,0.05420792054920165,0.3218284654264787,-0.8257680830949778,0.9707608019794081
0.42100512099493154,-1.6407316299069477,3.225511986080291,2.8689964737040157,-0.7540706752097033,2.048441273610562,0.7487092398580419,2.058387333115445,-1.819853735047885,1.8333534529660764
0.26178606474714583,-1.3015549097338825,1.4373665997673992,1.826157969975547,-0.677783749500958,1.7558912549831642,-0.9718153766281314,3.4549495516546207,-1.91541561767151,2.4574993315733464
0.3583396560135141,-0.03343629212962358,0.8431355548914714,1.089242976541789,1.7542009962665528,-0.20165880493330018,-0.07554561273949445,1.66666305337667,-1.709740185570694,-0.37092029146342786
0.30142922691570173,-2.380596774771717,-0.15479834712434104,-0.7605332924307084,1.50394268460346,2.182756773923776,-1.6360097580103308,3.3292323518836513,-1.4869480660279373,2.120824846542442
0.8162187669087078,-1.5986705221845634,2.2357594070083624,1.6384956759974771,0.5785562238385205,0.9270945015486348,0.7039841441185264,1.8660411915759796,-1.7843040272812882,-0.10137695435447122
-0.5510161553694808,-0.7039838834517008,0.7630510951847047,-0.10969288048723118,1.0422746636239433,0.5223943986144648,1.360446332694577,0.035897461521801066,0.6058413715156121,-0.9296602518768536
0.47651928493432755,-1.4853508530819148,1.2083148272951725,0.6074971437958507,0.07600795810584682,0.7301588410222853,-2.1730384529340268,3.442544504401666,-1.3800889364774505,4.344451814312621
0.9205736685957316,-1.0271106553886977,-0.23494218387066335,0.03832634105730772,0.8775953371365395,2.4694774203526166,0.03726497763870518,1.1013240282900671,-1.6232641147708593,0.5242510993835325
0.5475160418784838,-1.7551510017626812,-0.15798099085282014,-0.3219236290866216,0.3961783146333411,-0.043287155247427336,-1.6270222493099653,3.162760538806798,-0.784866722392942,1.7849877581091165
-0.010068387527589538,-2.445364836924921,0.5610118024649873,-0.0046205214981710156,-0.5639307336891913,2.9102317411570593,-0.43930841013579475,2.990276612043534,-1.7460606886771337,3.2171070307635325
-0.1555252741939567,1.3823281459235124,0.8028726177200514,1.0449384860462638,-0.6673926119140501,-2.2632747725304143,1.8603123083677189,-0.52719093412618,0.2765447600416675,0.4393788851433514
-0.21693842621578183,-0.13853269941977295,1.8320471467449133,1.2365012484837472,-0.9739802752454849,-0.24092589280449517,0.9063988419802919,0.15206129595954176,0.15302533002697144,0.07300064912143296
-0.14208019453152532,1.554388674780801,-0.14307260177901482,0.667986868481748,2.5394112568730813,-1.162403514117541,0.3775154456330835,-0.6995500175782434,-0.09002166430895348,-1.7036225093960085
-0.038055118254717836,0.5343213881435348,2.0513785095697465,1.7300782075207406,2.7194445281849746,-0.7150119835012402,0.9489259333943947,0.7515282071418372,0.034433035827774405,0.21329141928848017
0.15944092545462438,-1.575681022066067,0.8073402880214013,1.0510511902167943,2.2765921069570596,0.24480263233226784,-0.2776543630624063,3.119032406408068,-1.300304905600016,1.0370709425419966
0.839172042224816,0.25421768561873814,-0.48619268455841824,-0.35533631551966555,-0.5050961280820213,0.04325345073288634,-0.1801106615078638,0.3784277337445847,-1.6504162525532209,1.4151241836764177
-0.47062696483308236,0.6632746302707884,0.5637968127172535,1.5365264286280642,0.4307057306848514,-0.8999176498439664,-0.23674467241250574,-0.17502057039465757,0.3599329719058641,0.36338466943012493
-0.17119328107655304,-0.8408197117983494,3.3106666387105665,1.893630408417089,1.5847017879360576,0.4901915351772176,0.4321080217017006,2.5728292392042285,0.008716336767276078,1.3372661054888098
0.38032009499857994,-1.143070819238904,1.9212897605452408,1.5750827344082716,2.3050936364882966,1.0759707178203295,0.6713033485370353,2.2043529741875165,-1.6458920954427,1.0917774884011582
-0.17184235345819038,-0.32894633201841167,-0.7747133579510421,-0.30075673562918914,1.7218215778289006,-0.21645989311707417,-1.307185547145241,0.462775994715501,0.11596043439606565,-0.16000259738164485
-0.026272248647865627,-0.7433466641073001,2.291842546771753,2.1369419787884096,0.7803219945678308,0.8732813745273652,0.6978830945934297,1.0983039552907505,0.09026946983939114,0.058490382126617835
0.5927323387408086,-0.6394847512433766,-0.743544716219791,-2.261218319596423,1.2481673681798995,2.079261871911508,-0.3849714416219401,2.2745918434085617,-1.0509153510500255,0.8207355109061578
0.20053205235747515,-1.0750579655258963,0.3617560038687051,0.6851851019857981,0.2902991382997899,1.147902302253901,-0.2209778763250088,1.070104468395896,0.10287678622660756,-0.43804680071717056
-0.38024667428495285,-0.6833505638587513,2.7045672418421423,1.64013706224383,0.5390994164632157,-0.34312792784246315,1.8222513130233196,1.552552900545284,-0.140842646873856,1.5013492308001228
0.6439543485247428,-0.5957154541670703,2.230958345866537,1.353884570373412,2.205114054859008,0.4992801503135892,0.46764217090110793,1.2682026295954683,-0.3165632965522964,-0.3186271337752229
1.2331350871248528,-2.0153317693441375,-0.2904363429215441,-0.010218963473703905,2.904944727956106,2.886268997482839,-1.113799815591197,3.223749817562739,-2.1956825039118217,-0.4841855475251535
-0.36512897255156096,-0.04116059885541835,1.9439810829977877,1.228974859470259,0.16662233094881929,0.8914430300580324,0.5088261795111224,-0.17468007258021667,-0.16421599894822378,0.8112867919609917
0.309618466789809,0.1400805993986744,2.1219833917774418,2.210665365920828,1.529150868738654,-0.557769032855745,0.9029457270040411,-0.7648358855610078,-0.6851371841373636,-1.7701999462573497
0.7191515863176204,-1.1495316739663335,1.7139841308295591,1.5865318354659201,3.167029501927508,1.346373368911784,0.599910124286664,2.4992511668938255,-1.1616608582761505,0.6393315830975186
0.6598444360109053,0.524060769681467,2.113937013107918,0.6720273089334324,1.0009997194457414,-1.2081394761463748,0.9681895005515877,0.4243743546384118,-1.0422465879784077,0.41829907401360134
-0.4215118349019514,-0.12142071712499539,2.1302456539497863,1.2379645390404066,2.790517697463945,0.6662441797490031,0.9809831135182661,0.867508326167775,0.8939735299808644,-1.6082615745617486
-0.2061906076641538,0.887742449040267,-0.17776383838650878,0.1494822382082513,2.691331173897529,-1.3360069411949993,-1.1203981661819464,-0.3880596083253024,0.7707737166197983,-1.869955594024303
0.06357579288279204,-1.8707440589202922,3.0348800981254103,1.627087288256209,2.9092337570567484,0.30017116699353946,0.030558663093447347,2.600131079690209,0.09535795083600755,0.38464045837619887
-0.22105480494629767,-2.1245819690178944,0.5376540772133851,-0.6654033384775461,-0.13431675751917216,2.2314348950468355,-1.3008336178532551,2.9748592287514244,0.5794989354000232,2.0429252540230767
-0.6172129229023138,-0.36838185960420095,2.154780556930869,2.8754295579867057,3.2630078318362594,1.7642926129559884,0.8105718607512046,1.4792515498729184,0.9430092734621263,1.118785108402897
-0.5127246651753075,-1.1514191406253438,0.5611467232354308,0.7671955157898959,-0.8141944115720298,0.05318474607591498,-1.1396772052226454,0.909959547781626,0.9464092872566146,0.4736870408470614
-0.3567642379190186,-2.2346676531876795,-0.6184162835444464,-0.3012733572837484,1.125763348788682,1.2145494067581664,-0.2178220598668518,1.9374788442617734,0.591183922733159,0.8789054999963788
0.16944943387128486,0.7830651110492779,2.3379367341792907,2.3314954633352034,-0.7288490943799981,-0.47010773022832103,2.1075112688559186,-0.855100119027536,0.15444602282900136,-1.004626731213071
-0.005108682199659349,0.4191109313454169,-0.59797267450172,0.8996728382246838,2.5000576490868647,0.3584173517299145,0.5267228313573811,-0.017611026727271883,0.0194464609566904,-0.4778709588453346
0.501297888587416,-0.48312078923143675,0.41020760712342175,0.18856394660161666,0.18430886841917316,1.1071750485723753,-0.6173256658706973,2.4794041826909687,-0.6955157948556615,1.6288462282024654
-0.14162407613987454,0.2799125088156922,0.1663361696455372,-0.431237267110488,-0.27175432332567684,1.0096840373135,-0.5697084622277929,0.5883083066011034,-0.6717242161606114,-0.21450317202411287
-0.01085880627436175,-1.558801340308423,-0.8631421495367909,-1.5846424978238278,2.5294066987264223,0.7496968107179216,-1.40143172199465,1.9873437510423715,0.09160552643923188,-0.08236226167214311
0.3686806389700615,0.05023767939667847,-0.3124845547222228,-0.5739741810210685,-0.7715571925216976,1.3028997107596372,-0.41929843658734256,1.2691613574479308,-0.9617312172432633,1.32516715253007
0.5854909617846131,-1.6785299352764402,2.8424964221445412,1.6079948219831282,0.07987824821850986,2.146578294999117,-0.15859960441039966,3.2248478749832037,-2.172341426983019,2.6596776005810288
-0.08293248723682206,1.1010421054596489,2.099415041640068,1.0387105935431125,1.4828185558421043,0.28222999410500343,0.8215158510417284,0.07151189808661185,-0.3271511661617511,-0.3946035539891789
-0.1349209326271401,-1.0735672450478346,0.7777642756551026,0.6504675169133869,2.0780981418046536,-0.9886477806146668,0.5089266818102588,1.9633232106781566,-0.4798897443360936,-0.00475915380334202
0.6080253597199091,-1.5570735341358708,2.622705296786494,1.9776554197845773,3.3730974693754696,1.786849740675908,-0.27560004714194064,2.451235857896324,-1.5915872171998469,0.5264538604602451
0.3448432710286854,-0.488200393916763,0.26419634752649235,0.18581750049374623,-0.6134456227831351,0.48127530788586337,-0.2695340678228678,0.29389709541514475,-0.7092874965953987,0.08549073235470547
-0.23934539020184611,-0.11668805963427066,1.5818659599999352,0.9948830535246155,2.375228367694388,0.32189529737445727,0.6299393472711878,-0.004983486828204153,0.5223338737963067,-0.1933423322345491
0.03214379157234447,-0.13392097515743798,1.6619877061873027,0.33584631429057177,-0.3877910749136668,0.11220867574910655,0.44699852643591503,1.7406800043349735,-0.4638050565628755,1.4777588275214608
0.3606999426322466,-0.8547829456020605,1.3472462309047892,1.103967464845885,-0.9683984488319428,-0.34753828308905743,1.554240778671787,-0.2134631768115891,-0.01321180919923852,-0.0009055283311962536
1.176859335643722,-1.4833610596006555,-0.003764406707160717,1.639745392575121,2.7052536428740814,2.6700310504785123,-1.723882981778043,2.5398316653822404,-1.499266363901942,-0.13079453966812227
-0.5043665447200135,0.1634647283701219,2.060161016321907,2.5108030074226453,2.9607186353254975,0.20683246875431635,0.803501339936261,0.04980372921346743,0.7200448410379734,-2.773911638790446
-0.3797638362510714,-1.5120482270526023,1.9703220450035346,0.3584318094195832,2.210763034217953,1.474778535805527,-0.029693255128706353,3.1366518774892134,0.036014030746783256,1.7150663956973848
-0.16121810656695984,0.1997996340981341,2.057553216776918,2.3178027067850056,2.7311066547806693,-0.0757670754712483,1.6789041376003864,1.1322022091940376,0.5353377187664895,-0.594704773522752
0.3179752436905244,-0.47506069645636595,1.6876376764757168,1.2687702545184862,3.075090891749219,-0.08932153943186667,-0.17687271257736392,2.687855785520667,0.721131146885939,-0.615533723729375
0.26191726905076856,0.7574633360876467,2.0777177968655822,1.4647892283831179,1.7061101153707483,0.07774748952734903,1.1338070638096631,-0.5900142537453426,-2.143950809615311,0.06863745332977345
0.2494255425703849,0.7753983360689803,0.16558708402061018,-0.712774453326123,1.5324209001825664,-0.5903376368205424,-0.1912461441184008,0.22577464975870964,-0.2898678455010138,0.5896111178358961
0.14328746852063942,-0.20529987445860215,-0.7055068741278502,-1.2189760638554976,-0.8957737464201846,0.40366404274332013,-0.6530591444632905,1.3466999653390967,-0.07479560963528166,-0.1667379116260777
-0.3198108143860135,0.4858353612216067,1.2029743747613235,1.0299664435724365,-0.4137063133592601,0.6145162231540382,1.4766515574147492,-0.09697271691258769,0.7358927447974134,-0.9475267925695561
0.22085390088624082,-1.5042469419056643,2.0840972121691124,1.271087083823268,2.8907044872149106,2.532130188744091,-0.06069281543279015,2.7268118005768764,-1.3277573899844777,1.2227228165709532
0.5382054143190895,-1.7793417998251437,-0.8103356241495252,-0.9769256068364515,1.1375279738112027,1.4526782866495294,-0.3132837788498837,2.2874125485770027,-0.21356104719739272,0.15389793364372822
-0.2159692653517392,-1.0029756782460149,1.547154802662031,0.7509892232555707,0.7359267677232022,0.5075568670536132,0.38312861193072545,1.0429873074758933,-0.024379807249888696,-0.5451341121563053
-0.6981023434112896,-0.012866314815064723,0.39242258978192246,1.8519170949310197,1.363843223632765,-0.3090407512947689,0.9930082143918821,-0.03725346984110278,0.8218990400274574,-0.08779008607918992
-0.4999338217726749,-0.40935350859426967,2.9540359593259415,2.3134011227139433,0.22510065867042628,1.5753279120562038,2.1772736055465893,0.5101422297992289,1.2177125079465483,-0.5616325742098298
-0.3083638947967375,-0.4210011635904251,2.5765703594587452,1.1847446674482862,-0.15355004621116386,-0.7830917005234344,-0.631558667929687,2.3419761329961997,-0.47335867295225825,1.417344951611469
0.7914010178449044,-1.537625394697362,-0.05378915757080105,-0.6171700463746598,-0.310226194160405,-0.17801973762299447,0.28318820396089867,1.4118632835403702,-0.05663429882223646,1.1429609092358928
0.5052116984234415,0.6080309850283124,-0.9824902694799192,-0.23664911087429572,0.6554917172548946,-0.46797071105167487,-0.08100763316445506,0.5615027370838921,-0.3792690777573068,0.8327556174401312
0.09727097677557314,-1.184852691041832,0.5558212116335761,0.007835733082956587,0.1765747635537982,2.3315888306124264,0.1125091595388853,0.7267232399716659,-0.6291676069291275,0.6620788722276557
-0.5159069490309705,-0.7653076384273778,-0.2528410153056637,-0.25312505579610345,-0.5555112740319135,-0.5314082426334288,-0.7339720740312468,2.6598489351386494,0.29374828836241756,2.070281201037524
0.702303753348426,0.8689927716277764,0.6048475932451745,0.2533571141142598,2.9580401672393033,0.6677934556031432,1.3528826410164065,-0.22551063327346932,-1.038079741141754,-1.4604777099858182
-0.13188468320571306,-0.9891700393169292,1.8747398378880233,0.9816065337415523,2.0222198904656103,0.06187933193828215,-0.6713514416944918,0.9301503308628041,-0.9565992443421786,-0.8785880858716848
0.10207072185456094,-1.5266382810992474,2.33944350607564,0.28586507178122955,2.9142909203345932,2.4379240358303518,-0.14615844238197584,2.5324478846800145,0.5640663056829162,-0.5542589953962316
0.17715886887380133,-0.8062514894432982,2.037071633864979,1.6560187611957637,1.9791913957338494,0.2016518706052358,0.6788511469139262,1.1006342047147428,0.678879944008143,-0.2501379050232343
-0.44561538348280605,-0.4530241462341991,3.2813831753152147,2.402746947314625,1.8071984621924377,2.2853851358104493,0.5322519816019838,1.2158036452273784,0.6446259092429133,0.13965889664761777
0.5443744462104777,-0.4619133118860267,1.4992498842170687,0.19090641718401144,1.0023784860638663,-0.36544979699499475,0.4218792877448939,0.695976284854859,-0.7595398087970371,0.6069123277718209
-0.4432753975562188,-0.3251655048707872,2.597234076129397,1.8006944873992197,0.3107218852607616,1.0339762702093962,1.2217660885998367,0.9940911594571407,0.13069237940190703,0.04911969512324371
0.04688882034011265,-0.893764860975524,2.2825189812583413,1.6041780931149552,1.5469093272379002,1.7929844746567463,0.983741952679986,1.5829610659580249,0.08710607750660362,-1.0000637319442218
-0.689960872266257,-1.4377632003693792,-0.17679447394376735,0.34879991864859095,3.0981091117115485,-0.6586696789842802,-2.031261034845339,2.1976900417458425,-0.7041519427271895,0.22442811231944515
0.21211169778285419,-0.7640065838195437,0.09465344105467599,0.49005154089120445,1.8459207855904713,1.9386185143744021,-0.53620096118316,2.0105761551809755,-0.8672520445764427,0.3926420350560048
0.361689291960252,-0.5711314047819575,-0.029858936491580224,0.9799235982737663,-0.5272315283433243,-1.2527427577493118,-0.28414152316527613,0.9571160416576392,-0.021631093624302294,2.799724853166425
-0.06045242691108168,-1.1553821997513467,1.6363073964691992,1.3843252038866112,1.7292750502303793,0.9058360509955774,-0.1429707609979033,2.9835767085664515,-0.552470664990971,1.8973496538535572
0.07353772862199015,0.9936631009440999,0.6172913696232607,0.9429185437809534,1.0527452403091275,-1.32958234307772,0.49923633840286386,-0.8757990903466782,0.0709905789531636,-1.868398093888941
0.4711162435357815,-1.5529443426392335,2.3720063151834676,1.4775105502103225,2.470485808264378,0.8746659696623339,-0.5421322411107863,3.005193751367603,-1.471455576530783,0.7369756117544888
0.5093275781138176,-1.5080065424784634,2.0619882844681907,1.341473809745201,3.2183513851583214,0.506425151867564,-0.026433255134430178,2.349715246356752,-1.4535123644112664,-0.08660877994116012
0.035878389379875836,0.9824618747144395,1.8823422471935851,1.2634520085827883,-0.7788055470686165,-0.07278172377647124,1.0853900518518547,-0.4457484605389823,0.3314922392811492,-0.047095336006898136
-0.019881987578711735,1.159943703938852,0.6994147055858129,-0.00914489810641151,3.0876329700343907,-1.5035157149007399,0.40175429998750195,-0.7755791479143643,0.6631524616477632,-1.2324239657760572
-0.5721324734119204,-0.596021568141531,2.6091848330050165,2.305863497813731,-0.4633145576073424,1.5188527956687965,2.193177016023139,1.8173642148233053,2.412946088935469,1.2998106274120038
0.855556045984556,-0.5075243100708793,3.1046145559125815,3.3756804600206998,1.7842639038579855,-0.2301782568773568,0.6778310747195291,1.7303285830907607,-0.21541336150161794,-0.6991191594830681
-0.8057559220118217,0.7464356176206431,-0.7797719410789038,-0.761875189100807,1.426042443995629,-0.3853850567158609,-0.30229878329329657,0.7428069745400077,-0.05602514523495409,0.8673560413408516
0.7545214646146985,-1.4454558950902057,3.3016548770624787,2.021882157137065,2.489388590177585,0.368879364528876,1.7432095242788368,3.0032109347176714,-1.5347524990039692,0.8950715070302928
-0.7815949516807287,-1.394781056057652,1.2313192688542167,1.1616413380317945,-0.3750241323751581,1.4027002980895003,-0.20912912469468234,2.0790397339132936,-0.09661981920248951,2.3149117348069583
0.15291907667935786,-0.3341391562219515,2.6451730157063396,2.069431616129442,1.5337495567685342,1.5893809535162362,1.0925228260595738,0.8039650453894411,0.14815087397414745,0.9866425506520486
0.4695328756356169,-0.047437233479145996,1.0620521915734638,0.8463680953431805,0.19323246306384,-0.6420759811914324,-0.9396871148097051,0.6974712254346733,-1.4650061749552115,0.7709959723956166
0.8066175029056349,-1.3752901159081823,-0.14206078086445495,0.07491877441987786,0.029437295886277637,0.47307214468527276,-0.9809136186812767,2.38774019611442,-0.8092769624014532,1.9837882319415512
0.12171111849766446,-1.5236752383168193,1.007252111042812,1.2206155010442497,-0.7963668054339545,1.3195925738426635,0.004504073172140299,2.4120869586315443,-0.40485677805540693,1.8235589633537925
0.05517953114057061,-1.2434000705652672,0.9281164272052134,0.9150698821676444,3.375669701660577,1.1661282731600966,0.30513381678390517,1.1699838689625923,0.2841545975915689,0.24779151227272456
-0.6265750880900317,-2.192177866263124,0.49980795301100667,0.0656566617258318,1.0189321940467626,1.5964071575177565,1.3453749615867099,0.7041171678255373,0.4877339171799606,-0.6387810543915031
0.23559750839165197,-0.20579764689325283,-0.7604654264100662,-0.034001705077751194,0.47698198916081447,1.2452741313323994,-0.3792376553581323,2.100577195795201,-1.389547577997927,1.991773170001623
0.023070078321778723,-0.42689315768952096,1.1674218429308332,-0.12320002093710682,1.9134585766888206,-0.5572575764319105,1.4981280178139424,0.17198439699914525,-0.08202598138366986,-1.0215016378706983
0.7203595740068629,-1.109314961492652,1.9341261554982911,0.9776298882021931,1.0145481927241886,2.0345225957697,0.6054301776083079,1.9379787876505676,-1.543088008115836,-0.36998020924099717
0.5295217378825081,-1.5788205851372774,0.6158425714507498,0.5061044285252029,-0.7298437178095565,3.3128920054933486,-0.6206278046398697,1.637682589021649,-1.7042793767912265,1.4377029004125732
0.6529007804056385,0.8157692000022847,1.6372734163523233,1.319585363975989,-0.14740070940371408,0.5190565905503219,1.1510517656051225,-0.6361648710787727,-0.44855883411051317,-0.44681911294681714
-0.07708963640196324,-1.530946104686189,-0.07484394824408558,0.7582523659083857,1.5341479835317955,1.8559352980263046,-0.8104490764295731,2.779193553915029,-0.7367323872266914,0.23806713926373768
0.06082703007566324,0.33042655500978296,-0.4244967919938879,0.43152332417352324,2.140281212618614,-2.218128584775745,0.5752138674458496,-0.6440009143978727,0.18516149695718317,-0.6776736551623578
0.5653399224710282,-1.602531847810499,3.441094827729504,1.840801237703421,-0.41220439405823284,1.4747333012504371,0.7167237803616193,2.440542631089169,-0.6575448900789299,2.275236721691849
0.09115429779488113,0.06730256503416666,-0.31415860836345266,0.22959803285149333,-0.841462927779845,0.13713764419341662,-0.6501339641245207,2.00929699033168,0.32573943189458515,2.2747110740969845
0.5766445003223876,1.0463526662139535,2.5829013179728166,2.299037940548267,2.714428625758391,-0.37338249856469197,1.9789990638614672,-0.8592392171057827,-0.6174122813157126,-2.0093296793760937
0.4137909972748736,1.2215044289554282,1.100409249559208,1.9222014816215995,-0.705419975634024,0.019244785946078022,0.634677921792285,-0.07155054419147355,-0.45184957049119245,-0.08642187172442262
-0.1412648499565907,0.4653038405480876,1.230461549987448,0.6687990606584316,3.217488911660535,-1.5812949734177646,1.4873936926937628,-0.31541269208065603,0.2626867731018481,-0.10133312505980407
0.6442931074910054,1.094164428563869,2.6070398585875907,1.4239045439381337,-0.7320223593194721,-1.240546207266196,1.6259497148612911,-0.8711784394480383,-0.8747620230521442,-0.47407752866074304
0.7628411899625761,-0.6495584710073549,2.2006441639722043,1.9239829779312647,0.24134485299188446,0.056555354333069414,-0.7887595386987754,3.420850014634458,-1.501725067763561,1.277785176142023
0.5152597564766691,-1.2100633065163555,3.0505682094281905,1.7033254915938725,1.8103524876252388,0.8643030071777223,0.6815824996379347,2.1175365253628002,-0.9921625714556779,0.4251534709353162
-0.08983230438192728,-0.2042872609677978,-0.8642996783907279,-1.4747643045068624,3.4576135497437663,0.5457458513371394,-2.3775527225953073,1.5894574724593453,-0.9928564798155148,-0.24492950835572924
0.04263568823608564,0.611027419469775,1.7237877412617166,0.8790692628097889,1.1261992671765348,0.0812006515159082,1.7654249674719982,-0.10232080679539035,-0.44776488058730685,0.8086765738870101
0.012875137134681528,-1.87140215210133,0.8196703692375402,-0.00403571700921008,2.0898573183816858,1.95941608400946,0.25707260956469247,3.093600147226139,-0.3674145304346296,2.0474257443883603
0.6275373065460002,-0.47010129377784915,-0.10743679718546018,0.14248680257885918,0.800088447160481,0.7933097919983879,-0.5882414200910648,1.0612721624027075,-1.211391927131808,-0.99463382522388
-0.08490464747329901,-0.23209369464985066,2.7080606740766124,1.7499337386116873,2.4357388511349525,0.7567684948931716,1.1251152367502057,0.18534500957833888,-0.44853459083010333,-3.1888018380222647
0.7930039029701378,-2.4688427815685605,-0.37874168305312106,-0.8098153066278563,1.7784574527256676,1.3599757442443465,-1.9481495201063908,3.0395344725079374,-1.674186654304106,3.212600412028383
-0.8483996319223712,0.33661063217619097,2.284232924540991,1.4892419744196859,1.420118627029456,-0.60439246983583,1.5351193697140437,-0.88321989016579,-0.3709035475034288,-1.0982864881500696
0.4371874001886152,-0.3573596043232451,3.222352487077984,1.9197646684743257,1.7822205957284938,0.5254266340475299,2.2933001219203377,-0.3969305724470208,-0.1708889666959028,-0.9558528701293786
-0.1880078436480091,-0.858872643684515,0.37039772451774056,-0.06913838135767175,1.7235171865900436,1.4283444643632632,0.22977309614110367,-0.21253312956858694,1.1621220645591892,-0.3905552110532605
0.0851795982715168,-1.9506847056370036,-0.24641538603716306,0.40028928007176456,-0.1485722515034691,1.3535894754763191,-1.3551053768114252,2.0129643399854484,-0.5460115022700397,0.7177697987714888
0.36620713474434835,0.08938928759259755,1.4954369186876697,1.2950624074528738,2.193269897924712,1.1834995375284265,0.8685171259116884,-0.6511258882893474,0.22030977282221118,-0.5588616491776333
0.21769558736656322,-1.4342766222120245,0.5037372691833348,0.8997952523942291,0.37665244157654487,0.6022980946206216,-0.21072376990412517,0.6592655713047197,-1.451285019848822,-0.7049271463188792
0.3607614389347114,-1.6338277092735274,0.6127410857757742,0.9272949533381222,-0.21600993627375964,0.9744075884793332,-1.8582404696648398,3.443380522990373,-1.047227217933099,0.5878641683726666
0.027000381389378627,-0.21707126615526076,2.982010692206827,0.7966497423423672,1.0494965451720772,0.5740867717259768,1.9464680334181046,-0.412969620983787,-0.5612307548394817,-2.587237136036392
-0.27054870693735256,-0.7200751671051968,-0.9568552502644782,-0.2238193902977837,0.16313453987624715,1.1241081651513403,-0.4641686322638773,1.4059516863361607,-0.1775032014992467,1.1878479528032382
0.004109248185424619,-0.5582382135898803,1.082276564115355,0.39652465012052035,2.4733575342572727,0.013373077033364792,-0.1326136053932101,0.9382016423231392,0.3547043094920506,1.3261657358068772
0.18681377570726562,-0.44522373820760386,1.5705696826535456,1.276731080974159,2.009313025147811,-0.2051180821030243,-0.7449418449621428,1.7245582460172946,-0.732078635801413,1.510090950646476
0.2086179508609633,-1.4407838108298214,-0.7410656492298815,-1.162845785673707,-0.4861804212672727,0.6870580355452958,-0.882415849512766,2.8151905864513918,-0.04934252348503419,3.193368165799283
-0.2893552997429517,0.30621876102319456,-0.48428899179749774,0.08867300724471185,1.1135155113369382,-0.5613262806409052,-0.2583618153569228,1.0513609940450444,0.9620307358626495,0.2707044427820897
-0.3844263183759291,-0.1051423234204517,3.0006978976294914,1.2849881479117118,-0.07496761686165332,-0.4195568469167909,1.7395710118479715,-0.23717349121048226,0.2895108975552298,-0.24843263818385528
-0.40792032999261557,-0.17225599495738855,2.1049550148142537,1.3939097481216625,3.2352597980972444,0.47364864523577643,1.0945472886577448,1.9423950009522182,-0.38971869808747867,-0.04325571485748392
-0.447127678879615,0.2994094222948142,0.8222230561637731,1.4764788065907921,0.5332739950917829,0.5006128702926638,1.0592680113430988,-0.5075061420703899,1.7778464294376841,-1.3313781848349748
-0.2664914145480411,-1.7991709876356765,1.0734648706235088,0.2476538079876959,-0.6775920999305095,1.4124847309210224,-0.24136270619420763,3.3423046536207437,0.26043464335762734,2.7876498956076117
-0.1425449615324878,0.1039677350529804,-0.1221503195735193,-0.5243179709906163,1.2872995598624644,-1.0707623180215387,0.3991354351434135,-0.8404323424347175,0.6223297650963031,-1.240720353539704
0.414502670265724,-1.3752049570245695,1.4091826780803522,0.6578249361138372,1.5524526443748248,2.15679344462317,0.39118289422739805,1.8452907614703236,0.33902970532650595,0.17819003337324402
-0.24400451562312675,0.8573649242977679,2.1088471296176765,0.5858450955805427,0.2919897454477449,-1.2218726608642905,0.6090176404615373,-0.8493472544109826,0.9657655206340666,-0.051860670845143564
0.4359862193326275,-0.9156266901462282,3.0884379846426206,3.3527558774596327,-0.2574753438566294,1.391304026769334,0.6735210208999605,1.8827935283264656,-0.6318145420201411,0.5185465561887865
-0.6048286461322034,-0.12877822266194652,-0.302541890250852,-0.08885712784670942,-0.9762424198541556,1.7945066505943164,-1.2157847923089768,-0.5097193056453895,-0.030145908536210388,0.7174859069123412
0.7780775526853981,-0.4562844939541384,-0.9788029243241592,-1.0492480214708346,0.04296432362465041,1.2141838226893704,-1.5191327302925774,1.922014809744482,-1.233199272909271,0.9633212757169896
-0.8358944016790187,1.1956684258701205,0.5660821050057667,0.6464552287267493,0.7836903039341441,-2.6567766738098904,0.18903096728642466,-0.9662368013607195,2.065464960098053,-0.8350986623211948
0.3233765878973011,-1.024605356239846,1.056570293705172,0.4203451470445218,2.697110858824104,-0.2013046821945594,-1.0734430540988584,-0.39662283172721924,0.016731820667730636,-0.6127888474384722
0.006770564654243043,-0.37511087237064333,1.0454569670470764,0.6147400671423692,0.5798077638818215,1.1613151814496099,1.4989219760853931,0.6673807696963088,0.06907412192359641,0.7432659732378523
-0.044402513438600535,-0.09144996281447265,1.9088863433420546,0.8903619808181015,0.6633632077858276,-1.7064176151223933,1.0278281175057278,0.33737015535254367,-0.4760593244702148,0.42752636757841356
0.25052096660704115,-2.2614531007748218,1.2448169597437504,-0.8175464811067727,-0.9557495168675273,2.0285073735850334,-0.8582468170414959,3.2061799697015774,-0.24536659348000076,4.527555231450562
0.2819967402506366,1.273769805048876,0.11909672982141806,-0.3590481412500424,0.9905678135117688,-0.8486519345346057,0.5102771666379793,-0.7897961086381468,0.12046689275905803,-1.166256027347628
0.7445205009253009,-1.2782055749596493,1.5759515273800089,1.9326990144201137,-0.9063621356844875,-0.008261859599593952,1.058166357572522,1.0320864816443103,-1.1704010011921657,2.0059462034328344
-0.4614102348455928,-0.8616647068151491,3.3921471657345643,2.1914089205135676,0.8086855682614325,1.2828279633193667,1.2350265191355105,1.5142784562557488,-0.7891598902846494,0.875323230949649
0.32824992814773196,-0.7651523550916949,0.2328102020977436,0.7555187742930948,3.0709558659369183,-0.697153579010521,0.010065180650622008,0.39100228301993534,-0.34651330729601126,-1.8614165728435377
-0.0028042362754072355,-0.6490729751342899,1.7116130938209642,0.8390248721731783,-0.029162986115984113,0.2926266816016703,0.4127003470814964,0.6302250772029152,0.23420514540967838,0.310021754859695
0.3124603692290099,-2.0691663906491087,0.045067329355596764,0.5668638184323501,3.3401114391120856,2.1024873769492416,-0.7389375097026978,3.2360346243806184,-0.2995314072372353,-0.576214380170776
0.9078048234076668,-1.2849547122160125,-0.598892015796969,0.5474555543661354,2.1610128636535775,2.103912522249358,-1.7242592443280107,2.887234989415189,-0.5543700842147876,0.9377616330452891
-0.3483793111358079,-1.3349883556631512,-0.15911729158858712,-0.2505835210885239,3.1082372760604136,1.8475530324956968,-1.4176199680230606,3.035372525316993,0.5149472943946439,1.1335717600000959
0.11279912003207275,-0.02325846256517644,1.7568030893245163,1.0616953218521024,-0.654903232592122,0.5704511987122762,-0.14483107572760634,2.0270620262232604,-0.8705525981913395,2.1106584534322446
-0.10579532392688064,0.5837254537189738,1.5941137407761148,0.24229230140670666,3.246278511094469,-2.4453312917048255,1.9940083637987507,-0.8092869372539729,1.3892838273081545,-3.7877453208652714
0.3758170587253711,-1.6270410027136528,3.3988525246779906,1.279568431893934,-0.04107576463906426,2.3644516541220053,0.24416604934789365,3.3427006800178045,-0.7587156452882513,2.5556994752588342
1.3886134284875733,-0.6479662637641108,2.8093432333914317,2.0065712579035595,2.644469609726726,0.46120662357423187,0.7845239552396233,1.5373408427690927,-1.7980121846555392,-0.16872125437189667
-0.2273605797491066,-1.084473591571214,2.299749944918265,1.6939804876292237,3.3776810705573936,1.6654778430612924,0.7525088280417542,1.644596703271735,-1.1575401329979171,0.5797420271647662
-0.3107632345690554,-1.5320308338563957,1.3924967637346417,1.9109586161162095,0.1052326144380138,1.32179959451148,-1.2903617533723089,3.276169559612571,-0.6052694964259623,2.728508367869554
0.2797122217601261,-0.14649445197161448,2.1395421686893945,0.9432465697628687,-0.9654787251407888,0.9216261003588052,0.7586974724678692,-0.43136712418082246,-1.1159582874021428,0.661166981711984
0.14132039508131308,-0.9956006473936281,2.6274246224195204,1.5677471468051258,1.3234774800567313,0.782405302450291,0.25915960962667417,1.7198074659937972,-1.285793028772769,0.5165075132460228
