lhs,op,rhs,est
x10,~,x8,0.894130219938939
x2,~,x10,-0.9993310523383495
x2,~,x7,0.10066255924080356
x5,~,x2,0.21955227101021568
x5,~,x4,-0.45893672993529916
x6,~,x7,-0.2882610935033321
x3,~,x6,0.6493209305828244
x9,~,x7,-0.818192827899875
x1,~,x10,0.4644886943523111
