lhs,op,rhs,est
x9,~,x4,-0.12557996915882003
x1,~,x4,0.564403355270099
x8,~,x1,1.0006474097237266
x8,~,x10,0.5828988432718356
x2,~,x4,-0.8134835759577961
x6,~,x2,0.6716590032349565
x7,~,x4,0.590042291385196
x5,~,x3,0.6574781558309842
x5,~,x4,-0.7223620455668666
