lhs,op,rhs,est
x1,~,x4,-0.24610742111185743
x1,~,x6,-0.553310803684664
x1,~,x7,0.6443528194702611
x8,~,x1,-0.7058587807184566
x8,~,x9,-1.0393886243908244
x3,~,x8,0.26869980441173197
x2,~,x1,0.6259299805548256
x6,~,x10,0.21903073430340364
x5,~,x4,0.652110981724181
