lhs,op,rhs,est
x9,~,x3,0.1670315785772795
x9,~,x7,-0.7354643465315922
x9,~,x8,0.8715905624020782
x2,~,x9,-0.2559480194295395
x8,~,x10,1.0154003450801505
x8,~,x4,0.8545397280705321
x6,~,x5,-0.3704538664648003
x7,~,x6,0.14720361287340739
x1,~,x3,-0.20066163008757654
