"lhs","op","rhs","est"
"eta1","=~","y2",0.375991978076555
"eta1","=~","y3",0.67116271587069
"eta2","=~","y5",-0.940932133488145
"eta3","=~","y7",-0.119140657786005
"eta3","=~","y8",12.2149720917773
"eta4","=~","y8",-0.393867336237506
"x10","~","eta2",-0.80173917563106
"x10","~","x5",0.680817030226224
"x3","~","x10",-0.0875112900241721
"x2","~","x3",-0.485793839691057
"x2","~","x4",-0.993738828547513
"x9","~","x2",0.0446092789656542
"eta2","~","x9",0.792216054816694
"x6","~","eta4",-0.433121252099491
"x6","~","x2",0.0654291994316335
"eta3","~","x6",0.0349917621773562
"x1","~","x8",1.0573187472044
"x4","~","x1",0.409134377522276
"eta1","~","x8",-0.303828948478982
"x7","~","x10",-0.177413669400578
"y1","~~","y1",0.895817701930158
"y2","~~","y2",0.0986518087480234
"y3","~~","y3",0.488149572140661
"y4","~~","y4",1.10314789666636
"y5","~~","y5",0.389572499446132
"y6","~~","y6",1.00459096854122
"y7","~~","y7",0.0121026751205334
"y8","~~","y8",1.41139866975698
"y10","~~","y10",0.447566996417991
"x10","~~","x10",1.41212675507166
"x3","~~","x3",0.091536977455446
"x2","~~","x2",0.654604057485409
"x9","~~","x9",0.74883864477849
"x6","~~","x6",0.651143770265497
"x1","~~","x1",1.14887013327182
"x4","~~","x4",0.13570525042624
"x7","~~","x7",0.568115413445063
"eta1","~~","eta1",0.148488949185705
"eta2","~~","eta2",0.620478479020552
"eta3","~~","eta3",-0.00119353725735078
"eta4","~~","eta4",2.40581346279057
"eta1","~~","eta3",0.00239280352225401
"eta1","~~","x7",0.0223293432690167
"eta3","~~","x7",-0.00230103884393647
"x5","~~","x5",1.56941634145592
"x5","~~","x8",0.0311470316424251
"x8","~~","x8",1.68970643630894
