"lhs","op","rhs","est"
"eta1","=~","y2",-0.293739322059281
"eta1","=~","y3",-0.836130662867752
"eta2","=~","y5",-0.313511197176571
"eta3","=~","y7",0.864357167330247
"eta3","=~","y8",0.715744798513044
"eta4","=~","y11",-1.07609643557224
"eta4","=~","y9",0.439142092025732
"eta3","~","x1",-0.605937531885354
"eta3","~","x5",0.166307376805933
"eta1","~","eta3",0.0981214330445015
"x1","~","eta1",0.410221260594793
"x1","~","eta4",0.0866614544761361
"x1","~","x10",-0.181207484134438
"x1","~","x3",-0.337338954927937
"eta2","~","x1",0.24752078965313
"x7","~","eta2",-0.182723972813092
"x7","~","x9",-0.507727996624226
"x2","~","x1",0.163092270684612
"x4","~","eta2",-0.176005868083417
"x8","~","eta4",0.93364333987778
"x6","~","eta1",0.117623379788425
"y1","~~","y1",0.613889659028884
"y2","~~","y2",0.187448579986535
"y3","~~","y3",1.36504459787976
"y11","~~","y11",2.3013567151132
"y5","~~","y5",0.043460894124374
"y6","~~","y6",4.87666580747019
"y7","~~","y7",2.78402916999275
"y8","~~","y8",1.30456665963424
"y10","~~","y10",0.960131370784246
"y9","~~","y9",0.228849476541337
"x1","~~","x1",0.238348619646418
"x7","~~","x7",0.296887955241566
"x2","~~","x2",0.958678186499376
"x4","~~","x4",0.0279884321756803
"x8","~~","x8",0.684394396060926
"x6","~~","x6",0.034475069563629
"eta1","~~","eta1",0.995253933563739
"eta2","~~","eta2",0.967887271829234
"eta3","~~","eta3",2.01123899597676
"eta4","~~","eta4",1.72239652981796
"x7","~~","x2",-0.00719221511052566
"x7","~~","x4",-0.00658943999849756
"x7","~~","x8",0.0164650019751323
"x7","~~","x6",-0.00832082088216115
"x2","~~","x4",-0.0137950241352686
"x2","~~","x8",-0.134147639117018
"x2","~~","x6",0.0221881861004818
"x4","~~","x8",-0.0101794490312208
"x4","~~","x6",-0.00621995604597012
"x8","~~","x6",-0.00869425249865543
"x5","~~","x5",1.56661986151614
"x5","~~","x10",0.0221556514224772
"x5","~~","x3",-0.0273548087959669
"x5","~~","x9",0.0951387133256859
"x10","~~","x10",1.66979259202144
"x10","~~","x3",0.0436961148405235
"x10","~~","x9",0.0435724981064632
"x3","~~","x3",1.64200916255991
"x3","~~","x9",0.0248539126841611
"x9","~~","x9",1.65081866894905
