"lhs","op","rhs","est"
"eta1","=~","y2",-0.93964937285695
"eta2","=~","y4",-1.1173901662974
"eta3","=~","y6",-0.77268633516929
"eta3","=~","y7",1.20443039794003
"eta4","=~","y9",-0.56897900875097
"x6","~","x7",-1.01660268317121
"x8","~","x10",1.01264027592109
"x8","~","x6",-0.679581789685046
"eta1","~","x4",0.18163677543003
"eta1","~","x7",-0.774540298888717
"eta2","~","eta1",0.263030414837411
"x1","~","eta3",0.575892809104235
"x1","~","x5",0.477272202387996
"x1","~","x7",-0.13460169756235
"eta4","~","x1",-0.743411506192278
"x5","~","eta4",0.0872026080567375
"x5","~","x2",0.811011552674342
"x9","~","x7",-0.231658948870159
"x3","~","eta1",0.772212195972601
"y1","~~","y1",2.12830732195623
"y2","~~","y2",1.41467417350971
"y3","~~","y3",1.7702585014247
"y4","~~","y4",1.36740068547103
"y5","~~","y5",1.07982517914113
"y6","~~","y6",0.603879316249565
"y7","~~","y7",0.885239648486846
"y8","~~","y8",3.36342794824197
"y9","~~","y9",0.581440978204413
"x6","~~","x6",1.19635484352525
"x8","~~","x8",1.75032439992893
"x1","~~","x1",0.68152652670639
"x5","~~","x5",0.467183713313499
"x9","~~","x9",0.0352346516009076
"x3","~~","x3",0.895896912734319
"eta1","~~","eta1",0.526802787183878
"eta2","~~","eta2",0.0874287391263261
"eta3","~~","eta3",1.52259111500904
"eta4","~~","eta4",2.53432711598255
"eta2","~~","x8",-0.129605138620448
"eta2","~~","x9",-0.00112738876826235
"eta2","~~","x3",-0.000504659190766639
"x8","~~","x9",0.0150796158973452
"x8","~~","x3",-0.166393369155414
"x9","~~","x3",-0.0167841767487273
"x7","~~","x7",1.6394329297421
"x7","~~","x10",0.00368126828435525
"x7","~~","x4",0.0983803373902927
"x7","~~","x2",-0.0155683500404332
"x10","~~","x10",1.68998580053937
"x10","~~","x4",-0.107348445143887
"x10","~~","x2",0.0301163749872314
"x4","~~","x4",1.62361530906808
"x4","~~","x2",-0.0255232175327692
"x2","~~","x2",1.67222160921162
