"lhs","op","rhs","est"
"eta1","=~","y2",-1.32030193833924
"eta1","=~","y3",0.686064577468115
"eta2","=~","y5",0.505919665319792
"eta2","=~","y6",-0.942670387217828
"eta3","=~","y7",0.198078750755731
"eta3","=~","y8",-0.21889651201434
"eta4","=~","y11",0.291489194015631
"eta4","=~","y12",0.552806885395331
"x5","~","eta1",-0.709419448925207
"x5","~","x2",1.06836599438534
"x3","~","x5",-0.594336606417805
"x6","~","x3",-0.773836090623606
"x7","~","x5",0.383569691093806
"x4","~","x7",-0.722420491501023
"x4","~","x9",-0.799403074498952
"eta3","~","x5",-0.775449646664235
"eta4","~","eta3",-1.06166524773188
"x10","~","x5",-0.418541073935495
"eta2","~","x2",0.478432375730044
"x1","~","x5",-0.425206843527571
"x8","~","x1",-0.812569161207184
"eta1","~","x7",-0.406373404792565
"y1","~~","y1",1.05609668858802
"y2","~~","y2",1.6184006973225
"y3","~~","y3",0.388989111183702
"y4","~~","y4",0.87298980966496
"y5","~~","y5",0.275133348090553
"y6","~~","y6",0.753097668379621
"y7","~~","y7",0.0431638131879911
"y8","~~","y8",0.0445399929775763
"y10","~~","y10",0.947720656622991
"y11","~~","y11",0.121391566009505
"y12","~~","y12",0.246716402542933
"x5","~~","x5",1.00777803529082
"x3","~~","x3",0.707333482123592
"x6","~~","x6",0.745919697730486
"x7","~~","x7",0.189087934128704
"x4","~~","x4",1.18493392570819
"x10","~~","x10",0.348572116667696
"x1","~~","x1",0.35706445963236
"x8","~~","x8",0.787986288088738
"eta1","~~","eta1",0.260859945667876
"eta2","~~","eta2",0.345170025702935
"eta3","~~","eta3",1.32404313731781
"eta4","~~","eta4",1.36772000086761
"eta2","~~","eta4",0.18657647014143
"eta2","~~","x6",-0.0262105439584648
"eta2","~~","x4",-0.00468467675933534
"eta2","~~","x10",-0.0569728180721694
"eta2","~~","x8",-0.0024112067038454
"eta4","~~","x6",0.0225810553104061
"eta4","~~","x4",0.317399836935875
"eta4","~~","x10",-0.0854693039147727
"eta4","~~","x8",0.101709487429758
"x6","~~","x4",-0.0826039914152425
"x6","~~","x10",-0.0751534166877626
"x6","~~","x8",0.0226677066298973
"x4","~~","x10",-0.037230009466078
"x4","~~","x8",-0.0612276738835796
"x10","~~","x8",-0.0565432245385395
"x2","~~","x2",1.66381383620109
"x2","~~","x9",-0.0187029444972596
"x9","~~","x9",1.571045557477
