lhs,op,rhs,est
eta2,~,eta5,0.4627469140113148
eta3,~,x3,0.039977796960802885
eta4,~,x8,0.572679458130883
eta6,~,eta3,2.607095130636462
eta6,~,eta5,-0.874486492553104
eta6,~,x8,-0.8877217161898296
eta7,~,x1,-0.7987610341163112
x10,~,eta8,0.2225726403110013
x2,~,x6,-0.21618372997019727
x3,~,eta6,0.1531033796258236
x4,~,x10,0.5549083699870551
x4,~,x6,0.34839769914613306
x5,~,eta6,-0.16079369938066515
x5,~,x7,-1.065172825885807
x6,~,eta1,0.41698628643822105
x6,~,x8,0.6086442430951148
x8,~,x1,-0.4577093266491003
x9,~,x6,0.5422302975161799
eta5,=~,y11,0.11493843367538242
eta6,=~,y13,-0.07969324321577444
eta7,=~,y15,-0.4187326051214361
eta7,=~,y16,0.09947836597849159
eta8,=~,y19,0.8532781431523525
eta1,=~,y2,0.37367085954183177
eta1,=~,y3,-0.16176666681637236
eta2,=~,y5,0.4938140884829433
eta3,=~,y7,-1.7763216266138449
eta8,=~,y8,1.044842066784005
eta4,=~,y9,0.09510733684997329
eta1,~~,eta1,1.8212005965333775
eta1,~~,eta5,-0.04049141003877901
eta1,~~,eta8,0.06514715442613898
eta2,~~,eta2,0.24016575681673843
eta2,~~,eta4,-0.009567683907136913
eta2,~~,eta7,-0.08303778230161232
eta2,~~,x2,-0.021399498699567043
eta2,~~,x4,-0.06091139132538265
eta2,~~,x5,0.023734956885563836
eta2,~~,x9,-0.04985067748995708
eta3,~~,eta3,0.056952882584497044
eta4,~~,eta4,0.3647043571540564
eta4,~~,eta7,0.08440877557971242
eta4,~~,x2,0.007054869233195701
eta4,~~,x4,-0.022347047599040167
eta4,~~,x5,-0.07002014222241704
eta4,~~,x9,0.053777885504003003
eta5,~~,eta5,1.9024668450114661
eta5,~~,eta8,0.0544520734373633
eta6,~~,eta6,1.6582762142673153
eta7,~~,eta7,0.676082838684942
eta7,~~,x2,0.02005841393828571
eta7,~~,x4,0.0005729798059033842
eta7,~~,x5,0.0447389939000693
eta7,~~,x9,-0.03354548093428304
eta8,~~,eta8,1.5299934238416633
x10,~~,x10,0.05331286116702227
x2,~~,x2,0.21995381373917977
x2,~~,x4,-0.08855141614726103
x2,~~,x5,-0.03257472829014494
x2,~~,x9,-0.09827605851975427
x3,~~,x3,0.31703939671352044
x4,~~,x4,0.6759842854785201
x4,~~,x5,-0.030488951799099755
x4,~~,x9,0.15838079434982935
x5,~~,x5,2.384079976969351
x5,~~,x9,0.07933581202233839
x6,~~,x6,0.679595379342858
x8,~~,x8,0.226924587146331
x9,~~,x9,1.0847830005769392
y1,~~,y1,1.079912104662967
y10,~~,y10,1.0693699995585275
y11,~~,y11,0.01689514771929911
y12,~~,y12,5.591697781171534
y13,~~,y13,0.07367142688791475
y14,~~,y14,1.0056850897543788
y15,~~,y15,0.2001003981906513
y16,~~,y16,0.01008778265405482
y18,~~,y18,1.040892010110792
y19,~~,y19,0.7882176491020529
y2,~~,y2,0.13142778921595868
y3,~~,y3,0.028436444781371716
y4,~~,y4,0.9322611989560485
y5,~~,y5,0.25170491556678026
y6,~~,y6,2.0721653225999557
y7,~~,y7,0.37601520022075635
y8,~~,y8,1.9998980723327495
y9,~~,y9,0.018022562119781774
