lhs,op,rhs,est
eta1,~,x6,0.0011809756566805928
eta2,~,x3,0.06032785746051031
eta4,~,eta8,0.00027645139245288284
eta4,~,x5,-0.006423259664700268
eta4,~,x6,0.00040750530224346014
eta4,~,x8,0.025789956560821493
eta5,~,x9,-0.0016896124207586823
eta6,~,eta4,0.0009492027476737725
eta7,~,eta4,-0.0006397906520776405
eta8,~,eta3,0.002907995519822234
x1,~,eta4,-0.0018419275354043026
x10,~,eta1,0.002645698128499712
x2,~,x10,-0.027809014766959496
x2,~,x7,0.1102914432955905
x5,~,eta6,-0.003597051373086051
x6,~,x4,0.10683206856783846
x9,~,eta2,0.008785694202818592
x9,~,eta7,-0.0005839607425585133
eta5,=~,y11,-0.04677150858874183
eta6,=~,y13,0.1446911129780035
eta6,=~,y14,0.2764842955959553
eta7,=~,y16,0.037127135139393405
eta8,=~,y18,0.16972632800382184
eta1,=~,y2,0.054611263338025656
eta2,=~,y4,0.5736175120646706
eta3,=~,y6,0.16258282199470078
eta4,=~,y8,-0.18510994567319577
eta5,=~,y9,0.011057144824283658
eta1,~~,eta1,0.06877652406097899
eta2,~~,eta2,0.08510475129594892
eta3,~~,eta3,0.08140897094213172
eta4,~~,eta4,0.06348219312977929
eta5,~~,eta5,0.07994908242627367
eta5,~~,x1,0.009602572177271349
eta5,~~,x2,-0.008075725119893526
eta6,~~,eta6,0.10058833784769837
eta7,~~,eta7,0.07757689755418186
eta8,~~,eta8,0.08249637208189325
x1,~~,x1,0.08928654134367195
x1,~~,x2,-0.00010882490350252716
x10,~~,x10,0.49202334852609064
x2,~~,x2,0.2191356831984445
x5,~~,x5,0.618757275368261
x6,~~,x6,0.0
x9,~~,x9,0.285085194235838
y1,~~,y1,0.9430017390843223
y10,~~,y10,0.5281905588980179
y11,~~,y11,0.21616765840359375
y12,~~,y12,0.7057249809731035
y13,~~,y13,0.18701362323391585
y14,~~,y14,0.45128645456044036
y15,~~,y15,0.5722306307889329
y16,~~,y16,0.6065511289551041
y17,~~,y17,0.7070195624399745
y18,~~,y18,0.2959437114215968
y2,~~,y2,2.674488094418576
y3,~~,y3,1.7217776453501041
y4,~~,y4,1.224283574571811
y5,~~,y5,1.390672948108558
y6,~~,y6,0.1652882893497957
y8,~~,y8,0.5520108257511356
y9,~~,y9,0.0
