lhs,op,rhs,est
eta2,~,x9,-0.18901050601494368
eta3,~,x2,0.3477062623618118
eta4,~,x7,-0.2951092711652934
eta5,~,x10,-0.002477608856879629
eta7,~,x2,-0.15533912532093427
eta8,~,x2,-0.23339677862600938
eta8,~,x1,0.9158767605096267
x10,~,eta1,0.008605335188392862
x10,~,eta8,0.5218620620329701
x2,~,eta4,0.2180316092619688
x2,~,x10,0.11790785669387138
x3,~,eta5,-0.09220663865027338
x4,~,eta6,0.6907301796824332
x4,~,x10,-0.034424866148820496
x5,~,eta5,0.11279938017622504
x6,~,eta4,-0.3327871270406013
x8,~,eta3,0.150828079638903
x9,~,x10,0.04183142689429409
eta4,=~,y11,-0.17055030781565259
eta5,=~,y13,-0.14784928812700693
eta6,=~,y15,-0.8035485526074747
eta7,=~,y18,-0.09759853159748774
eta7,=~,y19,0.09962928427549392
eta1,=~,y2,0.18139342320890528
eta8,=~,y20,0.5096033192401116
eta8,=~,y21,-0.682392352514252
eta1,=~,y3,-0.28973118438807355
eta2,=~,y5,0.21995587890644866
eta3,=~,y7,-0.314701512083821
eta3,=~,y8,0.23931495370775127
eta4,=~,y9,0.009086194054951147
eta1,~~,eta1,0.4177440117054943
eta1,~~,eta6,-0.07792673631804295
eta2,~~,eta2,0.41495887779931884
eta2,~~,eta7,-0.1567724156454177
eta2,~~,x3,0.02476289297912527
eta2,~~,x4,0.08598794150886425
eta2,~~,x5,0.004227340024114812
eta2,~~,x6,-0.032799620493989615
eta2,~~,x8,0.04433244269157138
eta3,~~,eta3,0.5488326132622626
eta4,~~,eta4,0.25618643306090444
eta5,~~,eta5,0.38691928587352253
eta6,~~,eta6,0.9800229006288069
eta7,~~,eta7,0.47569366659516205
eta7,~~,x3,0.01189755602522878
eta7,~~,x4,0.0062337163403176615
eta7,~~,x5,-0.010368431173341379
eta7,~~,x6,0.04951022952148408
eta7,~~,x8,0.05344001294586489
eta8,~~,eta8,0.5006741087966811
x10,~~,x10,1.678370759329648
x2,~~,x2,0.8898594920040596
x3,~~,x3,0.9399192364168281
x3,~~,x4,0.0015720687462510222
x3,~~,x5,-0.22393127810807292
x3,~~,x6,0.020272734831126675
x3,~~,x8,-0.010654773511125095
x4,~~,x4,1.7932098202572762
x4,~~,x5,-0.03190149274244544
x4,~~,x6,-0.04733317248860364
x4,~~,x8,-0.0004590889171976406
x5,~~,x5,0.5181214830750692
x5,~~,x6,0.021905260659142705
x5,~~,x8,-0.035009321535160565
x6,~~,x6,1.058469213232278
x6,~~,x8,-0.02173096347645167
x8,~~,x8,0.7630641686190548
x9,~~,x9,0.263367418208857
y10,~~,y10,0.8809807409288501
y11,~~,y11,0.06418981306366711
y12,~~,y12,0.8502036740220397
y13,~~,y13,0.033054076778492814
y14,~~,y14,1.454157983988891
y15,~~,y15,1.051213672846396
y17,~~,y17,1.4670557435190932
y18,~~,y18,1.8454234666192786
y19,~~,y19,3.555478390625695
y2,~~,y2,0.5362498770652612
y20,~~,y20,0.9525111120730658
y21,~~,y21,1.7876569018308837
y3,~~,y3,1.9894658908615983
y4,~~,y4,0.8861960765926891
y5,~~,y5,0.7791909155311726
y6,~~,y6,1.4519156989539383
y7,~~,y7,1.7100979747498406
y8,~~,y8,1.1246499987083096
y9,~~,y9,0.03291763781655231
