lhs,op,rhs,est
eta1,~,eta7,-0.007351982019678222
eta2,~,eta3,0.01216617773028033
eta2,~,x2,0.08214249668751086
eta2,~,x1,0.08983453286588178
eta4,~,x4,-0.17220917642599018
eta5,~,eta6,-0.007058079481075266
eta5,~,x6,0.04563185920766709
eta6,~,x2,0.14998447639308984
eta6,~,x9,0.08202456605138794
x10,~,eta7,-0.03562570435898528
x10,~,x8,0.007803093370985572
x2,~,eta5,-0.006608523421575438
x3,~,x8,-0.006282307511260247
x4,~,x10,-0.006155822827760501
x4,~,x9,0.17317896044461295
x5,~,eta8,-0.04409910898665616
x7,~,x4,-0.26358398266727007
x8,~,x5,-0.024167469267063493
eta4,=~,y11,0.20689141763723579
eta5,=~,y13,0.0896684479098152
eta6,=~,y15,-0.5085465071810386
eta6,=~,y16,0.27368010028069123
eta7,=~,y18,-0.679239239685637
eta7,=~,y19,0.18508776265316168
eta1,=~,y2,0.006170402453046731
eta8,=~,y21,0.1729552775687928
eta8,=~,y22,0.15569217522401133
eta2,=~,y5,0.27213944627159525
eta2,=~,y6,0.3015317101336256
eta1,=~,y8,0.005245785775127559
eta3,=~,y8,-0.3369533157890976
eta3,=~,y9,-0.5177845239715921
eta1,~~,eta1,0.1605278617075343
eta1,~~,eta2,-0.0007086623243367435
eta1,~~,eta4,0.027510892007163317
eta1,~~,x3,0.0036127460679108263
eta1,~~,x7,-0.005862084304028075
eta2,~~,eta2,0.1423627593053372
eta2,~~,eta4,-0.019313534293643637
eta2,~~,x3,0.0018963241126311952
eta2,~~,x7,-0.024476945613965836
eta3,~~,eta3,0.3229133289065037
eta3,~~,eta7,-0.03307042735128878
eta3,~~,eta8,0.017317455367995043
eta4,~~,eta4,0.13107590672048808
eta4,~~,x3,-0.019512546685707385
eta4,~~,x7,0.027784452060962486
eta5,~~,eta5,0.09246354349579489
eta6,~~,eta6,0.1591914357774252
eta7,~~,eta7,0.2877190478612983
eta7,~~,eta8,-0.05211334274576231
eta8,~~,eta8,0.1869217228047162
x10,~~,x10,0.7560436442704129
x2,~~,x2,0.7065100446511917
x3,~~,x3,0.1090877869990243
x3,~~,x7,0.01797515718673596
x4,~~,x4,1.6347306302740237
x5,~~,x5,0.11720909786115428
x7,~~,x7,0.10002149221205253
x8,~~,x8,0.0
y1,~~,y1,0.6379720495493129
y10,~~,y10,1.4149380853917677
y11,~~,y11,0.6696753100539389
y12,~~,y12,2.3582448961204463
y13,~~,y13,0.6442161016202403
y14,~~,y14,2.4187404367893164
y15,~~,y15,1.9235706333357256
y16,~~,y16,1.876017740716897
y17,~~,y17,1.3167193874252454
y18,~~,y18,1.5684357416864294
y19,~~,y19,0.16121989607453657
y2,~~,y2,0.29222931907476357
y21,~~,y21,0.34591363219511706
y22,~~,y22,0.24912951192852606
y4,~~,y4,2.284161767662583
y5,~~,y5,1.184668778266853
y6,~~,y6,1.5924381722417986
y7,~~,y7,1.4898334368776427
y8,~~,y8,0.48418945567050625
y9,~~,y9,1.0486276091270461
