lhs,op,rhs,est
eta2,~,x6,1.1758253505634377
eta4,~,x3,-0.9090203852269351
eta4,~,x6,0.13459723619125163
eta5,~,x5,-0.8305835466143497
eta6,~,x5,0.7019290067103277
eta7,~,eta4,-0.451330270770453
x1,~,x3,0.41546746958683173
x1,~,x2,0.2707682204342507
x10,~,eta1,0.20365409983133786
x10,~,x3,-0.2588570785863058
x10,~,x7,-0.5265002620848314
x10,~,x9,0.32234645511770965
x3,~,eta3,-0.021937935944551845
x3,~,eta8,-0.1388818192578024
x3,~,x4,0.19519044172615135
x3,~,x5,-0.6061487523503288
x4,~,x10,-0.7744363642884309
x8,~,eta5,-0.1072742133227722
eta5,=~,y11,0.5537023074212777
eta5,=~,y12,-0.1928083987135809
eta6,=~,y14,-0.4751967514430825
eta7,=~,y16,0.421333402312904
eta8,=~,y18,0.6202811498989266
eta1,=~,y2,0.5793383516527226
eta2,=~,y4,0.5349393950656676
eta2,=~,y5,0.38109961994708386
eta3,=~,y6,-0.3778843543496966
eta4,=~,y9,0.6233766900083445
eta1,~~,eta1,0.710508321447799
eta1,~~,eta3,-0.023535900684351976
eta1,~~,eta8,-0.09266339191161502
eta2,~~,eta2,0.49490512491802696
eta2,~~,eta6,0.03664344834075299
eta2,~~,eta7,-0.022779241807302175
eta2,~~,x1,-0.07930807700397041
eta2,~~,x8,-0.0760376133930605
eta3,~~,eta3,0.37646403542681395
eta3,~~,eta8,-0.06007734834482697
eta4,~~,eta4,0.3937962175296522
eta5,~~,eta5,0.3866637413298011
eta6,~~,eta6,0.2718100596375993
eta6,~~,eta7,-0.25467840664681207
eta6,~~,x1,-0.29032198430349765
eta6,~~,x8,0.17821661718136406
eta7,~~,eta7,0.3767200644474473
eta7,~~,x1,0.24794473162077982
eta7,~~,x8,-0.1522791064865307
eta8,~~,eta8,0.7113775177272055
x1,~~,x1,1.4039584940814076
x1,~~,x8,-0.14432715204658936
x10,~~,x10,1.8181275153916905
x3,~~,x3,3.5376242650593253
x4,~~,x4,0.9386867054207693
x8,~~,x8,0.19427600869851022
y1,~~,y1,1.506038626283428
y10,~~,y10,0.9051371293344446
y11,~~,y11,0.4495050906933264
y12,~~,y12,0.6987757052821681
y13,~~,y13,2.857877640620205
y14,~~,y14,0.4136464638099042
y15,~~,y15,3.887696361554149
y16,~~,y16,1.221283141647573
y17,~~,y17,1.5104819259603037
y18,~~,y18,0.6832282080616153
y2,~~,y2,0.48735716419434666
y3,~~,y3,1.7981183441512751
y4,~~,y4,0.0
y5,~~,y5,0.0
y6,~~,y6,1.4351072636846414
y8,~~,y8,4.9594412337140135
y9,~~,y9,0.986706415063437
