lhs,op,rhs,est
eta1,~,eta2,0.002925905221456456
eta2,~,eta4,0.0069039711000389746
eta3,~,eta5,0.002161895198192273
eta3,~,eta6,-0.00046199193008972895
eta6,~,x7,0.010923822097515074
eta7,~,x4,0.042503689291260194
eta8,~,eta1,-0.0010322292576857124
eta8,~,x7,-0.01539341214787423
x3,~,eta1,0.002192947103274803
x4,~,x7,0.018177251942648204
x4,~,x10,0.09106357055052444
x5,~,eta3,0.0014296016316732384
x6,~,eta8,-0.001749500298340502
x6,~,x1,0.04015770536654611
x6,~,x2,0.0572081539267158
x7,~,eta3,-0.0016833364161379532
x8,~,x3,-0.1737264367819338
x9,~,eta3,-0.002466201270472645
eta6,=~,y12,-0.04131345179554257
eta7,=~,y14,0.1472167986810815
eta7,=~,y15,0.10625110135561952
eta8,=~,y17,0.07670100253820757
eta8,=~,y18,-0.09394312075439207
eta1,=~,y2,-0.0727938559492513
eta2,=~,y4,0.335480757662221
eta3,=~,y6,-0.020217086953906487
eta4,=~,y8,-0.33250627845971364
eta5,=~,y9,-0.4629493096833893
eta1,~~,eta1,0.1000465803538947
eta2,~~,eta2,0.09196320814444423
eta3,~~,eta3,0.08040948592324441
eta4,~~,eta4,0.12057140303928539
eta4,~~,eta5,0.007888783598220461
eta5,~~,eta5,0.11815141528551527
eta6,~~,eta6,0.10229404499021011
eta7,~~,eta7,0.08453705249280206
eta7,~~,x5,-0.0028868603417324073
eta7,~~,x6,0.005688097806742526
eta7,~~,x8,-0.018756930382391828
eta7,~~,x9,-0.0076762539658787885
eta8,~~,eta8,0.0928290412018412
x3,~~,x3,0.7603458445089533
x4,~~,x4,1.0035858960732302
x5,~~,x5,0.5216355383987687
x5,~~,x6,-0.016396888856302364
x5,~~,x8,-0.0025943124477529745
x5,~~,x9,-0.030506872166952807
x6,~~,x6,1.4284189678336463
x6,~~,x8,-0.01205458915655533
x6,~~,x9,0.006358428598967684
x7,~~,x7,0.3034274761641303
x8,~~,x8,0.3003895004581243
x8,~~,x9,-0.02006212694398287
x9,~~,x9,0.5434442230885476
y1,~~,y1,0.6182342366842017
y10,~~,y10,1.490328084266636
y11,~~,y11,0.5721129880710363
y12,~~,y12,0.3049914382104987
y13,~~,y13,1.207182498602009
y14,~~,y14,2.4862718784330067
y15,~~,y15,0.5205640486072399
y16,~~,y16,1.612205648882802
y17,~~,y17,0.3772845573335148
y18,~~,y18,0.3036963777876064
y2,~~,y2,0.5550018611450444
y4,~~,y4,0.7941007699722967
y5,~~,y5,1.202289456251447
y6,~~,y6,0.6661069333104678
y7,~~,y7,1.388562762488973
y8,~~,y8,0.44579196510076863
y9,~~,y9,0.8435489078588804
