lhs,op,rhs,est
eta1,~,x4,0.21017656312693922
eta2,~,x6,0.396353389036022
eta3,~,x6,-0.23866659455683525
eta3,~,x2,-0.6804287067616208
eta4,~,x4,0.661322646497505
eta6,~,x5,0.7607811256492377
eta7,~,eta3,1.3212837936460349
x1,~,eta1,0.14799820572463668
x1,~,eta8,0.2849988224397403
x1,~,x9,-0.5067197420764769
x10,~,x3,0.4368578412351055
x3,~,x5,-0.24704243867919118
x5,~,x1,0.4356982488278801
x6,~,x7,-0.10390402215130871
x6,~,x9,0.3644482152107888
x7,~,eta5,-0.15131416762135075
x7,~,x8,0.47794914206010186
x8,~,x6,0.6786116694408595
eta5,=~,y12,-0.8859516280657023
eta5,=~,y13,0.9542800990179776
eta6,=~,y15,-0.6520317598253207
eta6,=~,y16,-0.29397176860513763
eta7,=~,y18,0.9735805412697358
eta8,=~,y20,-0.8602288331589766
eta1,=~,y4,0.1580978131497565
eta2,=~,y4,-0.3255807629530114
eta2,=~,y5,0.38124353453818216
eta3,=~,y7,0.4598130834408568
eta3,=~,y8,0.8106707315943943
eta4,=~,y9,1.0199596686601125
eta1,~~,eta1,0.19763522367121297
eta2,~~,eta2,0.71672848199742
eta2,~~,eta4,-0.025393055749337007
eta2,~~,eta6,0.06274868596152708
eta2,~~,eta7,0.21464057577144371
eta2,~~,x10,-0.08227593516092448
eta3,~~,eta3,1.1726188397213826
eta4,~~,eta4,0.4306377989158869
eta4,~~,eta6,0.013184083450654586
eta4,~~,eta7,-0.07308407941185702
eta4,~~,x10,-0.029430791699632457
eta5,~~,eta5,1.4388191389659308
eta5,~~,eta8,0.010606574174791111
eta6,~~,eta6,0.710139328774273
eta6,~~,eta7,-0.05005596440255346
eta6,~~,x10,-0.018977936148466792
eta7,~~,eta7,0.8969556315886033
eta7,~~,x10,-0.16073645509033427
eta8,~~,eta8,1.2750403513137147
x1,~~,x1,0.37832717716969
x10,~~,x10,0.778283379701741
x3,~~,x3,0.48929869188438246
x5,~~,x5,0.6278810855525317
x6,~~,x6,0.407762526467256
x7,~~,x7,0.42112206323989837
x8,~~,x8,0.7428636492163836
y10,~~,y10,1.1251612673464746
y11,~~,y11,2.2497187091128743
y12,~~,y12,0.25131462963031215
y13,~~,y13,0.6610954130381408
y14,~~,y14,0.7334699584423807
y15,~~,y15,0.6275100969522824
y16,~~,y16,0.1692731173964312
y17,~~,y17,3.237250580485864
y18,~~,y18,2.5062605349854974
y19,~~,y19,1.3793153923086643
y20,~~,y20,0.29649301819921103
y3,~~,y3,1.7540782160532271
y4,~~,y4,1.1030259210411888
y5,~~,y5,0.35771472098621426
y6,~~,y6,2.194852032610464
y7,~~,y7,0.27895353282620233
y8,~~,y8,1.6884527044843884
y9,~~,y9,1.47499423207108
