lhs,op,rhs,est
eta1,~,x2,0.6339060990535085
eta2,~,x6,0.2730118106049142
eta3,~,x5,-0.7117555489271987
eta4,~,x1,-1.0875989219415612
eta4,~,x2,-0.6300762808439196
eta6,~,x6,0.30522607206696917
eta7,~,x3,0.535004985946427
x10,~,eta6,-1.0133257323072562
x3,~,x6,1.267844874751895
x4,~,x6,-0.5721990635666425
x6,~,x8,1.5444266705009313
x7,~,eta5,-0.47652653042538234
x7,~,eta8,0.7310907838025437
x7,~,x1,0.26610436749525807
x8,~,x3,-0.5407624099170524
x8,~,x1,-0.29673544020866766
x8,~,x5,-0.660364522450313
x9,~,eta7,0.3035471189160035
eta4,=~,y11,0.9590998264807726
eta5,=~,y13,0.6291958077144094
eta5,=~,y14,0.7461241638508083
eta6,=~,y16,-0.8532086456697858
eta7,=~,y18,0.9524707577975715
eta7,=~,y19,-0.8923483393247784
eta1,=~,y2,0.434325209725373
eta8,=~,y21,0.635048863661627
eta1,=~,y3,-1.231984464679697
eta2,=~,y5,-0.6184277824775598
eta2,=~,y6,0.23647550109516602
eta3,=~,y8,-0.7449242345627775
eta4,=~,y9,-0.8176027008462935
eta1,~~,eta1,0.37467805005584437
eta1,~~,eta2,0.011600625064882514
eta1,~~,eta3,-0.033270977765778045
eta1,~~,eta4,-0.023845238044405172
eta1,~~,x10,-0.024548824176070443
eta1,~~,x4,0.012874617281829221
eta1,~~,x7,0.011543155210178749
eta1,~~,x9,-0.010923280554879568
eta2,~~,eta2,0.1357130552780236
eta2,~~,eta3,0.018518127557056976
eta2,~~,eta4,-0.005733062649115678
eta2,~~,x10,-0.004278138145398765
eta2,~~,x4,-0.01723066953503701
eta2,~~,x7,0.007076326718003587
eta2,~~,x9,0.02134627175787713
eta3,~~,eta3,0.4996485667136428
eta3,~~,eta4,-0.061464669671636954
eta3,~~,x10,0.10267562748375517
eta3,~~,x4,0.022344330367124313
eta3,~~,x7,-0.09949004718205301
eta3,~~,x9,-0.027880411584438995
eta4,~~,eta4,1.8047593555811055
eta4,~~,x10,-0.10289081384164991
eta4,~~,x4,0.04750629840304735
eta4,~~,x7,-0.025895135052805943
eta4,~~,x9,-0.006994958321059879
eta5,~~,eta5,1.475154513320377
eta5,~~,eta8,-0.11506037595022214
eta6,~~,eta6,0.19972250900837257
eta7,~~,eta7,0.5798564562767264
eta8,~~,eta8,1.6893648660354437
x10,~~,x10,1.2231873212094426
x10,~~,x4,-0.003671720979596414
x10,~~,x7,0.05681044871936559
x10,~~,x9,0.024315987139311195
x3,~~,x3,2.0286004267844313
x4,~~,x4,0.6676974120747544
x4,~~,x7,0.07360023909101138
x4,~~,x9,0.0142879355680399
x6,~~,x6,6.15872653375227
x7,~~,x7,1.0651353321373669
x7,~~,x9,0.038402022201470015
x8,~~,x8,1.005791939788148
x9,~~,x9,0.21985785018752543
y1,~~,y1,0.9980064085285513
y10,~~,y10,2.096917651728601
y11,~~,y11,3.332681260257158
y12,~~,y12,2.622569272901831
y13,~~,y13,0.3491062184229914
y14,~~,y14,0.4181857416633291
y15,~~,y15,1.914411199189573
y16,~~,y16,0.901330032987835
y17,~~,y17,1.9201463853419938
y18,~~,y18,1.86890852077806
y19,~~,y19,1.964812469066686
y2,~~,y2,0.15964040800050397
y20,~~,y20,1.106037101469896
y21,~~,y21,0.34767173487158987
y3,~~,y3,0.9041268529340851
y5,~~,y5,1.7738468914222747
y6,~~,y6,0.11429325819878805
y8,~~,y8,0.6750034196106989
y9,~~,y9,1.430976960665912
