lhs,op,rhs,est
eta1,~,eta4,0.0007247758697206464
eta3,~,eta4,-0.0011101942083509755
eta3,~,x5,-0.03445166264988121
eta4,~,eta7,-0.0016909471897000776
eta4,~,x2,0.023371735365189824
eta6,~,x5,0.035221956079270554
eta7,~,x9,-0.02083740194746869
x2,~,eta3,-0.002359529745690957
x4,~,x10,-0.05824693968243564
x5,~,eta2,0.0016687381824164022
x5,~,eta8,-0.0030535671991031767
x5,~,x3,0.013901950317560797
x6,~,eta5,0.0073039571376318285
x7,~,eta3,-7.830040869976082e-06
x7,~,eta5,-0.0007129466255994619
x7,~,x10,-0.021022652388413287
x7,~,x8,-0.030721513356372788
x9,~,x1,0.12970022244948448
eta4,=~,y11,-0.04713595459910664
eta5,=~,y13,0.2528449908970917
eta6,=~,y15,-0.05743202903385964
eta1,=~,y16,-0.22960249804498203
eta6,=~,y16,-0.2652362055130949
eta7,=~,y18,-0.266013053637801
eta7,=~,y19,0.37888404041764695
eta8,=~,y21,0.6292104710894575
eta8,=~,y22,-0.0803233472485363
eta2,=~,y4,0.16668497335165158
eta2,=~,y5,-0.3409050352227797
eta3,=~,y7,-0.27564630659327677
eta3,=~,y8,0.1500225787976483
eta4,=~,y9,-0.08693587215263594
eta1,~~,eta1,0.06584812592929162
eta1,~~,eta6,0.001922032174063726
eta1,~~,x4,-0.0004403907867441833
eta1,~~,x6,-0.013007229820483938
eta1,~~,x7,0.0022504888320695514
eta2,~~,eta2,0.11146199774840468
eta2,~~,eta5,0.006625733455458717
eta2,~~,eta8,0.0017195900609086046
eta3,~~,eta3,0.060786329602265196
eta4,~~,eta4,0.07076611945902657
eta5,~~,eta5,0.09107530166390378
eta5,~~,eta8,-0.007853626201391647
eta6,~~,eta6,0.0703177693359823
eta6,~~,x4,0.0013010992720410746
eta6,~~,x6,0.011517102941761096
eta6,~~,x7,0.002737128346773423
eta7,~~,eta7,0.11630618200958072
eta8,~~,eta8,0.10042772976182263
x2,~~,x2,0.6313323384727073
x4,~~,x4,1.0237801320839275
x4,~~,x6,0.007680478319000591
x4,~~,x7,0.020815862360539755
x5,~~,x5,1.7098300787087881
x6,~~,x6,0.17419530093379013
x6,~~,x7,-0.012232104355532817
x7,~~,x7,2.3026203293030965
x9,~~,x9,0.2480842392533133
y1,~~,y1,1.2742200160861785
y10,~~,y10,1.538075537723496
y11,~~,y11,0.11307400484412342
y12,~~,y12,1.3637091683882943
y13,~~,y13,0.27191213904848716
y14,~~,y14,1.097377879690323
y15,~~,y15,0.16121181796255662
y16,~~,y16,7.801610761880413
y17,~~,y17,1.1483106561570389
y18,~~,y18,0.36331606795654314
y19,~~,y19,0.5783668314215112
y20,~~,y20,1.3832198149910584
y21,~~,y21,1.3563859340798776
y22,~~,y22,0.13972888277959356
y3,~~,y3,1.448670162398106
y4,~~,y4,0.16223453120586787
y5,~~,y5,0.5177042072754243
y7,~~,y7,2.2633062927834438
y8,~~,y8,0.7776918459403452
y9,~~,y9,0.14404759666516048
