lhs,op,rhs,est
eta1,~,eta2,-0.25861099006112775
eta1,~,eta3,-0.13054045914282505
eta1,~,eta6,0.32549884238529875
eta1,~,x8,-1.0929836944324272
eta2,~,x3,-0.43459562881947333
eta2,~,x5,-1.258409160133763
eta3,~,x10,1.0674693371491184
eta3,~,x4,-0.8395746082062471
eta4,~,eta3,-0.08359845522640767
eta5,~,x7,0.09339047985153133
eta7,~,eta3,-0.14625316789407247
eta8,~,x4,-0.29313476028027446
x3,~,eta1,-0.1646950145749457
x6,~,eta2,-0.3672262222907029
x6,~,x1,-0.48033737579271635
x7,~,eta3,0.14607929931201502
x8,~,x2,0.9631343974805
x9,~,eta3,-0.3801728602469049
eta6,=~,y12,-0.3258990275188942
eta7,=~,y14,0.8022451964435879
eta8,=~,y16,-0.18105041255573365
eta1,=~,y2,0.3532843899274036
eta2,=~,y4,-1.0163680058115065
eta3,=~,y6,-0.6361181796419131
eta4,=~,y8,0.25599173706504696
eta5,=~,y9,-0.47297294218245683
eta1,~~,eta1,1.8413734196518436
eta2,~~,eta2,1.9841027364786772
eta3,~~,eta3,1.6148210716950717
eta4,~~,eta4,0.020472726273228523
eta4,~~,eta5,0.035956572789513024
eta4,~~,eta7,0.07290683254365707
eta4,~~,eta8,0.018682481268305417
eta4,~~,x6,-0.0022378973413359686
eta4,~~,x9,0.13522923600207507
eta5,~~,eta5,0.04699590682164372
eta5,~~,eta7,0.050981173926552305
eta5,~~,eta8,0.012311494118651475
eta5,~~,x6,0.011103996309712377
eta5,~~,x9,-0.0016995653829520241
eta6,~~,eta6,1.5710417300977477
eta7,~~,eta7,0.27869120571884065
eta7,~~,eta8,0.05208415998862934
eta7,~~,x6,0.00479215653658023
eta7,~~,x9,0.2642931225018747
eta8,~~,eta8,0.00022195789573444818
eta8,~~,x6,-0.009982821023444341
eta8,~~,x9,-0.00047980126867772544
x3,~~,x3,0.09852405004903342
x6,~~,x6,0.5008187506723775
x6,~~,x9,0.026470803990928833
x7,~~,x7,0.15842059712137838
x8,~~,x8,0.9873588743529874
x9,~~,x9,1.041999593982129
y10,~~,y10,4.990727367651013
y11,~~,y11,1.2348718597136237
y12,~~,y12,0.09574193688137217
y13,~~,y13,0.9731965545807993
y14,~~,y14,0.9634444400594501
y15,~~,y15,1.0874850126875175
y16,~~,y16,0.03969768772919416
y2,~~,y2,0.48412485432387864
y3,~~,y3,5.493627847939317
y4,~~,y4,2.3365675865672775
y5,~~,y5,2.051055149676709
y6,~~,y6,0.7210320436286243
y7,~~,y7,1.002630675519581
y8,~~,y8,0.04163534915855059
y9,~~,y9,0.0679203207718546
