lhs,op,rhs,est
eta1,~,x10,-0.08463199450803688
eta1,~,x7,0.5868120404337004
eta3,~,x8,-0.7089081108215279
eta5,~,eta8,-0.30762781883210955
eta5,~,x1,-0.7364931234763981
eta6,~,x7,0.7019564238899044
x1,~,eta4,0.21359937656760505
x2,~,x1,0.42557118089117973
x3,~,x1,0.5957682825662433
x3,~,x5,0.6382839751147656
x4,~,eta7,0.23488043602084616
x4,~,x1,0.9204995989489414
x8,~,eta1,0.7204478237557124
x8,~,eta2,0.3747050832402721
x8,~,x6,0.41187850564961953
x9,~,eta1,0.6375191723847584
x9,~,x4,0.9087325581478856
eta5,=~,y12,0.3186524215206868
eta6,=~,y14,0.16703577253223797
eta6,=~,y15,-0.7997762185537515
eta7,=~,y18,0.4574196768435286
eta8,=~,y19,-0.12938550543056518
eta1,=~,y2,-0.6742276244555071
eta1,=~,y3,-0.8492403446999407
eta2,=~,y5,0.9127238148206809
eta3,=~,y7,0.4208919580939547
eta4,=~,y8,-0.890429112433002
eta4,=~,y9,-0.29694000523115444
eta1,~~,eta1,0.29062889675704434
eta2,~~,eta2,1.3229660043617912
eta2,~~,eta4,0.22285983732611547
eta2,~~,eta7,0.05272888438819771
eta2,~~,eta8,-0.034013907430771394
eta3,~~,eta3,1.9240889030763235
eta3,~~,eta5,-0.15283619999526848
eta3,~~,eta6,-0.009214848212600978
eta3,~~,x2,-0.00996232792282121
eta3,~~,x3,0.1205668764735534
eta3,~~,x9,-0.20355422084217312
eta4,~~,eta4,1.617889579407619
eta4,~~,eta7,0.12899711025579474
eta4,~~,eta8,-0.09212374231993156
eta5,~~,eta5,1.0635850820456614
eta5,~~,eta6,0.08150642331133386
eta5,~~,x2,0.0228098861745961
eta5,~~,x3,0.014861255655490577
eta5,~~,x9,-0.08309947405257687
eta6,~~,eta6,0.4311402333568764
eta6,~~,x2,0.0007168367706826222
eta6,~~,x3,0.04903529395835422
eta6,~~,x9,-0.03343850595352612
eta7,~~,eta7,1.6746593474913294
eta7,~~,eta8,-0.06901097628417084
eta8,~~,eta8,1.7164524799491196
x1,~~,x1,0.04185063841234028
x2,~~,x2,0.21614280293166432
x2,~~,x3,-0.026794384872226462
x2,~~,x9,-0.04464754497948813
x3,~~,x3,1.0067517625801454
x3,~~,x9,0.038983158395226467
x4,~~,x4,0.8159092879066352
x8,~~,x8,0.661085938565033
x9,~~,x9,1.741875666890505
y1,~~,y1,2.241535863778857
y10,~~,y10,0.8362741163849939
y11,~~,y11,1.8967380179338273
y12,~~,y12,0.43523622602418577
y13,~~,y13,0.9272013372651335
y14,~~,y14,0.025485702863279617
y15,~~,y15,0.7514525287507549
y17,~~,y17,1.1305437585899638
y18,~~,y18,1.317791135683027
y19,~~,y19,0.0172957016595855
y2,~~,y2,0.6979909643522594
y3,~~,y3,1.4382356404949095
y4,~~,y4,1.176478399557774
y5,~~,y5,0.4720189293599837
y6,~~,y6,1.618541023049669
y7,~~,y7,0.48294562539890573
y8,~~,y8,0.953832229819322
y9,~~,y9,0.0939013732761341
