lhs,op,rhs,est
eta1,~,x1,0.3766171641903241
eta1,~,x9,-0.28257902272372676
eta2,~,x4,-0.26460306649270404
eta5,~,x2,0.4954643020365149
eta6,~,x2,-0.26263241934480624
eta7,~,eta3,-0.6851989219695003
eta8,~,x6,0.5593943787360622
x1,~,x7,1.0217785334078995
x10,~,eta1,-0.15051931223756437
x2,~,eta4,-0.6075113356924913
x2,~,x5,0.030104500363971186
x3,~,eta1,-0.7533328028930036
x5,~,eta1,0.06670480242867609
x5,~,eta7,0.5847222488752571
x5,~,eta8,0.38290786898108553
x6,~,eta2,0.9668613752727527
x8,~,x4,-0.6255743038913726
eta6,=~,y12,0.044666268748370874
eta7,=~,y14,-0.32978597838981816
eta1,=~,y2,-0.18871183055729712
eta2,=~,y4,-0.33365892261462987
eta3,=~,y6,-0.14964832301800232
eta4,=~,y8,-0.9088319540259777
eta5,=~,y9,0.7349410210415995
eta8,=~,y9,-0.4392383853801094
eta1,~~,eta1,0.34845151282818554
eta2,~~,eta2,0.14087642382981516
eta3,~~,eta3,1.7628484104210729
eta3,~~,eta4,0.10756098201343658
eta4,~~,eta4,1.5134615111394742
eta5,~~,eta5,0.4403111817075062
eta5,~~,eta6,-0.04067721929191613
eta5,~~,x10,0.006667757436052335
eta5,~~,x3,0.008693533620726595
eta5,~~,x8,-0.014177220620056049
eta6,~~,eta6,0.0
eta6,~~,x10,-0.02490907149399554
eta6,~~,x3,0.1439943552181281
eta6,~~,x8,0.02200132957718562
eta7,~~,eta7,0.522656857338902
eta8,~~,eta8,0.21618135904159422
x1,~~,x1,1.0108914899654515
x10,~~,x10,0.6129234355093434
x10,~~,x3,-0.00920303533152302
x10,~~,x8,-0.013657422205673833
x2,~~,x2,0.5070067195286929
x3,~~,x3,0.6713615243951674
x3,~~,x8,0.003342467883098846
x5,~~,x5,0.5443382409184251
x6,~~,x6,0.9771432942056745
x8,~~,x8,0.42003022192568257
y1,~~,y1,2.093371193732327
y10,~~,y10,1.7506731945846383
y11,~~,y11,2.107938118348031
y12,~~,y12,0.06261305861543112
y13,~~,y13,0.7559554743499507
y14,~~,y14,0.15083024200793402
y16,~~,y16,1.1986963385969471
y2,~~,y2,0.075390851463062
y3,~~,y3,0.8754530270494818
y4,~~,y4,0.08855395218048995
y5,~~,y5,0.838760115019801
y6,~~,y6,0.02374957234824892
y7,~~,y7,0.972583330684987
y8,~~,y8,0.7063277228463732
y9,~~,y9,1.8144547050753732
