lhs,op,rhs,est
eta1,~,x1,-1.0064611308804
eta1,~,x7,-1.1302517198135906
eta2,~,eta5,-0.5881562383055723
eta3,~,eta5,-0.2516235433753
eta4,~,eta5,-0.30122913033805576
eta4,~,x3,-1.1657817946089735
eta7,~,eta4,-0.06647448681848456
eta8,~,x7,-0.9767330556717696
x1,~,x8,-0.736329151665032
x10,~,eta1,-0.21239667999310835
x10,~,eta3,0.786879979882852
x10,~,eta6,-0.641540815856395
x2,~,eta3,0.7749526433458707
x4,~,eta3,-0.3345183146075704
x5,~,eta4,-0.012137495605785947
x7,~,x6,-0.5919165709708437
x9,~,x8,0.5131674356589828
eta6,=~,y12,0.11130796007769375
eta7,=~,y15,0.09562211576732918
eta8,=~,y17,-0.924069312324416
eta1,=~,y2,0.26526714277871516
eta2,=~,y4,0.5023548861532889
eta3,=~,y6,-0.5290577848266235
eta4,=~,y8,0.568835794563811
eta7,=~,y8,-0.33331184019831533
eta5,=~,y9,-0.7331667756871527
eta1,~~,eta1,1.8410521911633289
eta2,~~,eta2,0.35189259331292866
eta2,~~,eta7,-0.06383033580780362
eta2,~~,eta8,-0.07115021110121415
eta2,~~,x10,0.05726091602572461
eta2,~~,x2,0.05819984033636214
eta2,~~,x4,-0.027110443008217362
eta2,~~,x5,-0.011828466240980861
eta2,~~,x9,0.013165303582512148
eta3,~~,eta3,0.10685994847306572
eta4,~~,eta4,1.037616896643907
eta5,~~,eta5,1.4434110960218294
eta5,~~,eta6,-0.016149342825932278
eta6,~~,eta6,1.6504555239454843
eta7,~~,eta7,1.0550384022235115
eta7,~~,eta8,0.12096203051457978
eta7,~~,x10,0.07196740885718685
eta7,~~,x2,-0.13661545064095693
eta7,~~,x4,-0.004086789320365933
eta7,~~,x5,0.0552454515429986
eta7,~~,x9,0.03140754071862693
eta8,~~,eta8,0.8424529124847362
eta8,~~,x10,0.06486562319559067
eta8,~~,x2,-0.08335460781403216
eta8,~~,x4,0.0025857134390326175
eta8,~~,x5,0.0011545057995652616
eta8,~~,x9,0.0017091375819078436
x1,~~,x1,0.5879482326643899
x10,~~,x10,1.2040806960400232
x10,~~,x2,0.0584763241851859
x10,~~,x4,0.013836226282678126
x10,~~,x5,-0.014414059509443654
x10,~~,x9,-0.0037603244248016663
x2,~~,x2,0.84482221438047
x2,~~,x4,-0.004525372787282006
x2,~~,x5,-0.026419505971357313
x2,~~,x9,0.005516034735391839
x4,~~,x4,0.12381020172316376
x4,~~,x5,0.0005286875991012657
x4,~~,x9,-0.003211798421256291
x5,~~,x5,0.07155449692503839
x5,~~,x9,0.0016052891151552683
x7,~~,x7,0.35575966312999896
x9,~~,x9,0.2931823641009328
y1,~~,y1,1.915200689826139
y10,~~,y10,1.0779025659889248
y11,~~,y11,0.95417172482544
y12,~~,y12,0.012057106946557232
y14,~~,y14,0.7546585632124552
y15,~~,y15,0.021532324008402808
y16,~~,y16,0.8437335375336645
y17,~~,y17,1.235447326759205
y2,~~,y2,0.10231857863724132
y3,~~,y3,0.9747216394040797
y4,~~,y4,0.23798379628001337
y5,~~,y5,1.0787508401024377
y6,~~,y6,0.15395192535861196
y7,~~,y7,2.09603009480207
y8,~~,y8,0.7544472345817632
y9,~~,y9,0.3433431284178581
