lhs,op,rhs,est
eta1,~,eta2,-0.6837033079082382
eta2,~,eta5,0.5800514411074241
eta3,~,x4,0.6863785662217811
eta4,~,x4,0.29912520435222245
eta6,~,x4,-0.45744009379394196
eta7,~,eta8,0.0356425535694226
eta8,~,eta2,0.25172327819074664
eta8,~,x2,0.9970168544682279
x1,~,eta7,0.7580588295062503
x10,~,x7,0.06071683351550603
x3,~,eta7,0.8173587949809169
x5,~,eta4,-0.6516754272645646
x6,~,eta8,-0.038142265746354966
x7,~,eta8,-0.00031727340184450214
x7,~,x9,-0.4743418268778649
x8,~,eta2,0.6610724362288551
x8,~,eta4,0.712655301000607
eta5,=~,y12,-0.28270201124495226
eta5,=~,y13,0.5340534905202176
eta7,=~,y17,-0.5891348358150643
eta7,=~,y18,0.19777799557802317
eta8,=~,y20,-0.3776041134411474
eta8,=~,y21,0.1660792327289227
eta2,=~,y4,-0.46629968014712797
eta2,=~,y5,-0.10784646491086601
eta3,=~,y7,0.7864910555130882
eta1,=~,y8,0.11120686923548267
eta3,=~,y8,0.22826181187100328
eta4,=~,y9,1.1766204505274973
eta6,=~,y9,1.139068776893441
eta1,~~,eta1,0.34139267027190073
eta1,~~,eta3,-0.018264296955246666
eta1,~~,eta6,-0.07568203779415847
eta1,~~,x1,-0.006458802421381826
eta1,~~,x10,0.002425496007857273
eta1,~~,x3,0.03331077450883232
eta1,~~,x5,-0.0025757930755277714
eta1,~~,x6,0.01669316668644265
eta1,~~,x8,-0.009069434952668149
eta2,~~,eta2,0.3787405265130434
eta3,~~,eta3,0.4746605191391382
eta3,~~,eta6,0.02964094342675659
eta3,~~,x1,0.006385940809145047
eta3,~~,x10,-0.020947584669973256
eta3,~~,x3,-0.005978611395474999
eta3,~~,x5,0.01397133514440242
eta3,~~,x6,-0.008620320438038438
eta3,~~,x8,0.006278205847846074
eta4,~~,eta4,0.08934678106539151
eta5,~~,eta5,1.7684445651282323
eta6,~~,eta6,0.15431634075829717
eta6,~~,x1,0.008288505989427729
eta6,~~,x10,-0.038009217895822
eta6,~~,x3,-0.02713156467859448
eta6,~~,x5,0.010107068717018646
eta6,~~,x6,0.0006493601621802752
eta6,~~,x8,-0.01426612538904889
eta7,~~,eta7,0.23351337387505033
eta8,~~,eta8,1.101106185911038
x1,~~,x1,0.6407115430273093
x1,~~,x10,0.05054767061907964
x1,~~,x3,-0.06906508326337966
x1,~~,x5,-0.019302419694677234
x1,~~,x6,0.00475521028516703
x1,~~,x8,-0.024521044548512314
x10,~~,x10,0.980607003835416
x10,~~,x3,-0.032035942470461404
x10,~~,x5,-0.0018032866286839904
x10,~~,x6,-0.016939721983285257
x10,~~,x8,-0.026642538992880965
x3,~~,x3,0.5520306783216705
x3,~~,x5,0.006250838322610433
x3,~~,x6,-0.021181346072442674
x3,~~,x8,-0.017661159719763786
x5,~~,x5,0.3014164402213011
x5,~~,x6,0.011006335740802259
x5,~~,x8,-0.0008984950792227499
x6,~~,x6,0.5680443678984425
x6,~~,x8,-0.069193316592418
x7,~~,x7,0.2907190628208326
x8,~~,x8,0.6051189053791048
y10,~~,y10,1.0834958795206568
y11,~~,y11,0.9508581509338965
y12,~~,y12,0.09521750864344578
y13,~~,y13,0.33168785430191605
y14,~~,y14,0.9752382903314063
y16,~~,y16,0.9874056355559748
y17,~~,y17,0.6060668285029167
y18,~~,y18,0.01853635386621381
y19,~~,y19,1.9824562609569654
y2,~~,y2,1.2203168802762578
y20,~~,y20,0.24432788292753493
y21,~~,y21,0.05971606445311933
y3,~~,y3,1.0091626451635685
y4,~~,y4,0.19417365894672395
y5,~~,y5,0.010727936522507555
y6,~~,y6,1.034047842656641
y7,~~,y7,0.5798411984046314
y8,~~,y8,0.07430365602864178
y9,~~,y9,1.9772382923092742
