lhs,op,rhs,est
eta1,~,eta2,-0.5716487701282141
eta1,~,eta4,0.1008475133528702
eta2,~,eta7,0.5021150642057466
eta2,~,x6,-0.0927877673766101
eta3,~,eta2,-1.0347346932936028
eta5,~,x4,-0.975069859278932
eta5,~,x10,0.9569289151436335
eta6,~,x5,-0.7136318763951581
eta7,~,x9,-0.118923189482225
eta7,~,x7,-0.39309547188724037
eta7,~,x8,0.12697553192447392
eta8,~,x5,0.37949222066620897
x2,~,eta2,0.6116170285708936
x4,~,x3,-0.33021266948602307
x5,~,eta2,-0.7090921161083702
x9,~,eta5,0.024986200113914957
x9,~,x1,-0.45213140942154983
eta5,=~,y12,0.5189754955530754
eta6,=~,y14,0.6296024254102497
eta7,=~,y16,1.085003810986144
eta8,=~,y19,0.9295269433337947
eta1,=~,y2,-0.4308517473169849
eta1,=~,y3,0.26278490705595725
eta2,=~,y5,-0.7234899063347059
eta2,=~,y6,0.7797376623524522
eta7,=~,y6,0.5606927593292917
eta3,=~,y8,0.2638573667360863
eta4,=~,y9,-0.676449501599348
eta1,~~,eta1,0.31664829768956615
eta1,~~,eta3,0.09508789630370129
eta1,~~,eta6,-0.11744898721827615
eta1,~~,eta8,0.033952167211918294
eta1,~~,x2,-0.042062462263233874
eta2,~~,eta2,1.4203239208150833
eta3,~~,eta3,1.2899798162074467
eta3,~~,eta6,0.006141391711104713
eta3,~~,eta8,0.06545061661170154
eta3,~~,x2,-0.02974184659735318
eta4,~~,eta4,1.941967991179665
eta5,~~,eta5,1.8428856779248282
eta6,~~,eta6,0.5246545856061097
eta6,~~,eta8,0.0006730961655417792
eta6,~~,x2,0.011906391304653615
eta7,~~,eta7,1.3837399355564919
eta8,~~,eta8,0.19316896322025215
eta8,~~,x2,-0.03896701522585384
x2,~~,x2,0.31978049716259443
x4,~~,x4,0.1322304594014246
x5,~~,x5,0.4794911652886175
x9,~~,x9,0.2137882549023924
y1,~~,y1,2.149454298149737
y10,~~,y10,0.6556727832358475
y11,~~,y11,1.926096189675907
y12,~~,y12,0.4741951060099413
y13,~~,y13,0.8571203367805059
y14,~~,y14,0.4799009105192861
y15,~~,y15,3.0651463359701823
y16,~~,y16,2.1181173089036873
y18,~~,y18,0.9144826592168839
y19,~~,y19,1.27012600858165
y2,~~,y2,0.41358303078863157
y3,~~,y3,0.1626862153578837
y4,~~,y4,2.4777431501170164
y5,~~,y5,1.0802010932230246
y6,~~,y6,2.1703728024069737
y7,~~,y7,0.8708538073264198
y8,~~,y8,0.08204112003414778
y9,~~,y9,1.1634827010753255
