lhs,op,rhs,est
eta1,~,x4,-0.7348443004901976
eta2,~,x1,-0.5788834106502346
eta3,~,x1,-0.8407397908893621
eta4,~,x5,-0.34911427904142617
eta6,~,x7,-0.2816557521088642
eta7,~,x3,0.468094612094294
eta7,~,x2,0.22417437456264114
eta7,~,x9,-0.1618604089556072
eta8,~,x2,0.6090558921769659
x1,~,eta7,-0.40804562856824006
x10,~,x6,0.13602074916668308
x10,~,x4,-0.4220057214241509
x3,~,x10,-0.031037499352791587
x5,~,x3,0.9741964260783514
x5,~,x8,0.7675003650858778
x6,~,eta5,-0.13852150768260404
x7,~,x2,0.41030241585996846
eta5,=~,y12,0.862206599893363
eta5,=~,y13,1.031363470954377
eta7,=~,y17,0.12101423443268546
eta7,=~,y18,0.5912426516333028
eta1,=~,y2,0.6833273869745863
eta8,=~,y20,-1.0286059576801023
eta2,=~,y4,0.2363336944678891
eta2,=~,y5,0.3722400981511781
eta3,=~,y6,-0.5937820122680411
eta6,=~,y6,-0.37641877828578824
eta4,=~,y8,0.30359926444377605
eta4,=~,y9,-0.5013193405887681
eta1,~~,eta1,0.47094516299433764
eta1,~~,eta2,-0.13301014992721258
eta1,~~,eta3,-0.01165076982721164
eta1,~~,eta4,0.035583218558992685
eta1,~~,eta6,0.06626619440891027
eta1,~~,eta8,0.018319140938828502
eta2,~~,eta2,1.0724293729537064
eta2,~~,eta3,-0.3005082960336928
eta2,~~,eta4,0.008388774535021262
eta2,~~,eta6,0.4512671410413276
eta2,~~,eta8,-0.012743789216278221
eta3,~~,eta3,0.21126834505775485
eta3,~~,eta4,0.10979996802768602
eta3,~~,eta6,0.8812412047891993
eta3,~~,eta8,0.10056978357673305
eta4,~~,eta4,0.22671289525794824
eta4,~~,eta6,-0.12205903741977375
eta4,~~,eta8,0.028852952596259668
eta5,~~,eta5,1.51279318832708
eta6,~~,eta6,0.7455520527833732
eta6,~~,eta8,-0.19868726312638474
eta7,~~,eta7,0.22763597066199265
eta8,~~,eta8,0.4943492266255248
x1,~~,x1,0.5023398088520314
x10,~~,x10,0.2266251352803084
x3,~~,x3,0.8289909025994943
x5,~~,x5,1.451665760527099
x6,~~,x6,0.018891547742050423
x7,~~,x7,0.18229264757166647
y1,~~,y1,1.0420948593085224
y10,~~,y10,1.8051965678441095
y11,~~,y11,0.9921286071158931
y12,~~,y12,0.684564759471218
y13,~~,y13,1.1412671944574755
y14,~~,y14,4.5674168881878225
y16,~~,y16,3.0710251603781793
y17,~~,y17,0.05159023442008303
y18,~~,y18,1.4167433994757064
y19,~~,y19,0.892921990483213
y2,~~,y2,0.62819016521174
y20,~~,y20,0.5681165088637099
y3,~~,y3,2.7120783165496993
y4,~~,y4,0.2247778557861878
y5,~~,y5,0.4324709976664547
y6,~~,y6,0.5985096461982524
y8,~~,y8,0.1709187870054181
y9,~~,y9,0.4539644152994137
