lhs,op,rhs,est
eta1,~,x7,0.5532726317739981
eta2,~,x6,0.3279800798460442
eta3,~,x10,-0.8343098286538496
eta4,~,eta5,-0.048344994548622136
eta5,~,x3,-0.31334244366954134
eta6,~,eta2,-0.44397853356884864
eta7,~,x5,-0.6300173355505952
eta8,~,x5,0.5886823139903679
eta8,~,x10,-0.5016808867186751
x1,~,eta2,-0.5315018968317464
x2,~,x7,0.8207536533436582
x4,~,x5,0.5582024253458873
x4,~,x8,-0.6667680010715793
x5,~,x7,-0.5166657646541692
x5,~,x6,0.1642471794115517
x7,~,eta5,0.8954504639926744
x9,~,eta2,0.13656590091512197
eta4,=~,y11,0.9288459644790312
eta6,=~,y15,0.8441297744665248
eta5,=~,y17,0.5929413672567695
eta7,=~,y17,0.6432690055617685
eta8,=~,y19,-0.8476807577045473
eta1,=~,y2,-0.8127554817859952
eta1,=~,y3,0.1287461776548466
eta2,=~,y5,-0.8553017938060805
eta2,=~,y6,0.3499575858991897
eta3,=~,y8,-0.49393919557520294
eta4,=~,y9,4.0794949143253865
eta1,~~,eta1,0.4542263589988074
eta1,~~,eta3,-0.07289681671613263
eta1,~~,eta4,0.009243465851947194
eta1,~~,eta6,0.0524249589689193
eta1,~~,eta7,0.045795564363735136
eta1,~~,eta8,0.08823272018793224
eta1,~~,x1,0.0031711286159136435
eta1,~~,x2,-0.00909050464724958
eta1,~~,x4,0.05423364713084895
eta1,~~,x9,-0.01948057616493775
eta2,~~,eta2,0.13749452257114703
eta3,~~,eta3,0.77137917282014
eta3,~~,eta4,0.014256755968826605
eta3,~~,eta6,0.06090372177472713
eta3,~~,eta7,0.06276971539662263
eta3,~~,eta8,-0.07417215979163833
eta3,~~,x1,0.011105347030375355
eta3,~~,x2,-0.011151615284594771
eta3,~~,x4,0.09121220753300883
eta3,~~,x9,0.013593380107229934
eta4,~~,eta4,1.2489377415102158e-19
eta4,~~,eta6,0.002133068162171882
eta4,~~,eta7,0.010019313786749556
eta4,~~,eta8,-0.002732463123086584
eta4,~~,x1,-0.0037419142718725126
eta4,~~,x2,0.0036304871548940303
eta4,~~,x4,-0.0016344138514093297
eta4,~~,x9,0.000250029517612733
eta5,~~,eta5,0.1221802487503431
eta6,~~,eta6,0.2223077415138663
eta6,~~,eta7,0.06761815503751248
eta6,~~,eta8,-0.006016469904128577
eta6,~~,x1,-0.02700306727747923
eta6,~~,x2,0.005805458858450905
eta6,~~,x4,0.025872156859407587
eta6,~~,x9,0.00847633884169941
eta7,~~,eta7,0.7121474492562815
eta7,~~,eta8,-0.020288090535232565
eta7,~~,x1,-0.0015807227102092715
eta7,~~,x2,-0.016202424353762093
eta7,~~,x4,0.00576799176915958
eta7,~~,x9,-0.0053874338918743995
eta8,~~,eta8,0.6868233609512057
eta8,~~,x1,0.015923522228456815
eta8,~~,x2,-0.0577973339823818
eta8,~~,x4,0.018694343883219302
eta8,~~,x9,0.000432858266569449
x1,~~,x1,0.2807705268052263
x1,~~,x2,0.0006966974913225737
x1,~~,x4,-0.018049158643430964
x1,~~,x9,0.0002425789298125029
x2,~~,x2,0.6402356226433085
x2,~~,x4,0.023239072945132968
x2,~~,x9,-0.0015119297097001356
x4,~~,x4,1.0640036654790554
x4,~~,x9,0.004893446951741291
x5,~~,x5,0.3059500168844266
x7,~~,x7,0.5591495288359889
x9,~~,x9,0.019093813599834412
y1,~~,y1,0.9203256384153409
y10,~~,y10,1.0620646518490657
y11,~~,y11,0.5884297907130298
y13,~~,y13,1.1011361801185824
y14,~~,y14,0.8993422300600885
y15,~~,y15,1.1889349598829837
y16,~~,y16,1.1090439212784897
y17,~~,y17,0.3507689333942502
y18,~~,y18,1.7456413701891582
y19,~~,y19,1.4521781303437926
y2,~~,y2,0.9695693826404387
y3,~~,y3,0.02005689911309704
y4,~~,y4,0.9938173118416241
y5,~~,y5,0.8768561176120346
y6,~~,y6,0.08860928500141627
y7,~~,y7,0.7993405446630927
y8,~~,y8,0.25856420037200123
y9,~~,y9,0.23433630621855564
