lhs,op,rhs,est
eta1,~,x7,0.5070067718274535
eta2,~,x1,-1.071174020215966
eta4,~,eta3,0.9959444262306094
eta5,~,x9,0.6412027975298947
eta6,~,eta1,0.7060340191356862
eta7,~,eta1,0.6952430805528654
eta8,~,eta6,0.3656880311671877
eta8,~,x1,0.8672431239188745
x2,~,eta4,-0.3640537879921512
x3,~,x6,-0.7040328135666267
x4,~,eta6,-0.44683339420566587
x5,~,x9,0.4305988323088903
x6,~,eta4,-0.1630045567316271
x6,~,x9,-1.2900317211179955
x7,~,x8,0.2843338922667282
x8,~,x10,0.5964229462353391
x9,~,eta6,0.3520025958013093
eta4,=~,y11,0.21119295635545632
eta6,=~,y15,-0.7942204516020775
eta6,=~,y16,-0.1473216766274303
eta7,=~,y18,-0.1541954686101556
eta1,=~,y2,-0.8318537994844641
eta5,=~,y2,-0.051967798386734335
eta8,=~,y20,-0.2575796065944405
eta8,=~,y21,0.3570853593685128
eta2,=~,y4,-0.22573879666839824
eta2,=~,y5,0.19796851331921972
eta3,=~,y7,0.8682176844497127
eta3,=~,y8,-0.5272250443995495
eta4,=~,y9,-0.3448874182214484
eta1,~~,eta1,0.10527558106080548
eta2,~~,eta2,1.1038810823089595
eta2,~~,eta5,-0.018272798059347103
eta2,~~,eta7,0.04600948219504554
eta2,~~,eta8,-0.1889716289559219
eta2,~~,x2,-0.011466280827229294
eta2,~~,x3,-0.059991118448134075
eta2,~~,x4,-0.068179937070714
eta2,~~,x5,-0.011198100902435554
eta3,~~,eta3,1.4138963303998746
eta4,~~,eta4,1.0947476954106006
eta5,~~,eta5,1.4475978235634201
eta5,~~,eta7,-0.0783429248391657
eta5,~~,eta8,0.041813453248327255
eta5,~~,x2,-0.06810372409587301
eta5,~~,x3,0.010280636953470874
eta5,~~,x4,-0.036322619109882555
eta5,~~,x5,-0.007499842691996444
eta6,~~,eta6,0.0030750730059886273
eta7,~~,eta7,0.29296273683903584
eta7,~~,eta8,-0.09952275106117456
eta7,~~,x2,0.041217621498828114
eta7,~~,x3,0.012460001026365446
eta7,~~,x4,-0.01501786565250144
eta7,~~,x5,0.005663670203831226
eta8,~~,eta8,1.0659806134426992
eta8,~~,x2,0.02732450985651983
eta8,~~,x3,0.006725773592955351
eta8,~~,x4,0.023130747483952097
eta8,~~,x5,-0.04213592386634513
x2,~~,x2,0.0872881296271613
x2,~~,x3,-0.04778028820170321
x2,~~,x4,-0.007181471324715243
x2,~~,x5,-0.012855928586156992
x3,~~,x3,0.8627365512359662
x3,~~,x4,0.05628414032115964
x3,~~,x5,-0.005423233566816591
x4,~~,x4,0.441652705849385
x4,~~,x5,0.014978620159138695
x5,~~,x5,0.14210094733653306
x6,~~,x6,1.0286810935388084
x7,~~,x7,0.07734516826519525
x8,~~,x8,0.3596097087613491
x9,~~,x9,0.2324447597086801
y1,~~,y1,1.071648070041602
y10,~~,y10,0.9523700264007816
y11,~~,y11,0.9329497519604312
y13,~~,y13,0.0
y15,~~,y15,0.7030939204992953
y16,~~,y16,0.03733660992697378
y17,~~,y17,0.8611151028013407
y18,~~,y18,0.032097793509651446
y19,~~,y19,1.9936733025311382
y2,~~,y2,0.48608155584031226
y20,~~,y20,0.15198712303468356
y21,~~,y21,0.3205639429796268
y3,~~,y3,0.8716875266742043
y4,~~,y4,0.0635692223037755
y5,~~,y5,0.04926121495110159
y6,~~,y6,1.075724232513362
y7,~~,y7,0.5901472930948213
y8,~~,y8,0.3164207433538962
y9,~~,y9,0.10101678558286024
