lhs,op,rhs,est
eta1,~,x2,0.4794204903327913
eta2,~,x2,0.7715559621361481
eta3,~,x10,-0.2079581069326483
eta3,~,x8,-0.22182860535881985
eta4,~,x2,0.5562284602292539
eta5,~,x10,-0.757909215795679
eta6,~,x3,0.9397375562325643
eta7,~,x3,0.1549091588901131
eta7,~,x5,-0.8609709674219259
eta8,~,eta7,-0.05755755663583816
eta8,~,x2,0.9320243883836536
eta8,~,x4,0.12750111672093853
x1,~,x2,-0.8558557009293369
x3,~,x8,-0.27871469669696713
x5,~,x7,-0.5385325325040685
x6,~,x4,-0.4516316684955872
x9,~,x2,0.09629715462281307
eta5,=~,y11,0.7031854042723599
eta6,=~,y13,-0.7806182581112614
eta7,=~,y15,-0.8255734085749952
eta8,=~,y17,-0.6808209883718425
eta8,=~,y18,0.8031748141673006
eta1,=~,y2,0.6301923234595272
eta1,=~,y3,-0.21885964597307547
eta2,=~,y5,-0.28385093314217935
eta3,=~,y7,0.49459196493314195
eta4,=~,y9,-0.8196865248864341
eta1,~~,eta1,0.1773875579893467
eta1,~~,eta2,-0.11277436339179138
eta1,~~,eta3,-0.07718999401598214
eta1,~~,eta4,-0.0398024570464146
eta1,~~,eta5,0.05840934966547711
eta1,~~,eta6,0.007594464496446594
eta1,~~,eta8,0.00559528124957765
eta1,~~,x1,-0.040406767401972264
eta1,~~,x6,-0.0023044640528262273
eta1,~~,x9,0.00799511001289888
eta2,~~,eta2,0.6420097903343206
eta2,~~,eta3,0.0043201730097277855
eta2,~~,eta4,0.03540415558768308
eta2,~~,eta5,-0.0378724377514937
eta2,~~,eta6,0.011676971387116071
eta2,~~,eta8,-0.03652386875801726
eta2,~~,x1,-0.0025011900031360165
eta2,~~,x6,0.04403088031731197
eta2,~~,x9,-0.007243324277496187
eta3,~~,eta3,0.17733904661010563
eta3,~~,eta4,0.03220086437116408
eta3,~~,eta5,-0.07292709775855605
eta3,~~,eta6,-0.0067758612255797305
eta3,~~,eta8,0.14602769976401148
eta3,~~,x1,-0.028113466511926723
eta3,~~,x6,-0.018398702681642738
eta3,~~,x9,-0.009368435880425179
eta4,~~,eta4,0.31367357790173633
eta4,~~,eta5,0.0389579250060104
eta4,~~,eta6,0.029295733283728184
eta4,~~,eta8,-0.0440683476683771
eta4,~~,x1,-0.011782382514418847
eta4,~~,x6,0.074779328117099
eta4,~~,x9,0.0003986237568875072
eta5,~~,eta5,0.7454748207750881
eta5,~~,eta6,-0.04871963586822984
eta5,~~,eta8,0.10338540487793318
eta5,~~,x1,-0.07407522149007605
eta5,~~,x6,-0.007618424131891807
eta5,~~,x9,0.0024826154051001193
eta6,~~,eta6,0.6463075653645417
eta6,~~,eta8,-0.09235210973937132
eta6,~~,x1,0.04719479303522538
eta6,~~,x6,0.0015692006924448566
eta6,~~,x9,0.0015425268018149933
eta7,~~,eta7,0.751993294342519
eta8,~~,eta8,1.0507881128168335
eta8,~~,x1,0.022682639063385506
eta8,~~,x6,-0.02147354966630933
eta8,~~,x9,0.003590905753444234
x1,~~,x1,0.7562742538336203
x1,~~,x6,-0.06117757386913448
x1,~~,x9,0.004957260812190233
x3,~~,x3,0.06237926710533859
x5,~~,x5,0.22650235803140495
x6,~~,x6,0.18197139563038864
x6,~~,x9,0.0019244861036429599
x9,~~,x9,0.011225969715738441
y1,~~,y1,0.9733199553789651
y10,~~,y10,0.9810008824035497
y11,~~,y11,0.46658317610278094
y12,~~,y12,1.1885863556229064
y13,~~,y13,0.45763234485749127
y14,~~,y14,2.1327671469859446
y15,~~,y15,0.798265919317905
y16,~~,y16,2.701391606969943
y17,~~,y17,1.7118532666901516
y18,~~,y18,2.152236035022893
y2,~~,y2,0.5160666653524383
y3,~~,y3,0.04536013796700229
y4,~~,y4,2.965101677721838
y5,~~,y5,0.058427394675972674
y7,~~,y7,0.5489270414286914
y8,~~,y8,1.150993684909759
y9,~~,y9,0.6608366358815878
