lhs,op,rhs,est
eta4,~,eta1,-0.8930776236531597
eta5,~,eta3,-0.63487327142357
eta6,~,eta1,0.5722457609808047
eta6,~,eta7,-0.33419682358601593
eta6,~,x4,-0.4929398892901385
eta6,~,x6,0.6452789020021747
eta8,~,x10,-1.408282386454591
x1,~,x8,0.24229290539265505
x10,~,x2,1.658513570481634
x10,~,x8,0.06131819601276149
x2,~,eta5,0.13747770196693102
x3,~,x2,-0.08590130374033708
x3,~,x5,-0.7437184244596585
x7,~,eta2,0.10056070457161885
x8,~,eta1,0.9578794623958798
x8,~,eta2,-0.20747902466131773
x9,~,eta5,0.24609226740757337
eta4,=~,y11,0.5183085219576119
eta5,=~,y13,-0.7919991096628988
eta5,=~,y14,-0.7150773011716113
eta6,=~,y15,0.7552818061122824
eta6,=~,y16,-0.9979112913289723
eta7,=~,y19,-0.5099813575885713
eta1,=~,y2,0.2181140785178171
eta7,=~,y20,-0.8899308510385084
eta8,=~,y22,0.2883508718176081
eta2,=~,y4,-1.0024227130780967
eta2,=~,y5,-0.9019334705984736
eta3,=~,y7,-0.9429109219105911
eta3,=~,y8,-0.9960096725325556
eta4,=~,y9,-0.2618826331699749
eta1,~~,eta1,1.8293402980395337
eta1,~~,eta2,0.134936766406933
eta1,~~,eta3,0.029905030144182502
eta1,~~,eta7,-0.037488488271333324
eta2,~~,eta2,1.6897951463342638
eta2,~~,eta3,-0.2562153658399457
eta2,~~,eta7,-0.035416341543044606
eta3,~~,eta3,1.912007593491263
eta3,~~,eta7,0.02907562763342014
eta4,~~,eta4,1.0765116507325239
eta4,~~,eta6,-0.19080335935395926
eta4,~~,eta8,0.07660713782635706
eta4,~~,x1,0.04903063544030535
eta4,~~,x3,0.0008594543542034956
eta4,~~,x7,0.011881288001962876
eta4,~~,x9,-0.018473551216957783
eta5,~~,eta5,0.3438122995619635
eta6,~~,eta6,1.6222506338079434
eta6,~~,eta8,0.11501492765110957
eta6,~~,x1,-0.06746318528663478
eta6,~~,x3,0.1857577909489129
eta6,~~,x7,0.002153572916226571
eta6,~~,x9,0.04195803339637249
eta7,~~,eta7,1.382517743530347
eta8,~~,eta8,0.2623821890301407
eta8,~~,x1,-0.013193823719371124
eta8,~~,x3,-0.08809907343711512
eta8,~~,x7,-0.0010035236412604348
eta8,~~,x9,0.028015967281278514
x1,~~,x1,0.1425607055792704
x1,~~,x3,0.002842316231955262
x1,~~,x7,0.003131700826092889
x1,~~,x9,0.004968980333166307
x10,~~,x10,0.4502703391652013
x2,~~,x2,0.005382661829522316
x3,~~,x3,0.6466554941432185
x3,~~,x7,0.00887989592930182
x3,~~,x9,-0.014868145908874258
x7,~~,x7,0.011901839487367984
x7,~~,x9,0.00016760703315231586
x8,~~,x8,1.3853369942008187
x9,~~,x9,0.05043600438761587
y1,~~,y1,5.0152115858552095
y10,~~,y10,2.8999784001619693
y11,~~,y11,0.23605895450185918
y12,~~,y12,0.934508320169758
y13,~~,y13,0.7450203671081503
y14,~~,y14,0.7626794406151693
y15,~~,y15,1.6053262797909285
y16,~~,y16,4.163594624533325
y18,~~,y18,1.3761381138465545
y19,~~,y19,0.10833130834367179
y2,~~,y2,0.053104518197352554
y20,~~,y20,0.3154112902131238
y22,~~,y22,0.1540502165794091
y3,~~,y3,1.0667321025855006
y4,~~,y4,0.9158268045506703
y5,~~,y5,0.8305535394511383
y6,~~,y6,0.8957952268069381
y7,~~,y7,0.9810870938079886
y8,~~,y8,1.4394453801460287
y9,~~,y9,0.06352618110717367
