lhs,op,rhs,est
eta1,~,eta6,-0.31090649895497563
eta1,~,x1,-0.38304037847642397
eta3,~,eta2,-1.2028316864442712
eta4,~,eta5,-0.5257582375629023
eta4,~,x4,-0.9662875114318545
eta4,~,x10,0.6345980254364166
eta7,~,eta8,0.12298261249011315
eta7,~,x3,0.7788389376724342
eta8,~,x9,1.002328063923097
eta8,~,x1,0.9028790097833245
eta8,~,x2,0.6891461421922892
x4,~,x9,0.8061078243702268
x5,~,x1,0.5423551951845731
x7,~,x4,-0.3862705828670536
x7,~,x6,0.12573720223379975
x8,~,eta8,0.6522582045227941
x9,~,eta3,-0.9455765622781415
eta5,=~,y12,0.2140353457259057
eta5,=~,y13,-0.3969464235258302
eta7,=~,y17,0.554862260870921
eta7,=~,y18,-0.9076782140532931
eta1,=~,y2,-0.18176783579594352
eta6,=~,y2,-0.28568289945710207
eta8,=~,y20,-0.3409217610873563
eta8,=~,y21,0.9618301089434311
eta2,=~,y3,-0.4353811698316965
eta2,=~,y4,0.4589608934316192
eta3,=~,y7,0.245677786818672
eta4,=~,y8,0.646251707398006
eta4,=~,y9,-0.8341201185277278
eta1,~~,eta1,1.0837569864810473e-17
eta1,~~,eta4,0.21172490313231912
eta1,~~,eta7,0.11041739134439842
eta1,~~,x5,0.12190830731180968
eta1,~~,x7,-0.01858288918594617
eta1,~~,x8,0.18496904476368792
eta2,~~,eta2,1.3159844376186063
eta2,~~,eta5,-0.03960474377718445
eta2,~~,eta6,-0.1389365284537826
eta3,~~,eta3,0.3019311377557643
eta4,~~,eta4,2.444217625539299
eta4,~~,eta7,-0.20966370068558987
eta4,~~,x5,-0.01079451446964558
eta4,~~,x7,-0.043023744910049476
eta4,~~,x8,-0.1799316635022039
eta5,~~,eta5,2.198871039526673
eta5,~~,eta6,-0.07988591915975295
eta6,~~,eta6,2.1774278088279564
eta7,~~,eta7,0.7297771727895591
eta7,~~,x5,0.0836700571923572
eta7,~~,x7,-0.03841693992839147
eta7,~~,x8,-0.0016393343038088501
eta8,~~,eta8,1.4857205227460235
x4,~~,x4,0.4015930836779626
x5,~~,x5,0.4061959289800424
x5,~~,x7,-0.010077549369842785
x5,~~,x8,0.08524230237038054
x7,~~,x7,0.18803888714356304
x7,~~,x8,-0.032882038006363634
x8,~~,x8,2.3290116445236064
x9,~~,x9,1.0764300463902785
y1,~~,y1,3.5676167032380137
y10,~~,y10,2.7984278097117445
y11,~~,y11,0.5112040824543719
y12,~~,y12,0.05619593588779064
y13,~~,y13,0.3070985175394764
y15,~~,y15,0.4056440357052396
y16,~~,y16,2.006099191698303
y17,~~,y17,0.7650054483308494
y18,~~,y18,1.6559882698904238
y19,~~,y19,2.6892144914214335
y2,~~,y2,0.38234831819265463
y20,~~,y20,0.38478059406782034
y21,~~,y21,3.517326831588172
y3,~~,y3,0.15892981290085284
y4,~~,y4,0.21165135723614126
y6,~~,y6,1.118110832521039
y7,~~,y7,0.05310791777424368
y8,~~,y8,1.436237702736694
y9,~~,y9,3.51014023101987
