lhs,op,rhs,est
eta2,~,eta4,-0.20862958916862576
eta3,~,x5,0.10508839596152915
eta4,~,eta1,0.3228350325145988
eta4,~,x7,-0.5638558969850405
eta5,~,x10,0.7477438212842868
eta5,~,x2,-0.41599579181032664
eta5,~,x9,0.5246969818281584
eta6,~,x1,0.23294103250021542
eta7,~,x10,-0.32691542799010914
eta7,~,x5,-0.37083716103356007
eta7,~,x8,-0.525280274386248
x1,~,eta8,0.4294327298642813
x10,~,eta6,0.5077717488619057
x3,~,eta1,-1.0079215191310296
x4,~,eta4,-0.12934713637137854
x5,~,x3,0.18732135859395443
x8,~,x6,0.8218786915404844
eta1,=~,y10,0.8121130877383845
eta4,=~,y11,0.98333213764453
eta5,=~,y13,-1.2107543889273795
eta5,=~,y14,0.2727849032907205
eta6,=~,y16,0.39060502235713646
eta6,=~,y17,-0.22468327375373262
eta7,=~,y19,0.4100068358284204
eta1,=~,y2,1.0036289223919848
eta7,=~,y20,0.5696089728223317
eta8,=~,y22,-0.23378927329775562
eta2,=~,y6,0.4635472195113602
eta2,=~,y8,-0.3381137334755094
eta3,=~,y8,-9.061510796401418
eta3,=~,y9,-0.8138985586747164
eta1,~~,eta1,1.6627284666488378
eta1,~~,eta8,0.001172391539637567
eta2,~~,eta2,1.044254641255293
eta2,~~,eta3,0.08187724550917842
eta2,~~,eta5,-0.05822377861508585
eta2,~~,eta7,-0.1810160666967583
eta2,~~,x4,0.050618940654543525
eta3,~~,eta3,0.0006875154559625248
eta3,~~,eta5,-0.005299610245097068
eta3,~~,eta7,0.007134850041817757
eta3,~~,x4,0.002428171183653276
eta4,~~,eta4,0.3367379013450808
eta5,~~,eta5,0.49211727568850877
eta5,~~,eta7,-0.05462942464947444
eta5,~~,x4,-0.07981065585356073
eta6,~~,eta6,0.0
eta7,~~,eta7,0.5072000766476406
eta7,~~,x4,-0.03172742215366106
eta8,~~,eta8,1.9434519779583423
x1,~~,x1,0.2209907029106188
x10,~~,x10,2.731566138118088e-17
x3,~~,x3,0.829913247375576
x4,~~,x4,0.13853699196373007
x5,~~,x5,0.0
x8,~~,x8,0.5481704589640481
y1,~~,y1,1.0178890079623721
y10,~~,y10,3.1129512392808065
y11,~~,y11,2.155445906111309
y12,~~,y12,3.1128006554131136
y13,~~,y13,3.4120417835909027
y14,~~,y14,0.28685063336716504
y15,~~,y15,1.1986220699750876
y16,~~,y16,0.06722312322254465
y17,~~,y17,0.11391848427658992
y18,~~,y18,2.9091397894999456
y19,~~,y19,0.33569170149934924
y2,~~,y2,0.98845933156954
y20,~~,y20,0.663104104539635
y21,~~,y21,0.6433971625686741
y22,~~,y22,0.06825861615927864
y5,~~,y5,1.0772555878031842
y6,~~,y6,0.22529241825389534
y7,~~,y7,1.0219393853652265
y8,~~,y8,1.5416539599460308
y9,~~,y9,0.24413567393752134
