lhs,op,rhs,est
eta3,~,eta4,-0.9375510899050846
eta3,~,x9,-0.37194897369609514
eta4,~,x10,-0.18195571269258903
eta6,~,x5,-0.5177444567443885
eta7,~,eta1,0.6865600085291955
eta7,~,eta2,-0.795686577855306
eta7,~,eta3,-0.07553699675302698
eta7,~,eta8,-0.5298255715753578
eta8,~,x6,0.3912743401580427
x1,~,x2,0.5744879182142831
x2,~,eta2,0.42864128441357735
x2,~,x4,-0.2409634583490718
x3,~,x1,0.8268444373470188
x5,~,eta5,0.7675151385637391
x5,~,eta8,0.7869597109314135
x5,~,x8,0.4062496526267292
x7,~,x5,0.21025312235104054
eta5,=~,y12,0.757106037760592
eta7,=~,y16,0.41826211026543775
eta8,=~,y18,-0.6189149953697571
eta8,=~,y19,0.40149532520676684
eta1,=~,y2,1.2059198754985254
eta6,=~,y2,0.7789734988939176
eta2,=~,y4,-0.25015804443795053
eta2,=~,y5,-0.3550097654426163
eta3,=~,y7,0.5576042127469978
eta3,=~,y8,0.2859861934738008
eta4,=~,y9,0.3788160349930351
eta1,~~,eta1,1.3645801910915776
eta1,~~,eta2,-0.19430380329459335
eta1,~~,eta5,-0.12695551002179203
eta2,~~,eta2,1.984072710798544
eta2,~~,eta5,0.016135501307267125
eta3,~~,eta3,1.643543378495224
eta4,~~,eta4,0.005922731364579937
eta5,~~,eta5,1.6311873718725345
eta6,~~,eta6,2.0675696144660485
eta6,~~,eta7,-0.02685932879525826
eta6,~~,x3,-0.012121922626575856
eta6,~~,x7,-0.12032083371190255
eta7,~~,eta7,1.8253659813684087
eta7,~~,x3,0.04412529934846882
eta7,~~,x7,0.07196552898746372
eta8,~~,eta8,0.1348934325627106
x1,~~,x1,0.5828663467102765
x2,~~,x2,0.29866939559467987
x3,~~,x3,0.7668511061334946
x3,~~,x7,-0.003753220684720358
x5,~~,x5,1.35932371216819
x7,~~,x7,0.253084958708851
y1,~~,y1,1.0336104731569427
y10,~~,y10,0.9864497201000689
y11,~~,y11,1.0165698400090712
y12,~~,y12,0.6360873067704752
y13,~~,y13,2.3900435454182167
y15,~~,y15,4.110457142950936
y16,~~,y16,0.6349753390155438
y17,~~,y17,1.0767105163121233
y18,~~,y18,0.48947390781138606
y19,~~,y19,0.2445107267864283
y2,~~,y2,1.0511199629816803
y3,~~,y3,0.7889471171750919
y4,~~,y4,0.08411464519389013
y5,~~,y5,0.15077968507297695
y6,~~,y6,2.058165993661312
y7,~~,y7,0.5645484223235814
y8,~~,y8,0.19646558570056968
y9,~~,y9,0.11596956962673607
