lhs,op,rhs,est
eta1,~,eta8,-0.5029232364949384
eta2,~,eta3,-0.8467479905079801
eta4,~,eta7,-1.259849688482811
eta5,~,x8,-0.4225721918462636
eta6,~,x2,1.0718631966410936
eta6,~,x5,0.7991185802797277
eta7,~,x8,-0.731906769551868
eta8,~,x9,0.14812486294465527
x10,~,eta4,-0.20516210483479638
x2,~,x7,0.85467644386435
x2,~,x1,0.03801003700011958
x3,~,x8,-0.5743621285690207
x4,~,eta1,0.6745662842271942
x6,~,eta1,-0.9035614811726457
x7,~,eta3,0.7264096667841808
x8,~,eta1,-0.33895351994349954
x8,~,x7,0.2638542253252637
eta5,=~,y11,-0.4794839980886159
eta5,=~,y12,-0.34991313120758577
eta6,=~,y14,1.0109597155780459
eta6,=~,y15,1.0932305145587098
eta7,=~,y16,-0.4854111960900145
eta7,=~,y18,-0.5015193927451795
eta1,=~,y2,-0.613850672446185
eta8,=~,y20,0.24630740766033055
eta8,=~,y21,-0.4447376695545784
eta2,=~,y4,0.9354364939459655
eta2,=~,y5,-0.8505758338440779
eta3,=~,y7,-0.17636037775712976
eta4,=~,y9,-0.5648824538636091
eta1,~~,eta1,0.4155788854345344
eta2,~~,eta2,1.0343241340715836
eta2,~~,eta5,-0.14510208740284702
eta2,~~,eta6,-0.049421737231750015
eta2,~~,x10,-0.0357542613534233
eta2,~~,x3,-0.013707861873324526
eta2,~~,x4,0.08289019874015272
eta2,~~,x6,0.04127549458188807
eta3,~~,eta3,1.9955243310846973
eta4,~~,eta4,0.9184835696744895
eta5,~~,eta5,0.339945351532405
eta5,~~,eta6,-0.0016630956632876109
eta5,~~,x10,-0.007881128120120437
eta5,~~,x3,-0.007897085271488151
eta5,~~,x4,-0.019553819502691503
eta5,~~,x6,-0.09878422509473761
eta6,~~,eta6,1.6152274922205747
eta6,~~,x10,-0.0019950714311233303
eta6,~~,x3,0.04837614408780307
eta6,~~,x4,0.06949423790953925
eta6,~~,x6,-0.0008653304109603783
eta7,~~,eta7,0.8193899892903377
eta8,~~,eta8,0.10815787728482944
x10,~~,x10,0.03717281031261865
x10,~~,x3,-0.009336282404850115
x10,~~,x4,-0.024631065380327277
x10,~~,x6,0.022244457523494847
x2,~~,x2,0.8372802953683357
x3,~~,x3,0.47785155981084465
x3,~~,x4,0.0446717541290397
x3,~~,x6,-0.10174207830788344
x4,~~,x4,1.022030467390189
x4,~~,x6,-0.08707206449436976
x6,~~,x6,0.9683899661304901
x7,~~,x7,0.6310532174465211
x8,~~,x8,0.23584467375167598
y1,~~,y1,1.9639047248036512
y10,~~,y10,1.8805313713384983
y11,~~,y11,0.6611033057585817
y12,~~,y12,0.6005684774222705
y13,~~,y13,2.1604912246469055
y14,~~,y14,1.880881296772563
y15,~~,y15,1.7702061996843754
y16,~~,y16,0.28987083777713685
y18,~~,y18,1.105586847698096
y19,~~,y19,0.8998123045206604
y2,~~,y2,0.47873235352422433
y20,~~,y20,0.48179882112206995
y21,~~,y21,0.2514447037987055
y4,~~,y4,0.6745006644543833
y5,~~,y5,0.6417334632831028
y6,~~,y6,0.7042771709435098
y7,~~,y7,0.04127412676154759
y8,~~,y8,1.187469933997741
y9,~~,y9,0.17265757108873095
