lhs,op,rhs,est
eta1,~,eta2,0.5975987320554902
eta1,~,eta6,-0.3025299096110764
eta3,~,eta7,-0.07605508680963635
eta3,~,x6,0.47356577104917447
eta7,~,x2,0.42698183559159747
eta8,~,eta4,-0.20941760332863527
x1,~,eta7,-0.2963765366486353
x10,~,x4,-0.005785970919202468
x2,~,eta5,-0.16585676361006818
x2,~,x5,-0.9427805905231507
x3,~,x6,-0.16230964383216478
x4,~,x6,0.13248798554546942
x4,~,x7,0.73417107564106
x5,~,eta1,0.12333066419220398
x8,~,x5,0.7904408347909871
x9,~,eta4,-0.7614015994871215
x9,~,x2,0.43655435787556607
eta5,=~,y11,-0.528154639902851
eta5,=~,y12,-1.0045578446045256
eta6,=~,y14,-0.93068657200232
eta7,=~,y15,0.22035441779583326
eta7,=~,y17,0.3362473668621838
eta8,=~,y19,0.6760974007656374
eta1,=~,y2,-0.7674667382494249
eta8,=~,y20,-0.363266007190069
eta2,=~,y4,-0.5619385381112147
eta3,=~,y5,-0.34326318421719293
eta3,=~,y6,-0.14075653518704934
eta4,=~,y9,0.935040583522728
eta1,~~,eta1,0.07396956726938293
eta2,~~,eta2,1.0829765013382315
eta2,~~,eta4,0.014883775260047603
eta2,~~,eta5,0.08234276581321154
eta2,~~,eta6,0.0615996815920089
eta3,~~,eta3,0.37861687685686446
eta3,~~,eta8,0.13471741252473293
eta3,~~,x1,0.005117967861977996
eta3,~~,x10,-0.031220344638996988
eta3,~~,x3,0.021795194531348434
eta3,~~,x8,-0.02293419753114703
eta3,~~,x9,-0.11659210568935723
eta4,~~,eta4,1.64589975535588
eta4,~~,eta5,0.1005449707211966
eta4,~~,eta6,-0.017370059269060364
eta5,~~,eta5,1.3715419639294248
eta5,~~,eta6,0.17793780681439825
eta6,~~,eta6,1.2405889143746414
eta7,~~,eta7,0.3728186233900004
eta8,~~,eta8,0.05081240429648324
eta8,~~,x1,-0.05224073570421986
eta8,~~,x10,0.0037464324007571454
eta8,~~,x3,0.006947343991155602
eta8,~~,x8,0.04740114708389148
eta8,~~,x9,-0.016389632158157894
x1,~~,x1,0.6332729910831516
x1,~~,x10,-0.005845670457945915
x1,~~,x3,-0.0023568007190817447
x1,~~,x8,-0.037742040467457875
x1,~~,x9,0.0032762380870541164
x10,~~,x10,0.0616583802394924
x10,~~,x3,0.010247240105574922
x10,~~,x8,-0.021410680831124438
x10,~~,x9,-0.025963890598884265
x2,~~,x2,0.4655161406988711
x3,~~,x3,0.029158094733845945
x3,~~,x8,-0.020990375198483083
x3,~~,x9,0.0038059087285935724
x4,~~,x4,0.5395008532251299
x5,~~,x5,0.09472622830818288
x8,~~,x8,1.2645189215269346
x8,~~,x9,0.10814552632445198
x9,~~,x9,1.184940456160638
y1,~~,y1,1.9740975606233113
y10,~~,y10,1.0347029016050016
y11,~~,y11,0.18581567344452013
y12,~~,y12,0.932202308634991
y13,~~,y13,2.4437429891070916
y14,~~,y14,0.24880269483638245
y15,~~,y15,0.05400776439831825
y17,~~,y17,0.31622935597766233
y18,~~,y18,1.1226733340427062
y19,~~,y19,0.38219720405551577
y2,~~,y2,1.1853967160849674
y20,~~,y20,0.06039438578532436
y3,~~,y3,1.627093954213117
y4,~~,y4,1.8773805510936918
y5,~~,y5,0.20904093964457168
y6,~~,y6,0.04049745768081596
y8,~~,y8,0.913135558899067
y9,~~,y9,0.8858433800818111
