lhs,op,rhs,est
eta1,~,eta2,-0.07569630641115617
eta2,~,eta4,0.19857593506791174
eta5,~,x1,-0.5958990052194141
eta6,~,x9,-0.962084899516373
eta6,~,x4,0.7528720765391348
x10,~,x9,-0.1003973699495614
x10,~,x8,-0.23025868322423396
x2,~,x7,0.07870616105240229
x3,~,eta2,0.29487462938966735
x5,~,eta3,-1.1627949221429301
x6,~,eta8,0.5387971418520456
x6,~,x1,-0.49867495734231015
x7,~,eta7,-0.9415494784969141
x7,~,x10,-0.006074130679910951
x7,~,x1,0.34930648544050696
x9,~,x3,1.148702360191033
x9,~,x5,0.2508649101884376
eta5,=~,y11,0.2859495509245145
eta6,=~,y13,0.3490689148478839
eta6,=~,y14,-0.7658130223689381
eta7,=~,y16,0.33842190784728476
eta1,=~,y2,-3.0276836571052432
eta2,=~,y4,0.26340631195698133
eta3,=~,y6,0.13302127443356876
eta4,=~,y8,-1.0394384827063325
eta8,=~,y8,0.13660913133104177
eta4,=~,y9,0.23406020441036843
eta1,~~,eta1,0.027593827087111666
eta1,~~,eta5,-0.007185274158914521
eta1,~~,eta6,-0.010534711641384755
eta1,~~,x2,-0.007892417410888345
eta1,~~,x6,0.0036868834697453058
eta2,~~,eta2,0.04368680743527497
eta3,~~,eta3,1.456204394408073
eta3,~~,eta4,-0.14551800578331914
eta3,~~,eta7,0.003418016350645904
eta3,~~,eta8,0.11018830492766596
eta4,~~,eta4,1.846667429947084
eta4,~~,eta7,0.0326564055957355
eta4,~~,eta8,-0.09936753936724642
eta5,~~,eta5,0.4508954518818673
eta5,~~,eta6,-0.1337358240541816
eta5,~~,x2,0.035659187884611664
eta5,~~,x6,0.03720759834643324
eta6,~~,eta6,1.9165058825451697
eta6,~~,x2,0.017151059242963382
eta6,~~,x6,0.050028822668846354
eta7,~~,eta7,1.2220631097482049
eta7,~~,eta8,-0.0766720300904643
eta8,~~,eta8,2.5021479703132474
x10,~~,x10,0.06556770077407985
x2,~~,x2,0.32311724445290796
x2,~~,x6,0.06394209106019386
x3,~~,x3,0.06315349188685293
x5,~~,x5,0.9091817758076387
x6,~~,x6,1.5763318997217433
x7,~~,x7,1.0149944953566912
x9,~~,x9,0.49082695222778727
y1,~~,y1,1.2080408177183224
y10,~~,y10,1.0373125891945687
y11,~~,y11,0.08271776831362287
y12,~~,y12,2.670956261617399
y13,~~,y13,0.36908718353229003
y14,~~,y14,2.2235347932529006
y15,~~,y15,1.1506353579645165
y16,~~,y16,0.08812370571466135
y18,~~,y18,4.009835219242119e-17
y2,~~,y2,0.0
y3,~~,y3,1.0383487955135304
y4,~~,y4,0.052511109050920206
y5,~~,y5,1.0201870964721977
y6,~~,y6,0.025458770371807295
y7,~~,y7,1.0109679230523747
y8,~~,y8,1.2973513148270175
y9,~~,y9,0.05344310449272866
