lhs,op,rhs,est
eta1,~,x5,-0.94631675127004
eta2,~,eta3,0.8342745130712459
eta2,~,x10,-0.3082370155274086
eta4,~,eta3,-0.31462030556509407
x1,~,x10,0.48246310235889694
x10,~,x7,0.40682089244695
x10,~,x6,0.6288980715305602
x4,~,x3,-0.4809865734844486
x5,~,eta3,0.17814624167993912
x7,~,eta2,0.058642372727070645
x7,~,x4,-0.30821645730640224
x7,~,x2,0.6248741708069984
x8,~,x6,0.2221662560441552
x9,~,x4,-0.7282043504254767
eta1,=~,y2,-0.34434254699008837
eta2,=~,y4,-0.329469970119477
eta2,=~,y5,0.7995336066264871
eta3,=~,y7,0.8882180701197518
eta3,=~,y8,0.2073015558386272
eta4,=~,y8,-0.535050452566299
eta4,=~,y9,0.17824665270598464
eta1,~~,eta1,0.4601795943133926
eta1,~~,eta4,-0.024573579017945466
eta1,~~,x1,0.023340613380443
eta1,~~,x8,-0.015024706650298356
eta1,~~,x9,0.01452397663529983
eta2,~~,eta2,0.9830971343479018
eta3,~~,eta3,1.6386955241196441
eta4,~~,eta4,0.030071028666672515
eta4,~~,x1,0.04563988353504658
eta4,~~,x8,0.009355265740759101
eta4,~~,x9,0.011566419892208621
x1,~~,x1,1.1555357420317414
x1,~~,x8,-0.0022729406744100354
x1,~~,x9,0.10615463019865946
x10,~~,x10,0.8817572491159712
x4,~~,x4,0.211007629574605
x5,~~,x5,0.034619374972642725
x7,~~,x7,0.8063230524522498
x8,~~,x8,0.03945763064026451
x8,~~,x9,0.007082640456800634
x9,~~,x9,0.45379628016221046
y1,~~,y1,1.1045333690133812
y11,~~,y11,0.8720964174611018
y2,~~,y2,0.11271109525044076
y3,~~,y3,2.166537236435432
y4,~~,y4,0.1506542660129906
y5,~~,y5,1.0852829668943547
y6,~~,y6,0.837729392353747
y7,~~,y7,0.976127693548026
y8,~~,y8,0.1430385407151199
y9,~~,y9,0.027999828983068718
