lhs,op,rhs,est
eta1,~,eta3,0.7821881505351889
eta4,~,x1,-0.5831688098623105
eta4,~,x7,0.08258201164113706
x1,~,x10,0.8036474772592618
x1,~,x4,-0.6385869124934317
x10,~,eta4,-0.029737369431451124
x3,~,eta2,-0.5841350923782107
x3,~,x7,0.9447426125393451
x6,~,eta1,-0.5257322149383249
x6,~,x7,0.5812846341565514
x7,~,x2,-0.6322540508924661
x8,~,x5,0.19360595369267294
x9,~,eta1,-0.460963248450905
x9,~,x8,-0.6049159020701531
eta1,=~,y2,0.7607955811109641
eta2,=~,y4,-0.3670516687209171
eta3,=~,y6,0.9576561728039893
eta4,=~,y8,-0.3346645988990435
eta1,~~,eta1,0.4934517330452814
eta2,~~,eta2,1.3678953556211735
eta2,~~,eta3,-0.14123692315628064
eta3,~~,eta3,1.844519265369278
eta4,~~,eta4,0.5959959242301593
x1,~~,x1,0.9278672921457649
x10,~~,x10,0.2093877349013582
x3,~~,x3,1.0056053868686545
x3,~~,x6,0.09802094788132364
x3,~~,x9,0.01915987038227898
x6,~~,x6,0.5583776067784277
x6,~~,x9,0.027235665544069677
x7,~~,x7,0.3455459271056658
x8,~~,x8,0.03838460222567115
x9,~~,x9,0.6191945661385994
y1,~~,y1,1.0644028751673855
y2,~~,y2,0.5586807357904902
y3,~~,y3,0.8104718297131893
y4,~~,y4,0.11755751865080048
y5,~~,y5,0.8864335356181738
y6,~~,y6,0.8185315593534148
y7,~~,y7,2.409007062648725
y8,~~,y8,0.07845121368199075
