lhs,op,rhs,est
eta1,~,x4,0.2888821797634663
eta1,~,x2,-1.1324595123256453
eta2,~,eta3,0.8295565850026234
eta4,~,x4,0.1297419940215236
eta4,~,x10,0.36898854317168484
eta4,~,x3,-0.17074063493766603
x4,~,eta2,-0.25763797803971267
x4,~,x9,-0.1596970374285614
x4,~,x5,-0.4186672630645092
x6,~,x9,0.10924913643709876
x7,~,eta1,0.07244420309273343
x8,~,x9,-0.3207592487820227
x9,~,eta4,-0.07473160664474018
x9,~,x1,1.571766607637334
eta1,=~,y2,0.3487369879018506
eta4,=~,y2,0.12653520793478898
eta2,=~,y4,-0.6544527125603465
eta2,=~,y5,-0.2821681883288679
eta3,=~,y7,0.1142519690548652
eta4,=~,y8,0.4126754408484905
eta1,~~,eta1,1.7543589714883234
eta2,~~,eta2,0.5294172552448513
eta3,~~,eta3,1.4835425482050546
eta4,~~,eta4,0.30412475767166075
x4,~~,x4,0.3047952702705739
x6,~~,x6,0.03336029778892007
x6,~~,x7,0.002881022186763329
x6,~~,x8,-0.0019677780338298646
x7,~~,x7,0.39993268976359797
x7,~~,x8,0.0074372845218135955
x8,~~,x8,0.333271643220056
x9,~~,x9,2.3302649823921335
y1,~~,y1,1.5840702991649924
y10,~~,y10,4.0440777094979765
y2,~~,y2,0.5636944650855356
y3,~~,y3,0.9346003172964484
y4,~~,y4,0.550574479583745
y5,~~,y5,0.07113370852135915
y6,~~,y6,0.9086814407701389
y7,~~,y7,0.010432593785179304
y8,~~,y8,1.8020032535482744
