lhs,op,rhs,est
eta1,~,x10,0.9277674395357338
eta3,~,x10,-0.3942720658840895
eta3,~,x4,0.08743088563148507
eta4,~,eta1,-0.1476989739823447
x1,~,x10,0.7752350321841676
x10,~,x6,0.5612548410155357
x10,~,x2,-0.17763622145821367
x10,~,x7,0.11218601579061556
x3,~,eta2,-0.5567528447811044
x4,~,x3,-0.46734406147918073
x4,~,x5,0.15213169568319052
x6,~,eta3,1.7791784668696595
x6,~,x8,0.3402977293349137
x9,~,x2,0.6768256452358317
eta1,=~,y2,0.2840298922421819
eta1,=~,y5,-0.709285391710443
eta2,=~,y5,-0.8173847421066434
eta3,=~,y7,-0.5680243997015594
eta3,=~,y8,-0.6020639073780876
eta4,=~,y9,1.3969688690959217
eta1,~~,eta1,1.7886281571838378
eta2,~~,eta2,1.666870203767387
eta3,~~,eta3,0.21260736358627585
eta4,~~,eta4,0.14055058125339767
eta4,~~,x1,0.053461119456540585
eta4,~~,x9,-0.0029614134686014267
x1,~~,x1,2.6657872314801345
x1,~~,x9,-0.05081265568531697
x10,~~,x10,1.6542014042356876
x3,~~,x3,0.2934876299383312
x4,~~,x4,0.2568619471593874
x6,~~,x6,1.1081780756220838
x9,~~,x9,0.4707833712122123
y1,~~,y1,1.8574942927830635
y10,~~,y10,1.9105645802796418
y2,~~,y2,0.15638353767901503
y4,~~,y4,0.9132400624594209
y5,~~,y5,2.236937025038673
y6,~~,y6,2.5708287840935324
y7,~~,y7,0.9708840652761692
y8,~~,y8,2.4513568396528544
y9,~~,y9,1.7625629416078938
