lhs,op,rhs,est
eta1,~,x7,0.2858857605992929
eta2,~,x1,-0.26246579472080933
eta3,~,x10,-0.15416677457538272
eta4,~,eta1,0.6995535570503316
x1,~,eta1,0.3505361162781898
x10,~,eta2,0.5207419865280422
x10,~,x9,0.19017211781872992
x4,~,eta3,-1.035874106101113
x4,~,x6,0.15028863095232783
x5,~,eta2,-0.37469296931575735
x7,~,x2,0.3443631739407271
x8,~,x4,0.004094577418386772
x9,~,x4,-0.03971309921840545
x9,~,x3,0.20760401514323104
eta1,=~,y2,-0.7556150241642058
eta1,=~,y3,-0.6202415754556545
eta2,=~,y5,0.7641224899454439
eta3,=~,y7,-0.47256983664761354
eta4,=~,y9,1.507493916929127
eta1,~~,eta1,0.08658025787968718
eta2,~~,eta2,0.20653360148548897
eta3,~~,eta3,0.254125900632358
eta4,~~,eta4,0.2775378972552163
eta4,~~,x5,0.016955488133165195
eta4,~~,x8,-0.005523697558761682
x1,~~,x1,0.06606078692219407
x10,~~,x10,0.6394791610499476
x4,~~,x4,0.9606909400090663
x5,~~,x5,0.4864941220193372
x5,~~,x8,-0.040064677961606746
x7,~~,x7,0.10835697540656038
x8,~~,x8,0.24230082102265033
x9,~~,x9,0.15559585359852454
y1,~~,y1,0.9568666166038221
y2,~~,y2,0.29996943713849405
y3,~~,y3,0.33483643051711925
y4,~~,y4,0.8739862735939379
y5,~~,y5,0.6618196028670418
y6,~~,y6,1.805763924093876
y7,~~,y7,0.37350586825036375
y8,~~,y8,1.076603378101088
y9,~~,y9,0.6209580550463657
