lhs,op,rhs,est
eta1,~,x5,-0.7976718853606384
eta2,~,x2,-0.04563652527359889
eta2,~,x5,-0.08250526926073563
eta3,~,eta1,-0.13200705187059072
x1,~,x6,-0.38871505981995264
x2,~,x10,-0.3492806919688599
x2,~,x9,0.7561277572473792
x4,~,eta3,-0.8894754646926066
x5,~,eta3,-6.833560895621167
x5,~,eta4,1.3193588314583382
x5,~,x3,2.3784882449330214
x5,~,x8,-0.5538770743503103
x6,~,x5,0.7553560089264265
x7,~,eta4,-0.346040936758197
eta1,=~,y2,0.9184853145724158
eta2,=~,y4,0.1891095458034649
eta3,=~,y6,0.4069395895014562
eta3,=~,y7,0.8866051957360699
eta4,=~,y9,-0.11367867503540476
eta1,~~,eta1,2.5280715434983922
eta2,~~,eta2,1.3929965629358445
eta2,~~,x1,0.045586121737521426
eta2,~~,x4,0.0360218270902113
eta2,~~,x7,0.03926712119184333
eta3,~~,eta3,0.031011105954044757
eta4,~~,eta4,0.7710263677526614
x1,~~,x1,0.3784127647512944
x1,~~,x4,-0.015110067349385149
x1,~~,x7,0.011353835701638214
x2,~~,x2,0.6409777290526835
x4,~~,x4,0.9059477454477155
x4,~~,x7,-0.013600580308517577
x5,~~,x5,8.309722325001637
x6,~~,x6,3.734860834727793
x7,~~,x7,0.14446319430614865
y1,~~,y1,1.8494513430109205
y2,~~,y2,1.2179952036620971
y3,~~,y3,1.3470818288688744
y4,~~,y4,0.2986585061386543
y5,~~,y5,1.8406412009919615
y6,~~,y6,0.44733844842072024
y7,~~,y7,1.1036612124639524
y8,~~,y8,0.8716541585696388
y9,~~,y9,0.012422515265401071
