lhs,op,rhs,est
eta1,~,eta2,-0.5004817506140736
eta1,~,x4,-1.1919706016004155
eta2,~,eta3,0.28166534170058644
eta2,~,x3,0.7737097426789524
eta3,~,eta1,0.4210208827971695
eta3,~,x9,-0.2077963116468168
eta4,~,x4,-0.16499685871599098
x2,~,x1,0.3699097052785474
x2,~,x4,0.3606343537748975
x2,~,x5,-0.1049772347311844
x6,~,x10,-0.31076977239029835
x6,~,x7,0.9219384224537214
x8,~,x6,0.044905896888539805
x8,~,x3,0.13262353446558173
eta4,=~,y11,0.629843868671224
eta1,=~,y2,-0.8170491834006733
eta1,=~,y3,-1.0389854189196073
eta2,=~,y5,1.3182815178710192
eta2,=~,y6,0.7386975845972312
eta3,=~,y7,0.23124225829055323
eta3,=~,y8,-0.27577864642815925
eta1,~~,eta1,1.5686147762515237
eta2,~~,eta2,0.7446891296312438
eta3,~~,eta3,0.4591567164303749
eta4,~~,eta4,6.338817433495906e-17
eta4,~~,x2,-0.014116298931344461
eta4,~~,x8,-0.023015062031376796
x2,~~,x2,0.24692532237229475
x2,~~,x8,0.006119474496634165
x6,~~,x6,0.9635891533968599
x8,~~,x8,0.2051495233629811
y1,~~,y1,2.0820677113544175
y10,~~,y10,0.891432008552675
y11,~~,y11,2.68513368190697
y2,~~,y2,1.4913565151322126
y3,~~,y3,1.8461399064856676
y4,~~,y4,3.1636236151162627
y5,~~,y5,1.6406420746704
y6,~~,y6,2.242874125469941
y7,~~,y7,0.21783254255560608
y8,~~,y8,0.23474091092093424
