"lhs","op","rhs","est"
"eta1","=~","y2",0.758851884252092
"eta1","=~","y3",0.104652462300823
"eta2","=~","y5",0.166387267418886
"x1","~","x3",-0.527186651484879
"x1","~","x5",0.767580816536357
"eta1","~","x1",0.256284066825231
"eta2","~","x5",-0.69929710246936
"x4","~","x2",-0.683760317700917
"x4","~","x3",-0.4282006680671
"y1","~~","y1",1.99464625923273
"y2","~~","y2",1.04892072399991
"y3","~~","y3",0.0210817184104092
"y4","~~","y4",0.798289054207494
"y5","~~","y5",0.0347545566630101
"x1","~~","x1",0.938655520835856
"x4","~~","x4",0.640426779685823
"eta1","~~","eta1",0.19912812656248
"eta2","~~","eta2",0.366972494773258
"eta1","~~","eta2",-0.00366513742237961
"eta1","~~","x4",-0.0421185614422453
"eta2","~~","x4",-0.0028317976343073
