"lhs","op","rhs","est"
"eta1","=~","y2",-0.210850731825283
"eta1","=~","y3",0.423584202048031
"eta2","=~","y5",0.44085410279876
"x3","~","eta1",0.549775900660002
"x3","~","x1",-0.133113215829359
"x2","~","x3",-0.170101837801289
"x4","~","x3",0.128918077436158
"x5","~","eta1",0.388457461954507
"eta2","~","eta1",0.359896602171755
"y1","~~","y1",0.942507135896369
"y2","~~","y2",0.0411220882809257
"y3","~~","y3",0.190455472593104
"y4","~~","y4",0.876814049188618
"y5","~~","y5",0.329326720016492
"x3","~~","x3",0.379989257590028
"x2","~~","x2",0.0345150540937791
"x4","~~","x4",0.021796450199632
"x5","~~","x5",0.141758490260003
"eta1","~~","eta1",1.68253769604641
"eta2","~~","eta2",0.00194379281873405
"eta2","~~","x2",0.0053623160357483
"eta2","~~","x4",0.0087028473318052
"eta2","~~","x5",-0.0144602109335979
"x2","~~","x4",-0.00351942468345536
"x2","~~","x5",0.000138266248836937
"x4","~~","x5",0.000241945632159506
