"lhs","op","rhs","est"
"eta1","=~","y2",-0.547366801257797
"eta1","=~","y3",0.623534472950446
"eta2","=~","y5",-0.585410511713755
"x3","~","eta1",-0.400456983943281
"x3","~","eta2",-0.416342627374458
"x4","~","x3",-0.250553550502297
"x5","~","eta2",-0.381094818436109
"x1","~","eta1",-0.553723861515662
"x2","~","eta2",0.214337832153814
"y1","~~","y1",0.969912824117278
"y2","~~","y2",0.353173790856202
"y3","~~","y3",0.55598685373507
"y4","~~","y4",1.07770762137957
"y5","~~","y5",0.356252176369684
"x3","~~","x3",0.399832034202197
"x4","~~","x4",0.0953611278882804
"x5","~~","x5",0.114768110063178
"x1","~~","x1",0.317726513561185
"x2","~~","x2",0.0424553271350599
"eta1","~~","eta1",1.92887660671366
"eta2","~~","eta2",1.62508212059809
"eta1","~~","eta2",0.0402928528099286
"x4","~~","x5",0.00826971259553219
"x4","~~","x1",-0.00435698547068677
"x4","~~","x2",0.00382316177652141
"x5","~~","x1",0.0254221275070304
"x5","~~","x2",0.00497830844342026
"x1","~~","x2",-0.00172453471392836
