"lhs","op","rhs","est"
"eta1","=~","y2",0.722658300445079
"eta2","=~","y4",-0.452224205976577
"eta2","~","x4",-0.831258929340141
"x5","~","eta2",0.305495539728961
"x2","~","x5",-0.226594588537752
"x3","~","x5",-0.369086956287186
"x1","~","x3",0.44314182320796
"eta1","~","x4",-0.40609952685006
"y1","~~","y1",1.07432559776916
"y2","~~","y2",0.412713987512018
"y3","~~","y3",0.915012283616537
"y4","~~","y4",0.238112157407366
"x5","~~","x5",0.0999920012950454
"x2","~~","x2",0.0387260773999248
"x3","~~","x3",0.134874661827863
"x1","~~","x1",0.179760999949745
"eta1","~~","eta1",0.189053389311923
"eta2","~~","eta2",0.66853682991706
"eta1","~~","x2",0.00537897606655759
"eta1","~~","x1",-0.0130948780861366
"x2","~~","x1",0.000496116782705801
