"lhs","op","rhs","est"
"eta1","=~","y2",-0.225877178963837
"eta2","=~","y4",0.0737413450706685
"eta2","=~","y5",-0.217202032428675
"eta2","~","eta1",0.135081102304753
"eta2","~","x1",-0.299236511573827
"x4","~","eta1",0.378419656992089
"x4","~","x5",-0.300343012353769
"x3","~","x4",-0.185801252732385
"x2","~","eta1",-0.600649032433697
"y1","~~","y1",1.0289238003163
"y2","~~","y2",0.0427786018714133
"y3","~~","y3",2.09115658981048
"y4","~~","y4",0.0250330688748945
"y5","~~","y5",0.241906819593796
"x4","~~","x4",0.220067983002929
"x3","~~","x3",0.0793904600995415
"x2","~~","x2",0.404284464063379
"eta1","~~","eta1",1.65155150833455
"eta2","~~","eta2",0.163936508752079
"eta2","~~","x3",0.00894559750950959
"eta2","~~","x2",-0.0283748307575646
"x3","~~","x2",0.00726768350352425
