"lhs","op","rhs","est"
"eta1","=~","y2",1.16241758971164
"eta2","=~","y4",-0.091701327914961
"x3","~","x2",0.437584153487092
"x3","~","x5",0.547706953734169
"x5","~","x1",0.391092289181199
"eta2","~","x5",0.0373217765350087
"eta1","~","eta2",0.257262061281804
"x4","~","eta2",0.0204957243045035
"y1","~~","y1",1.03839086817245
"y2","~~","y2",0.356025242627372
"y3","~~","y3",0.888083599642047
"y4","~~","y4",0.0353877094136565
"x3","~~","x3",0.433059716584497
"x5","~~","x5",0.143756877480043
"x4","~~","x4",0.0222612152211812
"eta1","~~","eta1",0.00799487872659421
"eta2","~~","eta2",0.260899296414441
"eta1","~~","x3",0.00188802387702539
"eta1","~~","x4",-0.00265873521781184
"x3","~~","x4",0.00540953194414552
