"lhs","op","rhs","est"
"eta1","=~","y2",0.544952596213771
"eta1","=~","y3",0.321399174487008
"eta2","=~","y5",0.499582984877623
"eta2","=~","y6",0.439836995119639
"eta1","~","eta2",0.399925268586286
"x4","~","eta1",-0.153984219543671
"x4","~","x1",0.678563695640448
"x2","~","x1",0.306333670114939
"x5","~","eta2",0.240340073504711
"x3","~","eta2",0.579496942628279
"y1","~~","y1",1.09418459075113
"y2","~~","y2",0.29942398370772
"y3","~~","y3",0.0767552990269889
"y4","~~","y4",0.992953307990713
"y5","~~","y5",0.261475996341885
"y6","~~","y6",0.226274541176685
"x4","~~","x4",0.493266283820498
"x2","~~","x2",0.105340617162912
"x5","~~","x5",0.0594884762911852
"x3","~~","x3",0.354044596057227
"eta1","~~","eta1",0.176417097863485
"eta2","~~","eta2",1.66978620833867
"x4","~~","x2",0.00658761357586994
"x4","~~","x5",-0.00403798486930606
"x4","~~","x3",0.00419788855897818
"x2","~~","x5",0.00572905043893941
"x2","~~","x3",0.00917181717031118
"x5","~~","x3",0.00425840679573355
