lhs,op,rhs,est
eta1,~,x4,-1.3587130773785936
eta1,~,x2,-1.0887238189076838
eta2,~,x3,-0.42347167891073717
x1,~,x3,-1.425921439818268
x4,~,x3,0.7047289806067012
x5,~,eta1,0.10643646448465695
eta1,=~,y2,-1.0101411599388779
eta1,=~,y3,1.3894602053134724
eta2,=~,y5,-0.332548282643448
eta1,~~,eta1,3.315577799220185
eta2,~~,eta2,0.1975452235273773
eta2,~~,x1,-0.07606732656014695
eta2,~~,x5,0.030560343656042894
x1,~~,x1,2.135804628225845
x1,~~,x5,0.19717384362565368
x4,~~,x4,0.5380266519517941
x5,~~,x5,0.10319023130640687
y1,~~,y1,1.9188069106183276
y2,~~,y2,1.8828919104295163
y3,~~,y3,3.784963713555966
y4,~~,y4,0.8827633342727822
y5,~~,y5,0.10524179220377118
