lhs,op,rhs,est
x1,~,x4,1.0846289877502768
x2,~,x1,0.9616420287354485
x3,~,eta1,1.8045399544028435
x3,~,x1,-1.7674689590171795
x5,~,eta1,-0.7693275755016903
x5,~,eta2,0.7174456958438609
eta1,=~,y2,-0.4225544770844819
eta2,=~,y4,1.2394944724357564
eta2,=~,y5,-0.5759359355315478
eta1,~~,eta1,1.6569108458968826
eta1,~~,eta2,0.015234963893527123
eta2,~~,eta2,1.6239131578127255
x1,~~,x1,0.99352944950837
x2,~~,x2,1.057091711805134
x2,~~,x3,-0.026104159270200763
x2,~~,x5,0.0865516865347694
x3,~~,x3,3.215845279374382
x3,~~,x5,0.47273761738727244
x5,~~,x5,0.763725453172346
y1,~~,y1,0.9057020203666083
y2,~~,y2,0.29100921007295083
y3,~~,y3,1.1055701321918203
y4,~~,y4,1.9920910849576863
y5,~~,y5,0.36231105014907566
