lhs,op,rhs,est
eta1,~,x4,-0.2904807284329628
eta2,~,eta1,0.5551669439334905
eta2,~,x3,-1.262508637195335
eta2,~,x5,0.20994810063485925
x1,~,eta2,-0.00451055341537418
x2,~,x4,-0.3524918989240997
eta1,=~,y2,1.1956426886562106
eta2,=~,y4,-0.3283687089365617
eta1,~~,eta1,0.21751527014541436
eta2,~~,eta2,1.6683026815913202
x1,~~,x1,0.05022991810484385
x1,~~,x2,-0.0261479458682073
x2,~~,x2,0.1248099865820621
y1,~~,y1,1.043642470758846
y2,~~,y2,1.4010075353989255
y3,~~,y3,3.8166906239129452
y4,~~,y4,0.32821942183060543
