lhs,op,rhs,est
eta1,~,x1,0.9643980272598487
x1,~,x3,0.28527975656902754
x2,~,eta2,0.9869375048802927
x3,~,eta2,1.693921364640827
x3,~,x4,1.0434052005822014
x5,~,x3,0.20226724987083985
eta1,=~,y2,0.47754327644918065
eta1,=~,y3,-0.29329985430727373
eta2,=~,y5,1.0004165035514858
eta1,~~,eta1,1.2829239249840565
eta1,~~,x2,0.49363524507784384
eta1,~~,x5,0.5011492045320556
eta2,~~,eta2,1.691195163996071
x1,~~,x1,0.853866518446277
x2,~~,x2,1.1932682517449686
x2,~~,x5,0.3329618103411707
x3,~~,x3,3.7173981175083006
x5,~~,x5,0.4051970241995328
y1,~~,y1,1.0479764088220052
y2,~~,y2,0.3212030084355154
y3,~~,y3,0.06851584922959729
y4,~~,y4,0.9042047409561952
y5,~~,y5,0.9704880041713231
