lhs,op,rhs,est
x2,~,eta2,-0.731989830332919
x2,~,x4,-0.6129721274507016
x3,~,x2,-0.007220548692395217
x3,~,x1,1.5103658710332282
x3,~,x5,0.6519799457820856
x4,~,eta1,-0.43120419635460533
eta1,=~,y2,-0.40313599620207974
eta2,=~,y4,0.7356049836605902
eta1,~~,eta1,1.532682891963178
eta1,~~,eta2,0.06034256893114513
eta2,~~,eta2,1.7636025107325395
x2,~~,x2,1.1433295475759246
x3,~~,x3,2.904502288452217
x4,~~,x4,0.21691053599340288
y1,~~,y1,1.157807598727133
y2,~~,y2,0.15353037796192692
y3,~~,y3,0.9092729298479291
y4,~~,y4,0.5920740286214958
