lhs,op,rhs,est
eta1,~,x2,0.26564095754746414
eta1,~,x1,-1.7102416068133761
eta1,~,x3,0.5165879367274461
eta2,~,eta1,0.05831009309287834
x2,~,x5,-0.19768392512704253
x4,~,x3,0.3198048316049243
eta1,=~,y2,0.8918251364473346
eta2,=~,y4,-0.9283340385782162
eta1,~~,eta1,3.1449058323608625
eta2,~~,eta2,0.8442221107379685
eta2,~~,x4,0.16088335262474157
x2,~~,x2,0.012609953074319226
x4,~~,x4,0.12616388464674347
y1,~~,y1,2.755431215041931
y2,~~,y2,2.506763502480848
y3,~~,y3,0.7392588546099356
y4,~~,y4,2.1295960162371164
