lhs,op,rhs,est
eta1,~,x5,-0.8848859173365317
eta2,~,x5,0.4095378523594799
x2,~,eta1,-1.068651178727563
x2,~,x1,-0.840007756839252
x3,~,x2,0.3281664497314986
x4,~,x5,-1.0903615722240851
eta1,=~,y2,-1.3380264924772851
eta1,=~,y3,1.4635900869780327
eta2,=~,y5,-0.6167899993497074
eta2,=~,y6,0.599717261456845
eta1,~~,eta1,0.8032856821966889
eta2,~~,eta2,0.18055908781380398
eta2,~~,x3,-0.025497003640860653
eta2,~~,x4,-0.030732459466287245
x2,~~,x2,1.9136169704090986
x3,~~,x3,0.18947351990728847
x3,~~,x4,0.06979893700521919
x4,~~,x4,1.326016539161762
y1,~~,y1,1.0191080711378246
y2,~~,y2,1.7330469657865317
y3,~~,y3,2.04584076961599
y4,~~,y4,1.0131568082219566
y5,~~,y5,0.3538028073922012
y6,~~,y6,0.14742168155168242
