lhs,op,rhs,est
eta1,~,x2,-0.46382173397693427
eta3,~,x3,-0.8992326705595705
x1,~,x7,0.37056820180825006
x10,~,eta3,0.706762748137369
x2,~,x6,-0.7267059989274806
x4,~,x6,-0.4891932386813062
x5,~,eta4,-0.5365160827512069
x5,~,x9,0.18027743522493725
x6,~,x1,0.11982315836315698
x7,~,eta3,0.10848118294406565
x7,~,x4,0.34682604240270887
x8,~,x7,-0.21729517812690036
x8,~,x9,-1.010301945264051
x9,~,eta2,-0.9857664944890615
eta1,=~,y2,0.24794840657021558
eta1,=~,y3,-0.9145386249462016
eta2,=~,y4,-0.1313328757494676
eta2,=~,y5,0.14890244343159742
eta3,=~,y8,-0.368300750976976
eta4,=~,y9,-0.5914921049379319
eta1,~~,eta1,0.2178574344675779
eta1,~~,x10,-0.022048752324178165
eta1,~~,x5,-0.0008027320726032292
eta1,~~,x8,-0.060865330355625004
eta2,~~,eta2,1.8296880394869008
eta2,~~,eta4,0.08126588476040798
eta3,~~,eta3,0.7092221180726268
eta4,~~,eta4,1.9665092933805142
x1,~~,x1,0.8181130138026658
x10,~~,x10,0.5075149695207968
x10,~~,x5,-0.004156014320340997
x10,~~,x8,-0.033781693764885004
x2,~~,x2,0.3128129841938517
x4,~~,x4,0.24145870958219615
x5,~~,x5,0.29878263527528953
x5,~~,x8,-0.0016243956491246332
x6,~~,x6,0.012271914485509352
x7,~~,x7,0.10049926905192189
x8,~~,x8,1.465211191696754
x9,~~,x9,1.0031019605115612
y1,~~,y1,2.1705487201547675
y10,~~,y10,0.8487842920072498
y2,~~,y2,0.08317485835702197
y3,~~,y3,1.0645964859114938
y4,~~,y4,0.017751568480783703
y5,~~,y5,0.023046667435589207
y7,~~,y7,1.0348774750570013
y8,~~,y8,0.1270506091155637
y9,~~,y9,0.3060285906583517
