lhs,op,rhs,est
eta1,~,x4,0.133084730924441
eta2,~,x8,0.22944856223952356
eta4,~,x9,-0.38541354534006195
x2,~,x4,-0.04355939994880194
x2,~,x9,-0.18585797320984543
x2,~,x1,-0.08889470609174298
x2,~,x10,-0.6582803676328854
x4,~,eta2,-8.317660707337177
x4,~,eta3,0.4979981864429985
x5,~,x3,-0.7295414091034816
x6,~,x5,-0.3257796278537049
x7,~,eta4,0.1028031124318063
x8,~,x4,0.237428992509071
x9,~,x6,-0.43476829661498234
eta1,=~,y2,-0.6891952533631268
eta1,=~,y3,-0.5857808947190467
eta2,=~,y5,-0.7240726502116706
eta3,=~,y7,-0.2291666738844511
eta3,=~,y8,-1.0119508839854132
eta4,=~,y9,0.8690489456921116
eta1,~~,eta1,0.21343843708408158
eta1,~~,x2,-0.04707723601530358
eta1,~~,x7,-0.003960607233757322
eta2,~~,eta2,2.06384943374295e-19
eta3,~~,eta3,1.5612264226396502
eta4,~~,eta4,0.1980037956199865
x2,~~,x2,0.49227920457481583
x2,~~,x7,-0.004254913805512693
x4,~~,x4,0.9725010029316133
x5,~~,x5,0.5484461554354414
x6,~~,x6,0.11437064841151423
x7,~~,x7,0.017643326176051726
x8,~~,x8,0.10484332773576441
x9,~~,x9,0.1971009535655437
y1,~~,y1,1.0819803503982466
y2,~~,y2,0.26844510565495594
y3,~~,y3,0.6117623035604486
y4,~~,y4,1.0701190919969537
y5,~~,y5,0.36467493916616617
y6,~~,y6,1.7092822433685064
y7,~~,y7,0.04162770825062685
y8,~~,y8,1.1758759148199613
y9,~~,y9,0.7150954503626983
