lhs,op,rhs,est
eta1,~,eta3,-0.4911464279253959
eta4,~,eta2,-0.9893187091786991
eta4,~,x3,0.9762491250671778
eta4,~,x7,0.5212757094520121
x1,~,eta1,0.5581863474335154
x1,~,x4,0.5691371283334022
x10,~,x2,-1.0289726306081057
x10,~,x4,0.44826513211674535
x10,~,x9,0.32173668003551714
x2,~,x8,0.35403819586860524
x2,~,x6,-0.8801961894790343
x3,~,x2,0.6697634565152083
x5,~,x3,0.7249905798384763
x8,~,x3,-0.34202100473041375
eta4,=~,y11,-0.3871659265288637
eta1,=~,y2,0.6967190231835353
eta1,=~,y3,0.36259514327953274
eta3,=~,y7,0.2761716522797199
eta2,=~,y8,0.3124518868001496
eta3,=~,y8,0.13949369238412812
eta4,=~,y9,0.2521672953358781
eta1,~~,eta1,0.22898631846483777
eta2,~~,eta2,1.9893991281638965
eta2,~~,eta3,0.07616481569727691
eta3,~~,eta3,1.7093195406538528
eta4,~~,eta4,1.9115391468634813
eta4,~~,x1,-0.09183496880877305
eta4,~~,x10,0.15576000850306837
eta4,~~,x5,-0.0457224641170578
x1,~~,x1,0.8146725720028194
x1,~~,x10,0.09112101171570304
x1,~~,x5,-0.04395758862429353
x10,~~,x10,1.445926424927251
x10,~~,x5,-0.05573876753758226
x2,~~,x2,0.6765311382359075
x3,~~,x3,0.4501574143617759
x5,~~,x5,0.48828379626595464
x8,~~,x8,0.1081735004247937
y1,~~,y1,1.064701411360598
y10,~~,y10,2.8544283737980947
y11,~~,y11,0.49890909438133746
y2,~~,y2,1.0293847787460368
y3,~~,y3,0.1497225450428612
y4,~~,y4,0.8009526588769088
y6,~~,y6,0.9141822753172766
y7,~~,y7,0.07757606036683747
y8,~~,y8,0.17015380740376124
y9,~~,y9,0.20030804301539
