lhs,op,rhs,est
eta3,~,x8,-0.7199130101483078
eta4,~,x7,0.26087667507745116
eta4,~,x3,-0.8899737483217718
x1,~,x5,-0.19893134562919257
x10,~,eta1,1.058643414590287
x5,~,eta1,0.9198061224247248
x5,~,x9,0.7406136106052718
x6,~,x5,0.14291387628717328
x7,~,eta2,0.16541196093041816
x7,~,x5,-0.3656156414045486
x7,~,x2,-0.5068142403622228
x8,~,x3,-0.9393594046039323
x9,~,x6,0.15697812972091166
x9,~,x4,-0.21931877315338713
eta1,=~,y2,0.8253086366987308
eta1,=~,y3,-0.6811975846138437
eta2,=~,y5,0.8817603637710226
eta3,=~,y7,-1.1394544639707587
eta4,=~,y9,0.09387303437536135
eta1,~~,eta1,1.6453646576231662
eta1,~~,eta2,-0.08884523004947696
eta2,~~,eta2,0.8588692488146944
eta3,~~,eta3,0.5500351580190361
eta3,~~,eta4,-0.07841037315326885
eta3,~~,x1,0.010592256275650863
eta3,~~,x10,0.03133399549329123
eta4,~~,eta4,1.5302950082056948
eta4,~~,x1,0.15091089947968414
eta4,~~,x10,-0.05812392296268533
x1,~~,x1,0.34841234150546563
x1,~~,x10,-0.07303026233480821
x10,~~,x10,1.0762920717532618
x5,~~,x5,2.5645158220337483
x6,~~,x6,0.15697782388766596
x7,~~,x7,1.478674261727735
x8,~~,x8,0.9560050031461738
x9,~~,x9,0.12417963103481952
y1,~~,y1,1.1668539802743068
y2,~~,y2,0.6685903785244914
y3,~~,y3,0.4982535673112537
y4,~~,y4,1.5398659358451297
y5,~~,y5,0.03337842794155284
y6,~~,y6,1.2300664008108557
y7,~~,y7,0.9481047622080739
y8,~~,y8,2.820343784909341
y9,~~,y9,0.04568783312549069
