lhs,op,rhs,est
eta1,~,eta4,0.791075737558134
eta1,~,x1,1.0258846043158687
eta1,~,x3,0.5178391665902271
eta1,~,x6,0.15499267716373885
eta2,~,x3,0.9660137869745821
eta4,~,x7,0.3250301323125406
x1,~,eta3,-0.7850794514041142
x10,~,x6,-0.802919031917056
x2,~,eta2,0.986128736183817
x4,~,x3,0.9047853539238745
x8,~,x1,-0.846189666838851
x8,~,x5,0.2351264139481248
x9,~,x6,0.8400238668775103
eta2,=~,y4,-0.2514297897926104
eta1,=~,y5,-0.1367923035573131
eta2,=~,y5,1.0000161388731876
eta3,=~,y7,0.1803581070601157
eta3,=~,y8,-0.7502452901394436
eta4,=~,y9,0.47814690409003485
eta1,~~,eta1,2.721675158086262
eta1,~~,x10,-0.03144230207243023
eta1,~~,x2,0.10552356220181507
eta1,~~,x4,0.06067701220274036
eta1,~~,x8,0.03793699854512989
eta1,~~,x9,-0.12391533087597971
eta2,~~,eta2,0.872496307425364
eta3,~~,eta3,1.6413906388046202
eta4,~~,eta4,0.14429952934216592
x1,~~,x1,0.6085843880896115
x10,~~,x10,0.6152576064432843
x10,~~,x2,-0.09618016792030759
x10,~~,x4,-0.013772272008766235
x10,~~,x8,0.013497353921430914
x10,~~,x9,0.0045980907610833205
x2,~~,x2,1.0358015891331698
x2,~~,x4,0.0048273234005591515
x2,~~,x8,0.018543535999339677
x2,~~,x9,0.02212720545939708
x4,~~,x4,0.664657500384665
x4,~~,x8,0.028533821020222217
x4,~~,x9,-0.031469608496307644
x8,~~,x8,0.8523516287572609
x8,~~,x9,-0.0185778493287579
x9,~~,x9,0.7335470677440352
y10,~~,y10,1.0584505858613367
y2,~~,y2,3.8061905063874075
y3,~~,y3,0.9464095592248175
y4,~~,y4,0.055454705576293166
y5,~~,y5,1.1137234973779258
y6,~~,y6,0.9647616368930896
y7,~~,y7,0.023412794589744226
y8,~~,y8,0.6843060809786747
y9,~~,y9,0.1055286538237079
