lhs,op,rhs,est
eta1,~,x9,0.04600538419085083
eta2,~,x9,-1.044302260827026
eta3,~,x5,0.009065917847661191
eta3,~,x8,-0.7023938516706709
x10,~,eta2,-0.21338307655325958
x3,~,x10,0.17023400830848745
x4,~,eta4,-0.5064402879719094
x4,~,x5,0.8241737763471381
x5,~,eta2,-0.7666992997707042
x5,~,x1,-0.19227955125012747
x6,~,x1,0.36913699778766706
x7,~,x8,0.5212467493060995
x9,~,x10,-5.10503051343323
x9,~,x2,1.1532039946002894
eta1,=~,y2,-0.4023894753637183
eta2,=~,y4,-0.3830052227623154
eta2,=~,y5,0.8852169717076805
eta3,=~,y7,-0.48723220647864096
eta4,=~,y9,-0.2114456725583732
eta1,~~,eta1,3.2622037530365885e-17
eta1,~~,eta3,0.029756274490326758
eta1,~~,x3,0.00029590096383976997
eta1,~~,x4,0.025552637067142777
eta1,~~,x6,0.00720213585445992
eta1,~~,x7,-0.005344631005116718
eta2,~~,eta2,2.9283381335311054
eta3,~~,eta3,0.6484837587754134
eta3,~~,x3,-0.003486569895851338
eta3,~~,x4,0.043959835342142484
eta3,~~,x6,0.00023999195027922074
eta3,~~,x7,0.0052804775998652655
eta4,~~,eta4,1.6609116728173037
x10,~~,x10,0.031196962985733708
x3,~~,x3,0.023130401092148953
x3,~~,x4,-0.0028141837325209094
x3,~~,x6,0.0001832642924167779
x3,~~,x7,0.005696754596724213
x4,~~,x4,1.7196160514417103
x4,~~,x6,-0.006305022948861194
x4,~~,x7,-0.01467556906548728
x5,~~,x5,0.6703068781509272
x6,~~,x6,0.12961945274428566
x6,~~,x7,0.010467923683669618
x7,~~,x7,0.2883449427599454
x9,~~,x9,3.3830658415582473
y1,~~,y1,1.025829854881634
y2,~~,y2,0.05332141111060968
y3,~~,y3,0.9869252362540383
y4,~~,y4,0.17803864434972505
y5,~~,y5,0.7333027466573128
y6,~~,y6,1.8100722092271568
y7,~~,y7,0.47631002942476086
y8,~~,y8,1.1122399975525128
y9,~~,y9,0.030336045766797187
