lhs,op,rhs,est
eta1,~,x4,0.11208794663371818
eta2,~,x10,-0.19620405560615084
eta3,~,x1,-0.1325066497545426
x10,~,x3,1.438992519709884
x10,~,x8,0.5602532768637593
x2,~,x7,-0.968534181123538
x3,~,x9,0.2548641660319022
x4,~,eta3,0.21408629181546457
x6,~,eta3,0.6331933153304586
x6,~,eta4,0.45974431856257114
x6,~,x10,-0.14456190518898185
x6,~,x7,0.6741681744962238
x7,~,x5,0.813987895355925
x9,~,x10,-0.6377215972700466
eta1,=~,y2,-0.08757579212267849
eta1,=~,y3,-0.34183017665889504
eta2,=~,y5,0.2297498670027398
eta3,=~,y7,0.08430285466180021
eta3,=~,y8,0.20264992606376342
eta4,=~,y8,-0.6456535951903581
eta4,=~,y9,-0.45715723193949026
eta1,~~,eta1,0.1326484310957375
eta1,~~,eta2,0.002011416089737626
eta1,~~,x2,-0.1366731999092658
eta1,~~,x6,0.0651741588492649
eta2,~~,eta2,0.04726724348647131
eta2,~~,x2,0.0046424615739126375
eta2,~~,x6,0.0882937194085655
eta3,~~,eta3,2.332999172037082e-16
eta4,~~,eta4,1.7329686434142832
x10,~~,x10,0.8128232515620724
x2,~~,x2,0.9077897575172751
x2,~~,x6,-0.03816725872784256
x3,~~,x3,0.05575450026372219
x4,~~,x4,0.078178671847565
x6,~~,x6,1.274390647525423
x7,~~,x7,0.6464172218240822
x9,~~,x9,0.9475882695460475
y1,~~,y1,0.9191146512056884
y11,~~,y11,0.9508140894238
y2,~~,y2,0.30448300558823604
y3,~~,y3,0.47699339540221586
y4,~~,y4,1.0126660350347498
y5,~~,y5,0.1461589168076386
y6,~~,y6,1.0291566587427043
y7,~~,y7,0.013673823226120489
y8,~~,y8,0.4668565367797831
y9,~~,y9,0.20564089833454668
