lhs,op,rhs,est
eta2,~,x9,-0.036566339896304485
eta3,~,x5,-0.13523151184620663
eta4,~,x2,-0.12487014369167779
x1,~,x7,0.41886648300854185
x3,~,eta1,0.19298024886008466
x3,~,eta3,0.7075061645406032
x4,~,x9,0.45344389893841275
x4,~,x6,-0.20067773254005214
x7,~,eta1,-0.8241816238940886
x8,~,x4,-0.46232060157332094
x8,~,x10,0.27016938709929594
x9,~,eta3,-0.7237827397753976
x9,~,eta4,0.20307396474041764
x9,~,x8,-0.19892006515515062
eta4,=~,y10,1.0849822593391714
eta1,=~,y2,-0.6360656360772549
eta2,=~,y4,-0.03552109692114602
eta2,=~,y5,-0.0173979291544404
eta3,=~,y7,0.6427978547677086
eta4,=~,y8,-0.5009766799941219
eta1,~~,eta1,2.0034274236774374
eta2,~~,eta2,1.014066124553105
eta2,~~,x1,0.022205541115474185
eta2,~~,x3,0.05448989201420154
eta3,~~,eta3,1.0025391335539506e-16
eta4,~~,eta4,0.034702601439666324
x1,~~,x1,0.18205278394247848
x1,~~,x3,0.0017267283468493549
x3,~~,x3,1.0787283705742285
x4,~~,x4,1.0258051458817614
x7,~~,x7,0.8863969570928231
x8,~~,x8,0.44731147100990837
x9,~~,x9,0.9762707797338059
y1,~~,y1,1.6222377301657611
y10,~~,y10,0.7215540336987124
y2,~~,y2,0.44371694299887043
y3,~~,y3,4.608875403372704e-18
y4,~~,y4,0.2854594815019403
y5,~~,y5,0.0938148081966201
y6,~~,y6,0.8731164000283128
y7,~~,y7,0.5833278154859389
y8,~~,y8,0.14226074777842584
