lhs,op,rhs,est
eta2,~,x6,-0.5476982008823902
x1,~,x2,0.9288143646074724
x1,~,x4,0.023587965694557254
x10,~,eta3,0.14541028654741076
x10,~,eta4,0.603661921905236
x10,~,x6,-0.6267614282081683
x2,~,x9,-0.31402489893583135
x4,~,x5,-0.16069409700458645
x4,~,x6,-0.3778112609985923
x5,~,x3,-0.7775289733977291
x6,~,eta1,0.8300896153363782
x6,~,x1,-0.318240764171993
x7,~,x6,-0.283740748505278
x8,~,x5,-0.9791290064569198
eta4,=~,y11,0.13975068313096212
eta1,=~,y2,0.34501548066151133
eta2,=~,y5,0.6807530604860118
eta3,=~,y7,-0.8042247248505695
eta3,=~,y8,0.2249355926075379
eta2,=~,y9,-0.14371899283317105
eta4,=~,y9,-0.4818036497514633
eta1,~~,eta1,1.7569333042378719
eta1,~~,eta3,-0.02575098795920816
eta1,~~,eta4,-0.11032455797272961
eta2,~~,eta2,0.5523336871268464
eta2,~~,x10,0.180975744724621
eta2,~~,x7,0.044848105788102804
eta2,~~,x8,-0.05494956279711229
eta3,~~,eta3,1.6633150896391793
eta3,~~,eta4,-0.08410355025528951
eta4,~~,eta4,1.7322356213486223
x1,~~,x1,0.8185034342967988
x10,~~,x10,0.8585026844003054
x10,~~,x7,0.047770505547612745
x10,~~,x8,0.0021150487040303236
x2,~~,x2,0.09257982651712793
x4,~~,x4,0.2921520576887247
x5,~~,x5,0.6109866582403098
x6,~~,x6,0.8853388588174907
x7,~~,x7,0.12031856504052306
x7,~~,x8,0.02382403820521089
x8,~~,x8,1.0599673188796905
y1,~~,y1,0.8849381059113403
y10,~~,y10,0.9590643436318502
y11,~~,y11,0.015224661809409
y2,~~,y2,0.12268532041597631
y4,~~,y4,1.0940236653780346
y5,~~,y5,0.34588352226613167
y6,~~,y6,0.7880356549543456
y7,~~,y7,0.636597638911893
y8,~~,y8,0.0532052714032557
y9,~~,y9,0.3308576546649461
