lhs,op,rhs,est
eta2,~,x3,0.562712944401496
x1,~,eta1,0.13937947354806635
x1,~,eta2,-0.030911867635582832
x1,~,x10,-0.1842442843861486
x1,~,x8,-0.5717195342927598
x2,~,x1,0.4332504345626581
x4,~,x10,0.7753988221155657
x5,~,x7,-0.8903623505869811
x6,~,eta4,0.19818288433424824
x6,~,x1,-0.0016813702619996565
x6,~,x5,-0.8413161435405622
x7,~,eta3,1.1514144299988756
x7,~,x6,-0.3941742584151762
x9,~,x5,-0.9758295763468153
eta4,=~,y11,0.46871642103152644
eta1,=~,y3,1.1437923940292447
eta1,=~,y5,0.4410145464099913
eta2,=~,y5,0.795905336601829
eta2,=~,y6,0.6272664125070639
eta3,=~,y8,-0.1981239639235496
eta4,=~,y9,-0.2926107813236357
eta1,~~,eta1,1.5571638997399404
eta1,~~,eta3,0.1792058980185079
eta1,~~,eta4,-0.07011609616544974
eta2,~~,eta2,0.28472801485855914
eta3,~~,eta3,1.6410505510029434
eta3,~~,eta4,-0.07700011759634999
eta4,~~,eta4,1.771122199598473
x1,~~,x1,0.3712130418513721
x2,~~,x2,0.5942617701967559
x2,~~,x4,0.012267882392972712
x2,~~,x9,-0.0433798613466005
x4,~~,x4,0.6091257551362722
x4,~~,x9,0.016462038141416228
x5,~~,x5,1.187747096448661
x6,~~,x6,0.7669740755977922
x7,~~,x7,1.3061820194368505
x9,~~,x9,0.9542649638567837
y10,~~,y10,0.9161363360198073
y11,~~,y11,0.18917268363298861
y2,~~,y2,1.0785389126463603
y3,~~,y3,1.0719045423971045
y4,~~,y4,1.0348566863090158
y5,~~,y5,0.7921853636525139
y6,~~,y6,0.4159430313646381
y7,~~,y7,1.0443571011193158
y8,~~,y8,0.0324406717844247
y9,~~,y9,0.11479295140744285
