lhs,op,rhs,est
eta1,~,x3,-0.03438407721796421
eta2,~,x4,0.11335627369920186
eta3,~,x7,-0.13390721314347073
eta4,~,x6,-0.3900112537362324
x1,~,eta4,-1.2692424884884341
x1,~,x4,-0.10992818290943658
x1,~,x2,0.8132427497090369
x10,~,eta1,0.37999263094091923
x3,~,x10,-0.45809227363034927
x3,~,x8,0.21159766886599643
x3,~,x9,0.5569675334019594
x4,~,eta1,-0.47351593961852245
x4,~,x5,-0.782855137769384
x7,~,eta4,0.5548188178135238
eta1,=~,y2,1.1296458742437956
eta1,=~,y3,-0.137099062822527
eta2,=~,y5,-0.8598537125804478
eta2,=~,y6,0.436123344450919
eta3,=~,y8,0.46884719302928485
eta4,=~,y9,-0.22515505504656147
eta1,~~,eta1,0.7314226681535481
eta2,~~,eta2,0.5139479730604067
eta2,~~,eta3,-0.0637258098945668
eta2,~~,x1,-0.12573149964675598
eta3,~~,eta3,0.16810844814575865
eta3,~~,x1,0.0332365899997905
eta4,~~,eta4,0.17754122993842808
x1,~~,x1,2.5101669658938053
x10,~~,x10,0.10894954206362162
x3,~~,x3,0.7107135025796353
x4,~~,x4,0.8723198125261765
x7,~~,x7,0.376088499023229
y1,~~,y1,1.2650162545510253
y10,~~,y10,1.0258505786029655
y2,~~,y2,1.1660991355416241
y3,~~,y3,0.8101603065415722
y4,~~,y4,0.9348825750559673
y5,~~,y5,0.6350821658646499
y6,~~,y6,0.19636128559965194
y8,~~,y8,0.3623654879376241
y9,~~,y9,0.07926709258149957
