lhs,op,rhs,est
eta1,~,x4,-0.27748674671716744
eta3,~,x8,-0.2642715786189325
eta4,~,x5,0.0066711395191829375
x1,~,x6,0.3929996906125509
x10,~,x6,-0.48404528021823706
x2,~,x6,0.4158928225029599
x5,~,eta2,-0.8523474765839374
x5,~,x3,0.4570167949688121
x6,~,x8,0.48440833127132077
x7,~,x6,1.0517793153328008
x8,~,eta1,1.142836594321153
x8,~,x1,-0.06971797866106898
x8,~,x3,-1.3340704424267937
x9,~,x10,-0.355516691271676
eta1,=~,y2,0.6105251473367239
eta2,=~,y4,-0.5496422530090525
eta2,=~,y5,0.15976752639944491
eta3,=~,y7,-0.2958075778277767
eta4,=~,y9,0.040364638524388305
eta1,~~,eta1,0.04679134999913615
eta2,~~,eta2,1.5619126645018069
eta3,~~,eta3,0.39044267673341254
eta3,~~,eta4,0.05318540218182211
eta3,~~,x2,-0.027804221596567622
eta3,~~,x7,0.03971266834593351
eta3,~~,x9,0.02247496761359188
eta4,~~,eta4,1.202522226838841
eta4,~~,x2,0.017578644609115353
eta4,~~,x7,0.06145902477066364
eta4,~~,x9,0.0015023965127482356
x1,~~,x1,0.16465630223463062
x10,~~,x10,0.23747301257048709
x2,~~,x2,0.17351499345127758
x2,~~,x7,-0.0065484833813064455
x2,~~,x9,0.0048648768292945035
x5,~~,x5,0.8244809789223849
x6,~~,x6,1.027718414485864
x7,~~,x7,0.97350238411755
x7,~~,x9,0.016646854631912213
x8,~~,x8,3.3263433714262334
x9,~~,x9,0.1277397274934708
y1,~~,y1,0.9724000835090919
y2,~~,y2,0.372839838277306
y3,~~,y3,0.986890524019204
y4,~~,y4,0.27453609883530694
y5,~~,y5,0.03038100335433459
y6,~~,y6,1.0566015293806523
y7,~~,y7,0.06226316071428599
y8,~~,y8,0.0
y9,~~,y9,0.055195656492399076
