lhs,op,rhs,est
eta1,~,x4,0.9075104402828318
eta1,~,x7,1.160315531215086
x2,~,x1,-0.7815915433225741
x3,~,x1,-0.5919691928593919
x4,~,x3,-0.2799249858226336
x4,~,x8,-0.3824340547535739
x4,~,x6,0.6693456919447239
x5,~,x6,-0.8849433582665466
x7,~,x10,0.38927069926594077
x8,~,x9,0.5475607863495204
eta1,=~,y2,-0.4545428242594442
eta1,=~,y3,-0.8298528528624888
eta1,~~,eta1,2.955713707613784
eta1,~~,x2,-0.05619279062228045
eta1,~~,x5,0.013450630060677038
x2,~~,x2,0.6009732359728713
x2,~~,x5,0.03553173553347458
x3,~~,x3,0.29494290726505473
x4,~~,x4,0.6240721762480671
x5,~~,x5,0.9027471112180784
x7,~~,x7,0.1371727282385759
x8,~~,x8,0.24115708767626393
y1,~~,y1,2.611302570590358
y2,~~,y2,0.5937202655231996
y3,~~,y3,2.6611051465795352
