lhs,op,rhs,est
eta1,~,x3,-0.7428952701032714
x1,~,x4,-0.3141692773033291
x1,~,x7,0.4272935554513718
x10,~,x4,0.6190841379792107
x2,~,x1,-0.18005767487468607
x2,~,x6,0.2587643629691432
x5,~,x6,-0.3176363530278248
x6,~,eta1,-0.7729490766170305
x6,~,x9,-0.33671695090857556
x8,~,x9,-0.9426268516786619
eta1,=~,y2,-0.5499000244293649
eta1,~~,eta1,0.5804565814178909
x1,~~,x1,0.33463735917627596
x10,~~,x10,0.43649922095261334
x10,~~,x2,-0.0003727102051633646
x10,~~,x5,0.012038279554995665
x10,~~,x8,0.012538499547302072
x2,~~,x2,0.38213539634586785
x2,~~,x5,0.022382367496133582
x2,~~,x8,0.021659656446878735
x5,~~,x5,0.19802663445131222
x5,~~,x8,0.012764516443997927
x6,~~,x6,0.7633594999071112
x8,~~,x8,0.9027619216820277
y1,~~,y1,0.8253594744891818
y2,~~,y2,0.33832047097011186
