lhs,op,rhs,est
x1,~,x2,0.6935873121231657
x1,~,x8,0.5847462883996082
x4,~,eta1,-0.22150318433453167
x4,~,x1,-0.18336055114516425
x4,~,x10,0.8585648867010351
x4,~,x9,0.8484462535554008
x5,~,x3,-0.4973614626000509
x5,~,x6,-0.1990658392040087
x5,~,x8,0.8302753748600146
x7,~,x4,0.27974149488283057
eta1,=~,y2,-0.475177804060391
eta1,=~,y3,0.4400241707615808
eta1,~~,eta1,1.7521379926013239
x1,~~,x1,0.7366802370510243
x4,~~,x4,1.8795115802228994
x5,~~,x5,0.9744922046967021
x5,~~,x7,-0.01846500952843804
x7,~~,x7,1.1081048512218084
y1,~~,y1,1.0119722583614406
y2,~~,y2,0.23447048614976207
y3,~~,y3,0.2521257929129917
