lhs,op,rhs,est
x1,~,x9,-0.7152996295961938
x10,~,x6,-0.22176996526723028
x2,~,eta1,-0.7944910255867168
x4,~,x7,0.7498376538517426
x5,~,x2,0.26041132206474743
x7,~,eta1,-0.4423645727437695
x7,~,x6,0.8753042405576035
x8,~,x3,0.5712779962888531
x8,~,x6,0.7216240832631988
x9,~,x3,0.7892542642254532
eta1,=~,y2,-0.20689201553451717
eta1,~~,eta1,1.468552117392857
x1,~~,x1,0.5777712632612684
x1,~~,x10,-0.0007247497195553986
x1,~~,x4,-0.05760365600651785
x1,~~,x5,0.005188183395207897
x1,~~,x8,-0.016805713035647225
x10,~~,x10,0.04305093937510546
x10,~~,x4,0.006787264079645795
x10,~~,x5,-0.00045473410153892667
x10,~~,x8,0.0015858357190339884
x2,~~,x2,0.731867241040943
x4,~~,x4,1.1922931770734975
x4,~~,x5,-0.017672133210585205
x4,~~,x8,-0.08038242144852602
x5,~~,x5,0.06250960611215288
x5,~~,x8,0.007434832320040028
x7,~~,x7,0.9456453730135287
x8,~~,x8,0.9188070577301928
x9,~~,x9,0.5723389177490039
y1,~~,y1,0.9051245248107279
y2,~~,y2,0.04447883643257752
