lhs,op,rhs,est
eta1,~,x2,-0.11208371826887904
x2,~,x6,0.5068253825486236
x3,~,x1,1.1265638715817115
x6,~,x7,-0.3899462975175019
x6,~,x10,0.6131876890779666
x6,~,x5,0.3276654741519209
x6,~,x8,0.4882626372009178
x7,~,x3,0.5637589977731041
x7,~,x4,1.0040892573756013
x9,~,x7,-0.2941874239706404
eta1,=~,y2,0.21141119207616926
eta1,=~,y3,-1.8430595140214088
eta1,~~,eta1,0.017325538456836823
eta1,~~,x9,-0.033499369796620417
x2,~~,x2,3.1032696456985427
x3,~~,x3,1.0224394721299628
x6,~~,x6,1.2406008669080855
x7,~~,x7,1.1389724658380422
x9,~~,x9,0.3469130701541628
y1,~~,y1,1.8836118027081492
y2,~~,y2,0.052483966567157446
y3,~~,y3,2.148574032926539
