lhs,op,rhs,est
x1,~,x10,-0.2884783240174105
x1,~,x7,-0.4785667728197358
x2,~,x3,0.3714345476099044
x3,~,x5,-0.4009121384010066
x3,~,x7,-0.5665290788177205
x4,~,eta1,0.40150955723122034
x5,~,eta1,0.9786551038979663
x6,~,x7,-0.3118914555053285
x8,~,x5,-0.7106186506295996
x8,~,x9,0.7619049070635276
eta1,=~,y2,0.39139844604852386
eta1,~~,eta1,1.8662177078369204
x1,~~,x1,0.355445995539302
x1,~~,x2,-0.025197492375105508
x1,~~,x4,-0.006180569865160102
x1,~~,x6,-0.0039061722732057257
x1,~~,x8,0.0077401205569996275
x2,~~,x2,0.2424858314454027
x2,~~,x4,-0.018877364633738732
x2,~~,x6,0.00816182934887075
x2,~~,x8,-0.023531679596429603
x3,~~,x3,0.4500457714084396
x4,~~,x4,0.16126843981867323
x4,~~,x6,0.0029176605765250684
x4,~~,x8,0.0036175787103185615
x5,~~,x5,1.3758501415259274
x6,~~,x6,0.08706296447528061
x6,~~,x8,-0.008611950930948957
x8,~~,x8,1.1182407868175206
y1,~~,y1,0.987178603437222
y2,~~,y2,0.16026675697144024
