lhs,op,rhs,est
eta1,~,x4,1.1194156380463225
x1,~,x9,-0.692198108885004
x1,~,x10,0.544738332393984
x2,~,x4,-0.16295112746090218
x3,~,x9,1.0156492387683067
x4,~,x8,0.39002241257198
x5,~,x2,-0.5497007175130713
x6,~,x8,-0.24068032117628538
x8,~,x3,0.9270902489516782
x9,~,x7,0.7219159331991657
eta1,=~,y2,0.2037517392427328
eta1,=~,y3,-0.6428944428444886
eta1,~~,eta1,1.0159011589545046
eta1,~~,x1,0.015985657157051626
eta1,~~,x5,-0.0051970096271154054
eta1,~~,x6,0.02071344379411617
x1,~~,x1,0.8643039587252838
x1,~~,x5,0.01981360699708262
x1,~~,x6,0.00044582387602488217
x2,~~,x2,0.025760077310777882
x3,~~,x3,1.034565443519184
x4,~~,x4,0.16310201310679795
x5,~~,x5,0.39472037020297107
x5,~~,x6,0.007989641671330405
x6,~~,x6,0.051895554462288586
x8,~~,x8,0.7943912374884808
x9,~~,x9,0.5904328287189784
y1,~~,y1,1.0570815209189552
y2,~~,y2,0.03969050029285334
y3,~~,y3,0.4257035876505905
