x1,x2
2.8571660265852334,2.458194334196897
1.0879875115518414,2.33445735748822
-1.3805616877342615,0.9969243277288102
1.2551239397022957,2.631307063794594
-0.5424606267945898,-0.7742551088137769
1.1580035514868505,2.5666693230019093
2.560126184938007,1.6861817053571282
2.278302134710464,2.0030839587482507
2.348140929151288,2.2858178827403717
0.7004784532719512,-0.7856237260441014
0.7062061433785776,2.6505156015942295
1.198733627113563,2.0030589511246077
0.3121467487212602,1.6219100999025797
1.8806138931390293,2.3132663090174277
-0.10178778457428203,0.6393039875654356
2.015486187582704,2.206530488765292
1.436563379303605,1.7282765985222381
-0.5084539837817182,-0.46749982307972116
0.5782710483062306,0.7819876704190947
1.3654905595108993,0.9450885577786237
0.8353774802192561,2.4872834430506536
2.5851208263167083,1.916452027557733
-1.1907592113940562,-0.4543321704959363
-0.74790478470724,-0.10314619079497056
2.131015426487836,2.671236654056203
0.03848273530110299,-0.16474044513802422
0.9091456149823877,-0.2420780619872449
-0.01347589662879531,0.7240438050494222
0.9772529607526177,3.194366396707596
0.4554237793073436,1.08239227013773
1.1499251901201137,1.9607939215212435
-0.5054998917851227,-0.6456104348705671
-0.5954515199136894,0.4204920221416233
1.7111111893361606,1.8361442660050051
1.8958936144532894,1.2159919249126805
2.6053684468674336,3.381119401474214
2.9734091975271673,3.1726092754599122
3.2264896924194497,2.4284353559953242
3.9497909621734095,2.8750303650187172
-0.9731219030715944,0.04970554495223545
-0.3336004020587316,1.2309053980910352
-0.17501331636602493,-0.5830402578422038
2.2926645028291635,2.841548210353886
1.0106237036370822,1.8992959549713673
5.219882428162531,3.3663508225459813
1.6439000685859004,0.8927790444428747
4.235709932135895,2.1848787645584657
1.7781707014663608,1.8076404256270622
2.8360223849532025,3.2474420338911028
0.3470167438970664,0.582632590609375
3.1229657829995783,2.9639024877985216
2.1599307950277713,2.537225833049859
1.1181045313855071,1.3403419209955834
0.18230995992472926,0.6887246624197796
1.0086958124440812,0.48202596364503947
4.213088649988226,3.3547480573182993
0.31727947600743067,0.8883063404760376
2.940961318221202,2.3803139737541694
-1.2418932582089126,-0.8722315557513064
2.1955272859398667,3.3868185283109344
1.40638472806982,2.7199440713484653
-0.27181782227929785,0.7815920261140832
0.3350094699308433,0.24277574455083073
1.417431159950244,3.156537677328286
-0.08362386764757475,0.6879672297136978
-0.7362189670484091,-0.6533488680604178
0.3613096218969324,1.7065331300221316
-1.4596907238114625,-0.73633276643177
0.3088453295972456,-0.19266157458210598
-1.387865989909708,-0.828543728848349
1.4443206998300204,1.0839044867297765
2.251217914248382,3.2307339869385583
0.17968618781054013,-0.4541005737563393
-0.1946507812072776,1.843254260502711
-0.0626112079557251,0.18458864227882188
1.3286532705320855,0.7325893178192822
1.8737783934357175,1.6705082455041236
0.1820093806925714,-0.3616927704409443
-0.3012579238621799,-0.47654476870395923
0.6288793448224991,0.7546899571204964
-0.3642497415455161,-0.24501207033380212
2.9539592778050086,1.014761808885022
1.6578704597365463,3.3592577072990863
2.7448720861150444,3.0833223628417006
-0.8253942783668259,-0.8949388329273812
3.0149607929998266,3.2401947510199136
-0.9508581568807928,-0.7173868202942777
-0.46479766062030253,1.0053301739838418
0.3866764733467389,2.5381843680817004
-1.1558025886373249,-0.5514889844105444
0.6789567302673988,1.776059334077107
-1.0715656256275927,-0.7158008393239346
1.184675678145536,0.1476662398526003
1.084770875418968,1.3035660760303949
0.5281050138162158,2.870849158582894
3.4564292978159643,3.2398191844299404
-0.8214466599543784,-0.2663704041754581
-0.17229873213600577,1.0159671139126933
0.4756046461092521,0.0367284069332765
-0.08465172221501563,-0.08548812554830554
1.4657814586794158,2.2161839398602075
-1.3419533023821886,0.027494605823375373
1.130975509011205,1.8074924186217287
1.2998653090360874,3.0307118382016336
1.2948970065309842,0.5220736164722566
1.5796097712851462,2.1793509143134764
3.271764824198766,2.288206676916994
2.878199672113007,2.7354191931272047
-0.7233481542670537,-0.8774562114207005
2.1936424042654963,2.2993840469060025
-0.43802602835921667,0.9407804077387982
1.4523086443006492,1.8621079856031413
1.7107481524109822,3.0009842134456397
0.028302705899717392,-0.9833036888744091
1.2974872205399437,0.21692914107738304
2.5006215325782013,1.5849144845797518
0.4102953290674286,0.8386756536698263
1.195399556869992,0.4884115287915638
1.4811093365942716,2.6446073733911333
0.6855113067759968,0.16322826486063136
-0.8820525900010241,-0.15241424501345602
0.7636888453010975,0.8663134282283458
2.6571028377982344,2.4451152966000516
0.5168516496860761,0.6897071445812868
2.34359840712341,2.375680876798264
0.7157749139394066,1.5629103711658465
1.5284752955777463,2.1214359190943672
0.8768656041745645,-0.20579873751968625
1.6653302532027932,0.7363703241597501
2.0464761676957917,1.9663474884344003
1.7489283737657795,1.5191030566538415
0.41884926565520514,2.202967721445458
0.9634306013972305,1.1028060165442874
-0.14772508612061036,0.12902673616312876
2.5048268208571165,2.6969867359387716
0.523400198025331,0.5481429860312597
3.1243518192687962,3.083259958486207
-0.47716266777427935,-0.008656928109728623
2.576511557441099,2.928311555876191
1.2377830934659255,1.0858806735254563
-0.7634598405881599,-0.7245490004229314
-0.08958754824692775,1.064464169775635
0.2870719089476759,-0.4043058158744167
4.030963660808281,1.950072213354634
0.33669394184967016,0.6635936109086691
-0.8386092195032425,-0.5242069611158686
0.018729939277103504,0.928680734742704
-0.010510968115661868,1.1964759233592535
-0.47658406049925334,-0.8837422539471618
4.023446109454558,3.0291152408056643
1.246508301696539,0.6315890262029955
-1.3432289980415415,-0.07937972028120643
-0.37216997093888565,-0.289317086020896
0.09504443951279966,0.041060927356534105
2.6976099571376393,2.0814122673582434
2.362674631473339,1.0380867288655065
1.5631692369889172,1.1251155653631146
1.2840644113270843,2.168171702167856
0.21594997363183258,0.5191304047119907
0.8095321601409655,1.5926259372783282
0.25795869150278994,0.49618146117769846
2.3403782819036425,2.8284552828334975
0.9711954287751046,0.6721865324116822
1.3742015509457597,3.0434162101236746
2.8941927004574826,2.622808068872065
-0.388212523122513,0.3609181689601675
0.06694832639157207,-0.46768026681021535
-0.46222223853586825,-0.9178148143576929
2.6594871447314956,2.442337083725857
2.5719814204092537,2.225839504301088
3.4880252080054133,3.1326979684002136
0.5889634888921452,1.838052053340539
1.1911266943262464,2.1152754757579766
-0.7811337252982721,-0.7288469025347228
1.3687879428640943,1.6181661235396856
-0.32513241802291176,-0.5115033889595964
0.8715490281360474,0.915617785571508
1.4515138634034654,2.015928181479225
2.7205254367603895,1.9660278254016519
-1.9239465795456603,-0.6656206586855005
1.4317525025698654,2.2722423240571814
1.1765185026080451,2.842264349741425
0.6553044503091435,-0.21911248383535764
2.384718225008748,2.1223867573257102
0.39439719413926283,0.7493396082558108
0.3518163942631858,0.9992287665916983
0.8462917448095455,-0.4377743189606764
1.6407392477703815,1.6900558261937961
-0.12108919199845039,1.0258223357552132
-0.6212459126077711,0.1152876010602022
-0.9924840313563189,1.6284480653535205
3.1270447995292554,2.8429235717664407
-1.0465334199842844,0.14100109945516115
2.443853833783894,2.8542953819698025
0.2685821310704002,-0.11855258390549317
2.4988568472771044,1.8918223053160932
1.2235240959244187,1.4984939566944515
-1.2108890197185243,1.2605660436228452
3.4883820835315484,3.390812311137471
1.4437472383394119,1.7476852630097248
-1.9894111850516252,-0.9414938713680606
-2.31689292677436,-0.5700974001098387
-0.40557017521751826,0.5205439375784784
0.9041997763095678,3.0590037002180788
-0.29105985880293683,-0.3298512763775233
0.6254763464392821,0.9421387527316603
0.5190173930410369,1.2984538399083032
0.7908870398640777,0.8463306979391674
1.807532679678137,1.0820865675310163
3.1418033193475634,2.6348580213053556
-0.4642506521366853,-0.09380910985296154
1.3830027306488042,1.7130785372191477
1.9557513858995448,3.3887068792555137
0.14338327241979623,-0.26983097777278575
2.52703147319423,2.835667568873381
0.4363118745570532,0.541892647914173
2.5005020033804417,3.4593824389939565
1.9411066781455673,1.8150137389954297
2.515007982305824,2.019876313590416
-1.5820410580384259,-0.998062825710935
0.6397217125471266,-0.3081405177756661
2.3425341448638664,3.4608699509782204
1.562339778745851,2.0931077860354756
-1.1294684965356476,-0.8973758972079469
1.7024488343477435,1.609864590721649
-0.40273390435937273,0.15128931892824649
0.002107987703338438,1.5150310229271615
1.5975760875802594,0.3954839116948312
1.3024626032003552,2.033488886141926
1.4092445532105884,3.3880717376645615
1.7817213157849632,2.489178763511993
-0.93572113817822,-0.9851432929463616
0.8364320296205798,0.7767750892232759
0.906678480223371,-0.7077763796441834
1.4473683287050163,0.3486530238264125
-1.1576068909987012,-0.4155039639807392
1.3662917391413272,2.6659181918056323
-0.28471703660432673,0.4215508134507564
0.9620194084912325,2.0858524404705108
1.235810518176733,2.4074469658516606
2.9696145328367463,1.9404565494690758
-0.7038891988357688,-0.21249488458236976
1.5266495135577975,1.9698018693610981
3.1678257850305944,1.2838026983945525
1.4621083326563418,0.20809665227016794
3.2774658853466025,2.3916941612382208
-0.012144928340602311,-0.035073321106969035
0.4440588297471341,2.4456288755102706
1.9680360439642015,2.3354628295753996
2.5535683107381733,2.456938627801806
2.9544770647632808,3.07632512861582
2.95505885513735,1.2624640392862836
-0.5136485667972609,0.5405286526997743
-1.1160263270829343,-0.18055075323685676
-1.5593130253656278,1.182743134875723
0.1898076389232809,-0.24682468112669953
2.8753883357185286,2.7837393735017613
0.6867551120802081,-0.5806767386991614
3.181490075278074,2.6619058608849033
-2.7108675091556256,-0.2823525862685189
2.0353438506878634,2.494193631569568
0.14576327065567304,0.2623627219611071
0.9613203404894647,2.419740629050189
0.880261967624652,1.0602831825524195
1.2410140446749782,1.2533576434840241
4.111306498469702,3.3609894671661618
1.11707360287001,0.16627851625294876
3.3848924965710485,2.64523745353074
3.2232070727511752,3.1659474394715863
0.044587255262417254,1.6414550612067127
1.068709284173728,0.42498908654767
2.5419424617904975,3.0881343654314826
2.25015039027099,2.079014958372359
2.256601525355375,2.9453486474934993
0.4450540588137653,2.4722886053076443
1.0398498756147028,2.0359437123468735
3.133304510699996,2.9643499093253576
1.0053625750100914,0.43465831669139554
2.6762489905683347,2.99355743966747
2.8838163023867276,3.078523130353397
0.33757037959637093,1.0559865456943194
1.807763483925368,3.198795141329321
-0.37852938711456907,-0.5829159671539822
-0.6710856781053502,-0.561179969877045
-0.31128493852607547,-0.22676874263216396
2.154831031310646,2.299197469300648
-0.46462364848033916,0.023358384551655398
1.0969661680043046,0.8673886098613766
1.6912750638098348,2.7091958732700148
-0.9304060988152351,-0.3895581085763411
3.2110051694537796,2.6008304799904867
1.1671936463503128,0.9534279395533101
-1.2783943605679644,-0.8376478749429671
0.8402525664491467,-0.7662802774937213
2.0676657716482967,3.3195167649351562
-0.012571039346713657,0.06640946797833913
-1.4514818725382344,-0.6225302015673633
-0.5773156484604891,-0.2128642689515452
1.2236196199208242,2.47023799684304
1.1008958554117168,0.5573762430166596
0.0947227286699797,-0.3112535656233919
1.1226376757016903,1.4456230254247915
-0.009741169614086241,0.7718042864829353
-0.0645508537124826,0.9202448032591735
1.9519970798265995,3.0138425212910382
1.1016657599523845,-0.15554023526926586
1.9176469548436343,1.8019644536902155
2.5754895922924796,2.9715608149211454
2.094684538383325,1.763219153828416
0.4394352582706598,1.2262832348135237
1.5525540452212516,2.0989314869606512
0.31410699026326677,0.9400876694020859
2.253171726610309,2.294198188767256
-0.7598640217532632,0.5478764404751735
0.5237685906689813,0.5605575652130694
0.5618148127125646,0.8062858929131269
1.3677981164313782,0.6938963690523374
-0.43522663288269153,-0.5659651045312216
0.16660481921830547,0.12019596375807207
-0.8124290704108721,-0.7923651094286305
2.787187138938009,3.3318415425736667
-0.6920577009144432,0.5928403522187167
-0.4393573348161541,0.5563721410106852
-0.04035349461744947,0.7204298087485739
-0.04035389085883376,-0.5283067391585436
0.10657220411851306,0.5903568812881563
1.733939510762236,1.8481021229861172
3.039846089626512,3.3573677243097064
-0.5368932555961331,-0.23019016675451098
-1.3826993500384126,-0.854360635283361
1.1592087740295274,0.9160613908995299
-1.9760660063922606,-0.8124599061190396
2.474508602509085,1.8066693526916109
1.152408942399048,2.535965833450456
-0.2663246996025784,-0.1716832366641171
2.1034174874923037,3.047060425863788
1.4185221771004475,1.8008711081612612
-0.9235663183669495,-0.36761487785136693
1.3661998103434188,1.2926390497110627
0.42321796105588433,1.8060235146869945
1.1899144453679293,1.8037874679997161
0.7995269746742953,3.0169174590011174
-0.34184707020578586,-0.5189242172487956
1.684718813743169,3.16609374489634
1.9738830787404393,1.4628626335898658
2.3489773005508923,1.0337312544790138
-0.09797516595478696,0.8889363519620319
0.5841422295804842,0.6993098298091742
2.238598602415819,3.1594924269232694
1.3175452184466372,2.224458402419323
-0.7117530053489537,0.6777474224159752
-0.029004277117543043,1.3639590244097248
0.42237467217812374,1.1036496646117113
0.61925375702807,2.0037684549241783
1.71536271990769,2.2369265089418144
2.1433670716482567,1.3097073892986284
1.8557077665067339,2.757941728176969
3.8019339062818083,3.434989106023706
2.3837758490147496,3.2557890073050206
2.3550108206792806,2.227655397989188
1.1051440745941683,1.9320321287793325
0.24135624845591128,-0.6217381415313374
-0.17232826500703066,-0.959848248941983
-0.721700164291216,-0.9598232192619641
2.19768260031196,2.1775970384151035
0.5802085301865384,1.8479680424176617
-0.049486935126491376,2.0157812676605253
0.5569935571560821,1.6190162440000306
2.156673004687917,0.6564402030902774
1.9017206802336082,1.7968973665042687
1.6645566993090217,2.8742806738390745
2.2571054477838532,3.4336536177165087
0.4298034671733258,1.1094607823603924
3.616071993787265,2.2200859766938152
1.7944764534990354,3.229908363579235
0.41635711893856925,1.7451393664558887
2.987004756651029,3.0295542374538886
1.8160498069037059,3.0474745907966065
5.166651745148498,3.1865180546229466
3.0083236368241586,3.3737484275973433
2.0740993785583797,2.1407607571619054
0.9195895380184581,0.799037355161436
1.7921813954586385,3.0226934490244934
0.8094589676944369,1.9350775199817152
1.4451328293471206,2.1528918630159475
-0.5933429347688336,-0.6452452368602242
1.432018038416202,1.9573234692931507
1.4506714754873815,0.20082581767681118
-0.5525730184943913,-0.3985659355094525
1.0451074992511162,1.4982580673609078
-0.0740599498234148,0.23293607832353036
2.357204846676461,1.4705669674839799
-1.7817310567315552,0.16471265024589932
2.7553776296161216,2.696739865969119
-1.4374976966850217,1.6095091847126217
2.212169787082424,1.1948186110395458
3.0766538479883483,2.3077345359352983
1.1439550066616988,1.283099736735163
2.1059243996529506,2.7719319661038595
1.0297394769905996,1.7396988478010753
1.51415412242331,0.8573195962198661
0.13817873257581548,0.8467820246450617
3.1935457354353036,0.6615993483252771
1.7530228396784504,1.9418726667957076
1.6607936199558602,1.9782357375485309
-0.16182281249665786,0.14693826626243367
-1.293573429188897,-0.061529451463609
0.1273058187468209,-0.2865993864457168
-0.7894544277735778,0.319830855301549
4.336705986855545,2.886504589110384
-0.5866515603289232,0.46313558266648736
2.280851993390302,1.9592850101965928
0.8386333278063928,2.092721492377265
1.7139734178180372,3.080871853905415
0.7618170462573708,1.7590103888032296
1.1607345274935763,2.342885668840427
2.65914664544325,3.24437679724776
0.04308410544820372,1.171651275464273
3.806842526805794,2.60854734332913
-0.8672890678927558,0.7995501239013716
1.7743990489551937,2.8154787156184615
2.110831386995388,2.5973239806687864
3.1608932793503834,1.5920326039771076
1.5297750215769201,2.426771760464775
2.3911162197257285,1.2931526001363647
2.66713465742357,3.4311363318726116
0.18245222677492912,-0.4669613747956307
-0.23979512485022192,-0.40043974130510174
2.182044994633551,2.0449568544232277
1.989503543474191,1.1601489075476166
3.8094339145648943,3.1024706215127207
2.462438281914166,-0.02443795376901514
2.800278895180621,1.9066561544486889
0.09593482168569546,0.8624696463429631
-0.547032811986367,-0.5120741402900365
1.6705965683692512,1.1141072542126165
2.1912848328370065,1.7516230310000864
-1.004921061199339,-0.4974535639654758
-0.037283220776683224,0.23863390923368777
0.04364370726699386,-0.10758153142074522
0.5393804880620132,1.790288266119429
0.6429479134025485,0.7914788332867846
0.49780834355941633,0.6152731969612075
-0.2273756119560813,-0.5474371974770471
0.46266610690989396,-0.44214760681461474
2.5628716973088674,3.0134151262522417
1.6334549984753612,0.6981136462443671
2.483287003737234,2.5584374961631404
-1.5616245515901754,-0.8353143991302827
-0.3014825266802727,-0.6129557985501948
-2.0052772774833345,-0.8030784881079995
0.6753990124225958,0.32821122125022306
1.9228204295713567,1.3093908667974676
1.0441639437662507,1.8010162602163415
-1.62688710303523,-0.8089539290787311
3.189257481604885,3.355715490195333
2.6817618550831663,1.7873508347923623
1.1798864500357489,2.243198083030497
1.7192547431184915,1.6539072589535042
2.2228125670747447,1.4975141218598709
2.4607539095728943,3.183523055730233
-0.6916509373202024,0.19120977219479496
1.8042323102367839,2.11518731524272
3.0944146490783364,1.24438254120347
3.825383625657066,2.5844580811292834
3.5665807385359125,2.697490476672066
3.3309224385517586,3.4319953987175724
0.8917890984093831,1.204924255222819
1.1242903002117388,1.2707195037753056
2.0603687028856497,2.205616709166874
3.0518240122246074,1.4763666785893705
3.4237716794570194,2.2095273811779172
-1.3880185193022079,0.1604917821572367
-0.5837906976730284,-0.6953195254109303
2.1913406883857576,3.131241879040034
0.6454766298992751,-0.4804360559097799
-0.6127965248825603,-0.35875204209495815
2.387099088437657,1.804693372588555
1.4442670525983712,1.8003346711772719
-1.8115491652230422,-0.33029082160543055
0.8510339398438463,0.6162688027303707
1.9417534592756878,2.6856859212280186
3.7680441852471143,3.1043418753404595
3.0557589516457426,3.4065503885534527
3.0652719741659276,2.163944627624273
1.2458778206841568,2.063796663518978
