x1,x2,x3,x4,x5,x6,y1,y2,y3,y4,y5,y6,y7
1.9206199868514382,2.7971265377064376,0.30294065891056543,2.540935646510487,0.3846141994529039,1.6192223866133633,-1.978450572701201,0.6240909328879676,-0.5115592600517254,-1.718573534709501,-0.3257652787195463,2.2176771423332493,-1.4357325805852799
-0.01692817215917331,-0.14513259653229438,3.0526101954373077,-0.642426694226264,5.387030897730215,0.5280793132303176,-3.0667261785887168,-0.7606750717749852,-3.8321387839461094,-1.3988353122072734,2.053012317202886,1.6621716650816003,-1.1845431516376883
1.1716408423316307,2.92140277601356,1.397493392231457,1.6731267908478293,3.2053438423018195,1.4292447212081147,-0.4383075721605394,-0.35336709065588656,-2.5292903419285446,-1.9787297104804595,-0.05930445849771099,-0.1277226196716572,-1.5084836526910728
1.8273354075839132,-0.3716383343517815,0.47673845582717833,2.127797610492682,1.9488662156113428,1.6900404660953052,-3.486567366808222,-1.2752298731410363,-3.1211151373578865,-3.4679117424392674,2.0033209461643917,2.4786241574553634,-1.3376654372126924
-0.13755893401537467,3.2274065172074833,2.0640803865947066,0.05698250227581858,3.3502346893505583,1.6584451122655888,-2.0583908645258457,-0.1407624931171809,-4.364897384722948,-2.1973564788505966,2.099058293498681,2.1347885133079854,-1.6034764181912098
0.3059989090254398,0.8808701976002384,2.525623819703551,-0.8958494100353929,8.282648367844084,0.7244874305479607,-8.1688142670291,-1.090837733030121,-5.047928610528625,-3.8626656248718843,2.019052577916969,2.045170438963268,-1.2771541491676506
0.9475550590867612,1.5478677979900866,-0.2954425079796239,0.3209569596229276,3.2803242826814643,1.5915448167644368,-0.0948475571343006,-0.6607264936774954,-1.8084335264909726,-0.3716880059295497,1.0633126669607915,2.130502033634103,-2.0247111428278397
0.2540154974463491,1.3314498269133033,1.899053826202759,0.9446630129850933,3.9925838979739146,2.1967402846519226,-4.006883917200418,-1.0670683124984446,-4.001734659816727,-5.356360268836763,2.480941567379142,4.506534361960529,-2.4425274838963382
0.6587935602976434,3.357476214174909,2.951850333860838,1.3070658778937854,4.973039801014411,3.0008990092909813,-6.400501888201392,-1.3343420138375186,-3.3762356050433,-3.9622381792403414,2.8332361941804,-0.568807979807805,-0.5128229954947325
0.2351842493574155,0.08662828013212698,0.70491323313927,2.378679752099802,2.169605820941227,0.8805311576069174,-0.4350583553791256,-0.5933198098834439,-5.1320360910149425,-2.8771854671234256,1.6705320201908644,2.601104230753284,-0.8972346717997536
-0.01830712472209508,3.2240248171792496,0.2274626402547193,1.1555606019015046,0.9302728696408339,1.809574932276384,0.3737819113559633,-0.779735198356466,-0.4800280435306144,-0.8452180834645249,1.6124845264263792,1.0447986094032387,-0.46780688493325256
0.018519059992228897,0.8685811812417006,2.6514373715483317,-0.7677129945375462,4.098799183576222,1.259257923098834,-4.60409592439963,-0.7430006343039433,-0.05399701866731088,-2.781337236778641,1.05479755651764,1.8634197728280641,-2.24820410177725
1.1928195071609564,1.3059637386675491,0.7533035091700433,2.253567215093383,1.499349625784949,1.1327096556867937,-2.5292409675460665,-1.2473013131398412,-1.964396878507722,-2.8452023942557045,0.418001067975192,1.2693039273218534,-0.7966640612291891
0.22737333685987138,-0.7161385648620804,2.9405503306164382,1.1444935928952251,5.095315302806425,0.43117160223280504,-0.1760209188989279,-0.9296764023945439,-0.23904945295601981,-2.4746218584973727,0.9018428854794274,2.2783104362102478,-2.4416180399578415
-0.1497490150700682,1.8125685917677479,1.835350796800809,0.021950128537415292,2.2602433539992415,0.6855243012024024,-1.2670356049840181,-0.3480388811179891,-3.439533088087746,-2.6667354511884565,2.3089544720161683,1.4658822154155233,-2.3703556889202573
-0.7538327584419635,2.5457384440390096,1.8099282551414646,-0.9419356753243672,3.659834669287683,1.5287330828978312,-2.1496282454346716,-0.22847606545536397,-2.246261037898358,-0.3260975865060881,0.31228150513274966,0.30485347898753323,0.09471871193409938
1.4983208529666128,1.2642054362535142,-0.054886025875239164,2.4494087115680476,0.7742513674330658,0.12883791870429506,0.04060416093468755,-0.004093714422379879,1.2726089009829964,-0.9709172345992174,1.2790122168518503,1.406179919822019,-1.8166747886321175
1.2317565236200438,0.8235782329716972,2.960739622942836,2.04663142279829,4.923538665555929,2.371399059853297,-5.2448778708651975,-1.5011760632774283,-4.070276807826947,-6.124574702032875,2.183993637596932,3.8385427521933893,-1.0634064085560235
-0.5317585574653336,-0.8650682934635531,1.244526270880102,-0.5966881373416308,2.1793377176904585,-0.7560418148577364,-1.2619555847573771,-0.7101554197313111,1.0575411336883729,-3.094282424490539,-0.8035006462411969,2.9934430891345345,-1.9356836194087936
-0.3601964359983142,0.9909289587280086,1.8285236247644234,-0.4220195840348391,0.9630138784129061,1.1135517125782723,1.2872030341312892,-0.5719104830857145,-1.4796243986468771,-0.7335182238490146,0.6268122479839785,-0.9859432144043576,0.007586501084946498
-0.1870331104778645,0.6462566951558644,0.3531512896919664,-0.6997921621326544,-1.584480240482817,0.9898871019885851,-1.9213667066831182,-0.011669909850992866,-1.7768185553135847,-0.08390069491484414,-1.6228565549987999,1.3997060494900766,0.245360556232271
1.2148324121102085,1.2318540323695135,1.2136354943208083,1.5514578670543302,0.48000039870977135,-0.17819090469215226,-1.451719360091428,0.18277984783222162,0.23556932079885118,-0.38570856419856975,0.8028160938508346,0.41903450666652564,-0.7488364718245177
0.756109099665137,-0.4084745672709853,2.0811737367927003,0.2569366004912472,1.1609088562356291,-0.2189952759741563,3.2598182872485015,0.24692368088342354,1.1880851235048473,-0.6851224839986872,-0.46022720423236363,2.4251113881785322,-1.43887019528138
0.8452734731839352,-0.3835609147447422,3.0517809440488133,0.4820434071856394,5.093703425166073,1.0532140000441343,-3.7336761860320125,-1.0351271462610963,-1.602026095523547,-3.7351538025916753,0.9188583118922915,-0.6871554463270493,-0.5827866636101721
-0.3833135718502352,3.2246740404258745,2.4734289895667225,0.07141472513620428,2.2511009031612055,1.6235945893520654,-3.395154275324001,-0.9108921786424609,-1.7920201952992545,-2.5544526798481635,0.6889869096445717,-0.62160462490365,0.9983651275463817
-0.3041886228941865,2.7972820569238688,-0.5392347700982634,-0.010801007202950297,1.3054268337986508,0.22333429377766678,2.2714593459885988,0.29168894924750977,4.402754298235703,1.227207143329292,-1.2234866993617692,1.8374828328071593,-2.0751158165228594
0.44270505216358247,0.021008403410636367,2.4032634501320604,1.8097750321928725,4.01561792912684,1.5337500358191036,-2.067879219606138,-0.9422054680092358,-1.3044581979147447,-3.470580217988263,1.4778936114250332,1.6939765680297454,-0.6408697187039595
-0.7881450268122182,1.4492909063295785,-0.6885831839525115,-0.27867324992252807,0.4227786859643636,-0.638803835893108,0.28801007931078315,0.7431830283459167,1.6141992109698713,0.8852096430898908,-1.783353471327782,2.3286817146295737,-1.3342544723817786
-0.044650195308014576,3.4623382881010514,-0.14265195795738317,-0.20899762415079137,-0.0239167482690833,1.8544329856522932,1.7657832076083373,1.0190357533424712,-1.439950656398593,0.24159941142444857,0.15766384338699052,1.9231352250053875,-2.100862968032276
1.5311798014413023,-0.28232089048641473,1.33981567402062,0.3221114998512531,2.990775011324644,1.221448169335648,-2.673550405429188,-0.14704933802845138,-2.228828304527374,-4.269211630810441,1.4184738856038508,2.555530462583925,-2.4131495150680884
1.003172364654744,1.8506535066648637,0.8546075746040207,2.900500439527136,0.1444341796698276,1.7420363267929324,2.235610857662839,0.46185468890221715,0.3806361465287804,-0.3775463209685152,-0.18499895651567597,2.809985805919223,-1.6854519412581859
2.2427093377321303,0.696168472854698,2.821718988886341,3.2280738065936454,6.670465466778293,1.0321863876240878,-4.511399317501908,-1.684315423132679,-3.481109442424184,-4.299211193975631,2.75856466094855,0.4754121034197365,-2.946521837086553
0.2609288504879995,1.5096647645602732,-0.9051802855789878,-0.11607486516229248,0.34283888704807763,0.050163858495856195,0.989585758857114,-0.05540436348983886,-0.22227470757767026,0.9408776478896103,-1.0686164236820461,1.2389192531472593,-1.310309993910949
0.8826414354057991,2.5726696603909422,2.1712701364938307,2.1092149865865544,3.6585058982854055,2.710571488059743,-5.849746484702809,-1.7667074933658133,-5.957478907337933,-3.1668578117726023,2.495182167863448,1.5144485125678508,-0.2626127211870553
1.014186643486897,-0.5462801345153817,-0.25172730590428716,2.6833132316458026,1.791555861606836,-0.01860117356052493,-0.7742950199588308,-0.7119229702929762,-0.1858977600654174,-2.108742678162191,1.0020770499330716,-1.0991295579118168,0.252394743792249
1.51010022701788,1.4188633584331072,1.8863609929107064,1.9398410337710081,0.6680791458735083,1.360196969031093,-3.8836164015436223,-1.0132256213897102,-3.3052521236574766,-3.898915418702977,1.3783793815191765,-0.26329924139289096,0.6473651170158934
1.7626988974049753,2.9197935520055314,2.48697277981322,1.9029488013043223,5.179085464112685,1.3969122523696513,-5.508939593849663,-0.9009843224048522,-4.097497275517272,-2.8036256199000213,0.30799391202059506,1.9478260818762647,-1.3344696722072455
1.6571889878660135,2.328779994781886,2.0624275611687026,2.1434002411793602,-0.2944489475436066,2.5660173151342196,-2.65004653297082,-1.1320172393430896,-4.536857670763615,-3.529648659674708,3.9460098624848614,-0.49967804640402824,-1.260014657652338
1.824398293857328,1.1185261417111936,2.341855245104453,2.0796849803145547,2.956144028973813,2.273660810118365,-3.4294268217564516,-0.6589793865727176,-5.963361693541099,-1.5381417601984744,1.833640140635079,-1.2313863607035453,1.2230569282826753
-0.9888881902518079,0.9354016035233572,2.0644011121610353,0.2797647540469681,2.388380163670291,0.06658014579059446,-0.9110123150078371,-0.2617433127342415,0.7025887695082893,-2.6357495032274674,1.446709932186058,0.21385094845741515,-1.2719113556479171
0.7722053243003832,1.6683226254622658,1.5039835745809067,2.616942227864652,2.764634992693114,0.7166864707505954,1.4490776638890395,-0.5248713489025036,-1.3665801876023698,-0.6695031329368631,0.9403953351254586,-0.5726673163710883,-0.03258933418223477
-0.4393419984256508,3.0397498442007533,3.43110834309394,-0.0027517066418558667,8.124531610091507,1.3507220489841092,-4.29432799318808,-1.4493077959733616,-2.7189807114833235,-4.454060211105017,2.474169606159419,-2.1350167461610408,0.5003661596467044
0.5412528812125225,2.5916012457923245,2.9082175332560736,0.7729423850336112,3.4416251819117347,1.1338325613865092,-3.8715461149658537,-0.04927258514739652,-4.1454214605666335,-1.9165459319017166,1.9187666238438166,3.0792615416735005,-0.7673449382199788
1.4945739456548954,1.1450406754292963,1.3015323145343292,2.1116030878802383,2.2913643446627785,1.0130918490593372,-3.5434829646891264,-0.4152233745737628,-2.488945546220854,-2.4225044490179517,1.2486368857237957,3.276708541973911,-1.2679270217255196
0.9853206423279842,2.7630006504077964,-0.8712967054089364,0.6651400176089319,1.6578190003075566,0.8786849307428894,-0.22732552731335365,-0.4844261873002778,0.49390056900134854,-0.8852479492856792,-0.6015805595236577,0.0023870417036847558,1.4347819977688567
-0.17072350602843195,0.16382762261260497,1.801750768126006,1.1241459655427333,2.4347519170604577,0.17972238130896034,1.158690754989569,-0.9364359444092732,0.36118952510520946,-0.027459224936617233,0.7764830885763817,-1.288433341959188,2.0262688432164073
-0.8893038097556287,1.981900275290275,-0.16964399364283256,-0.6275271583333126,-2.3471318809777024,0.4426941777362415,-2.3312146432590484,-0.10379023098827225,-2.5803500021374832,-0.8052005113286331,-2.060644193228851,2.08093448001975,0.655626956086814
0.3815740907091265,2.626344616403213,2.8408617530138613,0.41340077408785514,6.490697036121944,1.4483648992159417,-3.6008898926697253,-2.0499998032822377,-4.161414079631392,-2.996227999055021,3.4423026254483324,1.23417424729905,-1.8932247344267537
0.6658022141602912,0.7337987429148614,2.2207122477760257,1.9115426194231522,6.665483572149071,0.8471174270259171,-3.867401934123015,-1.869845356952919,-2.6726653897183903,-4.858286410338364,3.6800200947618267,-0.02949466759866981,-0.5490374885042776
1.8463877158751645,2.0890080629560424,-0.7176700400534863,3.1819526743491,-2.3962018763832313,2.185137027372041,0.3763167321817298,1.0544635896760581,-1.2198995557991303,-1.1696413787015978,0.7866921498056688,2.483327771189809,-2.4008783946587418
0.24308053436910895,0.017513421721587985,3.1337729659285145,-0.03077058882108119,2.8607458504350003,-1.0991318061605166,-2.7308521873103393,-0.7517705482090746,-3.5654362941225606,-3.3668370088391084,2.00522122255126,-0.6919941714735567,0.5469093730317472
1.1269461619569179,1.6301412998598255,-0.31266275293038226,2.791690422760118,-0.3849031711230859,0.6143136126987798,0.16333523861396815,0.4714348365881278,1.0483835334538287,0.3244564173294575,-0.5380595945756639,1.6705191771149044,1.0945130958481477
-1.0434241428118571,2.780518873336772,-0.6927998616213901,-0.3285817993202139,-1.300289258559705,0.6870639764366615,1.8738797483699072,0.08731821897916747,-1.2543878110851143,3.4130044875099026,-0.6941721570349277,0.23077610983493202,-1.6355830152633541
0.6649679906836772,1.2512460189646775,0.5868478612699624,1.1958942758805633,1.3435748545737725,-0.4002747792343959,1.9420576256944992,0.8869302789848807,2.15464648599054,-0.5493541846043879,-1.7989257648746337,2.8694130557281676,-2.297104448350713
2.283125560136474,1.1589568495017861,0.5018120889662612,2.953423341754665,3.0141487366974937,-0.47892270002105264,-1.6098880567287375,-0.21877466088420014,-0.48668862783348416,-0.2314760670590763,0.40299520073931894,3.246880380719252,-1.25185881239464
0.11063373651337573,1.7592786296552356,1.8483542716735877,2.2965776076621207,5.875024898709658,1.5184889092782798,-4.566971501012645,-0.0696637439484917,-3.374869622028715,0.06817189400321384,1.1682972448132378,3.1676982205619293,-1.315383824926541
0.3034311238123819,1.3136912766551117,0.9065338527486448,-0.44412851101091666,1.572106947771762,1.2795818054924537,-2.149480898907225,-1.1800001208323698,-1.7719597647993126,-0.8149089710177928,2.204386003093565,1.1696542226903253,-1.1106762512836468
1.4624656729474321,-0.7894278128526411,3.1538307082476393,1.7098399225685084,5.52867352009175,0.30549732138245167,-2.863370688477789,-2.073408874977331,-5.832563662803658,-6.032519066913156,0.12473387120877921,0.4445039709677594,-0.24143377653288856
0.775601575307523,2.1744345342859774,0.7418984594831226,0.6921839388508189,1.263686795241933,0.8436046476118985,0.25572658718802477,0.6087996739441466,-1.744451424471921,2.4831313200474034,0.770307644555896,-0.7121719426513705,1.0137320978732407
1.0005666920057859,-0.11681362184590616,2.2545697627526726,2.3955996604513006,2.5672298572577943,0.12455479419564985,-1.558570937327516,-0.4819409918469499,-0.5239473198697693,-0.9042438745701218,1.8438503737626701,0.5481542056267739,-0.4089673705792552
1.8616517826250136,0.2606375745093903,1.9109844150795285,1.9334228992356044,1.0950323917692066,1.5480368654073269,-0.9398006319849272,-0.22597177054157902,1.7144163715913074,-3.477806469859569,1.6359558741824192,-1.0140590219470094,0.6703617225447963
1.3043282418695736,2.2181167354271256,-0.904415211360177,2.420224852440047,-1.0474602510128506,0.5814386455597695,0.8368363162594825,0.6255774466331003,3.0068661878715788,0.08969565108388244,-1.0685555039364225,1.6459899751855351,-2.3595289954751215
1.444680581863193,1.9599534392586309,1.7442147693857106,1.441636437503421,1.896821684017013,0.9169675870625663,-2.860665990030814,-1.049842730806104,-3.7061606121057062,-5.129670542323957,1.5194635438278472,2.3365573726689286,-1.951819408735047
1.2676893574954446,1.6626442730510802,1.5941942040818993,1.779212858345045,1.5074499246401196,1.09523262879153,-2.1989926163920113,-0.5885985226320569,-2.9359187099893025,-2.736431923077015,2.4000275726347473,1.9890162684419495,-0.6412030240219565
-0.17500715253100183,1.1153441404781326,-0.0953722691674902,1.2623004591196718,0.8993204722230801,1.0562504402414123,1.5706880115699968,-0.1617936075392607,-1.130679497310024,0.8120327770109141,0.20160677652598807,2.1161442113075584,-2.817100208675091
0.6488545197686848,0.9073428547517772,-0.578520537499063,-0.38304226824828724,-1.0066846797634805,-0.567902691079404,-0.10249384912528203,-0.4027328891741443,0.28466448269244715,2.0891340742902016,0.8168593284481732,1.7296806283851534,0.42528536729418653
1.1207590359898236,1.43135821467179,0.08355977678726112,1.702467674866495,0.5984177907587716,2.037243893347306,-2.7333804583979484,-1.0431038134338042,-2.992254645699596,-0.49889310057200176,0.8654599236123385,3.1565495279210056,-2.3042916632320125
1.8454801769677496,2.163661179359836,-0.2457539176319875,1.3794512908867143,-0.07847896013741629,-0.1295331148019728,3.6821426636710832,-0.9878610589783625,-0.40583013752536345,1.0231290575753142,-1.1432953138873896,1.3201755957197934,-1.7966282311173682
0.7890376177102769,1.9372465724946797,2.742690874324527,1.2349009881085178,1.2181170096447347,1.6406992995446985,-2.8479196778337057,-0.3398012550034315,-2.2071132076317626,-0.6084349999401976,1.116561924480931,-0.31425582755781634,0.8385250699836884
0.34419234934881754,0.5489288516277024,2.445898844719515,1.196741904295282,3.5964735104320256,1.0670404410192509,-1.545138642064329,-0.23283856459400532,-1.7056689249261767,-3.1249828023404542,-0.01410263638730997,-1.7215608723982943,-0.22885144193027468
1.2389050463262272,2.142711230389204,2.654173818781472,1.3150172614875033,5.017563153524556,1.741679911548042,-3.082167504188744,-0.8788678595160915,-3.460444192471885,-3.0169097492089416,1.0659140776952307,2.9506268281341126,-1.9845328711003756
1.9459242312791192,3.36718208193283,3.2471789123111092,3.29386780256195,4.029283253671515,2.900544283398733,-2.864594261172348,-2.0600753667187788,-5.489043737436907,-5.408535478710015,2.8270381114128247,3.5743476739167406,-0.7828618680601008
0.3974913517922598,2.5443302059592026,1.6346675810143316,1.9724387532375585,1.459871625349542,1.4938804882456531,-0.3945783513996035,-1.3056645538562464,0.3125253712113597,0.5218572037556537,1.986456223574637,-0.4723809063059303,-0.5666400295701088
1.0349080451261088,1.2209610171298317,2.9514635507572367,0.14296143277539475,4.470569433523142,1.6061253439875374,-2.263856266692942,-0.5300821197927016,-2.527483142057868,-3.78371459714735,0.7883798377216986,0.5234023067263126,0.7133414403149564
0.5812180295592168,2.624830441491853,1.8300015922320085,-0.15293745862458585,3.4006000300706374,1.6881121694484076,-0.03759097282697385,-1.0928697749104956,-0.24458579766984423,2.1089764332244187,-1.5752802494844644,0.6131182828186743,-1.039424041066677
-0.2753779019666065,2.521737343322639,-0.5550131899935821,0.0681091861436518,1.0910395657174596,0.39456025570295106,1.2065385893240697,-0.1285022568985757,-2.288530351083787,0.18311791720064258,0.05604970135315257,2.7774378018757035,-1.079253290470927
0.7076200300242871,3.3320802675109116,-0.1773365394334293,2.682377535791778,0.31539774389718367,1.9828788882870736,-2.0046660752240135,-0.867234616543577,-1.5033555946996002,-1.2472702771472282,2.551558718410334,2.9779160386415526,-0.7082059707032408
0.37225595897973457,2.2358710244247555,2.492647753715094,-0.75645391732105,5.303649035502085,0.8102347357415927,-1.2421652829305552,1.112107068073573,-0.1917714335038989,0.41186346419351383,0.37350674271121087,2.017100594620481,-3.338322822462611
2.129936256837901,2.773218036964924,-0.006998922611146985,2.1320643302225903,2.648334608288712,1.3916813475516352,-3.981888793943864,0.11654902108636726,-1.4044176825904837,-2.654261308316296,0.7238403313707732,3.14893236538201,-2.1765248197208895
0.17884373957651128,1.770424178401738,2.6278807166365246,0.36939088737896597,4.844471191431634,2.0811760012465452,-6.049670909389292,-0.7306323805780424,-2.928223705581133,-1.507865082226635,1.0097201098558746,1.6613244798237061,0.24702120161446117
1.5442265232584318,1.418279846381925,0.7745408243727305,2.4294134365981406,0.7844582817635155,0.7495010948611227,-2.0513902106453563,0.1965613030333916,-3.2700288399146675,-0.5834460042146232,0.3520746235724528,3.593951500450899,-1.05162235597039
1.767254951919696,0.20840666060379753,-0.09630830075727037,1.6375751404735976,0.3219607267608884,-0.7617505472965903,-2.1974298581176273,-0.16412612629477208,-0.16728309454947143,0.0249703536069239,0.21437153636003659,1.423438456779917,0.16656604119913423
0.8907458786709499,2.1986314199701407,1.8082349166840088,-0.2193965688509505,2.1553588588166663,1.5699258293784195,-3.6563159026568055,-1.0576660430330387,-2.3386362098237123,-2.8328313952173616,2.5284496856986682,0.22878215679025327,-0.7027037994295133
2.6461366676737152,1.0490409594595134,-0.1798585035208622,3.162841033693403,-0.8728719765009167,1.663604620451258,-1.7677732283730803,-0.5831821598297868,-1.7920009511391217,0.5050585065506952,-0.36057173591634184,3.1863915505090548,-0.5807634069456741
1.511524587536559,2.0404877265229002,-0.33373202753355025,0.8184554008218987,-0.1657000432757696,0.49763680861020626,1.0590241047610618,-0.9160663503020068,-0.28012394314139133,1.695184082482409,-0.21354534342546275,1.0260466411648363,0.7198097239671296
0.4140063178924029,0.6830653146836851,3.4632084374260375,1.4457497502447976,3.7987728416601403,1.2317777872472857,-3.233483751923399,-0.7496067439727849,-1.5976893763733042,-0.8132887981974584,1.6245494316528921,-1.1376467715772847,-1.2819875018666052
1.5051854423132343,0.7444108246629675,-0.8686698396883206,3.169087363446919,0.1857088432476972,1.6624463025025615,-1.109612525186488,-1.1031112507902017,-1.4609648691054062,-0.6777796747756442,2.0582552557229947,3.2709455862845545,-0.9626798371992518
1.1634545387374127,0.4132288762086389,1.1152397244388523,-0.5155095807657482,3.221373617665958,0.8486410207146676,-3.205614729423308,-0.5934456745632369,-1.2987223190388484,-1.7536377367436693,0.7796474908832662,4.689823838388966,-2.3236567107313717
-0.585730756445961,0.23882181021973592,0.012661730151696027,-0.4972645116398118,1.4244910554810961,-0.469434885356128,-1.5398778655258762,0.6627144727159048,-0.5721930675102991,0.5074159294933367,-2.410464297328789,2.270952042971859,-0.6535272955021382
2.0378088776923353,2.026964705031138,2.0234210125329977,3.1664147014447837,2.721191886517786,1.198151046945474,-1.8428763524241936,-1.4022494359707958,-3.8418117844318456,-4.332621117263965,2.0727016488880574,0.7732933818343015,-1.3446759206067391
0.29582007086278594,1.8591176003462717,2.032821476427681,-0.03763925437286986,3.831242864043716,1.9221901122603529,-4.722464847457553,-0.8528727588393152,-3.7553123107876427,-3.5635575444773218,1.331231392343556,0.7892304932309916,-0.9565364496047223
0.5304804573742598,0.12197295112780249,-0.9871178009504293,0.4461176647648546,-2.1314763136718096,0.48270938390749935,0.8279946382181536,0.3505483947886514,-0.8639660048736888,1.9461692722975532,-1.295893543338046,-0.47945650470950213,1.2063272722265856
0.538477245157375,1.6280174816516704,0.987030890988597,1.6995415991588265,4.035366958888542,0.6492604562689139,-2.081925018033548,-0.18392922670726877,-1.1209758921186381,-3.5405483919244025,1.864579578829608,2.2766090903418266,-2.451331052311554
1.7939806304053119,1.1278899697167328,2.233304469653659,2.8972831983395135,0.25777241482181984,1.4263393923890124,-5.470376495555255,-1.8543806539750938,-1.8753156639714192,-5.5755085140401155,2.8483249364730234,0.04067149184795499,-1.017237410544968
1.312229613281147,2.018406900694579,2.1381350661835063,3.326520039911477,2.9422729652889283,1.5050970636981276,-4.963747647699427,-0.6919857189486205,-0.7921112695378754,-0.36385486481068663,0.0007363580277928439,-0.44286167766608164,0.620029268677448
0.6225553771043519,0.8717382662857223,2.039092016807064,1.4999954446392683,4.317784974056794,-0.7399383779633996,-3.803065767443068,-0.860369863861589,-2.235982672730366,0.12896934192884846,1.515045294982317,1.826080674614977,-2.764277311696434
0.7360620293454647,2.304220319745948,2.1051405284659537,2.5846618513410498,1.2597134506519363,1.8225488712371676,-0.18704822415012712,0.008405053977856899,-0.1348535675373251,-0.6081393621991197,2.4245125386024355,-1.7818620292435128,0.5032023365539169
0.7001177097914264,2.264982856501325,1.6025203924065656,2.0007591530652427,4.037688374719803,1.7077638885564503,-1.4662420602734125,-0.7219498151084542,-2.6441580209347197,-3.543073852605871,1.2757645866435015,0.0050719850727175275,-0.7477025372076807
0.7083162506141015,2.4186450068881302,1.706738979682847,1.6012283431298004,5.6648886216918015,3.141279528091067,-1.5655982120467522,-0.5524008998672474,-3.6646153919159397,-2.904153095876208,1.6023629312081753,3.094872851179425,-2.2336095231391093
-0.900138136950607,3.3912518923159594,0.9570513909857172,-0.6988867512906799,3.5204517997736655,2.4703103026655793,1.4633363724856148,-0.2224989506648659,0.19289167801861884,-1.727645087939221,-0.35021058062413246,4.061789262017007,-2.05385286574396
-1.1788245935173907,-0.8899268210289767,-0.444839666956231,-0.26722445481550094,-0.5839291859725336,-1.1585188489973963,3.646608994270135,1.2089634634624762,1.3106794706403977,5.962143741955657,-2.1958602878714597,2.062132051656101,-1.2250909989683936
0.16754456259872422,0.6392686214869252,2.9574859117046315,1.206840601181685,3.821714437932304,2.2669921595431557,-1.5834379468816822,-1.384481888994464,-3.3745289710551316,-1.874854754692294,1.6423912267352898,1.0547503474674114,-3.2116365693845883
0.9617250374515708,2.1034567648615035,3.346711033039088,0.8494208178981564,4.332314284761196,2.2036426656121035,-5.599759691508792,-1.3850869797176952,-0.8412868521777399,-2.8080964976119063,0.3648806861220699,0.935245798312986,0.13030933438543998
0.47995468024394367,0.2829181227898514,-0.874693656270889,1.4170508507972288,-0.39269211860883224,-0.6313388713763477,0.24072718682555427,-1.11525463137257,-1.595304375251196,1.6910613710909919,0.7598353103170419,-0.9021042409991932,0.4220212406571989
1.1791045353528744,-0.09255874897217842,2.0474485525181487,1.3315180539036637,0.4411656826679783,1.7641342323829203,0.002246715208629513,-0.6851264731511514,-2.47073407250287,-0.1560525715892409,2.253193663439994,1.0655476420870569,0.17532901142698581
2.0743582528766384,-0.3132931996123438,2.737121798990578,2.9596009504924767,0.7627532076997754,-0.692074694742659,-1.6946645614032396,-0.6160786388548155,-2.0337442161577504,-1.5692226440694388,2.188188681280153,0.34896028911452703,0.7845946647394142
1.2625206825090476,2.322282128230319,2.7220113034244138,2.8191717050785936,5.96905689618301,3.1484969361982897,-6.9244466739437165,-2.4365707180136535,-5.8400400817406375,-4.229626124502073,2.4654329745003944,-0.6524036346992562,-0.197110347030066
-0.1853097281255531,1.268966647783604,0.24472573638756367,-0.10350884254024106,-0.7699565691118447,0.41788699676224234,0.885113365841489,-0.6256625532921355,2.456264877171308,0.7476621093701639,1.4320859788855296,1.2163117849651721,-0.2200553548715016
0.1771917445354766,-0.2887486540680333,1.7729749773811365,-0.6338145092059244,0.9965607457542153,-0.08480151155868346,0.0836409859966456,0.18045649066261207,-1.3333981074906407,1.2221598133168623,-1.0058926143356772,0.30929940509786114,-1.4200075381647845
0.6109728287526675,-0.6040919396160771,0.8166583078082796,1.1530474262005868,2.9409504566113576,-0.63867430875953,-1.0711746360099497,-0.46833257871997597,0.6422426810291864,0.002507084653720182,0.19279347167803398,2.229891616691036,-2.8480921324520465
1.0242184290356537,0.8154244883108372,3.186400401032529,0.014921048711281415,3.2758846551354273,1.8968363010663611,-1.3251979168702752,-0.3852695935524575,-2.5695722296991157,-2.117648616650177,1.1037324332684777,1.5572837827150072,-1.0620921153967826
0.8979388914782755,1.1674235190704634,1.3932094574689518,-0.18659303214504042,1.3496215779266056,1.0547128729799697,0.9262501718527985,0.4936799145150905,-0.6062481990302283,-1.9459045657853404,1.2356270501258326,1.0124114450366006,-2.732779941787786
-0.11923721699026049,2.4180208288241896,1.8522104881905803,0.924567126474428,4.17022704147525,2.0973030792961223,-3.03061116208144,-0.4352899897099847,-0.9533582966828222,-0.5451656990902745,0.2690947260092162,0.8092922404272463,-0.8486895624842843
0.24256241471263618,2.7186793245994227,1.2639569306263447,-0.9915997640936589,2.3904206105752426,2.5101216440983722,0.018676030021536394,0.26052851987099146,-2.7446208806386645,-1.3053515872321986,-0.8915393590569097,0.471115251643934,-1.30210394704758
2.6768800848150422,2.4629267820751846,3.293503646388827,3.1157125224588533,3.686887360243199,1.1853916152685837,-2.1901912548635813,-1.9105775878778322,-3.9354709942775066,-3.8497838245328664,2.2159157902388027,0.3865380601102433,-1.355390270687951
0.145777693932089,0.4037364490621378,2.8304201145275756,0.07529248731166716,5.156807166770422,0.826277866748713,-0.2914187446577594,0.3753886822559632,-0.9403979027734302,-1.5863183972169281,-0.7405111682142861,-0.24700156517999017,-1.769218031524311
-0.35839549400700776,-0.8409532179275877,3.38774658248464,-0.8080772886528171,4.4308927361260455,0.9031037587941289,-4.211308460508885,-0.5042497279867031,-2.428809352634541,-4.35887317286612,3.282056374281383,3.0703383912382938,-1.1192079117326519
3.0663406181766777,-0.19206063029321663,1.731694348301374,2.782152984096008,7.566787421544885,0.38514801839548285,-1.5288700549416667,-0.43723268034657603,-2.1391320385270993,1.4963364015716285,1.5809801439843394,2.143627962380357,-2.051910953082982
0.45698247401314046,-0.08494466704271553,0.518310449296767,1.1931636225665696,-0.7040548625205443,-0.7310352357059353,1.4841532301602551,-0.22444468709191626,0.15823647206305913,-0.5518665637218572,-1.8860983682797716,1.2762627773159863,-0.5672590747020201
-0.05381812068960883,-0.9895322603962883,1.0143724696707248,-0.14485793234766187,-0.9734300061042341,0.557299904287086,-2.0172449905570646,0.05292347621565946,-2.6467652281558407,-3.09144332820921,0.48163070664532626,0.666896880658488,-0.6017020428008316
1.1886258983108997,2.689529841492806,-0.3997847429392457,1.1720422515690117,2.11267229983775,0.766046240233254,-0.6431737038306784,-0.6499325121875945,0.5168637588741527,-2.446392702621453,1.0293757804571748,1.9219016752599212,-3.669359683597568
2.0800041878203617,0.4201877202867734,2.78426447126302,2.8249177881600653,2.8534970021639854,0.8242594928613263,-3.601693780242676,-1.621789247774199,-5.6353737009504785,-0.6656140477372972,2.867000903793146,1.9377818383797947,-0.7342048075107926
2.106676585901214,3.1562517401716015,2.4023183553414516,2.2043324306584022,6.189753974994646,1.9480336664128974,-3.359430386103875,-0.5257667336715492,-2.6647805629373655,-3.6040111194371827,0.4446277324637397,1.8898514678440534,-0.6267612496933836
1.4282875568900346,1.9527080097761726,1.016082155437413,2.804636069878944,4.027374405725761,1.1783271728449818,-1.5816583459432012,-1.1388357117768886,-1.8085189868566633,-5.619429128630983,2.0362401711903626,1.8025816988513976,-2.526603326609799
0.19842823046347663,2.6524160168497564,1.4200661233742928,0.821389962335521,3.0029210647861637,2.568767290114797,0.11511555269971607,-0.7808526030340299,-2.599202775521026,-4.318304355936826,1.5304068906624593,-1.790531337243897,0.2335492881535464
1.1869298337932173,1.8649340923707909,2.715775531572231,0.9392844272413241,5.843648146741915,1.9495027853098335,-5.656889792370799,-1.6099091786599131,-4.090907833145946,-5.089461802364913,3.6652693197786714,1.4179572614737999,-3.499507222053481
1.8712397268980137,1.2675601525087101,1.3328666890030476,2.6738985592092974,-0.25230075838610244,0.9707198213114536,-0.6372782918853006,-0.6491782153115475,-0.6891186644686131,-1.7670025064401589,0.3851434226389525,-0.3185618475946975,-0.15525812792692262
0.744096575012704,2.537095056304109,0.668626919645213,-0.18327929351870031,-0.2568753131132502,2.1165441790325223,-1.628544446094507,-0.9213840198440968,-5.665359491044331,-5.044016743051548,1.708310082482823,4.7659045229356325,-1.8477878861661994
1.0432338186484016,2.4921202370620295,0.8186831344039405,3.1081066721914823,3.1956208060859947,2.1878371260419076,-1.506821785891177,-0.46775178015303864,-1.2307698464858123,-2.5132678570376177,1.4941649070634129,3.7943281899690318,-2.732861423308176
2.1028812586143455,1.2437920474150834,-0.5645008892929334,1.0845484601589868,-0.8581580991532172,0.31001989827994536,-5.233913720682953,-0.6480185566462655,-0.9174685995729913,-4.216796098765807,3.787928692525354,0.27499866327262745,-0.36967940866896654
-0.8185885895736824,-0.7953893294963568,2.4055280582240792,0.5788073780711864,3.835350694668575,1.1187658095389723,-3.1120919630758577,-0.3992125980349125,-2.4094353806524262,-1.7400624609548938,1.5584879693922242,-0.44692918303121093,-0.4520755423430136
0.3021886634204344,-0.8352950943184578,1.2688402242377723,1.2528621062454066,0.3394266722730027,1.280322247846758,-1.3364031747141616,-0.07936480395371354,0.0965796966936946,0.8904469806183137,-0.20347899769221878,1.4317985022945625,-0.6818076894639284
-0.818742631842523,-0.1710475274872365,0.128518223583042,0.1278302981203272,-0.001164657436774963,-0.008251333424178484,-0.11782212305998441,-0.4180514894213642,-1.5789319726644524,1.5512705494870047,0.9240386973540711,2.4735328671976338,-2.4553836306085866
1.5222765786865469,3.276650775614459,-0.17129916719853033,2.990421826945082,3.755096480026947,2.702880845817594,-2.842645788660808,-1.6074909482216593,-2.9277826374085842,-3.5857765948257576,2.6629520756935006,-1.8465250431365523,-0.005772750161453408
0.7787873165966703,0.39721661681007725,2.6754300802680917,1.3516242054080876,5.392384451252433,1.425734301544005,-2.4085762916396014,-0.17746950427208968,-2.3298052878000144,-1.9557890551478694,2.483426658717666,0.7792511925396133,-1.5157592719377853
0.9550709672029696,-0.20249482852439105,2.2941378698195805,2.502471302592483,5.268819311420891,1.13502179532637,-4.730326909344753,-0.97537029004782,-1.3857574207281194,-2.3747080272684613,1.455319852231337,0.9589295894235599,-0.6110608312376541
-0.4508495568195431,0.5850780751458593,2.221902799530825,-0.9867735913537719,2.071697749552227,1.152308481643526,-2.699706652476067,-0.2448528018644558,0.6176171045060257,0.9419309053746101,0.9996268318756749,-0.3698496293591049,-1.0419825641545968
2.5057907762556613,3.25202061422865,2.2107774414482115,3.0972430996255023,4.215169709849162,1.5316509034827184,-2.482877323823047,-0.4032496454211892,-2.6196829121849636,1.2377062536600572,1.6109572242129293,0.703352639516861,0.2320323524471309
0.43057666182852883,0.9191671236420611,0.1430674350363752,0.2193458977229561,2.4445699077176117,2.586944720581288,-2.094607740789414,-0.9004104070316457,-3.9431411660766393,-2.5055887591299304,2.1503939082945664,0.5411740848238011,-2.711605565150061
0.5729352534870336,1.707513877327723,0.3838119500042192,0.9441456482908228,0.9034100069827435,0.9991804746290384,-0.14002645085658977,-0.7991805726836885,0.3832663968841905,-0.5771220952992474,1.3290353431271862,2.4962586936225115,-1.3604665743508748
0.5320093058130807,2.8916326988055534,-0.8367651027179934,1.1560402467005266,0.8065380644039589,1.8121645558579866,-0.45312489362404273,-0.16718399521137917,0.12589559067961975,1.2731816822229558,-0.6102743382406876,5.083322324827639,-2.9450909323261554
0.9480971179765865,2.654267815671703,0.575787182879429,3.364495720271443,0.8329847380441127,1.0058559507133293,-0.19763267621788172,0.011454739698534944,0.3764348397875714,-0.3667632474351322,-0.3475910743859688,2.623404937791894,-1.957853070937166
2.779802157798524,1.480806839412201,3.2599622005518807,2.907099709079495,5.088536650076019,1.737549772387152,-5.430069002153889,-1.5153523696838913,-2.478053276812531,-4.104373190342368,2.674942190161682,3.121454033206749,-2.271279483344876
0.4777096407207959,-0.32475136291753626,3.1897280264904424,0.6802885761622648,3.744921945716673,1.6859578774493538,-3.2324620744980033,-0.5147191852282449,-1.8073542414867203,-3.102989605197542,2.143630306664789,2.9293626863393203,-1.1918523316556318
1.1146109118337382,-0.5097066200137043,1.6942139662515343,3.0377913520159776,3.650189379555112,1.419852554926595,-3.673886984290354,-1.1128053875380515,-3.1056854893163433,-1.8454094687740819,1.103234456652966,3.8395617457755544,-1.5120138623625743
0.7175185222358653,2.3526257514577495,2.683970287494653,1.0388571116899072,4.630460354342139,1.6352276035658724,-1.9914457307820328,-1.7726997364803316,-4.538489366738438,-1.7578374570373476,1.4201931362269409,0.9074401685793803,0.40722591183512463
0.954644968839505,-0.44387556977004194,1.314336583681348,2.407800798819729,2.109497883941552,1.0082369867144216,-2.5078947391435698,-1.6898744366770004,-2.4273330838376763,-1.656967409706388,1.371186944901695,2.2707370545808083,-0.3319503350172964
-0.33953586508993117,0.7736775228845489,3.1419748916530255,0.3116305150047276,3.339803813617642,1.567166504804731,-6.8565697852084835,-2.1358448193343755,-3.7673792828427004,-4.363448741115014,4.57795484230675,0.31757656169375725,-1.3228088806917542
0.722899392912048,3.122673608311719,0.7059942223257603,0.3991149739771711,1.9926060356483708,1.776441936737455,0.17649983282565973,-1.230928950886892,-0.6676198843307264,-1.7387688015966296,-0.49368329306082276,2.9008898578167632,-1.9808364757301578
1.1895921386002508,2.6057962681176443,2.1165120224188,2.427755625211661,3.971787641360756,1.4593576501911723,-4.777339784901098,-1.2268789241607057,-2.048352056882612,-0.7340770910802774,0.6009563555890725,-1.3485971172289317,1.1593523067514186
0.8960490003705132,3.294805940594637,2.90481460173317,1.46198735461887,4.64712592811714,3.67703128142949,-6.6335475549619005,-1.7220730200436285,-5.975493722861609,-5.8002169634713425,2.078090241382754,-0.2579097631057803,-0.6848588388866016
-0.10619559929746646,2.5195034959528333,0.8932089828613314,-0.8597981209226471,2.843619909640582,1.0514251793786655,0.4680760415056431,-0.03212371913232931,1.0018294941968398,-0.8733508021054393,-0.342873170445611,0.399889124630044,-2.669992833785728
1.2791657788902768,2.3709039941122882,1.9430280278908811,2.195818963478395,3.6644633461884064,1.4726322539825154,-3.28343172251893,-0.2128439825792806,-2.109455884882985,-1.9509907208862665,0.8979353917441235,2.7490020167687046,-2.601453598588931
1.8165900373440098,0.8199006638887043,3.3487776631014476,3.0364080676262333,2.6913264424263237,1.022882199952366,-6.099207551006934,-1.3057597004883865,-9.272094607927578,-3.5867870483271957,4.124885704164901,0.6913377678216482,0.4051543699709394
1.8679516378883407,3.135453054865561,-0.7051962426960823,3.342890576108249,-2.3182248051874685,2.0748781590157357,-4.896940721077985,-0.8218870620565153,-2.1371024816438857,-0.43865288613994635,-0.059225409280142916,-0.7203263076851834,0.013539444799794574
1.2882172375528034,3.3636848515111906,0.8194177602306523,2.370090480014975,2.790296211765627,2.212073583837664,1.5223954864305809,0.36542125647527524,-1.9061625102202924,1.621213462183547,0.8265361040034963,-1.5848448810980669,0.07116194080211383
1.7245578959079908,-0.03688122748753864,-0.4684527153490632,1.9225035898995486,0.8077573315043357,0.5049913526248323,-4.145998433947345,-0.034319396616976555,-1.2486034467024862,0.34121884693435645,1.3872758627159694,1.0822294204994003,-1.1738745543624631
1.0642110891238208,2.3993634726099278,2.097459553469186,1.38764370625089,4.437063467856891,1.5721449428938292,-2.5390704577692627,-0.7507035159886932,-0.6910202820288897,-4.297619377909056,1.24645489076139,3.3085416015825646,-2.6266773157612557
0.3166222204435807,0.49312458130634274,-0.42307978703449356,0.07019302162986629,0.4973810419044383,0.059594831549914684,0.07550388312357059,1.6017654939734036,-0.43304169174074336,1.3015548129807037,-1.1241657433440955,4.181714039685547,-2.3159707750970413
-0.5962792089926426,2.7534076586217866,-0.4451640899150051,-0.8830876972108757,1.4219430188586535,0.6096633082425171,1.1055886939422237,0.4333576890973361,1.4146874684718984,2.0486053024625797,-1.3681322674242524,1.1179055811720278,-0.6720673115096959
0.36272041916126085,2.7842147208682886,0.09637313738023612,1.9873078580051566,1.0343335904760984,1.4777147109371185,-3.561128668819461,0.03643919995415951,-2.1507962818569735,-5.206903337375655,1.0506512137428246,3.244504940602511,-2.1153771602363967
2.098503262182558,1.5230017832157565,1.0189932885974962,1.8794560523305779,2.561363543075222,0.847140426964913,0.31436445795885454,-0.5132072762242835,1.6984058542842153,-0.6677755424704985,1.2658311057181981,2.180703308844687,-1.116053627227215
-0.15024053095557507,3.0409576378405907,2.8299606008971656,-0.6439998036121577,4.968271081491475,2.7811241788076275,-2.1202166388726784,0.6911220468877219,-2.1591994404359376,-0.7427857451348359,1.160742780591757,2.864865479050823,-0.4937773738625228
-0.1316097678108938,1.4235617340364985,-0.6723022249850165,1.7355754604369324,1.3416646561336016,0.7140149572836195,-1.8217033428742981,0.5332695864813839,-0.6017954352558395,0.49588832292868834,1.084408003445263,0.2005358973572306,0.4204984734219449
-1.0818484144735179,-0.37907864963622295,2.945842058152734,-0.6997463893841649,4.036185896087918,1.445517630425911,-1.8433014379202255,-0.25193443032877394,-1.8699580323747638,-2.915730823347862,2.3927266273788215,5.189501046011523,-2.2888601351791724
1.7195532806074527,-0.26595877918131683,0.5809902468427612,2.588832436630747,1.7285278489081253,0.7461082010144715,-3.5486386245392842,-0.34380035436845285,-0.9297293750881255,-1.3810754738366002,2.89085754086665,-0.5011308763131587,-0.13137252663511
-0.7585183523772541,2.2380777688326225,0.04355805984372019,-0.8747304004200045,0.49062081034292127,1.8321997996448895,-0.6886912690057716,0.6172990608779854,-1.3154103064065403,2.4063204501205524,0.9784789253492492,1.2367911037254165,-3.3141113058717395
0.9639124574665071,2.642104061957097,0.7538095606707393,1.0439013825437713,-0.011244802733220816,0.9928340369689792,-2.2699168667261738,-0.7273764632649636,-0.1585002882224512,-2.0432367103791633,0.604751877921466,-0.2924556894284322,0.026966171640899723
-0.09052959707719774,0.949898411422935,-0.8902254412709357,0.9129352610831765,-2.603031089719522,-0.18625257918436017,-1.013653330621284,-0.096599914128431,-1.5234078553973467,-1.098689500822505,0.036952414670190725,0.4776810186859679,0.3142643628465427
2.5611117652676305,1.063330797000127,0.8289230613710139,3.141241402574855,-0.6066335595871746,1.7546761882134252,-0.7337758787134616,-0.1265867561886297,0.2104522487472229,0.5157737003498666,-0.7398195656149269,-2.399317079782998,-1.7066216725791485
-0.12470184178673714,1.0488992514229478,2.631299954975715,2.43743592223514,4.150860217290948,0.4783592593447027,-2.1799657904071355,-1.3117545466656124,-4.0030676035172705,-2.214774031811365,2.039674473206065,0.826809614989489,0.6874438125913509
-1.779296738088212,-0.23414703410197446,2.42388221727216,-0.9470408263574136,2.3101880405555675,0.5173767113689811,-5.040953794301606,-0.7860448256197933,-1.5671128141686235,-3.291493384748014,1.7541109148474527,0.7925023295103821,-0.866320854548646
1.3168772190560962,-0.2715683182529238,2.419489364699071,0.15442078915844726,3.787758947130772,0.6467477078122507,-2.1726762363557546,-1.4855120000685393,-1.8210674301743257,-0.02272193033359382,0.06496309444568071,3.4955103410008417,-1.2891889683010709
1.4515710914205084,-0.7351569309727561,0.30236518314007155,2.4691183261032776,1.4020360980061892,-0.7186061578995084,-3.227620596976616,-0.8529431677372485,-1.1952337615627924,-1.7629176670401308,0.7995789222218361,2.695299414461081,-2.3368710338379155
1.3684830916146875,0.1800089890731411,1.4274125895019782,1.3010795053574316,0.23290447138426562,0.7163980947562143,-2.7785977196991105,-0.23529582415840147,-0.2759897174343773,0.4911866126473332,2.1062108164255235,2.2601535754574615,-0.8643469569549902
0.1762810457023547,0.5280662219541155,2.0160904619261033,-0.2594658038649458,4.709446547489684,1.2477481240754629,-2.478108906205602,-1.5402752991701112,-3.026855628823359,-3.9891826993392803,2.569794795635227,0.46175322049302137,-0.9823849552033237
1.616206386032244,3.4534842563262016,-0.26118600812037085,2.6972484429085406,-0.9165399638351187,2.256058851738331,-1.6705092563115025,-0.21034085997233343,-1.439336120408096,-0.9665625366002648,2.661542497316699,-1.0333711019615777,0.6905714185603433
0.8165972189006774,-0.43752866671421553,2.056907898550673,1.9685798993759613,0.6295148964863482,0.28734966891969216,-0.3542866333456841,-0.3984514268297399,-3.4106976664236015,-3.2643824617035664,3.467811759467311,-1.2362989683102965,-1.6507995505648292
0.7276119817539096,2.83504008274193,-0.506945854354388,2.500191852459179,-0.8452454765110476,0.5368456460323133,-2.321577413495433,-0.015329866794010438,-2.3815465976703942,-1.8314498685208593,1.5634899126739517,2.829096005123218,-2.6874535639656476
0.11416155212061996,0.2190508573515162,-0.48784825752007543,-0.24020550839013555,-0.9131559214985064,-0.447698726457049,-1.0032009577506562,0.3373879718737972,-2.1826806824007896,1.8612329640035727,-0.3953395892301571,-0.7364095706395566,-0.8095267997715692
1.6624723662769028,0.9952564008384652,0.9087369880751583,2.9382568826005206,0.1818580920177002,0.6109848638946694,0.015264517183567583,-0.9523478397043283,-3.0815429355123376,-2.573503330908783,0.41206361541354486,-1.6418829167414666,0.72126481382107
2.0618592136818488,-0.0644861203661522,2.5054817467093486,2.892198020059386,5.6804526251019904,0.6736506475639297,-1.2114743604222908,-0.7789436964903866,-1.0776983217606162,-1.346637473813331,0.7754898940871925,3.876082350709023,-2.7874317717993935
0.47593165909881674,-0.5550534122203451,-0.5002304311581858,3.0726614946343096,-0.9169951223215519,-1.6395867762554897,-1.1549116311378111,0.21276332364605702,-1.838731395874867,-0.32790130696501985,1.6530172010586304,2.486481874875963,-2.050183576444106
0.864623995112356,0.019686017906188624,0.524730184434876,1.0282630981970944,1.4653052188059514,0.8970480811570272,0.28279186410182655,0.7470622969101279,-2.0007179041610845,-1.8533029037179867,1.452449695812272,-0.14833193649815035,-0.35065755648138897
0.7119074789912659,0.6016093689700575,1.1046526478578027,0.7116060809377536,2.942838278064157,0.9330926456409107,-0.5900818452545017,0.6120437636644289,-3.029754611042274,0.8763090495960296,2.1290562864782867,-0.34279321012374786,-0.019932004799705385
1.6061221148866571,2.9791814420546987,0.2996154001010709,1.948647391116269,-0.03252698656206776,1.5507722780684785,0.4509504325165564,0.1974158497548849,-1.2326752122064881,1.0970413814327304,0.34707972179340907,0.20613488998517315,-0.43888345438624854
0.7193732514089166,2.777657246978919,3.3113914193149476,2.2323167961103088,2.3874198815542336,2.9511731947352606,-4.445977957763507,-2.3655453687952703,-3.576312463225559,-4.033381416932817,3.2529971834473175,-1.56247853078212,-1.2835659483061987
1.7668618003978969,3.445982964561794,1.0412636424872113,3.2325903045980358,2.43251718601298,2.1510141018764415,0.18316925823533725,-0.7952182973847989,-2.062613310946616,-1.5844162418585532,1.3182571278843103,2.3748943663493454,-2.5544172590159753
0.6957661366193831,2.4260336393351953,-0.7201597614289358,2.8362184277213265,1.5193388566035186,2.726765063451446,-2.2670700642917447,-0.15567154703219904,-2.2730301235156145,-1.722237729028841,0.036920507189014184,-1.592633361503308,-0.6557911777365061
