x1,x2,x3,x4,x5,x6,x7,y1,y10,y11,y12,y13,y15,y2,y3,y4,y5,y6,y7,y8,y9
0.7433658398083185,-2.5844836374523372,0.9893609821443596,-0.1857227634309906,0.4841077112785077,3.0829668408312214,2.2720623479332334,3.813493046522199,0.07361416220469419,1.76064918176945,0.6018237000552796,2.3407269656762484,-0.23682929635443487,-0.3954506654957304,-3.022864861395871,-0.8948666909705524,0.1123564738819885,-0.06175428097832747,0.17564426615645276,-1.896366802647572,0.7510693048839818
-0.8013889400989883,-1.3775874033105473,0.9291680231534549,0.07381882814646379,0.07474739553628584,0.08038458693089086,-0.21837416039995639,-0.2470385166849341,2.8409615247003854,-0.449852323716067,-0.34166463935835906,-1.5413169936383275,-0.05600779056454373,1.606005599091087,2.967195066671118,2.659852717381751,-0.9441584561110579,1.0769031897232106,-0.4455001507634477,1.4708376562961258,-0.9057206550002048
1.9230473014180287,-2.546489062728783,2.521915670038958,-0.38825636011807324,1.5632025147938897,1.2187139075310718,1.294273433537505,-0.9042717517086438,-0.8295841325116835,1.8685745909008267,0.5162648086166294,1.161822990893729,1.0431197992228192,0.2581868961721213,2.0774615437649757,-0.5454129128502821,-1.167942332010996,0.3428555085517838,0.07052890668798015,2.239926131787677,0.21960837363945304
1.1455263655737435,1.178944109900347,1.6632174923837177,0.06247651337276441,0.34237432230167797,0.9237829380606071,0.25314685730546427,0.015619481730597462,3.6649752560746904,1.2789631818272786,0.29201758723835486,2.0368929280334815,1.0599692881787937,0.3989091983392209,4.096457157053207,1.8702525926876445,-1.600895715728272,0.36199022627009775,0.47663081461095974,2.213222468693464,-1.3105634759563412
1.781145821212975,0.5713303001411866,1.6196518024674749,-0.17312838287792695,0.2223125493725635,0.17832813568565042,2.6986553214950004,-3.1916243482092064,-1.0120772107645175,0.093177793105087,0.760567036099107,1.4184641066778094,0.5731642609639943,1.4355040810262927,2.575716145352886,-2.0848762018858107,0.04717586567500659,-2.36067264303655,0.7278835662244951,3.173427042449318,-0.051764595716866535
2.795717741815898,-0.810395654975508,1.600048259337978,-0.2999018754101617,-0.2728339375310981,0.8389360889023378,-0.9299801062176001,-4.282071283051816,0.44358391235618955,-0.905800788802562,0.03381442800641617,0.3441076223182264,1.032051383457274,1.2679878914547231,5.922683396910123,2.4901853634000384,-1.4380958454837431,0.7488964834650957,-0.7248371676792414,3.447588675340095,-1.5305159596390487
0.2756927658915822,0.5066376675439291,-0.0766867293432183,0.28522520854610184,0.49879319485495177,0.6271379791062586,1.504700027371837,2.466926659393943,-1.0320129155786784,0.6604006211733627,-0.19831789713609693,0.8923439328361077,0.19900768541797198,0.6167677847571957,0.027786723472022712,0.5110449111827894,0.9485559469424175,0.07653065300702533,-0.2413126023141382,-1.2281785342873128,0.5825330895400818
1.016645168252924,0.048956576856254215,1.9314104672612658,-0.3731966897289332,0.8510312398931174,-0.642246624319782,-0.07511302062497527,0.6565658565521986,-0.7312431915298634,0.377775119663349,-0.35860835246874734,0.08454992227804778,0.26116395044482343,0.41407889157113453,-0.8253654711112979,-1.2744587946182133,0.575560201564032,-2.705494545573622,0.16099528813421216,0.8136402636628509,0.44801710520313087
-0.15887799657241275,-1.7062509615713466,-0.15957945640804982,0.02066506869239657,0.350948077098182,1.967678166662586,1.1086896976826983,2.0654502754720605,0.39686865989312725,-0.30978724430276294,0.6045184281548457,0.18609503085637372,-0.04242760507267354,-1.4202794781728778,-5.2768377748393736,-1.6714089914051342,1.52523089127219,-1.6323761175981424,0.617910656999871,-2.226639788422189,1.0929875925325376
3.038726233227485,0.808645939401858,2.3437195165663636,0.2213355845789831,-0.3888809883345702,2.9132780928379014,3.4227092612011267,-5.752264807185998,3.3645366228839944,1.5441902572813138,0.6103030002065368,2.620640920019564,0.41482315437018286,3.6060022905237865,6.454825619740712,6.348781613878014,-1.8393508316308163,-0.3424007001922367,0.845332339605933,5.62283179455042,-1.4052314343522867
0.9795963759130775,-0.19596692158971027,1.381266713300299,0.3109642744868828,0.5351562634171255,1.1198914841584764,2.749045686997997,0.03760837711162529,-1.1208091523074444,2.533652969382108,0.31228959301810566,4.664901203500692,-0.15203386040808006,0.4550697309358351,2.8634982981922965,1.4249432670021092,0.19323226319982864,-0.5788073070477133,0.43892633913598034,-0.9518170723735235,0.1836484637391782
2.9293973260187696,0.5374359576260694,2.7739281824759665,-0.3895065091542551,1.1648120476383295,-1.3363146935889432,-0.6250080091557888,-0.5245153317649152,1.8908643998307848,0.2544113056190469,0.16231885851161978,-1.3058613998129784,0.6079021441110406,0.9055032567212911,0.45167952020634616,0.014136776231324477,-0.1410773054893845,1.6661261747951692,0.5173741035629162,0.8183697662721041,-0.1725017166776336
1.593493444463713,-0.4958730594279592,2.164077455759253,0.11424822836767891,0.5381113367928306,0.5289593347416109,1.6823827812882395,-6.817475707030002,1.007772781505372,0.38276172968354794,0.3441554858494134,0.9312077782370267,1.731666474761093,3.573897422701877,4.490317285273855,3.2341687634301826,-1.0544156807998026,-1.957659012437911,-0.21448285607408818,3.8852713500658607,-1.172760403509897
0.6103000257421791,-1.1470351577925006,1.4374360710400707,-0.22552929079264764,-0.10957811940776212,0.14382520025358372,2.2045112962101427,-5.374928825764043,-3.374487651513219,2.157362267846293,0.31685263181869466,0.24935907594474402,1.138758060664913,-0.048281238320551534,-1.2393882736868413,0.8424346485099661,-0.6999010491369623,0.4986689732535642,-0.718924929217161,-1.3687220643361262,-0.7764757305415593
2.857969776370883,0.45929534511055103,0.896164196257552,-0.42397127536463974,-0.6478889981920036,1.533872312385798,1.6410529072406468,-2.3515610432713694,0.9032036386175646,3.0653763349176666,-0.46726405694080747,-0.22869897578205886,-0.07925749709466383,3.2240911651266844,0.6835951764162207,5.60785894927815,-1.2912181816796364,-0.11588162127745305,-0.2157357586377185,0.10152511699762068,0.23088054731356333
-0.6845820987705842,0.030847932315519466,0.7711659854440409,0.24583820268633216,0.014066309478594413,1.394355016316102,2.5952695476037455,2.891814712687105,2.782494346996981,1.1051385864963394,0.3162392866307856,2.4717615561816286,-0.7884194777340899,0.4670431314937159,-0.9004409377364724,0.07067948112534331,0.41408182560296514,0.8728245705669839,1.2128914371911808,-0.9909878621191043,0.26529982697307447
2.841925637033012,0.1891907104439693,2.6244402701722764,-0.3040895008675431,0.524569453821818,0.8670819688459565,2.622173396152457,-3.684180322504491,4.455424428376751,0.8433154094591108,0.1607541036877065,-0.18534117420416973,1.2137518987893943,2.280893933184334,8.407665164004626,4.98370973727974,-1.054251379468374,-0.38521317132673816,-0.9845884887336012,4.835206867247475,-0.5628630332324187
1.963532153056935,-0.24247902629562498,2.599949122840448,-0.5879881897791894,0.6621949955025717,0.17443473269681173,-0.0811482036207738,-4.436819436685024,6.067437355703465,-1.1083591687549594,0.2060457673142404,1.0644173862377584,-0.1853310756968373,2.7175098612801767,4.89445125800228,6.8620920974972845,-1.2062680279661766,0.2902280301110208,0.3395855571327791,2.0957113217891736,-0.6420744038620507
2.187504387582439,-1.1247021491353886,0.28822452819836775,0.17073545146872657,0.45929031978612744,1.495465747444362,2.467302543889949,0.13198405667382684,-1.2631667084873457,0.42016786490870106,0.3745079570082786,0.9389552469581627,-0.39621517278074025,-0.039681625546926336,2.559227659409821,-1.6331571935130178,-0.5432359231104257,1.0802914921661793,-0.01397366703104154,-0.97580418888777,0.23114124431807068
-0.595381830453583,0.35856436118911966,0.947449733075969,0.07294510930658252,0.4437758903955278,0.2586912416885702,-0.845166192088407,-0.0628583323268761,0.6692995499952399,-2.7217622440912823,-0.509561888594628,-0.40360645282688945,-0.3324673109382147,-0.9650815381617306,-2.294569713031246,-0.5899275798020809,0.4570651938021344,1.7295122358707349,0.4521661678056921,-1.0557896223132737,-0.22467449790936134
1.2394702507144073,-1.3908886189344607,0.6233248514228957,-0.023233807555135946,0.2662848867839624,0.7103265411836036,1.4916979798454095,-0.853499662233346,-2.108828312214941,2.38452684426332,0.17704251707100432,1.7292292986302196,-0.3777001774498493,-2.7207107851648105,-4.126116426598727,-2.237380363602128,0.5297753068724501,0.7270839788275005,0.8969605649733329,1.502679753665832,0.2427323559738488
2.547738626627895,0.08612728249065102,0.5707462487969526,-0.017541391583437982,-0.012322019366911088,1.2947898336202213,1.394627502603229,-1.697863034832433,-0.8741285230313517,0.08276657834325124,0.12530802158903948,-0.3831062568192091,2.3405311886850666,0.7059166036822995,0.31635221960657245,-0.08793193266523847,-0.06169607498696651,-0.44401064798713596,-0.24056638289841517,-1.0214051884686155,0.37598583512441414
1.9334648914484966,-0.4233695120309047,2.6580666279295957,-0.2788435997044258,0.89186378264665,0.7068159010494246,1.930766775954964,-5.24455325411598,1.5633971577918968,-0.08722885018544524,0.10934465113543046,1.3033912085706163,-0.16579316339761463,3.9574307978524983,6.347534440953387,2.421881580425879,-1.894037341311563,-0.4290638004262375,-0.6997845631881339,1.160051239011409,-0.6389060289342836
2.8365806832853004,-0.7396907481162225,0.08096319618967152,0.07757093737840955,-0.1359102560560334,-0.9715492804019521,-0.5700245926482442,-0.1451891544617091,-2.3892907206134244,0.5499027672134582,-0.07289014999471201,0.19045644369891165,0.19887504414199014,-0.4766719438259305,-0.10038461370313001,-0.10138580870694622,0.43705398786330096,0.32727186130514685,-0.2755778041170291,-2.041710961595812,0.14484106959196147
0.8907730036248844,1.3019007825326525,-0.25310627814782327,0.207921736974582,0.17787426670366444,-1.1176711536886792,-0.6269920344420716,0.49467978839186233,0.022285054724843212,0.3076560253125069,0.014527479442284176,-0.07787272280888262,-0.3533461140872283,-0.788025075711363,-0.7552539864364723,2.5487268760303747,-0.3874683818645135,-0.9405763158028584,-0.40661741814934954,2.1239752414009563,-1.5390040271015972
1.5939131701059908,1.5254165321937134,2.577299662870228,0.0031932901861601625,1.083613981895407,1.1463886550372446,1.9816182461978955,-5.718907962373191,1.7225217086229394,1.1888485859319045,0.2169425397394061,0.039435705699904046,1.28162409768711,1.7249494993426362,5.35335719737223,4.973310058804004,-1.408592119303853,-0.5496352362770717,-0.11116642053511865,3.985538653555548,-1.1549494413028865
2.778868895861355,-0.35505644369365397,1.422467812314943,0.02246076477673158,0.25101204722926007,1.2232551983573805,1.2866311896354308,-1.6038276740142332,1.8986514801862417,0.7465374726427119,0.34203726667115214,-0.42772329939890563,0.816273064074776,2.437945061077168,4.58423290417471,3.0338916075311175,-0.8683788354182153,0.9319462647920069,-0.871078354341433,-0.7651129921267323,-1.2265279336723884
0.3884620798705949,0.5903594475992967,1.0440300009330183,0.07372634775501273,-0.006491176610171401,-1.1424207373463757,-0.5069556596820168,1.4294256774955243,1.130681228875868,-1.0478911177002181,-0.5856104213542893,-1.2760209923431003,1.033511028601818,-1.4634031262595752,-0.8544429869557475,-2.8655449216491187,0.9944537081200177,-2.7893204489397947,-0.9132743947208479,0.8926525510070965,-0.8625895587873638
-0.2412783347692612,0.6261300977633264,2.517589257865676,0.07559812284812084,0.8876365714618788,1.1509419935416674,-0.34349132753947353,-3.6850791694692866,3.2530440130591844,-1.4793807565037551,-0.980117016686145,1.252091051583712,0.39659948934385303,1.8565820380993037,2.6313954256231504,1.0233034200915463,-1.1275894399279938,0.9770530244339523,-0.5163489087212467,2.8883215798196424,-1.3214132001292904
1.576298380309808,-0.6090848977659314,2.5564791527279653,-0.35710313435752955,1.2952116821281128,-1.0687071213058783,2.4330643248192874,-0.34348382460679633,2.605294814225087,2.6835531976076443,0.7619865243593255,1.393312327507194,0.06937200481872675,0.6049395943821185,1.6995126903916984,0.444971824377429,-1.1458594107371824,1.6204412055541182,0.5227372612520738,0.4411900474671868,-0.5214046385652482
-0.7395612563510698,0.093895181939985,-0.32051737997447216,0.36165930490070136,-0.5976252176242397,1.363631599052642,3.3067798564011355,0.9682919861705558,-2.5819247281060616,2.6311826163851433,0.6517642379691948,1.5698175867976767,-1.1696713963966276,0.19784526500616523,-1.8123917395407894,0.5432536814073629,-0.4001010386506314,-0.2966091000816512,0.2942324912323298,1.1626323383225274,0.1099215110100143
3.3077297916987796,1.117319172130229,1.4412703319927598,-0.2873048968084083,-0.15365567148213027,3.047013397122174,0.7801621554172109,-2.078348480344694,0.5547188854215563,0.49949254537702864,0.041196264746883746,-0.32999896144202473,0.7280654106748582,2.0475603656448937,4.857659422832712,2.4763923614281875,-1.4703983631270878,-0.35271272449004487,-0.3942856220580275,-0.19409022534329345,-0.6439087229328508
3.214171356136508,0.7983954779133425,1.4943331770684578,0.037069876247976516,0.4537847668489096,-0.7706369185318742,-0.7858198665271241,-1.7988574126041348,0.07681340197399655,-0.5971944485043886,0.22468164828159726,0.14127114725014395,1.3977995417921785,1.3102880837738047,2.387621891727136,1.6928106288899696,-0.6298900491404409,0.9750821152450103,0.3784451851625804,0.8036250110468817,0.14641472440593944
2.6569589815285317,-1.0119469475749632,0.43818595341068955,-0.061601707468230925,0.7211576287500667,1.0504505758669347,1.2497214590960781,-1.3416207394035404,-2.5728003574032217,-0.23389928489273018,-0.33276500857717317,3.3306020991136744,0.6547870413424988,0.6925754218600918,3.714275105756453,2.1706887805265733,-0.6235546150549696,1.5118329008368474,-0.10109509191939865,-0.6523169107790534,0.25733687032417096
0.4969983712158206,-0.1610785451126727,-0.5501815417022468,-0.11242304112243613,-0.22771729443711558,1.4093629988452652,2.7589295540733607,-0.09285733593440249,1.3780444771121527,0.4730687307109195,0.525250592067996,1.574313629762229,0.6476798296863288,1.0579251519743866,0.4191309817425026,-0.012641317611664815,-0.9433094996355174,-0.7530932354517955,-0.45782684752549724,0.26406688271259504,-0.04130296286904833
-0.8162984151253978,0.4738251448450238,2.726488380714894,-0.3368801481187176,0.5379685321787326,0.7287644004320819,-0.09515334359363326,-6.769518311034715,7.662804680164294,0.38982276705630126,0.4120637424087106,0.48225077930415555,-1.6976844572029774,3.180909798766702,6.79607945854812,6.218416237039453,-2.1689234411964624,0.9180768345061995,0.032289056052644205,5.824669907245724,-1.8207115013804467
1.9020130348743134,-0.39621944736813,1.8280621380398432,-0.24440076787490322,0.9351276241069078,-2.6359563595049087,-0.09135560848407209,-5.0536440153709075,-1.5877000265223367,0.2348552924945199,-0.24644559534975372,-0.609573139345129,0.2793983868256424,1.3532014557412262,6.207444153292006,3.8500588643886084,-0.5419259141913592,-0.5307566756360284,-0.40415404267435134,-0.9298262093023474,-0.2596187568216728
1.0750643833393965,-0.08777753838590249,0.08348830739303592,0.5209238635538833,-1.1832555373542288,-0.14920353962687455,3.266644905776654,0.24784217171103834,-2.1311199694903076,2.4008245922262867,0.3809410899136161,0.8550263367205606,-0.4665166477931402,-0.9927498998501645,-0.8180716152547789,-1.36655746715624,0.242426472875328,-0.11280654464467163,-0.6129040502506556,-0.5604036685711433,0.19814997674982915
1.8470387545319116,-2.240297690450206,1.652501164181202,0.05177149101575748,0.763044731506415,1.4339600382064865,-0.17641769274610253,-6.827215236528811,3.6734862190368767,1.8115684138800403,0.618173735156848,0.3547637563196639,-1.3081258792239523,2.415554484979692,4.9641913781875,4.7798971157855235,-2.185979586893516,0.9519714518848801,0.3286503294699048,1.7208182156961542,-0.6190469882728464
0.10474616881254195,-1.0652565173846553,1.0795837678435198,-0.318998253995539,0.4009327214674756,2.9624874245265636,2.5452928112455124,-0.470984158715772,3.4759536303672407,0.5129873042368358,-0.13122790590172728,2.0493240706819407,-0.11806378740995166,1.7149043152149472,2.5089297101167585,0.009731162414859829,-0.43704155161982383,1.3980820208314215,0.14292749604761432,3.4059247656905844,-1.4369169064372587
-0.3486252245087337,-0.5156194594198032,1.4830341083964127,-0.44098953931788504,0.6035316584195263,-3.092092673303876,-0.42185236834000983,-4.434613757876179,1.0049587878628063,0.4422842353255866,-0.3946082397283464,-2.1839939243187967,0.444533426880613,0.327132595304275,1.856063811913252,3.3545909100173317,-0.8323727446414322,0.28308947653198163,1.9078189250355244,0.9900007159125834,-1.7667883064267491
-0.8722829585636719,1.5608462443181852,-0.9804236131839786,0.2026182402337383,0.11549976036009213,-1.0264586935246036,-0.9968855117259984,-1.5571316621894593,1.5860848129301384,-0.38570843097124996,-0.13432591598644023,-0.18507232292552175,-1.458201558639166,-0.4219182199539296,-1.1708177252621448,-0.41331047668760096,-0.0020358801200603682,0.0013229653030285005,0.4453025505663851,0.5191699360846173,-0.4257165802684953
2.48628708676434,-0.6408930831521417,1.1320577954262596,0.010718397384282144,-0.27581205349474824,1.56820151578826,1.5521135586954058,-0.053064913203813735,-0.7896350718991323,-0.14832302057177915,-0.3619718688282815,-0.3449926021188194,0.618177149649728,1.3327304512899845,-1.0312849584569324,0.26013656266489904,-0.0523526784994017,-1.6982830195382492,-0.013949033695183707,-0.4417282635085167,-0.6626744978969039
-0.48434552061221636,2.018313393218234,0.10690801274481254,-0.02215034391920525,0.4558602403928333,1.553130004880478,1.448292841597452,-1.7679430598045953,0.5865521797090136,1.2262828896943176,0.2926081708200626,-0.08899434005686742,-0.24839304209745802,2.367832079580944,3.5684375252211042,1.6867488110861402,-1.0005653708789966,-0.4362333535333449,0.977417075373773,6.036901145871054,-1.8151292833833192
-0.7233720007921258,-0.8869859513604332,2.1340276055377987,-0.15228441100741916,1.5604578637231983,0.8510795309055567,3.2879063430253552,-5.281573735135631,-0.5522327253993302,1.339546165012087,0.6547883914688254,3.492797229570901,-0.23554517062884392,1.4948244439421585,5.816263449012848,1.1207558574313496,-0.8828602759035598,1.1447300829764744,0.233873587984421,3.8695669426893855,-0.5647805950921567
2.353981712599427,-1.0880737251921588,-0.5457314924760837,-0.44058105865921704,0.9419549056165757,0.06737572596474752,0.7327339661108627,0.004678629640396836,0.2804423064400574,-0.5536613347493392,-0.40149574401374066,0.3104953125714841,0.8316718711777321,-0.7279558903398002,-0.9320824135804738,0.3601376240834834,-0.37675044056605456,0.8177097546377657,0.7962035857381986,0.15499371385476501,0.14437283086258046
2.154422740993318,-1.4930935003851904,3.0541731619022645,-0.3045921497979958,1.1115445428207025,1.4766151396898126,1.064690657381358,-5.788093508673743,0.9366237110473623,1.618207972840508,0.2178549738627149,-0.36493043494796007,-0.041728690230548544,2.622528886043055,4.786289745305455,2.584416366243437,-1.4822229340982853,-0.2298995214275244,-1.4249190594988517,4.485423263059773,-1.3143901874031094
2.4402731551754258,-0.6397181464117997,-0.9397320898833941,-0.15964048696171465,-0.08050145835902292,0.32554445829295886,-0.6062521745996134,2.427145246617907,-5.698680216993211,-2.0592242247558885,-0.3168643855320197,1.6350956348395793,0.07810541388723624,-0.8244339727442995,-2.5201401568383965,-1.2223349484453505,0.9983246824232473,-2.4536837603654105,-0.06067411397387286,-1.957547719728758,1.735987640477847
2.782077526684383,1.1550094031789628,2.8729627209057145,-0.35227102537576827,1.3880234212662148,0.6451068052311973,2.8937836805358823,-3.2248179523842957,3.466804760299022,-0.16593196928707954,0.525003537622919,1.4234146195645425,0.8213935497921884,2.989529094525217,4.0013583775057935,1.2464153151249695,-2.7308171830136256,-1.8689120266045336,0.5172069193974451,2.1040701727838282,-2.219549283012643
1.4432425584462574,1.0646175327233476,0.1610962420397768,-0.337142057139436,0.11794225822511162,-0.3527498922872957,1.9164215303917738,1.9057041076052625,-2.2531241591652194,-1.521053198468537,-0.6714078966321256,-2.887126475873942,0.09430495058741467,0.663525591573718,0.3342114268575413,-1.8725548141783284,0.039926933544345275,0.9982781004811296,2.715005483209218,-2.007516784623557,-0.2038961547384247
0.9984876112041556,-0.2868629764989984,0.8327642574464345,0.09863048629597489,0.8611400655698274,-0.11069893073993456,-0.11540815417028427,-0.23438104353242883,2.0221123386560875,0.6629735431326963,0.5493844540278034,2.3756860473463917,1.2344889747484804,0.7074663997947382,0.3355773091330963,-0.775138437379844,0.058149951604966665,0.34460676031306225,0.09422571832162235,-1.4572306818391718,-0.22539745183817012
0.7751742659571785,0.8724330284491247,1.5444947048065862,-0.5134315014974844,0.5383541411796131,-0.05241011497865455,0.08821984331637123,-3.1034067447391553,-2.1025890170886576,1.1321088110958586,0.4363158772071179,-0.1738355913527541,0.015632155352985785,1.4127781525707097,4.349933345865242,2.089411383199196,-0.9594612909215983,0.4360863270697739,0.27096840910919157,0.7815721185656139,-0.7129113978490382
-0.7671332478969242,-1.651557835085682,0.14769965839599863,-0.12572369392448993,0.08395791527465538,-0.6056198104579453,1.3407119092202038,2.52905769752129,-0.36911737665603656,0.49867198706215043,0.12883852435836043,1.2811739022896615,-1.2179663904382851,-1.4725272933573077,-0.9202506705777813,-2.177301194439305,-0.27217248272061006,-1.4157287559525882,1.1429711780539291,-2.229158184882108,0.8003335500610419
0.6498042860515345,-0.2081153144061967,1.554390952287438,-0.36297477977093967,1.4761814966123945,-0.018454471847165647,-0.5775991757875387,-2.904199334163507,1.1938018677305375,-0.9717404294841621,-0.1915293418068375,1.4604692392849048,-0.27975272427207154,1.3022321987190857,2.513167738812959,1.7032908523312387,-0.6656671094874288,-0.20870896370467673,-0.8486252704559403,-1.7320798732508413,-0.15944145739683424
-0.6294612335181757,-0.8524678442343941,0.8819869329888939,-0.20452903947353915,1.2409971307156602,1.9742614585834333,3.3014813856629956,1.8942250013830977,-0.8413948446476276,1.8095637372087026,1.1258467607451417,2.197781626099175,-1.135756842568094,-0.6944446454678999,0.3505926379056721,-2.3369382750075025,0.32696500274488904,-0.6253640788462872,1.8090674427318143,1.7654759167216014,-0.4627766530074857
3.3342246674160148,-0.4359977415462788,1.8799934630315476,-0.15493530998952396,0.43614365284136825,2.041497436244284,2.5777397846998946,1.3062306685158653,-2.7326024687380315,1.4832952984095984,0.2167108403304444,1.160391974469488,0.20510640055011536,0.5161653457668949,2.7254222999008983,3.280645510046222,-1.334114284577426,0.9974020314420418,0.9586955002447017,-1.9189032697558992,0.14350557261020325
2.1691033983753476,-0.2450700793523922,-0.7964904655974826,-0.19894407930713748,-0.7599632369944715,-1.0340522235576897,-0.7697695339306445,-0.2108033041371501,-1.6273490673266302,-0.9779712731143102,0.36366208285662116,-1.1995585015521955,-0.9461585487511435,0.2530095530711712,-0.8767828566415188,0.1961439963230241,0.5396247295544399,-0.2658735980732123,-0.533498474056907,-2.4044385418968095,0.8992006928096603
1.8387791320497038,0.9947667418986632,1.473325322603611,-0.19369032855506738,0.3144122884096897,1.7144865672498926,1.0979004940568609,-0.3079304261062815,3.37673830780728,-1.3850029254870546,0.4055384298397163,1.8373718279603402,-0.05894549497380762,-1.772803803485861,-0.5655389367966562,1.503531240634894,0.18805393744358928,1.2454210681315492,0.5751659137673304,-0.27384303974768687,0.10595774463666846
3.180535717562946,0.9453009013288004,1.4643626890509012,-0.2642830704884954,0.08760275670633338,2.829833597531875,0.5966393470659073,-0.4263681492518101,0.5472727181086121,1.5097179002231838,0.225134337318531,1.5516322285160105,-0.11780717573128696,1.10728032821217,1.9589495418862786,1.2498897088970071,-0.5382623139332824,0.4735449278359369,0.37904264657217424,-0.6695272231691489,0.07395497392398354
1.2872821007624884,0.5008512748489795,1.7842809110698323,0.04137001973028733,0.4829053070220912,2.001083410003404,2.2879686286685326,-3.537453410902793,3.3287341914644046,0.9013900345807313,0.5052042214312381,0.37293476102493656,0.42568013160937324,1.3826532001252114,3.046526986305701,2.8885330547510755,-0.605083915459863,-0.8213581289858409,0.8669550680605476,2.354255948814089,-1.625835016241234
0.818345102686201,-1.1322444635552618,3.4230662601485875,-0.481550921672638,0.754207041315045,0.28812393962210625,-0.7719124957479193,-8.012493940447257,6.76174078487961,-0.012779940611318485,0.2290144739897585,-1.848581650091526,-0.1917338359528128,2.576815351789867,8.68050112467073,8.212384142732212,-1.8934062491559338,-0.07980175092259068,-0.09937032759538972,4.5304132916772515,-1.4152110186038727
3.1699951851105963,-0.2682676585747111,2.20777713057908,-0.22212925782052434,0.8410734483095869,1.5086843764870241,3.351456657631206,-1.7588050886812618,2.044301834524356,3.716835292665552,0.5447810804511233,1.1740441858561868,-0.040738735233815784,0.8179198336208583,0.1870578133616676,1.7937005016848262,-0.9095892248720471,0.5052095429929775,0.7484940598393921,1.3607211502214176,-1.0060602668328267
0.11913752935274502,0.7992892135054183,0.6685346514326354,-0.23629732543487475,0.20539570882473923,-0.5817511730810554,0.6324731347538266,-1.1979085490610046,-0.9042841398806756,1.3516000852923309,0.40470598432922966,0.4067406690057675,-0.8194864048524744,0.08489763707314474,2.534046378429688,-0.8850117083952824,-1.1093259233054642,0.13848419584869637,0.39830853785103537,1.2582531270012045,-0.4251077369226959
0.10097386133294561,-0.3280451156860788,2.437520555943166,-0.06720272386133845,0.17590002414080796,0.15507974885578094,-0.9077844555651176,-1.9417948449671136,1.5027329644762824,0.25765378075788736,-0.3846726860888287,-0.3078353632249729,-0.15385055439509512,2.396412266565183,2.1511238630392318,3.1205457790118825,-1.47787905345658,-0.7912357989304353,-0.9837493552790572,1.4836332463817576,-0.883446432013599
1.4476488618372474,-0.3600633343979488,1.1824357619051695,-0.1874805640182355,0.21608763164914974,0.9467345468884061,2.2571142035384293,-3.687326061539666,0.8870505636792307,-0.7728081679893796,0.20916303769983713,0.947096832533764,0.6369965092636979,2.5142434292934035,5.735512595084916,3.9782588764159215,-1.1593268876108036,0.318497096672757,0.07801840192521806,1.6228205688479527,-1.5346782034008695
2.2250543230928845,0.5464174901156419,-0.7864840528433235,0.07022761941822096,-1.0000452668016755,1.096082617894379,0.5889624812044996,-0.96570774466665,-0.7396776313786031,0.9573501580416254,0.2792716112792363,0.6633940807986559,0.18642736290508105,0.07261164656688916,0.9210016053525822,0.9608015431317735,-0.6424328309385731,-1.010895299338368,0.6342084462992046,0.9502628402447026,-0.4628734775969162
-0.44970402579349933,0.2749923177556134,0.6181553323257696,0.10466798679577652,1.1285532157440692,0.5967987368579812,-0.18058066621830504,-1.2765800537407008,1.3433714955008775,2.0171510869574534,0.08389197588618906,1.019009306743639,-0.3568740013101751,0.7950785379407234,-0.7693614029358493,1.2265609633596382,-0.3522209279505693,0.9215506619676149,0.22608908667052044,0.1519435814568459,0.31157604569528763
-0.19957303207917687,-0.46374946761959435,3.168419556233909,-0.13809532339773956,0.8786876873855297,1.0059277113779928,3.338879207234804,0.6875927563870423,6.28496920807651,-0.23979633302365833,0.08413344740242139,1.909743327194934,-1.1586250655186279,0.6375669927873522,2.135224214076209,3.1698844315989563,-0.5280634813568683,1.3459433438454433,-0.7541162520346646,5.901662129856048,-2.230377547602048
-0.27858260640617316,-0.5486092239998971,2.983203378021138,0.06093706242592915,0.6076329191286953,0.39479782331053775,2.102572118983818,-4.0448523861231065,4.114963000284664,-0.43359651224916285,0.15635559818175931,0.4438506315023133,0.36416072649115655,2.4448722991162146,4.8659754283670695,5.65602903712553,-1.375398979992818,-0.123044394423104,-0.3105424659671177,4.647438270230817,-0.817599760831584
-0.774792139723336,-0.8746401660871544,1.0704085424560805,0.20225815011404197,0.7097531045189496,0.678302012231152,0.44658782127649044,-2.3006418494435525,4.750612031459395,0.9034724910388383,0.3933208307426168,1.4741636215154743,-1.6281379374785119,0.1528559318336224,-0.3791893135184215,0.5694798185455563,-0.7368157804107774,0.3834814340930111,0.2411342899440303,0.38151462447068374,-0.09065049647217341
1.4310656849959869,1.0598583671881598,2.667942033239948,-0.09350233833700838,1.2648879993178035,-0.976839670888058,-0.3137404294360845,-8.90503953668455,4.5092756491994646,-0.624955774229165,0.43361868359553113,-1.667681474245495,0.38188168666267314,4.669663225317119,7.295220626190443,7.641907588178816,-2.924914143057613,-0.7800262127050459,2.0010154692021382,3.4928481452941362,-1.6147296350822804
0.42075681674544096,0.9816857417898336,0.4722790207655707,0.007276265413279539,0.36817382556937095,1.6725091259173814,1.4402845176962051,-2.8011975312572033,0.9191859276472856,-0.0030050952990718915,0.22161507357443877,2.3145005363210105,-0.32267673119926543,0.8882868966562673,4.753779392093629,3.27191415196369,-0.03245164995080052,-0.6443716088269795,0.46003181820012845,-0.20179653514338783,-1.0287560532910347
3.4001099152375094,-0.44430699721442957,1.554150583564712,-0.03910289231889996,0.3117203828485902,1.7465430399898747,1.3634699044118963,0.44451687263601314,-0.8639784003521451,2.429282739482005,0.7206072168934846,0.26853611249014947,1.1785372229116573,0.11689088235047625,0.5647416586333358,-2.1147465739206437,0.8670949034430515,1.209561420777999,-0.7781393154550384,-1.6754730734548036,0.9814327061787742
2.444376869813593,-0.003638759665851331,0.9787969156600871,-0.24658107725931555,-0.5653990663751156,1.0948218961459877,0.8542781642264432,-1.5707961784939592,-1.9973916241071792,-1.0171655034959621,0.17407868849346472,1.3109813317758543,0.05882590693018259,0.28798597703371576,3.503639316986288,0.7670513628051824,-0.08636539309122215,1.0924825162909935,-0.41124136868394534,-1.499883814180687,-0.2269077251632981
1.4629972798563644,0.15924942527298852,-0.6249672095733183,-0.1834477324539296,0.20220972276171523,0.4948990206663361,-0.09003584102387763,1.0854801298923662,-1.0681405118426075,-0.14457959258977154,-0.408765152357792,1.7406276714875328,-0.004975131392910023,1.1239899935748523,-0.8814731365431644,-0.9310438625243782,0.8213536959993568,1.6708566259482658,-0.03672802030349138,-1.6157455925418973,0.8924736118813158
3.0813795670998836,0.11760621762135245,1.4970575230770842,0.1275660077161885,0.318305386937882,1.5017591665444971,2.509002039841327,-8.329664906060982,1.6317529543486478,2.8026619216399604,-0.021817802483570885,1.2033095349824054,0.6365364062066677,4.341543684639678,7.681695969978647,6.179788466906005,-2.304307279938179,1.299017725049894,-1.2485382103807696,0.6431077379081369,-1.30689032809562
-0.585689760313648,0.3110353576265192,-0.7626470811112895,-0.02218851198576204,-0.2566412038603209,2.2074174202827597,1.570706219216759,4.371647627916701,-1.1944953015322628,-0.726336037255186,0.4560668223671287,0.25216131369497535,-0.5015809767340019,-3.812991920172748,-6.486840309863846,-3.211156662128221,-0.24244868432948086,-2.668371824319798,0.3115725366723995,-3.376564506585289,1.4278870059838094
0.6871419963934564,-1.5733811650908374,0.8137232786955615,-0.21275558112329981,0.03052076310597175,0.06529844028461174,2.9476526588901937,-3.1822072433268307,2.416993240054034,-0.2628330833164405,0.10843758269498381,2.7364635237033186,-0.060922437189404384,2.491186298206704,5.232130973378797,0.6242706172373089,-0.8453272646842585,1.5605122188959517,-0.3435552142779511,0.1814999449276009,0.8429120293371819
-0.7519497177792223,0.6724675903057084,2.409161401935714,-0.3195477205672038,0.30577437035137817,1.3834243621392184,2.3278861384841627,-2.8913655852053934,0.7173311587887272,0.30271994190154883,-0.10248019973965218,0.7340098847387134,-1.1273647745897135,0.7546078075248103,6.252666433458326,-0.02907894145143375,-0.5374176419230442,1.1611795132180267,0.6871308628960906,1.371253925902003,-1.2293958809350125
1.621740023565824,0.5055111460295983,0.3009075661963152,-0.19584670473427823,-0.037493152219319925,3.162098887691742,3.0936683676767798,-0.4167778792264893,-3.2622561975220545,2.5024456819321417,0.48658609500833083,0.6583474649511072,0.2712972627958005,-0.17423915752494962,2.354502655117754,-0.3754357003881741,-0.5794820696674238,2.052596550338145,-0.27321218148658477,3.115395134646877,-0.26010646061089837
3.3535386051539016,0.36784661933257723,2.1534492050028673,-0.20916025360053567,1.0798783002193317,1.0813372704888147,1.7370452213534486,-3.5587225018941497,1.0256481155320358,2.9373748569372156,0.17730390880644967,0.8716666407043199,0.993590072955611,0.679051473577196,3.381293604731015,2.7920231364182446,-0.6529089132289753,-0.36991249330192416,-0.3025088271711634,-0.2850976565917438,-1.9836412140739583
3.208610845590087,1.0717697806317075,-0.15468970249005465,0.0821913616224507,0.11320139892176907,-0.02521924470696766,-0.017760002087795712,-0.4512448065417681,-3.561654633813944,1.1604268512272744,-0.20152841241550357,1.4224401015567714,-0.5068873902710832,0.1563003117663455,3.102360164365969,0.3949463124434578,-0.8661644114860608,0.8130470258082231,-0.9078514973430757,-0.3716792063064678,0.4956038115547685
2.0348501133784325,-1.1742461872189691,2.1118972515855257,0.12909369263975165,0.30327932709635863,0.37887900049854717,2.3972515170514117,-3.8260458453942343,-1.141937852954043,0.4760901184557107,0.06821727658033257,1.186838810022777,1.7034068122403765,0.04111081416441653,3.377878925508133,-0.6945532505266849,-0.5193169847879353,-0.35368491796845763,1.082103178062845,1.7263944594170668,-0.445077582572964
-0.025493808529824524,-1.6089406232291574,2.5312572804463205,-0.24590960095508801,1.4663440128987542,-1.0527581786371836,0.6709208773006623,-7.187921816577463,2.3715720507287923,1.3627764908965794,0.25228032807584205,1.586325520043949,0.41102226559357435,2.965680541247191,2.8341918246703175,4.294582197438538,-1.604568993451047,1.0625790622519824,-0.3846410837497747,1.6165065907891059,-1.028935597978573
-0.5528323294727897,-0.7240462796928103,-0.6614286789892289,-0.22007311510175215,0.5101847803168434,0.9553650823087663,2.1101631268256065,0.4235399678589026,-2.875587678848719,0.49163808362788386,0.24893072387300885,2.2896888434973715,-0.3295263847596929,-1.4508217906002863,1.0658999375113463,0.7853684768160167,-0.14335464176834317,-1.7268718783760293,-0.6440075963483629,-0.4786882448317947,-0.43469300503735436
3.2396119038175533,-1.3482270595066201,3.183060259294291,-0.34604948912512046,1.2097602632278972,0.22939755939445086,2.4433038062075423,-0.556805328559907,-3.1322486609092293,0.240280366151897,-0.007570457288015124,1.272234889437129,0.5137908789636824,1.4721806447264614,2.3338120178368946,0.7391702369962942,-0.034107536365632574,2.1336134728979452,0.4904883554199906,0.9478941554133438,-0.4118375359600999
0.46233524049551034,-0.13448687516339264,1.0744608496593777,-0.038237608739736896,0.03995741975274673,0.22630101813443484,-0.8034433490440711,-1.3840362662236947,-5.101369887157598,-2.007444822279992,-0.27656735583938497,-0.7967125028016863,0.6328548941651969,-0.24138531105480698,0.6394744361554233,-0.1909174176699191,-0.48764780678308456,1.3615866594991322,-0.5429432600354451,-0.7426379545875287,1.341879977083068
1.6624660327153835,-0.8841556672826232,0.21946356327579597,0.057284433095430236,-0.08015481206293398,-1.0648649691687049,0.8781372688276932,-3.223024433127015,-1.4477010247715991,1.0732556339168742,-0.2594547721825254,0.4210420397510305,-0.07178616357868725,2.764126028966104,1.6085035585954515,1.1120072773247156,-0.8579820561316119,1.6352060276072162,0.8740112019066135,2.23164383383838,-0.20180119227253274
1.847925271520415,-0.051306880484961216,0.2836480564970838,-0.15694075511493344,-0.05322862918149157,3.1082034798890232,1.4465450384188485,3.0091094295354477,-5.63866100633137,0.4308833577347976,0.10006139422857895,1.8227562648403939,1.3704910423962453,-0.9800865678439389,-3.127292067653164,-0.1265124864988595,1.2011089397280772,-0.015491146854111015,1.1536185207292802,-3.636274327953119,1.0494304583191576
0.9479575779675105,-0.12233550410556428,-0.12940605633101732,-0.0774767626645401,0.5560854902096195,0.08904832680109753,0.257584647803772,1.7755845156634136,-1.264813155603129,0.02503773788908903,-0.20817518530811674,0.03403282428006208,1.8162503256651015,-0.7764253131439384,-4.971868075446202,-2.273555020539639,1.8212223520385367,-0.3688946335566006,-0.49426477348748454,-1.4361225534903235,0.6113398701885261
0.35030868172321683,-1.389026759304813,-0.5142307171498255,0.11900349316233251,-0.46617840078416595,-2.8093936490239693,-0.36327078948493385,-2.2457979434381112,4.4462976023119065,0.6600830316960908,0.06418511666355452,-0.629929539813732,-0.9990280214629771,0.0578350627862651,2.5031369211826657,0.2168965008407897,0.25609449319321365,0.9952169014411565,0.24352033033560597,1.9654358840073733,-0.8566854704620506
2.5818884727796614,-0.5562791212024707,1.9604809273103885,-0.28471321459948623,0.8197915387602541,2.4250207623317315,3.268091161721557,-2.332813718347636,-0.6632694715818721,0.5643599147200282,0.09521285333482701,1.1499309196409684,0.23436571574168502,-0.5311711663237384,-0.3286792451752302,-0.23207969155426167,-0.7527138444179038,-0.12345062933800365,0.02334642486206609,0.3840921313746388,0.9121304569639461
0.04324958838931958,-0.7416331147881574,2.876288373910115,-0.3252376220487554,0.513362691542167,1.030131110640559,3.2707574307801313,-6.706889573104208,2.5913878016456047,0.8353199309256196,1.0442214511251078,1.0716374709508976,-0.28859921259286136,4.4399613711092725,10.50788929829593,8.022257609879578,-2.5801719907011145,0.548598452016107,0.20101140915925989,1.1455844151892047,-1.3388792132019038
0.7987541010854058,0.47876929920061934,0.7257831566585158,0.08346989763754029,0.1860605294850792,1.5414448789047739,0.14859103306622035,-0.7599295994173474,-0.5014376860371927,0.6796567049508888,0.3762167623606035,0.4927744282886619,1.786328973371567,0.8167500707825478,1.7047761923029487,2.016301922845241,-1.823110784419438,-0.1908318700016572,0.3043300988203771,2.1899562723981396,-0.17614474743648822
2.197010412309539,0.6302197354650079,2.716790745625357,0.20546425006399588,0.9810765028628496,1.0535630741441617,1.6133577009234323,-1.6311136986622299,-4.786985235107325,-0.49413588228538674,-0.41537257667012834,0.8902348694130977,-0.028844374951470915,-0.6200208713282395,-1.1421421084909724,-0.7435777719965271,-0.4728031203261018,-0.025710236600013814,-0.655071416290525,-0.8388020632762176,0.5152427667207021
2.5336222716927272,0.5430885825275987,2.6592275338746885,0.11590649676036499,0.3119068994037732,2.1299598113672253,1.728404949040664,-6.080655432731625,3.7244525292222654,-0.2527531134191672,0.4251114749344805,1.4841278828077074,0.710605702076851,3.0100764019551356,6.679720255569437,5.11137741193056,-1.4301614914528489,-0.020687643230831387,-0.7104433954535794,2.5699460246059695,-1.5130167378713628
0.5707556980288522,0.255776192721709,-0.9394854199690027,0.14490972444608766,-1.0766568238132037,0.9943136651093012,1.3761680648707366,1.3996570747519912,2.433424332111412,-1.6563774422070379,0.46727612789551976,1.3294169898645585,0.7834770230922383,-1.0666735019275972,-0.8449446734971969,-1.072208893583423,-0.3147654777337041,1.2308424099513804,0.24997903373921213,1.374682353883042,-0.07758620165172124
1.88452692643915,-0.06680878544112864,2.1038839853294213,-0.2194266640891767,1.122796364826029,1.0238998809447273,1.824753756222222,-2.5691254061432036,3.8164097319124886,2.8517628102260826,0.5649203332189511,0.048458739435792486,0.45117660919888436,1.8604692263746092,5.188626530391463,2.4374523958421075,-1.0353060211404574,0.18399450370633408,0.5397485421261087,2.399876207189925,-1.452596958780371
3.0845291626571862,-1.9145215830657198,1.9183401222211658,0.10169163583823991,-0.43576394455628464,1.235166537205072,2.5059721492318006,-0.13386399143295566,-1.4716868485823014,0.39455199814175834,0.2364918418510473,1.088974002847944,0.2578332521738125,-0.4187359217466258,-1.6625370757014504,0.3152294543064817,-0.07427967270918595,-2.1653379755528643,-2.0427613216308815,1.2691141140345004,0.18949168871359573
-0.6864998277283292,-0.6218994427773402,0.9336271376848004,-0.322599960590519,-0.4661644538107983,3.224937782526403,1.7748453337879098,1.7682617766026711,-2.339643834558281,1.4580258025899178,0.06464141019950316,-0.2595563520683462,-0.8854041014545344,-0.6757942287720196,0.9127330518534134,0.5110448820790117,0.2643786165220739,-1.0298046155813432,-0.7189539878222629,0.9644549009544299,-1.0665997244710403
1.4404145389481733,-0.4952634808722979,1.801995313932716,-0.4469855079162896,0.3644021008269462,1.8792339045805435,2.123000457995005,-1.648244186388167,-1.0577926817942989,2.6973703675478764,-0.07170557956814395,1.727162291086937,-0.19900286449499865,2.053371342790726,2.886479232583733,2.3309251224395084,-0.5721033374641442,0.5365900739797926,0.029829468677956463,1.392513313816237,-0.3833092724457965
3.4306631789261326,0.47863734558160254,0.17430602345182877,-0.10434430270222295,-0.4740821572671603,0.9279879837562636,-0.4206067708943376,-4.127282149973973,-1.1398333839921868,1.7192064418475899,-0.17935990701193535,-1.9540949736663065,0.5818691368511029,2.604857698546839,3.4820791414622905,3.628852545068021,-1.7328445974097222,-2.247448030698405,0.936534025682016,0.6530301569837667,-1.4893131076998967
-0.6981517926214396,-0.240801032647255,-0.7411931788795418,0.1970725430370098,-0.796874324566736,0.9530665449409919,1.5054442845966198,-3.3170718019015415,1.8731439705153392,-0.6174200117085822,0.26370283874764483,1.124163000106663,0.7310150168756245,0.0454069739771662,2.749363659588628,-0.07328543425621858,-0.9568417114878233,-0.6934933513319026,0.8489607024145106,-0.5936603691183963,0.7251508312325042
1.2525905507154618,2.6539567214383184,-0.38034101433490575,0.4304226204293898,-0.6345603083288601,1.5804429245734524,1.4241874847443987,-0.44468192365253445,-1.9465620692023853,0.690559549340249,0.11578777540829481,-0.4982929383272159,0.362417989111541,-0.525759183048145,-0.318237314066124,-1.7835497209270268,0.38806452702367544,0.18999709489818262,-0.48708952734622846,-1.6333584139728525,0.2614862862323902
3.1621931470708518,0.706365455041188,0.9310921783131267,-0.2869647458540669,-0.08544394968435076,-1.0464158764288385,1.5733637177836894,-2.9546757253721263,-0.7456683797955419,-0.8081951257359069,0.07854616345160828,2.2617958228982467,0.5958436952408883,-0.05731273200568293,0.717723683285219,-0.2800827825512217,0.09766915825215465,-1.9042915179260334,-1.0711571347844808,-1.1767817532967528,0.1971559174480803
2.7699470100021,0.3833119406673624,0.5282189363311931,0.17423243629033816,0.7761145946318598,1.2784743057743235,2.3874603183888428,-4.234261933160785,-1.0971579725082528,1.5277101730361315,-0.06582529797180173,1.8438932435045532,1.02164464123289,1.6833456081373486,3.9993627725223693,3.9382586828804245,-1.0273211014625907,0.1874064354110345,0.6601951275909195,2.005406081964196,0.01714565329063955
2.4404617766005003,1.9593116781121307,2.8044377819973856,0.036231506854045005,0.9946156078164461,-0.016460832226225342,1.5318453635585305,-2.867595093220383,2.2941548195399815,1.9284969104628626,0.15608409130975764,1.315889108718648,0.6982423101523723,-0.2983450334697767,2.33327381857767,-0.20582831073896396,-0.44554035586836205,-0.6869829164935497,0.24338840207692086,0.9698577421367198,-0.8013887690786841
-0.07586910485087306,0.5758076410506786,3.097512649608137,-0.31040010034871773,1.3793083954265193,0.9840734173750403,3.044425671129643,0.010057573729254199,-2.2497075473858708,1.7934257494933288,0.3671013205374295,0.30994980765775476,-0.5509543112654155,0.06478938509293955,-2.350341927127489,-0.18124761203989426,-0.05998176066986824,0.18771123979492133,-1.2232271453765402,0.44198402498380496,0.1599805569986735
1.6362461608531387,0.03509013114841139,-0.4941159057900322,-0.13998458924927668,0.5325009104869078,0.3398716374956326,2.021292991438806,2.332025818783708,-4.893273091173888,3.5484013498263796,0.8795731929751409,1.1593412903008997,1.3990917903133409,-2.71913080869606,-3.8536268399183733,-1.2301788121549082,1.3337247809512114,1.0007296176390565,1.2802092768555402,-2.1477775731296482,2.650370795584516
-0.9617754599519606,1.0292209855144003,-0.6887899833578197,-0.11221237059170762,-0.9386802578280823,2.1505077317894843,1.3322835324184896,2.628848849119932,2.834056333629295,-1.2973391630778914,0.503785045988378,1.2232586675647024,-0.7957368318590005,1.036549699479669,1.0542149467687871,0.5696587314840037,0.6500807899026287,-0.7887425033675691,-0.5339112151236086,-0.42682338927227037,-0.2166465587756691
3.366509408234257,0.8437833590445558,-0.35539716279581146,0.3112320340644779,-0.2469456561853028,1.2689660593718817,2.194889045243207,0.44805198277414376,-3.635696066729452,2.1123177527479213,0.6139191711125758,2.2623464344645137,2.1582201434774624,0.06794547252652738,-1.5589068700182287,-0.412356878124411,0.4464241172397594,0.014250333752443195,1.105280298951481,-1.2497373192850425,0.5763298113942822
3.4401096254269445,-0.7723269390415212,-0.1420748140536643,-0.0782803422947847,0.01982994414977257,1.6694855283398577,1.475311281990265,2.225468136086629,-2.6796979316427385,-1.5206211554368216,0.19621374279741088,1.2053081687709823,0.6263327714267529,0.7503570489821587,2.3252488373556055,0.46547340227989054,-0.16150859958146194,-1.0399095941198984,1.0693179473594265,-0.817773761904663,0.27131021848060294
-0.713546338111615,-1.2270801897555288,2.3324122036847026,-0.11124516583118933,1.017515453390783,0.8954256499000361,2.538370632042234,-0.35397691627714245,2.3360910814420963,0.8134748510505605,0.48416329517239226,1.1000114084630734,-0.8707198274654457,1.0882332361422113,5.409176131549671,2.907640582802958,-1.4806173114011425,1.9517548201548665,1.3839290289728727,3.9947822597924967,-0.5404213664895113
3.0215341457319687,1.251458497845411,-0.056901439026477374,0.18729437628560955,-0.49922839175171896,1.990413202220742,1.3245821240778421,-0.7915397656450327,-1.833296766650607,1.2473633151451122,0.6889135986635408,0.9155378273919424,1.990121854215363,1.7761718900572543,1.6963472911420905,0.1779560147829098,-0.4914834500249823,-1.1524123279636902,-1.5110821772380285,1.2748086877342448,-0.16357949117875575
2.794398402209067,-0.6892735320649265,0.7801896317098502,0.1435339007007684,-0.3300085827928931,-0.6037639798260509,3.416740439143765,-3.2154492188039034,0.46142973956341493,0.499976141071369,0.18630334608483926,1.3249199657813704,0.5899327242642244,-0.060081046910621105,3.1356793623212216,2.5431160598744977,-0.09794411907195588,-0.5658736207642439,-0.35434107259920733,0.3121376171227176,0.7421323355893751
1.7068966530320808,-0.1904185953870895,3.2168187685476646,-0.4383088887830367,1.0938893996012538,0.30253348942866326,0.6942128035679553,-3.3501972601409467,5.781985835575191,1.2142234962525706,-0.18948435832333,-0.6201570108227965,0.4204492700629125,0.7731175339054215,4.901556822465569,3.585254993405864,-1.2028715004208197,0.8840093974046446,0.6077194702264817,5.177532078203736,-1.5613604002314527
1.4221404474897557,0.20191328543168416,0.5822885680473582,-0.4179848503656158,0.16296504991869956,2.711288141931183,2.415479863290604,1.2266253828434874,-3.1751852877681523,2.4367605456573393,0.42233664922284847,2.1267703520606527,1.0346695022589893,-1.2546347296723594,-1.9997307455229862,-1.6917960073715317,0.4456527732714207,0.6993467495105937,-0.4387493282917318,-0.6485272171723316,-0.09054441252930245
1.0402599051493566,0.03269394342146401,1.156759627201981,-0.5689958171068539,0.19066002362680265,2.867417450266704,1.9321212782004258,3.6106381647151577,-1.1085276305983138,1.5229486084491664,0.6375691131310809,2.6944717454873985,0.5817461420911244,-1.4669783983625406,-1.1174756254990323,-1.5992948510843945,-0.2357167957171547,1.0424043289140414,0.17470602902229584,-1.3674778323737935,1.3990827428481414
-0.622186776387015,0.28227938433799427,1.010679349755541,0.03844380650689744,-0.012854669358451254,-1.4744058695184834,-0.6812828229536332,0.08421854538262075,-2.405931834218914,1.433078602812495,0.05275645651152335,-0.47128828786803595,-0.18801087273644626,0.00026900591234452556,0.6652813643290814,-1.6441665088028778,0.04392239111998386,-0.7791934018250052,-0.7362883920391659,-0.12414757891486715,0.11762109105529968
2.514638477359524,-0.23221095312647802,1.984308766780087,-0.42431714043912305,0.646992575119451,0.5990298523247277,2.725583809176193,2.1686019160065833,2.1418409425771703,1.066690553068467,-0.0209827299588468,-1.080227886387409,1.0428487162521118,-0.2240774103717696,1.8885628819915254,-1.400793146403675,-0.8188361361920465,0.14613281388408023,0.7878529286189694,3.333129786551061,-1.444549969874172
2.6348970619558068,-1.0208666854451323,-0.06852000320394869,-0.012190842258439213,-0.07540532281354621,0.009307979366016711,-0.44519910904706306,-0.4764272291003899,1.3995846857043062,0.45039826324291143,-0.14377648446427146,-0.16337428743647633,-0.43977160042266317,1.5581523621025437,4.246506308614473,2.4653909910047753,-0.06955366774870164,0.10938171599053764,0.5671048716347643,2.291111981865301,-0.10780114135503155
0.4854754602247904,2.6680411727321016,-0.14366214527486842,0.29827429793894267,-0.45971298697907237,0.3300661170847049,-0.2428121112520114,2.6253372421471024,-1.52114295457314,0.29597811210342206,0.02647245273518332,-0.6368959107266011,1.3361716760356666,0.22343626679936546,-2.726856136328095,0.2213684570927723,1.0764072573392764,-0.46033933142155875,0.3262806036533183,-1.6238615826496636,0.556129079331415
2.4250309508514345,-0.6059194344010537,-0.3504279266760101,-0.05614204682159565,0.09571716553623606,2.1961720606453676,0.5423189689084216,1.2609424008171,-3.1674224323736433,0.8873392371381249,0.3094186566732534,0.990833075987617,0.6115882718516641,-1.9458331487595861,-1.1689544608457079,0.0874119015382131,0.22006462732688556,1.0039372189327038,-0.058492319603386925,-2.730054172573897,0.2903224707317131
-0.4017981301709178,-0.8834747789264528,2.6247322339723547,-0.40115108983532605,0.8613712523717925,1.9463283621023855,2.1334429961629477,-2.058752499497067,1.2936622899330448,1.5202379438804423,0.2548621748732602,3.0815549598733463,0.4820874332391907,2.4485485189295,4.605644981736673,2.846716951012729,-1.0518751650764369,-0.6651062028575323,-0.5796043504835903,0.4903512372447487,-0.6674503827561766
3.3384426569988666,-0.8038801892480106,0.8285430980335295,0.10342751429447077,-0.2518852864307837,0.2006282664635733,-0.6917383095746577,-1.0763323380661731,-0.28559225294917256,-0.5121842386481015,-0.35087418787923197,-0.1562672964868918,0.4671275736109264,2.8616445821174428,3.1286887586713856,3.155291242845128,-1.6080109435779362,0.03221577805027298,-0.8515380895184851,1.124053612065915,-0.8018467423410403
-0.6110107530725104,1.6473218151725133,2.426031299372235,-0.11025362196405714,0.371468338733029,0.11761995710036162,1.0859751737190044,-3.083709628042447,0.5665023750609696,0.5804678161102884,0.2696695551034076,-0.6635538518750358,0.614072363716218,0.845485158900065,2.3634719242399926,1.1921746173038166,-0.44740160907265586,1.0830515676226544,0.4944947287132761,1.231639367400988,-1.2265585902230374
3.4446354781098663,-0.8170233309376013,2.5306429592495796,-0.38975667608309034,0.436291057252353,-0.2775903386358502,0.6045525952379507,-3.4783015280895317,-0.15146786597551198,-1.4838677190777734,-0.13446155476933083,1.3587107832740588,2.001052603649113,2.53900847589255,0.8997603602205014,1.1471188862895816,-0.5156845751702532,-0.7892210932662448,-0.42951592113492254,0.2943641038855309,-0.19772383296964802
1.9395120319310477,-0.3354184367347592,2.821507081475948,-0.3989780206498768,0.19016740438570762,0.7889443931974893,2.5427282084012974,-1.2212581911599034,0.42959699777264904,1.5625950222950074,0.6607342168448397,0.8852992020146504,1.0020419754065055,1.7307581104468,0.8259042968757438,-0.5389321707041559,-0.9338923730628037,-1.708954428885209,0.3927647137649694,1.9354210299934327,-1.0207928363282925
-0.25003598235393554,-1.5894733150888165,-0.44605673208284813,0.0923148822559165,-0.4655617651413443,0.3978854062663898,2.1456977354412072,-1.8109447194658637,-4.344856767043688,0.8736499074149691,0.024303625270232193,0.9197710868705963,0.04626411051827326,0.33389277158033914,3.0134651576955034,1.2443642029315458,0.11828535451686603,-2.114075814114039,-1.4117435108544847,0.06434574496020562,0.49157745734580843
2.4783820108996935,1.6884520168125159,0.4702945975956192,0.16409803760815844,0.5494506725810107,0.622368595976773,0.44080696334858405,-3.5091597528571277,-1.8762848077882146,-1.8599005236110786,0.3684452034841864,0.3438309666051828,0.5838557869775934,1.0123101990670276,3.086213984259878,-0.6296910914630078,-1.2675007204458366,-0.3239440951224791,-0.5958528977292029,-2.949261741471628,0.7825483686079997
