x1,x2,x3,x4,y1,y2
-0.1398442547356426,1.5003891926329205,0.38222298470805116,0.23309076313188679,-2.5276219676817777,0.07008368194536582
2.132565098630885,2.157745773717691,0.4140618495949993,-1.2625344615994138,5.0051823449896755,0.7226906388968694
0.16960379220002486,0.8261235025951319,-0.06939390343940578,-0.49690543695984557,1.0064660157418932,0.3206353512656863
2.6109459197956486,2.597377723128629,1.0096546557776063,-0.9841814390441193,1.9876776780099452,1.9171795713723283
0.6960841272306308,0.4197900783109032,0.390652214293476,0.1677644186128108,-0.2699973114591184,0.7932418846643675
1.304945601823237,1.1864362139528848,0.3082321948040747,-0.45125200981544744,3.566575237570519,1.3159075741901143
2.075361000657329,0.9862548947225958,0.054284881331903956,-0.03905016549879629,-1.562572040835269,0.10935282309363904
4.276073927994345,2.6646096159414125,1.0329817184464951,-0.8756546971467775,0.009744426336185996,-0.2850430865727372
0.7125281719273682,0.9383386093487194,0.14405762444460435,-0.7304900120673297,1.4048284092937653,0.07344372994490636
2.0776239785590045,-0.4470693702870199,-0.3439851726691544,-0.4335746222421029,-2.4363762269414195,-0.29622437447905187
3.046108253445469,1.6978935170525098,0.6499102619413659,-0.7511880877655752,1.1128698012023082,0.019828310462114637
0.5615077348059222,0.05187467324083905,-0.13556766994222236,-0.0725936533737707,-2.037314778892582,-1.263528337359971
2.2144241107899525,2.5413927155679907,0.9291705704547518,-0.7063759327304872,4.734967162546564,1.6475738847593586
4.1814509789448335,2.15569588998268,1.302067512666998,-0.8045844328812604,1.671997863310052,1.2396897437754946
2.150697815913932,1.7948983853151543,0.885320182336263,-0.7530109406513832,1.8731241223885629,1.405883702080193
3.2792665112443578,2.8986624512623913,0.715071624786852,-1.3011910182802058,-0.2842871688949189,-0.39534537559079375
3.6622037786665063,1.7624627785501072,0.4138669142632619,-0.125210955165348,2.5122492707055333,1.169569065333385
2.199691988610793,1.2158333599335873,-0.129134855888725,-0.1767509216880798,1.2936755516510214,0.5357825644804632
-0.3116759067550034,-0.6528193116744797,-0.060864066451851766,-0.19386059722925547,-1.6296985121788632,-1.0525453304348285
2.6156648584687536,2.9948666231917698,0.7913696479610585,-0.8628563959025801,2.6958420485915453,0.8954779984829017
2.429878326320459,1.9736277980423065,0.9306258888827891,-0.7123073474729144,0.11775586132290417,0.5131729848625656
2.1879100317023856,2.60245226027923,0.440402589715901,-0.9320024971569654,1.715576101905076,0.4905592341371395
0.6184406434706832,-0.10879744015646797,-0.05938012001086333,0.0626243560951389,-2.004210643452412,-0.14671510789677056
-0.24012273774505824,0.6744321498578962,0.37544388901913467,-0.35373462845008646,3.2477651753489445,0.8005702902923618
-0.29702534168087164,-0.520943168060677,0.22240140021666707,0.064801267857801,-0.2938892529433784,0.06305673762141789
3.8646847205244925,0.36228299246454765,-0.13983039048519227,-0.022032527600364536,-0.1774801467368672,-0.44473545303234585
2.523621392122533,2.664322805054555,0.7119088334111888,-1.0352466903693596,6.153793185840473,2.4131957386338128
0.5436365263097206,1.5979969841056927,0.3355976140987083,-0.6475798697028197,1.2085938577335245,0.7836154112716781
-1.6226573770524684,0.23333073760356005,0.23517343769288898,-0.2784897851001121,1.4852080733316109,0.10924150168808491
-1.3802913545137014,-0.980364485455408,-0.08284163405254938,0.4837461458381924,-1.570076571226799,-1.013628437192832
1.9816036342107983,0.8346962427596014,0.35995816507858425,-0.38188910972296375,-2.5294710664923725,-0.625744396464469
-0.38129984889466606,-0.6446104772593695,-0.20713035395674373,-0.20755159036137577,-3.476402974853105,-1.0427135752573937
2.097996559385754,0.8481793018348578,0.18819708970406082,-0.128590354295334,0.5907451733076577,-0.54856968576778
3.563527424702563,3.2112225555179084,0.696301481971141,-1.2031302520604048,2.856362620607776,1.1493574303235945
0.31933815848620567,-0.5208958730683685,0.14208061248543627,0.393195399702003,2.0308340905266276,-0.3755254904523306
0.539360621338905,1.217214373932043,0.40427110337477756,-0.4458738381991731,-0.5977840941612592,0.19086502974281783
0.10225897521267795,0.9404186345839534,0.7149151371622452,-0.3800562666807928,3.143227935118191,1.0390525513273243
1.226333179611645,1.4938104970000707,0.08961575523867986,-0.8317895770141468,-1.5279655145322568,-0.11425840393384222
0.8746278836914443,1.6511474013931662,0.40074306222959,-0.7610644713620804,1.458586503344096,0.9133506898974987
2.2067678420221357,1.3810903758530095,-0.4088584286066957,-0.9036117762136996,0.20306312863113163,1.0305571386469634
0.5975048998577761,0.6671099669089366,-0.03435372876047386,0.16371315342818799,0.09987557990308682,1.023040285023215
0.67328741787085,-0.910692054003299,-0.11906887816574072,0.3098890557906052,-4.213869608727773,-0.8985620828666245
-1.5714243767196312,-0.5844568418271696,0.3654433958609075,-0.22402049082186076,0.8650765367553822,0.06469770157834488
1.8039692505703018,1.1251345626893139,1.1333998993902599,-0.09545225465214383,2.06646723794588,1.3594924682925427
-0.27834433546970705,0.2395907817997036,-0.11156614608455838,-0.6659887391247058,-1.4179567058408062,0.20172143081762198
2.471643150520751,2.807955150191731,0.944968898796756,-0.7993343081372462,2.293946985299511,0.8606231787361975
0.6757963190369285,-0.20440561493183806,-0.6998361327219903,0.2932009239565816,-3.419408892288075,-0.872231054710367
1.8177385198186107,2.0195300490519004,0.9183262977064086,-0.5998017170158534,3.09680638342161,0.5197599580865923
3.278366493886222,3.080523469837334,0.9193670369162764,-1.005854307286251,3.403173671754914,1.2611443974145726
1.7166645912011995,0.8181171411857462,0.7776627242899541,-0.06773419623827054,3.834721759405763,1.2799692721409768
0.28225529485389517,-0.01863283631347612,0.08116934507908442,0.4628635050628748,0.8939770686536883,0.2717131996366229
-0.4115683479615437,1.1878839127079686,0.31869754748292217,-0.3202239140005308,-1.7083694291741998,0.1063607791374446
1.0527695689713945,1.0587169838232886,0.18124479988951755,-0.3896840640192047,0.04230362269486099,1.479670476433005
1.662525892208209,2.5373620158288315,0.8367878325950089,-0.8333951554152039,3.3183498812867436,2.252253652000438
0.704277230675912,1.6514639518008796,0.5837965626698053,-1.0601439343252066,4.049564118872271,0.35496988753767367
1.0832059970823902,0.47956856147817084,0.23925902462793636,-0.4612672174713711,0.5663932618299634,0.8109977344867796
2.4050141088331807,0.8363590079835435,0.3725344655567914,0.006481053589984113,0.6196199928545938,-0.21445048829454702
0.06313179541845242,0.2509042443467715,-0.3039215003128141,0.12490261676624645,0.3910568310765473,0.0007306518034583723
-0.5676716768404256,-0.5189140250541784,0.13408495162617667,0.29713917736042333,1.1569451841354454,0.36373826991310676
1.9317946555643768,2.4635582778408653,0.8629281864252366,-0.6771451542468776,2.0226126111697758,0.1643694819803393
-0.03690673469528135,-0.14327328778560144,-0.08806182001119525,-0.3885420553856243,-1.6668725200043366,0.34552075463899845
3.6225875667364997,2.809243827868258,0.8645465692223451,-1.613789887098592,5.630904399365406,1.604840727487316
4.510236082719272,1.8413352011197586,0.30835205772903995,-0.5675916320367718,1.7655863123247881,-0.23737894970188225
0.16902138979925035,0.7705508848941174,0.06230275313805514,0.1979678861765755,1.8577060557395582,-0.056702796113538054
0.8494655853309497,0.23457369756233537,-0.31591097532236007,0.06216387978470168,-1.0148153389036754,-0.22591994628687184
1.9640118904266175,2.891009947678737,0.5421208350644695,-0.9335293861337233,0.7568333593439076,0.8577900449016534
4.112908964223158,3.4297772317948008,0.7184817179042142,-0.9900882710819477,6.822004061007525,2.720027212877741
2.68659192098311,1.3793743245756387,0.5400578041619508,-0.5175309476759173,2.170287624409644,0.537513448740713
-0.2442005073584526,1.3953765447493103,0.4634672183671066,-0.7434785978407874,0.1453506353540709,-0.42287762891253367
-0.13449983228726428,-0.3806298953356202,0.14086877741299828,0.4409316403020901,1.2434365178959315,0.48313015540966237
5.737668832494391,3.4559891307835313,0.6747518982375728,-1.3562203672612194,0.7468897040605262,1.0939106001175223
0.5770644409731246,0.5162349634300067,0.026802215274432696,-0.17319005177345603,4.134046987220768,0.7333546216633722
-0.2693451473545763,-0.20880880034253824,0.05689143000828332,-0.34561458033869447,0.4042839846908637,0.2921589788497986
0.18209513722937662,1.3220205502965534,0.5662123359863442,-0.40220159442571857,1.4959285285533963,1.1551167832924993
-2.0195789696685007,-0.04564798136055548,-0.4905971299833264,0.08474107972118942,-1.5080231084444882,-0.45640265083613235
-0.06500524649711174,0.8555625041940602,0.09209327797130415,-0.8298945587979911,1.7627688396480767,0.716599670048713
1.4448287207916626,1.5358091321496166,0.24969313675086297,-0.43165753923640704,2.6656332184846594,1.4198343611169597
3.550973245929474,2.2555700316834297,1.0116590153372598,-0.512360031257402,2.8656550730754233,1.5067295280034079
1.9753369290374756,1.0886993912727707,0.4058673252015046,-0.34114128687509887,3.7078076185501616,1.392128823436295
-1.2244665280705676,-0.1376842049119289,-0.34130956100073606,0.12159893584983236,-1.0964145419907636,-0.13540783901426837
2.781421020141494,-0.21645167915802488,-0.30106087146750654,-0.21030350453662128,-0.42309861866398646,-0.412447644981251
0.6987974325835792,0.6625341262873417,0.5321565125161083,-0.056048141740048435,2.996576075717585,1.796919723315961
1.9864977636206917,2.5145244332120846,0.8895267661411042,-0.5287456723280576,0.6144982854931882,0.9933663821983134
1.4907981041622511,-0.03872935117797682,-0.4781392491795159,-0.8752576563679155,-0.13769576266310363,0.3044038990838467
4.212586491459394,2.4174356821965373,0.2687487669014843,-0.3133843109962104,1.6490259732640005,1.2142262448199432
1.9628219736157042,2.1451446479727676,0.508898877060035,-0.44691143014463375,3.895039743420165,1.9604472848012302
3.3397784939276933,1.8009003532515124,-0.32820876038960556,-1.0292839460715997,3.3264066917052886,1.1004172715686609
0.44959124478213847,0.43377897739622884,0.4438575128921669,-0.36377796513278254,0.9042953148267814,0.7373301849699921
1.506721291765935,2.15710654973357,0.5423082979914777,-0.6765017525701508,3.470672120634455,0.8107871489232199
2.095661385353506,2.2262564963692792,0.19197748544792054,-0.8847191957141428,1.982017467679521,-0.49095790322456906
4.603077064793315,3.187401691388472,1.0407737765393286,-0.7140222905549056,3.9538189719505485,1.3888338674950234
1.1338112029571,0.16858094266884316,0.11124949379812289,-0.5438902987878556,-1.146997730255228,-0.022230917680522537
-2.015801153197949,-0.9469719876104352,-0.7860090920406022,0.5685549578805479,-1.1381104996822526,-1.033322787829218
-0.6861829273553909,-0.8643683111518978,-0.4889771911804477,-0.214700191725913,1.214659723548145,-0.7156199188387214
0.008340347632415113,-0.7413046622609403,-0.4193639088931381,-0.056191537420446865,-2.1429517180651865,-0.12368900834266898
0.28238618880281946,1.2344186855142296,0.2547570196987783,-0.44678276851066095,0.5298460386580452,0.5223994581204333
0.34926128987152455,0.4571376837936232,-0.016978427164479833,0.4581328526857858,0.796424272983979,0.4378320135311225
-0.4352372303624989,0.10844194040813404,0.051879084934287896,-0.5547984441015384,-0.7318794373372903,-0.7685592906583204
-0.4043961986750541,2.3095502792044895,0.9143077410421918,-0.6999306313428371,3.7207036842822943,0.9756138893635264
0.710113708397862,-0.3761030874581778,-0.3959335744948915,0.35361948046534963,0.5162645820513097,0.02726610232808599
0.8641777783517199,0.5604419302242734,0.07158931552459917,0.007229408884177209,3.6560022548349647,0.7512032394058323
1.7038329136445036,1.059433174182808,0.6023143811799838,-0.9045556370448328,1.2446371327889898,-0.017774289925874792
2.2993117289150935,1.1714113996559807,0.3547998818343928,0.2786627768579598,1.625708515880787,0.6104416372227829
-1.4687326463961234,0.012142064353878324,0.035908694233574276,0.09511925790842474,0.9055430530317907,0.6887419279654075
3.0379883428748227,0.5925027793879525,0.32435628244504355,-0.42445776723608747,-1.1854002397196177,-1.040150109328626
3.2875924732241515,2.84090305678116,0.8918787448757569,-1.0997626696326404,0.7990166090108848,0.5817315455774577
6.2899132381459015,3.4114106757757083,0.6607485062929622,-1.4603089661426452,3.842910246819927,1.4691237380078759
3.49589419499271,1.8916100466317483,0.20582882461474553,-0.6176652555974409,3.7681307780119204,0.5865072580943993
1.490931032615638,0.5718141972103734,-0.3361425975095904,-0.014412400428335605,1.5079620604226958,0.6079793552965109
2.273515911675022,1.9675989425459224,0.6757010228004859,0.12380471948259063,3.6714181769650955,1.8105918183975018
3.7125578103440384,2.570912536826356,0.8101906982980055,-1.003189512382816,1.996967140017341,0.5178229437325222
5.11798236606799,2.1599535528434903,0.35133813377789536,-0.31580293926120345,1.0148719808473665,0.7464042852825136
1.2416553137189439,1.3345972478551706,0.8549047978554771,-0.8567037399912693,1.1976979252479727,0.5571291236982671
3.2349559458885437,2.280388199386708,0.7411257343575156,-1.1037604297821841,4.545067728915255,1.1997350570538303
2.848118728606641,2.6047265403058404,0.7805004427365648,-0.7562787066204023,2.4999585308398458,1.5713458595934398
0.38073614742444073,2.0017806466293564,0.6188384309921607,-0.3682189705254938,2.9571007393837805,0.7501177884146031
1.0670553606933524,1.3379318324940512,0.8259277692773641,-0.6336257906766731,3.1627281703805745,1.4534260473850695
1.6644177145974608,1.552797474405097,0.03835825931873156,-0.4006624781658257,2.4596088153402125,1.2534263397112715
2.497506412823143,2.248899138021561,0.48706407096363,-1.4165979081800262,-0.15281878117269576,0.4136314879819232
4.305694397779104,3.148692276654746,0.8012328360975117,-0.9881138734706726,2.286775562532605,1.4306999285681283
1.0773522713852028,0.9608890175480225,0.29420142290217505,-0.5034803397774938,0.10084225295063964,-0.028395449529070214
0.060729266220254055,-0.851904764666228,-0.03676831444754853,-0.17181790823808624,-4.831012702483578,-1.1954562620472862
-0.002568959165826041,0.6854535829142385,0.16834560350032793,-0.25607913707724567,1.6102425455252019,0.5494036114889002
-0.26231746377394016,-0.2718265934703027,0.2040852152400345,0.23978614241473356,-1.2316745416094368,-0.6843351047322632
1.420582299324269,0.7985149337776878,-0.1370153092820179,0.10796673064955277,0.3404983131294058,-0.19591872887079953
1.8936771339888603,0.3556345721517855,0.33257298696447235,-0.5498324319444343,0.8818839633696787,-0.08546432510763363
-1.3203095552609363,-0.15902608555317788,0.3503474396398693,-0.4337473936349235,-0.767308231026165,-1.0544862381663336
0.9388305163168021,2.86739394058536,0.17905063025992796,-0.5502304767404655,4.607519743581605,2.1275451635743137
-0.3837388931635038,-0.3987846697702906,-0.04651044793126102,0.7262200721753496,-1.4360896295925487,-0.06338570144909197
1.7529844691397225,0.8661523085989888,-0.09072950134022889,-0.440645499618409,0.2154665797082978,0.4733792711896395
3.0632210999556064,2.7125767379038344,0.6398088389647277,-1.542041365350107,4.825260169454859,1.3259109385557455
-0.3669969113267522,-0.47483749148234866,0.420325495886598,0.23841134823974855,-2.2090182003609717,-0.4071937883409647
0.25892221574399055,0.8148124176804914,0.4240793272326663,-0.004444460458971434,1.9625773405662794,0.9835382323722653
3.0733738214656174,1.4607669125684373,0.41462834594669956,-1.099370636825407,2.9572983606076146,0.006619202791010414
0.5757524559523992,-0.5442051490191633,-0.3932520680166051,0.4263359429870418,1.0530226172907784,0.740545978253031
2.4664870797480942,2.875620589569623,0.6285896015217808,-0.8536769332823241,8.303398504036474,3.2903588014526126
4.255120946476845,2.6675258994370994,1.083991602290125,-0.8053883397325853,1.3387698278983935,0.3176649730237755
-2.685460870892979,-0.865369374881933,-0.03119731663821391,-0.03156693581844578,0.07459455307141694,-0.18731693772088295
1.3687165629974896,1.1767748196953374,0.42904388735604604,-0.5514912776839253,0.06298616836424492,0.04949285603322448
3.3722563248824478,1.89093573466787,0.6931848017162331,-1.1184600992610882,3.038882579509846,0.4015861912811452
-1.0919026344219998,-0.6622316558331741,-0.3146493017547208,-0.3260458448472461,0.0006770927782861758,-0.5474455607380881
0.9957068290225166,-0.7083362060245706,-0.15201855838540784,0.21373578765129148,0.04217571625215544,0.04248766298095358
-0.017055983351628407,-0.09901597797521788,-0.017392112763469404,-0.16511795107194743,0.03165011725477107,0.5659430207638664
0.7475536189111703,1.6808426338755336,0.49962372233035063,-1.1492128454908404,2.239806425179012,0.8139131509466739
1.698922949940744,1.033426607229749,0.1391735660959802,-0.577280998608629,0.6100225413010152,0.9424555543717169
1.277484300194878,1.5602634419368782,-0.015950141220482477,-0.6115606728810017,0.010801529929499898,0.1411065516751538
-2.150668868083897,-0.2279079532901741,-0.3883351651002082,0.36066548057180436,-0.4776121310536089,-0.07106749439367631
4.784956585239498,3.204718493015707,1.0370080323671242,-1.1526311749765752,2.558046969059223,0.9351680385589518
1.243493333813058,1.005879798673913,0.4191877427870139,-0.5728510686275968,0.02256021561909438,0.5255095525129134
1.2663294675710621,-0.08919136025645558,0.1757207083965851,-0.05009571834035609,1.7834292105745213,0.8623008486328473
3.3076070025503004,2.650437653088866,1.0632278422379768,-1.1891640179958325,2.6721315504795373,0.7567567188534331
-0.04873859491269835,-0.04325781266891149,0.05243119094050919,0.04080918378241311,0.7383040092985632,0.03661972169541933
0.9340611801916973,1.5788635007306584,0.4585704120859004,-0.59104570449105,3.9248534541566333,1.5486569691324283
0.5667607527217217,1.0710720622156762,-0.03311202588963648,-0.5155145614192767,3.9762877843549127,1.778295277081548
1.844372467803687,0.5397479392516913,0.11733942426269317,-0.24654102858061602,2.2867970963265387,0.6189284394183047
1.123377290321462,0.632804453470788,-0.01141317242817909,0.1626294456258741,0.48134812689793677,-0.4878760463419796
-1.3421562824215079,0.8256681431341475,0.24215309848144767,-0.3917538112363889,-0.4571253070247301,0.16607018707111693
1.8617492472817103,0.6274338235484342,0.881244731761636,-0.3027585168659812,0.15224331419314222,0.19258408757286463
0.4679092617591079,0.910308985019957,-0.18959350721176224,-0.4719746719366841,3.4203852077641956,0.7509301650612239
0.41469567955225567,1.935554215955917,0.24545720207003094,-0.5013440880476255,4.64705705294312,1.5229280672616845
1.3849663569317707,0.6682483219474542,0.3896670601436701,0.3101673128633339,-0.9438316644876957,0.661917470087379
4.756889928293105,2.9928057817887397,1.0665409194339128,-1.0788019012553527,5.0121690114199495,2.2383464042735848
3.1924696096119756,2.2228081970500675,-0.06466315403294999,-1.0195462088320177,4.187443596094608,1.378755551522513
2.7668980787463484,1.8936117701835902,0.4737709667429628,-0.6226880361515184,4.663795569383077,2.7188669853683884
1.6266281698465548,1.549534270862106,0.2793296757380335,-0.5059022911458622,2.8091231770585727,1.0055157093318714
4.157392480797999,1.5372020450886419,0.3217703982669138,-0.221471331283596,0.48841027473651444,0.26103564436772847
2.0631005165703535,1.306569924188174,0.5865180729343753,0.007074444146859642,0.1729091392066071,0.5412715229821076
0.28810212654547185,-0.07996567051875614,0.32713940679380865,-0.14394665028611842,-0.9107442335062591,-0.5898343395968181
1.525013503182605,1.6378415809623368,0.01141480842695311,-0.23925302774663476,3.3722585288576576,0.8468639403420539
-1.7146897940930206,-0.6767310035878289,-0.04401049109903826,-0.195315630883413,-2.446966360550004,-0.5288795377462308
0.8077719570430067,-0.46487943172618107,0.0112647597266259,0.5548817390376771,-0.11241363978513771,-0.7581439356772524
-1.3967021372916781,-0.43988342049190043,0.3983721031536481,0.34028224268524726,-1.8423297718849838,-0.881865560500951
1.467077219405299,1.1756826327742944,0.6099309838435474,-0.6916647939537534,1.5404366025781404,1.1399497099062519
-0.11612447654156437,1.183050479222242,0.5411293134441293,-0.9341939932058966,2.2995012663677166,0.4001188699160329
-3.0103902511146168,-0.8398107854392869,-0.40465853143418,0.3470666246918288,-3.2224230170548256,-0.7585436990787497
0.6799835391288516,-0.9016221091585135,-0.3827969365031023,0.27448832001292944,-1.7916324932716863,-0.8109343045198747
-0.562756646028044,0.47291696912093295,0.022720035274028324,-0.40663755978977084,-4.198567344515208,-0.06344922501127949
2.2955358359648503,1.3349244032587047,0.2583794503691443,-0.0936594072151015,0.8717352880497178,0.47007388669215244
-0.15076579153674177,0.788499414582015,-0.10467307588934348,-0.3243452966423096,0.926365987451538,0.7758922167189092
1.4682814634369066,1.1823199174251817,-0.2977486215763199,0.07305831132964638,0.3605321860750905,0.22162749530994297
0.9551067528435884,1.9691003945750634,0.47406010470276405,-0.6181814583760711,3.3762709028553894,1.2921101804588568
-2.111494622496915,-0.5614813221884604,-0.27008242090260254,-0.11187992861133413,-0.14123737080538667,-0.19609048427419615
-0.03238192774730756,1.2931457423504136,0.2271230859500659,-0.7755338631967706,2.6273815363062414,1.6108350821894046
4.308381276432031,3.0796959479753996,0.9661856083727356,-1.6277356399758935,4.138361184439432,2.633946075356084
1.8706779432196587,1.093280702625825,0.14118075287780396,-0.5249189197153252,2.702888282405647,0.2606995231754845
-0.7494106735910285,-0.1516047439369721,-0.2726587545200022,0.35100264089130623,2.737981704111363,1.6855494854628867
-2.9598778827028798,-0.10724379899926328,-0.5539054186654679,0.5069091834505736,-0.6385515088074577,0.2757424599567134
1.6965834550966157,-0.37799738356551915,-0.5202626418526495,0.13584019909667086,0.09431784050482794,-1.0429935300342812
2.4102391945238417,2.6416030855277834,0.15809832151517003,-1.0873918891121492,4.063925297178846,1.535633387888667
-0.493627397294989,0.3659510486043043,-0.3614732280142986,-0.27919578022511554,2.942692155074082,0.9420455082952526
2.7744239841386884,1.0773311760564335,0.8487307351354354,0.40608898738126625,-1.0885833564063798,-0.4549948920787519
0.2466515113757644,-0.25869621154187095,0.2844998531997249,0.1527621502832014,0.6316361555337515,0.8708126889597115
4.889138826176114,2.3633279035755033,0.8173688705907219,-1.0787745484342608,3.119716286452772,0.6241073027731167
0.34671067899079405,2.0351985718995595,0.20887063942380732,-1.0125076524307839,-0.12987097082943078,0.9268139486023996
-0.5421828052068017,-0.1603738197703587,-0.22133570855982396,-0.4393762748312001,0.023661939700562518,0.4613508967414261
-0.430330313855542,-0.36126391028409166,-0.04227345960543264,0.3458469466821841,2.9681869611145038,1.0116022750172435
3.1527882692606326,0.8807948112532269,0.4984414402292207,-0.046555800653774744,1.3908801212197868,0.821749620724632
0.8262709664185852,0.7971637872237594,0.05549151716025296,-0.42382698637877775,-1.1190764690418247,0.48088431211759564
0.9110844896332743,-0.2051718361685193,0.016434308196367736,-0.26478040967085653,-3.3941859780253667,-0.91564831066849
2.565578140816149,0.8220129038632431,-0.17355477384385365,0.09241037144880136,1.4532913555782232,0.31052466754999214
1.2566559736683758,1.6741922111431689,0.5456764442955964,-0.17454657163121629,3.1942031457826796,0.07321881551384633
-1.8656829614874508,-0.7934884713736877,-0.43543459876456087,0.27694553237448255,-1.3303823304708966,-0.10950059456030292
0.48309100466810945,-0.47364965904020273,-0.44563411058277164,0.17311116519398473,-2.004322335645253,-1.123416439632591
3.3674499891479437,1.9432412690944694,0.4603536048512801,-0.652421029812348,3.7360693548897084,1.9245223642616085
2.6678873120142983,1.7836004721821204,0.49698891422847186,-0.738027100206991,3.0216567421659275,1.112356273383163
4.8466052860021565,1.5844695247069112,0.6310418221013415,-0.4389976996685518,1.9033486532410393,1.055699780007037
1.8654459615221448,2.6658946943617243,0.7901036996338593,-1.091550541523754,1.9810010873071908,1.7117010745460473
2.5585944007227446,2.6339092118941765,0.5690760957619815,-0.5967541994507426,-0.06686789570171081,0.4902956196844888
4.6942409196630335,2.368809742354428,0.8569364303090166,-0.7859729583879755,3.0027245089742074,0.7721635225424275
2.339929669308029,2.5255965233460755,0.4409327301071985,-0.501933949118406,5.694030262817495,1.6770647908657033
5.0210412331081224,1.1955213813624668,0.4410207013979276,-0.8961965572089897,2.369256773579994,1.0415666760183797
-1.4997504346065553,-0.19568857545284335,-0.2202635785494368,0.26110480305730227,-0.06343681425182846,-0.936453995523835
-1.1542022619479613,-0.9727217094853526,-0.2443239793977985,0.39187028013188746,-2.393354159116631,-0.6517850328997435
0.03335778905733306,0.06504832685150475,-0.0868432872417226,0.5333519409831412,1.1852681723719045,0.6334603928816281
1.6034569947228776,1.0846816968267299,0.34052315136722033,-0.6265559122939977,0.8421449226900247,0.6712511718601879
0.23443709601397278,-0.26510311811872656,0.03785114439756114,0.46554195635190143,0.6194811620478489,-0.6193965131163258
4.159282683818208,3.043941075873861,0.885616570854761,-1.0331027927800274,2.3039470628719956,0.6603511124273993
4.040370915540964,2.047149245727462,0.8355933620769852,-1.028731329281792,3.7473758766919367,1.1297695047133287
-1.241513277214717,-0.7275608552501709,-0.367064759613934,-0.08796105595271735,-0.2165868692417079,-0.7143946399047465
4.0177524432487655,1.5325281917022378,0.2746005670116497,-0.5453886946074628,1.3752968922541524,0.6929308580737056
2.868092826781466,3.0890905047569426,0.5981995036370794,-0.5827072254936492,1.3359279152317027,1.6869160569885515
4.785340028117667,2.9522388165573172,0.9418617532682547,-1.0267798913091644,4.838106551687728,1.9548511708682785
4.009003490287417,2.484365209874462,0.9607063218393443,-0.8777071092522764,3.7557657461548146,1.3167762061415218
1.2634626270363476,1.284072702928817,0.612114555547889,-1.0301364031658784,0.9121577772882008,-0.3472729853974391
4.169486426855303,1.912456753630582,0.7172581049990732,-0.5307118141468165,0.9782028267038606,0.19618078928500052
0.42278525798402433,0.278144219436546,-0.22527923771923689,0.11546459108620614,1.4213060912991904,1.4047510656710607
-1.6649480042861657,0.31338153373952693,-0.04241320777613203,-0.4182840221012291,0.032075997007634444,-0.9755444395988114
2.794370654603056,2.9114848870354963,0.5092550281072852,-1.6181260132859325,6.140234445947862,1.6542222164316127
0.6377013424889201,0.04192239730433167,-0.1015406698472073,-0.3048930607950959,-2.87507357798986,-1.0906942504363775
3.2964295934558923,3.3996793415249,0.5063324739942063,-1.5318379686617096,3.036781436705296,1.9776520052531184
0.45943187436209765,0.36077737327167303,-0.2318624666963061,-0.2651685045162315,1.4115563792328787,1.3305604352158737
3.7489139634009807,2.542442590942463,0.6094590420451941,-1.1803350721486097,3.0574273115549184,1.5036791697581027
-1.3718335859210824,-0.31495650205223413,0.33960899036610115,0.0776168326646877,-2.228516847926887,-1.123789187205492
-0.40255750754023284,0.28537866294761205,0.03676998198709491,-0.39098492908727783,3.109794328056271,0.509041311349678
4.479514267950316,2.963527804218509,0.6559758826165323,-0.9949146487163459,1.2321357808338336,0.8932806376768613
-0.5653181745345136,0.8119064414821409,0.45065866745851924,-0.37016397173450993,-1.2898910060526625,-0.2639198814233834
2.69402024009743,0.6990547880583451,-0.012945968560166096,-0.3427081417034401,0.750479341784671,-0.3571763358238233
2.0081315762440153,1.3387627179462096,-0.06703838491024273,0.043536289779967846,0.887623312978388,-0.5200379381745381
0.9888586270737046,0.40022409404699344,0.2688913522481097,0.6372275662658429,-1.5189513674893342,-0.31089069847166023
-1.8080240933467362,-0.09419811384571242,-0.1297941699367788,0.03610466225786276,2.2086502590440054,0.39442913301037597
2.233726354386268,1.8919818297657667,0.23551608045741507,-0.137771601529745,4.218802514137465,1.0991725774369823
4.292791444077546,3.075508639106242,0.47638042831082095,-1.4126529414433295,3.095698755453974,0.9767195630389004
-1.0299642121878971,-0.15231249353975618,-0.1454710355091426,-0.09096806539592527,0.9580899852592998,0.43132967163540614
-0.3722684917380779,-0.28811398855916504,-0.1437587750152686,0.9328318564191397,-0.09748491282768934,-1.1395508560150844
1.7267200687001132,0.8765876033772122,-0.09277478879708202,-0.2377318317574302,-2.2939543205699677,-1.4575306844477542
4.420887074827126,3.421465824734269,0.9881568501577146,-0.505707304324603,4.550494684803734,1.9884372168280466
1.0801105304825924,1.0062920848604633,0.09188915316478564,-0.24422499494488156,2.8956381446649146,2.0281197729593976
3.3487816059243816,2.4918090647818376,1.1352036697992969,-0.38791241859895603,1.3568361796392185,1.2649574631001237
2.4796146785722364,2.010174016575705,0.7313986799435546,-0.6104862288523171,3.124555712215148,0.9320964324683999
3.572107977837585,2.4506202818797718,0.7772989880360343,-0.6885726869345355,1.551648374398015,0.8617112951332574
1.5491974568486788,-0.22859924914652285,0.18046931590195564,0.1471979780472847,-0.6996973803281235,-0.6487557234466197
0.32827929628515806,-0.08419326444005326,0.14493381848674539,-0.033731985616090074,0.8757712565391216,1.1565096696152506
5.821187239711496,2.5354853704940923,0.01635019547835346,-0.567221298931504,3.3341362186427728,2.203210239512398
5.487158824439817,3.3001921949638575,0.5065492553642913,-1.3899036239088047,4.133919213149452,1.1230181426385824
3.9881212695051964,2.3854139953208655,1.08146626574104,-0.7904076220126174,2.968212090837245,0.8762997418124236
-0.43433314221844777,1.566029887008558,0.008058946476330677,-0.6553128014922919,1.1791444067492174,0.24352442476300712
-2.653157329151191,0.1901586167971121,-0.37172487589267444,0.04514680312089835,-0.055540375601774494,-0.12322364045346451
0.2960250682279465,0.3839245125735582,0.12565311376389493,0.01712865213780246,0.8489247951993679,-0.29161488595415475
-0.42355447491930104,0.6938550357932263,0.48137275705308574,-0.5161104213291922,0.8338857909460236,-0.30986509963160985
-0.1300971691570663,-0.45564945118385913,0.18829528664683085,-0.5172597426026113,-0.4273358794004257,-1.1897779043411434
-0.3220816857313914,0.8123791162357172,0.42089819986618104,-0.45008426086963443,2.4519904775565022,0.7756900517880027
2.4114102590136066,1.3060451023751138,0.5788607072684755,-1.3027364136442177,2.9707085671423608,0.4994646145912229
2.1017348873150716,2.3588035295987755,0.16049499966275765,-1.0933487111816458,3.1897518394573154,1.64247776495233
2.6850587649626325,2.0833627432075024,0.8764258767931355,-1.0190457033990123,3.6323374667070087,1.310609899865473
1.1463816761738947,1.090999477134635,-0.36468973704291535,-0.657682461659978,0.942388871537415,0.0390478518355549
4.213391377211715,2.736027655621857,0.5868446159065683,-0.4760064294532011,2.6975336544901176,1.242400619590647
3.4067907626579723,3.0562229032127126,0.6855707857724969,-1.1376936783279243,2.4558846962374066,1.691854688751641
2.024436274826225,2.353937304500695,0.6610826064452987,-0.43412114108926675,1.2183966433229352,1.0534601340495116
0.7374946899147787,3.1657949027027312,1.0576219409830074,-1.8740196621493719,4.089017805950989,2.3662876761930627
3.122340201994068,2.362955601579452,0.5573247900513304,-0.7858088440805185,0.8629171264391983,-0.2596870195976303
1.8460097862699136,2.4617394819638605,0.38036203529550294,-0.8230846379258967,0.426457352274354,0.5793324506857266
2.959570802388505,1.3471019200551835,0.34618001926492314,0.20469975105291097,0.22606831345457146,0.04617382613542156
1.6100809243474328,0.0876038481971475,0.12247952327233005,0.4425854603724104,-2.7657553043178638,-1.5466062987826656
4.5074348831338735,3.036272166994899,0.6284684698271669,-1.7458492033474367,2.212540897415531,2.1484780397405956
2.8631199048518536,2.202296790402976,0.730822026316054,-0.6514158236794388,3.8547390722330546,0.8395214960561
-1.23937626438206,-0.4064566943587139,0.13930841833063842,0.41683226363404835,0.8250494149799866,0.0011016344701805876
-1.6714569963504076,-0.6522556584060237,-0.06613555800923969,0.13642730604447853,-2.2958192859637387,-0.24303852117794733
-0.022124701461001088,-0.8892630177738386,-0.1702179504322118,0.4627527408858552,-2.2935989807920794,-0.6895328745392723
-1.2287121999139352,-0.7073379898985659,-0.1455836084231315,-0.12134411978191999,-1.1683038639293544,-1.561466739662661
5.198246575120053,3.1885470076766493,1.1289209683304613,-1.1702836895806525,2.462798342416086,0.6452758713659194
3.5878919881659876,1.3125728896439441,0.08374509462419791,-0.03451577481611784,-0.09268692343706175,1.0763514301116033
-0.7315633928217097,0.32760982613804335,-0.06470095270567794,0.37810613055002973,0.60525299567884,-0.17169004092742315
-0.43041344669942877,0.6140439041957357,-0.0702134095108653,-0.45846895138704336,1.9801237873622384,-0.08432201388775762
1.4695182430928901,1.1487836071120152,0.4052562490387834,-0.8759710550509808,-0.9652091313930361,-0.33926778642653066
0.01608981095892868,-0.23535185977486472,-0.20256679465891894,-0.1699204183938836,1.754836114837562,0.7686358948507533
-0.8798095113300013,-0.4200668373281623,0.3000775876567424,0.4171283019076412,-0.8505792686670767,0.18870772803816627
-1.17680998041482,0.23697849971342855,-0.20621442951592447,-0.16622780979395993,-0.42239298676419845,0.43475877346314323
1.072742772920531,-0.09858960987825205,0.16454602019779782,-0.385724092305734,1.2847196293308898,0.6569423591430408
-2.785070976472829,-0.975219666929782,-0.2083741508530275,0.22164242071510282,-1.0758690174039156,0.14932567764340995
0.8490754679642508,0.7148781770831949,0.1481001566691716,0.09058253982452136,1.6423766060112048,0.41409009090234017
4.509553005963168,2.898988015715233,0.6375113274834272,-0.9302968616792728,2.667087625896915,1.2090067693134225
0.4379993632028862,0.5806075795206613,0.019532017129772383,0.4171587846399163,0.7854103081205066,-0.057997100092547285
1.4394469621618942,-0.6403215042697922,0.04793839871188783,0.6907069915441985,0.6560128862205176,0.6680290878847438
1.4101259294247135,0.6677581846849683,-0.1377686037441153,-0.38558632292646894,-0.9010010299568253,-0.09977655619825
0.9385599630578298,-0.4664460185545072,-0.21411431357317878,0.16244935198873212,0.29386089648715996,-0.18329435174239034
1.524567617663477,3.369115951849917,0.854371023659402,-0.7401267447158669,6.480042884867863,2.523730160216076
1.5962377793344427,1.1155114731372322,0.9297425220335906,-0.22582420812922857,-1.8641230532087105,-0.6743997415968551
2.818783937253715,3.3128183254254333,1.2245376466239293,-1.2218942782778244,2.12175647835042,0.9785453756706268
-1.90657520619896,-0.5324156518157386,-0.1225608538615445,0.09036556732396736,-0.43015706093294215,0.8668773846401702
2.168296587605559,2.6390886784524397,0.3591198386899477,-0.14482861732687227,-0.4922466687642211,0.5771296632712484
