x1,x2,x3,x4,x5,x6,x7,x8,x9
-3.4842065541589857,-4.8462307419282595,-0.7410612113435247,0.01065028149516345,0.45248565687254216,3.1667333636656885,4.5916464043336385,2.9910937838164973,2.854091840939436
-2.289877435415813,-2.2050946604084016,2.060147976239039,-0.5464196201111866,-0.7821312383209023,1.5360138905362652,0.5739317420880042,3.0997036537682323,1.0412435455221685
-1.2087411614171826,-2.9750087583923857,0.4171769279132023,0.9759954339610419,-0.6872465118868833,1.5757088982644807,1.8986239268550493,2.5236993443255993,0.6522902628971612
-1.5179042912846659,2.299435692024663,3.0786824730447404,2.484536446884494,2.8584442904849174,1.040219783927339,-3.189702559884272,0.525461685489854,2.1135645601251225
-2.339160322138874,-3.6970655347866512,2.7302070459941272,2.429709709107674,0.12747075885491044,-0.15624801331015803,1.1315498725901167,2.889520378443081,1.3629737154424064
-0.7902574720279363,0.941129611578342,0.5230899535883247,0.19825812013872524,1.2317868203088698,1.8515743380831884,-1.1772409321943145,0.14336269852065997,1.9338002560804912
-3.567743279414736,-3.324287387788679,0.476288889218106,-0.019015480482685865,-2.16731878493555,2.16044466939428,1.8376284544009658,2.454180115829683,-0.4273375408485569
-0.12512003317828702,-0.8195723256242757,2.00349227280691,0.7445834931999904,1.8243347407003252,0.706605609880169,-1.5714104168181648,0.8338977097912541,2.8681284958417916
-0.11768103513034572,2.3412216171204587,-1.033334621589176,0.4698844911049178,3.134704039880905,0.9794451618359663,-0.9475232423126914,0.5462977106864599,3.3183524694602893
-4.12207076846853,0.7936040824322107,3.298623545433062,2.6539998069921413,-0.41652931348031275,2.0112580505681525,-0.8505336606682099,3.148401987819814,1.490107046743233
-1.0089053345631265,-2.700620075077579,0.5177831699393938,-0.5389996523701444,0.0876932083247921,0.4578153339784554,2.1835317139556905,2.2496926225953,-0.11410861630659763
-1.276854968754566,-1.4401071000558854,1.5046375723178733,3.055087162180568,0.5813894612261565,1.5090114709240572,-0.5297367452790829,-0.5964586122389299,-0.30238546323318893
-0.0042918315388627,2.0774130246571167,-1.7669107603570038,1.8171286676874985,3.2085477329059438,0.22490017784599314,-2.2904234888716015,-0.5523572030674673,2.041949515810607
-2.9329526709030755,0.024250668331820366,0.5953647914651068,-0.7142581970585704,1.9485110285280807,1.9068627312207127,0.22824285029207442,1.5951637804007608,0.17154840831775253
-1.4244435517140273,-1.4504779529308858,-0.02358393889944102,1.23174421034124,-0.14760434978763481,2.2547047523662385,1.3367189661941576,-0.08452533045134192,0.7016284449832606
-0.07490293024713693,-1.881453016148151,-0.049071407340451456,-0.9674171889908779,3.331467177979265,0.4894857985648049,1.4513611465134733,1.3554634820545508,3.0608085356134938
-0.22915873109271212,-2.057812907247161,-0.8708504377880673,0.6521228943603166,-0.7616256124139811,-0.2067483411744233,2.491344957920702,1.4111081589175822,-0.8294386172836873
3.1824890763084914,3.2691772878666545,0.8655946332614349,1.6681615337582034,-0.7643010648176972,-0.6608704555761318,-1.9938557357317723,-0.44716876209783785,-0.7832679841822746
-3.983166968979507,-3.3466211707243887,2.2414269269445453,2.551457272319704,0.39933730856235905,3.34255173321605,1.206836823248874,1.8614011304686247,1.599836161813458
-2.196492156166807,-1.6254038983010313,0.8520265258440735,-0.21150580479393433,-0.3522208032348404,2.3349020114448256,0.5678374076950112,2.3690800097026843,1.1331027045913586
-2.8746489248648865,2.190029804066999,0.31696422400563606,-0.20728382619291463,0.8567331235606288,3.276068368197042,-0.6972477038119811,0.7633333686870445,2.3556389468389614
0.05325462369352568,-1.4202204097971518,1.7334943828823928,2.2653302522173373,1.8891446526066165,1.4363492791803947,1.0749421118631515,0.7709026454510928,3.2970818571129756
0.04299207085373846,-1.0995170991178107,0.849712881237145,1.1741718192887651,0.10002431741730441,-0.607174998170852,-0.35840923036792355,0.14694030651889034,-0.9479562783093181
-0.11486126224251711,-1.5878233480785566,-0.23122794450804063,0.03942599813333847,0.033090104601989745,0.38558019356924667,1.182855744504703,0.6196559289269967,-0.6551978419618982
-3.505959649513842,-1.393787545289501,-0.012399491867647994,1.706557789632582,2.2960059531588213,0.3354813051073382,1.4213023999307735,2.495141368109058,2.3879600978850846
-3.4433062857126027,-1.433712141171954,-1.1615130458069207,-0.9127213939338842,1.9569173256660668,2.741481822936098,1.3655772064007636,1.3683784328636768,2.0277327014371807
0.5221728040244833,-2.638716335734297,-2.950931439167077,-0.7758162729753726,0.6305432916489577,0.31484248115988467,2.3683371847691177,0.253272378905538,0.7298596305039127
-0.12445459261110725,2.3323643621386294,0.6566018354282015,1.6224111552757972,-0.372129915262962,0.7540485803733807,-2.663049741706311,1.3111470074128406,-0.18639693816472747
0.2681394928859425,-1.654975567303165,2.295238113452974,-0.7505226344749836,-0.8850214932941096,0.41279184235832433,0.9190892411155933,2.7546915390467412,0.9368337308604129
-0.9732762666889203,0.008882871711119466,2.8632822000392197,2.8860775886063577,1.500942460610339,-0.38695844477280605,-0.7673233624563297,1.4351013260624765,1.5529730942121258
-0.41804487043012284,0.455064345869796,0.9564004591128668,-0.6427234449109374,3.4993197918848145,0.3209407300309799,0.3451569317813067,0.9318248640918385,3.397532419503105
-2.2957801110399756,0.1072833430320205,1.2732618134492633,1.0814475478855061,1.8700801670823664,1.8753961660255296,-0.3766301104172528,1.907101193631973,2.1373085084183034
-0.1489072752954108,0.6874535760339351,-0.5220428991970326,0.24292406406348954,3.493962777905602,0.6864345996471228,0.3454221070298077,-0.8970082078447857,2.4905063827935296
-1.4590093697726694,-1.5345751979267652,-1.6279803405448243,-0.9931635872400176,1.913232135467609,-0.7294610430646422,1.040723499468236,0.18468114149337111,2.4045747215631827
-0.34756639498251696,1.1257442876813684,1.77517957392875,3.3250367862322143,-1.1418355578941277,-0.5276877906321352,-1.7584166137043016,1.4501009657160253,-0.36252972460683697
-1.9243593342229242,-3.570284715131908,2.2149984112933137,3.425879050494774,-0.41254550361297815,2.717424335791406,1.5022227770515382,3.0257006219071174,0.9370467718289268
0.06412763465307453,-1.7741073121131086,1.1373701294319216,1.765207491073046,-0.13788348161860542,-0.9904027206555162,0.35662984634195494,3.006924343489141,1.6451461311739575
-1.4770800768492203,-1.2448665863359314,0.13041569456411273,0.01560377691121606,0.39183916346676406,2.674811610522764,0.2648880945048338,0.17968243977022302,1.5016911076597923
-2.473573436423944,0.8451914747746562,2.014275272210211,3.447743593430028,-0.9000703202837027,2.2630729509931733,-1.8292327833959992,-0.627465631753729,-0.955187503402271
-2.3924575527589353,-2.034964418609457,-2.0236129455423697,-0.5045909034246094,-1.0457783210215843,2.3203095759814563,2.0849336674019563,0.7020415256307244,-0.7566786898640079
-0.922704914876663,-0.3607300273721571,-0.14613716322260556,3.0845779759206087,-1.4055650210276316,1.9880437490861258,0.09213505546588163,0.20893290518919572,0.39021177555189435
-1.2121308554876613,0.4588497598925324,0.19428405908622337,0.38856654572723714,2.0202119331389543,2.1355081464548813,-0.6344216370292484,-0.46713494369200304,0.5973160088723832
-0.0823424933430495,-1.0092543605618363,0.763278992591363,3.0684994572535764,2.897252756288562,2.2555268758497515,0.4216769112361447,0.03754280614284866,2.06013154641319
-0.5212038587778802,0.8205957961528599,-0.924185177984728,3.256960015935153,1.70137053779169,2.487337494296227,-0.854193029863546,-0.6890947358920388,1.6553922394327554
0.3224929421439326,2.540299501624934,1.5406207273734063,2.737666882786665,1.6913257194447615,-0.3797766844745337,-2.925949997998866,0.7611736699870986,2.378269018500987
-0.493044949649732,-1.560302464941396,-2.5386176171605155,-0.3199437639101933,-1.8281515150947718,0.22702474989648258,3.1894456121194987,-0.3927700260143131,-0.9637260606625232
-0.5050537689382919,1.1729212586648858,1.5290254815494082,2.972074908263373,0.10095934341194218,-0.36121656243668565,-2.2873213661902123,-0.07236347316889336,0.1236201855903516
-2.127478729714807,-0.1438639320290395,-0.5068712751143198,-0.5540197480984349,1.8547238871502394,2.235846538553983,0.019851909893217196,-0.23552156588910367,0.4678455154431278
1.176018942161611,-3.5943096857580796,-0.12681870812173227,1.2980775057642733,0.34415578076135167,-0.8313360558928283,1.2005387601481519,1.214620846550901,-0.1745307857397035
-2.380948924798413,-2.140795347422201,-1.2008733236341484,0.397720307944311,1.9849640485540967,2.4053555493832848,1.6059883809143878,-0.5757197942081351,1.799954071178
-1.251613809467667,-2.1308074662498577,0.593287963234332,1.6226329257855983,2.3914325278042443,-0.01111599335414537,1.1218580861092753,0.49090771837182645,3.2641469546462174
-3.4973350228944025,0.1399902680624282,-1.422311668631781,2.3249519018310156,2.378562036736841,2.4893667403947393,-0.9975818131000072,-0.5225598345679972,3.2456156755053396
-0.17730661065669495,-1.1562995441893078,2.0486638942129525,0.44783067133548293,2.742827648277278,1.0187792414179544,-0.21240262755175138,0.8649411709463093,2.385360129154022
0.9035189815424709,-0.16959327756379713,0.18285640976803863,2.5717046351805544,-1.0911615708304794,-0.2752138895518349,0.00020843025043604246,0.4558979705421877,-0.9960243861908173
-3.035766910744177,-3.125926759167986,0.2076675258495248,0.8717415424922093,-1.8344635027252703,1.967858266611437,1.9804932807233613,1.82497141847539,-0.7071597171467434
2.510656052722916,1.5648988438251699,-0.6885739050355564,1.6866023542802813,-0.8114191369564318,-0.9108444034565906,-1.6071937515105927,-0.2578707842873156,0.5511440740806237
-2.0000307177730137,-1.0874014174742979,-0.24101655023030838,-0.7680743913324656,-1.645036188508616,2.3021364072576582,0.8266135540377934,2.954960308564785,2.569949585456729
-1.5590669170874139,-1.312605752555581,1.2130089481800073,0.05151289390112579,0.37007706679758134,1.7017291134439647,0.8289746559144585,0.9164382620165763,1.9505876566187057
-1.7953695062922443,0.7229419633984786,0.38762260817666405,-0.865534435107419,0.5038601464711763,3.38640653493232,-0.9608604329183492,0.5886963461559642,-0.1747683389199275
-2.070751527938311,-1.4181144885384331,0.11464930047586186,2.823203172463951,1.416647169294894,1.0413349000633967,0.5086688394090161,1.2310212112737213,0.6314261138967163
-2.4878459997496387,-2.5351984066190596,0.3217278131000507,2.1788259626796234,-1.1407848629941129,0.27267988414192734,1.0232715540445627,2.1765246866082975,0.6549115457163954
1.2004754383382217,0.8098986479827868,-1.140111024733891,1.106359719935885,0.43993473134545524,1.5973546882717717,-1.5800574674282486,0.5200927183550654,1.4895034810165715
-3.1755543567179365,-3.087872882380105,-0.607068375316373,0.12620352005059665,-2.063617349278433,3.0445695365031122,1.7472767240492106,3.376971719989209,0.564549615504615
0.0628102452895731,-0.8073340921482163,1.592762749622215,2.0754537549346552,-0.0066700108704060845,0.45259948737754296,0.8690361498067638,1.5314359571940375,0.7363460078131088
-1.8599494051048637,-0.1912340784024751,2.3288887792611583,-0.40472854893803223,0.20724411123472808,-0.6611275653716833,-0.5425141093412732,1.9091932129559912,-0.3523211993680846
0.43643800878708683,-1.2265451067191568,1.52232227525912,0.9316212179518557,-1.6682807052552084,0.9592741153658508,1.6021258581113347,2.106165071596571,-0.6783205113501671
-2.39434639412893,-2.588203243866347,1.6517620627788563,2.673756842289627,-1.4348044469917327,2.3886464949448487,1.079994763867398,1.8893369855564965,-0.9731794910336239
-2.5587811005783556,0.7149740997964933,3.5292414215111707,3.3095010465470267,1.8959271646107716,1.4606064576601505,-2.336720013179942,0.917855916721485,2.587325319592586
-1.9665627094910356,-3.3159778386873238,1.045057672607484,-0.5670363632517957,2.505641393121348,1.5862330803845723,2.8736069509885818,1.5666543575361231,2.785073905976431
-0.5260411245189904,0.8699785256341322,-1.060938441338695,0.8309936707060901,2.364846054638291,0.2572752402207674,-3.011019929281875,-0.7237504731758857,-0.9776269904701632
-0.4802923095499191,-0.3395148870362689,3.649464086962435,3.35572016193429,-0.8761327261453842,0.21882974461890647,-1.522725104424656,0.943503858916521,-0.15902371210706367
-1.0290058773002904,-0.35677594114879096,-1.1851310268497177,-0.5889500555517517,0.22575648761155742,1.7165118916550441,0.9118271372902256,0.20944967517654334,0.4198981687503076
-0.42233471398430944,-2.9774958554606545,2.3777415168848064,2.420780691130775,1.4846335490939822,-0.48948724373779795,1.0867940569602599,1.8393710826923502,3.037826586059439
0.9534979916412816,-1.4788946053378376,0.6276446068577306,-0.9847689312462732,1.7948871316789288,0.5971680464594107,0.9988017411577506,0.6798634183055616,1.08314895402996
-1.404000658187749,-0.5248451943201836,1.767274110209188,-0.07337862963131536,0.3849589978705218,2.403376084469739,-0.8313468687656895,-0.3444253554192114,1.339074183203341
-2.2455507293608186,-1.3224182070527968,2.6094935123289353,3.419793516359502,-2.1040388346166217,-0.16883704921920506,0.1431526119831974,0.8255861665981903,-0.40400347249987745
-1.5107727359550287,-2.2460132989934007,1.8220108249051865,1.3906180906793852,-0.4838069262642408,1.7893918450885686,0.7411099333138527,2.310087204060372,0.7746613338495603
-0.7287701528952437,-2.6228591393310516,-0.14277668377277852,0.901480752759307,-0.3670465886852287,0.6753637450210679,3.345020140792098,0.8637196583194828,-0.4532580525280895
-2.541307520769764,-1.6196684277021633,1.1930630080195448,1.9410259660220888,0.5587858449574314,0.7674964782862479,1.0031543120501514,2.447898611948474,-0.28392353376438006
-0.6061344322635794,1.5802074422947463,1.970613489005173,2.7993220450395855,2.4699966668683677,1.6549802062609484,-3.494031971128625,-0.09819061012316865,3.1662617658929744
0.14165121686015086,2.7353769216911723,0.11643282122336707,1.1762437883893178,-1.3201528582429098,-0.44216900898569456,-2.0019881936316084,0.34243123902340034,-0.8811794607297636
-0.8613901776872404,-1.5228611719065395,-2.253002902283252,1.0929119585873166,-1.2317972351636923,3.445216860650074,1.6663256124580852,0.976388334822162,-0.4487083912796852
-0.4849061088512359,0.7667586674733132,0.06617262027622223,2.5511761620814184,4.333321609556598,0.5448651120461081,-0.28800458958512437,-0.5957127604227099,2.8829580929908216
0.719202246994811,0.652341468728908,-1.3462294201085472,3.1934248416231785,4.026631289705477,0.2616905428155818,-1.0984546379658875,-0.8626046145253531,2.7703895224936774
-0.9093199111479704,-0.8775453322066946,0.36194845049819385,1.0069789252093546,-3.4238549659281663,-0.08739353056232535,1.399962264928023,2.7318894080265577,-0.9342370042266026
-1.0728648671145955,2.9122371824028996,0.4593480374900468,0.6428539028670359,-0.13326548677137284,1.6543912342749105,-1.8297466528300064,0.05131401309148975,-0.1242873831382939
1.5416385024388557,-1.1917986840216086,-0.1439659323460083,1.912082610240231,0.915220999328864,0.057223466023346825,0.8437751337072852,1.4503312668192456,2.4897871668511034
-3.805982887939213,-4.772991266991754,0.5704481993624677,-0.007466503462402407,0.4624158218542562,0.8452289175518968,3.5709051697834022,2.252984089695521,2.1645672865002723
-0.3348314299063805,-0.9542079372833312,1.435308873321312,-0.6254536362406329,-1.7862276231458707,-0.783976528000103,0.38252834852766043,1.7946699123447303,-0.6310218857126206
-1.6238532031377053,-2.784190548945059,1.559422820535875,0.4669304128354077,0.40157572347431403,3.415804277571942,1.366317342674935,2.32816889675581,1.5392030738275682
-0.537415719984909,-2.0560729735080416,-1.034195056155509,-0.1628192571262076,1.3538106141803068,0.38645749745054947,2.266157631832842,-0.32552149386671503,-0.9437612153464874
-0.6518045930330152,0.04209339342110328,-0.1383531408230238,1.9922765497356174,1.4393972467782112,0.05003333979024949,-1.6250589939213689,-0.843268287877047,3.26354876490874
-1.918593823422664,-1.0658585434201444,-0.2721664167025113,2.3334282267537527,3.443687877662648,3.254564293303371,1.3617160161936532,-0.4154242594461799,3.062588216777084
-2.715229696026527,-2.8339415494991553,0.6345955501227404,-0.9274704005130832,-1.257173306833851,2.6339488882983235,1.9527283955119634,1.7550043945497018,-0.4880299125330446
-0.6525549067330685,0.5128783270216662,-0.1576689824147693,-0.6129990724791394,3.499493506524096,1.2822594819943371,0.3599308089245701,-0.6798888025674106,2.4902188107213723
-1.0500585929783703,2.364394785432361,1.7191368040762192,-0.510360535605942,-0.09217361477195943,1.0013644053310542,-1.040759683101661,0.27913911968925986,0.39235369220937444
-3.625001652130594,-4.310504105162584,-0.1752119621486656,3.205217671710381,-0.10647220530871926,2.5579137630082136,1.7179547024971067,2.2781591313139677,0.7416628066535016
-2.204154386856742,-2.028315485530297,2.9102393637150237,1.3325996145425498,-1.2202765511120426,2.6287420176251834,-1.427807598410595,1.706167112886889,1.577707036616081
-1.3718622642998117,-2.2696682198377918,2.9504443482290523,2.792029352700675,0.14384841056193554,-0.3484679116949557,0.23875465105540006,3.1789709464565945,1.4482769629802728
-1.9362115420048385,-4.048825460807329,1.8134029355686787,3.0607936521857795,-0.7852521334279323,1.1680198824268393,1.536980235889373,2.631145955020531,0.1121811858458499
-1.582440401679949,-0.6570769445207859,-0.5469648044006232,0.871594876134484,-1.3148894445491626,2.5468139309736313,0.5494141332641728,-0.5400300943386902,0.45106463125158025
-1.8009547735495006,-2.1209616634378534,-0.4560148090600369,1.2307089191015232,2.440613057054685,-0.141156746140501,0.750988206979266,2.1324937334937277,2.4011943931228728
-0.8030735024950674,0.3817658087430316,0.3374392288264816,0.020036130183799905,2.703520387258912,0.7796605216561803,-0.9703361907459285,-0.9842067205043237,2.45662910392414
-1.1191866125441945,-2.4363417515295827,0.012255432438368241,-0.9905189492972362,1.365669395692081,0.026124613493885063,1.962376751625361,3.001737109158178,2.534410847581027
-3.4978000275842165,-1.9833431130457324,0.18603816748178104,-0.3772111871187882,-0.4065044360614898,3.446614499300108,0.9076935458677778,3.342665365307293,0.009502312328958595
-1.6493207061754056,-1.229770333140252,0.6975089261963272,-0.2738696795098846,-1.016311571101327,2.258471519512346,1.0603111969681374,1.3315985162461592,0.7993834387914074
-2.755820687784757,0.4784239240455909,-0.4325358531585479,1.1648940733190463,-0.1324254194006696,2.886969773217238,-0.35715626182790666,1.784736046769766,-0.5297604608975541
-3.0329356427634946,-2.335264045287419,0.6390702793127606,2.4489316299089348,-0.8096204898212447,0.7986235679623088,0.971452147161409,2.7402524747462973,-0.5493405246089973
-2.125427558995452,-1.1890749087582904,2.1656063731324897,1.3841475484670052,1.714918773525402,2.4288839369910087,-0.9756844656419414,2.2544781868250556,3.152294319398141
-1.421424673237003,-2.5806390178802556,-0.8573016982043904,-0.9748735905688224,-2.469801285737476,1.6031755966221253,2.714398177237502,1.8319963666219738,-0.26944713347036175
-2.3746761960903595,0.22021984988158955,1.5253872110746536,-0.5987425006719842,0.14110949844949872,2.3518576580058075,0.2481908634210207,2.1813532101498643,0.7719672019943098
-0.9934565764540761,0.2873008715356202,-0.5385912987265091,-0.9342133955358712,3.3649677170753107,0.2568544635684058,-0.3956408611616694,0.4597285501693573,3.3205751614604715
-1.5766632289185294,-0.9414230026090132,2.869294523369439,0.17771786301820858,0.5562666597075034,0.16097826603757603,-0.2755825402675617,2.7438850159828214,1.9981278099505202
-0.6629718319012664,-1.7882000833367886,1.3031182173675033,0.6357134467873,-2.377854785837968,-0.5450539062560364,0.5228577754426895,1.5946868251498283,-0.7584003946896253
-1.4294819065116622,-5.032553142624381,0.22369509055527415,0.18645778712849626,1.66417343466127,2.031807118464391,1.8806824516733953,1.1231128566043909,2.580569047687739
0.5207896192855141,-1.7742182022167567,0.6553025161988832,0.32392818475422036,0.7406769856529554,-0.013804425962569256,0.5614144801826102,2.9972323995990737,3.2607527037709554
-0.2749301659351182,0.7750699685664866,1.1986106258441616,2.5659162339928208,1.8177880665321218,0.07291678886607178,-2.2113022521796,-0.8122284446315042,1.4209098121107173
-4.884066947388001,0.39758829423283054,2.4564665672088175,1.9717952346655854,-0.8977061799707204,2.920347428679761,-0.6901706522159206,3.0506407841807848,-0.21788589529939006
0.8140128314699683,-1.396381292057194,-1.5445382735606854,0.3516651336109098,0.5552001370365022,-0.18986522518585736,0.08121414046434244,-0.1909752462289459,1.7370368982739124
-0.7246552873139536,-3.3956350369489092,-0.0886978116449526,-0.28948872018029426,-2.345207615925601,-0.5711446507569404,2.491168940043906,2.7528518197971175,-0.6675990794317131
0.7091714013895645,-0.48498742425527325,-0.7019977446575261,3.3961786777662963,0.06094984297167527,-0.2627758602947845,0.6828663597805142,1.453550755301583,0.9827023763034946
-1.2712130620110802,1.6454089179314977,1.9655851063794922,1.3102487190520047,3.4370489240616253,-0.4544176506246135,-1.497084365750075,-0.8287003709202772,1.7356782382873606
-1.2853109238484877,1.296956811092624,-0.23153190859857636,2.099825412206398,2.2824713899073985,2.569717431389876,-0.41584870234904225,-0.5146257553456581,2.609297565042773
-0.6154475040180942,-0.2684121820488386,0.9973740006680218,2.8505693946904285,-0.353673728373754,0.5545214735953488,-1.7408933390580843,0.9177201014377114,1.5424704882843945
0.1501608476766848,-4.123177539008505,0.39206967380231195,2.547798897329611,0.48528848987515194,0.2651728504859745,1.8456544189656205,2.9478289846327996,2.380451278890172
-2.68060984349406,-1.8541505941463086,0.4840570437022104,1.6815942584022396,2.6429638932306476,1.8156859071786213,0.46630881596389967,2.0949415756460934,3.409783315303353
-3.2490286903831134,-4.681743229718591,0.3079221562701285,-0.29648244615049413,0.6445449133893659,1.5015223775835285,3.51651220647784,2.5168585625835234,1.875423959404619
-0.9040187053228048,-1.242506937034183,2.1906198604734004,0.11854293022245188,-1.9845626692264473,-0.7820025882999658,2.0301945477060523,2.981454269967635,0.35362179731428633
-0.6561723085923564,-0.5880091109796394,4.066543222153384,-0.66277126161201,-0.9341675760700868,-0.5401864583840089,0.7621208767042486,2.877052044147584,1.851745934959086
-0.33705132996850296,3.3027016161372176,-1.4443734998355828,1.3184573243297928,1.7630331924180582,2.4251686237743497,-2.479331284535387,-0.36320782858811884,0.8880582170822928
-3.611867909256759,-1.8100087158655964,0.0016751251538771328,1.7674185114255478,-0.6085874346345768,2.348312128693418,1.7223907868150412,3.235649381912723,1.250278861035036
-1.3121807328424089,-1.2750126683834235,-1.0383058001589016,3.1370145241111693,1.688123907140557,2.1046879980570883,-0.06634197117260732,-0.2929811395152311,0.36144761672643044
-0.38732406393840413,-0.6263237273362898,1.465741106556892,3.2310340069501517,1.1282722915963512,2.3313211032066996,-0.6731686857405002,0.21932649342851018,0.2135570221655605
-0.5581569981518713,1.9193429709707204,2.1103539741042208,0.9936282099759062,-2.6077972575851724,0.8644928037353043,-1.209214071825367,-0.23644099793911433,-0.6511823434423771
-1.6890793301704679,-3.0051714361362025,0.40810635059946904,3.277476044836555,-3.255582079052362,0.8525267525323699,1.7603006749665124,2.906155144085609,-0.6273757180609261
-0.9282745326705883,-0.8009580445150845,-1.8379737669130967,1.7862031509968261,1.9257208036127635,0.06139010092109509,1.0347413187340122,-0.6892403997952667,1.9141150812218655
-1.4402340369400226,-0.8114277810318101,1.888656410792668,-0.642689364402785,1.0219302708642464,0.5154383577703052,-0.2791298951428394,-0.3132318792263401,2.709431558537929
0.17157490117540453,0.5839042834864115,0.9967709736217627,-0.80441818030542,1.0248282159353317,-0.29458370885204976,-0.9543969763898519,1.2276613648181707,-0.1649745918636829
-0.26516467736486393,-0.20355980168922735,-1.5402114096850446,2.4713114985415015,0.525815245216784,2.9892982601842326,-0.16222928397487746,0.5437077466561264,1.57338031717443
-2.7467951503062773,-3.760403756331336,-0.8092486460359477,2.664348627437152,1.4267791467918083,1.5850551828324178,2.6965446610072026,1.3925690830698154,1.0410314775576621
-2.0279743942646378,-0.6239782285796639,0.9868574005842715,2.322125921267171,2.805196213273916,2.763895220760091,0.07752814988659706,1.7835031109676622,2.3071973542839577
0.4791181850888926,-1.7464322307069453,-1.504346176499388,0.8548344973943398,0.8971855682910839,-0.5548348671933918,1.1773986318047416,2.4713066207693997,1.694074957124724
-0.4456499735411772,-1.9645436315220404,0.686262311676819,2.7397974737638457,2.5121028306073057,1.5237200673065665,0.540188246502634,1.9183861593072846,3.406064031240195
-2.342668685296894,-1.5848009876646059,-2.0072388452552765,1.9559545997058279,2.14190739896925,2.7882627383573904,0.9122027124508187,0.02964368282967378,2.8077670682228395
-2.325851465275745,-4.671363358834698,-0.021062205675705603,1.3376803066296015,-0.17499427558579206,2.5906003927674033,2.4037239922904163,2.2407257918670727,2.0819611259945634
-1.0575843154374327,0.041430833730815235,1.350277634582987,2.3725608576512722,0.8091422189098578,0.36525575406125865,-1.0086616975698577,1.1824364938453042,0.27635253104944923
-0.9493418258445986,1.489080732640453,1.8240268638068577,2.027309810347846,1.0004785484142165,0.5629300756966751,-2.678547308061214,-0.00831647148697301,1.1684095099461005
0.4710544569625672,-0.7264839211332088,-0.397506874068842,2.5941407746651253,-0.3035111747133008,0.3613611906610832,0.2360997744172768,1.1696223551085372,1.1860032588157967
-1.208813134392077,-1.1857045757780176,0.7337349678901627,1.2212943180335678,2.2299674381607444,3.3646740747360715,1.4827456949666373,2.8053383053281222,2.5511485711685564
-2.6765727813047886,0.019543779570609755,1.671870247431753,0.758490166355084,-0.6610039058602157,3.13963465860357,-0.472860759077198,0.2988150405916785,0.27419007205671764
-0.14826766293157476,-0.32829804782956057,-1.2508637970662335,2.4452293788538215,-0.03662699799205604,0.1714547673420448,0.5274124572729233,0.9928476008597205,0.8110041743806513
-1.37964565707233,-4.281042973227288,-0.19735388562312667,-0.8334640078990975,2.4993933861377458,1.8937847111494408,3.2555854485251983,3.1264738077846363,3.037731586737837
-0.5032871800941771,-0.19615280272527139,0.41417748727495807,0.7318852073347213,-1.1526866335952437,1.302543506283227,0.7739719797493843,1.242392817674423,0.4344564596134819
-2.3647485345297814,-4.175914568821345,3.242498049606702,3.4049958611346725,-3.532763632424188,0.08047507978686164,0.8674841743154613,3.0518060600932957,-0.8048031362508845
-2.5039943656412524,-2.001181697743711,-1.335422447977438,0.33701788842337255,-1.7559478015047623,3.2721071573612086,0.8260128723239581,0.8836390809813128,-0.03164110344304394
-1.351423968253216,-2.6876310923084836,-1.3849526634569214,0.8294614415141,1.6980855736628095,0.5424951086656429,2.1134439664408524,1.398786888927853,1.804184154744223
-1.9893601237921992,0.057245321542047686,3.033975786491055,3.409353810128504,0.7442779553285812,2.055163252263878,-1.398490243866735,1.7610521612601095,1.4598145130640439
-0.361506541299486,-1.4858228879709237,2.0891465523474957,1.4368810044559526,0.753335631095529,-0.7093876241584836,0.017170618535841453,2.161682877320784,2.3339916346663183
0.2795353847126008,-0.4724887123970457,1.4353537733812205,2.34431413912405,0.968962957241053,-0.6682580595272676,-1.50048728095368,1.0710682754946848,2.13717476731356
-1.5981657268995564,-1.343553452757714,1.1358645349699152,0.46693356184357215,-1.8209361718766877,2.957357328948621,0.5515115514911316,2.687488821276338,0.05838854826708495
-1.0599065532655456,-2.4638632367577284,1.196321404209695,3.2128299972870487,-0.6138372234865326,-0.5812327918768059,2.1315575724997537,3.1082195716746357,1.0695358068033483
-0.10345724320881322,-2.047090195332402,1.0324366069378779,-0.21105026773135382,1.0645987388860179,-0.3830944715066388,1.6855845265691407,2.2627079529500596,3.094995227098665
-1.5462964976351654,-0.3873110216685233,-0.5530431195441826,2.36694024896736,-0.5925133626075431,3.3958203153481685,-0.9701706062091967,1.187851736854458,0.0766543820400416
-4.093779188648683,0.9427313563292748,0.617339427830937,-0.05987357476340782,0.011704494834122059,3.4467588852980713,-0.1718061920799167,2.7385197282526272,0.912948164249366
0.16905960644691242,-0.3166467354850396,2.4239937403196143,2.233830685964573,0.43013736235279965,-0.841856073584829,-0.42721477462495044,1.513457974192085,0.7415074778410284
0.670587677329369,-1.084842766923891,1.8735371221783734,2.6251804782139314,2.4337369771639126,-0.9390241658923936,-1.2223206900536292,1.4319388211316904,3.3343743738280667
0.49330760896400105,2.0112688539800363,0.6820826022240462,1.2811424539499958,2.707414150860295,-0.7985535678932988,-2.2039155124929435,0.010739953096713162,3.0386105923113513
-1.6444947262297722,-2.602823013778747,1.0806228133563636,2.0223933152519566,-0.058493676829135755,3.025535002636265,1.631068465787341,3.126696415197097,2.309116326421412
-2.3458601521813134,-3.303185624713159,1.037912849436792,2.4998322231136774,-0.8079882103852412,1.2750499140157316,1.76835160579609,3.018578851847816,1.301232776137756
-0.724803607498295,2.1549992109426643,-1.5457275109247408,2.389079947570639,-0.6087334042167623,1.0939974511093467,-0.853442829831953,0.08126796262855418,-0.8511052755217913
-2.5992821042053147,-2.1806085096997894,0.03761095337711312,2.318388527522135,1.9135778991089256,2.0989624027323255,0.5633229427788647,1.2585099166960858,1.0937995787716912
0.0575069129140513,-2.517966561986996,0.307185287477294,-0.7715743281387136,-0.7754060749682745,-0.5178028846489771,2.610651433184847,1.6590608072551851,-0.31932690993788304
-1.528675888763259,-0.7367557249144527,-1.3135484405262974,2.1042253289250685,0.5270451693076057,3.260696266395005,-0.6175545805170517,-0.6721331213681403,-0.899205960448894
-2.8189877291692964,-1.9425892150674269,1.3757139860091658,-0.2945510771866984,3.2166418134644785,3.2526468108836113,1.4152219302888671,2.508807081845118,2.9343562190752777
-2.9090052083459033,-3.3211148314140306,0.7935319716292482,2.048183843167716,-1.1378325426875602,2.7213315995527085,1.352051871646598,2.6180359812247884,-0.9573401170161067
-1.9770027176474556,-1.4179531390651274,0.3083463571522993,0.9454828637179715,2.7254462110605844,1.6361398562163365,0.4645061926571587,1.9449068582157918,3.0816167652611854
-1.8703471041117419,1.2277821052999982,0.6243364754476114,0.25985226482677626,2.2701131116142994,2.3241592744807673,-1.3598099088076954,0.597382611459057,3.152295930138309
-1.3768615125005783,-2.5153471808820296,-1.2328382157241782,2.9244035748725783,1.6645278627269864,2.5426931594204447,1.7351990977033354,-0.06795135843999855,2.18281419299084
-0.9973991864251234,-3.6555298366362585,0.3879122611272111,2.2407368236572776,0.7123353258017294,-0.6914012608911326,2.271152507337894,1.4856347351909633,2.9261142188800457
-2.1672501418390104,2.881640043888728,-1.8494449174952305,2.2784391236426607,3.1790159839458476,2.928009824311872,-1.2687488127541355,-0.017235625499231633,2.241497308920238
-1.3257823476148018,-2.6624612547725155,1.3253548919445866,2.5846089449614813,-2.240127557079024,0.7236977807899156,0.06821469392075552,1.6310478721341641,-0.6221025407458913
-0.6334770551422941,-1.3711662409824397,0.5820514987605195,1.1172874452356392,0.41789507020959005,0.9443784554138677,0.19907139096375015,2.9811620640904812,1.7585767954802551
-1.5786798087734504,2.2148086313062216,0.5942295675184708,2.339034041398899,1.37566768502359,2.009777540200662,-2.20417626199779,-0.11217636713099,1.5878412167169818
-1.3819740390215784,-2.0455339620641255,-0.5009825345543784,1.1334520705477682,1.0131363868322778,2.365673644521147,0.5462827535299598,0.34912423413656524,-0.026594432882285135
1.9392023993981438,0.8901144107250929,-0.8319248676187423,-0.2813092690000568,3.149475385535253,-0.8288742722298781,0.6616900762405387,-0.14895751240597987,2.3930184415009736
-0.24109419386410502,-0.04408882527838812,-0.845264864857096,-0.1710051997294968,3.2817567995719026,1.4466730261113496,-1.1794770825647016,-0.9327149976352964,2.985766678209388
-1.6429479085967698,-0.4751938838841296,0.12487390739450532,2.1011647193469427,3.0334468180070333,0.2343009306373005,1.5983764568765462,1.6308740896093155,3.2634885587754727
0.27908347412457224,0.2688689526690064,-1.0195493454283187,1.3369027528366564,0.04836569935828508,2.374526891423287,-1.2444669317952963,-0.6429521819651145,0.7164012259937869
-2.0139783634205037,-2.710292462684324,-1.84239919322837,3.4591885971954337,0.12880346750703398,2.4932307076725273,2.5529662799582247,0.9486856507384618,1.6344465347908192
1.3932846855121723,1.2351906861291038,0.551141514999908,0.5346250916133142,1.5061080258945858,0.36355797811671975,-1.9542667916307488,-0.576433323257785,1.1811844812869854
-0.8844336575512414,-1.9774230774230477,1.6927198995385047,2.1205440856159092,-0.4021614300915193,2.049914866353742,0.8442485316603541,1.7838019506316667,-0.6033326529269603
-2.857910281038767,0.22122357984566057,1.1796837248082412,0.12152874227827337,0.8360343558406221,2.5932569678901105,-0.22177274249558637,-0.0693936034387801,1.972421570246337
-3.4884068751548725,-3.5771996894283022,1.1426099507514538,3.315616691145281,3.3853216862059448,3.2689007194397863,1.8669166285380274,2.584088062858906,2.557680910570804
-2.7655309707285385,-3.85957978430113,-0.3218803185136616,2.9746116104553764,0.5908063971287707,3.044048994949563,3.300648117656271,0.08588127055437123,0.32555638668718734
-2.3749819461525097,-3.216605653438602,1.7024037301512198,-0.26048887621466355,-0.07516018115425603,2.5262304734464,2.086329532174795,1.9138011733589573,2.001261620908332
-2.3809181446572945,-3.1688786514226996,1.285752428571445,1.6379107620667699,2.561275858066623,1.4758040449534975,2.2365334187837513,1.71428274868915,3.385452106469903
0.014131228967265264,-2.795005151479523,-0.1269162272832479,0.524864080013312,1.6382842144912582,-0.9855171281288571,3.069447112236772,2.574941285268442,2.1459824814654684
-1.091103994797647,-1.4178372479118766,1.584014345582982,1.0564592030262623,1.162169912712721,0.6036001769769683,0.6196309252995577,1.5119033954555308,0.173842922067865
-0.4675226596698322,-2.7470232126726764,0.8195773968891038,1.5579290227739748,-1.4834549046048178,-0.5046780757127827,2.8028248149198793,2.2829333452252496,0.357602741070856
0.36212064319550213,-3.225806252591074,0.6768912200557815,-0.8854600524885365,-0.6406484570598545,0.03183211161539745,0.7976393687746367,2.667040180585837,0.48657831400613016
1.1611626877508026,-1.8379077622280624,-0.29788016591298455,0.4111238478293293,-0.6083173697231137,-0.5989668891441036,0.2894020692393107,1.5678145966182813,-0.047110179412176434
0.06322047744319789,1.486297597896982,0.9480206523514876,3.3226738217397003,1.9194026838647813,0.5846824261533776,-2.7371013920463847,-0.9368897420391727,2.750249013704772
-1.138715544412501,0.8525878965507218,1.2055991449339145,0.9556876098320706,2.510405949542891,0.7496529259873013,0.39898903500234634,-0.34074055486661137,3.1537221284083676
-1.0730431277463106,-3.854152027508433,0.6271297726095686,1.992727304721868,-0.9625530657025132,0.7205967863903275,1.9568516192445247,1.645575610357393,0.06832359221533446
-2.5337409395050683,-0.1786777920120083,2.22494174139356,1.3988155428375166,0.7733478956119548,2.761340816146186,-1.3505506817228312,-0.2525813169057791,0.9192762757883899
-0.740813451495633,-2.1288026491195478,-1.060127919330112,0.7708370112518332,0.6046539721757985,3.171189081122539,1.2401116033757638,-0.03796890008490961,2.417409360938781
-2.4602113374202355,-2.314916325171885,0.6876489331265576,0.025668254624996667,1.683966861329107,1.965508698072992,0.30596675899026265,1.2463059035485093,0.45857602264778863
-3.1982547570388453,-3.88819725404592,0.6780146406266044,2.133944943640156,0.8638954435525242,2.716628126363111,1.876744063458248,1.901820208978219,0.6466834866245672
-1.398850793016094,-0.8788434211803037,1.7579758533891345,0.7807650965785944,-0.9922338073227706,-0.5187621271190446,0.18386962990974365,2.1447063655317886,-0.5385324351782659
-3.3206331037163226,-2.461312835767342,2.716408234084386,-0.84491581440746,0.2339405345694754,2.426685629603254,1.6124562202085881,1.321735339228789,2.0521093398153156
-2.024421709975262,-0.6221186730493358,-2.6725309853578816,0.18438868441127454,-1.7867774417579658,3.4269566199936756,0.23451297572424307,-0.3651973274511984,-0.47890474688679885
-3.9112544140929035,-0.8950513216541582,0.7350647953401983,1.8341230134378552,2.4048685583243152,1.6808469839518616,0.2171035590072573,0.5751071761930779,2.8354337241303305
-1.3932015826714153,0.07100685355023943,-0.6562514592856262,0.5453986736335419,-0.8392441339357728,0.9946928181663368,0.3960774272701578,0.6702569820430979,0.1430727491175352
-2.8204690978650917,-0.6840250387559396,0.2071443231632663,1.2354775358241041,1.495292097224107,3.057749187095796,-1.0538601807529686,-0.4784469144198381,-0.5843379437669205
-1.9295162847208318,-3.175308453364913,0.7783152663294273,-0.3113403801085337,-2.4833188039008682,0.4483654033604165,1.8453577748558092,3.4095727910031313,-0.5275744613678508
-0.272516384797615,1.8718710997905272,1.8770260690130967,3.414640832813337,-0.20214308582627438,1.4607900158569347,-1.6534653649436373,2.1158103851104246,2.582877210294851
-0.5081437729284899,-1.6065608724086518,-1.9434807673864734,1.9449198623619268,0.796828853382552,1.673442103310053,1.4321410547725666,0.5081093910317815,0.8549689826599018
-3.040590553565063,-0.27532814592513166,0.948922258295481,0.6306479854809508,2.92310063034171,3.276379925049551,0.37151748088818365,1.440934805062347,2.3605662040602344
-2.3307694292676127,0.41697597763897665,3.494135196283147,2.676757193429651,0.4106535653853547,0.9272385447434104,-2.2230324888144635,2.0049428465556156,0.038781149083859434
-0.5877633889753896,3.1857372674736526,1.875464559035679,-0.48821607632832764,0.812054499365006,0.8996737334367229,-1.6347539319146387,-0.9378871920647908,-0.02513613739411691
-1.0869940892429613,-2.499114794916575,-0.7425075329670416,1.689626998747722,-1.8651675396796403,0.8874264533260288,2.5281846705889244,1.3927269213799005,-0.2506764980990013
-0.3794281342384427,-2.824898040540317,-0.11267875230900185,-0.8392365693367712,-0.04038368313394986,-0.12728601095956504,2.5960498476651326,2.8617517628518674,-0.6510531205676986
-1.3990215686812377,-1.9133284915882696,2.506141086854944,2.848097476529284,-1.6123538848201775,2.949264830287411,0.3443295102647388,3.289818858342553,-0.15989757303308272
-1.7175093623053144,-2.197443005194621,-0.5586499672823144,-0.39557586610121254,0.47736161226901275,0.35951562412303284,1.9535877789712002,1.8902680029490306,2.8276146770923356
0.44219087871269436,0.14736108077330376,1.175331888575712,1.8871833306196169,4.205026422298901,0.42997183350442736,-0.46221099627409845,0.6247387118381302,3.222247615952174
-3.562152107037279,-1.8660334194966106,-0.7646730385127734,2.368273653798111,0.56682286867631,2.805589638142337,1.446741785791545,1.0676953440015446,2.9340566420984584
-1.5122036825918088,-0.00419359226724371,2.337984614394482,0.5457687143386998,1.0679501713337052,-0.3646167136699118,0.49749354990430644,2.4964589578531835,2.232800338088315
-3.533358140180084,-1.646081595754543,1.1103277048479674,2.3087332330177963,-3.4359072737545873,3.3144665043309303,0.1785566430406066,1.8834836093877745,-0.8135415500644505
-2.891061100687918,-4.057277014052048,1.8233474895349397,3.050029991286274,1.5182662084985783,1.1959217201644008,1.5737804879171793,3.379909169426379,2.8966581435790766
-2.0893917215168907,-3.375091951332874,2.3969717698431463,3.377304998270202,1.4743819161499778,-0.03947350403516292,1.6535248672181764,2.4942677979681878,2.3630235470979075
-0.07249874992622835,-0.2957625046004075,2.4144582407889446,-0.7423789296654466,0.11863307550347257,-0.7436945730544062,-0.9109346705628033,2.9842563954852315,2.820114619480703
-1.3839445732111024,0.9572102933373289,-0.5948964925959104,1.8826085877071699,1.128006842547789,1.033441510267322,-0.3310942304550952,0.47599666128247176,1.1551645286899817
-1.4648437313676548,0.676939169968149,0.13850464460771894,-0.7163954216237243,0.8134977721328912,0.46650604649699234,0.23654689563725007,0.9663963685235637,1.2375947593183163
-3.167343320893393,-1.8070946826956744,-1.0509069788195378,0.07798341719542212,0.19529704549478283,1.6480082311243271,1.369845586158307,1.733858894092251,0.9576125786707796
-0.4517694798688887,-1.2457601418348492,2.64850747506613,2.255147134776416,-0.8413955564668598,-0.7602502680952025,0.5599772714868533,3.198093820789455,0.7711491976883504
-2.8102257953423058,0.816271457893889,0.8014706676152088,0.0467813199014393,0.7143488038582433,1.8419413691247843,-0.131864346184242,2.3973756316840547,1.9479793677031396
-3.0966579509974146,-2.8873722382481266,1.4038344397793698,3.379485055176385,2.4551215011164866,1.671070411554521,0.5347591970857012,2.0934511028238756,2.540686475945375
-3.212847445917253,-5.219439083250249,1.1702804151776975,2.2502993294563134,0.8442033605851818,1.4773610034073479,3.4509599907713957,1.8195284654814876,0.7530421445007269
-1.668728766586024,-0.10726923464672294,2.4513596234794957,2.6434191034358796,2.2923378011705933,2.640490342821829,-1.8715303354927997,0.5534637454685489,3.3427045455533815
1.2320491300656085,0.7473451648246399,-1.0447947796036312,0.3022407142296164,-2.3604419429630368,-0.6580770396418785,-0.16747336161028203,-0.29533513773773423,-0.5554588194598089
-2.982960183849436,-4.360151787478141,3.1218987590523475,2.7020164374142186,-2.7931801660395283,1.674952887250583,2.8530081400670992,3.0595188364312706,0.5731761722741815
-1.2451592275961323,2.173359052673694,-1.494956634880575,-0.5831950386735587,3.1965379820199202,1.8292110758542615,-2.0318480302995288,-0.6452979210241666,3.270407190279088
-0.6963520358283554,0.0086287218237371,2.3129231903605403,3.3344022066199095,-0.6170145480367352,0.06578436486174377,-0.7719435786355875,2.429381191154277,-0.4999022706598103
-2.8822094204270257,0.14853211229493224,1.771432408165363,-0.5296259064875517,2.5395528674411594,3.215110636987138,0.5160370200803299,3.281942373055224,2.9268391182957045
-0.5314323341513835,-1.4523667138311092,-1.3645310296153101,0.13560930322807874,0.41614184491464956,1.5044129758754488,1.0570280946055686,0.9276751491640904,0.8178555068528668
-2.128030648042293,-2.5702608250091337,1.2332114068082425,0.8466915763432608,-2.3290570555929877,1.2093440995484537,1.0873281448198315,3.3592634128119876,-0.779761268127846
-2.462984201072496,-3.2990483211848747,0.6364294411597042,2.9954652082215656,-0.5437558832943423,1.8263433742127706,2.8640488583147805,2.9489274896586233,0.7207970600274207
-0.824300218740256,-1.576809205158847,0.7577995741710593,2.8339745262662746,-2.140048265049742,0.6733927042774304,-0.2895978445273025,1.3496959538072266,-0.8444325209870268
-2.471144158373491,-1.4389833201810898,0.25663559253383084,2.5007739490561898,0.6364119120381058,3.1487631785033585,1.2841327355671541,2.9641787629578267,1.526899479887883
-0.5492287017775893,-2.9936821351281355,0.2737835023737816,2.7751103795418235,-1.5236366235875614,1.5947520248264384,0.6350997077988234,2.6039749300439214,-0.9606094934464626
-1.3651544521710688,-1.3030242226055655,-0.23293571583893047,0.009576679938729349,2.2460601903768764,2.651579871641835,-0.5047034242364259,-0.5955172632096172,2.6164888445838095
-1.9737257521567515,-1.693964590882352,1.4532925354126667,2.398628189374034,0.2521840651869252,2.3956530910922194,-0.6916627450215396,0.48458165103936324,-0.9553527166762935
-2.8313036295252836,-0.2593451060668409,3.18342442680701,2.1972832051659306,-0.2065513674406836,2.397492918063063,-1.1235235030899364,2.4611108708566927,-0.17588972270964875
0.701551478358587,-0.26889627132026994,-0.3205541069249962,-0.22453714151008208,1.8736427922628849,-0.3709258056109902,0.6863208054767226,0.15011171516428767,3.3286977332224312
-1.2956171234787417,-2.082930992033066,-0.49129649664463015,2.0327362217244955,1.64971123951904,1.7911301513965419,1.3870161019841651,0.7455102474793205,1.5830220977598772
1.2695409484813092,0.8328141213153419,0.46263529921390995,0.7269806689176816,3.5602619487405907,0.057525970798831594,-0.3156388802602521,0.9495223205661796,2.180453674101253
-1.9048047927333502,-1.6253508248186885,-0.5788670897784653,2.5672831108802696,0.4090714201554059,0.30719111718211844,0.8727016608760644,2.4369244572643147,0.014601399268743487
-1.3407955277907986,3.020929292678892,0.9924670125535482,0.32953679472179975,0.016676263931335825,1.90110810085846,-2.1500393590159814,-0.7318686573973323,0.4919467615287625
-1.2754268328256566,-1.255989346329675,3.001844391224619,3.194935324659734,-0.1318745085353037,0.47764121702221574,-0.6048043517144734,3.3473736429365717,1.6584507653626117
-1.328127425599818,-2.833513253044917,0.3139459051977152,-0.18320256139473567,0.8804256827933765,1.9727980797725984,2.571331167826534,2.2442553962269667,2.6197431228999726
-0.39638093243671135,-0.20342114571182815,0.7270641379816536,1.4025158904674186,2.682219948007864,0.6799342723859585,0.15917978951076592,-0.5650806586897318,1.7148310006049075
-0.8653911804502838,-1.3156749621892216,2.158238079353113,0.6483016217306137,-0.29435748093515923,1.037124741585147,-1.1578838436345953,2.640526330552356,1.402588424394668
2.282826759941508,2.242830644262133,-1.4244178900034878,-0.04427765689232355,2.3178660514889713,0.37333803908987506,-0.08546631526267667,-0.911360343041872,0.4571974575282187
0.5278196776173676,2.9237410893497504,1.3976704086002556,0.21806783635086258,1.035819304810573,0.1552554438030913,-2.2766683890309354,-0.7091153001492727,0.4750763286467672
-0.8192595772539956,-2.6834428843487244,0.8317644105464639,2.8803238950510632,-0.15440288303213484,0.13257278803355876,0.7377204723230961,2.1713762982505904,-0.23046542111969348
-1.1962267574803374,1.8266701055229002,2.015648269686846,0.06229297203931061,1.3980020722296083,1.3099769170691538,-0.7354980475434234,0.14814131129060204,1.8608964162453878
-0.8626760697152339,-1.7032281080126905,2.2948401590588974,0.3516047470725623,1.5745126703951717,0.7318621680654345,1.5234280446423965,2.3986852284582474,1.876122489619838
-2.5027511748128517,-2.8255035192372504,0.22611611857884695,-0.8727752736386514,0.7685380545669105,2.999761920090434,1.3200373250835233,2.1862306221455747,1.9770399108962229
1.453188537023311,3.3430277556709416,-0.7774729125741139,1.9035292779809794,1.0383865773636538,-0.010306012485832072,-2.3925371349982036,-0.5457758709152798,0.5614065540936211
1.2253045909309819,0.7612220742512362,-1.281017828798091,-0.9342557688688061,1.5791072449658399,-0.9525909116788874,-0.8374799404768187,-0.9837588247110048,0.173687283334498
-0.4714827375398539,-1.6174485533407166,-2.205223554277177,2.624579945765138,1.042270034431445,2.4250541522548366,1.3507201813057716,-0.18000896088919205,1.6435671714593023
1.2595275122841956,3.5684901699960894,0.16897185235752915,2.245527964568466,2.951207439603152,-0.31788754301911637,-3.862463771954599,-0.7410632477253615,2.1963521162772706
1.1216018624552055,0.1520650100057668,-0.9334059431204655,1.692090023967424,1.8264598650103445,-0.7878907838882041,0.46489743223604985,-0.1242159307358961,0.5588075274694284
-3.5031082074520334,-3.3181653517031284,0.5188799385219125,-0.9680766507024333,-0.7209556299389646,2.838085952146447,1.4225258803275223,2.762595061392658,0.37204244445048107
-2.799609732554038,-3.4739004383417877,2.16164461577768,0.45334783701398385,2.349953603849629,1.2033501969712734,3.5680659474326495,2.4480826567669935,3.386384526130308
-0.3194524101945,-1.4411706424747948,1.0474274007302022,-0.038326346076164364,0.14095459490456586,2.605674629579889,1.9404893816844535,2.3789867709017463,1.490254648428122
-1.2036238246693987,-0.7188229535209527,-1.3994567599877477,3.095009769544875,0.8388307950696627,2.0789588810112667,-1.6666781136491133,0.06445836637491942,1.4212586495632955
-1.9159612174477194,2.315049604392942,0.6942456949400365,-0.7819214576435581,-0.5365034848330916,2.959178436864894,-2.180824862232125,0.013961566501955458,-0.7931469534689838
-2.9338154380587076,-2.0884668895105114,0.4942601928414213,1.6967277954601765,-0.14291583455796708,2.330695149848437,2.4496691758915397,2.419076160833385,1.3024927847819026
0.4232851645474628,-3.6502435144726513,-1.086297969124964,0.7463571050672111,0.4947583246328129,-0.8111882011253044,1.9113635416340289,2.8106483849768966,1.0074664174349146
-0.2242651883947142,-1.2854730915083266,0.32438735518861517,0.37555808558731774,-1.4878968751283268,-0.07826542525183999,1.2931685810966211,-0.1808265446758638,-0.3830018666575309
-2.6420497752836005,-3.8993090349592205,0.6840931637891002,2.4067787954957223,-0.16129882167558218,0.2631885189677321,2.987334441038146,2.078107638617388,2.355409086609582
1.4553396056181154,1.3138996209471372,-1.3726987271578177,2.3394291665763514,-2.1382653548750534,0.39419853002869765,-2.3023638409511538,-0.983841919122634,-0.9259315869178637
-2.7580333167310567,-1.3536717889898906,3.0579974854732535,-0.5491601518577985,-2.0579404546166926,0.514326895553102,0.6534835641801502,3.0259596579001276,1.017447373645672
-0.1303342217713478,0.6381706688222216,-0.6422499004167963,-0.20002435957172016,1.2923287544640025,1.6152165862616292,0.637350973064524,0.9218430349583169,1.8244770869628133
-0.7731199230147479,-0.4501299204357635,0.837732796000028,2.4698310601219573,0.8089380394368718,1.0884556924240734,-0.2408028321090997,1.4897489783689344,2.384423915089478
-0.15486511740691966,-0.9516470573968786,0.3918705336116731,0.34676604860931914,3.4427500518028555,0.5316283366209089,-0.3499128067416967,-0.9195666296616216,0.805142534943595
-2.5984391582286297,-4.8392581925101394,-0.6078371654809083,0.9288560836523414,-1.7396816312559589,3.2426318522371345,3.585240750204482,2.4648313909422854,-0.5405914419352147
-2.3738931571849067,-4.589780977953075,3.2691223667485705,2.079404119464787,1.9187999963244755,1.277143684966231,2.5154306093456973,3.408343550724548,2.7671694037064953
-1.2258393460708477,-4.332945248295121,1.836996682681714,2.6162622653688965,-3.9262201725544985,-0.10142718190840605,1.515278106705415,3.4262829876342273,-0.44991953206115287
-1.2521813108283975,-0.7967825309883868,0.634503601301471,2.3976191328058287,0.6651267436626493,1.493470449834597,0.4573677142649242,2.090891527710771,-0.4898616414775263
-2.007027524053925,-0.22830952018882325,-0.38897134827965174,-0.8182238716575015,-0.9364938581057447,2.005448363754302,0.6678887911233042,1.2254415277282238,0.0233287097264121
-3.0691207053066893,-1.7488036622610545,1.0030829716559455,2.970841409891733,1.1441441812109767,3.2945350748937523,-0.9330017957191031,2.0701013978917233,1.3464963693385439
-0.6539885523173611,-2.863862059114483,-1.9918183838267258,0.6949153580674312,0.587220349779744,1.070223623523432,1.615895195261853,1.2001328894223722,-0.07598663915570636
-1.2091357154229156,-3.0661929225595936,-1.2510344306422068,-0.1592330539416147,2.4663209171858558,0.34947803936353905,1.6104433858731353,2.341004590975778,3.325549753969617
0.6691345067058413,-0.4398861276451177,-1.8781878220868953,0.4043422294645487,2.7971416026891314,-0.4869516176024311,0.9885701883089895,-0.9256843737754297,2.989348370468983
0.4423782278216263,1.4374833494310786,0.48674535382203954,2.6014893091911357,2.1932038740867483,0.32233722086656935,-2.276533514741222,-0.2193872456807564,0.03896394317315899
-2.867888467167842,-3.4143145630502696,2.3979344201878026,3.1160077521819076,-2.3555191946462672,-0.5319851414875938,1.0447038674627167,2.9620327378879074,-0.43181780165520156
1.3740939883866028,-1.786243208313725,0.791706016882592,1.4924941807968501,0.6974504396087116,-0.3137153315196628,1.8312452885370707,0.03886886272819834,0.29970438872991045
-1.866882140954919,0.33098473177360627,0.27772676325856954,1.1640407690064727,1.472807474703753,2.083197832825686,-1.2598082616250674,-0.17915521895727737,3.439619258215176
-2.7312849011174265,-2.162092962588303,0.7181294636516654,0.9583522079885674,0.8867782413712666,1.91299970903221,1.442946224395294,1.7617388145002462,0.9164279336418124
-2.946448786046489,-1.4107747660540513,0.7597661389908936,-0.7428439991096039,0.7947469174896206,2.284610099459925,1.730666717897701,1.204320420647135,3.2090986829219164
-0.13563061088318273,4.237999848543152,-0.18044837684384374,0.37498439982007215,0.8405726744969625,1.2060579851514075,-3.476447475326524,-0.9922322272521551,-0.3728643116634729
0.12415110800536017,-0.13159121044407301,0.6782010106224728,0.5211701101359281,2.46318070781522,1.1212591966129688,0.40847708659057136,1.1706754360016731,3.317749602240802
-2.6035041636787297,1.0638229477627108,1.8788422378418306,2.8334927024396426,1.2674888362199432,3.3292066924742754,-1.8907874889355107,0.3608407453262348,0.2796287763978984
-1.7744684794271757,0.06897667053332494,1.816588259511638,0.18058505863633378,0.8950947742031159,1.088589445806397,-0.9568369528250231,1.6715727596943761,1.6268620154624163
-0.9825515535802886,0.7929970680578027,2.6381732632740373,1.7804332406966137,0.5089499901482576,0.5063707508712505,-2.0094277606523288,1.848735769299401,1.752298884068705
-2.668258370255574,-4.075594981643717,0.8048895914165775,1.237461322435788,-0.9001601754307467,2.607390596509625,3.154873249824097,2.4784321299620515,-0.88373137639938
-0.751818125516171,-0.4389332496638468,-1.2956681202208513,1.4064537764814729,-1.074564785466713,1.5060975790322217,0.7793824289691398,-0.2592727370322848,1.3401631478146343
-1.1423495169961675,-1.5629026268208515,-0.1573819612923394,0.11445344754327591,-0.20605862653281304,-0.5197149843857014,1.3427856324974181,1.5478488383152693,0.7334506826627272
-0.7909957286604052,1.327513588471481,-0.17655565038834026,-0.5952895271737835,1.664990817579706,2.5638636851917056,0.545537880569184,-0.4741006698938397,2.1717035080534095
-2.4032824227328544,-5.072506427038685,0.016124756856783995,1.4388887724399022,-0.19621230900443054,-0.28358255674697186,2.3517162928665485,3.235550003146196,2.125993576411155
-1.1106184225663478,-0.2722791777677619,0.5021214992031927,1.8933883828385918,-1.4352267933680558,0.9483347337137642,-0.47442471082336735,-0.18301966371459832,-0.994607294030915
-0.27057272381857655,-1.0107608557127974,1.8414761691354473,-0.39546946744913625,-1.6899933059711607,0.5118075190532467,0.49555862483931296,3.3895262552155767,-0.911031920191623
-1.0578644562830302,-2.0503260791984075,0.0006360686731788912,-0.884398234054353,0.5291269533122661,0.2792567199515801,2.1308882859446,1.895600041285031,1.4198253135671908
-1.3562473626554068,-0.6148468638600751,0.5524290028982306,2.5731332365258024,4.319932966265214,-0.34775579884360386,0.977097120381244,1.439118748760063,3.0552521732463793
-2.1935730798477056,-3.3473298166908685,-1.5546819549169997,0.3536192291044331,-1.3686553173710319,1.255424100637907,2.879195928131425,1.992878359982789,-0.6095972552940817
-1.7778960702085285,-1.9824849315625075,2.0951569866778,2.939185977050549,-1.3595143107918282,2.514304268114171,-1.3420728504127375,0.8093068427517021,0.1972724105010324
1.3643832123643003,0.2585021417369903,-0.07569117864539571,-0.03457788186611188,2.5250962448674583,-0.3632781310666092,-0.3806229175514762,0.6060693788136202,3.3151286754002722
-0.5386456836817292,-1.497085094252363,-1.4970065757295705,-0.6268487403752061,1.8138933640011585,-0.36320591023061455,1.2855501202940496,0.08509794775511548,2.7895456787158945
-1.663968257820847,2.0328052373226773,0.7859011456372653,0.3520842555425234,-0.09643467869353756,2.3318228288398917,-1.3945153585282657,0.5564270475161166,2.0872188351607175
-0.017293591598057295,-1.702346710748445,-2.625849993284549,1.3728936341290812,1.9906542658942317,-0.11245316248989645,1.7747099554047314,-0.8861035188446202,2.1687181957980384
0.17695740188249132,-0.005285817975958106,0.21352447910334682,-0.9241261893565844,0.9729815437684152,0.8592786145950493,0.18556714868735724,-0.15845295838623175,1.3924016451928916
-1.365652036447402,0.6133767504557192,0.4217427877433805,-0.25647900670244317,-2.0584459141867115,0.7179141794192314,-0.9088796608249398,1.1212024601073876,-0.23086686638725895
0.6475554174430266,-1.666660085454294,1.7976911668395277,-0.8863180206334483,0.3135486574746512,0.048335028828403015,1.5217717650072227,1.4089486338154762,0.9524332936874256
-0.9913992499859643,0.9116312991318307,0.92496472915723,-0.05152514564791699,1.257617103561374,-0.07874116389244534,-0.6215304847245339,2.0399537747868726,1.8731137621642637
-2.0296110913314336,0.8685098490154713,0.5315162384649715,1.9102791202899665,2.3326670695586613,2.5798110518170914,-0.9684148487371979,0.25372227001699454,1.165311415685271
0.0727384759578491,-1.5788983481394672,0.8331748244652432,1.3423334870477919,1.00543526934922,-0.6817621087506807,0.7533793938057414,2.2701535432207565,2.711230552840967
-0.7473543027952243,-0.5826134114411969,-1.150775904824465,0.42555120809812363,-0.5755959368735903,1.180193507716914,0.8836757406336313,1.087476763865503,-0.27820690689388783
0.8724898175017652,-1.6435420577333726,2.902074906152759,2.168692241257547,3.0077257169209988,-0.855076362747264,0.6978911226414967,0.9128610954907355,2.5550616793732717
1.5731300982240595,-0.33383210580079764,-0.4555139663608926,-0.3835323814794669,-0.9169552632524411,1.4409492927418603,0.026553730979320053,0.41389271506774983,0.2641484377895802
-1.6845211119512264,-1.3211432434209156,2.7416052818157737,1.5537799030885888,-1.0003498221212332,1.9318777107238878,-0.304364248015889,2.825326146265783,0.3015525327424444
-3.9477189302259927,-2.173773381430539,2.488515519306607,0.8007730936924622,0.15576121383472663,2.368573974237775,1.67225946307124,2.675846740920732,2.3147415933497544
-0.6381757895706363,-2.993575793666742,-2.259885514665178,-0.4098303710629353,1.3026886255833783,2.6664576515575806,3.227843342590766,-0.06502356723280511,2.27366706799022
-1.5713692679671118,-3.0014685833516177,0.980152146040628,0.9106888746974351,-0.4273386812129334,-0.7523958419769714,2.124199176092959,2.8000636962990835,2.5079900863691376
-2.17619291722158,-2.3107396382292515,1.0383151765825285,-0.5510285052545307,-1.2455540731578136,1.7249746814273275,0.9010574041828315,3.444513783034223,-0.1904903735531882
-0.8827823223741054,-3.289742885465642,1.22631675139204,-0.2898849203551215,0.5143876174453273,-0.006668700077032685,3.2140267016758797,2.452328218799759,1.7020174613625079
-1.7042903573590813,-0.5869961035277628,1.8024227135733546,0.5019006430346706,1.2858974830667598,2.9061679022855746,-0.7405085461773819,1.2523058638786089,2.3481385626595848
1.2145386830724667,-2.4807215587737903,-0.3358868918500966,-0.7561179276341421,2.9299441714209378,-0.6476775501703327,1.4243900230600273,0.2297668196167102,2.7394985403724763
-0.17569040693601834,-2.437966683375859,1.6022577330187087,0.3427088881497964,-0.1794519167319134,-0.1007174204733916,1.063387286530077,0.8924916306290371,0.4812673546940418
0.20207414399049523,0.6741777639487998,0.15990377964425645,0.6487854571519467,-1.229613617686306,-0.5152463426121772,-0.9856952381247288,0.37318812694484116,-0.6352867213150915
-0.2894961213615507,0.10222156235362481,1.2632187832417532,0.5644566195572374,0.70164264141421,1.383537255323927,0.07260659279968218,0.6966758142557476,-0.17857607918374518
-1.4539192317523628,-0.5351493014968335,-0.7344966002190778,3.3409544484783265,3.290556993999148,1.2745974761479202,0.07757793951019776,1.178540009195547,2.8737327620175104
-1.1389633183088934,0.940970986780326,-1.1630992714255801,2.788625334782443,0.4270353067137133,3.1487150447111505,-2.791893353391199,-0.7478990688162068,-0.8890155446066521
-0.9680325636922059,-4.828397018656268,-0.22386848850023022,-0.9122740285091745,-2.9328633797914163,-0.7282960886623818,2.6748044529066015,2.6107103188808196,-0.7956724246765232
-0.7470405553539883,-0.5280707540417556,1.07389130295577,-0.10250263274566307,2.384206375242205,-0.5990006322763683,0.6685102116601157,0.382623164122152,1.3794294786699766
-1.5877564695907065,-0.13963143514157822,1.1982877951986641,0.1593941705762838,0.13592714228313946,2.089990863200584,-0.2856748415632244,0.8364287697026214,0.07056586493435257
-0.0190910987839545,0.46137141307149493,0.14956594005484913,2.864705332482223,4.66654766841433,0.2517866819110468,-1.4109854801774757,0.7903029752549897,3.330679907031393
-0.3324924756652252,2.215672153257214,-0.009206961281983082,-0.27373531750370184,2.249760143184969,1.1545173198597678,-0.861075362597989,-0.03678265080921228,3.223517186285923
-0.30933231373078185,-0.22475002107973516,1.1292975132514043,1.7125903488404193,1.9708811374333852,2.3186471611153974,-0.3588313386919944,0.1603505695827967,2.3231290764204604
-0.5653528002909328,1.4967844633663898,-0.6045575317833131,0.24911724867745866,-0.720794770507963,2.447517777426849,-0.10700792213878568,-0.8285784724150476,-0.47068041360053003
1.2993618713279593,3.243090681258088,0.3180763289639899,1.3592157219636936,1.5377834160845407,-0.8364454943117666,-2.0834709997370955,-0.38776951734987797,3.0622859932903914
-2.6432474906472576,-4.542651962623665,2.669356609230464,2.203481422362639,1.785162990238894,0.6501068925778544,1.3523721683576873,3.2577045938066425,2.876054643237913
-1.064162045215867,-1.0943913790520643,0.9304560751641608,1.8629117200352163,1.7635959150414298,1.7546604377833788,0.07152695197717018,0.34686181003232686,2.3690996236224584
-2.4549734529179403,0.5552660598068199,-0.03397861873514341,3.338186957301862,1.8427272002873765,1.896032420877913,-0.6901110719277062,1.8386309398266607,2.5126877694765577
-0.5695941365549417,-1.2092304405909977,1.4525394179521676,1.0943037008593208,0.8284341330536205,0.1721073990607438,-0.25260932373301526,3.242056000859032,3.4494294180794647
0.07059668145171516,-0.9627216039725691,2.2138333582745084,2.1896709955327402,0.8411389090241734,0.5504024598046471,-0.3831106933433122,1.1331688874931505,-0.41772325385849873
0.4422705343882102,-0.202576730312127,0.9966020730751723,0.27212813241541145,0.6375346510149305,-0.7995956967665276,0.2975557443633839,-0.9929324826541012,1.1469313494749254
-3.090405358446567,-1.8264250296250562,2.1633796985084697,1.1066488499285567,1.5676370465575122,1.4861015224798284,0.76791363979049,-0.22547359740889317,1.15752779991429
2.469360018554188,0.005138406937185135,-0.19620554238939983,1.1533213917943095,2.7742847671551263,-0.9753131831252861,-0.17729546520859057,-0.8501737450012553,1.7657918871694296
-2.0133400580006393,-0.973353154803027,2.3972052307186527,3.209207550919089,-0.7718124268827831,0.7725339954065804,-0.6848809156377359,2.8271185335252635,1.3915511075049416
-0.2829811328865669,-1.878287040796937,0.2557051976026071,0.9571587696190345,-2.6467583322710535,2.543527456766895,-0.24075415059042105,3.0263135088613007,-0.5527612258772501
-0.6185766631265941,-0.6074080841559607,-1.5273254932214908,-0.8194442056534726,0.5885132180385102,1.0275578089647892,0.5552757905249761,-0.21252931986060253,0.7129234782436009
-2.720327036190313,-2.3909345246528453,0.4684994221843085,3.4140186386841744,1.221724936152525,2.3641072273838324,0.7719326198555562,1.9492532098527708,3.289744707537187
-1.8104358260894924,-2.9679473648927113,0.7785955449935995,-0.3087750823116894,-0.8263409306824465,0.7837147682820245,2.0326247212467767,3.3676053220028273,-0.4850425810568646
-2.953424753443364,-1.4424928821238898,1.3990701645556733,3.1005483976887414,2.4371574384369197,2.648359748994888,0.29928639658348644,3.064199372631548,2.929049161344388
0.10645802575352453,0.4912280808361171,-0.02972805797784589,-0.49437630194799465,3.316809845489628,0.3985896536228326,-0.15654012742081264,-0.1395213278532994,2.311601700713656
-2.6979287125409606,0.9041359835807989,0.5644860321828591,-0.2881079176775654,2.0639844084079764,2.9426066670823063,-0.6920251700052061,-0.11045794980110957,3.2066180864709146
-0.8066970079305886,-2.8523030861813634,1.1489413622467788,2.672294541561451,0.846962563494593,-0.8887740168835532,1.3211034781168536,2.026850924900603,1.4712358635763136
-1.9162289176414737,1.9283493447429556,1.7280393379872272,-0.5126757428711212,-0.01801430435612629,3.269537339252217,-3.167643431082669,-0.2649038397377802,-0.9017831317657669
-1.9213452020954624,-4.198433570821249,0.5858411004794538,-0.23247913059391045,-1.8338468816340265,2.8093670400315403,3.262420626435954,3.378449084755103,0.023429850714559386
-1.2681781984418194,-2.6824736301894934,0.7927308450015094,0.1945178915059793,1.093379980324574,1.1921057346374115,1.7910095462817046,2.406789569669319,1.613233622853683
1.1654464847144603,-0.22564211848678087,-3.3272365858439845,-0.7881605317475391,0.7916602587891479,0.8407814811259031,1.8573077975785783,-0.4623421100050279,0.7954736688299426
-1.2700836794481978,3.987123170645611,1.2493780164616854,1.0405165251236728,2.095664506175385,1.6634665457829905,-3.850726711408654,-0.7963791866238108,2.212588515969372
-0.802170391141963,0.5776271679987366,2.1155802856827286,3.249199915916635,1.3600023644404193,-0.1717753840183177,-1.7591929023086408,0.7744917914476126,-0.22844764951678442
-2.1725034438479014,2.1307817777233446,1.5985975387326923,3.1874851204671613,-0.524740171399013,3.3238699866235093,-2.825314795312648,-0.373129897097477,-0.9608049635776325
-0.3298653853193545,-3.036080941466659,1.3493334140139321,-0.0803590861953617,0.43858537484476184,-0.640481330888853,1.9228561726463433,1.8122713417715257,2.1493860142371704
0.5427791435394185,0.6449912420021549,0.4095193184511943,2.951931683350356,1.479582644080845,-0.24107138917780913,-2.6778521973733325,-0.30352067121756965,0.22297889536818305
-1.6933721206123034,-2.6411322265402446,2.1217809777521706,3.0648123790007338,0.6346104858718253,2.1697000158704376,0.32221726209447654,3.364187956134887,2.6406646513757406
-2.2699585633522483,-3.866264287386341,-0.5180259751350349,1.2477157740137814,0.8756710328327377,2.4636472263683427,3.0939768033856985,1.8761403030449082,2.6138398865233157
0.3039347373398834,0.6930235192242649,-1.059184910878036,2.7706818798961317,2.448249639718459,0.19027193795511055,-0.5714000437004267,-0.3028677505760137,2.953009087450189
-1.0506846155093776,-3.838686373527073,-0.16019366603525506,0.9692648170939313,1.2794446208533223,-0.14063867285047849,2.124416302742517,2.512296508287812,1.9381366563532567
1.5479127658978804,0.04054360127127672,0.7549970405254208,1.0090814730358044,-1.0582814839345238,-0.7377008988234862,-0.9517933118625599,3.1843187284995116,1.8773691221087012
-1.705487402435414,-1.7555469604683687,3.123633645475646,0.7903504062797528,0.07624280937924333,0.43484191187640375,0.4404311970353284,1.2406358825803832,1.127020481079533
-1.8941207058647598,-4.539359416190655,0.8415391558845216,2.5810908594215554,0.8572234813494132,1.2902139323101705,1.6576971246898258,0.9434301315755282,2.1245021693532697
-1.2071773765110865,-1.5583370149154967,0.5519382131182484,0.741128612270517,-2.4008438921110993,-0.34479923564798654,0.13260262134181067,2.0188324477716044,-0.39200920257985794
-2.9539102837586357,-2.0782338139130823,0.6616814692881189,1.849681924163507,0.4752775357644583,2.955840083903853,1.4552578264463856,1.1479409908320757,0.47816963678116386
-2.2244710675157364,-2.609723359812388,0.838022916715758,-0.49129917304793114,0.8649866079912123,3.4054714118262917,3.2633801067730697,1.3366510364497821,1.191963004572525
-1.8650666972085415,-4.259460493211152,0.07641642947467742,1.5627425873897018,1.3659507562877116,1.7287532853857965,2.721343474027087,2.4389092931445293,1.850856048245562
-1.1753313713680942,-3.015489568398968,-1.3300774917635363,0.32183093925104633,-1.1127225976853998,1.2219134393339748,2.9574512288804042,1.0281418401451665,0.020882051038801697
-1.4009445034335508,-1.4021626081249043,-0.1116095646539067,-0.04826893420493572,-0.732671574952327,0.7688544176652017,0.647673533185771,1.1309539270061824,0.2575731088033808
0.7842247041198642,3.2761603922836673,2.02318701318769,1.932865451160029,-0.8565278215032095,2.0746207243887187,-4.190893110649014,-0.14228835621653635,-0.7532923022179362
-1.0218816823665748,-2.6586150684207563,-0.14899606713063646,0.8371550126815523,-0.427933285969037,1.1510970960100817,2.5288157217493294,2.5063218059861736,-0.8649559052922313
-4.224242047756755,-6.250397593987487,0.5909070201856559,-0.46004118216299195,-2.0065399693946753,1.9963834735301123,4.136434486088399,3.34639178900803,-0.7721421057330167
-2.110527842317034,-2.5898182196845188,1.2039888209291645,1.9067682546730453,-0.5324918201346229,-0.16756769490307677,1.8058270753695258,2.8858723314604617,2.7391273297327063
-2.4123256299724916,-0.3274796116707204,0.7848057226173997,3.455090434252652,-0.5045641315996955,1.7027959718686545,-1.352520126493777,0.0700413665461157,0.5951833918365064
-3.1349420122385863,-1.5106184121962356,0.7175730473693891,-0.31834105255190204,-0.30992389465537884,3.1479487411337566,0.12272676181022271,3.4076957916358417,0.9099817484589705
-0.4559364595478951,-0.2594930033671645,2.4334465136830876,0.7496116218963025,-1.835640704557803,0.6107943178950994,0.3711448887219883,0.4335427217695169,-0.27470014858032454
-2.3483822580875042,-2.9107603189358064,1.6854116121574723,0.511562529147201,2.548981430647927,2.178216679290883,2.5148322203181652,1.6113798890527193,2.510406445165071
-1.9973796368899936,-0.5595803588884302,-0.003324467979522072,1.729628714502696,2.3571009163612424,2.9699234781031127,-0.026282995885871185,1.220082711507536,1.5635939190808323
-0.11054441011719834,-0.0003645343207792731,0.4760883725704145,3.217520470310557,-1.0202883810379324,0.5149296439364304,-1.6305574956439437,-0.2183389513529922,-0.31549335461276573
-2.992074565677598,-0.6806495637295273,0.7858450584297604,1.1532347983179778,-0.06904062538271416,2.840466452259582,-0.5380978788527748,0.18728370846612852,1.5185371626490363
-2.806619128188524,-1.333321836772655,3.030354176970199,-0.12381004574982224,-2.5239418027598197,2.3952765529398246,-0.34480198774809057,2.336989184792936,-0.7654163448958876
-0.3729478571079736,-2.3877421346599146,1.1394909016485204,-0.7466595008301147,1.1952658809919976,0.5876853574280094,1.2182306415687756,2.3141516855774307,3.400590694006537
-2.066355716954694,-1.0803135266583859,-0.13071473346402507,2.330779016082018,3.320498797999525,2.6882746874209817,-0.7645071635621661,-0.4416434476575595,3.082012501077922
1.0924125774644255,1.5769931007228721,-2.020963950441242,0.46412990163288304,2.618003187708201,0.29488047862333544,-0.045858713370347304,0.5387500234419518,2.273625367194405
-0.7360665912417305,-0.9293060590949301,1.5791660556789204,1.172185999227286,-0.21569975458963497,1.1927225175767098,-0.613235022439949,-0.1348412720442228,-0.776623193804387
-2.9310844824563302,-2.452230139883545,1.5167102724634884,2.830926576968737,0.37223865751374974,1.317855394702601,0.11770153588440069,3.324293589990357,1.7394718100256412
-2.8892522813617667,-2.8782213682197537,3.404730917088341,1.2000562990041295,-1.4384197762227813,2.1860103707744054,1.0684374611479104,2.138832267648158,-0.49263233960976127
0.0574513300276057,-0.3672244656939905,1.9398474040131095,2.0121596958906345,0.1984592238761173,-0.5438789898665619,-0.9509925933724331,1.1635225582401723,1.6071031568144525
-3.0275668050654025,-1.8078843810646734,1.7178411324971707,1.9790029908069524,1.5167123361921258,2.5194105421378734,-0.45912370352025644,3.1018553032962313,1.4216432346484327
-4.980180996524839,-3.4287292772213434,1.4407381926773608,-0.05948247373914206,0.47124467802198267,2.7055783957892205,2.632778752471547,2.386671979817005,2.465293615584836
0.170668483010202,-1.6329222294732317,-0.5072576278831562,0.04390085157799062,1.5492392452289339,-0.369503631196767,0.8991751212134951,0.9301474971863652,2.37133856577198
-1.4240889326621011,0.7590403950586183,0.43084591624157004,0.9606665057746515,-0.15458621826060237,2.496996760245934,-1.5734432579304647,-0.14700974019385105,0.3552509697791384
-2.5378450509970425,0.41744422503966694,0.4238773156158363,2.5281311533158757,-1.0808868216718672,2.6460038441537357,-1.9423965595151493,1.0377104515094855,-0.6230507146718001
-1.5161858803723436,-0.7002443461189433,1.362257340477431,2.7940832285745762,1.6235961635336928,1.4856916504628006,-0.34998300394470777,-0.33610043986119564,-0.5970685071744375
-1.484508122326186,-3.318807620939431,0.6536549198621092,-0.5226519410248422,-0.9857092074265109,-0.37348956281447165,2.6697465043255297,3.433044359766744,0.20172150520650867
-1.8042078764046166,-1.0374896936356461,1.8451849400775968,1.7935847699315688,-0.3385320954233815,2.5085985745496906,1.0988443818133775,2.7664703797770636,3.1915916422492847
-3.754452169935166,-2.1537942666569694,0.35754461986782804,1.8771592892800069,0.7451262645365595,3.4197406153932457,0.7883112944737596,1.9263440895552826,1.8112148375220252
-0.44077567646185273,-2.684483261005908,1.2906972961986136,-0.6132372065908037,-0.3024889242174085,1.2895769565943787,1.44999498232425,1.8415085302409606,-0.6024484575161064
-0.9578980484649011,0.8427046816204424,-0.3910015979957977,1.4182384619589619,1.1394043489295498,0.6291898007179988,-0.9940008624193295,0.9017015283919865,0.051045468709741026
-3.092962595756435,-3.414309840803666,0.259560011136118,0.025569032920684354,0.1937638596708136,3.2580965948239147,2.210650743370405,1.1549895528526273,0.9464555231416167
1.5036755917175608,2.4581806539524527,0.06412946537610748,0.9720002003776997,-0.46913898355630357,-0.3218562688978842,-1.0900165295166075,0.9657273646120732,-0.10966777995711163
-2.088286914540814,-1.2002808219282748,2.0008036111944323,0.7546901617972972,0.44640752754697777,2.8790602737773594,-0.42221548084103877,0.9090792244882664,1.4692409787674614
-3.4972250079193774,-0.03211785117522928,0.6101158428046265,1.941251871188714,1.997718498638998,3.1197815803430604,-0.6920016797743647,-0.9866505631689108,0.8343927996111082
-1.2987202718515127,0.7304091449322101,-0.023707341481757585,-0.6612090815503562,1.817455514665199,1.2533510797486294,-0.33668288082971615,-0.6924245833762546,2.1065730617626897
-1.438994010766406,-2.995464745025725,1.540078937057161,3.047398102908393,-2.0945451995797084,1.245939764562182,0.6440482949028281,3.140101661716118,-0.6162174541327952
-0.3385060862061505,-0.39660775133773646,0.15380648631612215,2.511026626688257,0.5827763902528851,-0.28218998708389287,-0.5928263589429306,2.0919254980123414,2.5273948615683004
2.2512409419715245,-0.06335204981444982,-0.6306458641554236,2.489107775211572,0.2565485612976046,-0.8664918794085854,-0.5314955398000396,0.7974245029076266,0.956453126495026
-2.86837758089881,-1.9936751464758957,0.28592039973426453,-0.241081953756215,-1.0657705502033132,3.064493233566856,1.2931055182811482,2.063790730844302,-0.9257014413415072
-0.5189811736607203,-1.2413526585383245,2.148276788453472,2.130558943314442,-0.2599162200369496,-0.14351499865203454,-0.8326704614594322,3.06037807131714,0.7353115583734384
-0.08597972007010468,0.573522840975328,0.6257665538950118,1.4669849022356551,-0.0536983360560383,2.160047296827588,-1.3404546953789962,-0.20161193763670682,-0.6998898123872273
-1.9548722449026945,-1.6538155404005315,-1.0607590898897117,1.5122679245969706,0.04617515816705992,0.7024898906555475,0.7306800856126618,-0.009839161096315108,-0.3513228142788011
2.1974651837082,2.238053772730481,1.0834656888830134,0.21291923419141612,1.3192580259611326,0.4967242707865387,-2.268841324371395,0.3227307308343519,1.4263485207119646
-1.5849311021455585,0.4008301321348393,-0.44716140863866716,2.311662937960391,2.21369095054375,2.226746448081113,-0.15448894903802252,0.47327990559511846,1.2247583238124808
-3.5850700847923713,-5.281055393277788,-1.1761181675950814,2.3697401868086945,0.04191718166259051,2.7520631770157693,3.3225709964792975,2.229519790265972,0.1457558099227143
-1.621974625425247,-0.2061205028361428,-0.6970933195011336,1.4157659274469343,2.7680185156091586,1.2280276755943622,0.770290575636817,-0.04381264818092667,2.4192076171986816
-2.3087885311500225,-1.3788800881490144,1.1871457048696326,-0.3100423875349648,1.2773523359563224,1.9895805797719945,0.8214745520417619,-0.6146635151649245,-0.2676623901727624
-1.737075515394022,-2.0042913210315882,2.4232393039367475,2.344554087930584,-0.60887497618038,-0.1829223374876051,0.6903605087712974,1.156053882792547,0.6060258681145017
0.39455602742920265,0.5444004590275116,0.7154251473136682,1.8346150837683997,2.7144039868226777,1.0013625971297615,-0.347304036334091,-0.5413327717258902,2.513086505396948
-1.2965741893882328,2.3364137365046993,1.0651066881296705,1.8255359387842591,3.161938798830514,2.640151994777619,-3.440245074521671,-0.913907921689143,2.715575540961384
-1.5827392403413252,-1.465361926578725,2.478210161964,1.958764212525265,2.670272785846484,1.9703027674476332,-0.9518503164107108,0.311178048479986,2.2686972136295993
-1.212103922530369,-1.6136609544638463,0.8903444628903281,0.47775491972593365,1.3514917917028602,-0.13323734463752945,2.200622998941274,2.7805894020470485,2.9672405613779245
-1.7821307459225877,-2.1424526800327484,1.1121412442187248,2.828217063096154,-0.8693078771907472,2.176589169874294,1.8004627430503424,2.4891355781733933,1.6167446473811915
-1.644924993509246,-0.23855682772123388,0.8048904220983149,1.682953512259897,-0.285132016234824,2.1531048096765018,-0.8138065034279828,2.7808867640247183,1.3096041365016857
-2.1760861013892145,-2.466329554919067,1.6966074065614583,1.951850444819104,1.7377977391793438,1.5711107688014958,-0.6213987276443851,2.805544186412855,2.265006796035118
-3.0060774441358156,-3.086305229139434,1.6374484813188135,3.413491231656927,-1.9074142112509043,1.4366338549126136,-0.422092529244311,2.8372964248976524,-0.722524263243036
-0.22949330316073735,-0.8754239270655808,-1.103723071026724,0.6309351185868628,0.03150477252604572,0.8158009920912881,0.5211208305704775,-0.7208901504710516,0.8198037171325854
-1.925820376092161,-0.8023944126705659,3.0754769998443634,0.981965863946384,2.2439182430698055,1.2790572359557508,-0.6005257378973381,1.714410263885132,2.4999045551702235
-0.26042505517200265,-2.7616602755679853,1.6193204472250509,2.301894903461506,-1.155918460536636,1.871461493769607,0.7414830745596657,0.7583133779534501,1.519409519596632
-0.8865359127435064,0.32951922645812687,1.1546384076639697,0.7017716186809746,1.6779976274783515,1.6543141123319671,-1.2255541711613223,1.5404983917303108,2.595909096996951
-2.6612752133348634,-1.6052249139786745,0.2281807820480739,0.35373909571852913,-0.3248416372938763,2.171933848050381,0.9449522727046299,2.3894009875721904,0.7572587975756606
-1.268630605357394,-1.9485870359929818,-1.4445219719026257,-0.8973377536716995,1.1751339279649535,1.3230661311650804,2.462104726367537,-0.4984796745261507,1.6505002078379891
-0.4203634891770702,0.41530768045126915,0.2001806758454706,3.0083054396130766,1.6672422047517819,1.239804967067808,-0.7252905981133005,1.136551597696974,3.0709769696709177
-2.3283552459794237,0.5636004543311041,1.1348196345792796,2.699535309953807,1.7507211507371636,3.3007198189918796,-1.0340227747279456,-0.41811062428207924,2.5452008076285417
-1.5916732083782539,-2.04288249247541,0.04514890047107073,1.4471363567960172,1.1794257146137639,2.3369322978910114,1.6528341526166563,2.747669846872525,1.3051674296044093
-0.2290305137386618,0.09429502314747525,2.0252634037133452,1.2881633666085084,2.3086044712022202,1.1121248906258754,-1.5470892279067696,0.9651506197801485,2.9033312012666936
-1.9054442859209009,-2.5151351320358306,1.1457014199993352,1.4985130124352857,3.5858277550383333,0.38937103096760617,0.23907430755474213,0.9909030374421857,1.8899556736451917
-0.935000410889015,-0.957527644625717,1.7780358325691292,2.9066978852688665,0.5791147968752329,1.615128269414027,0.8150357376766937,1.7891645377711134,1.3820345547790156
-3.1078041456142946,-5.710513801660966,0.9039592829183499,2.597944563788376,0.0005238450102473813,2.723645258249824,3.459768893322658,3.29849875474172,-0.7955920759895192
0.11590539384166149,1.2001565135381025,1.8117045648233603,-0.9082440125563344,0.12356427291177463,1.2361127613951033,-1.2305857938482783,-0.05514496845244743,1.422058211158241
-2.0162262605905625,1.8522832675768344,1.4313159668088042,1.2181078634069689,2.3057656451835054,2.8967190234908347,-2.4748996689411236,0.8626489005341262,2.691169764848622
-3.2156700407046794,-2.6566941783474296,-0.008267216896188756,1.7206362647902496,-2.81571802368613,2.5825653957795907,0.8761862514149427,2.2707699160828927,0.6078038603191038
0.11586253536399815,-1.7107833423002625,-0.06721282939518192,3.015919615117933,0.7489472856089147,0.4130834382087911,-0.23185260492681414,-0.49280608899531186,1.1428484876301672
-2.6185660035234677,-3.9161784383685783,-0.787335850399565,-0.9613621465220729,3.4670829517452098,0.8880940911790487,3.247233154814749,1.5161463775295867,3.3987996311839845
-3.7825152224568033,-2.2044768096317346,-0.014832388120810933,0.42236050679768655,0.22671484850874024,1.8154408311262835,1.1603327295919077,2.7774919812837218,1.4315927559477561
-1.1125918959280303,-2.1475747526027034,1.9260771716136271,1.3120966146709083,1.5052108964288768,-0.7350650751720091,0.7151545504786783,2.7057389643920984,2.0368771634763596
-3.1191024667595078,-0.48702130665674964,1.4916491983616718,1.3946138192980646,1.0933871885136996,2.361791260084326,0.6757387668491661,1.9581069377201574,2.332018678899956
-0.6878672252763763,1.3209894520226264,1.5428003002424289,-0.4205174174639167,-0.38009821903521734,1.232780606764142,-1.889109027405508,2.2389012954726253,1.3228951751116642
-1.7306418008391713,-1.9451693402844328,0.8150801248245525,-0.26943659849163193,0.4895888859545109,3.029262118517056,1.3501861689113173,1.8487650918787666,2.086065598496697
-1.5719698330702625,-2.4520110969684974,-0.10700273045810893,0.7348554103832785,-1.5615496942162785,1.0776221997555204,1.4151726446669703,2.5757065580655825,-0.6584895256353557
-0.5729774517137675,-1.1167621002108379,2.6219496889903233,2.1692468290100937,-1.838107968320257,-0.06135714869677611,-1.0316107591046797,0.8014245975187926,-0.2735581392689449
-0.5010553006820867,-2.059719892419613,-2.086591607789571,0.3997550502892475,-0.9670713796447998,0.2346163388127145,2.71788763785728,1.594679300448457,0.17854334989973641
-1.4413231167449254,0.8945874548191156,0.53235937893987,2.3357680424763587,0.12623505404728164,2.291717642849792,-1.1851922471107603,1.7108422641910161,0.5773167613920294
-2.309581809564808,-5.117590970669536,1.575586450487622,2.544038269930088,-1.1894613828779206,0.12270879649998845,1.6373081033425059,3.1475983912339904,0.34392898653450277
-0.01752997918523902,-2.7635457523892915,0.0504734963634597,1.5288743142782484,1.730345795911598,0.10248201841618898,1.1111134049199778,-0.038293244509729485,1.2336577031739502
-2.365051545529904,0.53547162966144,-1.9865179739877232,2.222297101125196,3.0276150673620914,2.3804017270358866,1.4423966274305655,-0.41370348684814995,3.092160235926417
-1.5430015379167716,-0.28151166359860835,-0.3173660054084933,2.0458940549229694,1.4472229872320395,1.4811511055479274,0.42959416516986004,0.548656756625574,2.233783447724737
-0.8232021869856462,-0.2515876615445818,1.7352204172144479,2.413436918881001,-0.5163049843315846,0.8301084398911875,-1.7809665223153845,2.8819130671791573,0.5521587255132878
2.0660020934300105,-4.636439493835974,-1.1962264212607572,0.8695636282438064,-0.038898509985103136,-0.7720437901148626,3.0363358200205246,2.9223517630053837,0.5041288475798362
-2.3181780618272523,-2.137748316965473,-0.07366900292831127,0.7398175110383611,-0.01668060800263016,1.4127122025372234,2.176627627287124,2.010384285747132,-0.6699431921978598
-1.147732828621184,-2.751891718472533,-0.7786195377231302,-0.5503058548719606,-0.6887141386967963,1.8611058093226176,2.8036036098012547,-0.4010010976440581,-0.620426035775743
-0.6026422024243199,-3.3257593917781016,3.155953073884864,3.1396453032501075,0.7009030218585965,-0.14130075226099448,0.7815953550689938,2.5682225653117596,2.261428999831083
0.5418795569313772,-1.1596545485824108,-0.4202118994338689,2.221274402839004,-0.6018583718715411,-0.6739869463019876,-0.7673132159192124,1.1579919918514663,-0.37142620677046567
-1.3400603456623137,-2.29887462706255,0.777291541182562,2.6423909888061097,2.144427974224644,0.3965702336904673,0.7142323416646827,1.1827534660934274,2.3829045172316587
-3.2928026050284704,-1.5741336548437257,-0.09742459148656946,1.5410458942624947,3.5126744744023455,2.52358547654857,1.0593429058487425,1.4346559325813337,2.9264479465087514
-3.6761252839775067,-1.43661532089981,1.7221114401918187,3.1576036664630154,1.0736520774567726,3.397292540578759,-0.9783863909729498,0.8936953532277503,3.431488256493739
0.15654086170489406,-0.5662540665232033,-0.17540969008947527,2.729961020470809,2.9277641006668347,-0.3755537865012455,0.21236119797496322,0.329203554763444,2.921415719314067
0.348981254529511,-1.378995731626597,0.9544894965648382,3.227398296106956,-0.4937181304148841,-0.9856630535635312,0.2957287747990245,2.877952452959427,0.7518068940903806
0.12359787496119615,0.9533664108909887,0.9680340342691673,0.19886169708370716,0.9718021699089434,0.23568909552334283,-1.12320452777551,0.46533570487093545,1.9799525484939062
-1.099716725257445,-2.366062068943895,-0.03313223138580379,2.6996886535749733,1.078530131444161,0.1426739888725539,1.2644028476591438,0.7242581704288662,1.8727727805283183
-1.68336362288367,-0.71740864681389,0.0329363944318527,1.0773628251120515,2.999256369734257,2.704323935108388,0.24881808823168894,0.45961704732233133,3.1426349949551886
-1.1399794991394654,0.2129902106755023,2.3834013779239065,2.743474891502248,-0.9889476422226694,0.525989507508436,-1.4307771113763352,1.4443963164499523,1.0460983609175956
-0.8575271452171526,-1.3763211106843836,0.22469274010502333,0.8189938808461081,-0.6040851732179138,-0.5588814460120411,1.2308231548078674,2.0003800533903804,-0.10910568517876718
-1.7084806619823159,-1.1161760358745008,1.3665419800456449,0.9812525134995032,4.089361788830976,1.7585793936483816,0.7915289164942533,2.3390161000273273,2.800955859189467
-3.16026122758229,-1.0368619431756296,-1.4852551538066694,0.13460416773161832,-0.5121718086167446,2.6679402282555618,1.6106588944355698,0.9718149942378296,0.5426795715398778
-1.922080165132754,-1.6635625843787596,0.8265388810185543,1.3454598494734702,2.1183669015775966,0.7765049155143431,0.605069825874068,2.4741906985374604,2.856861570000025
-1.1125745942850862,0.23069871380744736,-0.37553336483395844,2.6936139189124995,3.4379273009355744,0.4007432148617971,1.009779340668228,1.2347324058781974,3.323405076539209
1.0830330333284361,2.7597384470073267,2.2155035695380576,-0.4927980520010481,1.3319752650905676,-0.42124043546499357,-2.929300146185357,-0.4466386428467286,1.2835468285113345
-2.0634698096837303,-1.4541002964084027,0.6666807306444551,2.9177967885465965,-0.7860872130354329,2.687802925629245,-0.14942214584871816,1.1293384491836607,1.9342020725933402
-0.7893823791744647,-2.0767648072472116,0.5611262136449956,-0.5771536102648467,-1.2179921132472082,1.0219105059933749,1.710856263123483,-0.12262377416838,-0.82492965096193
-0.9732176070137611,0.012364970783226818,-0.5956690011160567,2.237477922364561,3.6961782405961996,1.113183997727707,-0.636717730218725,-0.6622524295477222,1.1991789670734692
-3.0413171513969184,2.2605988874227188,-1.2059124631542602,-0.5252834758562965,0.9574110140047111,3.319346247503958,-0.8359045691930954,-0.6965687096855918,0.2946136256388894
-0.7812141845790267,-1.6804066150875374,-0.054637250953895045,2.9759888123818694,3.868009006152112,1.2138349683733107,1.3104266186742055,-0.8924793733927857,1.124002689622663
-3.55940951481983,-3.6178288585387977,-0.7110047044600872,2.425941732574261,0.4846513396980918,2.7798360211191655,2.867534063898304,1.1458171054116466,1.7350814334397011
-2.714209455533864,-1.4087603628591585,1.3328664735541276,3.065804771441348,0.5813526663199882,2.853555914813754,-0.10436670292863526,2.335219390136347,0.8002268567698205
-0.5825601215330464,1.2371369259971632,-0.362413751725109,2.9410807075450083,3.0520516717671553,1.8141234925154124,-1.553813449718667,-0.6689976140434174,3.105472425580806
-0.615227927975611,1.2881185917951157,1.134250637126509,2.1064876493549747,2.198262202028236,3.4587091731447854,-1.0189037966588423,-0.3495811102519082,3.4096998417694193
-0.8167807461679155,1.4079412682590686,0.35925765999312376,2.8805575130623913,3.642319081965774,2.4846305139636766,-1.4068215334579426,-0.9404165223004184,2.4748120471703814
-2.8094646118120723,-2.5550310807537238,1.3496468834187558,0.8236983548928811,-0.9541873704837931,1.687643512914177,0.8231447304384493,2.941693367442149,2.901403708798936
-1.2357513092687742,-1.3667404096992297,0.07558084882168714,-0.048927744592671685,2.114782120237703,1.9035154616224723,0.6386861304644402,-0.8334347416364878,2.3617103454396395
0.04499113799597321,-1.0698780578730855,-1.6153198644456084,0.18994442443315673,3.029767484480518,-0.6658959227849257,1.8899531946446178,-0.16789781224017175,2.751686053162931
-3.58154955953181,-0.6712740976780678,2.398979220918358,2.1816310141338957,1.8893567204331625,2.000967201508166,-0.4172074367209796,1.891710639401265,2.7152713746916355
-1.1549092091070534,0.9419081494847674,-1.4987303834631724,-0.33113467140466024,2.4935937395127583,0.9238144613573209,-0.9319537886125642,0.13187181289876926,3.2145745874624945
-2.5437505203877024,-0.39759032587319626,2.49024839245532,2.727355951146898,1.8663731882217403,3.102583148217919,-0.6608726186965189,0.23544844584795177,1.2217843411882883
-2.493963675098182,-1.6336453126672419,0.06339187383742506,0.29963255957189405,0.6780235906375487,1.4652118975281363,0.8128442946527961,1.3324079268006552,2.328985762239887
-0.10665427580506626,-1.0592258475645175,-0.6486047785883478,-0.4333745120192327,0.2301337019524563,0.695540264920935,0.369926747015052,-0.47329180906074364,-0.11082790064036463
-0.8822551900004751,-2.084258353721623,-1.248364809177441,1.3545324507714134,1.5295142584780326,1.6859801633834062,0.9635261014891713,0.09863860496042065,-0.9045788265689486
-3.4161417866857775,-4.293816197155617,1.990843106252277,1.5912534030655237,-2.0724660890839286,1.8408676331670217,1.1290235541557323,2.844527705287417,-0.38902448130285816
-1.1599658692614445,-1.679110300702128,-0.4322961600184412,2.5020362649531798,1.3990296999062455,0.6996638956151069,0.9068095512782113,1.4218135449776446,2.6630211633439975
-3.4119021729623884,-3.0971942893646087,-0.5428023284877861,2.784642931161628,0.3319911460888699,2.85354795363966,2.6874899271032597,0.5392234106015885,0.7803011773480959
-3.867891744754341,0.9399829494303426,0.6204783545039162,0.21346110681868646,0.7160763603639777,3.1711369300137386,-1.0367232541577343,0.19427025753582727,0.8860386805957956
