lhs,op,rhs,est
x11,~,x1,-0.41040688485449767
x6,~,x11,0.21297895852801074
x6,~,x9,0.18557258293759465
x3,~,x6,-1.2373182875019066
x9,~,eta1,0.7555378728989164
x5,~,x11,-0.7839586454386291
x5,~,x2,-1.1541911517238927
x5,~,x7,0.932714700243903
x8,~,x11,0.6803701165517595
x10,~,x8,0.5509282912944186
x2,~,x4,-0.5225504959366928
eta1,=~,y2,1.2873616574312845
eta1,=~,y3,-0.33433056267829264
eta1,=~,y4,-0.25330868732935585
eta1,=~,y5,-0.12156794451425311
