lhs,op,rhs,est
eta2,~,x2,-0.731928157411081
eta2,~,x4,0.29272497064630326
x1,~,eta2,-0.14777699709293504
x2,~,x1,-0.7391206670661659
eta1,~,x2,0.37142805672439816
x5,~,eta1,-0.7555870660836543
x3,~,eta2,-0.6829828206214011
eta3,~,x1,0.7314276121665899
x6,~,eta2,-0.5565317212869141
eta1,=~,y2,1.2626825705330484
eta1,=~,y3,0.9086204228667839
eta2,=~,y4,-0.6666315637522652
eta2,=~,y5,0.7427929028369235
eta2,=~,y6,0.7285388443760336
eta2,=~,y7,0.2174901439136061
eta3,=~,y11,1.263836059802369
eta3,=~,y9,-0.7787521923608953
