lhs,op,rhs,est
x4,~,x1,-0.3975352305415622
x4,~,x9,0.7783569777164409
x5,~,x2,0.33831397745540115
x5,~,x4,-0.9901035924002354
x6,~,x4,0.8897967505462397
x6,~,x8,-0.33942414038849367
x9,~,x6,-0.6375520924741889
x10,~,x9,0.14273324566191342
x7,~,x10,-1.246195175959183
x8,~,eta1,-1.0741671167182552
x3,~,x8,0.5282625465477498
eta1,=~,y2,-0.1462352813302376
eta1,=~,y3,0.5486053142871126
eta1,=~,y4,0.7182539492280757
eta1,=~,y5,-0.5005410484751344
