lhs,op,rhs,est
x10,~,eta3,-1.1621771838125083
x10,~,x1,0.1387063750766558
x10,~,x5,0.2242538572166293
x10,~,x8,-1.1166104220583668
eta2,~,x10,0.3548657057907079
eta2,~,x11,-0.700532786834911
eta4,~,eta2,-0.13063366812291355
x4,~,eta4,-0.2737863728849138
x9,~,x11,-0.2551400156262085
x3,~,x8,1.2317267202349667
x7,~,x3,0.9631331881223687
x6,~,eta3,-0.49620283769077544
x2,~,eta1,-0.36314380172712624
x2,~,x5,0.5715861334840009
eta1,=~,y2,-1.1237400038298961
eta1,=~,y3,-0.6853149925845614
eta1,=~,y4,-0.6125995089806501
eta2,=~,y6,-1.2498336519454363
eta2,=~,y7,1.0164936852722513
eta3,=~,y11,-0.6284240587937311
eta3,=~,y8,1.0129058328935474
eta3,=~,y9,0.765573265042328
eta4,=~,y13,0.3093668253735909
