lhs,op,rhs,est
x2,~,eta2,0.7663862271205261
x2,~,eta5,-0.40377753597356814
eta4,~,x2,-0.4429379701216648
eta3,~,eta2,0.19406814147529725
eta1,~,eta2,0.19950722080865918
x1,~,x2,0.13527644338358727
eta1,=~,y2,-0.3563604970914754
eta1,=~,y3,-0.4431314529566423
eta1,=~,y4,1.2711751105428528
eta1,=~,y5,0.6966201388448388
eta2,=~,y6,-1.1803496493833303
eta2,=~,y7,0.4550164180087302
eta2,=~,y8,0.6004915552367925
eta3,=~,y11,0.6170532682786656
eta3,=~,y12,0.9069947815685184
eta3,=~,y13,0.481105758242069
eta3,=~,y14,-0.2877289400012515
eta4,=~,y16,-0.9492413852839096
eta4,=~,y17,0.3193431213126856
eta4,=~,y18,-0.6459397600928433
eta5,=~,y6,-0.3041593322116004
