lhs,op,rhs,est
eta2,~,x3,0.2236932028844531
eta2,~,x8,-0.5256479869796749
x7,~,eta1,0.8458674411139091
x7,~,eta2,0.8265551159285971
x7,~,x6,-0.29437747091487526
x8,~,eta3,-1.000797343511476
eta4,~,x6,-0.16019448950800494
x4,~,x8,-0.5232571167358594
x2,~,x8,0.7696177789780044
x1,~,eta3,0.3349176539347632
x5,~,x1,0.5372663930585981
eta1,=~,y3,0.575377174099454
eta2,=~,y4,1.120015840699165
eta2,=~,y5,0.5591215203699661
eta2,=~,y6,-0.14344838594540546
eta2,=~,y7,-0.869465570392732
eta3,=~,y11,-1.2837815146430125
eta3,=~,y8,-0.46702918933475435
eta3,=~,y9,0.9271777089580505
eta4,=~,y13,0.34417843923478075
