"lhs","op","rhs","est"
"x8","~","x6",-0.247210394747034
"x4","~","x8",-0.20457235382145
"x2","~","x4",-0.642017535239266
"x1","~","x2",-0.171996543085113
"x9","~","x10",-0.732131103628343
"x9","~","x4",-0.649177800279518
"x7","~","x2",0.773085334918237
"x7","~","x5",0.659866115962667
"x3","~","x8",-1.0424634024301
"x8","~~","x8",0.0583886017049361
"x4","~~","x4",0.0443344828637788
"x2","~~","x2",0.329920079146893
"x1","~~","x1",0.029814842423286
"x9","~~","x9",0.731663184538654
"x7","~~","x7",1.15719574821185
"x3","~~","x3",0.808596079007893
"x1","~~","x9",0.000991821987546544
"x1","~~","x7",0.00822770064491683
"x1","~~","x3",0.00131973631073145
"x9","~~","x7",-0.0363342564999538
"x9","~~","x3",-0.0137632483290728
"x7","~~","x3",-0.0180643732049883
