"lhs","op","rhs","est"
"x2","~","x1",-0.260599719926592
"x2","~","x3",-0.314146030023293
"x2","~","x5",1.02462853294846
"x6","~","x2",0.703407136038582
"x6","~","x7",-0.566922196513626
"x9","~","x6",0.640961945661846
"x4","~","x10",-0.645279674200156
"x4","~","x2",-0.95738784155004
"x8","~","x6",0.67812182157988
"x2","~~","x2",1.08247310241078
"x6","~~","x6",1.11575109368849
"x9","~~","x9",1.05959898135787
"x4","~~","x4",1.91197403001495
"x8","~~","x8",1.53099284533774
"x9","~~","x4",0.034077740847571
"x9","~~","x8",0.403420283921181
"x4","~~","x8",-0.044359781017866
