"lhs","op","rhs","est"
"x1","~","x4",-0.270756925565943
"x7","~","x1",-0.116294401455075
"x7","~","x3",0.704043730223979
"x2","~","x4",0.137041661189089
"x2","~","x8",0.781000478192727
"x10","~","x2",0.313312970405529
"x5","~","x1",1.01155204052403
"x5","~","x9",-0.62915516953963
"x6","~","x4",0.424868718235751
"x1","~~","x1",0.073993214269765
"x7","~~","x7",0.534600628727662
"x2","~~","x2",0.646579031460833
"x10","~~","x10",0.184417811880151
"x5","~~","x5",1.10755104754313
"x6","~~","x6",0.162421246596276
"x7","~~","x10",-0.0125730767513396
"x7","~~","x5",-0.00351466810815349
"x7","~~","x6",-0.0165915366639526
"x10","~~","x5",-0.0216650650280626
"x10","~~","x6",-0.00781540191914641
"x5","~~","x6",-0.00924963480136861
