lhs,op,rhs,est
eta1,~,x5,0.5949483909161859
eta1,~,x7,-0.36776464033713885
eta2,~,eta8,0.24095505584261306
eta3,~,x2,-0.04495257359365254
eta4,~,eta3,1.7460502220534095
eta5,~,x8,0.000597461532817865
eta6,~,x8,0.8675167569774208
eta7,~,eta3,0.6817435732003063
eta8,~,x5,0.5859825646804229
x1,~,x10,0.21894935349956562
x10,~,x2,-0.03697796169906231
x2,~,x6,-0.9810351262092315
x2,~,x5,0.3887205056780144
x2,~,x9,-0.6598383802200533
x3,~,eta7,0.24946705098630892
x4,~,x5,0.34262063995077585
x6,~,x10,-0.7208248861899875
x8,~,x1,0.8478349283401693
eta4,=~,y11,-0.9434762505641742
eta4,=~,y12,0.7633536013965013
eta5,=~,y14,-554.9794361152307
eta5,=~,y15,164.3601115289265
eta6,=~,y17,-0.39052308305764644
eta7,=~,y19,0.15086879394628092
eta1,=~,y2,-0.18376998304122075
eta8,=~,y21,-0.5022436786145322
eta8,=~,y22,-0.6885060600974654
eta1,=~,y3,0.43813026037991964
eta2,=~,y5,-1.0689861172906003
eta2,=~,y6,0.8505662198047305
eta3,=~,y8,1.3864668159566693
eta3,=~,y9,0.6130796746715863
eta1,~~,eta1,0.4832063067386271
eta1,~~,eta2,0.04750131027374286
eta1,~~,eta4,0.04753206114707375
eta1,~~,eta5,4.6077121795866686e-05
eta1,~~,eta6,-0.05701894847083724
eta1,~~,x3,-0.0058617120448418054
eta1,~~,x4,0.009682779168764184
eta2,~~,eta2,0.11455836313691553
eta2,~~,eta4,0.0016933418002513419
eta2,~~,eta5,-3.38489047020733e-05
eta2,~~,eta6,0.01491531181111164
eta2,~~,x3,0.0012661978659400995
eta2,~~,x4,-0.009893634651165694
eta3,~~,eta3,0.1655679819942872
eta4,~~,eta4,0.7682451249517981
eta4,~~,eta5,-6.277083221444244e-05
eta4,~~,eta6,-0.08469566554841047
eta4,~~,x3,-0.015188647740767985
eta4,~~,x4,-0.00744673750680926
eta5,~~,eta5,2.946850913717895e-07
eta5,~~,eta6,3.9297997218321875e-05
eta5,~~,x3,1.3914468062458076e-06
eta5,~~,x4,1.0428417685700779e-05
eta6,~~,eta6,0.6112818115375834
eta6,~~,x3,-0.015047884504210275
eta6,~~,x4,-0.008892870207902168
eta7,~~,eta7,0.08423168353840046
eta8,~~,eta8,0.2670334072687664
x1,~~,x1,0.04562823528856074
x10,~~,x10,0.07258242847986784
x2,~~,x2,1.3619286076675614
x3,~~,x3,0.04251911333485485
x3,~~,x4,-0.0009947861618470402
x4,~~,x4,0.1293066494226874
x6,~~,x6,0.3214950805477808
x8,~~,x8,0.382795701061732
y10,~~,y10,1.1012520527275091
y11,~~,y11,0.8815952370906162
y12,~~,y12,0.5064345331376664
y13,~~,y13,3.581587257862621
y14,~~,y14,1.1388153866414803
y15,~~,y15,0.08015559463381756
y16,~~,y16,0.8801702067178925
y17,~~,y17,0.17914758158074892
y18,~~,y18,0.9159929559641942
y19,~~,y19,0.029586743874452367
y2,~~,y2,0.04666909365236565
y20,~~,y20,1.0164547860120157
y21,~~,y21,0.3219538082383542
y22,~~,y22,0.5143803379607517
y3,~~,y3,0.2462083630557242
y4,~~,y4,0.9229878458865378
y5,~~,y5,0.8643607268506293
y6,~~,y6,0.46604367836596133
y8,~~,y8,0.6164279498957328
y9,~~,y9,0.16462470191465298
