lhs,op,rhs,est
eta3,~,eta1,0.5206761281396506
eta4,~,x2,0.854495321183225
eta4,~,x4,-0.7510595988906412
eta6,~,x8,-0.3339203470997279
eta7,~,eta1,-0.2307210955831675
x1,~,eta2,-0.903411957417423
x1,~,eta3,0.33904961028046265
x10,~,eta2,-0.13067402737030193
x10,~,x7,-1.0086794836319508
x3,~,eta6,0.5889979359998255
x3,~,eta8,0.27982498401019823
x5,~,x8,-0.4496757301394378
x6,~,eta1,0.5734287196248131
x6,~,eta4,-0.22463833095663735
x6,~,eta5,0.4567394543436396
x6,~,x3,-0.22508733472119175
x8,~,x3,0.6541148636226994
x9,~,x5,-1.0932908382637967
eta5,=~,y11,-0.3144791178820362
eta5,=~,y12,-1.0644414693778839
eta6,=~,y14,-0.1778709667248784
eta6,=~,y15,-0.30724315853242007
eta7,=~,y18,0.15871375132098245
eta1,=~,y2,-0.8596412446988779
eta8,=~,y20,0.5440117684735754
eta8,=~,y21,0.40877645321404493
eta1,=~,y3,-0.7965030632897212
eta2,=~,y4,0.2494364858477839
eta3,=~,y7,0.6029754102970152
eta7,=~,y8,0.6986009154341328
eta4,=~,y9,-0.9728794044890432
eta1,~~,eta1,1.7779890416651705
eta1,~~,eta2,-0.05011687574291055
eta1,~~,eta5,-0.008740509395025976
eta1,~~,eta8,0.09934535052855209
eta2,~~,eta2,1.4255411552853574
eta2,~~,eta5,0.066100689762754
eta2,~~,eta8,-0.05945536450848932
eta3,~~,eta3,0.2049383095662819
eta4,~~,eta4,1.4900781269568144
eta5,~~,eta5,1.599838725363726
eta5,~~,eta8,-0.09518948347383785
eta6,~~,eta6,0.019392815278148796
eta7,~~,eta7,0.26482289739512777
eta7,~~,x1,-0.2008031781634792
eta7,~~,x10,-0.08103457711113779
eta7,~~,x6,-0.09039962495115864
eta7,~~,x9,-0.016521604820725254
eta8,~~,eta8,1.4604124896576656
x1,~~,x1,1.2318314944811526
x1,~~,x10,0.05202668515546671
x1,~~,x6,0.12022310262649083
x1,~~,x9,-0.13747933211641036
x10,~~,x10,1.0492277358462339
x10,~~,x6,0.021380046119686753
x10,~~,x9,0.028417766186505825
x3,~~,x3,0.19438810361925532
x5,~~,x5,0.17677283479661993
x6,~~,x6,1.0410902841508476
x6,~~,x9,-0.09437324259606297
x8,~~,x8,0.7128831541824464
x9,~~,x9,1.107234563490195
y1,~~,y1,0.8580528520981442
y10,~~,y10,0.8970895240992721
y11,~~,y11,0.09533342041582762
y12,~~,y12,1.0624082023451646
y13,~~,y13,0.9504631827485441
y14,~~,y14,0.05593771128012786
y15,~~,y15,0.10542137082979794
y16,~~,y16,1.881236281786289
y18,~~,y18,0.08187292411728639
y19,~~,y19,1.0051344240836004
y2,~~,y2,0.9549025538231585
y20,~~,y20,0.28475025047786107
y21,~~,y21,0.14744935971559978
y3,~~,y3,0.8121454301265837
y4,~~,y4,0.05200481458070528
y6,~~,y6,1.209659917592219
y7,~~,y7,0.3393555804977825
y8,~~,y8,2.4310035606488904
y9,~~,y9,1.787804513731554
