lhs,op,rhs,est
eta1,~,x10,-0.26519063713409696
eta4,~,eta5,0.9313820709929189
eta6,~,x5,-0.1229396899095276
eta8,~,eta7,-0.4161818907963989
eta8,~,x9,0.30477932654255496
x1,~,x6,0.3770291665994187
x10,~,eta3,-0.8622172089571475
x10,~,eta8,-0.41026982334596523
x3,~,x6,0.09481898578133001
x4,~,x2,0.16796420449939206
x5,~,eta2,-0.5583920655932856
x5,~,eta5,-0.709069936502942
x5,~,x6,-0.09552409413823401
x6,~,eta6,-0.07852917045892911
x6,~,eta8,0.26213719940771935
x6,~,x4,0.6836227056516407
x7,~,x5,-0.8446052275642729
x8,~,x6,0.22480510300230425
eta4,=~,y11,-0.6283632890979806
eta4,=~,y12,-1.003180830860573
eta1,=~,y13,-0.26213136782794966
eta5,=~,y14,0.1859226965205262
eta5,=~,y15,0.17388437451550962
eta6,=~,y17,1.2220355142592696
eta1,=~,y19,0.3307640281526295
eta7,=~,y19,-0.8122683691359011
eta7,=~,y20,0.265799640654853
eta8,=~,y22,0.8897331850176682
eta8,=~,y23,-0.2777463945112198
eta2,=~,y5,0.33119590976914065
eta2,=~,y6,-0.8310197751593811
eta3,=~,y8,0.6478414087602309
eta3,=~,y9,0.09822356953903061
eta1,~~,eta1,1.2977751394986647
eta1,~~,eta4,-0.10444311702190064
eta1,~~,x1,0.08134319211996438
eta1,~~,x3,0.023630811538522863
eta1,~~,x7,0.04715611103170558
eta1,~~,x8,-0.048577195944692356
eta2,~~,eta2,1.4961380509702606
eta2,~~,eta3,-0.016627850829353776
eta2,~~,eta5,0.1262318407869079
eta2,~~,eta7,-0.018498660500150626
eta3,~~,eta3,1.9746216185292131
eta3,~~,eta5,0.0056282210380414945
eta3,~~,eta7,-0.03462177329243741
eta4,~~,eta4,0.8231345243184961
eta4,~~,x1,0.06010209823517206
eta4,~~,x3,-0.009223190118799744
eta4,~~,x7,0.04588067903529751
eta4,~~,x8,0.024312052640831507
eta5,~~,eta5,1.6811058050923218
eta5,~~,eta7,0.15718824968806666
eta6,~~,eta6,0.1987181730876497
eta7,~~,eta7,1.7879563849781202
eta8,~~,eta8,0.303718813134904
x1,~~,x1,0.9097629340681382
x1,~~,x3,0.02469872157847882
x1,~~,x7,-0.0682501052394648
x1,~~,x8,0.021355948026246678
x10,~~,x10,1.9556746859091345
x3,~~,x3,0.03987307616813666
x3,~~,x7,-0.005083093916386843
x3,~~,x8,0.021593157558795335
x4,~~,x4,0.026832132653315605
x5,~~,x5,1.0893646424177899
x6,~~,x6,1.359955450093598
x7,~~,x7,1.7708857349524925
x7,~~,x8,0.05447865204790867
x8,~~,x8,0.7962053595946279
y1,~~,y1,0.9315778131250207
y10,~~,y10,1.0249031830589899
y11,~~,y11,0.42332202164933197
y12,~~,y12,1.0866990509766197
y13,~~,y13,1.094678599950296
y14,~~,y14,0.03890139897097175
y15,~~,y15,0.025883185466449795
y16,~~,y16,2.29632188651622
y17,~~,y17,2.097737974715084
y18,~~,y18,0.8473766023723667
y19,~~,y19,0.737327707954345
y20,~~,y20,0.06569501073335098
y21,~~,y21,2.1613982671550698
y22,~~,y22,1.352478966582681
y23,~~,y23,0.10918469236356258
y4,~~,y4,1.2071331291946437
y5,~~,y5,0.08644432998507778
y6,~~,y6,0.7275567262466641
y7,~~,y7,0.9157877307390216
y8,~~,y8,0.40642036397332604
y9,~~,y9,0.01251556586103024
