lhs,op,rhs,est
eta1,~,x10,1.1298094713423787
eta1,~,x4,-0.22597802561107172
eta2,~,x3,-0.2650053568998573
eta3,~,x5,-0.41635138611820716
eta5,~,eta4,0.5175574581706401
eta5,~,x9,0.7415131565253228
eta7,~,eta5,0.3254796279319466
eta7,~,x5,0.21935806206618946
eta7,~,x8,0.6819860092682646
eta8,~,eta7,-0.2151907154225765
eta8,~,x6,0.3388769099934282
x1,~,x9,-0.15712678914263398
x2,~,eta6,0.6783163586112356
x2,~,x5,0.877344719619745
x3,~,x4,-0.6491664997203639
x7,~,x10,0.19112019706546055
x9,~,eta7,-0.21679575970551973
x9,~,x10,-0.8764951624913826
eta5,=~,y11,-0.22156537046044625
eta5,=~,y12,-0.944336234554135
eta6,=~,y14,0.30538561207126563
eta6,=~,y15,0.23232111282482043
eta7,=~,y19,0.6316991191358898
eta8,=~,y19,-1.1007193098533896
eta1,=~,y2,0.3217507118104213
eta8,=~,y20,-0.3252776259241563
eta2,=~,y4,0.8012779877162322
eta2,=~,y5,-0.4900676583832079
eta3,=~,y6,-0.36391831163668004
eta4,=~,y9,0.9328671352441944
eta1,~~,eta1,1.3644694020389838
eta1,~~,eta2,0.021201014189079985
eta1,~~,eta3,0.018772314964972232
eta1,~~,eta8,-0.030639569312184995
eta1,~~,x1,-0.056497313405224445
eta1,~~,x2,0.01762587857766678
eta1,~~,x7,-0.0077534782454919335
eta2,~~,eta2,0.048611542485054726
eta2,~~,eta3,0.005893493363348859
eta2,~~,eta8,0.0028406348576276623
eta2,~~,x1,-0.025169536665751672
eta2,~~,x2,0.001713886682888964
eta2,~~,x7,-0.005237301450556704
eta3,~~,eta3,0.40938293056878705
eta3,~~,eta8,0.03444575317118874
eta3,~~,x1,0.14015484320683808
eta3,~~,x2,-0.0497614678330246
eta3,~~,x7,0.016996677048973428
eta4,~~,eta4,1.6276663631015948
eta4,~~,eta6,-0.020849840107332367
eta5,~~,eta5,1.2662179723733418
eta6,~~,eta6,1.996412105413295
eta7,~~,eta7,0.5886594615232094
eta8,~~,eta8,0.5550254725635786
eta8,~~,x1,-0.06231593615614706
eta8,~~,x2,-0.14645521017380314
eta8,~~,x7,-0.018111719600418328
x1,~~,x1,1.3890323636169613
x1,~~,x2,-0.0008698978330523734
x1,~~,x7,0.006117674786290367
x2,~~,x2,1.2443455311281018
x2,~~,x7,-0.010705696587944413
x3,~~,x3,0.41139725022163876
x7,~~,x7,0.03448932916550759
x9,~~,x9,0.8798104717176192
y1,~~,y1,2.2370752522445176
y10,~~,y10,2.8803471165306807
y11,~~,y11,0.20938900196916918
y12,~~,y12,3.4765289932385053
y13,~~,y13,1.074840268338407
y14,~~,y14,0.09718069453319846
y15,~~,y15,0.06557584628696846
y16,~~,y16,4.293643259223444
y18,~~,y18,1.9134397322858196
y19,~~,y19,3.1408030284258914
y2,~~,y2,0.23558065224641106
y20,~~,y20,0.15607954731895488
y3,~~,y3,0.9685738501163368
y4,~~,y4,0.6806624496452801
y5,~~,y5,0.1329411642539361
y6,~~,y6,0.20298018582707744
y8,~~,y8,0.8468819064723427
y9,~~,y9,0.8829204323933616
