"lhs","op","rhs","est"
"eta1","=~","y2",-0.285765587200864
"eta2","=~","y4",-0.668857820714835
"eta3","=~","y6",0.116344881887922
"eta3","=~","y7",-0.370470816730532
"eta4","=~","y5",0.815791458461246
"eta4","=~","y8",0.939836418886854
"x10","~","x8",-0.143402991594319
"x9","~","x10",-0.807218900070388
"eta2","~","x1",-0.611350945036688
"eta2","~","x9",-0.921570624641069
"x2","~","x9",0.131276126442301
"x3","~","x10",0.854145763096956
"x3","~","x5",1.14201486514872
"eta3","~","x3",-0.85593634839254
"eta4","~","x8",0.410083559345183
"x4","~","x6",0.654676489335696
"x4","~","x8",-0.755541621305232
"x6","~","eta1",-0.382325520948413
"x7","~","x3",-1.03623560005375
"y1","~~","y1",0.881565023370787
"y2","~~","y2",0.0712314792068038
"y3","~~","y3",1.89873665711798
"y4","~~","y4",0.782560362226325
"y5","~~","y5",2.41604984072589
"y6","~~","y6",0.0270459881004648
"y7","~~","y7",0.299943267819694
"y10","~~","y10",1.08325514108644
"y8","~~","y8",0.521703435420165
"x10","~~","x10",0.0184477745078567
"x9","~~","x9",0.456641749881613
"x2","~~","x2",0.019083206954763
"x3","~~","x3",1.58697422589123
"x4","~~","x4",0.945363454143476
"x6","~~","x6",0.134455289038825
"x7","~~","x7",2.13014386075523
"eta1","~~","eta1",1.45601064985132
"eta2","~~","eta2",1.05076634351015
"eta3","~~","eta3",1.20310578260833
"eta4","~~","eta4",0.161585883735423
"eta2","~~","eta3",-0.038903357333309
"eta2","~~","eta4",0.0206256808858294
"eta2","~~","x2",-0.00418558848310101
"eta2","~~","x4",-0.0350654156900727
"eta2","~~","x7",-0.0112274291987262
"eta3","~~","eta4",-0.0580586103417238
"eta3","~~","x2",0.0151842296541812
"eta3","~~","x4",-0.0249716068442203
"eta3","~~","x7",0.133973474001069
"eta4","~~","x2",0.00368770873136064
"eta4","~~","x4",0.00876897732049129
"eta4","~~","x7",0.0155148583671396
"x2","~~","x4",-0.000796653408792053
"x2","~~","x7",-0.00532630683772538
"x4","~~","x7",-0.0134471858588867
"x8","~~","x8",1.43215971362394
"x8","~~","x1",-0.0623911145374843
"x8","~~","x5",0.040283487198166
"x1","~~","x1",1.66304538500875
"x1","~~","x5",-0.00514857019756826
"x5","~~","x5",1.49138493441111
