"lhs","op","rhs","est"
"eta1","=~","y2",-0.389245090451871
"eta1","=~","y3",0.613789397936871
"eta2","=~","y5",0.616375136330406
"eta2","=~","y6",-0.157060191014892
"eta3","=~","y8",0.81015867643005
"eta3","=~","y9",1.30314099735423
"eta4","=~","y11",-0.711282018445812
"eta4","=~","y12",0.134074089394896
"eta2","~","x7",-0.157929527252035
"eta1","~","eta2",1.40897422297998
"eta1","~","x10",-0.715296418752024
"eta1","~","x6",-0.683142310531735
"eta3","~","eta1",0.0113609833584668
"eta3","~","eta4",-0.444274257677148
"x1","~","eta3",0.910660946322766
"x6","~","x8",0.141474415701821
"x4","~","x2",-1.00782129452516
"x4","~","x6",0.576249871049396
"x4","~","x9",0.628436385420471
"x3","~","eta2",-0.491903105867285
"x5","~","x2",0.380695515248851
"y10","~~","y10",3.2673654765094
"y2","~~","y2",0.613132187434381
"y3","~~","y3",1.66077776014498
"y4","~~","y4",0.937283277546774
"y5","~~","y5",0.447482464658211
"y6","~~","y6",0.0186717178787126
"y7","~~","y7",1.68939335497021
"y8","~~","y8",1.13013674912652
"y9","~~","y9",1.98705214861068
"y11","~~","y11",0.639327650567087
"y12","~~","y12",0.0233161926561151
"x1","~~","x1",1.17689989709077
"x6","~~","x6",0.0185032019672683
"x4","~~","x4",1.90392450156813
"x3","~~","x3",0.542036577603444
"x5","~~","x5",0.117275948018108
"eta1","~~","eta1",1.28696659496104
"eta2","~~","eta2",0.0217745398845733
"eta3","~~","eta3",0.295768821873185
"eta4","~~","eta4",1.87430502324109
"x1","~~","x4",0.0641202318359069
"x1","~~","x3",0.0192154755297543
"x1","~~","x5",0.00311442335396988
"x4","~~","x3",-0.0702436477737263
"x4","~~","x5",0.0133085717481315
"x3","~~","x5",-0.00547373308769936
"x7","~~","x7",1.60373487095437
"x7","~~","x10",0.0913273224356332
"x7","~~","x8",-0.101353391438226
"x7","~~","x2",0.0824104570933428
"x7","~~","x9",0.0873279902077462
"x10","~~","x10",1.60733369650826
"x10","~~","x8",0.11151721423404
"x10","~~","x2",0.0291859556431832
"x10","~~","x9",0.0344383199935988
"x8","~~","x8",1.63984358991205
"x8","~~","x2",0.0390509344625029
"x8","~~","x9",0.0489647319253683
"x2","~~","x2",1.62420317484345
"x2","~~","x9",-0.0237862592671838
"x9","~~","x9",1.58372205995291
