"lhs","op","rhs","est"
"eta1","=~","y2",-0.394564887597347
"eta1","=~","y3",-0.61215713557531
"eta2","=~","y5",-1.32988249540896
"eta2","=~","y6",-0.838940266137381
"eta3","=~","y8",-0.237097831132242
"eta3","=~","y9",-0.470358203473847
"eta4","=~","y3",-1.19778992846095
"x7","~","x2",-0.281280125396078
"x4","~","x7",-0.177709431670428
"x3","~","x4",-0.256637739875713
"x3","~","x9",0.828118758751621
"x8","~","eta1",1.0765450540038
"x8","~","eta3",0.581131212760541
"x8","~","x3",0.0090874549646206
"eta4","~","x3",-0.963089752677876
"x10","~","x9",0.276946164685807
"x6","~","x9",-0.444010340274974
"eta2","~","x6",0.284421995275812
"x5","~","x7",-0.946569606037741
"x1","~","x7",-0.286906243804252
"y1","~~","y1",1.20436272528366
"y2","~~","y2",0.121724889760606
"y3","~~","y3",2.31020613072007
"y4","~~","y4",0.882499034294288
"y5","~~","y5",0.639688083977396
"y6","~~","y6",0.303146799718449
"y7","~~","y7",1.07497810975412
"y8","~~","y8",0.0452436452328854
"y9","~~","y9",0.211686295244725
"y10","~~","y10",1.82900979208648
"x7","~~","x7",0.0677118161613588
"x4","~~","x4",0.033651428629018
"x3","~~","x3",0.608542209104469
"x8","~~","x8",1.29068995781162
"x10","~~","x10",0.0755444078099652
"x6","~~","x6",0.172759054589298
"x5","~~","x5",0.638415665038787
"x1","~~","x1",0.0911986975382524
"eta1","~~","eta1",1.42978891098433
"eta2","~~","eta2",0.0874090879957512
"eta3","~~","eta3",1.48046675014898
"eta4","~~","eta4",1.74111684734847
"eta1","~~","eta3",0.101626778611753
"eta2","~~","eta4",0.00729642219606884
"eta2","~~","x8",0.0349929426885637
"eta2","~~","x10",0.00320122924823903
"eta2","~~","x5",0.00328803378105019
"eta2","~~","x1",0.00842832637754593
"eta4","~~","x8",0.126986540103698
"eta4","~~","x10",0.00891059616658506
"eta4","~~","x5",0.00130962820270582
"eta4","~~","x1",0.0085648746897474
"x8","~~","x10",0.038505722484729
"x8","~~","x5",-0.0798503754946823
"x8","~~","x1",-0.0366273518948241
"x10","~~","x5",-0.00648495111728538
"x10","~~","x1",-0.00427572409511393
"x5","~~","x1",-0.0198165792408118
"x2","~~","x2",1.67690712052337
"x2","~~","x9",-0.0813227902757857
"x9","~~","x9",1.43062645711172
