"lhs","op","rhs","est"
"eta1","=~","y2",0.744649530024752
"eta2","=~","y4",-0.552769014616266
"eta2","=~","y5",-0.118307105688328
"eta3","=~","y7",-0.859440864051127
"eta3","=~","y8",-0.874233280746228
"eta4","=~","y9",0.710151103391118
"x4","~","x1",0.406194879823114
"x4","~","x2",0.181744663597885
"x4","~","x3",0.0971072108453838
"x4","~","x7",-0.257195782122795
"eta3","~","x4",-0.332097932163523
"x2","~","x8",-0.814194162382407
"x5","~","eta4",-0.661597968619577
"x5","~","x8",-0.537758020896697
"x9","~","x7",-0.604962627793908
"eta1","~","eta2",0.580304997362947
"eta1","~","x2",0.963341577930975
"x6","~","x8",-0.412944212489043
"x10","~","x7",-0.912741727744202
"y1","~~","y1",1.9106805246956
"y2","~~","y2",0.884281852634844
"y3","~~","y3",1.02888138214154
"y4","~~","y4",0.17103538251627
"y5","~~","y5",3.74205218188403
"y7","~~","y7",4.85744832671908
"y8","~~","y8",1.98046989559721
"y10","~~","y10",1.00825657796842
"y9","~~","y9",0.587113520503532
"x4","~~","x4",0.249805564095311
"x2","~~","x2",0.675417709914295
"x5","~~","x5",0.896293399618703
"x9","~~","x9",0.378478480390696
"x6","~~","x6",0.168645232595443
"x10","~~","x10",0.844259119302008
"eta1","~~","eta1",1.16121675240387
"eta2","~~","eta2",1.44476071241797
"eta3","~~","eta3",0.473432995767209
"eta4","~~","eta4",1.57512919729341
"eta2","~~","eta4",-0.0856943771233066
"eta1","~~","eta3",-0.0453287834024304
"eta1","~~","x5",0.134058014855645
"eta1","~~","x9",0.0110301087064204
"eta1","~~","x6",0.0526149517714033
"eta1","~~","x10",-0.0524345904189215
"eta3","~~","x5",-0.0705809644787215
"eta3","~~","x9",0.0340632117376481
"eta3","~~","x6",-0.00208394563565333
"eta3","~~","x10",-0.0171369367226643
"x5","~~","x9",-0.0237090452499319
"x5","~~","x6",0.0097156378966793
"x5","~~","x10",-0.0765220841937248
"x9","~~","x6",-0.00114191239998871
"x9","~~","x10",0.018615105831568
"x6","~~","x10",-0.0095375677566646
"x1","~~","x1",1.47148651068804
"x1","~~","x3",0.0970684361575301
"x1","~~","x7",-0.0146359246337485
"x1","~~","x8",-0.0669094629429928
"x3","~~","x3",1.5172650683383
"x3","~~","x7",0.0140962641626164
"x3","~~","x8",0.0358956209160704
"x7","~~","x7",1.60412106447475
"x7","~~","x8",-0.0281012438468645
"x8","~~","x8",1.62158772031637
