"lhs","op","rhs","est"
"eta1","=~","y2",0.294162222440037
"eta2","=~","y4",-0.073271586758371
"eta3","=~","y6",0.188578001005778
"eta3","=~","y7",-1404.49920034959
"eta4","=~","y9",1.05193934040594
"x5","~","x6",-0.289270634631805
"x5","~","x9",0.204832609007934
"x4","~","eta1",-0.705308847524926
"x4","~","x10",-0.20893045276708
"x4","~","x3",-0.850962161365795
"x4","~","x6",0.321296476272204
"x4","~","x8",-0.527050413704916
"x2","~","x1",-0.676993310831529
"x2","~","x6",0.332335476858202
"eta2","~","x2",0.0687067569478455
"eta3","~","eta2",0.000243992772459904
"x8","~","eta4",0.780182538768262
"x7","~","eta4",-0.846205718805637
"y1","~~","y1",0.905486882319342
"y2","~~","y2",0.0795251630066086
"y3","~~","y3",0.67061959490682
"y4","~~","y4",0.0187405431844042
"y5","~~","y5",0.923429780981859
"y6","~~","y6",0.898917523218215
"y7","~~","y7",-118.649279033484
"y8","~~","y8",0.910379562655835
"y9","~~","y9",1.00360612670034
"x5","~~","x5",0.138591343760836
"x4","~~","x4",1.60246215909968
"x2","~~","x2",0.476174069832238
"x8","~~","x8",0.470941230181991
"x7","~~","x7",0.645720562277062
"eta1","~~","eta1",1.56425399766908
"eta2","~~","eta2",0.436348122603553
"eta3","~~","eta3",6.0549680107834e-05
"eta4","~~","eta4",1.44191732155996
"eta1","~~","eta4",-0.0895360713933452
"eta3","~~","x5",7.17804088735044e-06
"eta3","~~","x4",-1.57761662836548e-05
"eta3","~~","x7",-2.08851371744775e-05
"x5","~~","x4",0.00669823050376193
"x5","~~","x7",0.00530166294790389
"x4","~~","x7",-0.0957864225281808
"x6","~~","x6",1.49381504057242
"x6","~~","x9",0.0451946165177014
"x6","~~","x10",0.0395163108208791
"x6","~~","x3",0.120944177438571
"x6","~~","x1",0.0249826116406113
"x9","~~","x9",1.53996151449578
"x9","~~","x10",-0.0184086733813663
"x9","~~","x3",-0.110585454832456
"x9","~~","x1",-0.0317335656176076
"x10","~~","x10",1.46565062162456
"x10","~~","x3",-0.00657870265663147
"x10","~~","x1",0.00420262451439103
"x3","~~","x3",1.65718214217331
"x3","~~","x1",0.0859199134743719
"x1","~~","x1",1.56929621246961
