"lhs","op","rhs","est"
"eta1","=~","y2",-0.655000767114698
"eta1","=~","y3",0.48539904639373
"eta2","=~","y6",0.557121260547931
"eta2","=~","y7",0.45873285660852
"eta3","=~","y8",0.687932586986655
"eta4","=~","y9",-0.453082875972871
"x8","~","eta3",0.793786317618652
"x6","~","eta4",0.684722143847898
"x6","~","x8",-0.582127414796951
"x1","~","eta2",-0.738498730615505
"x1","~","x6",-0.213430164406009
"eta1","~","x1",0.459530293986693
"x9","~","eta1",0.286659847426924
"eta4","~","x7",0.388037951441532
"x10","~","x6",0.777482099296566
"x2","~","x10",0.113137435663692
"x3","~","eta4",0.777715140442111
"x5","~","eta2",0.288492234963207
"x4","~","x7",0.648460605619294
"y1","~~","y1",1.99732512658492
"y2","~~","y2",0.655062885089413
"y3","~~","y3",0.475440988177532
"y4","~~","y4",1.02001123034776
"y6","~~","y6",0.280911275961811
"y7","~~","y7",0.923070609920132
"y8","~~","y8",0.573096223003153
"y10","~~","y10",0.97310038372423
"y9","~~","y9",0.159858674410658
"x8","~~","x8",0.604010373818094
"x6","~~","x6",0.793370988127607
"x1","~~","x1",0.70998947798391
"x9","~~","x9",0.202749438336468
"x10","~~","x10",1.05377658822699
"x2","~~","x2",0.0239418250479251
"x3","~~","x3",0.645134320045724
"x5","~~","x5",0.0875759528306941
"x4","~~","x4",0.410892303568394
"eta1","~~","eta1",0.464953211160917
"eta2","~~","eta2",1.53104536214072
"eta3","~~","eta3",1.70229831084701
"eta4","~~","eta4",0.139640487840392
"eta2","~~","eta3",0.000908163083317431
"x9","~~","x2",-0.00158930153409401
"x9","~~","x3",-0.029507267813199
"x9","~~","x5",0.0136051894035768
"x9","~~","x4",0.018064901804568
"x2","~~","x3",-0.000227216225344162
"x2","~~","x5",-0.00234291915166223
"x2","~~","x4",-0.00337483678367662
"x3","~~","x5",0.0045105187216312
"x3","~~","x4",-0.0262414279100035
"x5","~~","x4",-0.00185248999255013
"x7","~~","x7",1.51476977263198
