"lhs","op","rhs","est"
"eta1","=~","y2",0.823419156172108
"eta2","=~","y4",-0.856326109907897
"eta2","=~","y5",0.631811298293774
"eta3","=~","y7",0.321639606668675
"eta3","=~","y8",-0.779866475085518
"eta4","=~","y9",-0.416101135957668
"x9","~","eta4",-0.150379159511901
"x9","~","x2",0.282039347459975
"x9","~","x5",0.496868485159596
"x10","~","x3",0.455989616435578
"x10","~","x6",-0.131028959859202
"x10","~","x9",0.375668143999748
"eta1","~","x5",-0.408724843347411
"eta2","~","x5",-0.776066688599284
"x4","~","eta2",-0.596642520963635
"x8","~","eta3",0.16356706930363
"x8","~","x5",-0.453941232831998
"x1","~","x8",-0.941831181510328
"x7","~","x5",-0.252977567895481
"y1","~~","y1",0.99169294771619
"y2","~~","y2",1.5718723568878
"y3","~~","y3",0.695979824560674
"y4","~~","y4",0.8302898211219
"y5","~~","y5",0.383246133005942
"y7","~~","y7",0.0882790121040378
"y8","~~","y8",0.512701212315395
"y10","~~","y10",1.19086175852188
"y9","~~","y9",0.0569113042303802
"x9","~~","x9",0.343140608169517
"x10","~~","x10",0.679576719525638
"x4","~~","x4",0.535934954456713
"x8","~~","x8",0.20364636197055
"x1","~~","x1",1.19932709499802
"x7","~~","x7",0.06581668901882
"eta1","~~","eta1",0.154914110733187
"eta2","~~","eta2",0.422170427790251
"eta3","~~","eta3",1.47296814924646
"eta4","~~","eta4",1.39513968992837
"eta3","~~","eta4",0.0887689389912998
"eta1","~~","x10",-0.0417177630252035
"eta1","~~","x4",-0.0486342326736526
"eta1","~~","x1",0.0127355955666904
"eta1","~~","x7",-0.00490596249436102
"x10","~~","x4",-0.010749364743571
"x10","~~","x1",-0.0698586125395923
"x10","~~","x7",0.00542461594281338
"x4","~~","x1",-0.0340593432603335
"x4","~~","x7",-0.00979014468016943
"x1","~~","x7",-0.0125541729074734
"x2","~~","x2",1.48055921109475
"x2","~~","x5",0.111458716301327
"x2","~~","x3",-0.101541708804872
"x2","~~","x6",-0.00312699067793699
"x5","~~","x5",1.52110403131178
"x5","~~","x3",0.0556717923297598
"x5","~~","x6",-0.0788068073616926
"x3","~~","x3",1.49711881490116
"x3","~~","x6",0.0256146798815332
"x6","~~","x6",1.47594183459086
