"lhs","op","rhs","est"
"eta1","=~","y2",-1.04305590150788
"eta2","=~","y4",0.131924894921223
"eta3","=~","y6",0.608851288743514
"eta4","=~","y8",-0.784886080252987
"eta1","~","x8",-0.112307685175415
"eta3","~","eta1",-0.466606824094293
"eta3","~","x2",0.284073094571358
"eta2","~","eta3",0.28190721367967
"eta2","~","x1",-0.247779024924059
"eta2","~","x4",-0.693594136686417
"eta2","~","x5",-0.268149496375123
"eta2","~","x9",0.569988520246625
"x7","~","eta2",0.009861159950621
"x3","~","eta1",-1.13215602405978
"x10","~","x6",-0.200379531117071
"x2","~","x10",-0.571811033753604
"x1","~","eta4",0.357413079327214
"y1","~~","y1",0.859980396175182
"y2","~~","y2",1.10840735982123
"y3","~~","y3",5.61390668983691
"y4","~~","y4",0.0560499700883648
"y5","~~","y5",2.09683554693012
"y6","~~","y6",0.651147128217324
"y7","~~","y7",0.976478937526294
"y8","~~","y8",0.823959523739728
"x7","~~","x7",0.0727908136603107
"x3","~~","x3",0.866674406163986
"x10","~~","x10",0.0375989985967618
"x2","~~","x2",0.352477939209607
"x1","~~","x1",0.116145171039127
"eta1","~~","eta1",-0.00220215965411725
"eta2","~~","eta2",1.18438248989127
"eta3","~~","eta3",0.144627603838889
"eta4","~~","eta4",1.93906244144003
"x7","~~","x3",-0.00391825316172212
"x8","~~","x8",1.63849329952723
"x8","~~","x4",0.0263055273027245
"x8","~~","x5",-0.0647424770720513
"x8","~~","x9",-0.00455273734696796
"x8","~~","x6",0.0658699306606808
"x4","~~","x4",1.60659405935899
"x4","~~","x5",-0.142112032203985
"x4","~~","x9",0.0576374419835154
"x4","~~","x6",0.0261392691022959
"x5","~~","x5",1.55070429861534
"x5","~~","x9",-0.0235444014537161
"x5","~~","x6",0.0174669832745161
"x9","~~","x9",1.45532578410882
"x9","~~","x6",-0.0496196394974184
"x6","~~","x6",1.56087714011753
