lhs,op,rhs,est
eta1,~,x5,0.24845115528218828
eta2,~,eta6,-0.5501123361610815
eta4,~,eta5,7.387411629796081
eta4,~,eta8,-0.19531427256321
eta4,~,x1,0.7110392746513491
eta4,~,x3,-1.1137287724003577
x1,~,x6,0.35380087489385215
x1,~,x8,-0.10644034015892505
x3,~,eta3,0.5222968636565756
x3,~,x10,0.4608755293216849
x6,~,eta4,0.20406713555100903
x6,~,x2,-0.8410885586987552
x7,~,eta6,0.8024206515592825
x7,~,eta8,-0.763033123360237
x7,~,x4,0.2313820835290887
x8,~,eta7,0.8242172061490242
x8,~,x5,1.0170928811001836
x9,~,x3,-0.4789944077889989
eta5,=~,y12,0.21458530526793615
eta6,=~,y14,0.2844732253955161
eta6,=~,y15,-0.7741139423316123
eta7,=~,y17,0.21447329804505083
eta7,=~,y18,-0.8561597172436208
eta1,=~,y2,-0.4180839451175295
eta8,=~,y20,0.2705149705670108
eta1,=~,y3,-1.084552725455209
eta2,=~,y5,-0.980150402532248
eta3,=~,y6,0.4066274734279555
eta5,=~,y8,2.814764691589263
eta4,=~,y9,-0.1582366626064489
eta1,~~,eta1,0.0798942155280351
eta1,~~,eta2,0.003407296039163328
eta1,~~,x7,-0.11593256419992294
eta1,~~,x9,-0.024473033921228102
eta2,~~,eta2,0.32457395950147083
eta2,~~,x7,-0.014381350275504844
eta2,~~,x9,0.07877042553322205
eta3,~~,eta3,1.3802764218270307
eta3,~~,eta5,0.10996346237424877
eta3,~~,eta6,-0.062002347101522554
eta3,~~,eta7,0.07553371169307255
eta3,~~,eta8,0.02098015753275681
eta4,~~,eta4,0.727603320249716
eta5,~~,eta5,0.024985951128926265
eta5,~~,eta6,0.012054652268060354
eta5,~~,eta7,0.031719409254443526
eta5,~~,eta8,-0.07323288917710892
eta6,~~,eta6,1.719935551687604
eta6,~~,eta7,-0.1526920656337536
eta6,~~,eta8,-0.10599385687241145
eta7,~~,eta7,1.736316836714391
eta7,~~,eta8,-0.05395458671235213
eta8,~~,eta8,1.6262048448217024
x1,~~,x1,0.10513967347594608
x3,~~,x3,0.22321504501907724
x6,~~,x6,0.5203122471546497
x7,~~,x7,1.5362688769082211
x7,~~,x9,0.07461359040568617
x8,~~,x8,1.2974487578390081
x9,~~,x9,0.4099776688803986
y1,~~,y1,1.0304812013604419
y10,~~,y10,2.481822901964717
y12,~~,y12,0.10641728776488893
y13,~~,y13,0.9206116400103705
y14,~~,y14,0.09424492168468007
y15,~~,y15,0.6423381267221997
y16,~~,y16,1.0026216855652546
y17,~~,y17,0.052244658175683245
y18,~~,y18,0.8290778493523003
y19,~~,y19,0.973098299382281
y2,~~,y2,0.14186993930650948
y20,~~,y20,0.07431548668362328
y3,~~,y3,1.1291882523663872
y4,~~,y4,2.2993229503060593
y5,~~,y5,0.9640710598436026
y6,~~,y6,0.14881064688641882
y8,~~,y8,3.935270535757499
y9,~~,y9,0.0724995599120182
