"lhs","op","rhs","est"
"eta1","=~","y2",0.304068475750455
"eta2","=~","y4",0.851692157630201
"x1","~","x2",-0.54559654196518
"x5","~","eta2",-0.722859666937612
"x5","~","x1",-0.569907602399704
"x5","~","x7",0.429553984382583
"x4","~","x9",1.01462583343961
"x10","~","x4",0.956416843458517
"x10","~","x8",-0.80778201419897
"x7","~","x10",0.173063696382295
"x3","~","eta1",0.817593698183266
"x3","~","x10",-0.413268309683458
"x6","~","x1",-0.556731657791216
"y1","~~","y1",1.10974081571689
"y2","~~","y2",0.0731010339144159
"y3","~~","y3",0.935174181068342
"y4","~~","y4",0.654184209678737
"x1","~~","x1",0.263654053211683
"x5","~~","x5",1.29832501815167
"x4","~~","x4",1.05202828809876
"x10","~~","x10",1.73151491257091
"x7","~~","x7",0.146299730107294
"x3","~~","x3",1.62911497313107
"x6","~~","x6",0.306975313517797
"eta1","~~","eta1",1.4661678890381
"eta2","~~","eta2",1.75194374866328
"eta1","~~","eta2",0.148063898610489
"x5","~~","x3",-0.0846462162280575
"x5","~~","x6",0.0336870321910764
"x3","~~","x6",-0.0302446191130979
