"lhs","op","rhs","est"
"eta1","=~","y2",0.429516764581331
"eta2","=~","y4",0.45120506003273
"x3","~","x1",-0.237750798620079
"x3","~","x9",-0.812381254465798
"eta1","~","x9",-0.863067826341033
"x2","~","eta1",-0.285611656421162
"x4","~","x2",0.776307414697981
"x1","~","eta2",1.12098017387244
"x10","~","x1",-0.152054138560164
"x10","~","x6",0.927945474300035
"x5","~","x9",-0.161468626451013
"x7","~","x1",0.353653613409531
"x8","~","x9",-0.380310696952074
"y1","~~","y1",0.866951738380683
"y2","~~","y2",0.187504886674948
"y3","~~","y3",0.921585058504026
"y4","~~","y4",0.205354986717994
"x3","~~","x3",0.619208788864588
"x2","~~","x2",0.0981988261449763
"x4","~~","x4",0.817847353471566
"x1","~~","x1",1.21876115269758
"x10","~~","x10",0.901962411883732
"x5","~~","x5",0.0251386855338631
"x7","~~","x7",0.117779719034773
"x8","~~","x8",0.154095867988253
"eta1","~~","eta1",0.699360101849459
"eta2","~~","eta2",1.81590711981864
"x3","~~","x4",0.0133597357362152
"x3","~~","x10",-0.0174161696882926
"x3","~~","x5",-0.000780202814479866
"x3","~~","x7",-0.0204917836100117
"x3","~~","x8",0.00907157068120569
"x4","~~","x10",0.0183341537843005
"x4","~~","x5",0.00480610840377196
"x4","~~","x7",0.0180194113090917
"x4","~~","x8",0.0124756493527883
"x10","~~","x5",-0.00257345861936778
"x10","~~","x7",0.0224993536062005
"x10","~~","x8",-0.000703492951309126
"x5","~~","x7",-0.0013242312420594
"x5","~~","x8",-0.00500150623268718
"x7","~~","x8",0.00545739078820335
