"lhs","op","rhs","est"
"eta1","=~","y2",-0.751919187240208
"eta2","=~","y4",-0.922610625884431
"eta1","~","eta2",0.229614984035028
"eta1","~","x10",0.850526110786478
"x9","~","eta1",0.0373882297283192
"x9","~","x7",0.976030695903221
"x5","~","x9",-0.225314299454324
"x2","~","x5",1.0967508803247
"x6","~","eta1",-0.599868394249377
"x3","~","x5",0.929056640158438
"x8","~","x3",-0.642933845708913
"x4","~","x5",-0.207891471149096
"x1","~","eta2",-0.423570877270341
"y1","~~","y1",1.88710460651332
"y2","~~","y2",1.14689086835702
"y3","~~","y3",0.856975827596124
"y4","~~","y4",0.900535883313109
"x9","~~","x9",2.4230991240205
"x5","~~","x5",0.882459883023227
"x2","~~","x2",1.20833535184949
"x6","~~","x6",0.616258293106003
"x3","~~","x3",0.797401385279543
"x8","~~","x8",0.439651569279775
"x4","~~","x4",0.0430901425201127
"x1","~~","x1",0.208589210661411
"eta1","~~","eta1",0.859428616425311
"eta2","~~","eta2",1.85291195712809
"x2","~~","x6",-0.00874083771172566
"x2","~~","x8",0.0857106923222904
"x2","~~","x4",0.00300477302501501
"x2","~~","x1",0.0240009328087032
"x6","~~","x8",0.00585437484175276
"x6","~~","x4",0.00387623174145574
"x6","~~","x1",-0.0179688979767576
"x8","~~","x4",0.00284589753452209
"x8","~~","x1",-0.00698144291034479
"x4","~~","x1",0.00177856217581959
