"lhs","op","rhs","est"
"eta1","=~","y2",1.08708927881126
"eta2","=~","y4",0.762155905307041
"eta2","=~","y5",-0.432684331239114
"x6","~","x10",-0.171256566444183
"x6","~","x5",-0.784991526671893
"x6","~","x8",-0.516288628314451
"eta1","~","x3",0.435772506498814
"eta1","~","x6",0.043630885658218
"eta2","~","eta1",0.671393671396021
"eta2","~","x4",0.393641430691959
"x2","~","eta2",-0.632379461814727
"x3","~","x1",-0.339558055967817
"x9","~","eta1",0.270821088518746
"x7","~","x5",0.199266358849426
"y1","~~","y1",2.18457852355328
"y2","~~","y2",1.22391109627169
"y3","~~","y3",2.95560259166335
"y4","~~","y4",0.996281295039925
"y5","~~","y5",0.402767302648611
"x6","~~","x6",0.934731969073859
"x2","~~","x2",2.0459593310133
"x3","~~","x3",0.112203644007662
"x9","~~","x9",0.138623726692153
"x7","~~","x7",0.0385587939128037
"eta1","~~","eta1",0.862269005940645
"eta2","~~","eta2",0.695545794848621
"x2","~~","x9",-0.0186382962607861
"x2","~~","x7",0.0110785439279398
"x9","~~","x7",0.00427997794335772
