"lhs","op","rhs","est"
"eta1","=~","y2",0.696989575679833
"eta2","=~","y4",0.677292267277171
"eta2","=~","y5",0.730922695926783
"x3","~","x7",0.585804613020613
"eta1","~","x3",0.499990981440475
"eta1","~","x6",0.312714744144069
"eta2","~","eta1",0.434150253112532
"x8","~","eta2",-0.904411089658602
"x8","~","x5",0.382600071038675
"x9","~","x8",-0.646535360012859
"x2","~","x7",0.85531199323875
"x1","~","x2",-0.780909600839157
"x4","~","eta2",0.949878358482993
"x10","~","x3",-0.152368172149223
"y1","~~","y1",1.9362206359853
"y2","~~","y2",0.683463359481371
"y3","~~","y3",1.01091797813243
"y4","~~","y4",0.527788605935055
"y5","~~","y5",0.415131222861368
"x3","~~","x3",0.296324359853371
"x8","~~","x8",0.734321814263529
"x9","~~","x9",0.665367756892631
"x2","~~","x2",0.698673766044705
"x1","~~","x1",0.599958082393683
"x4","~~","x4",0.78268744692634
"x10","~~","x10",0.0276190792543589
"eta1","~~","eta1",0.333333454147901
"eta2","~~","eta2",0.901520316491327
"x9","~~","x1",-0.00769937270373081
"x9","~~","x4",-0.0135244724603998
"x9","~~","x10",0.00104765399418476
"x1","~~","x4",-0.0434870910556953
"x1","~~","x10",-0.0030165068575629
"x4","~~","x10",-0.00343247878826298
