"lhs","op","rhs","est"
"eta1","=~","y2",-0.452093843813996
"eta2","=~","y4",-0.872528393053201
"eta2","=~","y5",-0.955013087256331
"x6","~","eta2",-0.578249803059114
"x1","~","x6",0.117736738991784
"x5","~","x1",0.966628719948331
"x5","~","x10",-0.734313626953215
"x2","~","x3",-0.260654206318116
"x2","~","x7",-0.828567607550022
"x10","~","x2",-0.803831668118785
"x3","~","x10",0.449641875809895
"x8","~","x10",0.669399690589893
"eta1","~","x7",-1.00541012874467
"x9","~","eta1",1.08253094397649
"x4","~","x7",1.02218889990522
"y1","~~","y1",0.917030368621914
"y2","~~","y2",0.223828201602954
"y3","~~","y3",0.926595754516701
"y4","~~","y4",0.985775263193259
"y5","~~","y5",1.16491508735311
"x6","~~","x6",0.517138372398044
"x1","~~","x1",0.0151659478881451
"x5","~~","x5",1.08386308888175
"x2","~~","x2",0.77807381923411
"x10","~~","x10",0.708745298852086
"x3","~~","x3",0.191855058444421
"x8","~~","x8",0.422698430406999
"x9","~~","x9",0.981007418287153
"x4","~~","x4",1.05326462644062
"eta1","~~","eta1",1.20626450139527
"eta2","~~","eta2",1.84572466977867
"x5","~~","x8",0.0304171547359573
"x5","~~","x9",0.0226401303411985
"x5","~~","x4",0.0353987758418927
"x8","~~","x9",-0.00562803976671375
"x8","~~","x4",-0.00761545388631904
"x9","~~","x4",-0.053865334879965
"x7","~~","x7",1.62977878276386
