"lhs","op","rhs","est"
"eta1","=~","y2",0.366041930479183
"eta1","=~","y3",-0.613385814376251
"eta2","=~","y5",0.128998924618698
"eta2","=~","y6",-0.686599773088992
"x6","~","x1",-0.682767552638025
"x6","~","x3",-0.77088295576618
"x6","~","x5",-0.200955386322008
"x7","~","x2",-0.33096329653738
"x7","~","x6",0.00916546334375202
"eta2","~","x7",0.166833221747392
"x10","~","x6",0.00283342085299325
"x10","~","x9",0.18768901420023
"eta1","~","x10",-0.103168115506422
"x8","~","x6",0.00889839187482041
"x4","~","x8",0.404584178262035
"x3","~","x7",0.388811590617165
"y1","~~","y1",1.05491813939998
"y2","~~","y2",0.128667476858497
"y3","~~","y3",0.0452362242724001
"y4","~~","y4",0.899091982260319
"y5","~~","y5",0.0251899151850997
"y6","~~","y6",0.870337815990368
"x6","~~","x6",1.51005715137396
"x7","~~","x7",0.559761668099573
"x10","~~","x10",0.0492361171486502
"x8","~~","x8",0.0119988548360026
"x4","~~","x4",0.195978202371633
"x3","~~","x3",0.31873340099472
"eta1","~~","eta1",0.0506302202146586
"eta2","~~","eta2",0.0591644402022833
"eta1","~~","eta2",-0.00444735051400604
"eta1","~~","x4",0.0042972787974004
"eta2","~~","x4",0.00316138464695044
"x1","~~","x1",1.65784004089092
"x1","~~","x5",0.0831740905354278
"x1","~~","x2",-0.0244705181225659
"x1","~~","x9",0.0080545467645876
"x5","~~","x5",1.33416642117387
"x5","~~","x2",0.00711421429887616
"x5","~~","x9",0.0257244737736276
"x2","~~","x2",1.5399313064722
"x2","~~","x9",0.00632658785678461
"x9","~~","x9",1.45662184224481
