"lhs","op","rhs","est"
"eta1","=~","y2",0.940736689234549
"eta1","=~","y3",0.722387991149256
"eta2","=~","y5",0.372125832257467
"x6","~","eta1",-1.04486394808344
"x6","~","x4",-0.351877496061224
"x6","~","x7",-1.2149375057841
"x6","~","x8",0.745805369427766
"x6","~","x9",-0.560261810044667
"x2","~","eta2",0.24697661686186
"x2","~","x6",0.138047753517273
"x5","~","x10",-0.470824910689634
"x5","~","x2",-0.171013830749627
"x1","~","x8",-0.101441880099815
"x3","~","x1",0.919896023222206
"x7","~","x2",-0.708832146815115
"y1","~~","y1",0.867664191941398
"y2","~~","y2",1.00584051807132
"y3","~~","y3",0.545255972077324
"y4","~~","y4",0.600699371357133
"y5","~~","y5",0.279630948584858
"x6","~~","x6",2.97272861606117
"x2","~~","x2",0.90093939898791
"x5","~~","x5",0.253240141663708
"x1","~~","x1",0.00994257980396158
"x3","~~","x3",0.968101662662676
"x7","~~","x7",0.719239535581278
"eta1","~~","eta1",1.57161563716027
"eta2","~~","eta2",1.79263677422344
"eta1","~~","eta2",0.054460362148295
"x5","~~","x3",0.00890351026396762
"x4","~~","x4",1.6445236006423
"x4","~~","x8",-0.000169297041295361
"x4","~~","x9",0.0275388119758711
"x4","~~","x10",0.0819902814779291
"x8","~~","x8",0.892718630546566
"x8","~~","x9",-0.134721873161663
"x8","~~","x10",-0.203493955542298
"x9","~~","x9",1.49351638100597
"x9","~~","x10",-0.0636714426725127
"x10","~~","x10",1.60779802484317
