"lhs","op","rhs","est"
"eta1","=~","y2",0.816055451182167
"eta1","=~","y3",-0.296398609660464
"eta2","=~","y5",-0.442516247665333
"x10","~","x3",-0.442590744158718
"x10","~","x9",0.71706995311544
"eta1","~","x10",-0.334736604297497
"x2","~","x10",-0.170308342889815
"x6","~","x2",0.548758172291117
"x6","~","x5",-0.576705797815443
"x1","~","x2",-0.731287289737087
"x1","~","x4",-0.617180943635864
"eta2","~","x1",-0.348756125768789
"x9","~","x2",-0.372933137551778
"x7","~","x3",-0.401678056407987
"x8","~","x3",-1.04008677768175
"y1","~~","y1",0.931861290750223
"y2","~~","y2",0.900558686291799
"y3","~~","y3",0.199695007085894
"y4","~~","y4",1.68085746522925
"y5","~~","y5",0.511775016007956
"x10","~~","x10",0.632762378062451
"x2","~~","x2",0.146436572169627
"x6","~~","x6",0.492251000981053
"x1","~~","x1",0.924140369750717
"x9","~~","x9",0.219683558287096
"x7","~~","x7",0.18818963905154
"x8","~~","x8",1.09523771688344
"eta1","~~","eta1",0.578021001630972
"eta2","~~","eta2",0.405082051242061
"eta1","~~","eta2",-0.0707425448614725
"eta1","~~","x6",0.0113621494039806
"eta1","~~","x7",-0.0114473896532387
"eta1","~~","x8",0.0103058943410001
"eta2","~~","x6",0.0296737904056479
"eta2","~~","x7",0.0212028750699888
"eta2","~~","x8",-0.031304066515439
"x6","~~","x7",-0.0202357835980567
"x6","~~","x8",0.0350542536473415
"x7","~~","x8",-0.0235225938150694
"x3","~~","x3",1.35490998304257
"x3","~~","x5",0.0951385539096811
"x3","~~","x4",0.0965436918778806
"x5","~~","x5",1.50696146477796
"x5","~~","x4",-0.0148031261632339
"x4","~~","x4",1.63277503326547
