"lhs","op","rhs","est"
"eta1","=~","y2",0.868071592345053
"eta1","=~","y3",1.13777288060033
"eta2","=~","y5",-1.06143447886495
"eta2","=~","y6",0.69869056610967
"x7","~","x4",0.3636536245536
"x7","~","x6",-1.01188078474367
"x9","~","x1",-0.50341183758208
"x9","~","x10",-0.603579709235087
"x9","~","x7",-0.144844876445621
"x3","~","eta2",-0.391515128567734
"x3","~","x10",-0.73454649409109
"eta1","~","x3",1.05363533537011
"x8","~","eta1",-0.28992673186562
"x2","~","x3",-0.291108481853764
"x5","~","x10",0.329679804340452
"eta2","~","eta1",1.1222053403762
"y1","~~","y1",0.945936888234607
"y2","~~","y2",0.687103244832572
"y3","~~","y3",1.11982817421302
"y4","~~","y4",0.940447311703106
"y5","~~","y5",0.996362424097622
"y6","~~","y6",0.530363610483283
"x7","~~","x7",1.11259007926939
"x9","~~","x9",0.54149634365418
"x3","~~","x3",0.611311298464211
"x8","~~","x8",0.116274829186077
"x2","~~","x2",0.0752008441755536
"x5","~~","x5",0.0910144545602648
"eta1","~~","eta1",1.18187894230497
"eta2","~~","eta2",0.965512986464493
"x9","~~","x8",0.00609158333487742
"x9","~~","x2",0.00239373773120435
"x9","~~","x5",0.00700020758281788
"x8","~~","x2",0.0132719780788601
"x8","~~","x5",-0.00123092574371261
"x2","~~","x5",0.0013145686431724
"x4","~~","x4",1.67290704423046
"x4","~~","x6",-0.0982463853155658
"x4","~~","x1",0.0408653084309584
"x4","~~","x10",-0.0746849561909556
"x6","~~","x6",1.56846526741
"x6","~~","x1",-0.0223258277108379
"x6","~~","x10",-0.0942358184750707
"x1","~~","x1",1.56976828394592
"x1","~~","x10",-0.124083120494044
"x10","~~","x10",1.39368998931825
