"lhs","op","rhs","est"
"eta1","=~","y2",-0.119468312421675
"eta2","=~","y4",0.215234907010525
"x6","~","eta2",0.631801151483469
"x6","~","x4",-0.179150868252299
"x6","~","x8",-0.253541391051483
"eta1","~","x6",0.49463491009144
"x1","~","x10",0.604712637876724
"x1","~","x8",0.251487640543469
"x3","~","x1",0.276852074486439
"x8","~","x3",-0.652143905391158
"x5","~","x9",-0.564657647984062
"x4","~","x5",0.324354225260693
"x7","~","x4",-1.05759740315614
"x2","~","x1",-0.677743193124389
"y1","~~","y1",2.59473610921812
"y2","~~","y2",0.0647042891197049
"y3","~~","y3",0.816278688034753
"y4","~~","y4",0.0621007293552723
"x6","~~","x6",0.587383158371327
"x1","~~","x1",0.378894572851677
"x3","~~","x3",0.0824940289743294
"x8","~~","x8",0.263957843195683
"x5","~~","x5",0.297618491265786
"x4","~~","x4",0.0997772619758726
"x7","~~","x7",0.929848488315257
"x2","~~","x2",0.544749346716852
"eta1","~~","eta1",1.11939922089357
"eta2","~~","eta2",1.93245566331218
"eta1","~~","x7",0.0267955628879324
"eta1","~~","x2",0.0337982619594762
"x7","~~","x2",-0.0165249148213898
"x10","~~","x10",1.60165314196916
"x10","~~","x9",-0.0361960147650232
"x9","~~","x9",1.61758892386553
