"lhs","op","rhs","est"
"eta1","=~","y2",-0.770369158261503
"eta2","=~","y4",0.153340091939407
"eta2","=~","y5",0.290571589338324
"x9","~","x2",-0.751795831712623
"eta1","~","x10",0.521877849539054
"eta1","~","x4",-0.00494736686300533
"eta1","~","x9",0.288418975818535
"x6","~","eta1",0.0321770623304854
"x3","~","eta1",-0.0844098208704461
"x3","~","x7",0.440211023415899
"x4","~","x3",0.343579433734785
"x1","~","x4",0.829417648589717
"x5","~","x8",0.481742175292636
"x5","~","x9",-0.937596000936808
"eta2","~","x10",-0.265119527763426
"y1","~~","y1",2.10741885566877
"y2","~~","y2",1.25817396470671
"y3","~~","y3",0.822295351899377
"y4","~~","y4",0.0273000786334993
"y5","~~","y5",0.127118233846237
"x9","~~","x9",0.641683841490303
"x6","~~","x6",0.0579107261658209
"x3","~~","x3",1.07210684829687
"x4","~~","x4",0.226085259903175
"x1","~~","x1",0.81520782210288
"x5","~~","x5",0.936183896549222
"eta1","~~","eta1",0.194466881001115
"eta2","~~","eta2",0.115275119025191
"eta2","~~","x6",0.00437524566509893
"eta2","~~","x1",0.0708413133505021
"eta2","~~","x5",0.0192148414975756
"x6","~~","x1",-0.00429945536799108
"x6","~~","x5",0.0180261380017799
"x1","~~","x5",-0.0412340941254307
"x2","~~","x2",1.45409601747216
"x2","~~","x10",-0.108674041425172
"x2","~~","x7",0.0888394679262027
"x2","~~","x8",-0.0099678081635908
"x10","~~","x10",1.67222404199384
"x10","~~","x7",0.0254532158672379
"x10","~~","x8",-0.0548867369312938
"x7","~~","x7",1.4770508386466
"x7","~~","x8",0.113347513497778
"x8","~~","x8",1.77646023335135
