"lhs","op","rhs","est"
"eta1","=~","y2",-0.723892191312264
"eta2","=~","y4",-0.842007889113033
"eta2","=~","y5",-0.987400812025025
"x7","~","x4",-1.72335739753617
"x7","~","x8",-0.52468633351183
"x10","~","x7",0.387729464797152
"x4","~","x10",0.504074442277616
"x5","~","x2",-0.45708356273054
"x5","~","x4",0.846453594942363
"x9","~","x3",0.490093139447866
"x9","~","x4",-0.333639649481972
"x1","~","x6",0.548408993383868
"x1","~","x9",-0.0714590537386732
"eta1","~","eta2",-0.25202898171025
"eta1","~","x9",-0.0470988758425801
"y1","~~","y1",1.58149192969097
"y2","~~","y2",2.32194264082298
"y3","~~","y3",0.939299326003674
"y4","~~","y4",0.705590867179067
"y5","~~","y5",0.841993984988967
"x7","~~","x7",1.08747410981058
"x10","~~","x10",0.652365908561986
"x4","~~","x4",0.12892219720877
"x5","~~","x5",0.759357707157871
"x9","~~","x9",0.339790381143915
"x1","~~","x1",0.438572856713333
"eta1","~~","eta1",0.459009861826616
"eta2","~~","eta2",1.68761557679889
"eta1","~~","x5",-0.0649393776265453
"eta1","~~","x1",-0.127773736841282
"x5","~~","x1",0.0167064178599058
"x8","~~","x8",1.36780752103366
"x8","~~","x2",-0.0194139774556668
"x8","~~","x3",-0.101363595470716
"x8","~~","x6",-0.0284047473899572
"x2","~~","x2",1.57608910944398
"x2","~~","x3",0.0148385913480475
"x2","~~","x6",-0.0744505702943963
"x3","~~","x3",1.65711594717377
"x3","~~","x6",0.0280242835199598
"x6","~~","x6",1.449407941474
