"lhs","op","rhs","est"
"eta1","=~","y2",-0.23087666878393
"eta1","=~","y3",-0.548532096202941
"eta2","=~","y5",0.312419264909078
"eta2","=~","y6",1.00598773543523
"x8","~","x1",-0.295362917734749
"x8","~","x3",-0.492597298033537
"x7","~","x6",0.0647592196086077
"x7","~","x8",-0.0647815069543472
"eta1","~","x7",0.260105195246519
"x2","~","eta1",0.7603774580884
"eta2","~","x2",0.848557051903034
"x6","~","x4",-0.360715949883485
"x6","~","x9",0.548674774101183
"x5","~","x6",-0.159344460755564
"x10","~","x8",0.102756645107363
"x3","~","x10",-0.309096383651419
"y1","~~","y1",1.00954529992381
"y2","~~","y2",0.0462047002861539
"y3","~~","y3",0.31426700533189
"y4","~~","y4",0.839689672265564
"y5","~~","y5",0.107072291979851
"y6","~~","y6",0.991636346716952
"x8","~~","x8",0.30870463849819
"x7","~~","x7",0.0548798180326991
"x2","~~","x2",0.544254557375415
"x6","~~","x6",0.40257923738164
"x5","~~","x5",0.393090165048287
"x10","~~","x10",0.129326114067656
"x3","~~","x3",0.371707903215461
"eta1","~~","eta1",0.593340161909379
"eta2","~~","eta2",0.755198908779503
"eta2","~~","x5",-0.0323791259063053
"x1","~~","x1",1.45466751432905
"x1","~~","x4",0.0249629199353189
"x1","~~","x9",-0.053606419956714
"x4","~~","x4",1.20500399204369
"x4","~~","x9",-0.272496339776604
"x9","~~","x9",1.45373991380505
