"lhs","op","rhs","est"
"x1","~","x7",0.144201902704168
"x10","~","x1",0.261861996621771
"x10","~","x2",-0.65790230387605
"x6","~","x2",0.294857498837329
"x9","~","x1",-0.875372988657903
"x4","~","x5",0.781296900787766
"x4","~","x9",-0.712355579552758
"x8","~","x7",0.868531897347136
"x3","~","x1",0.691043230485111
"x1","~~","x1",0.0198296140753082
"x10","~~","x10",0.493900727162192
"x6","~~","x6",0.0740523268137916
"x9","~~","x9",0.539644179862076
"x4","~~","x4",0.977970173307276
"x8","~~","x8",0.739172562272944
"x3","~~","x3",0.566109635420214
"x10","~~","x6",0.0200676143345622
"x10","~~","x4",-0.0161299843880512
"x10","~~","x8",-0.0532278209003656
"x10","~~","x3",0.0275192579198281
"x6","~~","x4",0.00341783853202889
"x6","~~","x8",0.0237450326039131
"x6","~~","x3",0.00126810474007824
"x4","~~","x8",-0.052547830591605
"x4","~~","x3",-0.0235811135858119
"x8","~~","x3",-0.0788524524682395
"x7","~~","x7",1.55021270986292
"x7","~~","x2",-0.00528256983823559
"x7","~~","x5",-0.0238116368583044
"x2","~~","x2",1.67309870908898
"x2","~~","x5",0.0828077122422286
"x5","~~","x5",1.63596570119025
