"lhs","op","rhs","est"
"x10","~","x3",-0.110792145787696
"x10","~","x8",0.171133016061029
"x1","~","x10",-0.73670688662468
"x9","~","x10",0.482074801615494
"x3","~","x2",0.488973298858557
"x5","~","x7",1.00086886599801
"x5","~","x8",0.23109788187452
"x6","~","x3",-0.574849754827661
"x4","~","x7",-0.776664278464593
"x10","~~","x10",0.0446122814717742
"x1","~~","x1",0.63114693516348
"x9","~~","x9",0.424942338962866
"x3","~~","x3",0.210161951312861
"x5","~~","x5",0.905303942703475
"x6","~~","x6",0.35937276491616
"x4","~~","x4",0.512416946507286
"x1","~~","x9",0.00138424121244605
"x1","~~","x5",-0.0162308069543677
"x1","~~","x6",0.0271054416068972
"x1","~~","x4",-0.0618138846927631
"x9","~~","x5",0.0219898169395453
"x9","~~","x6",-0.00125112523129258
"x9","~~","x4",-0.00161228193854063
"x5","~~","x6",0.0475953448576213
"x5","~~","x4",-0.0133063610573053
"x6","~~","x4",0.0074386091848165
"x8","~~","x8",1.50875118482825
"x8","~~","x2",0.0646341862069962
"x8","~~","x7",0.0872554263182213
"x2","~~","x2",1.544806990645
"x2","~~","x7",0.0870851373354341
"x7","~~","x7",1.55317040512306
