"lhs","op","rhs","est"
"x4","~","x5",-0.320796059715791
"x8","~","x2",-0.93306903553793
"x8","~","x4",0.168551098478736
"x1","~","x10",-0.145664316731601
"x1","~","x8",0.0122162959426641
"x3","~","x1",0.463076345270407
"x2","~","x6",0.138292414088583
"x7","~","x5",0.0727328725801285
"x7","~","x9",-0.822991783629799
"x4","~~","x4",0.112678555705285
"x8","~~","x8",0.638319291407941
"x1","~~","x1",0.0981043310081335
"x3","~~","x3",0.758061113487846
"x2","~~","x2",0.0207347496939738
"x7","~~","x7",0.567555206988499
"x3","~~","x7",-0.0202874907636793
"x5","~~","x5",1.69500512229342
"x5","~~","x10",-0.0146805306944254
"x5","~~","x6",-0.0176246675000008
"x5","~~","x9",-0.0149424662048192
"x10","~~","x10",1.61825018223358
"x10","~~","x6",0.0376248742945669
"x10","~~","x9",0.00139868593521257
"x6","~~","x6",1.64224206530509
"x6","~~","x9",-0.00251324606212081
"x9","~~","x9",1.60819892016279
