"lhs","op","rhs","est"
"x1","~","x2",-0.790783985950099
"x3","~","x1",-0.354698068984269
"x8","~","x3",-0.294141258566471
"x8","~","x4",0.600436346810415
"x7","~","x5",0.424994494223483
"x7","~","x8",-0.0532110749465066
"x4","~","x10",1.08805548083099
"x9","~","x2",-0.600245108116057
"x6","~","x9",0.403644766298681
"x1","~~","x1",0.557146614698663
"x3","~~","x3",0.102045732639071
"x8","~~","x8",0.48399813984327
"x7","~~","x7",0.449046672450613
"x4","~~","x4",1.02225042152552
"x9","~~","x9",0.309588151176017
"x6","~~","x6",0.170414641695993
"x7","~~","x6",-0.014412428966469
"x2","~~","x2",1.6138669496167
"x2","~~","x5",0.0293865972129984
"x2","~~","x10",0.0763862348249983
"x5","~~","x5",1.53006009006689
"x5","~~","x10",0.0453693659174201
"x10","~~","x10",1.59697431976904
