"lhs","op","rhs","est"
"eta1","=~","y2",-0.389902141542115
"eta2","=~","y4",56683.0770121494
"eta2","=~","y5",-108912.981480732
"eta2","~","x3",-7.29926219460252e-07
"x5","~","eta2",-31387.0067457886
"x5","~","x1",0.337805482227929
"x5","~","x4",-1.04816753598794
"x2","~","x1",0.609117664957798
"eta1","~","x2",0.59628502384131
"y1","~~","y1",0.856910796841769
"y2","~~","y2",0.19408519663502
"y3","~~","y3",0.839943431568295
"y4","~~","y4",0.351444566517148
"y5","~~","y5",0.31881383102791
"x5","~~","x5",1.67423287265022
"x2","~~","x2",0.304770491040305
"eta1","~~","eta1",0.267220671417874
"eta2","~~","eta2",-1.0747917411711e-12
"eta1","~~","x5",-0.0712172651300551
"x3","~~","x3",1.42962468818013
"x3","~~","x1",0.0157878376940757
"x3","~~","x4",0.0243508875097451
"x1","~~","x1",1.63768127045518
"x1","~~","x4",-0.0413597871753263
"x4","~~","x4",1.63364210485474
