"lhs","op","rhs","est"
"eta1","=~","y2",-0.906432126858866
"eta1","=~","y3",1.03892173314874
"eta2","=~","y5",-0.421641819634287
"eta2","=~","y6",-0.165208990923357
"x4","~","eta1",0.623480409638462
"x4","~","x1",-1.14898353179769
"eta2","~","x4",-0.135909473741044
"x5","~","eta2",-0.976710163925253
"x3","~","x4",0.145854609866756
"x2","~","eta1",0.168453826083595
"y1","~~","y1",0.993637230830178
"y2","~~","y2",0.744011163129325
"y3","~~","y3",1.12928282863314
"y4","~~","y4",0.909003993399043
"y5","~~","y5",0.173919677466725
"y6","~~","y6",0.024722714046774
"x4","~~","x4",1.74324186200212
"x5","~~","x5",0.650610518171638
"x3","~~","x3",0.0388785911715069
"x2","~~","x2",0.021583916366557
"eta1","~~","eta1",1.00547610350497
"eta2","~~","eta2",0.252207977317963
"x5","~~","x3",0.00278930417878204
"x5","~~","x2",-0.0098639493878011
"x3","~~","x2",-0.000747631882985985
"x1","~~","x1",1.48752336725093
