"lhs","op","rhs","est"
"eta1","=~","y2",-0.756455085919571
"eta1","=~","y3",0.882308779701527
"eta2","=~","y5",0.118426546810769
"eta2","=~","y6",-0.0623041616907629
"x4","~","x3",-0.257999984514399
"x4","~","x5",0.366785189206611
"x1","~","eta1",-0.706712718899315
"x1","~","x4",-0.15401588166505
"x2","~","x1",0.855518215963515
"eta2","~","x5",0.152236206651436
"y1","~~","y1",0.902417206310179
"y2","~~","y2",0.622991677271792
"y3","~~","y3",0.696173317008404
"y4","~~","y4",1.01543299844279
"y5","~~","y5",0.0120525660782813
"y6","~~","y6",0.0181736150681332
"x4","~~","x4",0.226910152070368
"x1","~~","x1",0.634751797266428
"x2","~~","x2",2.15967751755768
"eta1","~~","eta1",1.82238726466193
"eta2","~~","eta2",0.117309889524522
"eta2","~~","x2",-0.0175858240600605
"x3","~~","x3",1.58099799399967
"x3","~~","x5",-0.0136136068491289
"x5","~~","x5",1.62593277405215
