"lhs","op","rhs","est"
"eta1","=~","y2",-0.564140450312483
"eta2","=~","y4",-0.36066035880233
"eta2","~","eta1",0.389015177207298
"eta2","~","x1",-0.578040674288065
"eta2","~","x3",-0.0845125553856078
"eta2","~","x4",-1.06079414693585
"x2","~","eta2",-0.387829036478196
"x5","~","x3",0.333342427618459
"y1","~~","y1",1.13222524334563
"y2","~~","y2",0.185203825705553
"y3","~~","y3",3.90024046298858
"y4","~~","y4",0.6062345989361
"x2","~~","x2",0.478029341096796
"x5","~~","x5",0.0961919395758904
"eta1","~~","eta1",1.19890537530251
"eta2","~~","eta2",1.71424781154342
"x2","~~","x5",0.00351895947133218
"x1","~~","x1",1.29268928020731
"x1","~~","x3",-0.00538111441601989
"x1","~~","x4",0.256551963996355
"x3","~~","x3",1.58436336055014
"x3","~~","x4",0.0115270553738139
"x4","~~","x4",1.35819221050887
