"lhs","op","rhs","est"
"eta1","=~","y2",-0.899314497502156
"eta1","=~","y3",-0.622708050455453
"eta2","=~","y5",0.633887932410037
"x2","~","x1",-0.703006832777035
"x5","~","eta2",-0.235761927223345
"x5","~","x2",-0.43841950767854
"x4","~","eta2",0.493187348918849
"x4","~","x3",0.952121720065404
"eta1","~","eta2",0.707409589948449
"y1","~~","y1",1.11911966830267
"y2","~~","y2",0.755014419165029
"y3","~~","y3",0.44361482229631
"y4","~~","y4",0.979169999509629
"y5","~~","y5",0.478427118628613
"x2","~~","x2",0.533057208245814
"x5","~~","x5",0.252542821553966
"x4","~~","x4",1.15768355204143
"eta1","~~","eta1",0.432562432132817
"eta2","~~","eta2",1.58779679439073
"eta1","~~","x5",0.0326614718220663
"eta1","~~","x4",-0.111422514814553
"x5","~~","x4",-0.00964313162420481
"x1","~~","x1",1.54180017101936
"x1","~~","x3",0.181358627701304
"x3","~~","x3",1.6220304445153
