"lhs","op","rhs","est"
"eta1","=~","y2",-0.707773251217568
"eta1","=~","y3",-0.179527790076763
"eta2","=~","y5",-0.265106294583972
"eta2","=~","y6",-1.06093432229889
"x2","~","x4",-0.826820442599301
"eta1","~","eta2",0.864048523915489
"eta1","~","x1",-0.338696776749733
"eta1","~","x2",-0.369912136075222
"x5","~","x2",0.3815928783927
"x5","~","x3",0.725768363506888
"y1","~~","y1",2.58897549701789
"y2","~~","y2",1.2598357773559
"y3","~~","y3",0.0705262662300216
"y4","~~","y4",0.909791952082263
"y5","~~","y5",0.0594584758402526
"y6","~~","y6",1.15786754115298
"x2","~~","x2",0.589465885758784
"x5","~~","x5",0.667593665156466
"eta1","~~","eta1",1.02684660336829
"eta2","~~","eta2",1.56525274296263
"eta1","~~","x5",-0.00227526774224002
"x4","~~","x4",1.54709539449571
"x4","~~","x1",-0.0328107191804041
"x4","~~","x3",-0.0474000599438864
"x1","~~","x1",1.65625637548547
"x1","~~","x3",-0.0478559294753627
"x3","~~","x3",1.60701927370718
