"lhs","op","rhs","est"
"eta1","=~","y2",1.054134225601
"eta1","=~","y3",0.61931282758531
"eta2","=~","y5",0.860385289353331
"eta2","=~","y6",-0.635657437613522
"x4","~","eta1",0.25904889933281
"x4","~","x5",-0.611992832482329
"x1","~","x4",-1.15355323991468
"x2","~","eta1",-1.19780843523868
"x3","~","x4",0.287648818239044
"eta2","~","x4",-0.301713409894574
"y1","~~","y1",0.964664952221231
"y2","~~","y2",1.03616686492429
"y3","~~","y3",0.307309598042018
"y4","~~","y4",2.24030096422047
"y5","~~","y5",0.890125240629584
"y6","~~","y6",1.16534562112735
"x4","~~","x4",0.349097518767292
"x1","~~","x1",2.27652583980821
"x2","~~","x2",1.28419215611295
"x3","~~","x3",0.190066832358775
"eta1","~~","eta1",1.48731488180496
"eta2","~~","eta2",0.139660448162793
"eta2","~~","x1",0.0802761808966569
"eta2","~~","x2",-0.081538538060901
"eta2","~~","x3",0.00313340250564208
"x1","~~","x2",0.150381080887782
"x1","~~","x3",-0.0226848151281631
"x2","~~","x3",0.00201807714519772
"x5","~~","x5",1.60809023726734
