"lhs","op","rhs","est"
"eta1","=~","y2",-1.08338588363387
"eta1","=~","y3",-1.23599382616294
"eta2","=~","y5",0.868928738111322
"eta2","=~","y6",-0.758423133375975
"x4","~","x2",-0.811020834022235
"x4","~","x5",0.702131310354466
"x1","~","x4",0.175566876641424
"x3","~","x1",0.720759268144143
"eta1","~","eta2",0.292502271021039
"eta1","~","x3",0.824083578763552
"y1","~~","y1",1.83280099184094
"y2","~~","y2",1.95387644601884
"y3","~~","y3",1.77593983218659
"y4","~~","y4",1.00745963310111
"y5","~~","y5",0.569007598118782
"y6","~~","y6",0.553174013240549
"x4","~~","x4",1.12548984804016
"x1","~~","x1",0.0995601040216214
"x3","~~","x3",0.446247478678822
"eta1","~~","eta1",0.934549287967784
"eta2","~~","eta2",1.36534308433622
"x2","~~","x2",1.28625850724094
"x2","~~","x5",-0.310175194599083
"x5","~~","x5",1.29210343262287
