lhs,op,rhs,est
x8,~,x6,0.5853730420715726
x1,~,x8,0.9506443589094854
x4,~,x2,0.1979111943045061
x4,~,x3,0.1734316137080814
x4,~,x6,0.6614950046105061
x7,~,x4,0.9935382162346355
x3,~,x7,0.7374294454813075
x3,~,x9,0.42077092848705566
x9,~,x5,1.0564397036390156
eta1,~,x10,-0.3860864042217078
eta1,~,x4,0.5997907213562151
eta1,=~,y2,-0.47534649755335656
