lhs,op,rhs,est
x8,~,x5,-0.4601440907420712
x8,~,x9,0.6807970345699919
x1,~,x10,-0.9050134082048373
x1,~,x8,0.3291383093943119
x6,~,x8,-0.6933377011377316
x7,~,x8,-0.6439156129545557
x9,~,x7,-0.19116422976140499
x3,~,x2,0.42061861129811917
x3,~,x8,-0.6093230208016829
x2,~,eta1,0.26334089560197155
x4,~,x10,0.8362052622879281
eta1,=~,y2,0.818979621770267
