lhs,op,rhs,est
x2,~,x4,-0.15353477135035737
x2,~,x7,-0.4982235502531627
x8,~,x10,0.7602413460951166
x8,~,x2,0.42719880488129763
x8,~,x6,0.6473316468894276
x1,~,x8,0.638665308649569
x6,~,eta1,0.5389745755348356
x6,~,x9,-0.7676400657990508
x3,~,x8,0.4776841432449352
x9,~,x3,0.5315047155093388
x5,~,x2,-0.3026270890883276
eta1,=~,y2,0.6891825566204596
