lhs,op,rhs,est
x5,~,x2,0.8280012516589675
x5,~,x4,-0.3623655473820776
x5,~,x6,-0.7683859950094155
eta1,~,x10,-0.13031215745996774
eta1,~,x2,0.308109714310196
x7,~,eta1,-0.5733248839425181
x7,~,x8,0.6726703005322932
x7,~,x9,0.7589140458445743
x6,~,x1,-0.2576577723715333
x3,~,x4,0.14427605180789344
eta1,=~,y2,-0.3670570663589833
eta1,=~,y3,0.5576781933116238
