lhs,op,rhs,est
x8,~,x3,-0.48964925281627664
x8,~,x9,-0.525150567325874
x7,~,x6,-0.12320084069351817
x7,~,x8,0.4766829151890112
x9,~,x7,1.0943930479309096
eta1,~,x5,0.716621953807487
eta1,~,x9,-0.5867733167179923
x4,~,eta1,-0.3712372716661904
x2,~,eta1,0.5588046255183137
x2,~,x1,0.12319405088635763
x5,~,x10,0.5343762251742257
eta1,=~,y2,-0.7647496570203234
eta1,=~,y3,-0.7076615091222265
