lhs,op,rhs,est
x2,~,eta1,-0.10511878950877906
x2,~,x3,1.0608259327842817
x2,~,x4,-0.9097370043077568
x2,~,x5,-0.14925316002411115
x2,~,x7,0.43707382656392857
x6,~,x2,0.7580482497641344
x3,~,x6,-1.0370954038439542
x1,~,x2,0.8132093653945375
x10,~,x5,0.4147279149437812
eta1,~,x8,-0.9658712133307419
x9,~,x5,-0.5856216675425444
eta1,=~,y2,-0.42570778393808006
