lhs,op,rhs,est
x10,~,eta1,-0.7832610370758776
x8,~,x10,0.770789587273118
x8,~,x4,-0.3244793997691779
x1,~,eta1,-0.1569832953862319
x9,~,x1,0.7624681714923198
x7,~,x1,0.35430598882894415
x6,~,x10,0.7943304990824274
x2,~,x10,-0.5052812648010749
x5,~,x1,0.6124951686777035
x5,~,x3,-1.0988769533194782
eta1,=~,y2,0.14663563171970553
