lhs,op,rhs,est
eta1,~,x1,-0.18785475765599532
eta1,~,x7,-0.5396131713466585
eta2,~,x8,1.4145611402363014
eta2,~,x10,-0.7001318449647246
eta2,~,x5,0.10682630035445297
eta4,~,x1,-1.061632491262149e-05
x1,~,eta3,-0.5944501368553907
x1,~,x2,0.02100070577829498
x2,~,eta2,0.008425830126511595
x2,~,x4,1.097254263702536
x3,~,x10,0.7006227743381743
x6,~,x4,-0.941772490177721
x8,~,eta4,5598.854221421848
x9,~,eta4,-11.559163825434329
eta4,=~,y11,-2504.081826327978
eta1,=~,y2,0.1984693520185229
eta1,=~,y3,-0.28288204669288397
eta3,=~,y7,-0.6851949983354569
eta2,=~,y8,1.2784862481792605
eta3,=~,y8,0.1713260277706118
eta4,=~,y9,1472.6581511888921
eta1,~~,eta1,1.0407433757631313
eta1,~~,x3,-0.005001251004481936
eta1,~~,x6,0.12208418894359538
eta1,~~,x9,-0.022154921972818837
eta2,~~,eta2,0.12876740060169464
eta3,~~,eta3,1.7308690259658823
eta4,~~,eta4,1.0579677388295221e-09
x1,~~,x1,0.8179464990172615
x2,~~,x2,1.1013972477931095
x3,~~,x3,0.4589120913980999
x3,~~,x6,0.015911453276928434
x3,~~,x9,-0.00033965081600404167
x6,~~,x6,0.7738631418368065
x6,~~,x9,0.0020735378786890042
x8,~~,x8,0.026972332680286062
x9,~~,x9,0.011109927705148665
y1,~~,y1,1.8872254509994002
y10,~~,y10,1.0816648233549846
y11,~~,y11,0.16972022883784027
y2,~~,y2,0.12345941106735525
y3,~~,y3,0.3129593738951748
y4,~~,y4,1.926100814991958
y6,~~,y6,0.9853760132738643
y7,~~,y7,0.4594348110546891
y8,~~,y8,4.245671133553728
y9,~~,y9,0.611277922132385
