lhs,op,rhs,est
eta1,~,x2,-0.1067082910701465
eta1,~,x10,0.15326690138087223
eta2,~,x8,0.05465607696050493
eta3,~,x10,0.9633780272133584
eta4,~,eta1,0.722128583735283
x2,~,x7,-0.41770852693397464
x2,~,x3,0.6054863728649872
x4,~,x10,0.34601320993274703
x5,~,x4,-0.49325470344811573
x6,~,x1,-0.38024023182454236
x7,~,eta1,0.4110764985954863
x7,~,x1,1.0520089136246926
x8,~,x2,0.3110702306345722
x9,~,eta3,0.16297978460457588
eta1,=~,y2,0.37862450859059193
eta1,=~,y3,0.5553008411931556
eta4,=~,y4,0.057273185018151616
eta2,=~,y5,-0.7008032308102299
eta3,=~,y7,0.9447258800155476
eta4,=~,y8,0.7968906300958953
eta1,~~,eta1,0.19723091714185442
eta2,~~,eta2,0.058823667406853776
eta2,~~,eta4,0.07059544185480296
eta2,~~,x5,0.016207977881072488
eta2,~~,x6,0.0036045625086598377
eta2,~~,x9,-0.016820201465369902
eta3,~~,eta3,0.8907826441377509
eta4,~~,eta4,0.24820093244518923
eta4,~~,x5,-0.04860247534399625
eta4,~~,x6,-0.05499332382487635
eta4,~~,x9,0.0011517866490970033
x2,~~,x2,0.5424260596528057
x4,~~,x4,0.09558426950353552
x5,~~,x5,0.2425498264902075
x5,~~,x6,-0.003640252224980128
x5,~~,x9,0.008911089400966746
x6,~~,x6,0.13723560078639205
x6,~~,x9,0.003915920630931221
x7,~~,x7,0.9537539510656149
x8,~~,x8,0.5073731426273662
x9,~~,x9,0.024736356488743658
y1,~~,y1,1.9958986487703645
y10,~~,y10,1.9124540242497856
y2,~~,y2,0.17130438344367707
y3,~~,y3,1.9113584554769485
y4,~~,y4,1.316858232256552
y5,~~,y5,0.6495751682824922
y6,~~,y6,1.0690318670161039
y7,~~,y7,0.8534753865105901
y8,~~,y8,1.9321209358457783
