lhs,op,rhs,est
eta1,~,eta2,-0.7927835975532912
eta1,~,x2,-0.8754018102699685
eta3,~,x5,0.7838771005616298
eta4,~,x3,0.33396571557668847
eta4,~,x6,0.8060261036858195
x1,~,eta1,-0.3412826946876394
x10,~,eta1,-0.3173219885375409
x10,~,x6,0.4188473901942337
x2,~,x10,-0.2766105390721545
x2,~,x5,-0.9403875663764353
x4,~,x10,0.08514796309400044
x7,~,x2,-0.07028394132248256
x8,~,x6,-1.0858434464370694
x9,~,eta4,0.5691748005687765
eta1,=~,y2,0.8111198904555861
eta2,=~,y4,0.9830345040493258
eta2,=~,y5,-0.5535401196872438
eta3,=~,y6,0.8740495305475893
eta3,=~,y7,0.32041834790704987
eta4,=~,y9,-0.48372374844963684
eta1,~~,eta1,1.704357214032447
eta2,~~,eta2,1.7269890313917533
eta3,~~,eta3,0.47386916268089213
eta3,~~,x1,-0.12651953718520076
eta3,~~,x4,0.010290148609950577
eta3,~~,x7,-0.033378045214749595
eta3,~~,x8,0.059182100238447576
eta3,~~,x9,-0.08585288499891802
eta4,~~,eta4,0.43010664482089084
x1,~~,x1,1.1451965852944244
x1,~~,x4,-0.07939185154254438
x1,~~,x7,-0.056155300055601355
x1,~~,x8,-0.010898267855432504
x1,~~,x9,-0.059547882449182396
x10,~~,x10,0.5644702423642318
x2,~~,x2,1.2084946275459885
x4,~~,x4,0.3386174346982388
x4,~~,x7,0.12984450322535712
x4,~~,x8,-0.3563361454329735
x4,~~,x9,0.15416297088132877
x7,~~,x7,0.9999162088240661
x7,~~,x8,-0.28762615422879134
x7,~~,x9,0.1268587353949021
x8,~~,x8,1.15213297540921
x8,~~,x9,-0.1796629722383482
x9,~~,x9,0.5449642596965317
y1,~~,y1,3.106185851313687
y10,~~,y10,2.312649150353293
y2,~~,y2,1.6507878216551257
y3,~~,y3,1.1178940038987606
y4,~~,y4,0.9855773801281881
y5,~~,y5,1.1386674462500033
y6,~~,y6,0.9609000456038169
y7,~~,y7,0.10352039291800512
y9,~~,y9,0.442731765967613
