lhs,op,rhs,est
eta1,~,eta2,0.4054787390290369
eta3,~,x6,0.6928509329915851
eta3,~,x8,0.8477045232650005
x4,~,x1,0.2663342418370842
x4,~,x8,-0.5016342360330766
x5,~,x4,0.3298815068874417
x5,~,x10,-0.3787262525569535
x5,~,x3,-0.9069854144426464
x7,~,eta2,1.0538970568517734
x9,~,eta2,0.3205456242965413
x9,~,eta4,0.045519884683340395
x9,~,x2,0.6043839639597978
x9,~,x8,-0.4893072318795007
eta1,=~,y2,-0.6977169489170397
eta2,=~,y4,-0.7699087913391895
eta3,=~,y6,1.0577510105399544
eta4,=~,y8,-0.4749999653237651
eta4,=~,y9,-0.46154587692844945
eta1,~~,eta1,0.16750552783513387
eta1,~~,eta3,-0.023943352925624547
eta1,~~,x5,-0.006975738844421741
eta1,~~,x7,-0.0008782618390600983
eta1,~~,x9,0.019768687300589817
eta2,~~,eta2,1.6278745053913244
eta2,~~,eta4,-0.03148470847223878
eta3,~~,eta3,1.1747745354301986
eta3,~~,x5,-0.03053908023639999
eta3,~~,x7,0.05172036839707278
eta3,~~,x9,-0.18206651909314514
eta4,~~,eta4,1.796502940434816
x4,~~,x4,0.34732346433274836
x5,~~,x5,1.0693711934578334
x5,~~,x7,-0.24058073001492844
x5,~~,x9,-0.0908562498641804
x7,~~,x7,0.958753400585416
x7,~~,x9,-0.048884557810132
x9,~~,x9,0.9089702942362132
y1,~~,y1,0.9706493559493554
y2,~~,y2,0.5089353132595372
y3,~~,y3,0.8692873668066396
y4,~~,y4,0.6207055632590568
y5,~~,y5,1.84028617180998
y6,~~,y6,2.2076074923976154
y7,~~,y7,0.9126998729617956
y8,~~,y8,0.19605113122707818
y9,~~,y9,0.2109050493442566
