lhs,op,rhs,est
x1,~,x4,-0.37354529387173474
x10,~,x4,1.0554748356408175
x2,~,eta1,0.6139135482213036
x3,~,eta3,-0.4915959386398383
x3,~,x7,-0.43253590799848907
x4,~,x2,-0.9026642774205631
x6,~,eta2,-0.23283711346793287
x6,~,x3,-0.041991892916493544
x7,~,eta1,0.6022618607921092
x7,~,x6,0.09029778323463131
x7,~,x8,0.45357262268543175
x7,~,x5,-0.967455860721891
x8,~,eta4,-0.22439151363453763
x9,~,eta1,-0.2252469609887438
eta1,=~,y2,1.0787293229559027
eta3,=~,y6,-0.304633459103392
eta3,=~,y7,0.7574026615919129
eta2,=~,y8,0.35357208100741827
eta4,=~,y8,1.0143842304560717
eta4,=~,y9,-0.28006248157602853
eta1,~~,eta1,1.5546431283034696
eta1,~~,eta2,0.033552007041815025
eta1,~~,eta3,0.08212064307785362
eta1,~~,eta4,0.18401258931240877
eta2,~~,eta2,1.9906590544984721
eta2,~~,eta3,0.051281806015982076
eta2,~~,eta4,0.12983590121161306
eta3,~~,eta3,1.6327489974435583
eta3,~~,eta4,0.0032449805855943614
eta4,~~,eta4,1.6604352456292286
x1,~~,x1,0.16467797053228528
x1,~~,x10,-0.03173767555957399
x1,~~,x9,-0.003994993578677451
x10,~~,x10,1.2430181983421187
x10,~~,x9,0.03613264150132329
x2,~~,x2,0.4098561235254615
x3,~~,x3,0.6965967492319266
x4,~~,x4,1.0076705630519
x6,~~,x6,0.10023537044140468
x7,~~,x7,1.610729278332168
x8,~~,x8,0.06706139179676138
x9,~~,x9,0.0529591388743508
y1,~~,y1,1.0780026787411472
y10,~~,y10,0.7674418125129303
y2,~~,y2,1.0847568173888222
y4,~~,y4,0.9573403896425533
y5,~~,y5,0.933505010194969
y6,~~,y6,0.08385438775479494
y7,~~,y7,0.542532713915412
y8,~~,y8,1.413597944621319
y9,~~,y9,0.08686383403296283
