lhs,op,rhs,est
eta1,~,x2,-0.2112326222608119
eta2,~,eta3,0.04754472254257771
eta2,~,x1,0.8937491020023725
eta3,~,x3,-1.1879539488961814
eta3,~,x4,-1.8872230746066947
eta4,~,eta3,-0.2253698811732581
x1,~,x7,1.1212899082964363
x10,~,eta1,0.5634469320997282
x10,~,eta2,0.057206623335044136
x10,~,x5,0.3248257499914344
x3,~,x10,0.4805572257430467
x6,~,eta2,0.020870370906788168
x8,~,x5,-0.7366671691517178
x9,~,x5,-0.11238623388105422
eta1,=~,y2,0.1068104065145068
eta2,=~,y4,0.3703831055958087
eta3,=~,y6,0.12717007952725612
eta4,=~,y8,-0.38537966007901775
eta4,=~,y9,-0.537959133699809
eta1,~~,eta1,0.0
eta2,~~,eta2,0.4130166858868938
eta3,~~,eta3,3.3881734704223256
eta4,~~,eta4,0.31098869356298897
eta4,~~,x6,-0.14573105669272887
eta4,~~,x8,0.024022772728168315
eta4,~~,x9,0.0009917004359814268
x1,~~,x1,1.1763441947922213
x10,~~,x10,1.0147456600018727
x3,~~,x3,0.3715667470011988
x6,~~,x6,1.1129886756743028
x6,~~,x8,-0.09988364798076851
x6,~~,x9,-0.014539168749868875
x8,~~,x8,0.5875632331397889
x8,~~,x9,0.0047282443866536895
x9,~~,x9,0.012354359266922329
y1,~~,y1,1.086259541307553
y2,~~,y2,0.018773778294174447
y3,~~,y3,1.9910479809129313
y4,~~,y4,0.2883430817363174
y5,~~,y5,4.152962872405894
y6,~~,y6,0.17959329691196996
y7,~~,y7,0.9746353945283881
y8,~~,y8,0.10514083612959586
y9,~~,y9,0.3331016163177838
