lhs,op,rhs,est
eta1,~,eta4,1.5674989416171086
eta1,~,x6,0.2655384374534935
eta3,~,x3,0.4192565546757191
x1,~,x4,0.9404192661654021
x10,~,x3,0.41012412172033774
x2,~,eta2,0.5822687598948922
x2,~,x9,0.3852091659731059
x2,~,x5,0.7635686653534325
x3,~,x9,-0.9072400121981434
x4,~,eta1,-0.3855281888046404
x6,~,x1,0.6401030417694935
x7,~,x2,0.08873509921474827
x8,~,x7,0.8784508846413657
x9,~,x6,-0.10689520902594965
eta1,=~,y2,0.10166004833681232
eta2,=~,y4,0.23721726021642175
eta3,=~,y6,2.5856028243183107
eta4,=~,y8,0.7290045209831334
eta1,~~,eta1,2.3088446632173842
eta2,~~,eta2,1.826947200843038
eta2,~~,eta4,-0.03516703094832118
eta3,~~,eta3,0.06829329378007942
eta3,~~,x10,-0.017682792726074866
eta3,~~,x8,-0.020170835580809524
eta4,~~,eta4,1.3950967094207103
x1,~~,x1,0.7384977281625571
x10,~~,x10,0.10395814141017505
x10,~~,x8,-0.0157840028449173
x2,~~,x2,1.0689448704472948
x3,~~,x3,0.22539667544237993
x4,~~,x4,0.539526658503637
x6,~~,x6,0.3862488684569841
x7,~~,x7,0.9175856344282907
x8,~~,x8,0.6047334509843062
x9,~~,x9,0.005362129092584528
y1,~~,y1,2.411350665559635
y2,~~,y2,0.030634909291555417
y3,~~,y3,0.8145464700165823
y4,~~,y4,0.08525275975200836
y5,~~,y5,1.0796917032480415
y6,~~,y6,0.5000035637339945
y7,~~,y7,1.0307578887182443
y8,~~,y8,0.465640662645267
