lhs,op,rhs,est
eta1,~,x10,0.10635995427365859
eta1,~,x9,0.286582999077889
eta2,~,x1,0.0012280691815036917
x1,~,eta3,0.43408490978259606
x1,~,x10,4.521794918248207
x10,~,x6,-0.36585116563233594
x2,~,x7,0.41901136179835397
x3,~,x9,-0.39686976396941076
x4,~,eta4,-0.18337343143730916
x4,~,x1,0.021782231351530176
x5,~,x3,0.46657913286322805
x6,~,x1,0.5585576923546279
x7,~,x9,0.15251098887268594
x8,~,x9,-0.21278427089367738
eta4,=~,y11,0.963310565656456
eta1,=~,y2,0.45377374592581277
eta1,=~,y3,0.31661637459285225
eta2,=~,y5,-18.70554820624284
eta2,=~,y6,-3.192977829654268
eta3,=~,y8,-0.06706988998134034
eta4,=~,y9,-0.7698101664358952
eta1,~~,eta1,1.3213576424543956e-18
eta1,~~,eta2,0.00904630627712877
eta1,~~,x2,0.0015051127713113662
eta1,~~,x4,0.10801707587920353
eta1,~~,x5,-0.057184071796149885
eta1,~~,x8,0.0024579386849483287
eta2,~~,eta2,3.075295671275763e-05
eta2,~~,x2,-0.0018488119008982598
eta2,~~,x4,0.003949485952769393
eta2,~~,x5,0.0005557549517159183
eta2,~~,x8,-0.0010204729071498525
eta3,~~,eta3,1.786591790729062
eta3,~~,eta4,-0.31315719276582293
eta4,~~,eta4,1.9441539040461333
x1,~~,x1,3.2234973552526154
x10,~~,x10,1.6256283572584815e-18
x2,~~,x2,0.22809702684390878
x2,~~,x4,-0.00901157667620811
x2,~~,x5,-0.005906112543180231
x2,~~,x8,-0.0004194141933828438
x3,~~,x3,0.13448878786844276
x4,~~,x4,0.5484866011428753
x4,~~,x5,-0.04196240767013727
x4,~~,x8,-0.030752442198169805
x5,~~,x5,0.25619528139266773
x5,~~,x8,-0.001160750290824787
x6,~~,x6,0.53006082811631
x7,~~,x7,0.030354076623498948
x8,~~,x8,0.045586798107798365
y1,~~,y1,2.2947092770653867
y10,~~,y10,0.8553964627332163
y11,~~,y11,1.0526032504550469
y2,~~,y2,1.4571721927251695
y3,~~,y3,0.9168970261240063
y4,~~,y4,1.0974994647646976
y5,~~,y5,1.0400863699605452
y6,~~,y6,0.7312935177942438
y8,~~,y8,0.020105207690538845
y9,~~,y9,0.7149454128255879
