lhs,op,rhs,est
eta1,~,x5,-0.1096411488478124
eta2,~,eta1,0.408829924583221
eta4,~,x1,0.14531975248334147
x3,~,eta3,-0.971220367296526
x4,~,eta3,0.6202032885369626
x4,~,x8,0.7001847082096505
x4,~,x6,0.6322053741234975
x7,~,eta1,-0.3161804317209631
x8,~,x9,0.4225149816355376
x8,~,x10,-1.0593634089162518
x9,~,eta1,0.8534001940189487
x9,~,x4,-0.10665562416175918
x9,~,x1,-0.3058161513073383
x9,~,x2,-0.536429859655988
eta1,=~,y2,-0.5980194089939078
eta2,=~,y4,0.5258399531301401
eta3,=~,y5,0.956943090685596
eta3,=~,y6,-0.5879239722547059
eta4,=~,y8,-0.2312328743433812
eta4,=~,y9,0.5084502670639939
eta1,~~,eta1,3.1257480762301886e-16
eta2,~~,eta2,0.6976697766419985
eta2,~~,eta4,0.06376945482246169
eta2,~~,x3,-0.04060935208836371
eta2,~~,x7,-0.02725760978142603
eta3,~~,eta3,2.0844263463297104
eta4,~~,eta4,0.05033728151034404
eta4,~~,x3,-0.031039626725136087
eta4,~~,x7,-0.004475387980767679
x3,~~,x3,1.276972368449658
x3,~~,x7,0.054552616468351904
x4,~~,x4,3.1470311212451527
x7,~~,x7,0.0810138580624299
x8,~~,x8,1.6737538940560022
x9,~~,x9,1.7410963822786285
y1,~~,y1,0.9926553838636497
y10,~~,y10,0.8679627453966765
y2,~~,y2,0.139945533056064
y3,~~,y3,1.8403860108034547
y4,~~,y4,0.6277004724964843
y5,~~,y5,0.959359938471512
y6,~~,y6,0.3795510050269164
y8,~~,y8,0.0982339479119371
y9,~~,y9,0.19136971790263282
