lhs,op,rhs,est
eta1,~,eta4,-0.4413308427616669
eta1,~,x4,1.210465069134666
eta2,~,eta1,-0.24421823557182926
eta4,~,x5,0.4068580308940392
eta4,~,x2,0.26046108881839947
x1,~,x3,0.5007151663593576
x3,~,eta1,0.552071109399971
x3,~,x10,-0.0768659897496809
x4,~,eta3,-0.3130285919269614
x5,~,eta1,0.43560640054639016
x5,~,x7,-0.5347758658139178
x6,~,eta1,-0.7220009055777896
x8,~,eta1,-0.4107385082599921
x9,~,x3,0.3165460839298097
eta4,=~,y11,0.45670546333116446
eta4,=~,y12,1.121184577542337
eta1,=~,y2,0.9194010390394686
eta1,=~,y3,0.28747122979828155
eta2,=~,y5,-0.032337575293007785
eta2,=~,y6,0.15584391748729248
eta3,=~,y8,-0.8789478325535048
eta3,=~,y9,0.4899891854426613
eta1,~~,eta1,1.8307742651986672
eta2,~~,eta2,0.05981972652478163
eta2,~~,x1,-0.05475873230062926
eta2,~~,x6,0.20213924293671076
eta2,~~,x8,0.07166082037171566
eta2,~~,x9,-0.039453342588716696
eta3,~~,eta3,1.7075518820778552
eta4,~~,eta4,0.3779196843589547
x1,~~,x1,0.48039888118272744
x1,~~,x6,-0.32123092080377563
x1,~~,x8,-0.1284554278079118
x1,~~,x9,0.05503937851923952
x3,~~,x3,1.0726072041805548
x4,~~,x4,3.261378478048635e-18
x5,~~,x5,0.505255149628936
x6,~~,x6,1.7050706774884958
x6,~~,x8,0.24270973578744365
x6,~~,x9,-0.16022739986411233
x8,~~,x8,0.6081968883192767
x8,~~,x9,-0.08425280334690517
x9,~~,x9,0.152942402630196
y1,~~,y1,2.019032417347504
y10,~~,y10,2.4118248940520823
y11,~~,y11,0.2826593332712384
y12,~~,y12,1.4990530237708877
y2,~~,y2,1.6159200345713431
y3,~~,y3,0.1536686578420262
y4,~~,y4,1.0830767900521896
y5,~~,y5,1.0812061589434416
y6,~~,y6,0.037402609571441967
y8,~~,y8,1.0516121123875655
y9,~~,y9,0.25514505641913615
