lhs,op,rhs,est
eta1,~,eta3,-0.3270375462965451
eta1,~,x3,0.3625846820373293
eta2,~,x6,0.8934285894382429
eta3,~,eta4,-0.6161865593602178
eta3,~,x10,-0.985644009696167
eta3,~,x8,-0.8685213756497515
x10,~,eta1,-0.19191200454179694
x2,~,x8,0.8068677688460394
x4,~,x2,-0.5196362066527854
x4,~,x1,-0.28805538598733665
x6,~,x5,0.35154476684309766
x7,~,eta2,-0.5743501659478175
x9,~,eta3,-0.3694959966866167
x9,~,x6,-0.3613171218511475
eta1,=~,y2,-0.22608673808626664
eta2,=~,y4,0.9528248341842858
eta2,=~,y5,0.19854677136421026
eta3,=~,y7,0.19857739684386652
eta3,=~,y8,-0.24626496119152605
eta4,=~,y9,-0.320327801666542
eta1,~~,eta1,0.7621213638644996
eta2,~~,eta2,0.7102094644470702
eta3,~~,eta3,1.212808631880007
eta4,~~,eta4,2.4707033951389037
x10,~~,x10,0.7719127114208768
x2,~~,x2,0.7092075610186293
x4,~~,x4,0.4189260572600931
x4,~~,x7,0.001085466541659779
x4,~~,x9,-0.008400850827004452
x6,~~,x6,0.12251057230142604
x7,~~,x7,0.27862129104235767
x7,~~,x9,0.007864939150116696
x9,~~,x9,0.554982796528489
y1,~~,y1,4.071734396468361
y2,~~,y2,0.30302417335929727
y3,~~,y3,1.203497980453616
y4,~~,y4,0.6907809955410988
y5,~~,y5,0.04055220304780368
y6,~~,y6,2.9805732531882794
y7,~~,y7,0.13285049788035935
y8,~~,y8,0.834344362148487
y9,~~,y9,0.23631514235075268
