lhs,op,rhs,est
eta3,~,x10,0.7598531927793462
x1,~,eta2,-1.0395218654294298
x1,~,x10,-0.9599256393831095
x1,~,x3,-0.04004596305409819
x1,~,x6,-0.23081416752875275
x10,~,eta4,0.1226575393625642
x3,~,eta1,-0.5576088391882071
x3,~,x2,-0.5549866209724906
x3,~,x4,-0.10034028934753884
x6,~,x7,-0.4918359169978514
x6,~,x8,0.7109773512174511
x7,~,x1,-1.1034988782101147
x9,~,x4,0.5970968388712189
x9,~,x5,0.31134248991226016
eta1,=~,y2,-0.7389296879695855
eta2,=~,y4,-0.6502382310793731
eta3,=~,y6,0.9158523566186736
eta4,=~,y8,-0.7409911182216173
eta4,=~,y9,0.4408930330654723
eta1,~~,eta1,1.8391982261079818
eta1,~~,eta2,0.05338566098678218
eta1,~~,eta4,-0.02083147084947393
eta2,~~,eta2,1.5208276534323268
eta2,~~,eta4,-0.023989933278186857
eta3,~~,eta3,0.48340597672008256
eta3,~~,x9,-0.05663045331244288
eta4,~~,eta4,1.7343452557111403
x1,~~,x1,2.2898875249266464
x10,~~,x10,0.0
x3,~~,x3,0.7412007418929416
x6,~~,x6,1.162912537348043
x7,~~,x7,4.013776620282822
x9,~~,x9,0.3959976742764102
y1,~~,y1,0.861037169678856
y2,~~,y2,0.7252077442920455
y3,~~,y3,1.197209803195733
y4,~~,y4,0.2580314172395562
y5,~~,y5,1.2710783915943231
y6,~~,y6,0.19544340148915995
y7,~~,y7,0.7954568755371352
y8,~~,y8,0.699865983580408
y9,~~,y9,0.21283145002480586
