lhs,op,rhs,est
x1,~,x4,-0.3467737734011226
x1,~,x7,-0.5272951342381891
x1,~,x3,-0.8051699846905321
x1,~,x9,0.12643945804452414
x2,~,x9,-0.37316352712042805
x4,~,x6,0.19827171155677814
x5,~,x7,0.5822417504304755
x7,~,x10,-0.6122867069329667
x8,~,x9,1.0404905294827915
x1,~~,x1,0.986630525273209
x1,~~,x2,-0.011733073378415875
x1,~~,x5,-0.0030597274976456547
x1,~~,x8,0.055301128775507864
x2,~~,x2,0.11514505039792339
x2,~~,x5,-0.007035991211916413
x2,~~,x8,-0.01603892637403551
x4,~~,x4,0.03844915762125576
x5,~~,x5,0.3369662238617829
x5,~~,x8,-0.01886834604966533
x7,~~,x7,0.3147635934357383
x8,~~,x8,1.0808253377601795
