lhs,op,rhs,est
x1,~,x9,-0.10852228059763654
x10,~,x6,0.8726882444029672
x3,~,x1,0.7406608459407668
x3,~,x10,0.830984727222954
x3,~,x2,-0.5510694814409176
x4,~,x5,-0.21585013529366961
x4,~,x6,0.33909180968230457
x5,~,x7,0.28154348052470735
x7,~,x4,0.2847539270470275
x8,~,x10,-0.8716243041728097
x1,~~,x1,0.014327806078857676
x10,~~,x10,0.6906960061695493
x3,~~,x3,1.658370167049543
x3,~~,x8,0.07163134506242132
x4,~~,x4,0.13196647565074812
x5,~~,x5,0.04972139756156772
x7,~~,x7,0.10562790542340941
x8,~~,x8,0.8020426858385933
