lhs,op,rhs,est
x2,~,x4,-0.06258825192970807
x2,~,x10,1.0335712011593008
x2,~,x8,-0.2334435515475353
x3,~,x10,-0.5675659473237
x4,~,x5,-0.11317311058146381
x5,~,x2,0.1590780381778842
x5,~,x9,0.7972027686065982
x5,~,x1,0.6254704161465916
x7,~,x8,0.9834247478446917
x9,~,x6,0.39938719153216967
x2,~~,x2,1.0749977974716642
x3,~~,x3,0.3124830691011545
x3,~~,x7,0.008559235398150624
x4,~~,x4,0.035265618788324855
x5,~~,x5,1.1715299927813883
x7,~~,x7,0.9207473126362324
x9,~~,x9,0.16375935005396136
