lhs,op,rhs,est
x1,~,x10,0.11838116838784515
x10,~,x6,0.0681939491462624
x10,~,x3,0.3010058444354172
x10,~,x4,0.2787234300698688
x2,~,x1,-0.45602872805105754
x6,~,x1,0.6252820794757459
x6,~,x5,0.346766562044044
x6,~,x7,-0.27425504177836313
x8,~,x6,-0.15744209608899634
x9,~,x6,-0.020623506232938744
x1,~~,x1,0.044571783744272724
x10,~~,x10,0.7135520195351764
x2,~~,x2,0.25796316804031355
x2,~~,x8,-0.04038636301583278
x2,~~,x9,-0.007261890561162547
x6,~~,x6,0.9763431816586772
x8,~~,x8,0.8287980793796382
x8,~~,x9,0.032545676228131454
x9,~~,x9,0.02348521728332215
