lhs,op,rhs,est
x2,~,x4,-0.06014676936742062
x2,~,x10,1.0378888769951873
x2,~,x8,-0.23339242119034168
x3,~,x10,-0.5661857507113768
x4,~,x5,-0.1115739144460433
x5,~,x2,0.16234479922184544
x5,~,x9,0.7965700447355414
x5,~,x1,0.6228531703356927
x7,~,x8,0.9873600103200438
x9,~,x6,0.39736458009811965
x2,~~,x2,1.0861494352600816
x3,~~,x3,0.3196601959141887
x3,~~,x7,0.011326731236701493
x4,~~,x4,0.03613387358276692
x5,~~,x5,1.1970183662480816
x7,~~,x7,0.9299244036122908
x9,~~,x9,0.16590600667625738
