lhs,op,rhs,est
x1,~,x10,-1.0901464448446054
x1,~,x3,0.16105702616202894
x1,~,x7,-0.4746004147737196
x10,~,x9,0.8430193820721819
x4,~,x10,1.010388930316785
x6,~,x9,0.4928417793886134
x8,~,x2,-0.9184735024727301
x8,~,x3,0.7178187517933452
x9,~,x1,0.013648702127872581
x9,~,x5,-0.5965416497694995
x1,~~,x1,2.511299698150923
x10,~~,x10,1.2166113428094862
x4,~~,x4,1.694936574063939
x4,~~,x6,-0.027240390238030578
x4,~~,x8,0.05334707581539142
x6,~~,x6,0.25773453102823324
x6,~~,x8,0.0023063560535985374
x8,~~,x8,1.545507167907468
x9,~~,x9,0.3963481618585283
