"lhs","op","rhs","est"
"eta1","=~","y2",0.472911018454463
"eta1","=~","y3",-0.530871318714966
"eta2","=~","y5",1.04835232868808
"x3","~","eta2",-0.370535456542063
"x5","~","x2",-0.578810247966689
"x5","~","x3",0.655114954759343
"eta1","~","x1",0.803480839706983
"eta1","~","x5",-0.0656620503549875
"x4","~","eta2",-0.951089641396752
"y1","~~","y1",1.98889982624348
"y2","~~","y2",0.533286582480847
"y3","~~","y3",0.69131160522806
"y4","~~","y4",1.05696096489977
"y5","~~","y5",0.970991476090912
"x3","~~","x3",0.138900964134249
"x5","~~","x5",0.952384007721784
"x4","~~","x4",0.823387760941583
"eta1","~~","eta1",0.74937168987958
"eta2","~~","eta2",1.54597735618654
"eta1","~~","x4",-0.057207601611568
"x2","~~","x2",1.62575178370015
"x2","~~","x1",0.0355625557650458
"x1","~~","x1",1.55218274451325
