"lhs","op","rhs","est"
"eta1","=~","y2",-0.452712655533702
"eta1","=~","y3",0.225069886457198
"eta2","=~","y5",0.546030613483922
"eta2","=~","y6",-0.479927758797789
"x5","~","eta2",-0.80140699954782
"x5","~","x1",0.272598377691959
"x5","~","x3",0.19343408771747
"eta1","~","x5",-0.526306979410158
"x4","~","x1",0.692158001722887
"x2","~","eta2",0.620650503537408
"y1","~~","y1",3.08355265681307
"y2","~~","y2",0.893844381000746
"y3","~~","y3",0.149316162090432
"y4","~~","y4",1.05366478159866
"y5","~~","y5",0.347734913421455
"y6","~~","y6",0.254710037342702
"x5","~~","x5",0.764013346938984
"x4","~~","x4",0.527371697155619
"x2","~~","x2",0.363630044106165
"eta1","~~","eta1",0.844317438407292
"eta2","~~","eta2",1.79246782296091
"eta1","~~","x4",-0.162856750221858
"eta1","~~","x2",0.118248643476226
"x4","~~","x2",-0.0176600120835547
"x1","~~","x1",1.61757353814015
"x1","~~","x3",0.0244334345661079
"x3","~~","x3",1.72357772227598
