"lhs","op","rhs","est"
"eta1","=~","y2",0.843301528428359
"eta1","=~","y3",-0.259142062809497
"eta2","=~","y5",-0.273235882610133
"eta2","~","x2",-0.628764174986129
"eta2","~","x5",-0.999095303556321
"x4","~","eta1",-0.62586163758576
"x2","~","x1",-0.694206434019346
"x2","~","x4",-1.18580108620955
"x3","~","eta1",-0.867325443023408
"y1","~~","y1",0.998882763413437
"y2","~~","y2",0.543789164500364
"y3","~~","y3",0.0664853699748862
"y4","~~","y4",1.63711163816218
"y5","~~","y5",0.176563671388053
"x4","~~","x4",0.395430562809302
"x2","~~","x2",1.28215896390033
"x3","~~","x3",0.747367614874182
"eta1","~~","eta1",1.56505984600326
"eta2","~~","eta2",1.99356578960939
"eta2","~~","x3",0.205249006634878
"x5","~~","x5",1.59465825472509
"x5","~~","x1",0.213222255109606
"x1","~~","x1",1.70574260693089
