"lhs","op","rhs","est"
"eta1","=~","y2",0.982525281955439
"eta2","=~","y4",0.283308754833719
"eta2","~","x1",0.0817118401815052
"eta2","~","x4",0.622670947341809
"x1","~","eta1",0.638472924573637
"x1","~","x3",0.0974462207738301
"x1","~","x5",0.986857619692854
"x2","~","x5",-0.281391829127349
"y1","~~","y1",1.26118987328831
"y2","~~","y2",0.618236122942018
"y3","~~","y3",1.93373344897214
"y4","~~","y4",0.287987533380264
"x1","~~","x1",1.57825622317794
"x2","~~","x2",0.0812167837503274
"eta1","~~","eta1",1.56580109712891
"eta2","~~","eta2",0.877514273090189
"eta2","~~","x2",-0.00712187879817806
"x4","~~","x4",1.74153531940157
"x4","~~","x3",-0.00519840905264131
"x4","~~","x5",-0.0398154306193751
"x3","~~","x3",1.37830890246013
"x3","~~","x5",0.0633216579476696
"x5","~~","x5",1.69660820718886
