"lhs","op","rhs","est"
"eta1","=~","y2",0.31175379163202
"eta2","=~","y4",0.695435444868905
"x2","~","eta1",-0.496536901880339
"x4","~","x2",0.918962899073374
"x3","~","x4",-0.228299968901037
"x5","~","x2",-0.103859916472389
"x1","~","x2",0.665922981944779
"eta2","~","x2",-1.02578331113851
"y1","~~","y1",1.06787612956538
"y2","~~","y2",0.12184124185469
"y3","~~","y3",0.798317095146186
"y4","~~","y4",0.608102241578251
"x2","~~","x2",0.234211784399397
"x4","~~","x4",0.9641264034336
"x3","~~","x3",0.0436698481891423
"x5","~~","x5",0.0132846010166341
"x1","~~","x1",0.41875139244721
"eta1","~~","eta1",1.63396687554346
"eta2","~~","eta2",0.986543813551152
"eta2","~~","x3",0.0147841224072999
"eta2","~~","x5",0.00548287732226516
"eta2","~~","x1",0.00585743642174098
"x3","~~","x5",-0.000257831433773419
"x3","~~","x1",-0.000618331925352534
"x5","~~","x1",-0.0022545808702226
