"lhs","op","rhs","est"
"eta1","=~","y2",0.3523704597496
"eta2","=~","y4",-0.427532725922093
"eta2","=~","y5",-0.344196422953672
"eta1","~","x1",0.941423714129958
"eta1","~","x4",0.168982909566886
"x2","~","eta1",-0.737809141755002
"x5","~","eta1",0.647771813092784
"eta2","~","x3",-0.286032148699937
"eta2","~","x4",-0.452399415159479
"y1","~~","y1",1.99955096276385
"y2","~~","y2",0.256882700813037
"y3","~~","y3",1.7235757607127
"y4","~~","y4",0.371146994729385
"y5","~~","y5",0.246619550206015
"x2","~~","x2",0.493830509836161
"x5","~~","x5",0.511330224395701
"eta1","~~","eta1",0.883548923398125
"eta2","~~","eta2",0.219348321039325
"eta2","~~","x2",-0.199844848828324
"eta2","~~","x5",0.100098207954126
"x2","~~","x5",-0.0759777952019842
"x1","~~","x1",1.6162744836955
"x1","~~","x4",0.0119713349861389
"x1","~~","x3",-0.102400712972346
"x4","~~","x4",1.65830097658499
"x4","~~","x3",-0.0277259051454647
"x3","~~","x3",1.58569627825862
