"lhs","op","rhs","est"
"eta1","=~","y2",1.02548863836964
"eta1","=~","y3",-0.565385406297431
"eta2","=~","y5",-0.763878569250183
"eta2","=~","y6",-0.743713106062245
"x1","~","eta2",-0.625915104444241
"x3","~","eta1",-0.16345817635218
"x3","~","x1",0.514136799470182
"x4","~","x3",-0.236181990729082
"x2","~","eta2",0.931406490375874
"x2","~","x5",-0.135968067992928
"y1","~~","y1",1.02987826719817
"y2","~~","y2",0.958904393319621
"y3","~~","y3",0.438941528539319
"y4","~~","y4",1.05474240519266
"y5","~~","y5",0.497127806281176
"y6","~~","y6",0.589462794660277
"x1","~~","x1",0.382355093407758
"x3","~~","x3",0.293328850988803
"x4","~~","x4",0.0784156329244288
"x2","~~","x2",0.901648822403045
"eta1","~~","eta1",1.65196633893086
"eta2","~~","eta2",1.64294354571611
"eta1","~~","eta2",0.00366746738084868
"x4","~~","x2",0.0363806920246248
"x5","~~","x5",1.58361658374034
