"lhs","op","rhs","est"
"eta1","=~","y2",-0.413314814064341
"eta2","=~","y4",-1.08448500929424
"eta2","=~","y5",-0.210762634331152
"eta1","~","x3",0.200442675942728
"eta1","~","x5",-0.320119295822759
"x2","~","x3",1.03140612463837
"x1","~","x2",-0.430279043087622
"x5","~","x4",-0.263059459419997
"eta2","~","x4",-0.221982920648817
"y1","~~","y1",2.13522076200874
"y2","~~","y2",0.816508141029821
"y3","~~","y3",0.961113486191205
"y4","~~","y4",0.971853032001987
"y5","~~","y5",0.0400811288564533
"x2","~~","x2",1.02504105867516
"x1","~~","x1",0.170502185897866
"x5","~~","x5",0.0864566645606318
"eta1","~~","eta1",0.274673177944975
"eta2","~~","eta2",0.0632374639416744
"eta1","~~","eta2",-0.048598185736816
"eta1","~~","x1",0.0398362879319274
"eta2","~~","x1",0.00702632199310988
"x3","~~","x3",1.46859252866502
"x3","~~","x4",-0.0487563168743218
"x4","~~","x4",1.60438654939769
