lhs,op,rhs,est
eta1,~,x3,0.03420812013823665
eta1,~,x8,-0.3048782616163452
x1,~,eta1,-0.5165342648151794
x1,~,x4,-0.8002521952606054
x3,~,x6,-0.020663981158136936
x5,~,x2,1.0044918307225854
x6,~,x1,0.05667547110698716
x6,~,x5,-0.8412766444737304
x6,~,x10,-0.9214749707869205
x6,~,x7,-0.45726323809023334
x9,~,x10,-0.8106159294521462
eta1,=~,y2,-0.3762707857020175
eta1,=~,y3,0.5444152146674172
eta1,~~,eta1,0.12483975188273731
x1,~~,x1,1.1188360431777926
x3,~~,x3,0.4252985466761947
x5,~~,x5,1.1324598128519932
x6,~~,x6,1.8017006466656713
x9,~~,x9,0.7022042337519714
y1,~~,y1,0.9602557066091808
y2,~~,y2,0.16632033455920742
y3,~~,y3,0.5453284331018294
