lhs,op,rhs,est
eta1,~,x4,0.7022619423997581
x10,~,x6,0.16174720606668783
x10,~,x1,0.803650090793321
x2,~,x8,0.8614338452956735
x5,~,x4,0.6572187462303537
x5,~,x9,0.33302333493472536
x6,~,x7,-0.4651686569038739
x6,~,x3,-0.5109238673980149
x6,~,x4,0.19029564903153062
x6,~,x8,0.6078474431616395
x7,~,x10,-0.834488293518191
eta1,=~,y2,0.43441920113747884
eta1,=~,y3,-0.22129822647847608
eta1,~~,eta1,0.5516170243860952
eta1,~~,x2,-0.026236040177449533
eta1,~~,x5,-0.0057217743117287286
x10,~~,x10,1.1353591593268926
x2,~~,x2,0.7670110399150047
x2,~~,x5,0.026194748516647545
x5,~~,x5,0.5344805653490149
x6,~~,x6,1.2553619525080664
x7,~~,x7,2.636577112238664
y1,~~,y1,0.8590740092347654
y2,~~,y2,0.19169629682456335
y3,~~,y3,0.047578027044788744
