lhs,op,rhs,est
x1,~,x2,-0.26368292202210003
x10,~,x1,0.8977738684779434
x2,~,x3,0.25166595430457106
x3,~,x6,-0.9273273419159968
x3,~,x5,0.2441822850394952
x3,~,x7,0.33718094007436444
x4,~,x6,0.7773475926669738
x6,~,eta1,0.5587314194057433
x6,~,x1,0.6171274539492086
x8,~,x4,-0.9660704987709617
x9,~,x3,0.8541594796561222
eta1,=~,y2,-0.4283496519132441
eta1,~~,eta1,1.6830526830088615
x1,~~,x1,0.08102619038884785
x10,~~,x10,0.6684281924860404
x10,~~,x8,0.003843876680933218
x10,~~,x9,-0.03568847650983018
x2,~~,x2,0.1343474027915158
x3,~~,x3,1.420527706819024
x4,~~,x4,0.9651461709667036
x6,~~,x6,0.5038174766100185
x8,~~,x8,0.8937064564788678
x8,~~,x9,-0.0296807061865991
x9,~~,x9,1.5116072414293211
y1,~~,y1,0.9410389897069098
y2,~~,y2,0.20750687913977336
