lhs,op,rhs,est
eta1,~,x7,-0.42662227077063797
eta1,~,x9,-0.4256802982796004
eta1,~,x4,-0.5954216132786476
x1,~,x2,0.2035835281251786
x10,~,x4,0.48252135640424937
x2,~,eta1,0.3517786656747899
x2,~,x3,-0.7763089753263395
x7,~,x6,0.6571031554964295
x8,~,x9,-0.04720455940369654
x9,~,x2,-0.8304098065708123
x9,~,x5,0.8551069959998142
eta1,=~,y2,-0.8420172442421643
eta1,=~,y3,0.3954769662521498
eta1,~~,eta1,1.4872221430531258
x1,~~,x1,0.22613748383989463
x1,~~,x10,-0.0064041921407471235
x1,~~,x8,0.012492771925222051
x10,~~,x10,0.21518593836198768
x10,~~,x8,-0.002099814789827604
x2,~~,x2,1.832792622786998
x7,~~,x7,0.4704388063815061
x8,~~,x8,0.018462234371636625
x9,~~,x9,1.693007562986589
y1,~~,y1,2.9596615987787342
y2,~~,y2,2.5112605988642045
y3,~~,y3,0.4356699769514373
