lhs,op,rhs,est
eta1,~,x7,-0.22099254778453561
eta1,~,x4,-0.39174725953755496
x2,~,eta1,-0.1090585073807074
x3,~,x4,-0.14270482998477263
x5,~,x4,-0.5957255733999732
x6,~,x8,0.029846860219300143
x7,~,x6,-0.05548743764084353
x7,~,x10,-0.5105418951753499
x7,~,x9,0.9445908750166273
x8,~,x7,-0.05604903520740565
x8,~,x1,-0.5129725826402883
eta1,=~,y2,0.7317615429801577
eta1,~~,eta1,1.1905037322806462
x2,~~,x2,0.027915613709309745
x2,~~,x3,0.001353030092503367
x2,~~,x5,0.006317859976103512
x3,~~,x3,0.022513712061458104
x3,~~,x5,0.00034779156068796005
x5,~~,x5,0.30192019822463345
x6,~~,x6,0.09785112262919676
x7,~~,x7,1.3187347386294623
x8,~~,x8,0.32905568641117733
y1,~~,y1,1.808155003405455
y2,~~,y2,1.5851041102546322
