lhs,op,rhs,est
eta1,~,x2,0.046157458313721575
eta1,~,x7,-0.13438462031620377
x1,~,x10,0.05926529314864508
x10,~,x4,-0.6585763584663981
x10,~,x8,-0.47302113674156426
x2,~,x1,0.06302883435688776
x2,~,x3,-0.7675648798730137
x3,~,x6,0.6259588983841443
x4,~,x2,0.02761150854782044
x5,~,x3,0.8466049409569614
x9,~,x7,0.7048031306444752
eta1,=~,y2,-0.23040489554480326
eta1,=~,y3,-0.8713478523979323
eta1,~~,eta1,0.21264481393295187
eta1,~~,x5,0.007447018211021648
eta1,~~,x9,0.022409371991570656
x1,~~,x1,0.01802586468904622
x10,~~,x10,0.5255909828750654
x2,~~,x2,0.5738013077742647
x3,~~,x3,0.4120007502613156
x4,~~,x4,0.19638828901286914
x5,~~,x5,0.73678074727965
x5,~~,x9,0.013826938314989014
x9,~~,x9,0.4481546567607457
y1,~~,y1,2.2648887653248044
y2,~~,y2,0.12389197842243542
y3,~~,y3,1.748040633460299
