lhs,op,rhs,est
x10,~,x4,-0.30679003315695336
x10,~,x7,0.8227993949125258
x10,~,x9,-0.6550864538728941
x10,~,x1,0.5503940133072739
x10,~,x8,0.1143858243769934
x2,~,x1,-0.8586248190826067
x4,~,x5,-0.06475039726970858
x5,~,eta1,-0.39646969221561695
x5,~,x10,0.7148232995761158
x7,~,x6,0.9168090781197158
x9,~,x3,-0.19510947472475523
eta1,=~,y2,0.35742172761212904
eta1,~~,eta1,2.167210879961675
x10,~~,x10,2.2837399780469387
x2,~~,x2,0.6156341432260948
x4,~~,x4,1.2333259974801223
x5,~~,x5,2.4143682607493093
x7,~~,x7,0.981640699340422
x9,~~,x9,0.017217740156199833
y1,~~,y1,0.3812586380510178
y2,~~,y2,0.28125040951042024
