lhs,op,rhs,est
eta1,~,x4,-0.11384959101644751
x1,~,x7,0.13711744904195264
x1,~,x8,0.6105304726900627
x2,~,x7,-0.08121923318241492
x2,~,x9,-1.0033640009014915
x3,~,x4,0.4794445544046958
x5,~,x2,1.0224370898848698
x5,~,x6,0.12964051122830686
x7,~,x5,0.0031264343994407483
x7,~,x10,0.398345093037563
x9,~,eta1,0.9473942582548373
eta1,=~,y2,-1.2922673815531884
eta1,=~,y3,-1.773694934372541
eta1,~~,eta1,0.01801716887660463
x1,~~,x1,0.9302642048354025
x1,~~,x3,0.01666414190174334
x2,~~,x2,1.5754184773724866
x3,~~,x3,0.21518640716135937
x5,~~,x5,2.047437322759869
x7,~~,x7,0.2673179860058189
x9,~~,x9,0.8579402474150355
y1,~~,y1,1.0776877050303186
y2,~~,y2,0.9134894445441301
y3,~~,y3,0.8951464634642421
