lhs,op,rhs,est
eta1,~,x4,-0.23861713524975434
eta1,~,x9,-1.033677358648218
x10,~,x4,-0.1449765699550447
x2,~,x3,-0.283944082099715
x3,~,x4,0.8044030484724252
x4,~,x2,1.572135643822105
x4,~,x1,-0.2824950840887135
x5,~,eta1,0.49647303468380516
x6,~,x7,-0.6122047705540146
x7,~,x9,-0.7151865164579435
x8,~,x9,-1.055275780920332
eta1,=~,y2,-0.39027257655887193
eta1,=~,y3,-0.10585519373036172
eta1,~~,eta1,2.066534782895541
x10,~~,x10,0.16745418645604615
x10,~~,x5,-0.040996039132513755
x10,~~,x6,-0.037863457803697306
x10,~~,x8,-0.01628913648780892
x2,~~,x2,0.03999755709039507
x3,~~,x3,1.5379157088922617
x4,~~,x4,0.5451587291544365
x5,~~,x5,0.637262574183246
x5,~~,x6,0.0364831924705665
x5,~~,x8,0.02786434683754962
x6,~~,x6,0.36570629477193917
x6,~~,x8,-0.013785213301841185
x7,~~,x7,0.6979577487449226
x8,~~,x8,1.0024500148856152
y1,~~,y1,1.9234974695447675
y2,~~,y2,0.3036677514711512
y3,~~,y3,0.024882722369076495
