lhs,op,rhs,est
eta1,~,x6,-0.3291024854592247
eta1,~,x8,-0.20932139187441415
x3,~,x4,0.9961763077789451
x4,~,eta1,0.8103738105895345
x4,~,x5,-0.7785294904227802
x5,~,x10,0.4135618330809083
x5,~,x9,-1.2059897536475164
x6,~,x3,0.28220603278205725
x6,~,x1,-1.0499524769978772
x6,~,x2,-0.2784176516190993
x6,~,x7,-0.40978963206361835
eta1,=~,y2,0.41078342108463844
eta1,=~,y3,0.33769349715419844
eta1,~~,eta1,0.8326391673368129
x3,~~,x3,2.0965443795492553
x4,~~,x4,3.3323530575042515
x5,~~,x5,1.101057718500422
x6,~~,x6,1.335508066763749
y1,~~,y1,1.6788203829615533
y2,~~,y2,0.44657319695729575
y3,~~,y3,0.32615746065014617
