lhs,op,rhs,est
x1,~,x2,-0.7147003378138931
x2,~,x5,-0.2631909152431598
x2,~,x8,0.2451913812990464
x3,~,x5,0.1673551763772535
x4,~,eta1,-0.6801183955349867
x4,~,x2,0.3516797557593931
x5,~,x7,-0.6028518056210243
x7,~,x4,-0.26242762639694917
x7,~,x10,1.0690770853612044
x7,~,x6,0.5089000729038099
x9,~,x3,-0.36857595458356646
eta1,=~,y2,-0.3984387334043247
eta1,=~,y3,0.7568622289499458
eta1,~~,eta1,1.5581369538680123
x1,~~,x1,0.944625526647245
x1,~~,x9,-0.022345032214293983
x2,~~,x2,0.10518893816253781
x3,~~,x3,0.0294392662639889
x4,~~,x4,0.48901335700248283
x5,~~,x5,2.3392333224398967
x7,~~,x7,1.1783863385481141
x9,~~,x9,0.15645356801746996
y1,~~,y1,1.126303492597813
y2,~~,y2,0.18835183026911057
y3,~~,y3,0.7457536730975994
