lhs,op,rhs,est
eta1,~,x4,-0.3107345729739012
x10,~,x4,0.42166374032057496
x10,~,x6,0.42175853175293965
x2,~,x8,0.6105235029501792
x3,~,x7,0.7118604655771267
x4,~,x9,-0.2279253271882908
x5,~,x9,-0.4663665031730498
x7,~,x10,0.04480769707043567
x8,~,x10,0.1051859722377452
x9,~,x2,-0.8705945918057971
x9,~,x1,-0.9257408195083894
eta1,=~,y2,0.753603116978841
eta1,~~,eta1,0.1881905751134105
eta1,~~,x3,-0.041344401648049874
eta1,~~,x5,-0.0003194064785897942
x10,~~,x10,0.4693419677829345
x2,~~,x2,0.3772664016525903
x3,~~,x3,0.67812156978058
x3,~~,x5,-0.0053632733401995135
x4,~~,x4,0.21131514607602855
x5,~~,x5,0.9170969079270811
x7,~~,x7,0.030411774811280653
x8,~~,x8,1.0009671396825999
x9,~~,x9,1.0771303378631003
y1,~~,y1,1.1136078655939938
y2,~~,y2,0.1993225769644298
