lhs,op,rhs,est
eta1,~,x8,0.3674953622083931
x10,~,x5,0.21137681119467402
x2,~,x10,0.8872044164920226
x3,~,x6,1.1621607165459424
x3,~,x1,-0.8908442661699307
x4,~,x10,-0.27280408792602434
x5,~,x3,0.20237016924825965
x6,~,eta1,-0.40471512760731304
x6,~,x4,-0.3526957090642151
x7,~,eta1,-0.12081204922188932
x9,~,eta1,-0.25025056736958784
eta1,=~,y2,0.8455168911132146
eta1,~~,eta1,0.21206163897926988
x10,~~,x10,0.045196489720792356
x2,~~,x2,0.8792402471750828
x2,~~,x7,0.0003462681283030052
x2,~~,x9,0.009729554731399978
x3,~~,x3,2.13418232883339
x4,~~,x4,0.29882646028712245
x5,~~,x5,0.3067706134070104
x6,~~,x6,0.4055439049633337
x7,~~,x7,0.015877927341645573
x7,~~,x9,0.0037688147595447037
x9,~~,x9,0.07053608338446121
y1,~~,y1,0.9572849862865143
y2,~~,y2,0.7436164573824505
