lhs,op,rhs,est
x10,~,x3,0.013110206594452056
x10,~,x9,-0.3787795670960042
x10,~,x7,-0.9300016112037299
x2,~,eta1,1.0789692653336638
x2,~,x4,0.730724768438371
x3,~,x1,-0.2224207319671876
x5,~,x10,0.07857071711923824
x5,~,x8,0.2424337171554129
x6,~,x7,0.32106510073722955
x9,~,eta1,1.412915226420483
x9,~,x5,-1.318867583986687
eta1,=~,y2,0.4623447877053015
eta1,~~,eta1,1.4131018905455897
x10,~~,x10,2.608955318939989
x2,~~,x2,1.3376417404651733
x2,~~,x6,-0.030842586873326035
x3,~~,x3,0.044629317759348204
x5,~~,x5,0.9780643294487407
x6,~~,x6,0.07412151277767569
x9,~~,x9,2.276020873361725
y1,~~,y1,1.1774671366484148
y2,~~,y2,0.16353221023176276
