"lhs","op","rhs","est"
"x1","~","x4",0.389316833130826
"x1","~","x9",0.473984813155852
"x7","~","x1",0.0465042327671936
"x7","~","x10",0.881789609066852
"x5","~","x7",-0.00572356007267848
"x6","~","x1",-0.251753443695984
"x2","~","x6",0.781314741379991
"x3","~","x7",0.113602316976162
"x8","~","x4",0.803353555130189
"x1","~~","x1",0.402398142432288
"x7","~~","x7",0.69284598202116
"x5","~~","x5",0.201874312620062
"x6","~~","x6",0.147187837515513
"x2","~~","x2",1.14919229218399
"x3","~~","x3",0.0240906491608348
"x8","~~","x8",0.568206964346256
"x5","~~","x2",0.00420647333211694
"x5","~~","x3",0.0013708237442885
"x5","~~","x8",-0.0476976447128324
"x2","~~","x3",0.0224884538109177
"x2","~~","x8",0.069250962153847
"x3","~~","x8",-0.00499535783145558
"x4","~~","x4",1.70234194680264
"x4","~~","x9",0.0193590033319588
"x4","~~","x10",0.0167561560948641
"x9","~~","x9",1.64290730939842
"x9","~~","x10",0.0160054358435675
"x10","~~","x10",1.73316068855889
