"lhs","op","rhs","est"
"x2","~","x5",0.68985273805312
"x9","~","x2",-0.662263810420641
"x9","~","x7",0.85694687605973
"x1","~","x2",0.81168503988235
"x1","~","x4",-0.0392589628922297
"x8","~","x10",-0.267634444949275
"x4","~","x3",0.897321446249179
"x4","~","x8",-0.908880697915847
"x6","~","x8",-0.109967855700623
"x2","~~","x2",0.464497032697598
"x9","~~","x9",1.31304088446586
"x1","~~","x1",1.0102584455747
"x8","~~","x8",0.0596597353282378
"x4","~~","x4",1.60571816429979
"x6","~~","x6",0.0176768061828378
"x9","~~","x1",-0.107244832593689
"x9","~~","x6",-0.00113081830820226
"x1","~~","x6",0.00415908205647661
"x5","~~","x5",1.59056440718542
"x5","~~","x7",-0.0262004259129574
"x5","~~","x10",-0.081902898112282
"x5","~~","x3",0.0193998659809124
"x7","~~","x7",1.69044950039232
"x7","~~","x10",-0.102606395130131
"x7","~~","x3",-0.0583872442897258
"x10","~~","x10",1.79569709702665
"x10","~~","x3",-0.152734072369062
"x3","~~","x3",1.70167929341786
