"lhs","op","rhs","est"
"x9","~","x1",-0.235248623205761
"x9","~","x4",0.278866504076968
"x9","~","x7",-0.927386985818299
"x6","~","x9",0.0555343850031464
"x5","~","x6",0.847807342160495
"x2","~","x10",-0.625882002909026
"x2","~","x6",-0.916159805986367
"x8","~","x7",0.337123662831707
"x1","~","x3",-0.495035975797575
"x9","~~","x9",0.982258959569184
"x6","~~","x6",0.508282798799989
"x5","~~","x5",0.93205793546876
"x2","~~","x2",1.29610498760271
"x8","~~","x8",0.113478680529266
"x1","~~","x1",0.274943837615956
"x5","~~","x2",0.0218633609696475
"x5","~~","x8",0.0173132616803513
"x2","~~","x8",0.00734908310214281
"x4","~~","x4",1.69069738520407
"x4","~~","x7",0.0989866877678136
"x4","~~","x10",0.0201971750329527
"x4","~~","x3",0.00225626161541689
"x7","~~","x7",1.69026578284272
"x7","~~","x10",-0.0804031421206055
"x7","~~","x3",0.0999333014099695
"x10","~~","x10",1.75747912905466
"x10","~~","x3",0.0199996556412253
"x3","~~","x3",1.72219996994646
