"lhs","op","rhs","est"
"x7","~","x2",-0.645280015293773
"x1","~","x4",-0.316608885928328
"x1","~","x6",-0.256526047501477
"x1","~","x7",0.134878116657682
"x4","~","x3",-0.197675825647698
"x10","~","x4",0.689321061452847
"x9","~","x2",0.439396131934303
"x9","~","x5",-0.327796391204167
"x8","~","x3",-0.247979941267746
"x7","~~","x7",0.43702012344855
"x1","~~","x1",0.189493659829858
"x4","~~","x4",0.0406728274336453
"x10","~~","x10",0.74718094694909
"x9","~~","x9",0.328132277143243
"x8","~~","x8",0.0654671157385832
"x1","~~","x10",0.00850737500452334
"x1","~~","x9",0.0177360628993211
"x1","~~","x8",0.00246956358044466
"x10","~~","x9",-0.0448344994089649
"x10","~~","x8",0.00457473538882524
"x9","~~","x8",-0.0060843761253307
"x2","~~","x2",1.71731077350948
"x2","~~","x6",-0.0389804003519692
"x2","~~","x3",-0.0558215167246622
"x2","~~","x5",-0.148939866226807
"x6","~~","x6",1.55748716272739
"x6","~~","x3",-0.0576579678189023
"x6","~~","x5",-0.113723229281465
"x3","~~","x3",1.73970078435459
"x3","~~","x5",0.0582165526247943
"x5","~~","x5",1.63692380438675
