"lhs","op","rhs","est"
"x4","~","x1",0.689701003417296
"x8","~","x4",0.267407334951704
"x6","~","x8",0.314540905073071
"x5","~","x4",0.984894599146804
"x10","~","x5",-0.675949475127127
"x3","~","x10",-0.292098550001499
"x7","~","x1",-0.278570402668938
"x7","~","x9",0.114092914538762
"x2","~","x8",0.25778626928084
"x4","~~","x4",0.42104036905722
"x8","~~","x8",0.0776375667942759
"x6","~~","x6",0.0889382177918698
"x5","~~","x5",1.24203709335766
"x10","~~","x10",0.454057594344652
"x3","~~","x3",0.0938703624970141
"x7","~~","x7",0.0931534246745361
"x2","~~","x2",0.0809584693539834
"x6","~~","x3",-0.00320465483167922
"x6","~~","x7",0.00672806245759588
"x6","~~","x2",-0.000145081564679027
"x3","~~","x7",0.0105673381236479
"x3","~~","x2",-0.0072526895083531
"x7","~~","x2",0.00267930415990602
"x1","~~","x1",1.65771426796061
"x1","~~","x9",0.00878940749992464
"x9","~~","x9",1.73860630451761
