"lhs","op","rhs","est"
"x3","~","x2",0.199484183935752
"x9","~","x3",-0.138675105762194
"x9","~","x5",-0.305544759273596
"x9","~","x6",-0.333632135472301
"x4","~","x9",-0.67334877704559
"x1","~","x3",1.36290492929261
"x6","~","x8",-0.529010213140587
"x10","~","x2",0.691359089267042
"x10","~","x7",-0.990176555503976
"x3","~~","x3",0.0364312785946528
"x9","~~","x9",0.232911883706111
"x4","~~","x4",1.73706651199153
"x1","~~","x1",1.16769711951145
"x6","~~","x6",0.307231647212865
"x10","~~","x10",1.69985564306683
"x4","~~","x1",-0.0125853964627879
"x4","~~","x10",-0.0411147096459478
"x1","~~","x10",-0.106597843640636
"x2","~~","x2",1.66760403643404
"x2","~~","x5",-0.0447386458208322
"x2","~~","x8",-0.0715533173902886
"x2","~~","x7",-0.00161426637822401
"x5","~~","x5",1.71434804750045
"x5","~~","x8",-0.106856510880546
"x5","~~","x7",-0.126742640726338
"x8","~~","x8",1.68586784747573
"x8","~~","x7",-0.0152628365567495
"x7","~~","x7",1.63669415122139
