"lhs","op","rhs","est"
"x4","~","x1",-0.261698572389605
"x4","~","x7",0.721247877697304
"x7","~","x10",0.840012092408892
"x9","~","x5",1.08094285411845
"x9","~","x7",0.861900490431001
"x6","~","x1",-0.344757263171366
"x8","~","x6",-0.340431731398492
"x2","~","x1",1.16094864797803
"x3","~","x7",0.185729019192686
"x4","~~","x4",0.494342887147575
"x7","~~","x7",0.690575348436997
"x9","~~","x9",1.6755138345532
"x6","~~","x6",0.107651730902058
"x8","~~","x8",0.101727585649076
"x2","~~","x2",1.02187476408856
"x3","~~","x3",0.0381014909987732
"x4","~~","x9",-0.000391553111086822
"x4","~~","x8",-0.0108925175426656
"x4","~~","x2",0.00484302868402557
"x4","~~","x3",0.00997757487728201
"x9","~~","x8",-0.0445872525104132
"x9","~~","x2",-0.0497971755707186
"x9","~~","x3",0.0105100067159646
"x8","~~","x2",0.00704839086270473
"x8","~~","x3",0.0014226503566727
"x2","~~","x3",0.015641303754772
"x1","~~","x1",1.63227679481575
"x1","~~","x10",0.097325496234555
"x1","~~","x5",-0.103275396499537
"x10","~~","x10",1.74269558096287
"x10","~~","x5",-0.193041212091715
"x5","~~","x5",1.5663452082522
