"lhs","op","rhs","est"
"x7","~","x1",0.509865494020904
"x7","~","x6",0.135591040002153
"x2","~","x7",-0.57609976699709
"x5","~","x2",-1.02288880987641
"x5","~","x3",0.977343221237702
"x10","~","x7",0.852287331300851
"x10","~","x9",-0.788512493940066
"x8","~","x10",0.171821299417229
"x4","~","x3",-0.119025825104757
"x7","~~","x7",0.240630890574144
"x2","~~","x2",0.572316338839249
"x5","~~","x5",1.99721708636903
"x10","~~","x10",1.50388079353202
"x8","~~","x8",0.287918755335947
"x4","~~","x4",0.0149961596329314
"x5","~~","x8",0.109352657102168
"x5","~~","x4",0.00290015350144595
"x8","~~","x4",0.00088751812237141
"x1","~~","x1",1.65271083214563
"x1","~~","x6",-0.0857116300875174
"x1","~~","x3",0.0297492414572829
"x1","~~","x9",0.0238887507778652
"x6","~~","x6",1.60963412433402
"x6","~~","x3",0.0681928575722242
"x6","~~","x9",0.0877551726322795
"x3","~~","x3",1.63366427856291
"x3","~~","x9",0.0531310415787176
"x9","~~","x9",1.79486519714641
