"lhs","op","rhs","est"
"x7","~","x4",0.149033639578838
"x7","~","x5",0.600893329634698
"x7","~","x6",-0.472831372345342
"x1","~","x4",-0.412073967391728
"x1","~","x9",0.14210880220885
"x10","~","x1",0.735907313734464
"x10","~","x2",-0.52285778118271
"x8","~","x4",0.390757005615985
"x3","~","x5",-0.542628170081483
"x7","~~","x7",0.682037069089775
"x1","~~","x1",0.247945193149603
"x10","~~","x10",2.40165919346144
"x8","~~","x8",0.162674419928542
"x3","~~","x3",0.263468190401006
"x7","~~","x10",-0.0309538735740903
"x7","~~","x8",-0.0331406519914546
"x7","~~","x3",0.0185306065416453
"x10","~~","x8",0.00926000776374471
"x10","~~","x3",-0.0126043082726553
"x8","~~","x3",0.0152694411525441
"x4","~~","x4",1.59903781088767
"x4","~~","x5",-0.0442949278533243
"x4","~~","x6",-0.0232818405239149
"x4","~~","x9",-0.0320844195323116
"x4","~~","x2",-0.0172989569070046
"x5","~~","x5",1.57755462606602
"x5","~~","x6",0.151587336224257
"x5","~~","x9",0.0864712343283001
"x5","~~","x2",0.0778804079088178
"x6","~~","x6",1.6425608535643
"x6","~~","x9",-0.0258412411129319
"x6","~~","x2",0.0576936930968988
"x9","~~","x9",1.615578394125
"x9","~~","x2",0.131154994952126
"x2","~~","x2",1.75671631467574
