"lhs","op","rhs","est"
"x10","~","x1",-0.572763582335577
"x10","~","x2",0.521501479929927
"x10","~","x6",0.129113401448704
"x10","~","x9",-0.382909465343552
"x9","~","x5",-0.261053742033691
"x3","~","x9",-0.663753545704823
"x8","~","x3",0.474100914864054
"x4","~","x2",-0.303404578559384
"x7","~","x4",1.09289239470865
"x10","~~","x10",0.815520401845736
"x9","~~","x9",0.0732133162426024
"x3","~~","x3",0.347860115814152
"x8","~~","x8",0.194958129104166
"x4","~~","x4",0.0681871335778324
"x7","~~","x7",0.895728933427703
"x10","~~","x8",-0.0280567144063485
"x10","~~","x7",-0.0648794637683614
"x8","~~","x7",0.00571109693475692
"x1","~~","x1",1.59770416305539
"x1","~~","x2",0.0461991453253782
"x1","~~","x6",-0.0321859305818071
"x1","~~","x5",-0.0478901096966441
"x2","~~","x2",1.62873156807403
"x2","~~","x6",-0.0798776319309934
"x2","~~","x5",0.0151949444554871
"x6","~~","x6",1.74022575474042
"x6","~~","x5",0.105331560573323
"x5","~~","x5",1.59284758186859
