x1,x2,x3,x4,x5,y1,y2,y3,y4
-0.6117424358469266,4.946089259431916,2.9182756235414096,3.001739443692693,-1.7110289368875675,-1.38278501149493,3.1286399954676662,-2.811386453063579,-0.28913578000037715
-0.08224763960359781,1.0993617570545433,0.6562970932003654,0.42545022016391476,-0.22286850356207394,0.8291798856197505,0.27626748663784817,1.1896622625599114,0.07321303521693094
-0.0022199380135742236,-0.7628667739251119,0.13822370582846713,0.28573522950290897,0.45413159293878985,1.7352521743340057,1.662967575451807,0.5517144976295529,0.15293705672326083
0.012184060338396875,0.7498012527221057,-1.8350783561660775,1.026500322624854,-0.10283245175013254,-1.1051910398589766,-0.0062576108051869,1.272584935652582,-0.04720181784538738
-0.08921963715464869,0.5955192371228755,0.30632725736681987,0.49661750050176834,-0.4980850681837179,-2.4215231255066634,0.028073653862434943,1.0911982303662109,0.2778991117833194
-0.1794002546903783,4.094940862381957,2.8031134375695608,2.6097622848513153,-1.1471629195772377,-3.1479659600525105,1.4960830921406267,-1.6221197962050733,-0.15842963501151136
-0.06138645799110964,1.6199743023656972,-0.9413063742664404,0.35908113162149147,-1.0255310885023905,0.09436994894843043,-0.3789705700906319,0.05866504935716588,-0.2140246387539817
-0.14737960053628782,2.710390696727401,1.6930893839586791,2.9503449667278234,-0.47408439414700815,-2.673063142150727,1.860242134573254,0.17402281679623455,-0.26906358756844406
-0.07321560922132903,1.8638748230345308,0.45936364948990027,1.0764605893137569,-0.8199425271644264,0.033258157346784056,1.435641019960419,-0.7528383520908652,0.02162982985057883
-0.21471185477073715,1.9567391065797521,1.5781662374549712,3.213284605940868,-0.31191969638876854,-4.091406499544701,0.7654915585588681,-0.6797366265275168,-0.5397143875242321
-0.31507991052856293,3.658361407516778,1.6361535024754923,2.700937484816878,-1.1808924167312527,-3.098841487375029,0.919804017696394,-0.3389624399251155,-0.035934070970663215
-0.2454847757041482,-0.15746352472376274,0.8352664546359964,1.4372251700043166,-0.4296257974240371,-0.9976857031581539,0.01051499449098378,-0.4644200310008185,-0.10540101259150354
-0.030791848911910426,-0.026696866327500457,-0.2728907645520254,0.48603761347435537,-0.2962401385393109,-1.8935923077920718,-0.5850865174961352,-0.2979876281583546,-0.11316070602605093
-0.38415676494999074,2.5464531868657283,1.5135162666859914,1.7871602680556076,-0.4614795973490812,-0.08401520268583496,-0.04296529275151215,-1.515552707604241,-0.4217839094030402
-0.0023740427173806903,1.5448306533254625,0.6390997073409653,0.2826748667418808,-0.6854217850900639,2.102380396985799,-0.4975924114443359,-0.5300961128203352,-0.05349503489150541
-0.22314753261653686,-0.27542240767691234,-1.8720100340967285,-0.6089687042244929,0.6306378881559714,-0.9249410646459814,-0.3692960389419865,1.0474701140746516,-0.04940527836057044
-0.18665617803045528,0.7828677665279943,1.5288885253972224,1.9203251984900418,-0.8402638842567471,-1.7425696229629704,0.9947202951663972,0.04062641183057081,-0.1781076634838458
-0.034982439571353226,0.7088695331510534,0.5216546401736895,0.2350420253666754,-0.1076310615544679,-1.2482323059588405,0.07470514178279458,-0.01883183078976941,0.029041672625262974
-0.297228185263521,3.2834236013794555,-0.9129196995113311,2.1439465212283793,-1.3654376368873353,-2.497923158736752,1.606546280311575,-1.1910141056897512,0.0866140103552771
-0.18933968177867705,3.614903710856654,0.5245256648599823,2.5052746102649115,-1.2151856567145087,-0.3884115638816563,1.6721744457170555,0.22685649794139184,-0.19639588257493634
-0.2843401477187468,2.776317274053329,2.4008329250143383,2.363180557134736,-0.6569217309446729,-2.781694770207837,2.1184906821240204,-2.92574157182092,-0.06392089263267087
-0.25083458574702616,4.340765859319125,3.4017135523364344,2.510418051271235,-1.1482712289683714,-2.1827693940298407,-0.06365951892800936,-1.1281125531165643,-0.35353745205539877
0.07142674194033367,-0.6759199595254434,-2.7257011281646117,-0.4649596111652109,-0.08920676387362755,-0.13218553016419987,-1.520310602540646,-1.2187465997652618,-0.20796509228916144
0.05977141767719615,1.1178847381023127,0.15095083440795892,1.8284044156747328,-0.6066387104563931,-1.858571306332291,0.45450336429036003,-1.397150907829843,-0.1696259791893721
-0.37037554365422054,0.6518338022407228,2.956186463029608,2.991522286552969,-0.36347745075667687,-2.9500810196750624,-0.06724066746921899,-4.666307778188508,-0.4377678099599189
-0.18427100404935975,2.977510608823766,-1.4647767271823524,1.3033771949203872,-1.253208747595471,-1.8529328126120013,0.7221449528203011,-0.3724868047045874,0.18218337869512094
0.10694092066255724,0.13782697675622763,1.209314663630025,-0.8799888822707866,-0.16692753485114392,0.027659425211621458,0.22887687989573297,0.5200490059465293,-0.05718813409698939
-0.0045748759305395854,3.9371527504282464,1.8492853470858208,1.644587550953068,-0.6364747486447623,-0.4869459849332647,2.487805774260642,-0.3158037431367162,-0.37566893001526463
-0.6104270313283778,3.162988400712492,1.1232140398330308,2.605186499687746,-0.9924700782388566,-0.32790110413433415,-0.02782274010234413,-1.228192306638201,-0.014634560339876757
-0.33089622824908466,0.38634596985153336,1.2503654701919642,2.789866725189224,0.33064465743373905,-1.7107121922991324,2.202648584450572,-1.1285213437159547,-0.18006084763045083
-0.03157658048535746,-1.142547669922839,1.6858814466647702,0.9773932027217216,0.048861894390305194,-0.5305634091766649,2.6050993165888956,-1.9501548709350145,-0.22690407610169305
-0.08657503758942053,0.9482899515009187,-1.2726046904484043,0.1680380847444234,0.1432722409284726,-3.3885232138297248,2.1985105217464738,-1.83579190228363,0.18194280540282212
-0.12488073487681915,2.8359020221870046,0.5750874064422516,2.429014762320836,-0.7778588147668046,-2.057238153831149,1.6266968580719867,-1.1307940438946253,-0.39382147664824163
-0.13825579580002081,1.3223316777772303,2.140970059421467,1.435207607251649,-0.5242450952672012,-0.6681019403691697,1.2283411070206653,-1.4301471784310769,-0.15263507625087633
-0.48081121239646146,1.1634414488936222,1.879056158431501,2.5937036276242424,-0.8396518355029958,-1.7950991734800383,-0.06721137278447485,-2.1791827156142376,0.006820348374172623
-0.05376432992853923,0.5540858571281,-1.07454308808076,0.24955210681632423,0.3928430286822447,2.348387120740769,-1.0549991751205055,-0.5586339988641613,0.015997389791413342
-0.21969711784550336,4.6793548383962715,0.5322985342941996,2.6623205312684273,-1.5067111618017346,-3.397109215845986,2.7644568818653013,0.38392094301163193,-0.133586006787262
-0.2575007193019479,1.846609562423702,1.349991910346402,0.74518156356209,-0.37926912642702815,-0.7263321264932264,0.2754258433472275,0.4751423554753638,0.10048764901344366
-0.13472045989528533,2.035099200179235,0.43818512523790065,1.7224965895795266,-0.7941378063051069,-0.9162945561888847,3.025795026496008,-1.9457338470733303,-0.16844666145246023
0.015043633261316889,1.5097653321235536,-1.1831319117719277,0.3038284647740017,0.19765966833613513,-0.13325933788293404,-0.5613807706197297,0.36189117692995787,-0.20194880116647312
-0.49435481916598356,4.1388021259596135,-0.6784485908892751,3.153996007053447,-1.0098562283820591,-4.051079864390116,2.835929125319393,0.2481118323328353,-0.29467780908089736
-0.1666036362394412,3.072627180994486,0.2906683055768375,1.5947756058018268,-1.170763739768734,0.639888902485604,0.7621746224775001,-1.2014877670160367,-0.2466262680079977
0.14223969820506369,-0.030705760939413112,0.24560886484010722,-0.20845550510564348,-0.33522385081765266,0.4193381100454645,-0.7265228284913782,-0.28187055033916836,0.1674760652178172
0.11999014806128237,0.18186144288278017,0.736846145752184,0.31417150029008645,0.38267202298816927,-1.2984167358862908,-0.19232593988140573,-1.5842393358816713,-0.22160376075840255
-0.15653181368651703,3.699006153791466,-0.05093307683495454,1.5689451142742574,-1.193638211534937,-2.7578638426323714,-0.9151711722309951,-2.4001918470899186,0.009528825007650062
-0.13285347666366124,2.9526908434141577,1.8780206665994852,1.6477549442031716,-1.1424915553628803,-1.933029715442991,2.6459677851096486,0.34801224812066855,-0.043146713798805275
-0.4098036234496023,4.385521623532251,1.3345300911975513,2.982288459624151,-0.9620654176659095,-0.1261669438569013,0.5029686871532704,-0.029459100796243254,-0.400988036295219
-0.152477745394965,1.177052608997915,-0.5711730292619365,0.9542372426584789,-0.4596227156644576,-2.081456280658761,2.182572740064957,1.7307498669506434,-0.09289668823814683
-0.23648860390159215,1.942202127260608,2.099850772577493,1.7681683924357103,-0.757594141323677,0.5544383628286693,0.15345367888006728,-1.297453118598677,-0.4577655464992206
-0.021288371811790323,-0.8396369182622982,0.6807322168454993,0.8018224341298836,0.13216997303555414,0.5682093510320436,0.8126952922498928,-0.18863265028233098,-0.10276184802959033
-0.3972026544027263,4.226473494590369,1.1255083831987414,3.1974471289187036,-1.1225562160465887,-4.021122779571771,3.542597712512595,-0.7972646937768543,-0.22922818435535205
-0.48213152581495294,2.011552335798758,0.46944196344792716,3.0195950610106372,-0.06771616991445861,-3.4134670444847517,1.8880416362521257,-3.1468504496445027,-0.3425960075420885
-0.10996778792938977,2.787445648598838,1.0481149740416005,2.022194410554158,-1.0936346506581613,-3.0363962047916058,2.442421369311905,-1.5574844793032054,-0.1166685396407539
-0.08204055096669863,0.9657133384462879,-1.367085216012512,-0.1785260996477156,-0.5681753077967477,0.03767451502078867,-1.591341540179891,-0.07922956669396575,-0.28626998182324326
-0.40744921384484917,1.0655016397969908,1.055002511492707,1.4867936486174056,-0.3434185530874423,-2.9269183898820605,2.2911890084955666,-2.0022330667240444,-0.34854874195029567
-0.20377286474085815,-0.3793990573500745,0.8000222481633453,0.5140247389196129,0.06633264662960997,-0.4566787937081282,-0.023541251904220854,-1.1070931120264413,-0.21545724960231555
0.12439608871332757,-0.20275456587812024,-1.4299652438502994,0.15503722030829015,0.0872187656149931,1.1953607488648053,-1.0264677594480285,0.2638673860941758,0.005399905898640216
-0.2776263671960107,2.6565759213894817,-1.4994033059079468,0.8025422668438449,-1.3425166163652238,-0.15392968317223868,-0.8804035531726195,1.3444694818843743,-0.06645976421744135
-0.29760437377261056,5.642498864861394,2.2500818602537622,3.413807502586666,-1.4927265360229192,-2.9031794834712894,2.959867559121648,-2.602638797781474,-0.45337260132443735
0.028280388056901754,-2.4936412302839193,0.32301541939915124,-0.7689043994684066,0.6690208613092749,0.40951578592192583,-0.00217718278884592,0.8395519078055007,-0.07983114845487532
-0.013752056252631182,-0.6829840251113364,-0.5861795142484274,0.6123802135178196,-0.4073284894192746,0.9790694113936035,-0.8924448038656895,-1.5086701641437419,0.09386934882376562
-0.2812257498281823,1.055222711953571,-0.03504845444193796,1.4932070929461023,-0.406980933043842,-1.5403390681099096,0.936660396711221,-0.657498472561459,-0.32835808716210857
-0.21559950855002888,1.2772468839264999,2.2845288234970638,1.2939712902800147,-0.9379327557280899,-0.8616248363688774,-1.321709162881708,0.7279601587471096,-0.23794288680125852
-0.056590942208631395,-2.137108997928457,0.9732666768326557,0.26178213951936846,0.6235738560611817,-1.6311838207494946,0.8002414017297527,-0.27106288829842295,0.15227059488288397
0.05525701587189689,-0.2806133874515724,-2.0294082027293956,-0.7177511447940359,0.30518306428395825,1.67967419047888,-0.34108552550208787,0.9408808054913883,-0.017850608757297826
0.06945126172593173,-0.03594034717548026,0.24194807060976856,0.9019562839518251,-0.09918924823752666,-0.8186167528262707,1.505546426020357,0.9373995415714871,0.007860133931551317
-0.01555349157481782,0.2687012072115178,-0.6451591875004288,-0.2238130490800797,-0.016498535921173188,0.4357708835571561,1.6896749375915983,-0.7482665997883093,0.024754277477462526
-0.015060765202722436,0.19273784357313448,1.1223915465780006,0.21065966673377123,0.6114918433530077,1.0509798018614478,-0.29481175368252904,0.30509938589720803,-0.052107835483697094
0.01169784686765304,0.14894745808561746,1.3759679040741681,-0.5408453557857725,0.1312526910801662,2.7048483330116873,-0.03669236759753688,0.48831553730196187,-0.08867969329465962
-0.4155164167058539,7.0661070562232,1.6159293189993547,3.3916721463658694,-2.28145858143478,-2.7589038529162595,4.757423274994354,-0.5666355216165246,-0.07121535429736885
-0.5811577076898542,1.1829528781778136,2.331497856692572,2.188133810113013,-1.0333318695248765,-0.6412801603732727,0.4248744862191807,0.35826972000495927,-0.21031987576013417
-0.3401863055369183,2.8255739758835565,2.5632851899551086,2.5589960738558943,-0.7272135669833708,-1.3018109319861746,0.8797545747482107,0.5968119805234642,-0.13194485045003904
-0.1474718644013523,-0.2098409083124332,0.16160292714751395,0.3055299659185884,0.8830420782686598,-0.06279467777065062,1.0182040367003258,-0.01923494682586313,0.08000430388875096
-0.05547898740088972,2.5481689666560943,0.8426732520983983,0.6581898394196299,-0.9827196197757151,1.2250637772568513,1.1248507064738387,0.3919701014766057,-0.17843713060857647
-0.7845201350649714,2.801318056300645,2.118267551601627,3.130361187197172,-0.9990080672884964,-2.776138578160207,2.047561350838371,-0.9371995700807689,-0.42062903197936524
0.012915221628057992,-0.7787971395821566,0.7754877719173584,-0.8731824191520304,-0.6753650533757212,0.893651082322078,-0.36491765901351764,1.682194746452346,-0.05877317316340226
0.03735256752339394,-0.7268338655282126,0.489144090206212,0.7161961147195715,0.2580900246779466,-0.9966582239658623,1.005540689791594,-1.910973130505279,-0.20444673755212728
-0.47692545913363904,3.4580978798016826,1.7369988074963008,3.255207636075501,-1.3864732205958714,-2.2627744237786356,1.2531867721771504,-2.595210681626556,-0.4462740905691214
0.061108167817665024,0.7707902410945089,-0.05134608470448155,0.05801608145467507,-0.03833022882215819,0.7989540202073508,-1.1249669514797742,-0.9130704785910495,0.007604200076374282
-0.505700544839221,3.063604123177565,1.7358561898783074,3.1528232265089207,-1.200991744478731,-2.3470537598007963,2.3239676735657406,-1.4907272746587115,-0.2765496104499643
0.007608914014932866,-0.9368011767765745,-1.5886590258713853,-0.5479727586857205,0.41085956184230527,-0.36247063790873796,0.9418608046795665,0.6791890581970099,0.02445704675776275
-0.4437927806709752,3.0772160850329806,1.0884507909488512,2.974596020046132,-1.2795115952663476,-0.3245407699353964,2.1200910906566417,-0.6924235840502837,-0.3815357580960825
-0.181892832976528,3.2790701554408948,0.9089598092204002,2.627148206986947,-1.0002708270324365,-2.4222957783113293,2.2866862083928727,-0.16498474396448914,-0.16328290526967426
-0.5070564308250257,2.9137202082381823,2.8320616518781687,2.804436149342764,-0.9188882336561152,-3.249041069072192,0.48572071007803364,-0.9530623840982878,-0.1508106247137947
-0.280118014052199,5.225903789803659,2.6525172322547013,3.005693251180844,-1.5045528363681548,-0.4366681878364327,1.2826331578401562,-1.7637520576699,-0.0970258980164053
0.07638523499070016,-1.8329839466046471,-0.8252248528993436,-0.7715802858707499,0.12297964516702505,0.5920492486637152,-0.25303086992449286,1.6212471663044612,0.10781958352427796
-0.1172551925810234,4.996826058745073,2.411712565669106,3.060679109820284,-1.6515575035914354,-0.9230697224388241,1.7120009833052632,-1.0350607410477763,-0.37098720905708743
0.19592454495408784,-0.5347126009823167,1.3972780571258927,-0.22804428019093193,0.3111884193630447,-1.913965597950205,0.9543537438163906,-0.581199489980391,-0.2331385113596399
-0.04657768034914084,0.03359314579360767,-0.6165101423940841,-0.13690992808996794,0.07038005330244372,-1.336890373328775,1.051827967387669,2.091959317078364,0.2560317073109091
-0.20923714283165237,1.6790726759245322,3.395277335366019,1.8932219470119427,-0.5896064388349013,-1.613123181597846,0.8107972965761314,-1.2771452823908118,-0.21072198051139818
-0.4550566420776652,3.4490553618307147,2.495965841630374,2.6712896736903984,-0.9513810012277263,-3.0417172199116465,4.388360436382435,-1.014813954750211,-0.3044443816431953
0.023354028698234476,-2.789103944656852,-0.5414183471168477,-0.8444828307820126,0.9199459972514701,1.9923063514672115,0.4474576897489587,2.5965295365673615,0.05530464417487493
0.0760592921994552,0.27238634408198925,-2.267556752649252,-0.23486704967550875,-0.046541006551195765,-3.757724434117926,0.6990402591778645,-1.0465951938272526,0.01686245142807275
-0.3789475213928247,2.6811643016454543,2.1322580653936867,3.138639437911417,-0.474760838715118,-1.5466982190788037,1.0191632624934555,-2.8986794472363497,-0.32832731226021966
-0.1832500020748166,1.7446227467154445,3.0489429716764866,2.1949854787241865,-0.8723269994938824,-1.8826934092972656,-0.6681520508480604,-1.3441163403354257,-0.4989583320464302
-0.2806513827539284,2.5207904800447696,1.3530014143715643,0.7866737054837782,-0.6939114761355638,0.6285142831164549,-1.7815754491897802,0.4016579187432828,-0.3414276987037971
0.08979631377277368,-0.19185639656220885,1.1251214309351232,0.5127670454406297,0.17063150349458509,-0.4640266566156942,0.44328799055351326,-0.10399736561795236,0.03866073636656933
-0.10276110331887156,-0.6197185606807201,2.2408439047770625,0.5570587957103497,-0.4347010559875002,-3.644578022754415,-0.11217334753375305,0.16012943154435397,0.020414252305313792
0.1583501030156132,-0.1949684437042116,-0.7918927255663526,-0.2722274592627023,-0.2858141365101031,-2.0501390535547337,-0.4315329796648238,-0.2674401165625062,0.13129398072827592
-0.15779315327885848,1.4138291865651356,2.696954851560466,1.2501823356055506,-0.9222235628599333,-1.923086902005669,1.2638699178649744,-0.8338326597765913,-0.28491966662748897
0.12239264617833513,0.2532911126850014,0.07021842882697799,0.5043253325487482,0.17173698710856086,-2.218083390217882,0.1782338477935313,-0.8917896852840755,-0.06990575193520225
-0.2909454668402718,1.6465413043698127,0.08866832705806252,1.2775821701973564,-0.8083124697870462,-1.0289424531067557,0.8176828671827633,0.8419265252712889,0.1605083732943075
-0.16862865653340287,0.12616427002163336,-0.37804428179806343,-0.45851576683021844,-0.14217959352739448,-1.0806170685953655,-0.5026911188504337,-0.5086404484692706,0.21246370013948634
-0.036991555964735225,0.18867179457965633,-0.23312152639992667,0.6081206157726637,0.12020172439404625,-2.8344912884503195,1.3541204173380783,0.12438503884263485,-0.09459793276780276
0.18459453409908003,0.5125418040667498,0.7503161311567096,-0.7230984068322898,-0.02546160220964625,1.329736242674201,-0.477101153387747,0.935841576445167,-0.19985233214585912
-0.3524628538551058,0.6571826603324458,-1.557480534414555,1.2889229336594439,-0.20523343539069222,-1.592559009659772,-0.49845696779417276,0.006868725644841811,0.2871156036046312
-0.2803207619912443,4.255948338303285,1.4787532529523357,2.021393011845959,-1.3627482107845277,-3.281088083331883,1.8622186323152974,-1.9822631252566958,-0.3221409521237499
-0.36653845373294014,3.907353538867985,1.245959393462839,2.6891755610135584,-0.9916974308012901,-1.3810116153522802,-0.15126950981613307,-1.2328633819408028,-0.348670286405316
0.17996659050049285,-1.5718411696785017,-0.08646271203501199,-0.7774324650866183,1.2346005047086843,1.618881282191655,-1.3903776526307925,-0.7080165818166451,0.15995934442990334
-0.14727240443248737,2.60006856504131,-1.5070052209701148,1.6365923694845605,-0.25163829797979853,-1.4682283180318478,4.175845237794436,-0.48321321843485565,-0.10810085120322555
-0.2474643155646503,2.7296531906005725,-0.1866427054136781,2.6375188618534975,-0.6151899646505151,-1.4239313183529052,-0.3306307232560369,-1.4905979653008399,-0.07193646633955864
0.030521093974722493,0.8564406613882491,0.08711368631773532,-0.1676568455352314,0.3598349648435061,0.926486781174857,-2.2533586822379226,1.5430389062195728,-0.06231769394676946
-0.06471811527834725,2.7225273991776566,-0.21088263900490317,2.978053403785706,-0.43840140526091753,-1.5849299346272492,2.4743043658340813,-0.3739978583991257,-0.3048016236427534
0.23312178287010893,0.03486008167141497,-0.407953104214355,-0.7446835977546833,-0.2839502702878719,0.036283184037751715,0.4942750989766545,2.0114223096716812,0.285459729381521
0.04590374235123393,-0.9582514877502738,-1.358517445688681,-0.25150765064573943,0.6970417558746151,-0.9376065940086591,0.35960579471905646,2.221877226023187,0.1802688964305067
-0.004066993291482574,0.4619752820268088,-0.5969988974519507,0.04232395597442573,-0.6001997072001747,0.36491926351916054,0.6353113345425386,0.22309369004116975,0.2796919870632907
-0.06904002096139848,-0.9192561385885445,-2.3708865028415698,-0.10050866069929099,0.3738189974385323,-1.5602362029689365,-0.8262355941603917,1.2977990009275233,0.3840046130556254
-0.38539442191242285,3.7203888184310068,2.9862731782837155,2.9420292932252403,-1.0421146796043754,-1.1867421279475656,0.8143363886512734,-1.2015513097514652,-0.1463755425473831
-0.3790591953286179,0.8989566882647396,0.9658733205854625,2.672349324248094,-0.08872874179958554,0.061821532970462334,1.2270498171052815,-0.8949777859399869,-0.19492288009109723
-0.04598195852749424,1.9098161542562866,0.7208799615671007,0.27356128136432867,-0.8362364395866466,-0.18935356136597115,0.7128159965736107,-1.824876661852964,0.06474760132426621
0.10684001351152239,-2.486536051811374,0.25786370920616236,-0.7950282744242185,0.643548979325823,1.5509011176048633,0.317563760200426,-0.2994075672401305,-0.15436077691216069
0.11607200241343284,2.1537926905672413,0.46033509793456634,1.828831009201441,-0.9702886995146711,0.048077537143008664,0.4042629503634093,-0.7088141052456765,-0.2194486028303853
-0.3865763012097593,4.517406867904087,-0.5948253044003973,2.078292341203794,-1.2240713166045711,-1.0870707546253588,0.5657939184279747,-3.3388187724191787,0.00528204839787087
-0.3542677166453007,3.3195469047757613,-0.41007185065666996,1.514058477705106,-0.9763102186792818,-1.708151960225369,0.2127384113782123,-3.5868864363790927,-0.13565716359678995
-0.36302236206653704,3.4003548383652618,2.507382780554296,3.369622650523107,-0.9352558102056301,-3.5344197243087994,2.1969809090763452,-1.4716319022084694,-0.6050134734419801
0.20531253290873858,-2.0649027226764987,-0.10425901914320793,-0.7091303841375597,0.6124820176349125,2.8296357820116738,-1.7537963431204948,-0.0679437929455128,0.04976712391502453
-0.2942068536556647,2.3188250455001405,2.41858617270743,3.3656657028153676,-0.5464328292454318,-4.583891234584876,3.020172344356704,-2.4575379287197845,-0.16729113232232248
-0.11894400362574377,2.4357422848454777,1.1455275696197185,1.2722183179473632,-0.9063281953692274,-1.4763259328601284,0.034799793405186984,-0.22311432327931607,-0.26016588647260774
-0.1466846512013134,0.2629883830140636,-2.328329733405491,-0.6784218601372755,-0.4974791093574391,-0.2845322199787417,0.013382097196037257,-0.8544353562202494,-0.01676117506696214
0.06243711345893494,0.6647707406589061,0.03635211334773821,0.30443102574721403,-0.2693439277121262,-2.4492230792201832,1.1670020513680812,0.33626187018392895,0.04910842226491224
-0.47172746121677084,3.7550362631387633,1.677355708108157,2.524709671967306,-1.2108480161233133,-1.1496270132261306,0.9263649002476839,-0.57738638138808,-0.25444713991107815
-0.5114745648704772,3.79875922859145,0.9535970116941306,3.1000738950984292,-1.3923956848264971,-3.041730574241754,3.932458455306807,-0.7678300588988926,-0.3239853141546504
0.20863629379098117,-0.1265617894321082,-1.8216715795760532,-0.23795745378495325,-0.22437817624461512,0.5855813099572648,-0.2969758368923279,-0.3706094647841162,0.04887170251199621
-0.5200513143517626,3.1344816852155697,1.7726185269961223,3.411776319364961,-0.41126463445150485,-2.155580450943154,1.795382275501194,-1.486254116274615,-0.5126998074777066
-0.20081208934136766,0.9056565262262403,-0.7967524228031536,1.3213686170062728,-0.01887529175308912,-0.14876800150936575,0.6886509886272382,-0.6505233988431257,0.3428856982197519
-0.5372612753419417,2.3220654054992877,1.9232583977080857,2.8483361955205573,-1.2387590762119178,-2.871518741050993,2.188503420297814,-1.635915932887071,0.0008291587531484907
0.00709754800232253,0.9280572584970099,0.24246910008537428,-0.9633042756394953,-0.3212330191675842,0.34107498406231496,-0.6184964914313342,-1.890691099768904,-0.293838378801831
-0.2538669185029342,0.041480461041031605,0.12979287463898606,0.405211983700305,0.2928500261185926,-0.09302761301061482,-1.5319463506698796,-1.565002671144356,-0.19736659641617954
0.09739524242638788,-0.4758098585040147,-1.263060619248795,-0.11230733182817865,0.2704775034069856,2.7398887795341045,-0.7218346082644443,-0.14787606806050424,-0.11622598189896381
-0.18488728983976724,-1.832383775817265,3.1607765378083736,1.1166976378669853,0.20356965511894035,-0.2900089783740911,1.1011354039937642,-1.41869024855206,0.11115189506582246
-0.06116507843390117,1.712370308912978,0.7941243066476071,0.32935585508100607,-0.700669122842397,-0.8153868085915065,1.4290665729380778,-0.8728354829663713,0.1292192720439422
-0.4085504613573494,2.2716061099537495,1.1758320934793818,3.328199806001395,-0.5998170785916795,-2.322435090353531,1.1118382931448474,-1.4122807775541861,-0.3265963243364758
-0.29077646826194303,1.0872548348627604,3.2047201814328687,1.804355197562506,-0.2772236601286792,-1.4546009150466603,1.8759204465039643,-2.590138850894593,-0.2370052749651529
0.11322660257955977,-0.6747003072642492,1.7743478032176303,-0.46632595817948486,0.008545000759022349,3.0381511111178963,-1.5445992778124578,-1.2810601447382028,-0.11093653780411043
-0.49721579912447095,3.9359592658772926,0.5860328444548737,2.6837906283697723,-1.70899661924024,-0.7331169815151077,2.052375199125012,-1.4993096335089806,-0.28544229269796184
-0.10828119807263711,0.20814627043681708,2.0849688676451534,0.12741601126072566,0.25801767746777393,1.1614530095668822,0.21873292654550666,0.741655813205649,-0.17871716232441706
-0.14815909225266144,1.0666804885804584,1.0046068118983689,1.5588732761594764,0.10913301682548043,-0.8054353831561789,1.0407931727892552,-0.25870662539233724,-0.17188850876917458
-0.09038195765296544,1.9704672097914206,2.6237369071926677,0.6813723175988573,-0.6328360916535767,0.7390533895514074,0.32082698182388264,-0.7839599978892797,-0.144867730376234
-0.006840129126132001,-0.5145280470875273,0.2591167311126131,-0.3385078003666002,-0.4238173969541,4.219862007851811,-0.6428372621408539,1.0661712828684378,0.28532100929115906
-0.2246333422019935,0.9499414956471541,1.2115809033896072,2.044757153268124,-0.3300862300020193,-1.1258874333511133,1.3599946060717363,0.2452158130049254,0.1338164531078271
-0.1967713232650117,1.9158047647964591,1.344338953522714,1.116358863514836,-0.7477190052659699,-1.5279985396544236,-0.026748147032451645,-0.39657760830453836,-0.030864963881128353
0.06920494688286097,1.045559863229113,0.7002912734889848,1.0929215678569397,-0.19163924335112656,-1.4067977765668218,1.0711811509960814,-1.0570267244929004,-0.36685630162324423
-0.19914333275869214,1.8059243448719873,0.8097888290798507,1.9625013132406632,-0.420909993587187,-0.42713065897976854,1.7397015005335539,-1.1589090103114101,-0.29673948577345166
0.2550367024201241,-0.2798978105662339,0.4806231279832549,-0.905826753628971,0.004405292095871604,0.4728932168501119,0.3595724851492741,-0.5826250730045642,-0.05365873124869856
-0.12323487841161726,-1.9991021331543999,-0.32756027148801276,-0.5287557176736142,0.7650479801875905,0.8337368637185614,0.6634826908974724,0.9026421455563285,0.24013811565306759
-0.08546894854304389,0.4199921599590713,-0.3812995836392745,-0.2972871072688883,-0.22560385094147484,0.41204363884871464,-0.1255643812688886,0.5248353588677055,0.18906919397668515
-0.11242221232652237,1.9945508037990745,1.0267435262184954,1.0472805054851708,-0.34823253983138347,-0.07297196285655504,-0.5265320643166194,2.7285311072474827,-0.04175325665354151
-0.025055634892624464,-0.26049990772628867,0.07149530443123148,-0.5132319118458041,0.30881104789152414,3.9465531542702963,-4.060348078006513,0.13020140122667428,0.1549406628301607
-0.58735936663054,3.6079732177448687,2.240459645951285,3.024231095762458,-0.7783998863414241,-3.0338721099982764,2.0505111927794832,-0.8029216379924686,-0.16282451322045022
-0.2935237524330866,1.5146510345098534,1.0951061753913036,0.6775731703742207,-0.5612400259117537,-0.9644738814529406,0.5541941575743061,1.199211862106019,0.20865730308496883
-0.3178491136022952,0.49333762788763497,-0.2044367900700669,0.837695693874875,-0.2659348885653948,-2.124202666965764,2.10951161709111,-0.15121488906864083,-0.28174763840732514
0.001496486796995958,-1.4469820526135835,0.22761553627517053,-0.5367809723486029,0.39256357371634876,-0.6219598807534136,1.6429589263801172,-0.541866784714091,-0.09788323348647807
-0.256355561286234,1.7915984764353197,-2.0360741078676625,1.2982373265687697,-0.28285225663677366,-0.5605755830135501,-0.09437773229690995,-0.6053816225238086,-0.30815884128417304
-0.1698250860468643,0.95729498745003,3.142369441841889,0.5022583639086473,-0.23231059213657562,0.04503529948960022,0.1359310568824371,-0.6128146764422697,-0.0646893149313565
0.13116717301450181,-0.7454801473255097,-1.3866486213828697,-0.5833831992459966,0.26741038954912555,-0.46606259890407165,-1.1530700137965288,0.29763010471825946,0.2633536994683642
0.04730615741174099,-0.6303395604332463,-1.106185572989225,-0.13751144470701038,-0.3334749148200823,1.1011641360112197,-0.5111685818612615,2.341671502297331,0.47085970390186394
-0.06605334581235268,-1.9229743092480656,-1.4490389357291964,-0.3322899739004517,0.171232519449982,1.148540996728853,-1.2072800742967333,-0.909092440935574,0.14547669952660414
-0.033316880966717574,0.8121396189812349,-1.6393506687010408,-0.3534226874760571,-0.3227942479268226,2.2596928796003075,-2.3947504738346503,1.1541607485053889,0.12241107031650639
0.06466726423580925,-2.4826249089926713,-0.39045957709298257,-0.007593843017960511,1.047501242813148,-0.5989999936715731,-0.0894875544760622,0.15931653696722017,0.1411064598351865
0.05054865889276091,0.09497775208742865,2.216327364676058,0.8501446149597391,-0.33109299135894293,0.8609035306661226,-0.6859554949016035,-1.1056778987804703,-0.2618215989632782
-0.2809056995636625,0.8960001155633133,0.698432163831973,0.8094389447586934,-0.21962713005798473,-1.7394663551301413,0.7069671964669956,-1.2913129202491747,-0.2589585708278753
-0.005338649663995631,1.1079477444206656,-0.458339066406099,-0.19895245425000552,-0.2808550879798275,-0.2217885657173322,-2.694938115905726,0.8151807823429034,0.02182736770862045
-0.4522476637756169,5.089698683454451,2.324076105038996,3.349651627433217,-1.0608483593950817,-2.240580167175062,1.887704333795273,-2.27725611877756,-0.45989067548257795
-0.35554968248050756,3.243603054366469,0.45087919022078304,1.95957712802478,-0.5421228086724217,-1.7939517149759325,1.3241848290329998,0.4015984019503561,0.04249890061953324
-0.3724978794516106,2.447575529169766,1.0150562660339266,2.394095467703701,-0.5425278240161809,0.5530279357315859,0.171249241343777,-1.7332880907510932,-0.09015069759059632
-0.47466114385581204,2.940661535826741,1.4003988317356302,3.1415974277739718,-0.8489215290950208,-0.6841892330767936,0.2620006172125091,0.6030892797243601,-0.28136872183190365
0.009761999503600695,0.342734986324348,0.24456636044312458,-0.7265738659421389,-0.2902372747579049,0.6359940053425625,-0.08710371368843291,-0.24358626872402517,-0.14298700932118263
-0.11306896261013487,-0.3476538217494419,-0.26243811336110107,-0.42856708226760354,0.3036124575007449,-0.6722044210199918,-0.5593869208415401,1.1417616611662504,-0.22823911493738688
-0.20075171162058508,0.2088743218930657,0.5534960058747379,2.4217734169058356,-0.14410726039618055,-1.7193036859660145,-0.12055622097799,-0.9761948302277369,-0.356849972898087
0.07547512048578575,-0.3330803447746544,-0.167653240533096,-0.01253989737546568,-0.2313185620860442,-0.45884829979411146,0.22907410685706614,-1.4727853774369648,0.031746845856876815
-0.11578597068390906,2.8111716440170538,-1.4752598751293684,1.2169776702936295,-0.05662503144922665,-0.8930419732281443,-0.470672068891194,-0.28708815682233224,0.01965474985152117
-0.43806013815866646,2.4389319799177245,1.9271664332284872,2.5194030500633873,-0.7398867310774889,-0.3325706247957423,0.1524788320593128,-1.6956879098646522,-0.5621862476616925
-0.16390098153659616,-0.5634649742808169,-0.6935249953284889,-0.19481885603357474,-0.24975557717054656,-0.693548357979943,-0.6575470078895366,-1.0007764591192252,0.2419408820026507
-0.17214353455304776,-1.4657073518138373,0.6507503018920988,-0.2578005800118093,0.5721402344732947,-0.0783040679548038,-1.3015266422705483,0.07728929659168049,0.07834974077010533
-0.381627269151199,1.5664894329841856,0.5991492500592904,1.8121214568310022,-0.544113715543617,-0.7647570674810814,1.9696998573161582,-1.5339496755944402,-0.026008631369265452
-0.16289377259433996,1.7683756211310862,0.6166948647171917,1.3828301274891222,-0.5567391319535117,-0.7889116700199491,0.5408801906995865,-0.5146530915145098,-0.16939056415802015
-0.17563239222509694,2.4269810225263724,0.5572013324006869,1.4862722080671071,-1.179493148398392,-1.448392105110413,1.0241952173418893,0.07696386369639019,0.29731779626312604
-0.22450112965570473,-0.9021176142218953,-0.9268558125376127,-0.7302903280814155,-0.0009595256736151561,0.7428538352920097,0.19238661932487294,0.5464031664719365,0.19602947092105466
-0.09719193226637622,2.1100370535596005,0.9771389509356597,1.9306916720750706,-0.36903844747198095,-0.8235547106015394,-0.8266556662791171,-2.329586818866632,-0.3701960093115062
-0.20868800682673,1.5294184189704387,0.6057922993819685,1.4731546896140997,-0.2903844590031211,0.40798026690832634,1.4505491679494342,-0.3248302628074111,0.08604867680664806
-0.4297311465850253,2.9431605421768126,1.5808634789217444,2.368938012766095,-0.610394725780461,0.1930507627889082,-0.5724751327652582,-1.7380507472160855,-0.19663913763119817
-0.5516842813453944,2.6183283915831725,1.3513803766080867,3.1167170637069868,-0.3976101766767118,-2.0275128476032043,2.9152219339898733,-3.0488868163692673,-0.07704488908852859
-0.02838477331340881,-0.841926282245763,0.15088112869679893,-0.2855947806750626,0.30888114479798034,0.695005600360518,0.10208541337293144,-0.34613352613167864,0.1435298098301756
-0.4234774497794299,2.397728486927375,2.7118374791620248,2.732436160750247,-0.1998772906130022,-1.2432187045186278,-0.7825746187316195,-1.7204328096416308,-0.6348730599026269
0.13287101386751227,-0.7531880560883519,-0.9420656928351183,-0.10872244578868151,0.22197043438646497,0.1396187222392154,0.3362368172255082,0.1725516455368714,0.1962076997064341
-0.25822943295402856,2.346032183244539,0.6237008960658265,1.4156533484280924,-1.02275902001939,0.23505764220237266,-1.3619905999531032,0.885665032233163,-0.24781011899345562
-0.5448575781432469,3.109444213601424,2.0382519837107402,3.1749406840768106,-0.6967510947341073,-3.0293498470749896,2.845876796022043,-1.9534642046053456,-0.42954377275978006
-0.33743526266117396,4.0114199539330055,2.7754023746917635,2.476183676562492,-1.5534177383150953,-0.3327300846300355,1.6653281755886713,-0.757626680197547,-0.0684093550175942
-0.2698695277979358,1.7198146448257476,3.1449071436121674,0.9873903794336263,-1.0730504009844115,-2.016116934147257,1.458009084638495,-0.8338496420477779,-0.040306128418352544
-0.14880510738733568,3.0895319564335386,0.6592476790276559,2.030623380021458,-0.8486962988768588,-2.233332109863769,2.1139507433958986,-0.08666280272575566,-0.26765649960943255
0.28714669891524225,-1.8871833373806155,0.6563511591576134,-0.8825352788690171,0.13989381182867108,0.17624210904804127,-1.1610272048648296,0.44956116186911893,0.03273411729234124
-0.005231550564372837,-1.3558054781152842,0.6147877765134774,0.846158802132001,0.4891636840677505,1.2011804793422072,-2.4819878943977947,0.6249161784224321,-0.09657153428629396
0.10900327657200863,-1.6839629414131894,0.8062609650024979,-0.2189587002207921,0.12618479177922545,0.3649530541133571,-1.6217566700793828,0.18470405616211227,-0.16485588467941628
-0.3380767897893002,3.5200068368968402,2.6814723688247692,2.9290613792384734,-0.8892262855740504,-2.6506513898015087,2.6677224474803403,-0.22925687572917508,-0.30955367297148645
-0.22454299275656203,2.1316720354633416,2.2621518944395893,3.2492718439947454,-1.1271437381113727,-2.810853413444491,1.1360894062181421,-2.3549364418826597,-0.005796581854013745
0.06120304455464151,-0.3688059470531257,2.026281807541999,0.516124257948652,0.10838450266042256,-0.1986856580917401,-0.37610168518154796,-0.6552183518979116,-0.009493055929390825
-0.08485122853108168,-0.019651215748625807,2.7330346708528115,1.252291457175069,-0.0676659917741318,-1.7528360839045285,1.066120685145382,0.42599771497196226,-0.29630998992061924
-0.5345840357468066,1.6226726569787682,0.4306516510439942,2.322763844878951,-0.7380536290332289,-1.7391464291289964,2.641097891318801,-2.698599485756036,-0.0860640409825128
0.16450379601431436,0.7056972384377597,0.7310128701228912,-0.6142661230448396,-0.5897914007914645,1.499407187630478,0.5457922608553178,0.2486437851169614,0.39456564535889954
-0.025227185989794117,0.5304650285356354,-1.616003431715915,0.7341705760518429,-0.5205304370213395,-2.3935613742552926,1.7230151367956388,-0.7184488223925687,0.07113974768170149
0.0267218740206674,0.3038479021579701,-1.9076887721316047,-0.4694830610605567,-0.11099694920249863,0.01757565625102142,-0.6668041679460076,-1.3801722979444055,0.005884768762188945
0.04276755997658208,-0.32021726580058774,1.0055879743622322,-0.4140597256307712,-0.009711931226678431,-0.41050847581172684,-0.3439757269144196,-1.9795858566545725,0.07262351302725703
-0.36368342290756117,1.4786744757458414,1.1535995222134052,1.3928677993596228,-0.4628552985986778,-1.2484528885550226,0.8714421080801723,-0.9413828631304046,-0.20069513747021278
-0.053163557737118144,0.9587787597107404,0.4899976105371956,0.5517865321448945,-0.19601766512074195,-0.7061553872916785,-0.8103562433544073,-2.1892734312112747,-0.1292706974203133
0.08681982790522187,0.3074628424758507,0.16339351116539316,0.11092771481445163,-0.010500757951888196,0.11030828191582298,1.2190337652355379,-1.0902213197745807,-0.14417362316586918
-0.36146103179632605,1.6159576023460445,0.8582628397762535,2.9369255659731537,-0.2904807080299868,-2.7743967860448304,0.7406560214744766,-2.8277057494231768,-0.07224764214305918
0.26464289679164826,0.9919503458757745,-0.775847316685559,-0.5621353406274968,-0.10887106355258694,-0.5847380230142751,-0.08951787461463061,-0.3619055482264287,-0.007822299806232275
-0.04191432645734912,0.8836720163628317,0.9077956382322253,1.7573730226910773,-0.026320756263348625,-3.4442429269836934,0.8431713082396297,-1.4113182281255012,-0.3320082829954734
0.11061942861623263,0.4537571573117671,-0.268510158046877,0.07462861570041945,0.375575904965356,0.8428944410577066,-0.09512572105800335,0.42810165756565477,-0.0055703634236648715
-0.48294737174140767,1.0678573485778664,-1.0807658805638483,2.058820321787898,-0.6560609863714684,-0.3961449458548967,2.2583487676973317,0.07694925974169015,-0.009369706154872995
-0.2769045734254528,1.47514142732477,2.118964611600551,1.6663023183435195,-0.1268698626247676,-1.1485993519114306,1.0411403901998155,0.9023516906252032,0.12940820270277206
-0.44655094261647477,0.8494390442765644,0.8657475283477732,1.3963625503247798,0.059673224228543,0.13798441969127923,0.6210854283014482,-2.389430201035463,-0.12566747355166932
0.12217009699842798,-0.9621669967882697,-0.7964516686488601,-0.7845524581226184,0.6655176616562887,-0.7780370589484304,0.6675394009191347,-0.03875801307673343,0.206620828472949
0.17441910646165576,0.4792583029091696,0.5300034202007214,-0.3900696016025408,0.13337999349512475,0.034235967454593674,-1.0020945686573353,0.5376660950519736,0.2617916772823449
-0.29765562713238936,2.4215216910555313,1.0012187758223057,2.333665118934664,-0.7480242627202356,-1.8170844136842352,1.335563160263121,0.19665222078393496,-0.18076455547047712
-0.2301283903894487,3.6435682390290194,2.403510039629169,3.164415822834874,-1.1679820614357894,-2.82534820155023,2.4367758311214565,-1.68751205949994,-0.43298351191938383
-0.7103261498982335,5.086314395607104,1.6510334862166702,3.1636500459634833,-1.339341996982702,-0.827599055868071,2.618085821570675,-1.9174133339204695,-0.14572353602293023
0.14681986316072868,-0.6007078097587695,-0.046258404136252165,-0.4774736855168573,0.11122374774621008,-0.48618290339206083,-0.8405634217975817,-1.1911085171187163,-0.041823113983448845
-0.14350875436541755,1.248002875960238,2.240879147261661,0.844332735233285,-0.6733738947698192,-1.8491846028094043,2.354751954292186,0.19632247285123555,0.017758003744405067
-0.10945561585497786,-1.200371123400919,-0.43940639500710266,0.5682952401240129,0.019521427915978853,3.5607750274708465,-1.9359860270095623,0.008870461778910571,0.11375327393071237
-0.1523677838633489,2.674886529459908,0.30890550745417855,0.7830648102333719,-0.3315085547566967,-0.7975791562687505,-0.6677562667387462,0.5472360639325557,-0.09620642749894122
-0.24408613726760436,2.662388467318311,2.004372263499623,1.8107093260505334,-0.8996676725002412,-1.8155682972902882,1.8585987977712575,-1.9643730470703273,-0.21424793343169962
-0.29961972537377524,2.2901383151173564,0.5899955994151777,1.1521511158086453,-0.8179693126026206,-1.8325284462455596,1.4697640074016953,-0.46873067134023755,-0.13022711224047362
-0.6334465507526251,2.0073900924131474,0.489330183053454,3.045334716927493,-0.54449551448298,-4.534574929814666,2.4297189165788087,-2.2390167378030266,-0.30610575284558356
-0.02133605209214839,-0.7014427121180917,-2.2185949373857956,-0.34204302550095256,0.42966968167027,0.5236317093984117,-0.042368276175652815,2.3286130308031816,-0.29343129567655385
