lhs,op,rhs,est
x1,~,x2,-1.0459599784222342
x4,~,eta2,-0.35232456505089704
x4,~,x2,-0.1468020528634166
x4,~,x3,-0.9009479355508132
eta2,~,x5,0.5807451413043476
eta1,~,eta2,-0.6013797559150552
eta1,=~,y2,-0.32222353633918693
eta2,=~,y4,0.9601808492863722
eta2,=~,y5,-0.7661024174453822
