lhs,op,rhs,est
eta1,~,x7,0.13263394836459624
eta1,~,x10,0.37626375405759505
eta1,~,x5,1.0291650235822358
eta1,~,x8,0.08410247778608543
eta2,~,x2,-0.16699264016727128
x3,~,eta2,-0.8611768427566643
x3,~,x5,0.8372016047169245
x4,~,eta1,0.5544786916732792
x4,~,x1,-0.11366282994376478
x6,~,eta1,0.5726217739581863
x7,~,x4,0.6908899479889625
x9,~,x1,-0.6807479834722397
eta1,=~,y2,-1.8831430410523733
eta2,=~,y4,-0.06069531313837084
eta1,~~,eta1,1.2757165252449645
eta2,~~,eta2,0.0
x3,~~,x3,0.9217448146403076
x3,~~,x6,0.004401418442722517
x3,~~,x9,0.03613382522325947
x4,~~,x4,0.5008076894862951
x6,~~,x6,0.675886853623826
x6,~~,x9,0.01383168157497506
x7,~~,x7,0.7694956069520443
x9,~~,x9,0.36917462469686585
y1,~~,y1,3.439946547801847
y2,~~,y2,5.605670946110618
y3,~~,y3,0.8828914468090188
y4,~~,y4,0.030472043852868523
