lhs,op,rhs,est
x1,~,eta1,0.6748176141727666
x1,~,x5,-0.6060532917773994
x1,~,x7,-0.9007430868034525
x2,~,x3,0.6160273422989975
x3,~,eta2,-0.6002352140133809
x3,~,x10,-0.8945542240583635
x4,~,x1,-0.1990118853724194
x5,~,x4,0.8302168560441934
x6,~,x2,1.049656167820957
x6,~,x4,0.9509943940632427
x7,~,x8,-0.6759474374991824
x9,~,x4,1.0004381892454965
eta1,=~,y2,0.8852252812034205
eta1,=~,y3,0.7045228671990031
eta2,=~,y5,1.2917970202144955
eta2,=~,y6,-1.201506622161771
eta1,~~,eta1,0.9130855422388904
eta1,~~,eta2,0.05768568828052206
eta2,~~,eta2,0.5158422709630428
x1,~~,x1,1.4813619383262049
x2,~~,x2,0.5734547842709554
x3,~~,x3,1.1812987938197863
x4,~~,x4,0.7987096334306067
x5,~~,x5,1.1527311915108882
x6,~~,x6,1.989591505595422
x6,~~,x9,-0.05129805724136808
x7,~~,x7,0.4022240659141062
x9,~~,x9,0.7461520589808454
y1,~~,y1,1.0790310799146654
y2,~~,y2,0.7992142539260891
y3,~~,y3,0.5412467402788996
y4,~~,y4,0.9651196477790557
y5,~~,y5,1.01196053598282
y6,~~,y6,0.8863922829787292
