lhs,op,rhs,est
eta1,~,x1,-0.819364796756787
eta2,~,x4,-0.3529009977442881
eta2,~,x7,-0.929782966380807
x10,~,x9,-0.5282090836464869
x10,~,x1,-0.1778617037219515
x2,~,x9,-0.3649308899695156
x4,~,x5,0.6608143611063401
x4,~,x3,-0.6822912268377541
x5,~,eta2,0.17898325339749047
x6,~,eta2,0.16535906065605782
x8,~,x10,-0.2702288626884478
x9,~,eta2,-0.04999022791696911
eta1,=~,y2,-0.4040098434772086
eta2,=~,y4,0.868667870914957
eta1,~~,eta1,0.8244266367739927
eta1,~~,x2,0.019635573150642915
eta1,~~,x6,-0.030507388002845554
eta1,~~,x8,-0.0463043198945451
eta2,~~,eta2,1.2228417324538667
x10,~~,x10,0.23686452657465515
x2,~~,x2,0.18583009787657276
x2,~~,x6,-8.232890775334297e-05
x2,~~,x8,0.0002705695742881666
x4,~~,x4,1.2572261227391517
x5,~~,x5,0.48673781761193513
x6,~~,x6,0.052553212465058535
x6,~~,x8,0.01129322147047778
x8,~~,x8,0.22911792368910094
x9,~~,x9,0.04933078208518632
y1,~~,y1,0.9505290593751712
y2,~~,y2,0.14315953072262752
y3,~~,y3,1.9887615420810034
y4,~~,y4,1.2612498871539772
