"lhs","op","rhs","est"
"eta1","=~","y2",-0.115236473126983
"eta2","=~","y4",-0.297257580463575
"eta2","=~","y5",-0.322985735157266
"x2","~","x1",-0.708921870076156
"x4","~","x2",-0.0975947282804147
"x5","~","x2",-0.774138595900931
"eta1","~","eta2",0.68644236064286
"eta1","~","x3",0.524233357570976
"eta1","~","x5",-0.743874997428559
"y1","~~","y1",2.74553235945971
"y2","~~","y2",0.02789850730245
"y3","~~","y3",0.879045140387583
"y4","~~","y4",0.0848622635387812
"y5","~~","y5",0.114160785537194
"x2","~~","x2",0.534215187466938
"x4","~~","x4",0.0099537153920015
"x5","~~","x5",0.591549703068236
"eta1","~~","eta1",1.68619553488347
"eta2","~~","eta2",1.78670001341833
"eta1","~~","x4",-0.0132683161062979
