"lhs","op","rhs","est"
"eta1","=~","y2",-0.188234429001788
"eta2","=~","y4",0.501046308793501
"eta2","=~","y5",0.374622960330784
"x4","~","x1",-0.857538699971898
"x4","~","x2",-0.31313753467843
"x5","~","x4",-0.733627230783183
"x3","~","x5",-0.778438518443239
"eta2","~","x4",0.966328616213808
"eta1","~","x1",-0.392462318759139
"y1","~~","y1",0.961338552810349
"y2","~~","y2",0.0289952260370652
"y3","~~","y3",1.95351475482946
"y4","~~","y4",0.551844818212073
"y5","~~","y5",0.357666758477725
"x4","~~","x4",0.864634166302576
"x5","~~","x5",1.04433695549661
"x3","~~","x3",1.2576175472793
"eta1","~~","eta1",0.142755765991921
"eta2","~~","eta2",1.92482207565278
"eta1","~~","eta2",-0.0336262066158129
"eta1","~~","x3",0.0408025345833538
"eta2","~~","x3",0.0106603552460017
