"lhs","op","rhs","est"
"eta1","=~","y2",0.407712978071949
"eta2","=~","y4",0.152112390803285
"x4","~","x2",0.164016097644676
"eta2","~","x4",-0.920838855993997
"eta1","~","x4",0.893148523360316
"x1","~","x4",0.576959264603321
"x1","~","x5",-0.546294046904183
"x3","~","x5",0.323708599226162
"y1","~~","y1",1.19888735786782
"y2","~~","y2",0.111869062013164
"y3","~~","y3",0.569637531625536
"y4","~~","y4",0.0672837144245429
"x4","~~","x4",0.0287015989290241
"x1","~~","x1",1.09460514989485
"x3","~~","x3",0.0911330582399781
"eta1","~~","eta1",1.02475034531329
"eta2","~~","eta2",1.20135402460739
"eta1","~~","eta2",-0.0998286495248191
"eta1","~~","x1",0.115267857275416
"eta1","~~","x3",0.013245604635495
"eta2","~~","x1",-0.0471150380877188
"eta2","~~","x3",-0.00431336670408742
"x1","~~","x3",0.0043004703629229
