"lhs","op","rhs","est"
"eta1","=~","y2",0.486295182566534
"eta2","=~","y4",0.793530867637797
"x2","~","x1",-0.14675614185517
"x3","~","eta1",-0.998491787458998
"x3","~","x1",0.616535009870567
"x3","~","x4",-0.475325006667263
"x4","~","eta2",0.584200473259245
"eta1","~","x5",-0.773886120644588
"y1","~~","y1",1.03758618903105
"y2","~~","y2",0.274489009010327
"y3","~~","y3",1.17250095589539
"y4","~~","y4",0.642195970738513
"x2","~~","x2",0.0181548655955204
"x3","~~","x3",1.95880779564105
"x4","~~","x4",0.348770642091181
"eta1","~~","eta1",0.460546277824741
"eta2","~~","eta2",1.63397892070422
"x2","~~","x3",0.00592610855860853
