"lhs","op","rhs","est"
"eta1","=~","y2",0.257943658672742
"eta1","=~","y3",0.764694170819857
"eta2","=~","y5",0.170541872396017
"eta2","=~","y6",0.866010844048032
"x1","~","eta2",-0.593091644706173
"x1","~","x5",0.584863902037456
"x4","~","x1",-0.562835356974531
"x4","~","x3",-0.768533761475441
"eta1","~","x4",0.297769902445122
"x2","~","eta2",-0.500394036329582
"y1","~~","y1",1.7954404442241
"y2","~~","y2",0.235589096085405
"y3","~~","y3",2.1328717512906
"y4","~~","y4",1.06456448342788
"y5","~~","y5",0.0386511947638926
"y6","~~","y6",0.890028348558999
"x1","~~","x1",0.758354727393675
"x4","~~","x4",2.51691725956748
"x2","~~","x2",0.256032536406209
"eta1","~~","eta1",0.148079142748517
"eta2","~~","eta2",1.92069235579788
"eta1","~~","x2",0.0340524065144731
