"lhs","op","rhs","est"
"eta1","=~","y2",0.257547707513778
"eta2","=~","y4",0.412509305219846
"x1","~","x5",-0.420285849063762
"eta1","~","eta2",0.0292188857892692
"eta1","~","x1",-0.49047270693915
"x2","~","eta1",-0.401364025560717
"x3","~","x1",0.408481697964611
"x4","~","eta2",-0.305986563897394
"y1","~~","y1",1.86489784082948
"y2","~~","y2",0.301397754164813
"y3","~~","y3",1.15178944961765
"y4","~~","y4",0.141137558420214
"x1","~~","x1",0.167073717105479
"x2","~~","x2",0.215415361949037
"x3","~~","x3",0.171712678938051
"x4","~~","x4",0.0799049336546355
"eta1","~~","eta1",0.1888180183401
"eta2","~~","eta2",1.5985057835539
"x2","~~","x3",0.00265200784272827
"x2","~~","x4",-0.011274282740685
"x3","~~","x4",0.0108946658731222
