"lhs","op","rhs","est"
"eta1","=~","y2",0.764184602297168
"eta1","=~","y3",-0.372885565547312
"eta2","=~","y5",0.918011923094014
"eta1","~","x2",-0.751382248490385
"eta1","~","x3",0.194094521147486
"eta1","~","x4",-1.15241433158981
"x5","~","eta1",0.655085998831807
"eta2","~","eta1",0.252915226088669
"x1","~","x4",-0.166432619569044
"y1","~~","y1",3.32482007082301
"y2","~~","y2",1.70818143458705
"y3","~~","y3",0.458021530225067
"y4","~~","y4",1.25200367248142
"y5","~~","y5",1.02058492128579
"x5","~~","x5",2.0767903179154
"x1","~~","x1",0.0233942081814562
"eta1","~~","eta1",1.87539618042618
"eta2","~~","eta2",0.218534178025964
"eta2","~~","x5",0.379010805141945
"eta2","~~","x1",-0.00750809670939231
"x5","~~","x1",-0.00475747926566927
