"lhs","op","rhs","est"
"eta1","=~","y2",0.179282244967347
"eta2","=~","y4",2.3130073620458
"eta2","~","x1",0.0686447611730473
"x2","~","eta2",1.5323850071427
"x2","~","x3",-0.357480958462796
"eta1","~","eta2",-0.41863001225042
"eta1","~","x4",-0.760178655934451
"x5","~","x3",0.671969906776909
"y1","~~","y1",1.84433118716612
"y2","~~","y2",0.0585426648467386
"y3","~~","y3",1.06959835567775
"y4","~~","y4",0.726834327661061
"x2","~~","x2",1.00327896851759
"x5","~~","x5",0.4689413821466
"eta1","~~","eta1",0.807059322367105
"eta2","~~","eta2",-0.00246664461901965
"eta1","~~","x2",-0.0239864097805398
"eta1","~~","x5",-0.0314597204224406
"x2","~~","x5",-0.00168873643026358
