"lhs","op","rhs","est"
"eta1","=~","y2",0.533115112334272
"eta2","=~","y4",0.429042811466936
"eta1","~","x1",0.856823970786686
"eta2","~","eta1",0.305923273675402
"x4","~","x1",-0.989215739919427
"x5","~","x4",-0.203826189143345
"x2","~","x1",0.460819781924281
"x3","~","x2",0.747775196727578
"y1","~~","y1",1.12123133689713
"y2","~~","y2",0.284482937187213
"y3","~~","y3",0.926130164733849
"y4","~~","y4",0.268942476493979
"x4","~~","x4",0.964986774503693
"x5","~~","x5",0.0434723504532238
"x2","~~","x2",0.200355468325421
"x3","~~","x3",0.488524216243415
"eta1","~~","eta1",0.802739259988597
"eta2","~~","eta2",0.136550318379297
"eta2","~~","x5",0.00354345271572649
"eta2","~~","x3",0.0452881746304375
"x5","~~","x3",0.00801654447654841
