"lhs","op","rhs","est"
"eta1","=~","y2",-0.62087231991201
"eta1","=~","y3",0.69020494957206
"eta2","=~","y5",1.16747047036801
"eta2","~","eta1",0.708706525445873
"x5","~","eta2",0.380847562451917
"x5","~","x4",0.234468684499322
"x3","~","x5",-0.188530028286843
"x1","~","x2",0.318042302111349
"x1","~","x5",-0.27643513788655
"y1","~~","y1",0.904890243344907
"y2","~~","y2",0.512221545820319
"y3","~~","y3",0.442887067780287
"y4","~~","y4",0.964061883912311
"y5","~~","y5",1.06451383228967
"x5","~~","x5",0.222722968862324
"x3","~~","x3",0.0747569592189584
"x1","~~","x1",0.288220004828969
"eta1","~~","eta1",1.77250410593048
"eta2","~~","eta2",0.404491990499836
"x3","~~","x1",-6.37920587472884e-05
