"lhs","op","rhs","est"
"eta1","=~","y2",0.452458013725347
"eta2","=~","y4",0.76095582901577
"eta3","=~","y6",0.333854549810083
"eta3","=~","y7",-0.893139860714223
"eta4","=~","y8",0.633092493708354
"eta4","=~","y9",1.05614432211489
"eta5","=~","y12",-0.770627646429742
"eta6","=~","y14",0.182054521738807
"eta6","=~","y15",0.844651602281615
"eta7","=~","y17",-0.325429148245728
"eta8","=~","y18",0.281182743106818
"eta8","=~","y19",0.470633109301659
"eta8","~","eta5",-0.750549202075212
"eta8","~","x8",-1.21581599625133
"eta1","~","eta8",-0.462406389183159
"eta5","~","eta1",-1.07169155128146
"eta5","~","eta2",0.187944996744684
"eta5","~","x7",-1.3358986546777
"x9","~","eta5",0.649732278336027
"x9","~","x4",-0.347192986973869
"x2","~","x9",-0.186436711739784
"x6","~","eta1",-0.940312183022659
"eta3","~","x6",1.05013775703508
"x7","~","eta6",0.18406221724806
"x5","~","x6",-0.698562057961307
"x10","~","x7",-0.209320702914664
"x3","~","x6",0.3681317343358
"x1","~","eta6",0.436930462610461
"eta7","~","eta4",0.454130889863505
"eta7","~","eta5",-0.27015030332947
"y1","~~","y1",1.00333038745089
"y2","~~","y2",0.200535391952968
"y3","~~","y3",0.258936172684238
"y4","~~","y4",1.90659647206668
"y5","~~","y5",0.986390891129514
"y6","~~","y6",0.112586927262368
"y7","~~","y7",0.751926612876364
"y10","~~","y10",1.25226444322673
"y8","~~","y8",0.41065579974242
"y9","~~","y9",0.700649024208471
"y11","~~","y11",2.89676321941963
"y12","~~","y12",3.66115886353619
"y14","~~","y14",0.0666233218158455
"y15","~~","y15",0.706669732022682
"y16","~~","y16",7.82526011872161
"y17","~~","y17",0.401500505093439
"y18","~~","y18",0.336627375145725
"y19","~~","y19",0.747818825938797
"x9","~~","x9",1.38766030222277
"x2","~~","x2",0.120829787244146
"x6","~~","x6",0.929393403062803
"x7","~~","x7",0.0335571332245941
"x5","~~","x5",0.477304204397004
"x10","~~","x10",0.0724475895965642
"x3","~~","x3",0.145762098105087
"x1","~~","x1",0.347192244612142
"eta1","~~","eta1",1.21157886644357
"eta2","~~","eta2",2.29322282568532
"eta3","~~","eta3",0.969157846406097
"eta4","~~","eta4",1.64760574445143
"eta5","~~","eta5",1.88293248397435
"eta6","~~","eta6",2.32753755452116
"eta7","~~","eta7",0.471380062348649
"eta8","~~","eta8",2.65344797792833
"eta2","~~","eta4",-0.10495991409749
"eta2","~~","eta6",0.147699186154824
"eta4","~~","eta6",-0.0250357898390024
"eta3","~~","eta7",0.208378581808491
"eta3","~~","x2",-0.0372546892452724
"eta3","~~","x5",0.0501494217089399
"eta3","~~","x10",-0.00723247372002697
"eta3","~~","x3",-0.0468518883591025
"eta3","~~","x1",0.0779409696186163
"eta7","~~","x2",0.0593784604345925
"eta7","~~","x5",0.00421554598978715
"eta7","~~","x10",-0.00976111266316391
"eta7","~~","x3",-0.00680163032079694
"eta7","~~","x1",-0.0505835862196249
"x2","~~","x5",0.0177684938336539
"x2","~~","x10",-0.0035004626303711
"x2","~~","x3",-0.00806609844631022
"x2","~~","x1",0.00970934839352025
"x5","~~","x10",-0.0110244058173859
"x5","~~","x3",-0.0113897310332414
"x5","~~","x1",-0.0787148560864308
"x10","~~","x3",0.00737933956616089
"x10","~~","x1",-0.0258284323400323
"x3","~~","x1",-0.00637143422513459
"x8","~~","x8",1.51089878846766
"x8","~~","x4",-0.0535005692073106
"x4","~~","x4",1.75383689397733
