"lhs","op","rhs","est"
"eta1","=~","y2",-0.195441382863834
"eta1","=~","y21",-0.136413005547551
"eta2","=~","y4",-1.00505684694858
"eta2","=~","y5",0.712833086277648
"eta3","=~","y8",0.354262748154214
"eta3","=~","y9",0.86498765586092
"eta4","=~","y11",-0.999185311547879
"eta5","=~","y13",-0.171229892871073
"eta5","=~","y14",-0.117282210220741
"eta6","=~","y16",-0.0801188185801734
"eta6","=~","y17",-0.158650963593746
"eta7","=~","y19",0.39405786009921
"eta7","=~","y20",0.632162401309217
"eta8","=~","y22",-0.145554202512348
"eta8","=~","y23",0.450584634011943
"eta1","~","eta6",-0.872188394060101
"eta1","~","x2",-0.74524215829015
"eta2","~","eta1",-0.329382793798311
"eta2","~","eta5",-6.51842960457062
"eta2","~","eta8",0.272099815085171
"eta2","~","x7",0.823645588384509
"eta2","~","x9",0.77162420748138
"x6","~","x5",-0.917152976512447
"x9","~","x1",-0.349640412259324
"x9","~","x6",0.480001204693477
"eta8","~","eta7",0.180009922901218
"eta8","~","x4",0.3374021525968
"x10","~","x9",-0.377153301401724
"x1","~","x10",0.553396007139192
"eta6","~","eta3",-0.42306395237423
"eta4","~","x4",-0.484923129972276
"eta4","~","x8",-0.814149483363086
"x3","~","eta7",0.841485765801731
"y1","~~","y1",1.57446499507757
"y2","~~","y2",0.0912309189128609
"y21","~~","y21",2.09160729520252
"y18","~~","y18",4.2492984918619
"y4","~~","y4",6.53843630125047
"y5","~~","y5",3.29768843298091
"y7","~~","y7",1.32001542392479
"y8","~~","y8",0.0880261792453515
"y9","~~","y9",0.264617053667042
"y10","~~","y10",1.83685032117845
"y11","~~","y11",1.61014472372935
"y12","~~","y12",2.80985423463358
"y13","~~","y13",0.0551174961834592
"y14","~~","y14",0.0321339913115278
"y15","~~","y15",1.30369160918758
"y16","~~","y16",0.0185895270710418
"y17","~~","y17",0.0356535647829472
"y19","~~","y19",0.169520262122469
"y20","~~","y20",0.647400359164921
"y22","~~","y22",0.0433483040868597
"y23","~~","y23",0.450341500046196
"x6","~~","x6",1.00359382677488
"x9","~~","x9",0.256905172496176
"x10","~~","x10",0.247106918055479
"x1","~~","x1",0.345676490786572
"x3","~~","x3",0.909557818181764
"eta1","~~","eta1",1.75282047526045
"eta2","~~","eta2",-6.41702858067707
"eta3","~~","eta3",1.39017287697816
"eta4","~~","eta4",0.821240434825471
"eta5","~~","eta5",0.260427608963964
"eta6","~~","eta6",-0.254332503498877
"eta7","~~","eta7",2.2561252417728
"eta8","~~","eta8",0.54150856822724
"eta3","~~","eta5",-0.0486416554191303
"eta3","~~","eta7",-0.0981337520788032
"eta5","~~","eta7",0.0857796798378655
"eta2","~~","eta4",-0.0161876038651638
"eta2","~~","x3",0.0137612414864114
"eta4","~~","x3",-0.0625398501079152
"x2","~~","x2",1.50280393605794
"x2","~~","x7",-0.151701985331571
"x2","~~","x5",-0.0255774765179946
"x2","~~","x4",-0.0889589099608583
"x2","~~","x8",-0.0186207282703279
"x7","~~","x7",1.70477988688314
"x7","~~","x5",0.0281255883263169
"x7","~~","x4",-0.0791877759775734
"x7","~~","x8",-0.198667670408985
"x5","~~","x5",1.6039968698238
"x5","~~","x4",-0.140673798297317
"x5","~~","x8",-0.0404003014462599
"x4","~~","x4",1.69237910066181
"x4","~~","x8",-0.137062570221203
"x8","~~","x8",1.6379213612356
