"lhs","op","rhs","est"
"eta1","=~","y2",0.356674010454061
"eta1","=~","y3",0.509894836068133
"eta2","=~","y5",-0.805636570156378
"eta2","=~","y6",-0.931921353451859
"eta3","=~","y8",0.238581259793925
"eta4","=~","y9",-0.146924079580257
"eta5","=~","y12",0.309746826367374
"eta5","=~","y13",0.431482102440196
"eta6","=~","y15",-292.4884142199
"eta7","=~","y17",0.473322350102927
"eta8","=~","y18",-0.431876832276618
"eta8","=~","y19",0.524743011473417
"x4","~","eta4",-0.460103632565249
"x4","~","x9",0.833445691777269
"x5","~","eta8",-0.985535693168723
"x5","~","x4",0.203952746861578
"eta5","~","x2",0.517611248074499
"eta5","~","x5",-0.143077807222111
"eta8","~","eta7",0.673862863592876
"x3","~","x5",-0.453956267322031
"x10","~","x7",0.642470268209949
"x10","~","x9",0.737790968271237
"eta1","~","x10",0.370290826346549
"x7","~","eta1",0.0831596757226351
"eta4","~","eta6",9094.35173014086
"eta4","~","x6",-0.269370232226348
"x2","~","x8",0.325729322927356
"eta2","~","eta4",-0.422868358596013
"eta3","~","x2",0.315590210808866
"x1","~","x10",-1.08265261614315
"y1","~~","y1",0.884666007061737
"y2","~~","y2",0.127707675767353
"y3","~~","y3",0.394418254923558
"y4","~~","y4",1.01537639928959
"y5","~~","y5",0.888401285478479
"y6","~~","y6",0.880910338201516
"y7","~~","y7",0.937741571829439
"y8","~~","y8",0.220902898241287
"y10","~~","y10",4.32664382067802
"y9","~~","y9",0.185883285348048
"y11","~~","y11",2.1921832203896
"y12","~~","y12",0.129583809137268
"y13","~~","y13",1.47561290478726
"y15","~~","y15",0.0226480672599256
"y16","~~","y16",1.21854844634961
"y17","~~","y17",0.191025694475006
"y18","~~","y18",0.168765605238088
"y19","~~","y19",0.230318073521179
"x4","~~","x4",1.75960931736415
"x5","~~","x5",0.629631256646713
"x3","~~","x3",0.463475637051604
"x10","~~","x10",0.61761268950106
"x7","~~","x7",0.025157216421809
"x2","~~","x2",0.106048092352329
"x1","~~","x1",1.12235496352868
"eta1","~~","eta1",0.196359472582263
"eta2","~~","eta2",0.997287318590247
"eta3","~~","eta3",0.199343366671691
"eta4","~~","eta4",-4.80943434064633
"eta5","~~","eta5",0.335399506788203
"eta6","~~","eta6",9.41949910646449e-08
"eta7","~~","eta7",1.29912877907816
"eta8","~~","eta8",0.20282594384381
"eta6","~~","eta7",-3.22315903809847e-05
"eta2","~~","eta3",-0.0109400761880719
"eta2","~~","eta5",0.0643473012143928
"eta2","~~","x3",0.061825184448634
"eta2","~~","x1",-0.00693612732533111
"eta3","~~","eta5",0.116170822875942
"eta3","~~","x3",-0.0298279580805644
"eta3","~~","x1",-0.0512162330433966
"eta5","~~","x3",-0.0580728638438785
"eta5","~~","x1",0.156515573160702
"x3","~~","x1",0.0612880097228767
"x9","~~","x9",1.67455284727411
"x9","~~","x6",-0.0283878139145844
"x9","~~","x8",-0.0689094858862664
"x6","~~","x6",1.80457574880181
"x6","~~","x8",0.0940314720415461
"x8","~~","x8",1.74540720625099
