"lhs","op","rhs","est"
"eta1","=~","y2",-0.97347987916494
"eta2","=~","y4",0.45354956207046
"eta3","=~","y6",0.43029474879119
"eta3","=~","y7",0.155842422913975
"eta4","=~","y9",0.000117203451874978
"eta5","=~","y11",0.156040535671825
"eta5","=~","y12",-0.732898803259604
"eta6","=~","y15",0.940471100965259
"eta6","=~","y19",0.951111931137029
"eta7","=~","y17",-0.729259365267697
"eta7","=~","y18",0.529380228535722
"eta8","=~","y19",-0.456831060392192
"eta8","=~","y21",0.716432170665586
"x3","~","eta7",-0.930933229102358
"x3","~","x1",-0.169487499755229
"eta8","~","x3",0.253876537809908
"x1","~","eta8",0.839953103777859
"x5","~","eta1",0.181469602648165
"x5","~","x2",-1.06151159633608
"x5","~","x3",-0.143931435027743
"x10","~","x5",-0.0208061954102241
"x7","~","x10",-0.372485849783689
"x9","~","eta6",0.669754767754301
"x9","~","x3",-0.629766736379618
"x8","~","x9",0.378745769728536
"x6","~","eta5",0.164456919528504
"x6","~","eta8",-0.439273112947425
"eta2","~","x5",-0.0386655870666014
"eta4","~","eta2",2.28237222119992
"eta3","~","eta1",0.923348999429974
"x4","~","eta6",0.578979687966621
"y1","~~","y1",1.14506596586576
"y2","~~","y2",0.662189330236609
"y3","~~","y3",2.10096680715163
"y4","~~","y4",0.666275376366501
"y5","~~","y5",0.861871873663518
"y6","~~","y6",0.178256044428529
"y7","~~","y7",0.0307323585206497
"y8","~~","y8",-5979.60422932976
"y9","~~","y9",0.58689871317245
"y10","~~","y10",0.572834210369565
"y11","~~","y11",0.89752158159638
"y12","~~","y12",1.30009803214663
"y13","~~","y13",0.95375367280691
"y15","~~","y15",0.999597337610117
"y19","~~","y19",1.2919180708624
"y16","~~","y16",0.935349065237163
"y17","~~","y17",0.568326320255762
"y18","~~","y18",0.31069297116403
"y21","~~","y21",1.10610662422263
"x3","~~","x3",0.677851684412723
"x1","~~","x1",0.72614717370881
"x5","~~","x5",1.34458072967906
"x10","~~","x10",0.0713875087281437
"x7","~~","x7",0.64973698026965
"x9","~~","x9",0.943919933549832
"x8","~~","x8",0.214761944245378
"x6","~~","x6",0.218543261766702
"x4","~~","x4",0.317471774341864
"eta1","~~","eta1",1.48417564297166
"eta2","~~","eta2",0.0466834819739217
"eta3","~~","eta3",0.719005327010009
"eta4","~~","eta4",5983.0273099935
"eta5","~~","eta5",2.20959006209767
"eta6","~~","eta6",1.71819612849577
"eta7","~~","eta7",1.46389937744346
"eta8","~~","eta8",0.182440306363989
"eta1","~~","eta5",-0.283533567640367
"eta1","~~","eta6",0.0854684260186934
"eta1","~~","eta7",0.00489606540467684
"eta5","~~","eta6",0.000658683753648479
"eta5","~~","eta7",0.0102126929776016
"eta6","~~","eta7",0.0283064573681745
"eta3","~~","eta4",-0.0661416999852786
"eta3","~~","x7",0.0157349514474548
"eta3","~~","x8",0.00436613496248153
"eta3","~~","x6",-0.0428516959838159
"eta3","~~","x4",0.00750779742905934
"eta4","~~","x7",0.0310322720589189
"eta4","~~","x8",0.0110215827726338
"eta4","~~","x6",-0.017774749978137
"eta4","~~","x4",0.0152395479140327
"x7","~~","x8",0.00843278005927277
"x7","~~","x6",0.0223971327609627
"x7","~~","x4",-0.0554575831538899
"x8","~~","x6",-0.00839720362595138
"x8","~~","x4",0.0100392686798931
"x6","~~","x4",0.000496618432324255
"x2","~~","x2",1.65614963815323
