"lhs","op","rhs","est"
"eta1","=~","y18",-1.07159168870774
"eta1","=~","y3",0.554653647854134
"eta2","=~","y4",-0.399842796700068
"eta2","=~","y6",-0.0985216995895916
"eta3","=~","y8",0.2521735477876
"eta4","=~","y11",0.72416867879377
"eta4","=~","y9",0.202935130203495
"eta5","=~","y13",-0.450166558627565
"eta5","=~","y14",-1.10085919513021
"eta6","=~","y16",0.0848961585798402
"eta7","=~","y18",0.706193354702273
"eta7","=~","y19",0.125275502141675
"eta8","=~","y21",-0.608946177452096
"eta6","~","x4",0.000216555655456016
"eta4","~","eta6",-528.588030825935
"eta7","~","eta4",-0.292357764474309
"eta7","~","x5",-0.356747848325043
"x10","~","eta7",-1.22868774813502
"x7","~","eta6",0.567383677566535
"x7","~","eta8",0.67532748300954
"x2","~","x3",0.744480590081207
"x2","~","x7",-0.0106668413649258
"x9","~","x2",-0.4575319276541
"eta1","~","x3",0.0571869790795771
"eta1","~","x8",-0.481268658513985
"x6","~","eta1",0.591464603527011
"x3","~","x6",0.910664644871337
"eta2","~","x5",0.392796409439332
"eta5","~","eta6",1.25469808585032
"eta5","~","x1",-0.857913013692895
"eta3","~","eta5",-0.423877950183821
"y1","~~","y1",0.911254232055288
"y18","~~","y18",1.55031923154613
"y3","~~","y3",0.0791814663834428
"y10","~~","y10",1.47562540067711
"y4","~~","y4",0.156934641939151
"y6","~~","y6",0.0151506972671944
"y7","~~","y7",1.9278543999067
"y8","~~","y8",0.118888542649103
"y11","~~","y11",1.22156995700605
"y9","~~","y9",0.128106633163718
"y12","~~","y12",2.27525903388377
"y13","~~","y13",0.254259701684378
"y14","~~","y14",1.9850824157443
"y15","~~","y15",1.08519840000543
"y16","~~","y16",0.0729335345876407
"y17","~~","y17",1.76295626827154
"y19","~~","y19",0.0673865234534656
"y20","~~","y20",0.856128014685973
"y21","~~","y21",0.443780415040082
"x10","~~","x10",1.86546904702316
"x7","~~","x7",0.852230924779236
"x2","~~","x2",0.794471385643143
"x9","~~","x9",0.380598691833429
"x6","~~","x6",0.446170799311818
"x3","~~","x3",1.09580500041431
"eta1","~~","eta1",0.287200662889846
"eta2","~~","eta2",0.152986832792323
"eta3","~~","eta3",0.420789793972031
"eta4","~~","eta4",-66.0656675264007
"eta5","~~","eta5",0.818473258151235
"eta6","~~","eta6",0.000239910080384998
"eta7","~~","eta7",0.190073299329735
"eta8","~~","eta8",1.9663335236297
"eta2","~~","eta3",-0.0629749358382006
"eta2","~~","x10",-0.172270527791593
"eta2","~~","x9",-0.0201804759733898
"eta3","~~","x10",0.141851509369402
"eta3","~~","x9",-0.0244603599276636
"x10","~~","x9",0.0284621551381145
"x4","~~","x4",1.59193006637903
"x4","~~","x5",0.0319304466595228
"x4","~~","x8",-0.0285166737828923
"x4","~~","x1",0.0658702520248703
"x5","~~","x5",1.57969415108587
"x5","~~","x8",-0.107298310434739
"x5","~~","x1",0.0462052105875871
"x8","~~","x8",1.63609035833838
"x8","~~","x1",-0.0982211852015536
"x1","~~","x1",1.77903233458378
