"lhs","op","rhs","est"
"eta1","=~","y3",0.464298071719985
"eta1","=~","y4",0.640669468154285
"eta2","=~","y5",-0.463322779979465
"eta3","=~","y7",1.06799524496888
"eta3","=~","y8",0.463352115238617
"eta4","=~","y11",0.610151995265768
"eta4","=~","y9",0.339286478253066
"eta5","=~","y13",-0.202842908011732
"eta5","=~","y14",-0.653395208545482
"eta6","=~","y16",-0.499420230124138
"eta6","=~","y17",0.109756582232566
"eta7","=~","y19",-0.3046430401544
"eta8","=~","y4",0.53789069214657
"eta5","~","x1",-0.685322817779025
"eta5","~","x9",0.0264536425656141
"eta6","~","eta5",-0.779413022168464
"x5","~","eta1",-0.640094692671113
"x5","~","x1",-0.182293287536676
"x5","~","x7",0.155280160681649
"x6","~","eta7",0.14564183658503
"x6","~","x5",-0.0333183389967146
"x10","~","eta4",-0.813910791474343
"x10","~","x1",-0.2961485454425
"x10","~","x4",-0.800854375956335
"eta3","~","x5",0.820613755051216
"x3","~","eta8",0.446374865013513
"x3","~","x5",0.404657274428196
"x7","~","x3",-1.30603851636867
"x8","~","eta5",-0.292218196301336
"eta2","~","x8",-0.975216839620562
"x2","~","x1",-0.65807550311666
"y2","~~","y2",0.973346542357429
"y3","~~","y3",0.199132703482171
"y4","~~","y4",1.80469433761109
"y5","~~","y5",0.204956670539986
"y6","~~","y6",1.84130583269892
"y7","~~","y7",2.3598192324059
"y8","~~","y8",0.553485511571977
"y10","~~","y10",1.13874597829932
"y11","~~","y11",0.292641934223043
"y9","~~","y9",0.0949512127755557
"y12","~~","y12",1.58802640859662
"y13","~~","y13",0.131264687538932
"y14","~~","y14",1.23459308871
"y15","~~","y15",0.940493303172999
"y16","~~","y16",0.433009595135865
"y17","~~","y17",0.0112384729370949
"y18","~~","y18",0.165748516408441
"y19","~~","y19",0.383054576698541
"y20","~~","y20",1.69753542678269
"x5","~~","x5",0.533902012128085
"x6","~~","x6",0.389736698245036
"x10","~~","x10",1.54753354966029
"x3","~~","x3",0.329807240763237
"x7","~~","x7",2.65474627467273
"x8","~~","x8",0.0841768569234781
"x2","~~","x2",0.363859511571927
"eta1","~~","eta1",1.86032702050816
"eta2","~~","eta2",1.04004678722695
"eta3","~~","eta3",0.801745648917323
"eta4","~~","eta4",1.79687423706974
"eta5","~~","eta5",0.474559857312115
"eta6","~~","eta6",0.795242069768004
"eta7","~~","eta7",2.59710646995001
"eta8","~~","eta8",0.747620935544578
"eta1","~~","eta4",0.124951340234894
"eta1","~~","eta7",-0.0562877006576392
"eta1","~~","eta8",-0.0403480766470199
"eta4","~~","eta7",0.116436614139314
"eta4","~~","eta8",0.0635982724764482
"eta7","~~","eta8",-0.0461738425076492
"eta2","~~","eta3",-0.0786009327897435
"eta2","~~","eta6",-0.0149358937498511
"eta2","~~","x6",-0.0187801209420306
"eta2","~~","x10",0.34531151668666
"eta2","~~","x2",-0.0114039981626121
"eta3","~~","eta6",-0.00518955461980272
"eta3","~~","x6",-0.00374923701607343
"eta3","~~","x10",-0.0319616847132239
"eta3","~~","x2",0.164359731853321
"eta6","~~","x6",0.0279250068074713
"eta6","~~","x10",-0.0359631681579821
"eta6","~~","x2",-0.000875245589908286
"x6","~~","x10",-0.0662944157210857
"x6","~~","x2",0.0128907866118629
"x10","~~","x2",0.0556625013458477
"x1","~~","x1",1.70700168829483
"x1","~~","x9",0.0672579663974531
"x1","~~","x4",0.088148105846882
"x9","~~","x9",1.67915704795951
"x9","~~","x4",0.0550795914953081
"x4","~~","x4",1.63432359060456
