x1,x2,x3,x4,x5,y1,y2,y3,y4
-0.3469594681764624,1.3758131589622715,-0.43038871648250754,-0.4188027725456733,-0.010849345537226102,-0.2799604346539447,-0.7188808268144827,1.2349506721526735,0.95961513288519
0.40053906667106426,-1.7124813827196572,2.1565771131155005,0.04686767155500414,0.7624903520972537,1.2812951308939837,0.2689279472590437,0.25217902683969295,-0.8375149428007146
-0.10591470390286921,-1.7570462009139234,1.0082941766605251,-0.6773783809228034,-0.9751730395338986,0.7226774861648918,-0.40881951881877354,0.04446863760114377,0.1591870427141544
0.2485646210441068,-3.453249120307638,2.1091463705784372,0.37754448386069883,-0.14786242493607576,0.36090144585765227,0.22289200231399392,-0.2353183418579856,-0.139935184165745
0.7632061594011832,-1.997945585738387,2.308431257563464,0.5434982947438951,1.0119711424658364,4.005665633596654,1.5501330759019172,-1.2151881599257517,-0.2795213950269411
-0.39412356911195684,-2.708420852270785,1.7818072925665474,0.3297023033799668,-0.32202308201674934,2.2510861442240815,1.5857949905216149,-0.5106090183133679,-1.4839346053841007
-0.20224493967281063,-2.4359175129674964,2.8732581804522903,-0.31197501365702585,-0.8925651726058235,2.0050992901851936,0.9021402799291346,-0.6430258645606077,-0.8566220049453669
0.3491384566505469,-1.1736600700423647,0.9938132438333378,0.586889767997322,-0.49329914761580207,2.066174037215843,1.5330431706265106,-0.9573919247571474,-1.6808854196568639
0.339056849857335,-2.5913345204122282,1.28846760975302,-0.8060639302242786,0.9269940477217067,2.966106944689076,2.1447848351216314,-0.03272364212911988,-0.8673453829882624
-0.7824205750072433,-0.017258274600039293,0.5399281416156724,-1.319657219997529,-0.2757721782142166,0.8222461886617994,0.13786013306824232,0.7573311642278994,0.5337091804656819
0.26245025060196225,-1.6661647451833745,0.8839235900562485,-0.09378015808349277,-0.5533543813468408,3.0375224624642034,2.754710642999084,-0.30486385159444446,-0.4192495872640462
-0.22245481596257652,-1.8368053322640598,0.28710017339574834,-0.9331784567470974,-1.9854293678430868,2.975540817252642,2.0773332145824184,-0.6155984766648646,-0.1686423687621246
0.4651123648293019,0.28253795560008654,-1.9316419999217043,0.7976880419322046,0.7124952449580889,0.34644813840041966,0.963217431262946,-1.2058428668624732,0.7654636181684346
-0.5155113901215489,-2.1960188184391316,2.365850937848397,-0.02454219627637603,-0.8993476396653671,2.182054232871435,1.4728722842601398,-0.6816818317673011,-0.2782605067566072
0.045850090524000735,-2.7623154914679953,2.644974198261739,0.23074127512394782,-0.03903330394247504,4.05550852868625,2.1307269536179074,-0.10635786340855469,0.5457886666395952
0.5513323507141509,1.6742205396418937,-1.1138245964001132,0.32958878949987963,0.137428816484856,-2.356102676650843,-1.097827170020204,0.9653100080874317,0.14296775439110093
-0.027939519786706852,0.5159672699732459,-0.5815765036219356,0.16417679153098472,-0.35653092311619233,-2.7950189447767912,-0.78282592764942,0.30238355791903715,-1.3515823102673343
0.26023990040204625,0.4508870223162587,-0.07680592584540707,1.0217614341509293,1.354064832692929,-1.4169918253487974,0.46891870902544286,1.5356732493824794,0.8567117157256722
0.06650066771523189,-0.6849353362452961,1.9004250096251556,0.20680439785811935,0.5583971136573769,1.6253463342595793,0.764005400968126,-2.1860717603474304,-0.46395333628678137
-0.2603909751943228,-1.270191280259808,0.33165583622268974,0.35992251928947877,0.1179435155800514,-0.27877167416825555,1.175259103710218,1.2540518458728682,-1.9246839040221433
-0.22077507217869705,-1.3435361532175063,0.47478036703354215,-0.1433787372462131,-0.018126191554041167,3.0876544808930126,1.0718218309842136,-1.4838742258650073,-0.5067305556406378
0.3133751514386941,0.8352816974338423,-0.01078441335072932,-0.07393358735634006,0.364497213212845,1.0527883564587448,0.09617858619515848,1.806021647987579,-0.959475354596531
-0.13822071731775132,-1.3225589906717554,1.3864249142386524,0.5738863788288902,-0.04366289731272127,1.9163902238265904,0.10744418651240518,0.8048216761190131,0.6929736368235684
0.0895042331752078,-0.7960086753690162,0.3109803727802543,-0.3591707882556397,-0.865366272150316,2.028615715352908,0.29919654143125746,0.806782322129385,-2.497817687589774
-0.03949763518885261,0.46486557413909146,0.5823733682938272,-0.2078011183272007,-0.025790712353311762,-0.39380601013733524,-0.19781982125258377,0.7272673477598715,0.3497690949047596
-0.3019444008749432,0.17873529188297874,-0.4040649395621515,-0.743446174131673,-1.172870368448016,-1.0716051897802097,0.27778115627522043,1.1689631506855738,0.5303779072491175
-0.07368158264979463,0.08471132696896684,0.8922975410097799,0.29803449619080785,-0.7619514894880347,0.5063969619744286,-0.23722078805002295,-0.4053398631011817,0.2119572541572023
0.4216044268848153,0.37979708125867434,0.8643047324224431,0.337158228745999,0.825530131095076,1.636718383854778,-0.19565861173655388,-0.9830608731966919,-0.7371611986950166
0.48175156283817844,-1.8584678673825674,1.3274682399157218,-0.3220073069964126,0.20209499181004686,2.861455659472029,1.9562761345325184,0.2945253779409266,-0.8104520468750682
-0.31870962703532957,0.3082528609574633,-1.117750097917682,-0.7115530722196817,-1.4314610859348338,1.0442049218013048,-1.0400690521839056,-0.47921916773501894,-0.047480065766593825
0.3820680412936108,1.4456906988840312,-0.25099729673122817,0.5966406133333468,0.9367171092369105,-0.8443345837468876,0.4901089916837427,-1.4344461197256546,0.7420481830933061
-0.266309016677341,0.46821878156564795,-0.37210346916831344,-0.19649080326355478,0.07497112053208282,-1.7566852638999961,-0.654269219850608,-0.07972963797921878,-1.2739667281340865
-0.07307564848628596,-1.753652696952504,2.2861072764636616,0.559580929213515,-0.34206881560109925,2.206701734927056,0.5775970946156654,-1.3807332087069804,-2.723777207719091
-0.8226790462895129,-0.714107843401467,0.6331003159950335,-0.4677606069859231,0.2686791763326429,1.2363744112621275,1.2360607493267615,0.4509070158268145,0.9382625117908682
-0.13985405626748496,-1.9468741376597813,0.8829167927227448,-0.4113504517022609,-0.05626500788129286,0.30881465276051895,-0.2438024890497546,0.5305525592270869,-0.9956941806083276
0.10237160631578963,1.0622939097924298,-1.5595709262741602,-0.5041997085054136,0.17014649621709566,0.7179012632859172,0.2419141423865797,-0.3717240685732546,-0.749982459503246
0.07843704313384288,-3.4981523924366376,2.0555873251639527,-0.22569561480554984,-0.12891675631240654,4.769031234482946,2.6383598595450444,0.17988568139311206,-0.7629275746928447
0.0876129305306342,0.3937750285219897,-0.5870119198845274,0.628905841484725,-0.7120164439304317,-0.19097338314646878,-0.44043008169263254,0.05115448927326535,0.3707032592317394
-0.14615179971197934,-0.31220103476293287,0.7614035025366527,-0.8307895496347403,-0.9102977710390143,-0.8109977208674122,-0.31530710202237994,-0.3346337992996085,0.919885334213385
0.04562088047926649,-0.8986302699347124,1.192104985943309,0.9248818204156806,1.1309487818422688,1.5399773716325413,1.0871325163491492,0.25387376209701507,0.0825350301547435
-0.26192245697614425,-0.3871662556233525,-0.5035616512688644,-0.2162405809288672,0.7188550034604497,1.1775431118759911,1.1508415648527797,-1.268138453100281,-1.4782642523569558
0.232238085064117,-2.230084536004974,1.4709688209168739,-0.6307332780123268,-1.3827454685621425,3.8909447102503316,1.252468382999753,0.3838725872520068,0.8089769838649548
0.7347910448975808,-1.961985117029597,2.081014121428341,0.4920179559663196,0.25196662950599186,1.811497604437168,2.464210576798508,1.0663209139466425,-0.24696924771192136
0.5369962137168819,-0.357497571448791,-0.6310080423605575,0.497086601317062,0.9204033186661471,2.189885457755427,1.3697743533801212,-0.4926823567483889,-0.3130356005133272
-0.6084170025716078,0.2645575362403025,-0.39023247248750326,-0.6751005483012688,0.04539692688084202,0.4582355778669567,0.6261616929029561,-0.07570251868825617,1.048723123637185
0.1723518533118554,-1.6134959180592656,0.6072167538180726,-0.27450395624100576,0.5055224486303189,1.772646257161992,1.3009965196235187,-1.489484526841908,-1.6158780449734889
-0.08062936318965427,-0.02065598185078096,-0.4203760409606125,-0.17180575989483934,-0.35418675319698356,1.0195301223186064,-0.15287582751384707,1.5664302213315577,0.19501579810352473
-0.3059140021821232,-0.6635065808379934,1.031527661460376,0.3479374461771724,0.7918745539352139,2.779894739285118,-0.42346908339466954,-0.7264050297529657,0.052996019063379064
0.005463989053896156,0.24930972290805917,-1.4021532549831468,-0.5822380790058087,-0.6415383019733014,1.253508020768975,-0.18351023953309548,0.8516671117619681,-0.011329497151156382
0.37901406114140035,-3.1735232954985277,1.8124680926367471,0.40611620323418685,-0.5238922981961648,2.080719680319277,2.155906937125411,-1.059978443056532,-1.0236028340611307
0.35550834732298814,-1.2846659482879264,1.774143112786155,0.8563124032934807,0.42282969155563915,2.3540350828619285,1.4953481580255694,0.9250239739883663,-2.209044875140448
0.5386479661244583,-3.948514403315311,3.783299090906911,1.506240207159344,1.7377741144916867,2.456583505496665,1.624211879001164,-1.26766416274467,-2.45567371745263
0.001712041119649458,0.06130220193428122,-0.3047153173077882,-0.6278962266046066,-0.06105537613228519,-0.04268985592469565,-0.17532957943059202,1.116396046450148,-1.162216023124323
-0.03827950200800346,0.09955237055969608,0.5227113610400684,-0.25506874559188975,-0.0020675682063923946,1.5751545295311074,-0.3949118612147655,0.5983641442077415,-0.36952258517714714
-0.3007939305534528,-3.092379019347128,1.6832179862516345,-0.11844128739304535,0.10147967520376511,3.8904835893249388,2.1611879947476944,0.8191227117637008,-0.3627791414874319
0.11521661898738257,0.29526580599872787,0.7951439856912285,-0.07497399598539245,-0.18009851724443196,-1.2241188400782015,-0.7043030654984812,1.4799237972508361,-1.186950285854391
0.8000742432171423,0.2707653000438531,-0.19493101663545254,0.7046963347385085,0.7208820618547734,1.5563076779873521,0.6282651292366687,-0.8297717704407226,1.0214955247484319
-0.7232594770928535,0.7218655309379538,-0.6513072075965203,-0.28339475303749717,0.7823289568745745,0.17227802459577937,-0.40386055770348445,1.4111040281857554,0.4185526226788145
-0.915950778384669,-2.5503006568254913,1.4552112508709594,-0.8697085580668384,-0.5323242410973043,2.393315220934811,1.5534352628638146,-0.26630685005264626,-1.4254920544212728
0.3617300087396515,0.34131016118279456,0.5184841527577456,0.910262209678482,-0.5420438723324806,-0.5878333944036417,0.6230515118653066,-0.0658448481532804,-1.6861038163938131
0.013857642689520997,-1.269788277448587,1.0592165909720217,0.04786386571563341,-0.7276372381230496,-1.3248703521766987,0.23300348160262405,0.9794566248562375,-0.8240120071854946
-0.028423523785219715,-1.908650258873608,0.6269302777261828,0.584019971236502,0.20037255508351207,3.828833022980711,1.3770513228171815,-0.9757785928741698,0.12412972687455419
0.20503588718070342,-0.19848468495045307,-0.9902187093203962,0.2537159205854088,-1.0871708348292979,-0.3212151578242839,-0.21992737897276826,0.40759174329455394,-0.2604332528798142
0.6266360720318129,-1.9812184827045332,1.8220791374911207,0.9150184700869664,0.7241550817131326,2.1070018174612697,2.2986455144252775,-0.705814233750236,-0.9225963788435507
-0.19783713467611944,-2.892555615934865,2.648093156984287,0.8978459175717772,1.483061369597069,3.2983150421436465,2.4502003526413336,-1.5170550318472003,-1.88438957679978
0.007139841674840383,-2.1856733346802204,1.9958105248980937,1.0598245278948868,0.6348003532099276,2.191679035845513,1.309199726844101,0.9268768002642764,-0.4390967014665961
-0.05760236650471668,0.31657819157323425,-0.2776959149723068,0.3680970354039747,0.0017041954876880875,1.6351717541926256,0.8208154801259985,-0.16928963121609908,-1.5249906065094665
0.5637707605256308,-1.4073976546967901,1.2583470291389762,1.0896245375699551,0.20542287652856794,1.3218478056894312,1.6540703316561969,-0.7396736245703821,1.0122268967743686
0.13696397128038842,-2.8956898427551954,3.542462819543753,0.4288057125087366,0.49824836312625476,2.597586723577376,2.5466637148336186,-1.1276289575308884,-1.3882616134281096
0.49077577060938127,-1.9690743795090795,2.641465983425893,1.4928900446864266,1.2745197367710293,0.4116981716451473,1.5319142295838035,0.3144393979668332,-1.2650922994057245
-0.5612426492891721,-0.5309755143374972,-0.21940747405826058,-1.0882370359556464,-0.007339564300865334,1.8962607769669815,-0.17509154767864812,-0.7939733425683598,2.1094768024560966
0.30198496740343966,-2.416403895245999,0.9660930901343516,0.1861284637321791,0.1487949627413173,3.3805566236989932,0.9440589416459286,-0.3412592702643571,-1.041810156485969
0.30349278223746,-0.17035911487907693,0.798497719235988,0.926243862956116,-0.15833156198564183,-0.47692012653952753,-0.12821864734894878,-0.24632441700881968,-0.7702164253134026
0.5823105003878625,-1.44546454055709,1.1167072973712007,-0.2845461867816165,0.5593685931867013,1.5516541309746241,0.7935956875799294,-0.611346635470981,0.5526800879304066
0.7354578385624162,0.009096569824752817,1.480371613398811,0.5502873718327983,0.4052752984948587,-0.17719394934030142,-1.3231986489442924,-1.5355851378298238,-0.4091092967862854
0.40263041877614375,-2.6815036009409594,1.6137494304335551,0.32262922631866725,1.0745221565457388,2.698055471484896,1.1542903911502138,-1.5363509395392538,-1.9753756161614424
0.0341322295029296,-2.4185816760543135,1.261612013305235,-0.13351979437364947,0.3103607367227235,1.6637569902008398,1.375569790328914,1.833476366374136,0.311506135685775
-0.21253499435761744,0.18808157976376574,-0.1782695862265084,-0.8764612026265969,-0.4112174116203186,-0.6734419803636809,0.0926755080277123,-0.7575506199907716,1.8543527608360244
0.23489057823928777,0.7253103470320427,-0.7988198107010537,0.1069895123577522,0.8023586435366401,0.6483484682689385,0.39362617015676826,-1.0516506170601423,0.636949022741931
0.3725168675081784,-0.9585935630400788,0.7540774191486224,0.1842949061593617,-0.16807987278342443,-0.8218124838818823,-0.018331523163468234,-0.7524637862053877,0.3086397892548229
0.21630813716027555,-0.669423575813696,0.05280952372449849,0.44784642136856034,0.023033456286059472,0.8225948744127082,1.5223877518394409,0.4827508865198151,0.5093148672963694
0.0009775503166356808,-1.9610162720107143,2.134807219718011,-0.03426019385798435,0.8827017989678617,1.9504568002037372,1.8037848353570491,-0.8992829442710089,-0.6154784105948186
-0.15957390172380048,-0.9297505224172529,1.4949410081464791,-0.3521755695843119,-0.6853150625417485,-0.2242891315693194,-0.8059604100892163,0.7983020682508044,-1.0541540080255412
-0.13656290652581082,-2.8146417071437426,2.978817853398622,0.8358557132443971,0.03895812959214933,4.339559035179647,2.242200957845572,-1.141109399353901,-0.3238240976502255
0.49061673970104197,-0.538863041179952,0.05293025598892874,0.4293326133342675,0.6260707791482941,1.2956360751339484,0.5960586019232228,0.37372847715830526,-1.5346737901729317
0.11831561545597047,-2.129230848303393,0.5471705171901456,-0.19048444038189427,0.44529412155652376,2.465500020705106,1.9949667243568987,-0.7476156602160389,-1.5603397273179016
-0.42580100629592665,-2.6750358691948883,2.43333966197521,0.5255457995693456,0.17301577411401928,4.762074675119099,2.6702235413131956,0.7578685365690135,-0.792232828915065
-0.25853257429552684,0.5619650333552014,-0.8207162038161726,-0.5153102807286304,-0.5685229945271761,-1.722235236431396,-0.5583721275365249,0.8705699426503951,0.9384723261439495
0.22360908976632626,-2.340002516925942,1.9789759364365476,1.1592915840341769,0.48107846373608276,0.11327183085531534,0.5236567943698721,-0.8804445319543527,-0.08459943936203224
-0.02158767030652988,-2.5700954160622778,1.1896922249122064,-0.4221565134755349,-0.37293701458496575,1.104505499385688,1.427744318940256,0.4654506413833949,-0.7121508598108413
-0.2818077575088489,-1.5709828122211436,1.1160390207606834,0.5923261508766869,0.9535646321719842,3.621154629229675,2.183044184960592,-3.147148782749441,1.6061122731131883
0.06836482853385042,-0.6007638459532547,0.15940644073118876,-0.37430218622993505,1.1164601715922962,2.1160187632345884,0.465465925404351,0.3498812738142675,-1.2047723033649242
0.47896688873813487,-1.9861546992976595,1.4729983580104529,0.5812916917958508,0.7371087566030209,0.9706735361181309,1.8781630485694658,-1.8074702853102609,-0.4992249405180053
0.7688560627600142,0.5447785058825257,0.5325793298851129,0.3337264778538688,0.5469897420268067,0.7216136050667213,0.22503483923304307,-0.08017106762310167,0.3240689032114237
-0.013364552085407752,0.5218404580352896,-1.1243672779953109,0.13432972518550282,-0.49372567703648074,0.34233714918787417,0.8241787097451225,0.4170820043576041,0.4904747379275859
0.5805492213726469,-3.2123178618244057,2.0896343228334553,0.3453626784377616,-0.1401168723927397,3.0085791082798767,0.5147557649380582,-1.156053443084168,-1.2495897050636036
-0.17774427240183546,-0.1393187901677251,-0.5612564084376164,-0.32872576474867754,-1.806023864006312,3.1425053689339406,1.647948636439937,0.03706515376633224,-1.4275256917269323
-0.24148024283762085,0.5168117329961535,1.1131882124509043,0.2727576754199845,0.5093394335034019,-2.1126811269119923,-0.3418738847480099,0.11207237081258484,-0.7231570297407126
-0.1796709662589918,-2.8364971149180835,1.5141189287786814,0.28377346430584843,0.18627277047883356,2.8496311090756197,0.4393191289349104,-1.2357883258118696,-1.193350504158247
0.21822428973282149,-2.623995012833369,1.6954877086627946,0.04366654880626157,-0.8044954910723081,3.441500929738422,1.272973134628725,-0.028404062467439872,-0.6758468599119584
0.3922328961137369,-1.5226927650296431,2.162638680976548,-0.39391898396826563,0.574957177575519,2.7326360699662304,0.93311930363146,0.40560389284526777,-0.4834138667440228
0.33413852262767924,-0.6498357868073443,2.279750710405438,0.793796159783774,-0.24951211335911214,-0.3401866628642616,-0.49254846912447,-0.3301571634807564,-1.1025103741413587
0.20014977085173594,1.4629799283139113,-1.503546152147305,-0.2780686774067811,0.6068571952441808,-0.5754608593452459,0.059033810148570266,0.27867678524640405,0.10343771778551465
-0.12833922837996067,0.15951340837124342,-0.19672671696138294,-0.05038110182497188,-0.3623119881486706,-0.27626813498057884,0.0974380897704139,-0.6168444080787445,0.2148584672179609
-0.1508914542302436,-0.6026592289402279,0.4799627334006603,-0.9759854526450964,-0.35767230617125656,-1.0507565229390514,0.2721922338767992,-0.38231592549600374,-0.9328914302951977
0.0289214496565589,-1.7906144416398793,-0.3005898721178076,-0.3184369892953103,0.9430207626309118,0.0921303693932729,1.4624111440230645,-1.4112727552919102,1.8303446651356379
-0.4685601124991761,1.7681820749345234,-1.0090269596671835,-0.9999071523178272,-0.7838915163173112,-0.2570566640220603,0.16329291763294923,1.251130847155682,-0.47206609674527034
-0.1621386226963167,-1.0391066291432574,-0.3355628852329515,-0.5100838416078886,0.30987346295435036,1.917048944626372,-0.3423038157715496,1.0839535572839878,-0.5831287970593834
0.27564272943784807,-0.746668369505053,0.3199074034808741,1.277471502396741,0.3907017225604775,-0.5712406227115348,0.36054876751768583,-0.3491988979802915,-0.6257092763954777
0.8417039108145311,-2.8765794184634204,2.1846287966492257,2.857921318184813,1.1873800061866386,4.8915815766844055,1.3453146235533777,0.7716329976965153,-0.2938427638335719
-0.6523128096348331,-0.5847197925622211,-0.39859157339809653,-0.8276518215363418,-1.3995230589151124,-0.029779590637563524,1.3687512505448156,-0.3459942123189764,-0.9007545418134082
0.41189857061016266,-1.819231196270177,1.648917757108938,0.5215720555536354,1.219584623742406,0.7414384474510777,1.847198244522498,-0.3836973939054982,-0.819362146509881
0.30930178877144004,-1.2026646487008803,0.7926163402325281,0.4605426165778417,0.23564234011503002,-0.2447664932136926,1.4338899915695091,-2.1771502142788632,-0.3731241168102466
-0.08220267174157112,-0.5181030581364218,-0.8642598320625339,-0.2769862934463964,-0.19399210107434361,2.2718451797778854,0.7558450102421174,1.3724763057510432,1.191771669648094
-0.0279565088984943,-3.118337740694463,2.133353354309862,0.7847941252475025,1.3017282691958398,4.280004586401282,2.417054007266656,-2.9606092631136374,-2.2745775853589523
0.7091671382168878,-2.8970909277466115,1.8423427120652305,0.7455708454111691,-0.2569715002372816,2.3047946468504428,2.137032001578817,-0.9653572359784817,-1.603522905582037
-0.10049041648465237,-3.0696674491695592,2.4359344300931625,-0.3225644058573242,0.4646150597316621,1.2863763996416457,2.338395965608238,-0.6418289984656106,0.465782521504295
-0.29448848669140787,-1.2000745199138074,1.3537209378327233,0.6575510617862823,0.5506870946400674,2.490850944347146,1.9278913812227048,-0.11440376674814673,1.7314071621057838
-0.5175703585613955,1.1119916521768638,-0.5248847604751764,-1.163644237427019,-0.44574253455192264,-1.1833977882456477,-0.9659100751394569,0.9602786161806955,-0.752992963246379
0.3156461250268248,-2.454614502433765,2.4532084542969694,0.6880602884585802,0.661927951322957,3.3798670924443117,1.6224697904753902,-1.0352268769913302,-1.5830337727532278
0.4533594549495795,-0.16635026649987203,1.265132422963212,1.4364082269365497,0.7704601022383907,1.204830598800164,0.54891571096834,-0.8835118488332112,1.0873520055580932
0.45254442276571666,-0.0427347639114472,-0.43477233158434603,0.18939415510767968,1.3115723402372377,0.5085921785995751,0.15857935264093542,-1.583384099474367,-0.7997965966907263
-0.4971871547570971,-1.762376960381808,-0.13681557052325358,0.35387963879926815,-0.9364561349477508,2.3725573459898968,1.9087774171230383,1.735972271786215,-0.050471919730336656
0.052679089192921115,0.9241153512626252,0.5782887326876931,0.08603022508902748,0.23908960217941166,-1.5270811525905938,0.08113663457802799,-1.2104224022165195,-0.2671622922863197
0.6224125837731945,-2.37226770729699,2.2363123903195072,1.9349881667899018,1.4852521653563622,3.074285437342045,0.8639675733595268,-0.8016369157233798,-1.1476328748146174
-0.16833056181986245,-2.301131788931026,0.8597042078830917,-0.5455812811347865,0.5102905518158957,2.4204167335419564,1.2472323124760452,-1.000286001064518,-0.34948286441915394
0.5056068453088411,-1.9826089376395917,0.7038232587360387,0.10735056099979337,-1.549125221528047,3.9259609222343723,1.8033441680150708,0.8805646299182779,2.082288254954113
0.0717612023422119,-0.12365504966527964,-0.613293749861205,0.27216882454427693,-0.4924775395110404,2.6950162430940585,-0.5589777684184839,2.1402917872097644,1.144534538990413
-0.12253365088090806,0.42320162120501403,-0.2737991817443547,0.2687091675784175,0.4041413056413293,0.14183284583976474,1.1759444681868045,0.6609140265075937,-1.9114471390276895
-0.04907750017449062,-0.8565097552882097,0.25237406931173395,-0.8600678669676616,-0.4677626374315014,2.363147937811479,2.0895893289139202,-0.28084254458319835,-1.1954470741306402
0.3906631677053552,-0.7493125148417513,0.38125231649138125,0.30113175435944534,-0.45687225545171606,1.8402275338601273,1.4203225660885685,1.6430765297536376,-0.20718961920933546
-0.4328098998985191,-1.3851492850340263,1.8798808182265174,-0.26708317616956095,0.18011627912921782,0.8161990077728951,0.7743838344789844,1.6185639579607012,0.44286897891705135
0.09039100377164562,-0.6333129410208262,1.1669117923397794,-0.13291630456930822,-1.4330296121014534,3.242077008228703,1.2204999579798568,0.9057431373609502,-0.4742997345751667
0.12496301347725851,-1.409557436420607,0.05684675510944827,0.9962922066130497,0.1689237695523646,-0.13599903614447062,-0.8578903580999896,-1.4046352194713243,-0.20788824409804973
0.3442732703760668,0.09758928667366944,0.8845017961086722,0.0496300482268563,-0.08722316860384266,-0.753059285387511,-0.5761207591165581,0.3738780907641999,0.5015264052240022
-0.20932209544579936,-0.2292584340191369,1.4600701994454024,0.1321632924766872,-0.18740687397526343,0.04577032848038476,0.315034450435604,-0.8467217217068046,-1.2899792977492806
0.08899639564113473,0.9088285658254855,-0.3675160996289845,-0.1867347944238829,-0.4877922135697618,0.024460376363866665,-0.5010703662419775,0.23490947573137283,-0.7723040977657318
-0.351368736251771,-1.7756011359236281,1.3228393470155326,0.1643891432959627,-0.5787496048321651,2.12200170899545,1.560543594470465,-1.7104185940560077,-1.1702669474706102
-0.11660968058123565,-1.359697539954292,1.001354199419549,0.17893715620152145,0.8575764883672369,1.374422571287817,-0.3264054226181199,-2.785066878011989,-0.08475941675294561
0.052963192194205956,-1.9784423949407355,2.2756814569708608,0.49144367267678785,0.346626139843694,3.480042191290491,1.8940447061746934,-0.11373827185763674,-0.024184655042927803
0.2163159204893528,-1.2652852877972678,0.9406989896554714,0.1903096647498289,0.9234928384754195,2.4564412852164565,2.05042129370445,-0.35149022209311187,0.197085671810246
-0.5351794267597374,-0.12775957146049371,0.21002224834987634,-0.1328543636075778,0.05410759938487513,0.6603784677489645,0.3714982494056138,0.1824551939978139,-1.3080126030621635
0.2073318862829989,-0.08617386390291204,0.6239804236897829,1.0816035021176178,-0.14404348720960422,-1.131613239698452,0.25300794834043383,0.9250213984491974,0.21051545829661072
-0.4712140264798589,0.053014010933494324,-0.2630599966543373,0.06958055646324277,-0.10252475511670839,-0.3701932873146774,0.23372274354707434,-0.07792228058415857,-0.7421247720669866
-0.46216832480552755,-0.5719415126136944,-0.7232035814378361,-0.24677917036492775,-0.4856275132535628,0.40745755196963424,0.060487602769827745,0.048900443011682504,0.061711268566059956
-0.3053943750736582,0.8344008063010856,-0.015896943832657863,0.2926574899072184,-0.08341498890911504,0.13169192838322108,-0.4138427699801205,0.5649039658793051,0.8154699518735902
0.5860475362808171,-0.5394190701263631,0.2361719781711223,1.4804603602642572,0.5378850410282965,1.8077332315127603,0.5351999801223891,-0.8481862871726463,1.366012204596848
0.3874633426973292,-1.3366179932390558,1.392484025999386,0.10680693722645532,-0.36847541136978795,0.36004587505356034,1.106938867768521,0.6140827140519824,0.026831559676711917
-0.2348963363426745,-1.6581131536447071,2.5209655013393095,-0.39498501942757314,0.45900578345271575,1.1286174195476528,0.7237717437824832,2.211724726025727,-1.610588252492245
-0.2180009368878872,-2.4450526924437606,2.4401649891150896,-0.10008723098061352,-0.24677446635460035,6.120974286394189,1.0003852192607563,0.04699301926414545,-2.63400334547269
-0.043162061717438235,-1.5283538569548765,2.931579308710008,0.771535644019619,0.5009956228003932,1.5638606376653548,1.449875814813579,-0.5153502075024787,-1.7816822834655734
0.9387288365034054,-1.483088040629679,2.5969449765757053,1.1885630207553635,0.07078722544072817,0.9900994960987612,1.5894196686680457,-0.3406964107627116,-0.8825365479346947
0.21438399924101886,1.2196748443703906,0.46783002565606274,1.0626287146464075,1.4680711218152533,-1.6786779825746647,-0.8174610563201358,-0.6300467559950135,-1.2674644789410376
-0.3446270788520018,-0.5230901359630745,1.1593368550220946,-0.321183380848918,0.5122726195756011,1.1991659711208627,1.6511015373376892,-0.04716455853574508,0.07876436833221931
-0.3812625773352845,-1.7664975192956882,1.593199374578253,0.6557877176794825,0.35711457752657727,2.6071280070544516,0.08326390990094844,-1.4657610970885058,-0.2524262711209823
0.3593958613782382,-2.4946290915762592,1.6915098526925598,-0.1108160701547245,-0.16010296314211458,2.1307397902958662,1.6810409848579202,-2.1699995338046207,-1.930465278552172
-0.17149863432357557,0.09613912611877404,-0.22125775427696293,0.2913239776663126,-0.8367997775921749,0.988281403675331,1.9531130651453228,0.2849418860867209,0.3768805448494654
-0.11053031568931312,-1.628576222376936,0.7770912386472716,0.6385919349991815,0.792119726919623,0.6837807376370009,-0.32804148636760067,-0.07461923047452312,0.15622438882493778
-0.17765216633842004,-1.781856627764228,1.0973651729005343,0.5670439981716272,0.2314262737074225,1.9568082809277447,1.1522162706074282,-0.05732407304761261,0.8873953361197797
0.2850284419525224,0.38979450246971004,-0.21031414908609894,0.8615552472576473,0.8235038980667854,-1.813211339270255,-0.8185404674774014,2.949777977117833,0.5943471451829921
0.2524484824025656,-1.8612593659282544,2.008095226520204,1.480718603963752,0.04095864756913975,3.0186136900839706,1.689603613314282,-1.1003057969118362,-0.11933077319446418
-0.27603454266347727,-0.992855244787748,2.029736358397168,-0.05291425511174991,-0.0048026235251522305,2.0471965952581836,0.7391888556977804,-0.6408476220700277,1.87739108306
0.5250627238769241,1.1885460311373401,-1.1474321329564137,0.25351499446603165,0.3986032620778556,-1.4563131205922637,-0.8358158534282074,1.4737343754775343,-0.23361355035811712
0.26190912281834716,-2.7667589392335583,1.8464845074768117,-0.15547051112515978,-0.3758261362652954,3.38129855101147,1.4603040652292312,-0.5181628660539925,-0.2342165125527049
-0.5537575802850012,-0.46962115666669907,0.23058322558518543,-0.7208680079645841,0.8132555849370675,3.6265841008524995,0.02444491777535805,1.422143982490244,1.3508019418972756
0.22752881213431306,0.7259266942692424,0.3749793420039744,-0.051984969420113644,-0.21226970419306349,-0.9492222908407826,-0.9705459448848606,-0.0914394158002122,-0.7377919617929222
0.018670138922834763,-0.1433729176890011,0.5332035182124639,0.41450213434174804,0.009359058645420073,-0.6307532053780208,-0.40436520462938685,0.0664879682802969,0.7858079506572925
0.0523514180550969,1.1285918605243124,0.024060744139785487,0.2289911838243586,0.20933993166255657,-0.42112311328488833,-0.3580873178490487,0.04428569651897485,0.8915177494070647
-0.4207735591354011,-1.779518251254346,1.2805492892612116,0.41774577285503656,0.08892440849325452,2.5947203941848045,0.8846280472043945,-0.529971699966155,-0.6685160977416041
0.6760142864068621,-1.3924703503574907,1.8592774710102573,1.1047017377987087,0.8038408086910935,0.13838957356697634,0.2532323160577348,-0.9745041846053208,0.3044429876309913
0.31594903009149883,-1.4847372882550265,1.7638630751225206,0.6106267013487783,1.005927714307397,0.40994855400302965,0.414839541468876,-0.7360912745125783,-0.351498738882677
-0.6232464662628975,-0.6589129404706897,1.0936363978937649,-0.9609827856382538,0.0740381601277268,1.9359666453895052,0.9353302120312755,-2.3562556449063905,-0.965963738208984
-0.3308765413688507,-0.501344231742224,0.029734975890877174,-0.21795687631527028,0.8443374387738235,-0.3494313506311937,0.9737357562966653,0.052823689311454924,-0.6137809169263064
0.12763437736864267,-2.300177873428644,3.6662856411318465,0.7206462451790513,0.6561112811517826,2.2426140289646685,1.9383405102899238,-0.4383168797276628,-1.673799770257463
-0.11420780633946163,0.701343572671257,-0.9880693308188181,-0.21151958621525824,0.48663889568866986,-0.9007967393935539,-0.6165048336732865,-0.48402979234232607,-0.6394686018808818
0.04768390005886109,-2.684664869115163,2.8536306303110552,0.7151454610847675,0.4535170062919992,1.479839802192347,1.3796912663876244,-1.170403910692931,-3.5998790180037896
-0.2369055650826071,-0.6155142228477118,0.5713713766000824,0.013323430796963806,-0.24786764432383712,4.19346898115861,1.0464738693311937,-0.5588905959249932,-1.06254353716835
-0.36796829708151796,-2.750995833664916,1.698952183598558,-0.6205850807941572,-0.7287339366718373,1.121000817942842,1.4248543987357234,-0.11714993294196631,-1.1707274755387904
0.23597273217898077,-1.1245503033122597,1.0617774759584782,0.5938573880367217,-0.09310061761701689,0.5309249209932255,0.17535541452943607,-0.5067868294342981,-0.21020334906130145
0.19787488107229237,0.9480758424590937,-1.1119086817426955,0.2241329451823016,0.9535344166299651,-1.7649667043493982,0.23394938033304097,0.9732846731181248,0.5734601976500081
0.17802953793531975,-0.6580170485186689,0.3602488595540325,0.17971975993542127,0.8858020972657249,1.817130064767741,0.8232916003242309,-0.022112216602099333,0.16373114068731234
-0.38562787201741794,0.5619180161680052,-0.4771317952797839,-0.5745933434486806,-1.031586838471623,-0.0755430794369466,-0.23264904999597952,0.8268399699385748,1.1041905784472892
-0.2140977117028759,-0.842770787170191,1.8078908162312979,0.3407825663967604,1.3253208503618743,5.400704285696006,1.7264687121411186,-0.5776864919197754,-2.249027730341677
0.05835114448837189,-2.5456647236798466,2.2018759299823922,0.31214587105368813,0.07473325725541735,2.455799828146581,2.207595110509917,-0.24737140559660925,0.3105538949941775
-0.4367041939614121,0.6262650689075976,0.10627808211325779,-0.46563133559879305,0.06571095054256527,0.4702695723324736,0.12705615917172736,1.843121150707373,-0.5329648175624395
-0.0741953557578264,-1.6970831736574987,1.0043037087152136,-0.549772788602666,-0.1496106586781073,3.2621822640514324,1.707168675306174,-0.7793931910948935,0.7856315001980663
-0.38760127237231773,-0.16500069799745157,-0.44586487730862073,0.061645333065025315,0.22526109998694493,0.4552343810060795,-1.038501567867505,0.7035038924376585,0.7180491650437648
0.48178251727384747,-2.0417108410677005,0.751150008628855,0.036164524298494705,-1.0485904088643534,2.486572181703306,1.039864740846115,0.5904723764905784,0.20232256638286295
0.4518246799204101,-0.9659749003285494,1.717784327737599,0.11527620498925811,0.3373787250121043,0.3243631490292478,0.8359758974141208,-2.4660123047501163,-0.9069530108956657
-0.21181085063654154,1.6671721336805176,-2.5499091702154115,-0.2706613478560773,0.563878426527747,-0.5613036046603,1.7065364896626523,-0.022147513401229335,0.6565920128567693
0.21591292549316693,-1.3376730697363635,1.669699294290698,0.7917718106148859,1.2399559302788872,0.15596045580047457,-0.3288727529397303,-1.8971533375481997,1.246465495472937
-0.3425423508580614,0.14601485474750858,-0.1221226572758139,0.2996874949060946,-0.2363019152911052,0.21707636330684865,-1.0969311760217508,1.3469693365401947,-0.4451710558108105
0.052077708882206114,0.6377524046418321,-0.1893078843354288,0.48923412799787414,0.6681857663169932,0.2901698114132356,0.15183975931110102,-0.37064448864154365,-0.276887769738167
-0.4775668888536356,-0.5242285389056333,-0.6896582490885372,-0.11953221796266507,-0.40688724398180853,1.4368308645209664,1.5925741838061613,0.4101945271179704,0.3678081358950751
0.704269170587263,-1.0099938634728856,2.182227731986679,0.6584063780288604,-0.5935929171150235,1.7238027240904468,0.863254622205488,0.4406631868321076,-1.0008756920537338
-0.10169071570480175,-0.78774833950323,0.4278175488407997,-0.9055351636151903,-1.506761016463502,0.47726711424296425,-0.339960586842683,1.4311267592591306,2.304487786839519
0.7036383593951909,0.03006780473466284,-0.5288073265237135,0.7651374484748493,0.7200443795172538,-1.026971660153594,0.0826981049153219,1.5662091226718005,1.1109688168967051
0.14635850804730138,0.40507674805212246,-0.44574712177918285,1.36224150617405,0.5896167540561443,-0.008162841560022116,0.4719855870626906,0.10491671300150629,0.17735093534997848
-0.15303549977000144,-2.3842539529163362,0.8856233786047588,0.21396890602675495,-0.3355242604929334,-1.2011726471824846,1.0152048444948483,-0.09576862165510935,-0.4651928538041462
0.3061498708710189,-0.00923568740025944,0.4422375936836072,1.2810470569546586,0.46005484621209697,3.19173558499367,-0.422924580303775,1.0588876631238953,0.26365919681686684
-0.4412555069388617,-0.8144572429170495,0.16640060236727622,-0.15295366774250035,-0.07120568871917184,1.6551904504750095,0.4061088114269223,0.1642316152123599,-0.29779832517118504
-0.43331799641565477,-2.0947526567996246,0.5739386137647892,-1.0017555873683894,-0.2381330875425489,1.8097518744189398,0.9010874677724918,0.5256649870721728,0.3864453045350942
-0.6218786479503625,-2.0140296112103697,1.7247606668118842,0.3092443805673437,0.39070712086063575,1.4012709620432706,1.2491619041959996,-0.8467685208740969,-1.716991439184122
0.3508602146507572,-2.6401364592679233,1.7026986961283885,0.35414429363772715,0.6671904947977257,1.295495212291406,1.4018912391044982,-0.8159945220072675,-0.6625134453550409
0.15410627725333872,-1.1630129943956964,1.8825206377869965,-0.0041470142139165105,-0.07874553330072434,2.0927813232226997,1.1032719121001824,-0.16474470745829606,-1.2779349789868943
0.03664480548948331,-1.6345199420188747,1.4284978809455862,-1.1521459915057084,-1.872681103765677,1.891781668957584,1.730852872566985,-0.7734035278665725,0.21557081720464127
-0.08134224822380942,-3.2185643353312434,1.367746120913793,0.4409582061680178,0.712621771868622,2.3015792669039397,1.8792091493193797,1.5910683861374766,-0.03830190645118806
0.452124014804661,-0.18079722703273643,0.7137609146970912,-0.4469393381326955,-0.9163427034308884,-0.6990897913169196,-1.086657738217706,-0.224170125216955,0.4086745989388235
0.3490153666832995,-1.1429112553680651,2.594276190021984,0.6984829383882093,0.5458115609724129,4.48346028950937,2.211368211689577,0.10621084327409835,-0.19219990485800645
0.6430550640122077,-1.9480208279745301,0.11022441829068773,0.7111752292847892,-0.3892619498197076,0.2464720220847716,1.520654204134898,-0.7541810676736929,0.09801649694857631
-0.09506541399769879,-3.308423616567427,2.194970057612099,0.7750713028964211,0.9893834984590967,3.295317539919818,1.8102342304824084,-0.7385031971314009,-0.7787420054400813
-0.209280882512201,-0.298491644752322,0.22317299935206017,-0.31411378481952396,-0.30304106573108724,0.9337756601458904,0.22669415954535363,-0.08769670616590891,0.2562657357076355
0.06576884838814896,-2.3009853961158635,3.0208779944020767,0.42932548268779197,-0.008108839324521933,1.4044866237543767,0.37471761358636113,-0.9721132300918753,-1.414126395172555
-0.3074041772210591,-1.4111376614172833,0.9894476738981406,-0.5411886034599972,-0.12649883990801186,2.8484070219820437,1.5863688267093101,-1.073124684245827,-0.09997342867037762
-0.04967037057326776,-3.244480530549673,1.737210418055449,0.5702066857064294,1.069530419162649,3.162029999354782,1.496433706928436,-0.4104926712533573,-1.726658247806859
0.2018306875423939,0.152885244376431,-0.13064851851107187,-0.5130018977047537,-0.4489189457547263,-0.3829394004111222,-0.0889942069071642,0.5735494172553279,-0.926147572991291
-0.12894944905390462,0.14769127583512778,-0.4770959150033408,0.27261745040711133,-0.6103963960375122,-1.2200127054498315,0.7586900306746273,0.5777312313750907,2.5687893025517194
0.5392874755593385,-1.5361088857876655,1.4878283066635802,0.3772328995172169,0.5814592701100716,0.9775095929897262,1.189247461195518,-1.961106719979731,0.15126686741780485
0.3529665716722077,-0.5309515095895142,-0.3423042719259215,-0.02106124319110929,0.128860769188176,0.8166892276596325,0.6364785820167127,-0.6977545485106391,1.6176692896350835
-0.545904741568585,-2.5234367893429797,1.626526312122741,-0.3007711739441786,0.28224291467304025,2.12891518836461,0.8941491412640798,0.09611736483269173,0.5500109326539833
-0.4164333378867899,-0.5131669476360695,-0.07762230769472724,0.15406053236055378,-0.4505123512075758,-2.3892460025567845,-0.6927116333902428,0.3192603547224795,-1.6491622472036294
0.1539718365627524,-2.2941182028081966,0.8575953349384419,0.05061802760337777,-0.603429917218167,3.494650704591174,1.6587545228171579,-0.43661025083698174,0.1418997395306708
0.570565918596557,-0.056670269555342836,1.2831599267010576,-0.7775868396345026,-0.4657763020177065,0.24211889527822927,0.19959831400443778,1.0753491359991767,0.14107077988593406
-0.025509481774510984,-1.8846167563074196,1.109933511810567,0.26544101145172694,-0.6142762604874076,3.825803200631718,2.1091133146605006,0.19864228610321782,-1.3550768267345188
0.1809179376966526,-1.7993758686204706,1.5020389521533,0.6042944319420657,1.5663369683059383,3.904514941394873,2.602240547205222,-0.7706139247610649,-0.08464814958190188
-0.15079830602334493,0.9070632139239938,-1.483056347916494,-0.34647735194680945,-0.5255147672903416,0.3463283044931582,0.3534468060001848,2.0680667891519504,-0.20604592068670222
-0.277240570815935,-0.6439188901552022,1.1831458492933087,-0.5134799678773146,-0.5703949400298801,1.51279808863568,-0.09907239217990296,-0.7988113955831505,-1.8061881512414357
-0.024283602417013148,-0.12710820751546603,0.8456156873719087,0.023968304654628715,0.8345474054601812,-1.1530892411455906,0.003605171856999385,0.07629908694388898,-0.8296306342030825
0.42149615220701814,-1.4076997169267393,0.6563528669955069,0.5564700737357421,-0.2755081561794241,1.5788333187245391,1.844591075359821,-0.6248864486089142,-0.4263263638275066
-0.11416630659380186,-1.7427549093278811,1.401527521857262,-0.2551712812080318,0.27821655456485733,1.433832390917178,1.3437862049026974,-1.1619646912053287,1.4697118193742205
-0.44246601429499877,-0.6088041735196327,0.26386731370938105,0.3407273602310182,0.05658026267261081,1.3327145339843889,0.04907068100773166,0.7715119050718765,0.5883788800118354
0.1852284397364633,-2.642322349359573,2.5543013459818535,0.4853531332811086,0.6276897754331541,4.037036759477992,3.127606890904317,-1.3287915347955384,-0.3743970122014955
0.6351510686337403,-2.565709746317407,2.7672264576226904,0.10838399355857642,-0.059701681384091994,2.450119930375888,0.9866226315372225,-0.6320710386038875,-0.2883658066122659
-0.5276972286044248,-0.5015970906981025,0.24591461050077626,-1.054421855957676,-0.4058939637402584,1.1458818613499728,-0.8441430068528799,-0.5717733228497038,-0.4003286727580206
-0.5085741360388686,-0.11529891584510298,0.3594991466537386,-0.12470020017240126,0.4262253952802471,1.666652490102384,1.2234412312627567,0.16261047664550607,0.44976474559355895
0.11815826805470678,-2.2791749343376124,1.907170755480615,-0.0406639440417217,0.512504154772592,3.488656464064972,0.14394247329724227,-1.769891770565383,-1.8118817247634813
0.17236843969085464,-0.2708845389013205,0.7282401436037917,0.532829620049599,-0.39255924353866534,1.3572264939711611,0.0988204526540652,-1.1940537138640694,-0.0021820026271290992
0.36274601393095773,0.3535825441266021,0.3839468830560254,0.37743891519337663,0.09083844643242107,2.377401106164463,0.6904983867481287,0.38567879815346506,-0.47995688082866356
-0.25137492250095106,-0.0982075643014344,0.22719237860292738,0.8679872426728115,0.6116636117091848,-0.2580743071119256,-0.10679591702456714,1.0841235341235926,-0.10931411119153148
-0.2440827352046133,-0.8551730647903103,0.05724225654291193,-0.7853244715008996,-0.18241216079948985,1.2147451844093449,0.9667835127701494,-0.0106409073070724,-0.110879136336467
0.2270554273390053,-1.6698403352457518,2.4721354988473228,0.3564791091810832,0.6033751389134621,3.3314163254491573,1.771799222021015,0.6900658375730653,-0.7806517624169255
0.8825660913730738,-2.4170587551800664,2.5549051920167014,1.3844736365363073,1.3615373755801872,1.985939384445003,2.1457358046079325,0.3127523454410737,-1.493951711934787
0.3019877771428346,-0.7244616458820214,1.7103565239063199,0.32657609600144527,1.24920433529231,1.8721622491535932,0.9516741166003503,0.3025977665323436,0.4754307483399826
0.01745220535059245,1.072886674970991,1.0023138847450093,0.24473364682433454,0.06533288228934386,0.4366545012799494,0.337523742425376,-0.9038346538098206,1.4562374424387445
-0.34007304818028006,1.531924445643542,-0.5048878053600826,-1.285849603206136,-0.9796120638393045,-0.1253535917375871,0.5090195243790999,1.2384202633265367,0.053189956288288466
0.6379815981255276,-4.275912273393729,2.7050145480626804,0.6837894757919342,0.2554127361553551,2.9229974701021324,1.1895337702830644,-1.0691793945149044,-0.7211073865326181
-0.11408708468155042,0.8589431706256142,0.8749055718515442,-0.08467099467470028,-0.3989757128706758,-0.38720547349140483,-0.04736605208391739,0.3603259086883856,-2.2390887177204744
0.8385043591992879,-0.5169348686696328,0.5839698598593129,0.7400093574401823,1.0821283618215438,-0.12178896382715837,0.24775086332459773,0.12957199873271008,-0.17755651878744189
0.47007814240861145,0.6062144820350289,-0.5463688897820826,-0.31019579313893747,-0.3638205129885738,-1.368520816277976,-0.7963051474688289,0.6399241526438402,1.3143087129510223
-0.5639547140111001,-0.8346374096461892,1.044691759358053,0.22373053049722785,-0.10370326395889455,1.8705621892893245,1.6056823210531204,-0.48393914881540945,-0.7337517316151502
0.19848218022401254,-2.965924589588027,2.400242007971461,1.3156258516146964,0.8587695137662377,3.2003280269883128,1.7134805579422594,-1.5308771413968523,-0.7906673148314922
-0.03164585181513898,-0.8203964333276246,0.6358384433104484,0.2569513256829394,0.4400816168292488,0.3934089026116283,0.9596155661293324,0.4824228752251804,0.640961858494556
-0.3075742105265893,-2.5924485877075827,2.186617866676056,0.21593326411551284,-0.044014511259948284,2.8872259214946574,1.749083471676226,-0.9209527532265814,-0.4527084511853249
0.8412755620401419,-2.3252013651809826,2.488635681278152,0.5052698535310024,0.563578969234507,2.7316984938957223,0.36532915919917525,-0.7640135797216419,-0.6621202808315334
0.17965379951970625,-1.0740675910989002,2.0329551265688703,0.6194066388309322,0.4562905806664568,0.0791355465368741,0.08889879021264767,-0.3806000343372168,0.9102755881733039
-0.34417355950390943,-1.6040543715103457,1.4981519711337752,0.022134800901392304,0.3099024510421881,1.8730847460318887,0.4181613656778068,-0.338426485579655,-0.46509125057392636
-0.45166947279210595,0.30017184099207894,-0.968411970116846,-1.3067884164630537,-1.394430400968714,1.359523918776341,0.23803893044443517,-0.44999739442708775,1.2849010794122742
0.5306299939564199,-1.7920355678567543,1.1234301675184648,1.1391511738622284,0.8452516885974641,0.5351338097424759,0.5688367920228037,-0.12015025267225685,-1.598044807540521
0.5210491855778697,-1.4149889075168087,2.1916592222191413,0.7332114903169067,-0.35187754703544066,1.5127396040075638,0.9011677062604211,-0.8281571513589692,-0.34973346082796003
0.04117705772191122,-2.3503646291198295,3.109108062689118,0.06627548929528995,-0.05922839997233186,4.780823626998337,1.903465320607579,-0.30728805060743114,-0.23713915098567778
-0.07251562938860481,-0.7909706995402699,0.53846486903604,0.3942192348695527,-0.313086962622377,3.7233337493647056,1.5890321802848437,-2.1305017725436164,0.16787407638848503
0.18989128236207187,0.386836428827202,0.6468656348842002,-0.1742420426772211,1.141299466384527,-2.370201479322578,-0.08721031909364825,0.008711928401373858,-0.9436001000209457
-0.1583792975805857,1.229743990665893,-1.8355809022603293,-0.47227239241390073,-0.2930983340179114,-0.9458365660464644,0.7790934485937584,0.3011002893930128,-0.4529032145168274
0.47848621588808704,-0.40973516819156736,0.5373883761054078,-0.13413090332673605,0.5260328697062853,0.7174141700947191,1.4678586780635507,-1.0117640163165,-0.9009531169465276
-0.6893945103671903,-0.7956084357752128,-0.2258924185477229,-0.7431851972815208,-0.39478234939709056,1.2356674041834685,0.5229612717304539,-0.1679988252377426,-0.026355296823745763
-0.03701483291329618,-0.8109716616579556,1.0620025194673517,-0.7218238939945593,-0.1728970029527611,0.7741744631708958,1.8694531013074425,1.1352388203488142,-0.641666568422738
-0.1107346545687811,-0.2906854160407844,0.9800814535243189,-0.14651496415789714,0.028851084358100087,2.15591007820677,1.2187746785472726,0.2775620560734453,0.38410986635181066
-0.47163129000681747,-0.35898112750164435,0.7629618755408517,0.5098033566536027,-0.20413877415146967,0.37582528206527605,-0.25840380535665514,-0.4775872622788222,-0.4498810377866454
0.6777327394573586,-0.7903731672707988,2.1162619903645177,0.34636578050144384,-0.43744000834216706,4.820466688832777,-0.14160362693529524,0.9308894233400423,-0.24410266013079535
-0.05307800170008424,-0.148960970307727,-1.5948990315738318,0.1355038520944726,1.3116432797059254,-0.8724093510956649,-0.2698782098069641,0.8715516336695921,0.9336712122163213
0.22944223513441928,-1.259908374653688,0.8607329067061975,1.1904143780772316,0.9256678860648109,-0.0062112221934225165,0.7412252638140105,0.16863138645974596,-0.700802720046275
-0.29609507351922504,-0.43171794716256123,0.46054573850859526,0.26644013026852276,-0.0791776956530208,0.6163341394749038,-0.9041145336211016,-0.3825912052903822,1.029305938644853
0.23949243322577177,-0.5928614464476596,-0.5509464304304931,-0.3799214587995501,0.22172274313503773,0.4067018462420136,1.337689285391143,1.2107323632826392,1.3830721217274218
-0.12139696866598482,0.47539380806219755,0.10505259205540407,-0.6343343321039008,0.424978255594072,0.4771795524383175,1.772263829539971,0.2188704985784562,1.0383837889804413
-0.03058174893389483,-0.3011083185072973,-0.8176549109775761,-0.02465228134486253,0.7188148242227792,-1.5183331330044296,-0.38620564011916125,-0.23439046213852666,1.3582843929037791
-0.39411515014737014,-0.007277218426939599,0.3165099988980895,-0.12127496890420955,-1.1343226968930282,-0.8264562383719694,0.4608133743392787,0.6595646500480195,-0.5570436286152688
0.36323826998192354,-2.1708857519541036,0.43188700681551256,1.13198470666867,-0.7311437483541784,1.6363275850117538,1.4423688896978804,0.3681425082232382,-0.22615926976259387
0.472699495347514,-1.7485443442529878,0.7145533579460727,0.04981723093546455,0.38377211342827283,2.5543913115990504,1.7319668836648485,0.5328685772336882,0.21273073056505912
0.9047428726784934,0.5160518701178389,-0.8674594859902283,0.32007964339663925,-0.14046099721027613,1.394728328185599,0.8162236949487212,-1.5299440214331588,-0.623995790887057
-0.014119010733690032,-2.5274926888729135,2.3539129844779003,0.8392262402440536,0.22508804122400372,4.804720032683681,1.3238171294044723,-1.6738424806825738,-0.05661201923167259
0.1440257818488579,0.15699176221708663,0.32468686302759475,-0.09039445345001611,-0.183597018494122,-1.9347630380818877,-0.22545310874431537,0.34295506872939197,0.7293953985933715
-0.15597227592102542,-2.1746125866623656,2.207712098176583,-0.15130772957307023,-0.3408543070767103,1.994908816247291,1.6528198521897841,-1.11864726167406,0.9032481866711468
-0.41943735605754673,-1.1482882470967761,1.206435449649767,-0.8677875829303052,0.4801871413642079,1.7418918640946426,0.4445828698658752,-0.9358372664476419,-1.1632873229044944
-0.3337794067928429,0.4135548175123756,-1.5165983428951446,-0.08064334765136184,0.906995163292244,-0.6053479027726518,0.513567005905146,0.2840413953704658,-0.6664689655636715
0.2541883683965189,-3.311958138495991,2.2558176875161573,0.8429488329856257,-0.05098833193004659,4.54323179414534,1.2234427430198147,0.7282903214178604,-1.5253582278257043
0.4188875204103193,0.9223546537387326,-0.5218801078725661,0.23267393001751652,0.5165493264397149,0.7519172578774664,-0.031081042042545914,2.5984973816276127,0.6180306072224657
0.07503277771984765,-0.572869633545317,-1.135069600628513,0.014143795073948405,1.3063134873998978,3.3821887950719396,1.03073552978355,0.3966480674984883,-1.0491122660804102
0.10442947417535595,-0.9931427001766068,0.7913516860341869,-0.22156278342182006,0.2009271962576854,-0.18867336924873646,0.046724648922576925,0.9254486519467146,-0.545759127447805
-0.026351819636387372,-0.17299233909600023,-0.13651309360264946,0.6156026261668817,0.4453995208621529,1.040038582403375,0.16754236076046566,-1.5780600384613788,-0.3557295015372352
-0.3801824801743676,-0.9061108695588955,0.39228689383904586,-0.13279937053559038,-0.4999266383551511,1.1051448553451009,0.4673247380056693,-0.24523500692795883,1.4849617895984026
0.24484248549604937,-0.7725720544944638,2.115551960508095,0.42167254914719793,0.053326887207149884,2.2393412496157836,1.0157685204866336,-1.5341079635926482,-0.9856092137519571
-0.24578694533497963,-3.122533553922776,1.3842896067948074,0.9923995043750324,0.350457324327002,2.598822170156832,1.2724525177043153,0.6099495580047136,-0.6020945303764298
0.2652360447770702,-2.626648354544041,2.885011287018534,0.32280444363744476,0.33695614802698065,3.807487881715348,1.438926506012046,0.5609733910871475,-0.13235999961848469
0.24659761159491192,-1.5336619169361572,0.09788255314174063,1.2321399929957166,0.18387070793088245,4.521451984444788,1.494153541616871,0.5440996684596142,-0.22288815456859182
0.19724345838362903,-0.5098872180591127,0.09454980363436022,-0.31532761053033675,0.5368438889509658,-0.985378427168868,0.08791749160830693,0.9326568254459037,-0.11271443120626645
0.26296759258790287,0.172096614387523,-0.5480732578249266,0.2521681911316334,0.3440761868242379,1.0886280654999285,-0.8159231299290417,0.9374458531188199,0.32280120404622403
1.0045308519059435,-2.8045868955362305,3.0084405925603415,1.0931826459480387,0.3386213943446974,2.1962347628300902,2.180452955426593,-0.3862407466304266,-1.6528964504671102
0.28281115127896816,-0.5383349409750381,1.4489962602075275,0.0872431916815759,0.2377801424957463,1.1188616151885395,0.3131728869088448,1.1540849151983368,-1.187468216709195
0.11478165640540187,0.032528886341359385,-0.4452564426779372,0.6998735210255304,-0.8500515120836963,1.5452417656417916,1.5670330835889061,0.8102796052075671,0.09696310008167555
-0.13521147949512258,-0.019756166496265225,-0.6677201102168036,-0.14766846211347978,-0.9917281298926307,0.9142159167513912,0.30197145644469214,1.0489772780744915,-0.5416589735690325
-0.29292098217373436,1.1484457641222185,-1.2201727066042858,0.2841808646016806,0.25684379484270464,-1.4702059384700035,-0.04466364501137246,-0.3294039894283509,0.4826223939619379
-0.8977382687503314,-0.24554634165072053,0.8648458335474623,-0.7316742316812347,-0.11941682052312766,0.8728400948337517,0.8393489904829171,-0.5429940992712845,-0.8175511064318114
-0.3096465726985527,-0.710223822108863,-0.8686236210359151,0.30238817176721877,-0.21530156782805895,2.169996343581375,0.8440390185596774,1.2196125767294126,1.2184303326881243
0.4342268574034948,-1.4870279891459481,1.0983387227263566,0.023790008305410736,0.696193122765607,0.974685249766735,0.5411044549149225,-1.1115489925179365,0.8535794377818372
0.019014997581816264,-1.110675790268217,1.6502870736211201,0.20376694724696123,-0.5264042389205216,2.313929471317091,2.2069266936885756,0.6029355138204002,-0.34459465735972195
0.32172276076506,0.4729620506489897,-0.7359421886824844,0.054469367076272465,0.6815160383461093,-0.8157436601749095,-1.3494167620141284,0.5106265509158295,0.9995561566837884
0.4086428290729044,-2.3042261171302294,1.7573897784011878,-0.07575209512228386,-0.6027916463178841,2.4359586226649483,2.532787377286288,-2.7381563104164206,0.5454499769697461
-0.385559024550204,0.1824537939716985,-0.969340097121631,-0.8549079028435411,-0.7131713077629165,-0.46812895437384416,-0.7083264467938419,0.9430625289340526,-0.10768126959933277
0.20040222124044066,-2.4336822924063415,1.6179406487478372,0.05501982545803392,0.8194976381465097,2.661490472546039,1.7860211775130483,1.1498419354253788,-1.1550796338758311
-0.2191196752544944,-0.7663240804682341,1.727070158672399,0.0818911733104224,-0.23110996816387683,-0.33324555813010365,-0.918338921925722,-0.9342380988661666,-0.3017374384187791
-0.5853818798272713,-0.08854869935586429,-0.5905666264436266,-1.1021633918454494,-1.1896327177829287,-1.2970702656359,0.8245949646157887,-0.3237079636759343,-1.0303770668482575
0.6371588608315244,-0.3124704619961513,-0.3620805573496702,0.6205053350670033,0.8310851445835419,-1.031101696119038,-0.07041961502274398,-1.7873802635718963,-1.1671723433134717
-0.09035347360250319,0.9505120371940149,-0.2200934598882737,-0.5057804025936982,-0.681561810002902,-0.4384617497962829,-1.1796407940973808,-1.2666705609511328,-1.7654571340214567
0.2384431769894888,0.23937957831923898,-0.6023879558139453,0.7063551463908976,-0.5187064783425877,-0.6988669858979099,-0.929922079733171,1.6124785451275452,-1.8265104936402898
0.33205953558759804,0.29078286587413094,0.9252570892269856,0.5396211310264631,0.12196676534891189,-0.048760113180621345,0.15278136917059193,-1.3886633376179605,0.7110885391755905
-0.46217929194762547,-2.055157498659837,1.1390030680094831,-0.13753066851561502,-0.15135446954791276,1.3173479350060964,0.4781420370321179,-0.45457232808537995,-0.3770670301997826
0.29661054500463563,1.1064442914164105,0.3787771083545967,-0.5540270774305106,0.4621301426963204,-0.586089047503611,-0.49657933716870645,0.45072753235420765,0.9870032995929584
-0.4901935236505521,-0.38721927289688995,1.1322648176584345,0.35399669122752797,0.6392203286252851,-0.2886033271845493,-1.1402931479700826,0.6599810833619851,1.064909133886816
-0.02610341538248116,-1.1255988816796425,1.5591039986896251,0.15910659935695054,0.10959959565795141,1.9390945695939374,1.216717585266639,-1.3096263231156338,0.5926842515434451
-0.08818017159355897,-1.3831935354765181,-0.060584660427929996,0.22096429280162716,0.21502558551301618,1.4807535377563295,0.8673220215675969,0.48033801017103905,-1.2752428014619948
0.2836389551254796,-0.18837383506208183,-0.8975919242789856,0.2591747090946789,-0.17952904594307922,2.382920559241933,0.4598976493654189,-1.6005105527372436,-0.5294933316924548
0.26938507605031137,-1.6061011363414948,2.592591954930149,-0.3404031260960998,-0.6093886266039836,1.5006245061192547,0.38670071701000414,-1.1256367670279048,0.322663060547124
0.2545811398123017,0.1016707302148411,0.9445847423864129,0.22241972693572978,-0.5296055206982764,0.5232950536149217,1.0402095777236824,0.10222055901939497,-0.4812942229260448
-0.39479484352699784,-0.16282846046809446,1.0524830965920327,0.21169244793462896,-0.11941243271638317,0.044604086534018816,0.049676648009273495,1.511926383547014,-0.08616640660341326
-0.240382064153929,1.0803038452537919,-1.2926121447543448,-0.507322155359693,-0.6231154653017602,0.9890249685159376,-0.672522914411181,1.2177419763330373,1.7318177829236283
0.2820295551895669,-1.1392000448277628,-0.3603688064534234,-0.19294539566396918,-0.704436134563279,1.734894969808969,-1.0937378094148071,1.5351596698190029,-1.1764410084825527
-0.0956581002191169,0.2427718545369747,-1.663245113796813,0.07353471704176155,0.9727245070380577,-0.9680903548565318,-1.0172847361989146,-0.793927577596466,0.8870082922967663
0.8058721800765049,-0.8860408411130668,1.0656609443002232,1.6497803483760072,0.8299805260580915,1.4031607986300187,0.5331303388909608,-0.07079149884206692,-0.9239551948516227
0.00038621722354607104,-1.6484040493674705,-0.0768788136873527,0.2924002691918517,-0.16700363717842912,3.6441539084583883,2.0326961577865803,-1.1732286183390024,0.5098280844308418
-0.08540329457735178,-1.1184839986600543,0.20373051633318257,-0.5783479221797708,-0.5300850464934829,4.198278859720393,0.7703058158253836,-0.5391049762759215,0.8561001849985671
0.048024427432794184,0.7430773709431993,-1.184000932239203,0.6630169069381123,0.714351691185407,0.05129207554916698,-0.428156214877662,-0.4864507964895581,-0.5697909867856348
0.7826348825174709,-0.676847967084231,1.3888752986583375,0.7822900940612603,1.192878441779395,1.2993277043817764,-0.2764846831349293,-0.523658499556915,-1.01176457413811
0.1512400167945563,-1.559819731438604,3.321588270884803,0.5930229281209508,0.331363084088666,1.963534731405379,-0.27966642309176387,-1.092674764779481,-1.490731615033442
-0.35698371999823914,-0.8639017033480916,-0.7595142987324278,-0.9994895465045481,-0.8327460059825182,2.6094866028526145,0.9667905179624555,0.02915160522304061,0.23730309493247048
-0.16415409097084982,-0.24574063443740288,0.1660646899355018,0.16680786438031708,-0.3601994603350938,1.1803220590860564,0.626243357526797,-0.6508621220954662,-0.11386473683747013
-0.6960553913936829,-0.5378611050727681,-1.1916824346541564,-1.037027258855725,-0.38277940154209816,-0.4648613022875663,0.6840236704467904,0.023420322991441367,0.008481116613147236
0.338124929305221,-3.414340295888495,3.110030080547534,1.2206169054891896,0.3523139429078751,1.9252993533980745,1.9833005220010613,-1.1758179615754787,-0.8395956053186717
-0.4017175845358195,-0.7408495417848607,0.9231681973346727,-0.2789182961774531,-0.002092439865140653,1.187927514525206,1.577570920802842,0.7255833082883072,-0.12829193118444662
-0.07813350838022415,-2.3868514185030514,2.2371757565755823,0.9627407131638182,1.2885544048964275,4.6159937411867835,1.319409827245574,-0.3141199594545537,-0.6121187920541838
-0.1692477775165701,-1.8189502005642904,1.987606491141994,0.943962018848799,0.3607134113098733,2.819147937452142,1.856076320483043,-1.980195719667494,-1.4875118410773656
0.3846886153172253,1.3821723592282265,-0.25913430034424034,0.09406968370356338,0.06451971051588164,1.2342736226682556,0.10235888590092702,1.2259283810694563,-0.3371665343909998
-0.199722847798088,-0.46000086389795847,-1.4317334102132537,-0.1126826083626132,-0.9160800068523168,0.2513696248453068,-0.3239870353488436,0.23520561419566974,1.5159662962614975
-0.06264714318196568,-2.597891487027414,1.0596424391927828,0.4821899807722754,0.7357131212839411,1.49964336208052,1.6481290801591262,-0.14990584254566347,-1.3359398389321002
-0.47927737579304763,-0.6890482050903937,-0.39974355717365334,-0.292166164179268,-0.5411162320922591,1.9706008191091737,0.4371279761455532,-0.7680135178524017,-0.40325212225178353
0.04767410930821659,-2.097129407118201,1.2419720718330587,0.2895330546334691,-0.403439344580977,1.2983163207760007,1.6858727011685843,0.25767738477497437,0.59420465233774
1.0994581923470732,0.5020351383811628,-1.0534366095250158,-0.39754283753730896,0.135057149363125,1.093631101821341,0.4543158960970716,1.3875473946657377,-0.043899418836727586
0.5098544747543482,0.6716342822571428,1.3591117036944156,0.07464477453787262,0.3974744856096797,1.2421402670886663,-0.3759767720216591,1.4079596671967058,-0.49177782337525766
-0.1410456037885109,-1.6364886264594036,2.5189614418808155,0.4174917283644969,1.0823382954507768,1.0850118507994524,1.9740386692645946,1.036483151503114,-0.7767006583069186
0.3168645926430593,-1.4849842410153506,1.6777021176600833,0.8883809087549496,1.1538334346967323,0.5496737145022563,2.0356533320019996,0.9423514780816461,-0.8239918340849357
0.2229511348946773,-2.610603638833264,1.4563503921944356,0.1870621870726857,-0.9469546624880638,4.023226049602545,2.669107686916889,-0.3398879378872395,-1.082594826242522
-0.10724702600372728,-1.7770632772509938,1.4651144656714419,0.42608498413248597,-0.5345325267782427,2.172864388468142,1.225951789893831,-0.647215474945525,-0.696661604356019
-0.20781842703336756,-2.4070474659833434,2.2444036314958966,0.21998691654615746,0.18070563381656338,3.6532281892307434,2.1548274014230984,-0.3713093659950898,-1.025995472559809
0.1931006212431583,-1.8278396884126258,1.7026518148738639,0.3572091464777779,-0.37625203192966344,2.7887931068696403,1.8607652920856614,0.8526192629029764,1.37410647488486
-0.681061521044621,-1.8129525787695016,1.7758768647717942,0.11313511225738102,-0.06698764297446182,1.877608516566796,2.41270799148906,0.38792634746294974,-0.2647843210015769
0.3152707263412297,-2.654032225594267,2.1298719515699926,0.8807903220850737,1.609726087571252,1.8031310209829576,1.7059053403712683,-0.04906014758139865,-0.6346775444506728
0.3949691690192164,-3.6169515193432793,3.868700759863757,0.47887181694503,0.856668749724624,3.163902656662941,2.317966824309938,-1.103466008040141,-0.3322193800754004
-0.16633892503123443,0.35996625793283626,-0.34190188212198375,-0.6642135407481053,0.5956716594557354,0.33945860432503616,0.8511950518830897,0.6569555858519752,-0.016397571101532435
-0.3240116118844304,-0.7671372302421663,0.29068951690010597,-0.7131380528045638,-0.23091434610173797,0.4219176540185335,0.37939625101895064,-0.8143646615836027,-1.1456495003392266
0.7225243689451382,-2.522985390260898,2.7121110423324053,1.3370044929650886,1.5158502359277979,1.8549808930737102,2.215300757470622,-1.07722170505658,-0.13855700007426353
0.17384586628685797,-0.24005885612145453,0.14059657723558178,0.5126654596714371,-0.5676912827477103,0.30732118879024806,0.10587490111559437,0.09775269109252632,0.22389301077807355
0.5719989453095132,-2.3365892897750933,1.296223897704288,1.0841038491003763,1.194569995100667,4.881812156549168,1.5390346966480701,-0.820828215312274,-0.618663851354319
0.23437882989762548,0.22027336079119178,-0.18780928302231256,0.3123231034669547,-0.12264219185340196,0.6772488593585614,0.252777809617936,1.5168008721579564,-0.5176525413070752
0.06348186182497378,-0.9344843682271239,0.5116530219193716,-0.5878319753428545,0.3930748293045388,-0.030896799551342502,1.7430922401580604,1.1731415398588314,-0.6353958154358871
-0.1126973915442613,-1.795966479916443,1.9859890148251929,0.07436614460933091,-0.5870207838732334,3.825270484291725,2.662552419390545,-0.248041077185074,0.18557477993308186
-0.4781946706591435,-0.15255063664193705,0.06233681988239704,0.06489589206563055,0.7533132757144286,0.45747802126650206,0.16339619568261093,-1.4877817438819507,-0.8204497735507762
0.605945334623657,-2.5651627152555614,2.046780244583719,0.24085893935691124,-0.8399403300630914,2.2718424214793242,1.7987707960919703,-0.9951772482429487,0.03267730725950871
0.058550213898454544,-0.2719970849431607,0.48661061791671584,0.45925841206995527,0.054699140162249374,3.4446185815792627,0.5973280033669537,-1.905441288889123,0.26592938820976403
-0.12610266320106067,-1.0377138786925186,0.80974977256509,1.1389028766837286,0.5861045911582589,2.834775067682261,1.6106338032271694,-0.7033356118724243,0.7406928570685706
-1.0065863612290626,0.5188226318710768,-0.002387339993209282,-0.6077002695004596,-0.2745343232627531,0.028011483156739292,-1.373284540214228,0.14346657938481938,0.2576853982585572
0.08596003335358612,-2.3061303219780616,1.0375671893320468,0.7596016767042773,0.31880820998466947,3.7573112428706867,0.7771700343086155,-2.1108561020913936,-0.19181623987849677
-0.06691808851138513,-0.8300967823147936,0.6768792148061668,0.04806412281043881,0.9565330334931087,-0.08105606921470059,0.8010718357150242,-0.08444973877960421,-1.3507071590268804
-0.17890347473741816,-1.321991043750836,1.8151006652400077,1.7802160200699086,1.094495272175132,2.132624425672496,-0.019433035834737013,-3.0750550942364354,-0.3382430750002744
-0.7218496034798514,-0.001598419572780494,0.4694563176431875,-0.5321199323605039,-1.000491077898055,-0.13790162019100105,-0.757418139481128,-0.39374255665015934,0.9102332864200152
0.6573885712896897,-0.19052921392388986,-0.5689805226446633,0.8308816773669159,-0.04226430302544211,1.329276073734531,-0.8327535467414716,-0.45594059734111514,0.019248234629703428
-0.2770159804457232,0.3183777535309181,0.2618276615370505,0.14005342272182703,0.11320795507747689,-0.4926377804261218,-1.26502753378565,0.20103430145904724,-1.0855169094031885
-0.19886654962625616,0.6859712978589595,-2.1088714388228436,0.336051367069798,-0.2416884026273089,-0.4184759807788332,0.9864915811417669,-0.33804566844617256,1.077967564707128
0.3371490108004741,0.388041688497438,-0.4577254769963254,1.1390978732183235,0.2823445804333942,-0.32375799578679454,0.4430773823502412,1.7288366200433019,1.6100557684069996
-0.30465652711019625,-0.3196698221538193,-0.9757535693010362,-0.9592531657589537,-0.5058840424940041,-1.1308641684939098,1.4498867423658681,0.3117792266929113,0.9784179317655953
0.3818952191907089,-2.6086456416710027,3.384224563152336,0.30866969464666977,-0.5533355659247237,4.265944558360109,2.527753829155009,-1.9195527613229555,-1.7513265339721316
0.04686797112434065,1.714991844284515,-1.23982784341583,0.2584264101388525,0.5760978799219525,-2.295222499975856,0.0013994400849273538,-0.645519805557567,-1.0369874042776612
0.3319844738397111,-0.24819268752989423,0.35063343536666164,0.28147979853863725,0.005963272612882451,-0.6662871801702861,0.6851817608270068,1.3608915884996273,0.29830946392205426
0.293287428577383,-0.7331472089774994,1.6902342353688884,0.578395629566345,0.10928854119030763,0.9549571034243963,0.3152884830917292,0.22510998787862702,-0.14224012498203698
-0.0638889713973202,0.5563270120929853,0.38637547216980755,0.5046152270538202,0.6019816837284617,0.6844853422648254,0.03713181611155264,0.7967918485782408,-0.6373635518395746
0.39182486111158443,0.12272902903670688,0.6094241147788136,-0.5957052277013013,0.11280511710791527,-0.9444843749895029,0.308732430366817,-0.5602878443042361,-0.6938122657545518
0.893247617087339,1.2865507756812027,-0.8797850076971994,0.1473541008108034,0.5668713449377424,0.11863570436440857,-0.02519729063838394,-0.1906924849399181,-0.8058444041959367
0.20893139767257077,-0.5323761943640071,-0.5431794505249063,-0.39700733935352,-0.9152584918598292,2.4270665761353825,1.7557103415439004,0.18572184267238762,-0.0789902995573792
-0.31364348458435737,-0.8700273728337361,0.5767562959846325,0.2627322498321925,0.30932686138712207,0.12601874405365288,0.7045215973979873,-0.2509560680081092,-0.2860793729524003
0.21402141871394548,-1.9356458083043377,0.9875157257711942,1.001266330219285,0.09675135635377984,2.8890418748153976,0.9557518393990028,-2.6949524185074702,0.3615574510357509
0.06719108603281945,-2.4576216974538685,0.02224481014544565,-0.031211608689787167,0.14055198947013883,4.4186632544898,2.6708666868473636,0.13010454314341613,1.0524246220826992
0.26040370281698827,1.6957705469035844,-1.8332256695379252,-0.682486415366398,-1.018222160288246,0.8259807209368406,-0.7179241589202918,0.20716190786768676,0.6656180830692278
-0.3502891522036405,-0.8010378500184244,0.5230267772460042,-0.4878438497637672,-0.9040025407159605,2.649254196249133,0.987559850776252,0.903430148975711,-2.0418307699952845
-0.07536665484810078,0.5690293817135123,-0.8366505313127847,-0.09762442811530805,0.3795228747221872,-0.24511858657747457,-0.04175437368466138,1.0514511167858291,-1.547879328596514
0.6125482491286529,0.45840119543154745,-1.239355692144817,0.5536791740407233,-0.20726780322177646,-0.4485527145276004,-0.8262122395918426,-0.09739758690390493,1.0070171417599607
0.7958105541314853,-1.664740163683389,0.6335141579253873,0.5720739964634514,0.09126751160552056,3.576818636494279,1.9669782262690287,0.31698346935373406,0.4991761942110956
0.08405247102497997,0.5395127393415725,0.28463645143288363,0.39965319765649,-0.708638691922169,2.0303737745233805,0.5258508026718108,-0.1775281394555449,-1.6525831427981663
-0.32016597130829255,-0.3986605100053046,-1.469964355832438,-1.338066336845022,-0.7183104500271438,-0.5896083798904286,0.14611378549565954,-0.7711960410782458,0.7232375794598103
-0.204845700613376,-1.7683902705899621,1.3925891589134132,0.16949675204172673,0.5200040709507268,3.2041644097600033,0.6334657276712393,-0.8332242353398293,-0.6137601482128627
-0.09035411683719084,0.39402320991871004,-0.9278658280065059,-0.6065309409981626,0.108653129587184,-0.9075475510563717,-1.0425332449716567,0.3602212921514601,2.0429698328407344
0.4072696474196209,-1.3481082224433818,0.9776656034600949,0.43035684227068705,0.5837242326385368,0.2707651535218978,0.03379246642315078,0.07321660828454682,0.5691926629709372
0.4046872618570979,-1.2245056337924982,1.1110977118960907,0.9495653975424193,-0.3091948461765544,2.135365898873581,0.6352556602400157,-2.0179817910646616,-0.30351934442581124
-0.21267262176542376,-1.2833235657052429,-0.02812136582659107,-0.4440687912522324,-1.0756189976435389,2.336769926209128,-0.2653714886311845,-0.1242721408827423,0.6050125288810235
0.44473605905423774,1.7207277843828648,-0.3754049931823614,0.17214506198266535,1.225188092524853,-1.2728721778092147,-0.6925923611604349,1.2875076986279064,-0.0033468533672198117
-0.14014310322899093,-1.8772971480810305,1.6712937459910955,0.734699374884151,-0.0746038282434323,1.9198255688180814,1.3497746253750922,-0.03430002207304578,-0.16816229501432672
-0.3321600702006026,0.8804597867213888,-1.4149651750031111,-0.12968560982686364,-0.047199883881319994,-0.32573650749710653,-0.6042390017550532,0.4237011717350411,0.30814306014376264
-0.11117045985517125,-3.4542460037804883,3.290672167814114,0.5775628517262412,1.030123708111816,2.5682368258376864,2.4931140366333215,-3.19278023093333,-1.8456454462949436
0.25523891070909155,-0.35280126453489263,0.5638585222630733,0.7143332851189456,-0.1513888361685492,2.9449248672266535,2.0566578988200552,-1.115564085883122,-2.1635315731621825
-0.07718517370724738,0.4112855210583934,-1.2442533729494434,-0.8894824397455192,-1.1190970291797564,-0.5148743510718902,0.3873419517768417,1.1634249521408053,-0.6163206448011845
-0.1996944808961804,0.1249672840885434,0.6401222505465464,-0.02942906658875703,0.11097402965578128,0.9782701969211478,-0.27851146165698487,-1.4009488076559262,-0.9413398142468693
-0.2818372717310131,-0.8563658120612777,0.38678016082298255,-0.7322369119862979,0.1416659375817517,2.913440029264664,0.7986010134649231,-0.7426909490647781,-0.16147055002998606
0.055539884475950874,-1.0206336639185916,0.6811581821951261,0.6002690503350804,-0.046035971689081086,0.5304172916206787,0.6401207791387857,-0.953116548143903,-0.13845180815406063
-0.5367505739234258,-0.11113970734282413,-1.1737527816179794,-1.782675881470223,-2.2873969662299323,1.224326076157451,-0.08764456529094654,-0.856144776074615,1.1189643761819374
0.0007592931041493691,-1.440892878952736,1.1711959050287801,-0.28718322478114794,-0.4537319254214099,1.7388398908881288,1.5445727240745617,1.4965202865601683,0.5672185983126605
-0.10739228103270365,-1.1925041718886351,1.293309989589945,0.23291110051670674,0.3475155913013323,2.229819463626573,1.1816744750613126,-0.7113641565636105,-0.21424206251952285
-1.3524979877914265,1.524076658925214,-1.6535480510867226,-1.9670051957631907,-1.539779251996529,-2.3293748424238254,-0.5962062359032204,1.0191042687097749,-0.7620943330197183
0.4859556869279197,-1.8138017260454204,1.8698222355909921,0.4393782170270754,1.6152782506363783,2.525565375735744,1.7726577762895062,-0.9152791322099009,1.3440170904009185
-0.14826848221775946,-2.963043032091439,2.550292053324169,0.21559291756448115,-0.20599953065114499,4.191580026224526,1.6771985162736944,0.6304695919524127,-0.4813736212003749
0.06309140770443486,-0.550162672225443,-0.14338649619384033,0.596525375262377,0.058670926272194994,2.9972655570461826,0.978927220831274,-0.05157560351758245,0.732051697477286
0.07601281730663498,-0.7212205513877434,-0.22860926313729676,0.8582730421606938,-0.7317529914924054,0.7760049749168907,0.9927717816163377,-1.4326605205051928,0.03624734153398436
0.13513749052010202,-0.5102742978245277,-0.5513887237417285,0.17828385529273066,0.6939531241443112,-0.20740627365645192,-0.6152000369841286,-0.16390633311314784,-0.3677851413571078
-0.19734048632466233,-0.07025572194006893,-0.050067190562475355,-0.8577457210925711,-0.3589140272283629,1.1908913743571845,0.7848527444346259,-1.173457403332579,0.17077201763362324
0.33220403939538873,-0.7765771377660359,1.9513345647195866,1.3792074956211617,0.4371394063736127,1.9322320396168222,0.36910575757811076,-1.8918850197401855,-0.10408444667963718
-0.016970199380749583,-1.4953782442228538,0.9655156407407403,0.7860860225605892,0.15242089856915625,2.4519961416086415,1.0866130131504457,1.0023285496331689,1.2540553033885378
-0.5155517524379195,-0.20901476497723478,0.6353863360693847,-0.7455044116197879,0.4203556174624616,-1.258381832257283,-0.3328903444973267,-0.27450797963222034,1.5139386430010215
0.10667140066042857,-2.708196874544024,1.0058545480052468,-0.35526419109047375,0.8719647417122705,2.0483399363793664,1.4298538885411607,-1.517553679419361,-1.0732911068852948
-0.10367645849567189,-1.193721308630785,1.5230163247826367,0.41129145297929054,0.593557282322051,4.3188619503488015,1.1724105940188072,0.7596095380407671,-0.011557921945225926
0.6058157182830511,-0.645844511369759,0.5349858127782291,0.834507626489681,1.0207036905307998,2.9598909702778995,0.52319587314661,-1.3230908196403672,0.43741594244467324
0.13150000547578986,-2.837091599047022,2.952352372536661,0.355862712717286,0.17054198901297016,2.2118082573426534,1.624372306091055,-1.72676015990691,-1.1721650123697778
0.37613109760272484,-0.662329176595464,0.39833517094158616,0.07205531963422915,0.11503778989252222,-2.1664221904792225,-0.5898860301955416,-0.4393398067316025,-2.040232851713297
0.025251769377567984,-1.6531641075308998,0.49659320781517297,-0.36718915204721153,-0.9547859389257185,2.5617249839971823,0.8323732751819518,1.0628024486857266,-0.49837290225278685
-0.5033563201471315,-1.0684695215538513,0.7162816580136927,0.17168204413099722,-1.358159629051827,3.0975130759436467,0.9676428317400841,-0.4637997385498068,-0.5157695531594143
0.16598573347685477,-2.1600421137530437,2.3104487383077386,0.37678284808353046,0.5005449297721387,2.4413488168276847,1.9711762058798843,0.43995036456303105,0.05176154171397411
-0.06497753462541134,-1.2710255797245769,1.9248346275821595,0.40354412240522486,0.016610979475573127,-0.5591207442990109,0.00878593534725812,-1.5065955121359962,-1.498371811956743
0.0073844500892096205,-2.209281458842403,1.0650248619056295,-0.07043775607011898,-1.0469674887285847,1.0998663001514675,1.7351588846173074,-1.4717536502344886,-1.1735181346362995
0.07765497030983236,-0.766317938918835,0.03443220508473836,0.84124109222279,0.007845904103633228,0.7524384380916613,0.15359398786964212,0.49888575688332093,-0.07591078657964592
0.13152146890084618,0.12924082384044194,-1.1210908278393996,-0.3321780985581375,0.6500026872141254,-0.7120646531130438,-1.1370209380965852,-0.6732417452843084,-1.0095241557663899
-0.2543870020334666,-2.748960104845231,1.966971586988838,-0.1603393852727971,1.7140327305304102,0.8561778814144101,0.27323469200315614,0.5659764823423319,-0.06447324286277692
0.2012736323312145,0.07805176756938169,-0.3851008830336307,-0.09623894538769888,0.44407100594169363,-0.4876557641551473,-0.44657873660395964,-1.5925337007854163,0.3764290206544872
0.4824368946030377,0.9397997934297698,-0.8382761399907301,0.062223949100269446,1.1872940092404882,-1.02547327347719,0.15022910099401984,0.7908453609311135,0.08435290190224531
-0.034842380373464724,0.5159378560346677,1.2116349352381737,0.32677453986657196,0.6399674929371358,0.23073007456321282,0.3017106242190487,0.3258918404509141,-0.5835906006440753
0.25762449143580496,-1.510932050258963,2.2926296003935347,-0.030842315982933858,-0.20168730212705296,-0.23985812111509008,1.4259396192315372,0.11737397356655,-1.433313414421816
0.04755562473671249,-1.7444240381399434,0.4459719460204129,1.135151368875026,1.0131006920533936,2.9649609134417747,1.1836544803491476,-0.6230462290942993,0.23972471908732904
0.09319600043927516,-1.8466994576815958,2.6638790746126295,0.039290854681174735,0.16125199510220567,4.3188904266264005,2.1729188733837623,-1.9692809689175585,-1.0153205330047803
-0.284321131671069,-0.19315665202344467,-0.29302480160161093,-0.016716836531944352,0.24412308142969577,0.6648776638226686,1.2567795900595582,0.23498356834876738,1.3408673636302493
-0.005478239707186691,-2.5457590907381364,1.7206412471111452,-0.18496414972922706,-0.11757181626509738,2.7803415142189367,0.3279717718982718,-0.06596061327984737,-1.3522228638366232
0.39193126222208696,0.49779212455366095,-1.3127598947975856,-0.12872623410781822,0.03663927244837498,-0.5940272497591313,-0.4174117704132814,-0.613233881467727,1.0120543848861834
-0.6278906708628287,-0.2562601776102518,-0.32453802458590203,-0.8251502522954017,-0.46899604383337096,2.6818529882491173,2.468079186998341,-0.5051838363766001,0.24218233474460216
0.5008093905613022,-1.0736248742115178,1.6305694101390311,0.8229351277649796,1.2258258054937294,1.7421581088397615,1.2748308829180395,-0.3963405931495394,-2.424064959604054
0.6766966472040559,-1.3301892881456459,1.480913658432721,1.3895677073545494,1.548637243191511,-0.813530152238251,0.6621957257951052,0.2596539163117171,0.006273188603669928
0.9860732628877086,-1.2915729261980118,1.449306077485688,0.7392054813161714,-0.06287655800485313,1.8921340009150245,1.4252150422226226,-0.8631695545331353,-0.2286724679104106
-0.32407103372795965,-1.3901412861561637,0.40121050003813663,-0.0276882348760564,-0.22395123214721646,2.2967248717789035,1.6108750646842833,-1.0238000434575536,0.22579792753603306
0.5358424259931508,-0.6150807757951645,0.7115731162664852,-0.011903812139311224,-0.2809808775798527,1.0717564978929293,0.34567783020268533,-1.5570523758928136,-0.07657436991979998
0.20614983263745282,-0.7955411398254816,0.35902140005065153,1.162931242809517,-0.3702434617084814,1.6424135076690662,0.8139563478608798,-0.9328232539548813,-2.070578879427038
-0.4068803924615056,-1.1715516485310067,-0.2212977286299946,0.23096649679382159,0.039206756912411815,1.5483399955942074,1.2584393232487294,0.5266733702961186,0.362161244927295
0.15250066528977962,-0.2060619352660881,-0.20074190808498119,-0.1041308226299456,-0.22432635974583984,2.027362142216045,2.235141100846626,-1.3895423604683454,-0.4926771015191091
0.3758770448382967,-0.37738283579615367,-0.9011009707209087,-0.9476513533970117,-0.8743515641302114,1.9703087005083937,-0.09030758120423274,0.6301356814350095,0.8047747809854652
-0.06028513015473778,-1.0583570809169323,0.4977899454167231,-0.006778600701278916,0.6343062827519218,1.22095809016725,1.3540953954847919,1.7514687656078252,0.14583959391577095
0.35409939875036184,-1.7785898224172059,-0.42435544062783453,1.2635682780236495,0.6300060576890709,2.594575279017918,1.9416389265658491,0.971135843219876,1.5376860380924424
0.3750713426448406,-1.6578303612501986,0.622336092572487,0.2750331128433937,-0.9504353069309504,0.9643738611276076,-0.31115834267030773,0.7256179793203869,-0.04328061713474264
0.12983184698638314,0.8930893460583326,0.12645818669455006,0.4083556796154978,-0.36712868889036504,-0.7341494126953592,1.030986521969846,0.3742755309773383,0.4176775668249757
0.2898625330039405,0.13679145590689182,0.42560530740999025,-0.08773291827806708,0.09544643953161637,-1.864517034010355,-0.24302866243940674,0.3512014525600188,-1.6731296702557776
-0.048150145548345936,-2.164914841074105,1.8372930111820134,-0.3916731770163168,0.1400437990177985,3.1656852655608763,1.7100883169471859,-1.1246221209712253,-0.22038371531427856
-0.19353620167490415,1.1864605721106085,-1.2524721404352321,-0.4524620646699356,-0.534292046648562,-0.21370367725316164,-0.7921505960484172,0.5135495299629581,-0.8903050285563016
1.0756951143783888,-0.9930223040964706,-0.1307875941489744,1.3609576725679322,0.7385619028652161,1.4050939928715223,0.868539849615105,0.7004044197580293,0.04333244004684523
0.09059995598343616,-1.5691577948965512,1.3298007038504065,0.3745667693960186,-0.8787671465518119,-0.6303709428102588,0.668527696576379,1.076679923389965,1.1596382029693078
-0.047594210657345724,-1.2737143391004169,1.1175227709142586,0.5070708953237165,-0.45909768803122714,2.2561281946456715,1.8533072184931658,-2.2485215193839023,-0.6593001499049358
-0.3418704014127096,-0.20739481151081368,-0.3448820427621804,-0.16129642205316086,0.39626110358066774,0.6542050108783574,-0.3369007404655494,1.405905912772807,0.6647292345049849
-0.16398672863089864,-0.612621585480869,0.4250298987760611,0.8079067965955139,0.6334885637182428,1.011874149059061,-0.12394713722138834,-1.496297889893223,0.09081781908550318
0.5907575794824775,0.06736612182563592,-0.3719441631194275,0.4190586313192392,0.9815473053234154,-0.22997530298435398,0.17093734242057804,-0.12401134911734896,-0.07586395444781308
0.19934332609458738,1.1182278229404798,-0.46390638500934644,0.24871228921003574,-1.4632428837290787,-0.5624274071281858,-2.1260267339099967,-0.04567023736368849,-2.006932672259764
0.47746499417077326,0.08782507615850191,0.6663496631323328,0.27082359025055913,0.9935477391432369,-0.09907466967077116,-0.622312943999086,-0.34601756128711647,1.1670567401208232
-0.16453971825250016,-2.350384798166329,-0.3882946682526643,-0.8522424978482718,-0.07731508831608716,2.2559262660509036,2.0644044076954144,-1.9020931128698482,1.0310215684109192
-0.07549851300436954,-1.492920989550138,0.15558700516564103,-0.007649888431821365,0.6434550212475696,1.227212401463458,1.8026573477082815,1.2369281017721252,0.7809136541080052
-0.24449029541132486,-0.20024259234024303,-0.38784244099917853,-0.4009533518000397,-0.42546579353504044,-0.9626170675586794,-0.06408725053317839,0.9827525156371851,0.8562554421987607
0.5615510192240172,-0.2259545654544868,0.6014978991937158,1.1025436102090715,1.4130849686931777,1.3991151568173121,-0.004114042899450413,-0.7125212384373538,0.7486361972518326
0.0388073165050019,0.4145587012138221,-0.6760228240752197,-0.059190908273449847,0.9430907454860936,-1.3023658146203256,-0.3725929853932304,1.4822694974964992,-0.47100266890254416
-0.38846487263755763,1.3889603350664583,-0.8057000388469434,-0.17023329938641815,-0.8589089326648455,0.26379069646799935,0.03500651650506989,-1.2295651262910738,-0.5042317030758126
-0.6099032688887895,-1.501979435942347,1.5988171253946315,-0.3495555220659588,-0.025057773739740028,2.282901845336653,1.52288176197922,-1.403451546012624,-0.8331563718940489
0.519765728381982,-2.0030393893042855,1.5620356218578266,0.8059229668088713,-0.4943815098840503,1.7715760272586123,0.5502690910402134,-0.33983560644614474,-0.8694164335931308
-0.49331547939449977,0.8902168209215856,-0.9764800613143515,0.13517423389897026,0.15660123286832653,-1.4810713458911344,0.5974234120801276,-0.18054505569219328,-0.6287309230368798
-0.14535977813596132,0.5383326986830076,-2.4990506263116905,-0.13175358976427332,-0.6946061747651202,2.072633767506973,0.6749870379455994,-0.20979896951719568,0.1551689362747911
-0.23911317981216978,-2.911550566417834,1.6635507323730698,1.5659287604120253,1.2645217357050818,3.9974497949193655,1.3574509255325367,2.2120406179945475,0.9556919582159665
-0.016677672605514022,-0.3049016865928635,-0.2936282656959349,-0.11561657673643773,-0.5681159672273292,-0.35415863624346217,-0.39723194879927276,0.5323591098371449,0.5730606392451062
-0.14121548627731675,-0.5291994224269342,0.3997641391287462,-0.37280887448578226,-0.7549712176529445,0.2447227873580058,0.09303852031951326,0.6534686966559259,0.7170640017961596
0.3129919553980301,-0.05953285948286498,1.3497572570680392,0.6515574684081655,-0.6627494296882476,-0.614331441136464,0.17587562598706116,-1.1561173484596654,-2.3275393542883123
0.14193401570291533,-0.03560790567969079,-0.9939980852640984,-0.5700288027086408,-0.7175244683674785,1.3494201368000032,-0.39140152630486635,-0.3291108826478726,0.6950066698442423
-0.07214727023085961,-2.5287087643103394,2.7637408590041717,-0.18831887093808986,-0.17093825406290813,1.1879629616786762,0.9273669504577735,-1.7215115449218188,-0.21730306851219874
-0.1567110900036684,-0.9469423140874157,0.31004298688872717,-0.43085295970948423,0.5546945705996401,2.2520803571805192,1.350702053980307,-0.40183826281677903,-0.8853549426299245
0.3526578934573135,0.30934451592844603,1.1401365285363863,0.2795128338034618,-0.6095803106927518,-1.126320983762465,0.9322260088022745,1.1228779739855568,-1.1424301472478693
0.32228088439383507,-1.1329004500218336,1.305441177179425,0.6630240809421961,0.18074483110684902,1.6838774299097525,1.102045531286127,-1.033775270729297,0.20195195035831015
-0.25694582459742277,-0.7819568790816065,0.6225869152675597,-0.30681713153914364,-0.6265773610390022,-0.34611968422358674,-0.9188505690068698,0.3209506871464882,2.1541794595154276
0.029178770390209042,-1.7578994331657913,1.084743172476984,-0.06286821031732125,-0.16460413391527928,4.83028924632587,1.7499740820218896,-1.309750571880564,-0.649234124772084
0.836572729193249,-1.3468270051636537,2.151896331873344,1.592610541724709,2.5625326925574234,1.9113666872870891,1.161675267149742,-0.005762048929393249,-1.201445873158404
-0.3342381124203165,-2.625422154257369,1.952101547624619,-0.5471496523229249,-1.0427212429027173,3.268649878233416,1.6327776128482019,-0.5215332864405064,0.1788379080906881
-0.20522337165310087,0.7100426613350953,-0.025449524714053047,0.30314395876705524,-0.008903735454377682,0.047221227618296904,0.3280197277582701,0.1953072998523621,-0.05423842467651824
-0.07929836026822311,-2.5048077800249535,2.4060314897182318,0.2525734256104336,0.4689952311436559,0.6856497246379027,1.01406697353822,-0.8658218159734015,-1.0922212156778368
-0.16544244766621052,0.49436525484090854,-1.0140256036696809,0.017864007620964906,0.0016592272554634762,0.010920543442913488,-0.5730773662112704,-1.2334384380990793,0.32793594664179915
-0.1573189279455687,-0.6810654368529712,1.5485325809869408,0.5065515473352338,1.0035479593011463,2.269062875872211,2.9675001026221723,-0.41344011113558243,0.33328633261820795
1.1454343542148326,-1.619040946333521,1.910730090228917,1.63701867379933,0.28128321646131155,2.559002419556791,0.8318888334630531,-0.15581695749381208,-0.03750799112939907
0.02670268251936738,-1.352263266627836,-0.4358110986139906,0.8798817043104525,0.6036521856640801,2.314814666799922,0.3121232178472227,-0.5953590161499998,-0.7781219481749622
0.7885144172907923,-0.6933966487603521,1.2215799863600678,0.3005467674574981,0.5594802970475202,-0.20039686054987005,0.8954627410854181,0.19264392397479463,0.35915268879115636
