x1,x2,x3,x4,x5,y1,y2,y3,y4,y5
-0.5692615565396877,-0.8671427719152212,0.36168579474262597,-0.6132823225188281,0.3723636111487395,-0.12246625614222872,-0.37696087338325174,1.3708399120608705,-0.3645376701823991,-0.6998525295579704
0.6479086614861138,1.3844822174424045,-0.24264174174615816,0.8152059238549471,0.19657418883561023,-1.3607953915162032,-0.6709804422685398,0.20426982879355787,-0.015440965845207757,-0.18666346135030082
-0.064820075159139,-0.26563729496875776,1.80647009235325,-0.8365156356320878,-1.2482127722289065,0.09451620979888342,0.6406676662211501,1.5303851537081978,2.7304958585669135,1.0845537439717354
-0.31543527436189345,0.17760614324973129,1.9333436651636067,-0.04072761886603066,-0.24795418136617964,2.580810647678237,0.5350575946067536,3.5377094469718324,3.66283549526101,0.5515157729757909
0.22542597068999207,2.6422310201151684,2.490634276085875,-1.7538046261482803,-2.6138314387097052,-0.33085769194716974,0.583106192624723,1.078011277099444,0.8320777619124844,0.06630897422050643
0.3258086432902109,0.08877843915618411,2.3109150015376487,0.010632517685870813,0.43144627119228984,2.841990279674946,0.7761783361192544,1.3915774902263722,0.5087973496093643,1.4814506740677325
2.1859393020461693,2.3430067032789883,0.03493243819982106,0.6389053546903181,0.9973705291552128,1.831896070187722,0.32860145943871527,1.1390473240614687,-0.5045540196440476,0.3545671303980348
-0.24296971975439105,-0.12704278107552408,3.3682756862287118,-1.7848732614044847,-0.7292826047702777,-1.4640177416783828,-0.09122022443788982,0.6121845388356819,1.3694616274177613,1.3744134783354733
-0.5085860667600575,-0.5018465818587258,0.3374013642442255,-0.8858750553485447,-0.7985782741921026,1.4184408729460996,0.2254605377507283,1.6022276652965917,2.7272268865770206,0.9100758370008587
-0.597800868338646,-1.2186742655856544,3.1979759017121268,-1.1709652818565481,-1.0604384376418885,3.3989173116069473,0.33578521745942047,2.949610817656407,0.9093910377752518,1.6982615676753854
0.8866106074325649,1.059852491888285,-0.5916342525510805,0.12747123379272718,0.4957994226610424,-0.16198347741198083,0.3596095193728952,0.8974528324299919,-0.8761004096035677,-0.5761687628687324
-0.7434407791521654,-0.8651862183802372,-0.267218520822215,-0.7371898845426341,-0.852659325043892,0.1339119418898327,0.11888152998294585,-1.1777488187456608,-1.1317999034293704,-0.27621720172328834
1.051343437407248,1.6807314485788656,2.845979312463982,-1.4551805829776225,-0.38897786630921793,1.1264744421520603,0.8326399893510628,1.398674031871504,1.991726543311358,1.9371162603844172
0.6854090548758949,1.127427863102399,-0.11129467857005404,0.34069904703669823,-0.5980257877263009,-0.12023599046103634,-0.06299215581314523,-2.27001752456088,-1.5045605076383881,-0.24678323229414967
1.5482030132810298,2.4842195003855445,0.5390680318154315,-1.6487598316376495,-0.621994334026365,1.0483575758699382,-0.38005489702647616,2.5651656781177596,0.8148704161704252,0.8548238820388662
-0.05219731368433697,0.6474596426465806,1.6907952203362187,-0.11624861658435418,0.9367815206927272,2.597542887810817,0.6539081878028825,1.7028362052198838,0.49526910641901656,1.3298988230335334
0.35637006046912295,0.5468446070886339,1.9964177713182782,-1.530792999499154,-2.343740066723641,1.7364303082345143,0.2252145882721218,1.1823720662705492,0.006131156774559051,0.22621576685520847
0.355770661980866,-1.2247045131178267,2.5441550029159825,-1.4746875153028696,-0.46559010683116975,1.1180018109701355,-0.16465819245958352,0.5056538795711398,0.6504492028641152,0.3549966088789891
0.6527634605660723,0.23609101192152032,0.9789120480935112,-0.5196895020270784,-0.27687608694072474,-0.19451469855429743,0.5621898363117824,0.15151342076832908,0.6020228425373702,1.1883430528026668
-0.1383419237025118,0.45898165141991315,1.951189501286887,-0.34153826164187884,0.4449036053469121,0.2538481536117244,0.041502019284214126,-0.050416532298657835,-0.276828650794299,-0.5682110805641234
-0.011445353749159027,1.183176902390491,2.584075039761124,-1.1953094564202198,-1.9260716213888327,0.2723195353225828,-0.03533885877861491,2.833047397774948,1.6287948274424928,0.9448774654941393
1.1298452701599466,1.0619875271218298,1.6788533332656383,-0.33842134649779165,1.0430175347369164,2.7981831103571473,0.8745397155244715,1.9850972744541302,1.4382043801943223,1.6674198496474792
-0.19138314607274193,0.3263908254556125,-0.006594374558118066,-0.2020339933076783,0.7130243264652013,1.0716591895449512,0.8101438629869304,0.411159273349214,-0.6505046013914195,0.6806072468230592
-1.1299558066610913,-1.6109940636663382,1.3226889508460484,-0.5080113337071556,-0.152849494084951,-1.329365622358888,0.25326864242933544,-0.7435327426537404,1.1263205713586124,-0.09034317362452184
0.6959892736979252,1.8284071771767254,1.0903875555499063,0.2688759520939048,-1.915574973925418,1.585329873714441,0.6219943499943216,1.0360624824810594,-0.13413213627817364,-0.33771687839602815
1.033855366943357,1.203939994524871,0.924137193039124,-0.2998587759990039,-0.4386060359039014,2.9065705017937824,0.15331793331056368,0.9167423360166682,-1.123544175939865,-0.33360843629806525
1.010485646269544,-0.441761246092653,0.49921398429527564,-0.0338153771814102,-0.58327017673693,2.558735129168123,0.6272465619998878,1.2996144128782046,1.2898635226149373,0.6461393745686621
-0.2625701440232534,-1.7759593332424335,0.07268972540085472,0.6797067504969387,0.15511673259436326,-0.4660763942455408,0.06736705956567683,0.477839914619212,-0.2896057550457287,0.07968106759019399
-0.9743746619134105,-2.1013676961427668,2.1598096394313853,-0.9027721302325037,0.005216901114179384,2.4419402382420556,0.6644401720562348,3.2225089419143593,0.8958159077153188,1.1195796100978066
2.0721500691397354,1.0386577051439525,-0.5662404730714965,0.6648987863966211,0.27091267370330374,1.4062091252717717,0.5817313626877125,-0.033897896410048145,0.5431259599695845,0.6174515604853998
1.036799945162504,0.9966874300106167,0.5025897021038042,0.20549162577191946,-1.4290149594887502,1.7319961784407707,0.18934756679642295,-3.066492498818003,0.6510390278833021,0.1348219235060377
-1.0666884059101833,-1.048035190779598,-0.6309211109793376,0.9643142910634017,0.017633807643920307,2.0032040078273674,0.33101603526927126,-1.9376765446513922,-0.8976837745615002,-0.6627677402938013
1.0521632769532707,1.8307397784027803,1.4522291039756356,0.1741222645868991,-1.1562900234755233,1.4537617688426034,0.4522245850647631,-1.7884266515120428,-0.04220231358557941,-0.39293672130648155
1.7936415286820537,0.9596973267077533,1.6822501109111125,0.161078762428902,0.8363951280649353,3.259807811654871,0.65909660707431,0.9433399665974952,1.279655418453639,0.9788406798319905
-0.06100496476197094,-0.4709072523056008,3.0392336654640912,-1.4090474789966092,-0.85504516556331,2.3580241865108125,-0.09925843372219778,3.367127477964684,2.8846015277120376,0.5273117800613827
1.283606310214368,0.2902026978897382,1.4754802711323132,-0.07975771559043289,0.5962506025645438,-0.21908893647274796,0.08604406187651609,2.2346885832543237,0.692121528865399,1.882004304112058
1.1238990303742329,-0.07833922305548675,1.2707384341551706,-1.0752610058495986,-0.7254957729048591,-1.883162845544598,0.2692532092298838,-0.8126988160289317,0.8629273692642697,0.39735510939675
0.13517516888299164,-0.7396331372302192,-0.11106230161238251,0.0026549907869936606,-0.22410921718356697,0.6292360213192293,0.19095926446976444,-0.4676004987164971,0.67185517719546,0.3388641743238689
0.12101616067279616,0.4538352682676406,1.2739096891707145,-0.3769180095149492,-0.10132454792783052,1.7156696619061669,0.22338783391515377,0.25529557293408855,0.7350314094502204,0.5840998784571518
1.3342779011482437,3.162824913578292,-0.7377300518936123,1.2129473109240663,0.361240922057401,0.3278570375449277,0.30753538814404435,0.6367004740860369,0.23086295533065973,-0.08419849698265633
-0.2679877622940903,2.00737681999105,2.515110931884878,-1.7515476478225276,-0.9105041308489964,0.7670278637678289,-0.30288195368144827,-0.14409443878216388,1.0582568213360248,0.5570057879565206
-0.7785044313003822,1.4798254909552828,1.4769943872673386,-0.5724562228973967,-0.2710578020235256,-1.1751798862549112,-0.2366811696835152,1.9690880018699692,-0.1648260809254192,-0.19072923486132387
-2.4672684029582648,-3.216644944722032,2.3287948828873786,-1.0245009395370537,-0.9728684278394135,-1.7759377514630263,-0.08442300550277956,2.1055549076952236,0.6969141998269672,0.12930110077765397
0.5319866790584021,-0.3235117938195514,0.14009748647027287,-0.5871910215417337,-0.18488268471719888,-0.5109887900622635,0.337230224242732,-2.89131085876587,0.10275039912775231,-1.2280412790758781
1.4014403965116615,1.7163330868266466,1.2693641446531716,-0.6290852382008685,-1.6834428353162407,2.21915022860776,0.2968051651356809,1.098146423704473,0.053032983225704565,0.6974319758907854
-0.7072858499745404,-1.497413797885313,3.1701275004945764,-1.2206839904411433,-0.20601813658203322,1.6836341749967825,0.6028844575993797,2.3851754059019648,3.3806112508019273,2.6029697108403225
1.1460992096822509,1.8188479950076204,2.36321057402791,-0.5659272084909674,0.30475274401686525,2.242337674531686,0.0027702016182896134,-1.258558296838165,1.9366813334732262,-0.08941270037116336
1.834722853027483,2.2878452778479925,1.8329216773814725,-0.35822433143688137,1.2912478176224953,3.195947411908089,0.6774436025314201,-0.09903208561870155,0.297773381873186,-0.3715970448744046
-0.09522647770118566,-1.0130980566379792,1.4421561055919945,-0.3474641064235894,-0.2521511682605794,0.36538990147277717,0.42635560402527545,0.9205031342627159,-0.34579480865273776,0.17380384680716188
0.9896198205347183,0.634133538766603,2.9307356614307265,-0.9311748743890922,-2.0704815096376326,1.705954256866074,-0.28555518746257197,2.3814170702032733,1.5002285234500348,0.283423598459718
0.5660549177796684,0.8661619574727066,0.20493128538301697,0.6142875502071606,0.22981722462012888,1.0084907390358149,0.38479174131987454,-0.810874537201863,-1.8346395649159888,-0.8978084482749972
-0.5853969111983593,-0.7787061176155569,1.0673103294653035,-1.191285619270074,-0.8667132083428633,2.0693633152228954,0.2709571835841249,0.12033228387725164,0.3773047443832527,-0.14280501512618815
0.6434584321262876,0.3595132692126966,2.5236639225130566,-2.089991665091489,-2.134092899909431,1.4949182944425077,0.237964996706411,1.1972352550162162,0.34806374045479804,1.112683360829016
0.6003677706463515,0.18322354056575788,0.21864810898851972,-0.05556153536549535,-0.7128877762140448,-0.18690534551392557,-0.063457998240962,0.4562738766782326,0.6271903907870015,0.9223032576695475
-0.7476984045605946,-0.8107454497528993,3.3561234218793308,-1.8947757708676558,-0.7067685450814722,1.228038186098591,0.020321548493404437,1.7039391331317153,2.355860600373391,1.7733015614352212
0.9213927563377091,1.0682140388510026,-0.6507424971059319,0.287937485117887,0.22579219671120018,1.9002771196414343,0.45248103832845593,0.0025538704151596425,-0.17970751182523775,-0.7345145091886548
-0.46894585039171494,-0.7523808123600294,0.6790370670684451,-0.568023858463442,0.3667689244614282,0.5692994159937537,0.33990609715544756,2.272777780175746,1.6352589250148264,0.2652616570779052
-0.7773403888099826,-1.1260482036511332,-0.19337429362310343,0.02081051134927181,0.33474131604954116,2.9591321501511367,0.5295028946862235,-0.16004278802181193,0.74440953364498,0.3833597319350806
-0.947447460640223,-1.131365002867776,2.6298939764579665,-1.235008067296065,-0.8484756988905151,2.4763522327771925,0.4373881140358596,1.9038443049790421,-0.7992804441417831,0.3248832630773343
1.2859783378214216,2.0481691169119753,2.398080503052232,-1.0345504006097537,0.41829671134539925,0.2995172877953509,-0.055108747145682466,2.131981420151863,0.05347461044593957,2.8195175432859085
-0.358926512418814,0.14172376760366545,2.0265170900129483,-0.6249268388313939,-1.7221354370452757,-0.5991177618928075,-0.19984017589149164,2.3268294367843527,-0.1703174417538907,0.681221148712526
0.8525028641610614,-0.21195416348263385,3.441713559315361,-2.5255096783365305,-0.9312341139554824,0.12472200561212365,0.4018928384583415,2.546515199084719,1.7560503900363071,0.7495456706108272
-0.0603245616757335,-0.2517440793862709,0.7976881196712406,0.009374550477114885,0.021707019800638938,0.4984029269732072,0.04697323267733121,-0.1637979208236081,-0.34767402156375204,0.08106369620341262
1.1963749398766694,-0.08445349183536537,2.907294225834766,-2.1906920964205496,-1.5658114910707908,3.465950514898096,0.6462824698715985,3.6932882898710435,0.6600025283680819,1.9890382173716472
0.3367129056686297,-0.14427046245587496,-0.09109931942052574,0.8065310574063556,1.21067532294375,0.06822700004669557,0.811388124360254,-0.09419844834156699,-1.9604475111550383,-1.2549881924535824
0.22445081214477106,-0.5693534421290369,1.7378928563932141,-0.8114963186262674,-1.9055074344494258,2.1529375541662255,0.04277089489010275,-0.33669043741933347,0.43551065086577756,-0.0761745695217555
0.5963882547817626,2.107054485926353,0.5260851065017804,-0.5072252300110682,-1.3478093131659588,-0.6921088064711494,-0.24259740137542254,0.704133272315432,0.5053732208891314,0.24442661635488452
-0.18359444887884466,0.6964080411701867,3.1279989527497323,-1.8960917930799592,-0.7704257754002505,2.7187689380192905,0.7191296709155403,1.2015234041033676,1.6482384040089586,1.0314358871223026
0.030935437159628057,0.46899979223047367,0.13176266014043048,-0.0862098915613563,0.3604788850901641,0.4821343864777895,0.1586602436580318,1.2100248233457132,-0.5509675271094919,0.4024059070689218
-0.7382502141771272,-0.7194053703977131,1.0824963481031045,-0.7670823730207266,-0.19188424658002468,-0.8525895883676375,-0.22099777390647826,1.402456428927434,2.9245572666879687,1.6722147973448316
-0.42500851548249957,-1.227327443766821,0.4113104780849659,-0.5281823420384215,-0.23805497371845824,3.876798087813544,0.419137258232745,-0.6511035574931109,-0.7250855026272245,0.5802604684255541
0.16387796513172853,-0.33625248036854694,1.6254298204477133,-0.14543914919205136,-1.2317011001090732,4.363468939143901,0.8014777479527508,1.729152453481857,2.175697138543751,0.36586134917192475
0.8855311055345044,0.81328191050787,0.7328093645040443,-0.7859623050636,2.2608754102981283,-0.47741957980681793,-0.15552911230452587,1.140471516526937,0.155531365927006,-0.5003593122969507
0.32224795492760056,-1.0437094834213214,1.9575003224786838,-0.8302947480162521,0.19212725485576582,0.9601500362174056,0.28181687795930727,-0.3217199616745714,-0.05299446623380061,0.8186932981186277
0.3537398952633062,-1.0080225788855441,-0.11612486733027949,0.2808003969949191,-0.8405350381119804,-1.306542228233429,-0.043407244336398185,-0.48353963768099223,0.38215279591161977,-0.11000264904412732
0.9144324192657676,0.13318336202264938,2.0851032433468064,-1.2655779576804262,-0.6390180529120704,3.807542220230266,0.8573430166311629,0.8970159450720142,-0.07957651710521266,-0.4874127988687173
1.117991747341114,0.2762763578394528,1.8606253703484485,-0.547482972321166,-0.036084987848847394,0.39923499819483654,-0.1734361809097448,0.622887554138526,-0.12469421752063116,-0.4710620525387037
0.341678068940406,0.653278772228336,2.4587324107595387,-1.0040724156961622,-1.220347160666111,1.5103526517574748,0.20681341112327414,4.924319937467059,2.403232429026727,1.21513641520228
-0.8754245517942186,0.02850528831355243,2.695018217497777,-2.1807828931059525,-1.7960275553955194,0.902800030977154,-0.044975933129155744,1.4235801063880655,1.9186859005101453,0.6503328489013673
0.14336293894883298,0.35900802889524924,-0.12647873918748131,1.0535277009762507,0.28649243644350003,1.1628897146475277,0.27720017970481375,0.8117345641659787,-0.5714705150939174,-0.32133797486671645
0.19999737978939947,0.4771625726487622,0.9385270276633753,-0.3215010579222759,0.06470342422972647,1.0015805173370484,0.18436469579896042,0.23234751546524235,-0.8327970041566156,-0.3631647728663747
-0.5813093244809324,-1.3117601924777418,0.5159191693191998,-0.5081523251912909,-1.3825946318694686,2.3106775119174987,0.7360663180889192,2.8833231555854884,-0.12995413831385963,1.7064215146841384
0.15447794497728226,2.226582145469536,-0.526757371151852,0.6366270016707226,-0.5945359169219308,-0.25588661902147436,-0.0313207519811099,-1.1737724022126668,-0.7248178121146563,-0.2691284897196565
-0.25983789917695255,0.7691452822710168,0.24475021773503447,1.270732024204656,0.7358170530009152,0.13257360018301823,0.21100153019741003,1.042520049467108,-0.5281544630474865,-0.49370752628814807
0.0667469052594915,-0.4056240011398642,2.6478666690488977,-0.20895263204210854,-1.635511686337715,2.9560611998828596,0.06355210455002172,0.9479493467155462,0.7978716440146301,1.5973960105535787
0.8376645310289019,1.5168627351268027,3.302687232336714,-1.984960683673638,-0.43686053710974215,2.1030409633383824,0.6117158595884037,2.4295438282727373,0.21032095119760802,-0.05264471557779233
0.014603780422770395,-0.49205550895693245,1.5243362012548776,-1.7432857215564503,-2.1912077864582447,1.6007173113520057,0.06305440169088054,-0.3066299385133149,0.13514515378131986,-0.04641898823070142
0.504716825649335,0.8023544594755471,3.240471331938248,-1.4792781129731616,-1.7275395954471835,4.234735124166901,0.49335953113292175,3.4964872047915687,3.1642619103480993,0.5815280864022675
0.5932114359658978,2.5126111689764015,0.8359974117734521,0.9621929967618321,0.7375344488121425,2.582708000910874,0.24635625040687678,2.7926711684967276,-0.6540717753238363,0.7137351122050615
0.8072816777357252,0.3554351170707024,0.9070214677792146,-0.8955960216666037,-0.5942952964176396,0.633250766182376,0.1126198865865701,1.711832972646358,0.8613743523230525,0.8288719432980982
-0.23917611650058038,0.5504675264174608,0.48148305424428894,-0.5722240376410814,0.9470973126635052,0.3504902653161663,-0.1750640181202122,2.897467642407074,-0.5146862465876594,1.380154878147538
-0.4629243574947282,0.26092436664638824,2.994194246026462,-1.2376299230505707,-2.909632853708961,1.8981709891070944,0.5358481611732027,3.6804836585854055,3.8445955499796596,2.6487626252450664
-0.8218061863000784,-0.5969970672524287,2.839559508946476,-0.8967274063680436,-0.27823764934900114,-0.1171587903245252,-0.1669115554534186,0.3537582589045445,2.1915692638998534,0.8915004849577891
0.1426608735831411,-1.4673872706840607,3.0327150015544433,-2.1111873258135305,-0.5881005683258451,0.5260216811644893,-0.1278441934172819,1.9761515913689949,1.8720230818797563,0.48013668906142987
-1.197836150004446,-1.267378305241768,3.1194175109617497,-0.795401301016163,-0.2651261057486647,-0.15664528127173843,-0.5624887045501181,2.562356476336074,1.3273660437088268,2.461279937226126
0.8811474411505816,0.9765959803918951,0.5637042336604297,-0.3246553475630422,0.3853767755445465,4.23037164355035,0.8491202196485083,1.2899875134061214,0.32295713164625195,-0.3163266225634526
1.131761984429726,0.989060121174232,3.247053975612963,-1.747814341512852,-0.18298452730808945,0.21559348832883957,0.353014398462891,2.446886447120473,1.8900504290232996,1.3137364571152894
1.3625453537269767,0.21078782803730176,-0.10317586915690358,0.47560391872021446,0.2587732951147314,3.0450199490999674,0.5707364994428962,0.21702873753122137,-0.5858632691411108,-0.09235320227874112
0.1419482149819399,-0.518357351323818,0.25383241095963927,-0.2993339280569166,1.2312502325866705,-0.20749762736558383,-0.0694383334351496,-0.21864661779239652,0.49863647261669863,-0.2567105419330195
0.1570590992465195,-0.012318850721904438,1.0597149366777132,0.17550314087147778,-1.282597062059521,0.13642485403880772,0.29885540131326943,-0.4661436619833403,1.0874910954802495,-0.15159204904982584
-0.18566872388052316,-0.4220475513696701,0.3571893632135583,-0.208837708462014,-0.18510642815966544,-0.5850248861756628,0.14164097217441712,0.41075113146953746,1.2205831257518804,0.46004608215296355
0.4956569772669307,-0.7677337081194364,2.8086844571948113,-1.4129432028589066,-0.4091589825600083,0.00602502949194661,0.17556272024023548,1.0208426577129406,0.8206905833762921,1.9944248808264184
-0.08425736890444065,0.47800697832136074,1.3589185849039183,-0.2332085709391672,1.0495614744976505,0.22030508616627764,-0.32010650534764445,0.8486690141309466,1.293020137029162,0.25336853445709123
1.3890439578131766,0.4708394578252165,2.3619509825566753,-0.7000563312197732,-0.7619526343135172,1.7662903464136366,0.1302763457787116,1.3906771103828783,1.3287561621769843,1.2952944015821328
0.727477656574889,-0.011606891418519047,-0.523644537556059,1.123122253799313,0.6229555435907707,0.8241651788390767,0.0004565104467675158,0.1370495657105983,-0.5514226612628901,-0.1258594541045978
-0.2924876087036335,-0.6353783617933176,1.5468612027958293,-0.7350725312775395,-1.6246179539408125,0.2434721759411439,-0.2226693845899331,-2.235340154719797,-0.6955908658419306,1.124314414593117
-0.3833266672050455,-1.7099774244920796,0.9160847055308616,-0.6892476781894501,0.10784504539676187,1.1247264734290878,0.23141548570017725,0.13603002255944374,0.3536416891997719,-0.4720783169378749
0.4250218041185798,-0.34146776293238496,-0.668506388751898,1.2108704347949164,-1.213623438539394,0.11433228832009912,0.013106519239517002,-0.43517943601232395,0.16757948389836388,-0.6552315251608323
0.6192487043608583,0.06364170075507407,1.2525349685757527,-0.9781937917443032,-1.2089091484486207,1.5553286366210815,0.8457061045303296,0.9891388385054283,-0.2460100486113549,0.25286365760025464
1.528417491208713,1.325260173086822,0.8701857565932976,0.10369831356114838,-0.13733533895011896,1.0045887573110812,0.30125966393260906,-1.9804528052765056,0.4337195813505638,-0.3449744787399387
0.16005195709794967,1.20032794264134,0.4764360261303231,-0.0930756351397595,-1.2218263786105026,-0.2071732000233067,0.0755925916899027,1.1303821009234696,1.5901128969743525,0.7074539691596271
-0.1004793982503858,0.26536157066502614,-0.35044399181238406,-0.5146383308359138,-1.0618963833263482,1.0252315365603755,-0.3985913169311475,0.6666849948095955,0.19707488808357884,-0.45346957294022355
-0.13999948163664055,1.6651520006927603,1.0807849533525689,0.3183463992263682,1.020410875648473,2.9734110373587974,-0.0723857262590692,2.6386629899324134,0.5896196825820046,0.5205583096299679
-0.6013437950179521,0.22134701190778358,3.1175824872681517,-1.306023793626624,-1.1644125653702146,-0.9645436426814165,0.44419922989837374,3.6407689765540017,1.329045305203981,1.2090650098219418
0.7085804453208269,1.508288825902834,2.1668962594316685,-0.5009517869266458,-0.2513327729465473,1.2710555174477447,0.1865034945606902,1.9999969551815235,1.5665562040415038,-0.7797878608502045
-0.1162423781126424,0.8827792774569586,2.6191716896901225,-1.285743761515902,-3.6694061267443896,2.829845259130006,0.0629556236016094,0.6304786433651437,1.4293247064881744,0.7046459438797433
-0.05565343667729817,-1.0090811807234306,1.110778967278157,-0.7745556828707778,-0.4498681957982995,0.5766944088271743,0.1430338520133656,1.8477572374989646,0.3599988476737663,0.6919144182430788
-0.41690022930159637,-2.14078226494504,0.2780441363658259,0.3180250708870592,-0.2786448829316379,-0.5604803233220799,0.1847090044313132,-1.2134460760144903,-0.3987452161362574,-0.672698418064775
0.5833311227334371,1.3675188508741134,-0.5445317394078344,0.47065166454747387,0.11648970063772368,1.1738033213754593,0.08838093383761234,-0.6468010107698595,0.12599187465819822,0.505303829408037
-0.9175861438719564,-1.481579666488915,0.7510849445170946,0.13220451118101126,-0.12573623372212506,1.1760843945127637,0.76225297338771,1.3781235770902562,1.2276252493444615,1.3914341173751699
0.31477777332636847,0.04181624440630962,3.456119537059914,-1.379225759779448,-1.1232595707360973,-0.5770266721995084,0.24383600118552679,1.124425993530014,2.6665036617809617,1.873821443392428
0.7509217819419867,2.3241426667113645,2.684126321829724,-1.2140719881339144,-1.4041180632459505,-1.7763538608962446,-0.0441527662909619,0.1446846038369891,0.9171511630929071,0.3082032557550172
1.1130369914734357,1.2053267713074445,1.5105969791812068,-0.059057132634293075,0.09989494231470819,2.4268951687345988,0.4564559126858641,2.92681089203216,3.1132150164528625,1.2370261269674374
-1.0083719047314963,-0.12696576939392232,-0.7392616602522274,-0.15489464669261832,-0.6323063940794273,-0.35050865941633624,0.18424992120649064,0.9836695181645986,1.9609505060721635,1.057838540068522
0.8556727951066851,0.9048764842673122,2.4535075657625582,-0.01432271372751337,-0.27477436125849974,0.4707370763764027,0.5749567709314863,2.704004870643105,2.1332915784195787,1.9880456294563753
-0.17584265735263765,-0.2503276338324017,0.7258248127183546,-0.22021154231396795,0.19081048427588687,-0.7536680746534228,0.3345712377325696,1.1932304507503604,0.7023246657256205,-0.12945767134761443
0.1286727585625086,0.25253476374655537,0.4879538495590252,0.3117501460970599,0.7123065405161775,1.3230860842718566,-0.15045998073208075,-0.412206551069737,0.8856299915512708,1.3946987557382227
-0.3334404051899099,0.6121089298319309,2.5256836075353664,-1.5141749143725032,-0.7481245418418118,3.021375600444628,-0.13442230577649417,0.30261192143108895,0.008584439927599979,1.161530685113375
1.0915678393416017,1.2049195080317268,3.385327252083181,-0.14526319860175507,0.7339233614195265,3.0341994069295763,0.8108997765754292,2.507010689739733,1.6834157140460022,0.5506815679338309
0.1666295355055961,0.3746460049715453,1.1560426170935116,-0.6457251925352461,-1.1068095616712113,-0.33881659875827275,0.275349437072516,1.1728401063568885,0.7509222856371954,0.13888315280260474
-0.4716654351614081,-2.514048475429513,-0.10316848599905915,-0.9850983824898436,-1.7867888525850095,1.3517849238065387,-0.3632102800084357,0.5595525762913475,-0.13266417110667367,-0.597109568153239
0.6136527298598223,-0.07943227029623681,2.5208276727870054,-1.4797112175603562,-0.4502316588585698,0.383798438971794,0.38260027759335563,3.9530710772361513,0.6695264148016175,1.1257487205397458
-0.30385284315473765,-0.5563833993155315,-0.729147656484137,-0.08182451460806046,-0.06865264822309891,-0.9613227469082024,0.25756817059361303,0.9985225969739049,1.012374966057881,0.13683569543119553
0.9414491275221509,1.9045954692871474,0.46652238052058514,-0.3574975979204337,-1.086071457200228,0.05787785148027815,0.1850216238495665,1.5573320898150906,0.21130541092547883,0.0707423264078232
0.250991487597284,-0.48858156881934905,0.8789526126765532,-0.8886228805953043,-0.0033019169120019898,-1.0087712351275688,-0.1024964742740276,0.5919240426037831,1.4206971979728795,0.3117225679518778
1.493764322383909,1.7714047220022826,-0.158354909229242,-0.004948316210337811,0.4752429696832222,2.6693238533817616,0.2952662054821589,-0.3927488438088397,0.7402699471237145,-0.6125125230433225
-0.31574701190194426,-1.6851393721893504,1.996428212722591,-0.22146026741524685,-1.4271969342671875,0.7456978529627015,-0.33273602518088935,1.8259289203421418,2.1859801402884194,0.38465574451140283
0.06910913050828271,-0.4466355900842902,2.473588993050037,-0.5545154980596296,-0.4022039049879358,1.640143380654264,0.06968318746140734,1.4202035611790325,0.4478618211805187,0.6412856769321276
-0.03330537435949634,-1.155867008392004,1.419306405647332,-1.2295793993423365,0.10915619955907596,-1.6578446807652703,0.05593151125267305,0.14926862353552844,1.5389516207551195,0.06944856224822754
-1.2734353007534251,-0.07116659433932376,2.633712080964368,-1.1335600273366868,-0.38776164001394103,-1.2708797796750027,-0.4952223959684023,0.8108227259765403,-0.7791497595968082,1.0158894822990556
-0.3890077224373209,-1.3258254708422623,2.4153106157175848,-0.522046186345427,-1.2084226312803759,1.436756618121811,0.27015396910157186,1.7812802751951236,2.0407424008487154,1.1879920374090889
-0.269541006112733,-0.05701367861551658,2.2960894360228408,-1.4179397238780898,-1.5895313743247188,3.1082309591809683,0.5397478224539096,-0.16866032555079147,0.3392174345182983,0.4424503363716462
1.0806555249137995,1.3667209030315217,2.1663885641906098,-0.5078141233241997,-0.5831323079022563,3.1119479542058173,0.8404374626311177,2.0291023834284703,2.595698484391272,1.947667990478707
-0.22688133475713856,-0.8772850986365033,1.4495644160088141,-1.0324646113277125,0.04356923779167171,-0.9316830926276611,-0.061734840743154246,1.1618552033068028,0.3438591185676485,0.15469461817091368
-0.7710566321764865,-0.694181384953507,1.7620909615435427,-0.32600249529459685,-0.6040519120867789,4.449001965409524,0.524349963315419,0.8939317060478964,2.2259318120903475,2.2558949302427678
1.2809199426078888,0.5300419587432027,0.310677426889594,0.7622836236116074,-0.4563560662269078,2.9144463018672453,0.8399456400675911,2.4877482317272257,0.7435713543875815,1.4920444810852413
-0.09448378074022218,-0.38255434784503034,0.015016740825438468,0.4980803903777533,-0.8074152112267199,-0.6173482128989608,-0.7516824524552376,-0.12834417310093427,-0.9314308647440384,0.0015808144562395878
1.681690090082904,1.756241817099641,3.420992788215254,-0.6262762003858834,0.3273274636938896,0.8819335555906961,0.34848120379967945,-0.5216104804522921,1.652683297938758,1.362058754904892
-0.7975624427967624,0.3153506766745756,0.7778968489940397,-0.7703304619573041,-1.6770658695258494,2.30688845915241,0.6348268643351618,1.7363916306042753,1.845080097932847,-0.4742279158605426
-0.2812629438705203,-0.5124662332487133,-0.5672367635156894,0.5663459548144276,-0.029919411987185285,0.9949999336456571,0.10642945943539722,-2.1693047917751347,0.8101589747251025,-0.5437111669987236
-0.42359478213090923,-1.7732009726260154,1.9295531315812653,0.016635607854205425,0.07411177335661831,1.803308295221895,0.16980961953379983,0.8794444226288822,0.3284427535046951,-0.48009327116546907
0.9707671634326287,1.5472933111730143,0.9673690942356934,-0.8486561437025133,-0.847769401373412,1.3625338065133914,0.3819004733440838,1.1750861138522197,1.0770383931030922,-1.0494173840180976
-1.1125270288057225,1.1165482404793214,1.808399691659707,-0.19846639777277963,-0.6176552127193479,3.224990578306113,0.7376928846741827,-0.3224925070844218,0.6572470834313789,0.7895046063893899
-1.001561107338396,-0.5152379565173142,0.7751511033471743,-0.5958205497856783,-1.0461616055527425,-0.8956180601108408,0.1505793299748571,0.8334231526805478,1.7179486663355472,0.32888561675958683
0.09148629714161807,0.048613484526735674,3.4327902155915453,-1.5760860675877186,-1.6158051969091591,0.9571801991598954,0.5347718652238846,3.8533135129479197,2.2581332323087513,1.7112831218883608
0.3904655235617991,-0.9825760175708054,-0.4131062266620822,0.7032661369047746,0.09219999950544389,1.9414133682274723,0.2791228349195938,1.207442040657096,0.24231234121021414,0.38274553890321844
-0.11431814862963222,-1.4416392350975444,-0.17674495335998663,0.3689229228308091,1.3299205757654675,1.1712945263559458,-0.24358593966835904,1.138653387173366,0.21077174090439552,-0.5513962206293561
-1.4544587574301964,-2.545731609267022,2.0285338988055797,-1.0105591023327283,-1.603429783611038,1.0609436093446392,0.15625162902968842,1.271008337733163,1.475333016253573,0.4470296890479669
1.332553254734167,2.7676876335902287,0.4454911866205449,-0.0320543993687777,0.18347159681437697,-1.617816667161699,-0.2766520683847903,0.5453389545234671,0.8387930243871476,0.7829990222570328
0.02373178146789624,1.7969467048970644,0.21550469058578425,0.09282917754717332,-1.3788193047507753,0.6099161417545186,0.31285383813573897,0.34472071199098453,-0.11346530221691038,0.2509454875377752
0.5526610169373045,1.427321108925559,-0.478230051611074,0.2583610876330639,0.7292990769586478,3.4069488865305235,0.6924521133649372,0.2592615746060836,0.2890189968804761,0.18719811250543122
-0.43489283659254885,-0.7019770815359987,2.705153128226544,-1.571463555912408,-0.6293176389841172,1.998289868650085,-0.39783712561530593,1.9687971028306261,0.7628220049934451,1.6083493616318665
0.0933307850718278,0.34707090781901323,0.2573376244510561,0.34333055074582486,0.7008159390395717,-0.31795349465319706,0.21021449504760134,-1.4955756224675862,0.6533297990363137,-0.3236446517356492
-0.9862871726875385,-0.8321624184266571,-0.47763291515651574,0.8707142945437072,0.6724561295334647,0.7935459341454452,0.4598376433104872,0.12323177275240726,-0.7522932056759513,-0.3405925391698582
-0.4134737756090971,-0.5576217522740214,2.980526911680869,-1.8822367100367166,-1.582842220617819,-0.07086501911237975,0.14759135805107157,2.801438300908282,1.5417299216168219,2.297490129130343
0.6249317095361546,1.6550341332575877,2.8173800985804447,-1.9683479061845572,-0.7159359928531644,-0.18299152127947937,-0.3652408109571894,2.679879438618173,2.3876749188568893,0.4091974604985996
-0.4901314013370585,-0.8855250741094683,0.34230369491220314,0.5101403560546391,-0.40158924202610075,0.2556792812155403,-0.05117170746110361,0.6082682344882792,0.35837917929287505,0.6170254914338555
0.9162260090352359,1.1999336995166763,1.916287840124585,-0.36758549038245386,0.7028963692006125,0.051343585237555556,0.20203313185394725,0.640356442449885,1.4666653134673597,1.4523363068093427
0.15302674030382268,0.01270945283624806,-0.790710137198983,0.3768082940663215,-1.1104663300890065,-0.9202165126581763,0.24712127169168152,0.4525035699757917,1.0131435481562916,0.6934177019624286
-0.13494021332358958,1.12819241890837,3.3675289291613186,-1.5544343841967898,0.9248723864089179,-1.471736059078533,-0.015176145697152704,1.9193392755692211,1.1235239366294818,0.978099280932927
0.9308993064590735,1.4530498437356694,2.4617885237048984,-0.39333828417098105,-0.6503756681381588,0.1563458118320129,0.42587616547347207,2.2137294418637996,0.8660463956919702,-0.902131752341973
1.4148195737326417,1.3997695895192201,0.5595865743457928,-0.7348679193431061,-1.4932896144472958,2.164731149071555,0.43111865876121575,0.3996128412457642,-1.178584690864366,0.3026126585506465
0.968436428710465,0.8162693451775261,-0.19439174415701144,0.20970346009841015,-0.33873399255556125,3.297844208960921,0.6738236515925302,0.32383144267308167,0.626489269796201,-0.7998373907583919
0.3599567398277678,-1.0409781514120613,0.21191510513484646,0.12264650652863018,0.1643054879501732,0.6569019737949287,0.47360489217166346,-1.5897172718602985,-0.748233943754328,-0.2545338484686581
-1.1111992791289442,-1.8628279138528474,2.8668055218573176,-1.1135022229036466,-0.727663415111691,3.2786088802239144,0.08427548127699211,2.3195144621254102,1.1596809848714824,0.7147667368561808
0.12973407188116393,0.15746389219237616,0.27935419623133173,-0.2243647680998837,-0.39501704615222005,3.7557429383935306,0.5808055643576173,0.5258562192768177,0.09335756471357923,-0.46520414415228545
0.8981222858871959,1.6781981087959548,2.1743060687919677,0.3518827679595935,1.4769120312091633,3.033809464569274,0.7482291930899897,2.2087519087508807,0.7477581407423346,0.6630313721929268
0.036518564876605895,-0.8639096855374171,-0.7111634766517843,0.3444059561053603,1.7126407507288466,-1.1747645372033804,0.38298155364130415,-2.980050529938036,-1.4640508819741263,-0.9642274243585136
-0.047377050760471405,0.11371687176659559,2.97988618084295,-1.9227813482889824,-0.6121132824764788,1.579150997865694,0.17652955746075594,0.5332479093324887,-0.8989567333220269,-0.2331367474778433
-0.2526059856675479,-0.7891671677221038,2.823892607099007,-0.3075998960286581,0.61909203438374,-0.00672887862111704,0.4874192629871322,2.538485656994231,3.6987691238006812,0.7438218386270455
0.9243408282837478,1.1315452882028758,0.765953998462791,0.2565914149507843,0.007448252263952321,1.94831102058765,0.7188742543708689,2.5315594454022197,1.0918729516117072,1.8197860539008022
0.6320328144604709,0.7203530012701096,1.0664409536488408,0.11946186466372083,-0.6121010466343899,4.584637881827946,-0.10629814483940554,0.8915895912298862,0.870536429897818,-0.22833733976505974
-0.007464730852646858,0.42834438385282275,2.8122841253454,-1.1567967139045943,-0.6727100865695872,0.4815668099057332,-0.26997323481573876,2.3121601190666103,2.001690214550933,2.3028700450411566
0.20903379614199413,-0.5909239409118945,1.4318724884753347,-1.142434419201977,-1.8075140080485612,0.11507752867186016,0.6737782899697105,1.2543295525090885,-0.6120043989496646,-0.168699696672505
-0.7955831969101369,-1.1003736732168428,2.686872548922854,-1.2743151490828768,-0.31186686534065966,-1.2956471507715723,-0.31605132560157034,1.8901593381940929,1.8032620008978204,0.5725586582148182
0.30257578970570653,-0.054757464088532964,-0.5954704958151851,0.047691653562972475,0.46993894882599446,0.7593142158009695,0.032738701958397294,0.210747964924888,1.8798861873182537,0.5321723992966169
0.8478423797560504,0.11206539979075193,-0.8697691387140627,0.8715897905313787,0.7573631867739947,2.183947770336221,0.8362388970141563,0.9028671279011251,0.7894275183511499,1.306983150636288
-1.2180900927988358,-2.035258937847921,2.8057464548811426,-1.313504072101904,-1.6814700769800126,-2.5889828138119952,-0.10689093057680324,1.9553881411825096,1.2951029492746238,0.4706217510478371
-0.20894025504498218,0.6442094371962548,1.7196421999917293,-0.917156511832802,-0.29800137906666013,0.7104293016182966,0.18943774300733687,-0.05150799040426968,1.7382239857647506,0.772971440850396
0.3431945643880446,-0.01477669946881114,3.010797489468813,-0.7773097427861757,-0.05485568127142171,2.4165505050235265,0.39677871756225963,1.9942094699148674,1.5952511226885258,0.7573672522102229
1.069404517528081,0.9703869524963474,0.8030149385443714,0.3209025925941078,-1.8308768275720837,-0.3991805558400269,-0.011965781522862016,-1.0819919954286652,-1.2898684596806567,-0.521776223912988
-0.14278773448782495,0.5608070997183673,-0.4245990219848804,0.09997129256219761,-0.31438599895080477,4.496349155422344,0.8644698555783239,-2.0755952536423257,-0.007464755065900958,-0.41001359732161946
0.24593962878879877,1.0308849796894888,1.65039162644086,-1.2128410673648053,-1.1085509860136225,2.6670616821777915,0.9079003175351141,3.783020517193964,1.5045340343239393,-0.2784639808621492
-0.21931756973757324,0.11638057170389039,-0.9740586666099098,1.2096176679989545,-0.2767938478979274,4.173425401016943,0.5338120822606143,-0.33926901545602445,0.22293602688141204,-0.048031434987206696
-0.3350427537838699,-2.4123676183086746,-0.3847755030077459,0.08260558867964277,-0.10168010815622487,1.9526820284713569,1.2526218408117848,-2.236917817927794,0.203627363053556,-0.6971722664836061
-0.03267723807661435,0.1880784454757825,-0.3562444408804323,0.7007592424490754,0.17521161696849763,2.3999027529887167,0.5019806435913542,-2.462617593044888,0.1027359895608647,-0.7298402591487361
-0.5565938914367357,-0.7816011234886445,0.25769474683487603,0.23800595011322517,-0.5381547217481408,2.982152248875382,0.10486508894085983,1.0692042131588104,1.0462494115586205,-0.0992969962626325
-1.0816942978832809,-0.46316520930179983,1.043809937878132,0.046019634497962425,0.9169538632814729,0.7142039175595083,0.3214704737138245,1.0804511169009698,0.8566288029587757,-0.5612765608356255
-1.0846586362119472,-0.03582758007638827,3.3870538844285933,-2.10337853835679,-0.9878993498376398,-0.41309789956107257,-0.24027680307640586,2.854851320001121,2.1765383116993338,0.37257647634970215
0.3961858870629831,0.8478527997345706,2.6406259954923845,-0.9522514845877301,-0.7619581432680732,0.5694305769012858,-0.1004307277313203,1.3541511490379803,0.07260686300158219,-0.7093418140428028
-1.0603026011559311,-0.6293175467196482,3.203146422310393,-1.5130439189382074,0.4314473215816973,1.7861989999040566,0.18945020371317856,2.244334717637246,2.7649565484697116,1.335308003867018
-0.4066972726077795,0.8962926667909215,1.9441961292312864,-1.5105822442660213,-2.073138737751819,2.471963340754117,0.38578232783106564,1.8786736626521923,2.2047430264605254,0.04023998428111132
0.5334192728275694,0.9608802696119351,0.9657716831466558,-0.3313324042013089,0.46012466247663497,2.2399792821612685,0.2634319117061342,-0.7931142863218456,0.32414599428294405,-0.4323637222100783
-0.8628469853151827,-0.45004713555430037,0.7494541355957642,-0.3142556711168826,1.362057414317182,1.0318460261805984,0.2295103675334909,-2.088895486399381,0.7639722393225378,-0.31289275974137015
-1.3075428538963012,-1.6596579768005575,1.9456883709401769,-0.02490626743540507,-0.052417001913616784,0.30006510620858784,0.28277642153784555,0.5234031620279611,-0.40536915505970905,1.4770479407720547
0.42354619795406934,-0.7477305032591791,1.3965462806239248,-0.5451958397475686,-0.2590490000332698,1.7908196687134987,0.6380948052271866,1.5032232983068203,0.32454527840957387,1.2039005289263718
-0.34625665744950185,-0.9848020395523746,-0.42587082771943774,1.0574936489192173,-0.8756056955322546,0.7653611432868006,-0.5988672852971865,0.5739133194980187,-0.0711446371205373,0.20080256862112056
-1.2879825625923935,-1.1792105945158264,3.4208150670918114,-1.1944948937329827,-0.3651278362340581,0.4637129779739493,-0.05658037207471467,1.7492239946990058,3.085406047751058,2.0933749876553893
-0.613870494670465,-1.1965915853510423,1.1893316621429793,-1.2392031043027862,0.18098818890170895,0.6374830611438539,0.5817488088687294,0.33386695402556055,0.003531490404738868,0.9267608782923421
0.7548159044440046,2.3728991568036752,-0.5079046149032773,0.6282442055412938,-0.36013616538314663,1.8369765288473723,0.5801127961964342,1.2096459727949134,0.8467510836658396,0.11468420083165043
0.8397286465396899,0.12512938814228883,2.548527232169868,-0.016325167225451853,-1.5414508955502106,1.9830752225117314,0.6688298016541289,2.0185650129230996,0.9935049122943309,0.9024087521550511
-0.2542117716406783,0.7179674874049238,-0.6048920302893475,1.3529395627636314,1.2532712416553151,3.298016553536679,0.12321877231073314,-2.4606264406912732,0.1960862738158176,-0.43050195429532256
-0.10121604338743669,0.05255032593207255,-0.982877372994944,0.6523820946198938,-0.5748037291398147,-0.020286388943861408,0.04740111682540144,-1.4540883786644865,-1.1578270866927993,-1.2198540296645957
0.22256859119877717,1.316678139016785,2.3412157142738286,-1.0300715367284925,0.6786595909544421,1.1093041291024202,0.10068443501779467,4.17942507153377,0.5809964796701844,-0.1818262575507345
-0.520144577009631,0.2985194190823618,2.5356548769579565,-0.7077612568107678,-0.3304955118262851,1.024032618486626,0.2538769556945246,-0.06687497138333343,0.720013104220453,1.105078890417107
-0.3689811159110003,0.23638468727666218,0.2581432609965322,0.627908975818333,-0.704249587950351,2.6513367838482598,0.8321064028317336,-2.7279750465535155,-0.9732686560001595,0.10711062489659055
-1.0853906103994884,-0.20011221546008864,1.5412562243278511,-0.724156646660463,0.036364309713300416,0.28188698320002675,-0.0030898130766035996,0.5985355724168475,-0.4750023177969859,0.4124040809088593
-0.0823231604466718,-1.4364044412225543,2.59644719432643,-0.35968199563396436,0.25111818311963097,2.3585132649135296,0.7163948019908134,2.7126295442364032,1.2969975880978546,0.7833566113117054
1.2239471540994673,2.1317049041273792,-0.012760309196820252,-0.09052454461483345,0.9353856140594894,2.8454346944371096,0.14836201575209856,0.9973282785725693,-0.8522349603435858,0.772572781507991
0.19718332166348046,-0.2979338592654074,3.2781024921327804,-1.2752567231505754,-1.0608572613889482,1.3415609642689446,-0.14067152341512318,1.1818090882965588,0.10990355870150084,0.14949335063842825
1.0007822437390768,1.409893322302508,-0.0541223278756936,-0.38410476517299974,-0.27891324470205836,2.4217919008567246,0.3048370315476136,2.092359636565721,1.4667237324953875,0.954193670179871
0.2948964425968616,-0.9120332341903594,0.009630525440569082,-0.00536184204988549,-0.3566031396154843,2.57130315963027,0.3285851450852583,-0.039704777672251335,-0.34276195440481616,-0.8034345053806593
-0.4644505661920665,-1.8849773271233428,0.005001860365045241,-0.3888895279010519,-0.5616216435638473,-0.4497861028454605,-0.31901782639981396,-1.328346970891332,-0.03447022335075586,1.1375069531568343
-0.8514036223529601,0.885676419519961,1.2230866339385673,-1.1167933687216816,-0.7895331385606226,0.4642361176570977,0.29195560949203536,-0.11473803213369216,0.8355978625181213,0.97301634591322
-1.4786294883867437,-2.4607759808325667,-0.44530837840762716,0.1217993889823965,-0.5174523558868539,3.1571548973956016,0.7007112451980976,1.2406179021827672,1.905435799415357,0.5882896526849507
-0.3641127515186335,-0.11522207891920276,3.318574835495297,-0.8045119247480262,-0.5728029897967296,3.395268204115392,0.6274239609503564,1.6683605027074198,2.29257430378562,0.7679065220363206
0.6483915673190533,-0.1431351789665835,1.887069622875475,-0.9226696467961004,-1.9022994480628657,2.688225945097455,0.6264070057578034,0.24577315249134535,0.07706536770663898,0.17363512172111067
1.4642815885591762,1.255109405099596,1.4628807288482086,-0.4815517758093526,-0.7541840875198581,3.7437529472992566,0.8087146870418294,2.2555966375989844,2.4536195866351775,0.812546640588488
0.7321630202692373,0.754487048741406,0.5746570519338563,0.2587210255537618,-0.5186318799812726,1.4692399987036104,0.3736931907665889,1.3518037385182309,-0.7890901869497498,-0.26783338121582684
-1.4191369788451782,-1.2030115205099805,-0.2615088337725192,0.9536380982669317,1.8147788507111948,-0.7472747445299921,0.3474795363256703,-1.3400086512221454,0.04047964146293053,-0.5801268696242677
0.5772772282030073,1.109310178716112,-0.3027111010598359,1.0075532939920295,1.347214492301784,1.2715738687541482,0.5796228472178031,-1.0713306688027833,-0.0056158927116257955,0.08453742708808197
-0.6510729038719405,0.3386785982896361,1.942276726126889,-0.09628793099283478,-0.5528412397148362,3.9235791336757484,1.2519121401541633,-0.6907603311045794,1.5096691194435237,-0.6169868696140376
-0.11564633366391842,-0.26722172532555527,2.1861195759245966,-0.8351967584122728,1.2041598944348184,2.4156979454666505,-0.023188981663648023,1.1649448470065735,0.43566169046709874,1.292864176179227
-0.8444614702125887,-2.4224689650398767,2.792731824640166,-0.9760558790085905,-0.5701537450710358,2.283586401345186,0.3697221040061522,4.478544476792732,2.137462565218208,0.31478035474356786
1.3395792902703383,1.9880897603172603,1.699778387883848,-0.17520106315512196,-1.1264608729692056,3.372691215140816,1.105239375169833,3.4940844604708006,1.1839384761317175,1.7061639053283726
-0.7947133160163948,0.36399088000091434,1.8845622818940746,-0.5431466922469487,-0.05935139727145319,0.5948997312731736,0.14374235627550075,1.5274818921486646,0.21030495592386125,0.7744128555417928
-0.08245226186180056,0.593332595377507,-0.7819248714958251,1.3957330426015955,1.5381983993683734,1.7548014497504525,0.25912943816140616,-0.2253709826759471,1.0112951719522572,-0.26030406540066625
-0.6041899975535178,0.7643470803576462,1.1698629417912398,-0.4856269948583247,-0.5855109500253517,0.876689781069404,-0.21913002218602096,0.03733523291411567,0.6592645127646013,0.24782960984774033
-0.003488794888316164,0.09446627700769843,0.05292066359817693,0.4479897703834078,0.574510043344504,0.21577401545740893,0.14443450134044664,-0.11555243351267852,-0.8187824042609102,-0.18224856080977897
1.6010650289260706,-0.2761793474795426,1.7483309935625884,-0.5972453850672322,-0.893495204049331,4.024563615795207,0.6730569833175299,3.6232048474778793,3.1864214845854706,1.0571587617319769
0.43859839893694463,-0.09193408782006388,0.9856684667356805,-0.2029925349296524,1.1943735434949663,2.6543558655855524,0.199860208616239,-0.027891471018292036,0.5584573792928237,-0.13746516080778634
-0.6402455009293536,0.35196674091383434,-0.6624249019155982,0.6724738078029592,0.5961992179161305,1.2689568333553134,-0.3137062046374363,-0.9302482001075535,0.140115866142396,-1.0285911161956995
1.2620030644917843,1.8750749725414606,0.32898082990146404,-0.01401013766463377,-0.405685077542872,0.941745337704985,-0.08671851337366296,0.04801901440620526,0.8344621784580045,0.17583262012932646
-0.4184989613046631,0.46345383513057864,1.6295447656550937,-0.21359177072638902,0.4657752087870518,3.148906819534011,0.6117165638083113,-2.0897809658465345,-0.22825113391011895,0.3304751767586351
0.7520609572880435,2.31670320080374,2.1983853795610777,-0.2831845217852699,-0.1503075405853005,2.2586490366345817,0.1295246513503844,1.6046472211598068,0.32206463227587545,-0.21404096902966704
-0.47742943476466077,-1.2923523501891339,2.7590091741516463,-2.139011694194841,0.4853944285870462,-2.6577719119369374,-0.19529866294091364,1.5066869198763215,2.2801767663250696,2.5578798659589994
0.5434538060313184,0.744825413246184,-0.25170195832066145,0.6622706568348982,0.34268210781515834,-2.098172664639748,0.15251857765013316,-1.8863460021580125,-0.49545510644357604,-0.8271924547417845
-0.5825858266841439,0.20073977185440786,0.8478846875107358,0.14867833277042256,-0.6036960496329928,1.488593302482122,0.07233986457645883,-1.48263782930331,-0.3363629071546612,0.14633380789352488
-0.9084484893324357,-2.435779698242814,2.9370283443587297,-0.936565787576702,-1.3409723708531138,3.894482356995474,0.7478158412820404,1.7102765885170836,1.422854916966395,0.05675499037222626
-0.03741918339031763,-0.3415273937568913,-0.8259829884876757,0.7870856054105332,1.5590022677262652,3.0135691770449213,0.34106396491978563,-0.577108648813292,0.6607322736176362,0.49039164849493
0.7191823582384878,0.5948937671547729,-0.6669580270587918,0.7741398449874946,-0.419077500482511,2.8299200368960555,1.3425765021033897,1.2137145784398498,1.1698829114265348,0.13839247311701516
0.7124675850451272,2.3616020000254347,2.5931421893034963,-1.2174688691600624,-1.0569229104945068,1.4525751885358635,0.1890569980909457,1.0320932216642311,3.1060774893126575,0.39472488871222294
0.4069970729717173,1.3388138567483965,-0.1540855000595155,1.2167510155566332,1.9254796142274189,0.44621406284276743,0.37409528541196163,-1.5717042385018984,-0.28941765435031225,0.05415915114063683
0.26253558313883507,0.5522890953191816,-0.5532017059076404,-0.16780262840834378,0.4844938835190064,1.8496557551235588,0.31243676758393035,-1.8099219952323296,0.6298099451190222,-0.20201383970425563
-1.8974848900322265,-0.35346898785631553,2.49195572839992,-1.7206150831070268,-0.01322463685094366,-1.188698959976795,-0.08948653995124795,2.6963412315769286,2.04119545663764,1.8642945442412324
-0.8388351535761188,-1.0673379267943872,-0.9589462878850743,0.8215079938739057,0.9731739092414329,2.2580393599884525,0.3778185113719822,1.1749419239146603,-0.1944030979213408,1.0885496162317354
0.09374485342289587,-1.0856687484096414,-0.9479175645370458,1.3668483627399146,1.1888241048280843,3.5390722575274443,0.799438452231003,-2.2455131855417383,-1.5069258557538403,-0.8364749489571826
2.3424996343356206,2.951079544330367,2.566833747917231,-0.28334610921357933,-1.3951903072341822,4.7668476701458955,0.6404667937350182,0.051590369973600225,1.1117683804497787,0.7521386394802138
-0.7953469667600012,-1.0065587757730368,2.5205495479779945,-0.7787040020570747,-0.39524864293862527,3.8294246723667635,0.5563631765528263,1.15998392902187,-0.5033148764962689,0.27872549302018584
1.1575222235517992,1.589054329943397,1.1077082034862955,-0.7905154322483126,-1.0534808325012688,1.83893210709889,0.7379741985465155,1.918445275176969,1.1082097890428642,-0.5887749125482513
-0.4868342163043457,-0.04174351553218836,2.535174858819194,-0.8003147019060284,-0.5932981428789852,2.086898048627919,0.29445363616531744,4.122780465074334,2.3429807832111553,1.6355644778677705
0.13550594324220183,0.4062450899120789,0.410705936475249,0.0010165212623897864,0.17148846090646605,0.9529176686893396,0.23515332790514226,0.34302560842792795,-0.08040412805295503,0.7925499194706945
-0.3899517663102644,-0.283968568666835,0.9819259279516288,0.2245991490254152,-0.5807530281660699,-1.4531072283424904,-0.06573625077296039,-0.8174170098118498,0.3526995455667265,0.6541730161595221
1.2479746700591152,2.40189476304279,1.9357165117071533,-0.37620319175477945,-0.5149777870417059,3.4114810501569415,0.4399021728575192,0.9242828149098813,2.274357685558958,0.8025135415952079
-0.4773077188450501,0.16746506864692512,3.380501689098744,-1.1424477989641864,-0.9360634822631692,3.6413481431821717,0.7092027210298946,1.773034836927691,0.8055369237419996,0.3076861755248117
0.10301092640474505,1.2020660029169197,-0.4409815850625145,0.9895909573467342,0.33572128404543683,1.174267278333132,0.042150020511736885,0.32601626167826264,0.5220492069874186,0.5707541025218305
0.5527571479181216,0.9554040127954135,2.863295020386675,-1.902463373893322,-0.44068674066982116,2.6862614843965065,0.6557915467689255,5.1317414409515365,3.538123524269164,0.5943189555569165
0.8105531552099137,1.7473696817812987,3.023119711693395,-1.1511588289217347,-2.0856402352881482,2.0285627134062714,0.11211228231416309,2.6306533190573003,3.840055099885083,1.1068673573721013
0.47570652746112624,0.5203053460027737,0.8696141258809835,0.37596125691453935,0.7174223439255681,4.224283097098457,0.5419288863571005,0.7229560112567528,1.7359775154576738,0.7586158123431977
1.0254472398569718,-0.5982597898890356,2.636494022206406,-1.567131426906281,-1.959908226365442,-0.3398882594146195,0.40889721845790483,1.0445276275475393,0.3288573594122441,0.3876292800540027
0.6838124761873641,0.341149301840889,2.4771901982782505,-1.2472097378599871,-0.9937535666250454,2.388567051885047,0.973734380125683,1.8565772970329268,1.1062065726789365,0.6389332635215157
1.2221896491314614,2.517080197965535,1.2632674066762979,-0.8742564895674327,0.10551885319280191,0.2573325496790131,-0.14696444933843084,-1.0354768185595806,-0.6777993936084024,0.12475861532005751
0.08913472847604913,0.031494464237852626,-0.038442772454099106,-0.09723464096112104,-1.1629310738529284,-0.15261179031419428,0.1727885943840066,0.18315548401016912,0.7501176008754253,-0.22330843241337334
-1.4892555893937123,-0.14031697108892757,2.6528441663142277,-1.7995201753547048,-1.2135086153440635,3.2304304437467986,0.9476500505040849,3.6791846034429545,1.9258511508292369,0.2305282576650084
-0.2505699870387291,0.09624306991884019,2.2228523577000394,-0.9748787937103333,-0.6741371004830627,2.1724489049664863,0.318516086329434,0.9317888553366203,0.9584764303344011,0.0197859066697291
0.7654089769003692,-0.4908607557565629,1.4117302622463384,-0.05165666561232829,0.7858790756539837,2.9376968009349187,1.0899479531918503,1.4578040037581377,0.6738656111578554,0.3876376114860113
-0.40576719376671755,-0.09097635097879714,1.152213729814767,-0.04362368508253128,-0.1481313614491644,1.7132579049012113,-0.3494505189072736,1.6373184123314797,0.4808470143700773,0.07871566668526636
-0.946428384183692,-1.4838318283359193,0.2708272206296014,-0.3692989158297335,0.2894444876888323,2.3959625506653977,0.4166790880890121,0.020965406605249592,0.9383934483897406,-0.5028906965539457
-0.7072763800853844,0.1980971858183469,1.2736627863328884,0.18786717368108377,0.6658220859609121,2.8437687750159237,0.8908479547424111,1.1189626418535086,0.08857087769412661,0.7724585660905257
0.36386500857432064,-0.18017949936875569,1.738369061061002,-0.7473881997725834,-0.04626662130021403,3.1991193135374543,0.7142183221245282,1.2278554328253333,-0.7434314151059664,-0.09241031184375648
0.2090141730139208,0.9179486824327454,3.038659881127101,-0.1866324401456959,0.8006956919629915,2.7752334816082183,0.5038128747028038,2.2671712783681035,1.1862795462484692,-0.11986971274936553
1.5863108324717468,2.1740441408791606,1.2948672594468973,-0.9920777359181312,-1.5693483638360415,1.5556527942447471,0.10097487440687793,-0.12756655241280868,1.3276264174331263,0.935695170151155
-0.19620043593294054,-1.8442154221123843,0.6410100175640625,-0.2934559085485024,0.9430159769314455,-0.546198191722184,-0.05365263736788906,0.4315380787524291,-0.10637188300624495,-0.159766940301796
0.48941195789231223,0.04423755866438381,0.532083246772914,-0.3795251369876236,-0.21432621593365675,-1.3199866841227696,-0.5714423002145156,-0.5431545123852115,-0.38097459179945714,0.8540650128076801
0.9596802730363627,1.3148206353607996,2.869361384005931,-0.8134781190842711,-1.1156894493950367,2.844526333101108,-0.07255195013331894,2.3219399474484903,2.6659126160434012,1.4850083889500096
0.2875015774390154,1.3537486924854591,0.6046429106835043,0.11493648855712885,-0.8908594140347614,3.5419565285189076,0.7546152769180201,-0.8190741204282663,-0.7967500612382895,-0.7256339658138463
-0.9344312209037141,0.009868492122312495,2.3505853969345067,-1.075940939881761,-0.1302809263794209,3.007124194331054,0.42962254097865843,1.7462636002405083,0.07778973937639418,-0.10441599095286093
0.32702702696459396,1.4926154119611694,2.8565846663954724,-1.7932114308722085,-1.196982502999917,-1.691943302633454,-0.16266443012422235,1.5138699439089578,-0.32938318245065046,-0.34097744709001804
-0.8254095205914115,0.3467084465246919,0.4416108698266408,-0.12159593006537667,0.8219946308451636,1.7451884026416422,0.9709721160099674,-1.2256626433302287,-0.666725658174024,0.44342302167950953
0.21929982752269864,1.0503646096963717,-0.6446568572200042,1.8929561241472233,1.1248114408336662,1.0538304791332584,0.6656608879726037,-2.0118923720765047,-1.3024401203663143,-0.7256818882150183
0.4783951123712012,-0.6505984963388768,2.6423807773412777,-1.5346223063623512,-1.5733192524816173,0.7155106118993653,0.19894957513230221,1.4049119927864042,1.1954790207042747,0.3017799904697105
0.22231638147394936,-0.6598246821181589,3.1076144161583636,-0.8928142373334815,-1.526147627976065,3.974336754128431,0.6030939228692888,2.337803498527798,2.442241933809854,1.9851895405066418
-1.2014381682092259,-1.6229467217416993,0.778406104776874,-0.9569557685864011,0.45634604723171274,0.35560369057059604,-0.40010873271101655,0.0904610727826165,-0.05986204993612314,-1.116924622412565
0.2419678690948397,-0.7097873835897813,2.4149565865576084,-0.8136811369624339,0.49924672238125256,3.272539750954645,0.8318837942215717,0.916201952416339,-0.28900472000152444,0.49909800751697
0.8526878195655462,0.7171364962530533,1.3690056214437418,0.3684325608424094,0.2295191340565751,0.054610374255471106,0.4178115680461374,4.087711260194068,0.27514247033605665,2.1746737948395456
0.4621757818870872,0.7363797928329548,-0.6086397514707078,0.06797875070895804,0.20960448401943987,0.3652263382699392,0.2045346706508296,-2.088714970558377,-0.7601696531517855,0.7630089040780248
0.875655024865574,1.3968545642587982,-0.9637131943692814,0.6148318468100156,0.3711061786103502,-0.25623817739907234,0.19393144087019026,-0.6603183392998992,-1.5548149968350364,-0.14128974524308194
1.018795915568533,-0.46058967643878557,1.8822809844063277,-0.5765485213552541,-1.2304825333581715,2.6148229704529973,0.35506582858736485,0.7924635327258448,-0.41525764006611593,0.5327110020222563
-0.855336350508991,-0.20662401762603255,-0.47185382925831776,-0.08886327205596545,-0.33847362434321293,-1.1786958733814428,0.15423770591743358,-0.13510385475226094,-0.11069843629834686,0.02013872987867441
0.852280841182154,-0.4222774592017755,0.015120446750422012,0.69697033446256,0.6455871577157278,0.8610407949603426,0.3132496745236335,-1.2651997478252714,-1.0344529057300602,-0.20544040113048617
-0.15640910778398176,0.43419691671913674,1.3474161230277124,-0.5414669270865294,-1.1558966566179725,1.2101763164103332,0.04799643254825303,0.6730615038579162,1.3038672462687317,0.28489553238430565
0.08482327089854852,-0.17808695226948754,1.1758818598944871,-0.5176646693810243,-0.31150425511228624,1.927625706665303,0.4676853035283928,-0.18701248660854874,0.5121516842790886,0.11401146737658492
-0.35872024821290316,-1.5608685087782275,2.2498395777992743,-0.7195920084956673,-0.6831155474440025,1.8424770843012261,0.0068475442668936995,0.8031627877822792,2.0990106927162455,1.2123244515987401
1.4306002283509345,2.785918971651415,2.2221834260547184,-1.1557360847559703,0.3879416549439568,1.4779962990196098,0.38151074083628267,2.519808691725302,0.8745565304708199,1.535723842564624
-0.3455117104809548,-0.10641024045992928,0.543785739634733,0.09920189725969988,1.5304883591248013,1.195431315367406,-0.13384690906924937,-0.8194166490073486,-0.5637016607207194,-0.12449971137364098
0.617326614780891,0.45999663648465133,0.9926002719400255,-0.7509157204039593,-0.44837643965431395,0.5611163901762541,0.46322738848658973,-0.4921643669818963,0.6338078440872339,-0.09367695997847006
-0.02776714795968593,-0.7748864040232502,-0.43626405124099354,-0.8019017136754258,-0.3486318991912422,-0.5266906120553623,0.25767989733207713,0.7475404329358416,0.4783787626096304,-0.5490131186712365
1.527455353689724,0.2586503433174716,2.1073177209489415,-0.9258505493244069,-1.1824489509687968,0.8205097830942314,0.5531191935230789,0.9543229834765223,1.7907503978519357,1.07500471513195
0.838555993410276,0.24319163612895114,1.727469744853511,-1.001551949469428,-1.1007039406693118,0.5632581187728793,-0.12552769461796862,-0.55435220292815,0.2678014075338764,1.3141143511177904
1.773247220484348,1.4468002024838358,1.9964256613393925,0.06482728312424191,0.6105200432631781,0.9933026336349033,0.43052649402784254,-1.2374302047283148,0.7884620418840904,-0.044333593272613755
-1.2786413761790887,-0.969859643405989,3.0799188107418765,-1.292659980578346,-0.1837497110940516,1.0303279665367557,0.6286160879926393,1.462771401524763,1.0887584012927376,0.5791209191715372
0.5708281897953895,0.7038168955632343,0.6268796264350152,0.20865053675210538,1.3812760325857747,-0.055291062362355314,0.026147899036321122,0.9719812745956641,0.43884391206744955,-0.10166275870116347
0.15137082496103735,-0.26014521635495363,-0.7238890623766114,1.0809196963874435,1.7192559399171738,4.13266224934502,0.7298446338980159,-0.6873660330046198,-0.22973869717621845,-0.7275980649463872
-0.02178669618118631,0.7757081518863903,0.5000387051430448,-0.6754694212449945,-0.7403369266308435,-0.7590089145633949,-0.1567691377229133,0.9842820379999635,1.3916182401392967,1.2282993303885443
0.6687659937740634,-0.10776025903442796,-0.7060254264340284,-0.22514346107535305,-0.24727120458465474,-0.15687041786538947,-0.2685700962532289,-0.7265957322846315,-1.2914323296852668,-1.0965681580306594
1.4474956038677251,1.170249709227177,-0.3176761523383096,0.9034888504127419,0.9100576893851321,3.704324396217513,0.7792107324204399,1.589542470268751,0.3282656231263899,0.5488367461815734
-0.3201230915851549,-0.29046682515010586,1.8435133444868974,-0.8801505309943704,-0.57605625807568,-0.6562646241441301,0.3753272395115185,0.2680800301221571,2.319279795125331,2.1771708409429293
0.6825597417250421,1.289040641707911,1.8297066857199167,-0.14643552468161336,0.27945825283552783,1.5936218557304929,0.40261954885377244,1.3466894599160415,1.7939804177959826,-0.7021785971252363
-1.8354700276329603,-1.2494299629966565,2.3886075695128857,-1.6655902798881606,-3.050373154428029,-2.05758439662019,-0.12895490120085812,0.10990429022310777,0.5105939063895442,-0.6682501091216343
-1.191637617190775,-1.3014233938135278,2.435557623529914,-0.9015058672119867,-0.33289487444733923,0.7270571503362895,-0.016836480310472468,0.5871211763233031,0.11535260200562597,1.0444402218088114
0.9791948938328977,-0.337123321300399,2.344248246393331,-0.8134232090650899,-0.664593875445303,2.6324771539608873,0.35411400440558966,0.06744628956689458,1.6324734042027527,0.5426587287994821
0.8329600483170588,1.9465572238469318,1.7609362768928496,-0.6323807391564658,0.3244172542475118,1.4933756364220743,0.21450448831450822,2.2889969693520777,2.7688393317362685,1.017279970475452
-0.9566698756366812,-0.7766480555284029,-0.3521597471836807,0.9925950320629402,1.1614492367471698,-1.658138225169258,0.08726678025633793,-3.417956032109025,-0.9250791952506534,-0.8501314266582315
-0.44453289929634154,-0.32193054021409395,0.2875715883485632,0.25073096374824516,-0.9418321201430419,3.4599526555833067,0.7793120620092466,2.273112868232959,-0.2012185376704922,0.14387801183477433
-0.38251094204016484,1.2872260602674512,1.088651430797011,-0.11845045034063227,1.1700737191400459,3.1375794229123395,0.47990466712603436,1.130355595175375,-0.02511523246135404,-0.2115363037448072
0.6855708155645526,0.755559630463035,-0.13879732455760418,0.29979651534378593,0.30346681235004513,0.725709534776587,0.8999220912200608,-0.7794894376604784,-0.6092136514082438,-0.31839890248482083
1.3391342590008486,0.405877566678752,2.532936120847624,-0.4326149832771846,1.408832864679038,3.8550540519360936,0.5592745822831361,0.5439394420305933,1.219526501455661,1.1935708287389994
1.6493564724116558,2.2481552047844335,3.0890429011941762,-1.7825129933588737,-0.28462767208363415,2.573270227733459,0.5332277474879231,3.3804262928794486,3.159357243917841,1.9374092248391026
-0.6804189643655513,-2.5223280186542145,1.7580901877305406,-1.1014513509517543,0.042658380970821086,2.7084776317466437,1.0403970962892115,1.1750992038141403,-0.22696827387996785,0.6117931263902329
-1.2633352888962543,-0.649387469935259,1.3794212817404383,0.03379959260266907,0.005046721554287398,1.7369553076879587,-0.1027565346113345,0.8153079741240095,0.6884639908550044,-0.17683363501288377
0.30511056124339814,-0.9713760699072168,2.0052789760881025,-0.6569402712969389,0.5025359542417039,1.9103198611499468,0.47696008259259204,-0.7638685728605027,1.7288823142814818,0.9818631174313155
-0.5296845626707521,-1.0290803720393515,0.23754786845296572,0.253642425154624,-0.26033669951832716,1.9178047783175383,0.19732601528778126,-0.7215222069278888,0.3241498648387166,-0.025396053341794837
1.1657164634895039,1.383977631856618,1.427558960751806,-1.2988904187430577,0.3057698867749207,1.3932710295196755,0.07946540650331868,-1.2096606652898174,0.12864524922818674,-0.24771752852516168
1.1112426505567148,1.0804194277458314,0.14219740936850256,0.932162589889565,-0.07380422055544769,2.3922131689092123,0.5572945450353848,1.4221802323511783,-0.5720436172209147,1.438650741564977
0.4121290161392568,0.47085386390107853,-0.05082549667151948,0.7661523365635396,0.5329259506764424,2.425456968033454,0.5392433709322632,0.21297900135187145,-0.11846416995005349,1.0373284992112108
0.5692119245869108,-0.10805567511586323,-0.2189595540457019,0.47273015437815646,1.073712698298381,-0.6391417810586604,-0.09588348256102275,0.6738083656859318,-0.7400930544640415,-0.17022739899712871
0.36206712783453127,-0.9158658158891523,0.17445536580963084,-0.03962360790424767,-0.1641957105160386,-0.27075034330011083,0.4035702449396722,0.12385612912091487,-0.05146681803462436,1.0155072902009517
0.2304829655142995,-0.12237844332189203,-0.6493178655871943,0.05534102843513508,-1.692730231900574,-0.461750291584937,-0.523755557411886,-0.9445037729195793,1.1594933412770014,-1.2053147210103017
-0.3781489509907088,-0.10952751584071799,1.8504669725577005,-2.0020207024633314,-2.1463270479017904,0.5068367907665626,0.2919646424561835,1.9879797065025362,0.9978387944303916,0.6168113620572075
-0.16107986999052548,-0.371578858810178,0.31524980888170506,0.865646310595126,0.6480516445954969,3.048860991910848,0.5305451531222954,1.235373012702187,1.6537874612344896,0.8257830932059517
1.9977159107441802,1.805613410394774,-0.2138466575322392,0.09586985281594107,1.2626615024163153,2.2255607946538323,0.28647370009369794,-0.0951976041521364,-1.011680088531699,-0.6362210867442417
-0.05383063442395446,-2.0057421955980415,-0.45086265224525446,0.5446142417842321,0.7125347573590506,-0.41798943953150386,0.09789332411123193,0.73508699590682,-0.04748320701106366,-0.5734804478782835
-0.4887225225103407,-0.38372043331345934,0.6704775238908127,0.9608864923436562,0.33737870062773034,2.6119058050144366,0.3803804576966787,1.1812665360782453,1.8413309326609504,0.8518148532702908
-0.6754004351274663,-0.6441171627341804,3.351732881551502,-1.6843552195118223,-2.015670368853301,0.11302699419942819,-0.264029015597407,3.755789842467146,2.120413619251679,1.3594484618076341
1.0260912874463362,0.4341511724022752,1.0132298298855207,-0.6114272001409219,-0.9720604668931931,0.7122561217091413,0.136841077872086,-0.20106552909563458,0.7361048865490039,-0.0004140634246957309
-1.453822343803399,-1.201715438567218,-0.2833947393984704,0.22868783697119577,0.34308127845857533,-0.6958202871343826,0.061358577927193965,-0.00854050293349723,0.8114848475780503,0.30219252807197206
0.7050152735059684,0.8980011474468543,3.157829598700518,-1.8588965713848515,0.21264433173879066,2.4990110555715264,0.7387574091876082,1.66082323036671,2.9715694300843953,2.143144415774881
-0.018965296417769232,0.8993353388127453,-0.19522651224596155,-0.4691121899115301,1.1080448820471969,0.9905962702935449,0.15395837432818993,0.49567147391437666,-0.9441309725143369,-0.09715875283218524
-0.8984494431337219,0.32155958478506935,-0.6475259030259399,-0.15550084910294606,-0.48099676106468586,-0.6960426501060898,-0.3463301093433945,-1.4650483892244097,-1.813250037134678,-0.20571010777909277
0.024735737690887015,-0.15642562652876718,2.160222872068099,-1.0943317358212066,-1.4502193131114867,3.8389800739165816,0.36567718720686593,2.9262663228183747,0.5795869873672094,0.840455860810562
-1.1278170697921526,-1.7662560088311217,-0.5439203068424981,0.2547245361276059,0.6124433665213409,-1.0713199673500815,-0.02393693335360754,-0.12982343680168257,-0.6253949103800659,-0.30879805282811795
-0.7645892330074628,-0.2913236222973799,1.3843515991121875,-0.29113672871169,-0.4308347851025557,0.45524687171200195,0.21280940406604157,-0.4281158847829898,1.1434414087246143,-0.08909439446494934
0.009890859027081903,0.29873518685373573,2.0020641711258453,-1.3382149857377026,-0.760890557463174,4.257389583028662,0.410832928825443,2.500203334079205,1.3305691223287737,1.3973173194511004
1.8476650155484038,1.1456906506605136,0.032614075498367034,0.2369089308508195,-0.1393859612709487,-0.6756953400226003,-0.4394006909434234,-1.4218761598152425,-0.962138564737843,-0.6730084687697867
0.14728907129061128,-0.07942864635892341,0.5797533529607035,-0.40899848995357674,-0.7215863738745026,4.263507697216605,0.5680260028270867,-0.371384623872745,-0.23040052975915967,0.022799766476597833
0.7046375645035068,0.21364427010151146,1.0406730850983696,-0.43856022283990626,0.3417767199171246,1.2203655036872267,0.115201713224607,-0.3107352109870434,0.6116542897174528,0.1716833900064837
0.6167085273087108,0.26024202368825655,1.3581390173003105,-0.1579151783608987,-0.24628525694047187,4.591574273267005,0.9276691405247934,-0.6679802659692721,1.948574098245095,0.8127768235268108
0.2605978481456304,0.9390606465926679,3.05657843761721,-1.2991407442979097,-1.5679230769315846,1.5143655164318328,-0.16435014222724906,1.8443196198408838,2.168774760970344,0.1809071839175318
-0.5963910346287227,-0.07471557872856495,1.899879199456754,-0.9907231528401496,-0.5905471442892394,0.24928727422736963,0.006369274236482658,1.9181861473588322,2.471852993650029,1.6370307115316647
-0.0793919410910032,-1.1947313921336227,2.088450583568284,-0.21525190736877942,-0.3939589128227473,2.1382910502123806,0.40758445492949447,0.29123825256002767,0.3906114396557715,0.9699054907455589
0.23750175995989176,0.34626793308231224,-0.24553770389126706,0.3129803646703165,0.8080678528976536,0.8729279878884794,0.034077586394474786,-2.376822913814977,-1.751088979420453,-1.377426102106463
-0.14201387595720402,-2.7130544138732464,2.6050549268945544,-2.342518144477607,-2.0369667833081926,1.1028746371904348,0.057886737981898376,2.1497922048477234,2.1457284837516117,1.4269956005120288
-0.08416862832691578,1.4349228120360595,-0.12747526642317863,0.9202550326832969,0.2223982046309145,0.4647711021434311,0.5224390810337417,-1.4053063423843588,-1.5251381463362081,-0.8394826266944043
0.3294610792212224,-0.5474318925826889,0.134929885721899,1.0903370649302007,1.4245743565018865,3.7308039951991736,0.5671019369757802,0.22409691116537142,-1.007226059339251,0.28077029170619927
0.26339859392333986,-0.8791053532031603,0.1055598523398169,0.5781716770997192,1.805880714469163,0.205367532189892,0.4326979479565014,1.1653312864454461,-0.04161651582219166,-0.37853713592669014
-0.42466137329291487,0.22755541793763015,2.8934552207398614,-1.5169841894525726,-1.3188442568083978,-1.02525110573619,0.19620423989984664,0.2759049812376715,2.2418840739324986,0.34534001567260714
1.2504419584469169,1.2461974373101739,2.8215002913575433,-1.2564728955524276,-1.6079215414258592,2.56979044947867,0.7217800050685037,2.8438081363842627,2.6239676855182057,1.853023076667196
1.1205292886099636,2.730942047367599,1.169882498011209,-0.849023897554408,-0.20542345386940786,0.8204010455048529,0.23859358502381356,0.03746186955633768,-0.4681278612337763,0.16885468111066218
0.42177554301737896,0.39009306944958877,2.38500468775459,-0.7676817060378156,0.013406236832755686,4.337481749639883,0.30247024258985766,1.1950729839827676,0.4422647731153066,0.3469255631921267
0.4414376855021583,0.35461046343268904,1.472586766898885,-0.748301067400294,-0.9575169676722864,0.2696663879511769,0.16901225772861084,1.4823284701729096,0.5298437597298739,-0.6441469056742137
0.14927398228562347,0.7337405055824359,-0.7928543533598447,-0.4057182820796663,-1.0897907402293197,2.8365800164536497,0.5254011871697744,-3.6410924974106385,0.058038869556834544,-0.8995856199050912
0.01073641714888455,0.8481685235366913,1.9222468204830863,-0.21323827818648106,-0.4217827750356633,5.3756051570129255,0.7106833509970204,0.4009728943617601,0.08453222299626159,1.6209649565763704
-0.2870060663810438,-1.3392966885624245,2.736966769619784,-1.6829472728453496,-1.4678689577999648,2.2514009146866027,0.6201700280958644,2.256154541463347,2.5575709627461576,1.3234166687000533
0.8134226285346012,2.241611729433212,3.128677003130658,-1.4699861305413144,-1.0192124126956574,2.766546880144766,0.8521726207148075,3.041023168078032,3.238053308917417,1.5412351327727087
0.15210352315130043,0.39488469799926645,3.2131025522679018,-1.1279653371250467,0.11345052477001094,-0.4757230342691825,-0.44581347006007227,5.282799459080403,0.6659130762142734,0.9781685430288453
0.024478342088667164,0.32455009989234407,3.4301787702772577,-2.4159371781113537,-0.9154071279362338,0.5342720924110359,-0.01387660938974534,4.664603765678688,3.10583963369702,1.9269061081859704
1.242663402960943,1.7308412116417526,2.153999779192761,-0.6868795933523447,-1.1404340681959706,4.039881183387165,1.3251506211595432,0.47761792506900413,-0.4792113288157365,-0.1265296299320083
-0.3875642897189472,-0.2152099621366839,2.266137620855188,-0.9080040937805639,-0.9921134229607178,-0.38232085421477935,0.3845915626842067,0.8262665550271212,1.851618318734192,0.8644071400096569
0.05816895166927238,0.29332932637239645,0.20870324945014107,-0.5324646961896802,-0.700554621023644,-0.3139403044680709,-0.39181552090522515,-0.9382874559167473,-0.7439221736778691,-0.7674757063084121
-0.5608993393691349,-0.7465642411612593,3.1843708055174487,-1.9830543890034966,-1.613738670393328,2.036957163033244,0.33092850877943497,1.6523381161726527,0.6744283537585213,0.47410076376013516
0.5697482352463146,-0.24699049115298713,-0.9943981654977192,0.8041803369619419,0.6425070080541371,-0.2569270167340647,-0.036649092785058165,0.2855753593546885,0.013522008561788293,-0.23562345896531395
-0.05622569369028825,0.10202423090175325,2.808870318483646,-0.9346381174855103,-1.0690500195036843,-0.44270815578084904,0.22290938222792916,2.003829440456445,0.23760143465987654,0.5634547877128687
-1.873358325279485,-1.5128657633890281,1.5393889638633396,-1.017074506254739,-0.10177766048266473,0.7399278217863782,0.11986488282377838,1.3383456245642278,0.058954717827169996,0.0016523983655962306
-1.338795213433378,-1.006814128698,2.9025299339094133,-1.8580088431928927,-1.850427210005494,0.22987952884886362,0.10610429912762093,0.15218657416437065,0.8689565281135612,2.069505875106084
-0.6442641671905749,-0.9921669522843762,-0.6240766509434141,0.13698334659070394,-0.5918821649649577,0.018592815976271937,0.6202064673492005,-2.780326044305446,-0.8806999733835399,-0.1432117987598886
0.9694414848832118,1.313120582594645,0.743008001519031,0.3473157225388095,-0.780167405486492,-2.7402413241795287,-0.4518254365920865,0.7660271038233308,-0.264847318498246,-0.9307551709236436
0.4718627889550177,-0.2657069899496271,2.8355947017903156,-1.2734604901829112,-1.126907122740328,1.8053757063527947,0.8835155872536542,3.7800810147854174,1.1794662358535712,1.9918859110898728
0.3373297812403568,0.27759746560273685,1.445159113802136,-0.5107556236280699,-0.08427877708689141,3.5778618168047163,1.2446787064284093,-0.8795921739045849,1.9969230121173545,0.8970115742840903
0.06681797314355115,-0.1686958538790205,0.32635368013581045,-0.45659060075206925,0.32341513649911,-0.0074313652843547295,-0.1770157834576024,-0.15027526608747127,0.47390973502811307,0.14282760256376478
-1.1453133676327525,1.4937098846761783,1.2152824523211936,-0.4239738168672062,-0.21927497480886238,-0.45395717805833047,0.18342979068664467,2.647324562240144,0.9930136166024002,-0.341014319945685
-0.12417201987392033,0.43445572565066115,-0.956013491435617,1.3354419091732495,1.1454912092489005,1.024582949297883,0.04000338760042659,-0.7821119281553456,-0.01910798884221546,0.6972746085878729
-0.5717208504350372,-1.392702042646096,-0.2566893865505351,0.45252312051831967,0.08585829627755631,-1.254111054681302,0.3573966757737283,-1.153278769034366,-2.9794783634965287,-1.1572426555838178
0.5396055670974105,0.4022136221968494,0.9500565804084731,0.11073374162827843,-0.0767858102611168,2.5428567184735584,0.6209036686155486,1.0105495860333316,-0.033407494935487295,-0.47489226445534893
-0.9653908902712074,-0.24881231044007743,2.5149818631085448,-0.5586832103778235,-0.5378716405201893,3.263593588695578,0.19433273368124218,1.7300038614145878,0.4589562936813898,1.1425059012885133
0.03079188943237421,0.5628109796218572,1.98859502088769,-1.7165481295194376,0.052587388080230967,0.8011167170479686,-0.24138708305164105,2.0325868802284663,1.5701547906142137,0.8362744824670373
0.4775326269205077,0.6997838100387663,0.3446898756160863,0.5310083154559533,-0.04427326580632668,0.8432770396912599,0.201388079936313,0.5959003720830115,0.8977789382172756,-0.9492661279845916
-0.3973520437867261,0.2962064585841382,3.328773599408322,-0.5487491182246766,-0.5721014314344339,2.1758568897899364,0.7232118219090629,-0.5853845870675474,1.488973304393188,1.0847379752002742
-0.8090641584807515,-1.8573195504139812,0.5563726977671986,-0.37858622439612927,-0.03659040515777301,-1.5488943348519237,0.07097817027109829,0.6874887784717567,-0.33745436621825714,-0.3053695294912906
0.7048154710361623,3.121688731103659,0.8300548911628256,-0.7730165990731299,-0.8467646703325707,2.6245794198924997,0.4520833257571074,2.431024282862864,0.0018632877465599293,1.3497591411864358
-0.3920090306259496,-0.43756018715316086,-0.17539978448327675,0.571601742791807,0.013223856560071107,1.4613856626975368,0.6330656707917174,0.9137237044161592,-0.46472436439915704,0.2755953964732805
-0.310011216937826,-0.29537252244997547,2.4903083029378466,-0.6467860946271969,0.7618189383558721,3.844380386437915,0.8961827302338571,1.4233919843112441,0.08032874542873703,0.7166821527960495
0.7240912146438166,0.6986059867152448,3.2716982560525754,-1.8156058604735756,-1.8834021269536594,0.7880097541538037,-0.18776403509666167,2.4141802135495816,0.4906711566474041,0.3561052767153135
-1.19097761078228,-0.8392693485897452,-0.3537620251328363,-0.6238425733435876,-0.24334392620329348,-0.6766405298276155,0.13923494258041566,-0.31324656244705384,-0.4363399571572443,-1.8948185460970686
-0.2411806699873899,-1.1160771778045637,1.5632287294503593,-0.5851053392946779,-1.7423419820225687,2.890722088955636,0.3762229082962723,-0.23110620800774173,1.1782282982595569,0.2181893600731198
-0.438486248407067,-0.5898618976118615,2.793580102872752,-1.3581599913477218,-1.914954348970246,0.20300432381205186,-0.25287192646082035,0.14051307051482387,0.8815646038864864,1.0920415601713507
0.12253465378740894,0.24973159907618522,2.472258434064524,-1.6908611564412124,-0.6276134614926374,-0.6128960455705904,0.3044417221854864,2.5547833533431232,0.6155806861770791,0.4256054319146617
0.2330803145629883,0.4153647623935981,0.576356125139966,-0.6861585632674674,0.5227400807184048,-2.1987756230622693,0.09223083131558266,0.16825271872302489,0.5591218042824022,0.11882963021232068
0.42835308905963837,1.006798563677257,1.4023930358948045,-0.18534345130604585,0.7008521864020509,2.582318271324554,1.1245811756625943,2.3701807904619048,2.7473107259565768,0.9632430049172102
0.21078622446293915,-0.2528954711676451,1.6208476481015022,-0.31411616551804417,0.18179768898773108,0.3248666070212388,-0.37895828158520883,0.47260911167179376,0.5341773717319198,0.5185651828100324
-0.022116431627824396,-0.6850340950389177,2.0834191577286925,-1.2825507244656065,-1.321430419262584,1.6647992923326576,0.08287545035011903,1.9601360073421257,1.3320031484432482,0.2496540949097004
-0.16038569718823742,0.0057233080489586955,1.2414765706018582,-0.43032036331091417,-0.5722471631350878,2.848779868135505,0.4490923349438632,2.9223062085967175,-0.0033404102259896803,-0.5147952754292382
-0.8191242225470837,-0.6004089237788819,0.4593228221387078,-0.2777798575997081,0.5257269954780077,2.0468120965540564,0.2282529289165817,0.40739084386190183,-0.21599117119803618,0.020946639076693703
0.8455933384787543,1.6403203236540598,1.7354873702492863,-0.6053748921202217,-0.3046964990938151,2.0530564827178828,0.033080103140854675,-0.11651528035722736,1.5167711261395875,2.7831390827957576
0.668297687299314,1.2580915365428411,2.318483070108786,-0.6336058244540164,-1.5648173173469249,-0.8912824993165818,-0.2803044932030277,1.9243184826415427,0.509534982432639,1.1581632114987497
0.052897172706251216,-0.16735488915230837,0.11720217188198401,0.5919690882422187,0.436573389507512,2.804616731132625,0.3713296477467681,-0.06461084064560552,1.4589634288925393,0.5535324302717867
1.538147827867623,1.1209867479547948,3.0834147163359615,-0.582856223105771,-1.1995184031676531,-1.3686546346896828,0.18685124358510746,2.28978088803352,1.9279970724469484,0.6021856833716246
-0.6860392552050152,-0.4486389439040386,-0.8599049743161815,0.5674264289544345,0.21080061948846673,1.2757221202790494,-0.06143136380837061,0.39018289939371037,-0.5435025469332904,0.5507433374830322
-0.8691652151588065,-0.3376044716141758,3.286055058256422,-1.1314591409935437,-1.394898616707601,1.269708555530828,0.3627505494839957,0.6204032863717801,-0.28851996655265644,-0.08518731726133742
-0.29352703867656654,-0.14180889211652312,-0.2509707999223294,0.039465280658072754,0.21378855587640894,1.2292794603522712,0.4278885603309353,0.42063570762118196,-2.2906139813941944,-1.102987041306964
1.6255271071642785,1.707047132986088,-0.5354317832465446,0.7294300180310718,1.0007136206136227,-0.6729208615866173,0.26271153349501336,0.8551566536755774,0.7205279391038868,0.7036076266077053
-0.7133715956306756,-0.054701269250562415,1.712091848727069,-1.0950000665211492,-1.0625993045497069,4.834344028501392,0.44734230769057387,0.5093947904563803,0.8914844063969963,0.8025344592722556
-0.31376081100737047,-0.40865264504493165,2.2071558711687063,-0.12505149375308006,-0.007762355658822828,1.7203438498478563,1.0079114239695208,0.9343475514845795,0.6943399056188169,0.7663388905280893
-0.8179665919949074,-1.2082324974032042,2.9923926744521308,-0.7542992221934417,-0.006229774639012475,0.32952288667513047,-0.1285363178356451,3.5405932392267463,1.6213079364197966,0.8433650369019046
0.6314896393744401,0.6836977965290955,-0.7688895894651626,0.9835768352937628,-0.3927422828385311,0.04019330605741439,0.13107376142501104,-1.5446340361100221,0.4259352401718375,-0.19618517744122474
1.752682985212559,2.3170181007490913,1.5283098159181372,0.05335702879674392,0.20580062498557827,3.0378644768533425,0.3701906870567378,0.7993608899777427,0.07846991099839333,0.800315944434677
0.01918506008912435,0.381025991688348,0.24740345774289874,-0.03246025721246503,0.3541131392604717,0.9077082081895829,-0.42837622769986644,-0.4748606643805843,0.2955219075939672,-0.17317604641331807
0.8177119527453648,1.846263072211478,1.1763917090257578,-0.7060576935379534,-1.0108136066887383,2.4088898802886907,0.2580794314861912,1.0561849061116784,1.2683903342204388,1.0750650690160801
-0.33412048684831896,-0.5164647929877786,1.6863603963593383,-0.6260207470803217,-0.7261888541946274,2.10155283058552,0.8488813940670382,-0.18145323546031245,0.6323605628005078,0.2704308594270769
-0.7580171936613351,-0.24162885634514325,3.145716175389862,-1.2284092530010047,-1.3236921789185474,1.8951793315206935,0.09521742477863758,2.5922175459886683,1.8281777302073192,0.8355680826797492
0.6431989985622641,0.4075180571758891,2.69783614924966,-0.8243629907297517,-1.9470397844989986,2.290971196570717,0.24915860796122052,3.4041187027449196,1.6927684861127434,0.9720970844455759
-0.4621320013274985,0.8081409417059523,-0.9413305120579126,0.6118987972324079,1.0019450375504357,1.7568385914475357,0.2377692099099299,-0.751912941885341,0.14460382962304144,0.12789049046229445
0.7533163217155694,2.1022555382138126,2.100589117500619,-0.9580263602093733,0.062477009271465364,0.02910525437514866,0.22849407026165183,0.8181315195711375,0.8702777062338681,0.39336429318849075
-1.3378601295697823,-1.6368649325962101,-0.3720165436462066,-0.4166764759315432,0.05537666046028891,-0.6152598344460385,0.1541824469361382,0.7279574146997372,0.6142233841609718,-0.695078236735359
-0.6576570854978468,0.5964289583675418,1.9547322966851715,0.31217721608062743,0.2677423760397249,1.9161168645411377,-0.11029027796903344,0.7685539948637312,-0.2497212440438993,-0.02686810428635761
-0.09414274321838181,-0.8920587966490922,2.5742136554635286,-0.6374809321919228,-0.12135855951861449,1.5189946321408807,0.5080352571581428,2.159563289677003,0.46646042657834547,0.5500166780151159
0.561996405618297,0.3994954515683421,2.85453993964354,-0.8432150459762646,0.9152791209627512,2.3142771019719324,0.5251169632162986,1.955907645782799,1.6921922830739797,0.8055342886734227
0.09757002044560084,-1.4766346772588381,-0.002611382659939321,0.49213444934757244,0.7987277258359089,0.3894718900805172,0.2580164437184951,0.7694947340869986,1.4685186411416493,1.0993112531325622
-0.49964610003925514,-0.741969781101342,1.2477857122786369,-0.07410092656229013,0.13978795860101084,1.3594317134894354,-0.022209466127130695,1.123932909741918,-0.0687646219438381,0.5899193459904813
-0.2535714742360797,-1.5158681706619175,0.10382276432286952,0.8310793262500534,-0.14218801936617048,-0.2129029617490532,0.16692605303834263,0.10976117441431166,0.38005227591638635,-0.23972685292359963
-0.9995036507510698,-1.149970511720103,0.2641060206505499,0.4069561500748472,-0.8278210437467567,-1.1735326958290668,0.058352595801343596,-1.5052359558359454,1.5030953830820748,0.5291100442955518
-0.11540323314668982,0.17515272531937515,2.053558222008566,-0.21999701327995724,0.8685274384930847,1.3751663992717045,0.030158847320985286,1.7270116676440295,0.42861393958293803,0.9587953857310347
0.2320312204728572,1.1725973003909007,0.5679795264796663,0.6265032543786996,0.9433100765753295,1.4699993564974831,0.44409795995311346,0.2048952955642428,0.38950095301301374,0.07360966991891714
0.8743457127638792,0.40653920747781097,0.488352057940838,-0.11453955370188007,-0.6122899364662535,0.7840590865435835,-0.21270330843951415,-1.1081179629374205,-0.6476995280754532,-0.0724574601098975
0.3869508604267385,1.31302680144083,-0.638903381547002,0.5716588808454321,0.716596847238683,-0.5563094678442778,-0.032465127130884494,0.9998545176936598,-0.8936566374386561,0.2941884693026983
1.4683931150436833,0.052904671991590796,1.0804764711716919,0.6447214420075676,-1.4617788228733062,2.8023264746719,0.8269057146593657,1.757394326330441,1.2284623013300755,0.4285889402052669
0.7989840982510856,-0.035595249690245676,-0.18278756198796775,0.5935772889735684,0.7955397030581695,3.4932337610515347,0.6147239209525608,-0.9546795457404934,0.05332731336582342,-0.19350263184154065
0.9365036227051263,0.44895099472067374,3.2444091452353145,-1.772188201830674,-1.599813890618975,1.020345888868167,0.35358451138451946,2.7075908342938027,1.06712331297799,0.9542150116480362
0.8296749597197469,0.979424574141432,2.3438401849945087,-0.5178916412824637,0.23966573586352058,3.65594919788666,0.6749208645197123,-0.5488993024867965,0.8672439712971998,0.08355989281887509
0.8075188124142108,1.0937787012819937,-0.7608581985710106,0.5372138238365146,-0.10547871021582239,0.7423878771492878,-0.13115175408141438,-0.8423779422274769,-0.6361937686478545,0.07046926980534858
-0.4927717052929468,0.5116069899298327,3.0026256549759545,-0.7116602954789749,-1.2077125447879515,2.467465347274963,0.8081070272626381,3.228821084183119,1.52600931985182,1.208153637296354
0.49744281238982385,1.8631584133452421,3.31944413917772,-1.183768982567214,-0.6332140755193247,2.1033599387601365,0.47334365294502595,2.310905612523668,0.530916114231641,0.7387448831978847
-0.42917994374862306,-1.0924660332793112,1.7702147533893555,-0.8241381183128695,0.02782503642965506,1.2482091651895686,0.17880920620971705,3.520775626040455,0.1579982894508997,0.06546892507646825
-0.05000526001610458,0.0007835832086727283,1.5021395491086587,-0.8912030740837329,-0.34560266041200105,0.10118337723681381,-0.022338610820780473,0.32973745707569346,4.161567975303869,1.595548080235637
-0.15011314319915403,0.5268299489014021,-0.08698343955637144,0.3625169562172274,0.2589497797115568,-0.8097394576897707,-0.3387650442799279,0.3055295569450176,0.22775736809312494,-0.23216462326801843
0.8048025710664912,1.017953570999539,0.8208999644563033,-0.22303675569579978,-0.6698796321291794,1.1269204713541772,0.9678566948014357,-0.425877181447473,1.4058735142895695,0.6770010685988459
-0.1382555321259613,-1.4162434471005547,1.3959164225029292,-0.4098328522933686,0.02117725612989041,0.932382842564555,0.17281075552195918,-0.3487542511324058,-0.31031862853167774,0.6068212482484017
1.1488314172521519,1.3729965217125304,2.5759764871243926,-0.2756007338611652,-0.2515271192780477,0.5022883454242479,0.43542331293778225,2.742339085895395,1.222050680906243,1.179756880840306
1.4342471756182305,0.8741102976946561,1.1158320257967755,0.06081835774897808,1.6324529562589878,0.44061290482988774,0.16290914820178048,-0.39924394098576294,1.4359880422395181,0.20401782324490889
-0.13140958211863754,-0.42662834539373895,0.9083713856913811,-0.5960736708885164,-0.7975446078393983,-0.5202437957440654,0.030764395401636006,0.9503319575966369,2.6753792818966895,0.30016361448844936
0.011230104624967324,1.9182243599399076,2.9651075763208254,-0.6803309229186846,0.7265549144543455,4.65911872146774,0.5734793628812788,3.155994034475301,3.766347902842314,1.9188618876381243
-1.3496733034364565,-1.0341131585743641,3.2288490006869424,-1.1407654202411828,-1.5980772127406468,1.504046905602234,0.7143834545213581,2.3083364304014506,2.18190556359018,0.8292879907338039
1.052233871883898,2.804560867594228,-0.9479462085664138,1.0475065923725109,0.5999065695343127,2.8553258061548146,0.7331959308709065,-2.2293751124003274,-0.18694219500387982,-0.6803213657268875
-0.15025144825877731,-0.0291321259778968,-0.3070236014354105,0.0814669011806323,0.6751855361864431,0.03534026136781332,0.28265179512164923,0.8222503465543844,-1.3799964075253868,-0.3634396375652386
-0.09500209978061543,-0.6211244323228301,1.9996247769361308,-1.0809268107882672,0.4236884151268242,1.43543560314764,0.3382644932269277,3.4532463126152315,1.446907646797673,1.4819168557449243
-0.14153928076645864,1.1500255367340781,3.0937016231678944,0.0680093561492956,-1.1668807468907398,4.776194164238677,0.5969279846619446,2.2636560648092314,1.6560978079798734,0.6939224358036803
1.8421684397669635,0.9090321484337907,2.18847876095426,-0.9640213655991132,-1.0501768744765023,2.138622242406431,0.10451215768311209,-0.4699790338174341,-0.4826005665626179,0.07745117523115261
1.4347664255041979,0.07106457401999423,2.9549616868636024,-2.318625816769566,-0.6980911342308307,1.9096910148141513,0.18455684211656623,1.5327982751819147,1.3160507040065776,1.005594136099121
-0.7771640049192653,-1.5580518818292128,0.18459784870164353,0.2965155579706274,1.0889486094292111,3.112557989975455,0.03304758446841317,1.2821747978785147,1.8720037336352617,0.5897605720803939
0.6754876784896764,-0.1152473882632028,-0.8515578767189109,0.541675261571074,-0.5496989317401364,1.6984248953416687,-0.2161174643346766,-1.161081824681339,-0.4877862545060176,-0.4786232699008282
0.5365548318263392,-0.1322686206370756,1.9745595935167515,-0.35822016840765203,-1.0891328754645941,1.4653988328522913,0.690458360124604,-0.046514206101375244,1.540790435039399,1.318035971154004
-1.2159125038603187,-0.18594940098518387,2.623887062849606,-1.3062316627716068,0.2418319067546434,-0.6269852938779301,0.2604321275510634,2.6814711159756923,1.0154338869768254,0.3239920546944919
0.07207921384005798,-0.9770169575893836,0.8785915355436502,-0.6112092622127925,0.14845957627901513,1.869194579534945,0.5478326714020464,1.125088886892251,0.7404892019389813,0.09858523129629257
0.43795581214968854,0.4882333893497416,-0.6177630015953994,0.6362313705245373,-1.1891377181617286,0.8927564058515285,0.8476587103929909,-4.125758705280614,-1.6947571865069158,-0.9798325450832347
0.06559030599631206,1.2538751204909115,1.0766095942528695,1.0327005703262477,0.6311324491270318,1.512417745239616,0.6097174938209604,0.9870177494552077,1.1665570838797588,-0.3359028291509841
0.8199460635921378,0.27707117944948956,0.4063601838112447,-0.11406661864776074,-0.04189343400828865,2.641962549518678,0.6249669683609382,1.0373255991711388,1.1377619374308967,0.2259235988690144
1.1900903104584524,1.1664580928338206,0.953329764519401,-0.1592589831995784,-1.6421285824622793,2.9015817819397283,1.0032212829336218,0.32128689429152324,0.5920645557432213,1.0700477501042047
-0.3853489310785594,-0.16462085776307211,-0.14041925118429566,0.4855506652613477,-0.30884152692315964,2.928913988623929,0.8194149805584683,-1.5820421787884769,0.947519062428906,-0.912877738764962
0.10059213743041226,0.6314255621916574,3.2959040743326495,-1.2859859564719394,-2.0718754297227635,-0.08647602552050782,-0.185140977184714,0.3067673283200185,2.4582682950809303,1.2576088558290515
0.08795001669332725,-0.7898599629344357,1.3540905163795909,-1.0443685557544111,-0.8690408102678819,0.08609128584659992,0.2977140679332803,0.10973242835002023,0.3349894734795305,-0.5659038838158476
0.9039803423969495,1.1042769184546082,1.2278594300195866,0.9119815491839447,0.6258558215907877,2.6401866463974435,0.1799553261080862,-1.0922515720080153,-0.8522666945386844,-0.7880241270719616
0.54627869067357,2.0820560616097916,0.4596841691979372,-0.040554829389226235,0.847797439634999,0.33316510851106407,0.3045007978213403,3.0126264536968734,0.033077649068696084,1.2974997253738103
-0.5571528584194314,-0.6713952488820069,0.6197113325255097,-0.19846717698323926,0.040551689034641084,0.5566296710527662,-0.08182438895643568,0.37862241195577473,1.7833098804143426,0.4505653193159087
0.09192044904702448,-0.013812844739402154,2.459850076892515,-1.1808146732671434,0.5264516785192346,0.22593362474662226,0.4138841989579752,2.2911953801586726,0.9316549101815669,0.7408054443145313
-1.101793250216769,0.03307991667174225,2.3977841014370878,-1.7801111600744195,-2.3809590031031505,0.09517359520548274,-0.26682678727884673,-2.0340261857106885,-0.04831985679679625,0.736992119656317
0.3906254888870462,0.16648084715033776,-0.7469757230703544,0.5124342537327815,1.182485922991852,-0.22953926032510735,-0.2299481894212194,-0.08093945327069624,-0.31896134727051506,0.0053364807249373395
0.4855363125002889,-0.2531649587016719,1.6197766370234499,-0.507026958655651,0.9310051445523628,-2.1922957613054126,-0.5135841326725262,-1.2134200713859713,1.3269064731102138,0.47089979590788605
0.5334160984982637,0.9773260275070998,2.7865396524145365,-1.2892588246193377,-1.7051672669873688,1.166847720912658,-0.31630188118190966,2.494401848794671,1.114825596407341,0.7231485852857082
-1.3726851274509748,-1.2101213826935653,0.8251720775831035,-0.7814726470173713,-1.187283373436261,0.456257545612077,0.43992340388092277,0.35053767549168474,1.2325010188219738,0.8536598934533954
1.5501218657797369,1.4988284069966522,-0.2985116112992815,0.04218140065633588,0.26657353313758153,1.7824589849587733,0.29465186865607085,-1.3746840422386317,-0.16571400550834206,-0.29548869050398857
0.6708841905996246,-0.9829859287875236,3.065972297302719,-1.523483434517887,-0.5552216131561245,1.5267215357554778,0.6552159972198704,1.1612783878011625,1.0910908768622551,0.7970875913606497
-0.718384386762885,0.4811056457156858,-0.271871292056431,0.2931281946943646,0.11476480163726854,-0.26931578617743224,0.09514759938345628,-3.501952032540821,-2.208298110999439,-0.5002246925920228
1.1846344028514584,1.7700468661235105,3.3338886517418134,-1.4207772364764648,0.08441670997474862,2.467425896356087,0.5946209190955797,2.557450083591222,2.476326414164265,1.244424022023596
0.4304914844584322,1.3335659126606263,0.9709370053823656,0.0904769417217233,0.6413528985336865,1.2146887066429701,0.7088555407976351,1.384228172571864,0.3270430443461567,0.044197170245430836
-1.1199327096548142,-1.2866158588755618,1.3390785859371417,-1.3395177999237757,-1.2247138651500242,-0.9903563604708868,0.09057899054920543,0.4322094326569302,-0.16512094401973315,0.02948200128233315
-0.956311961797446,-0.8377441333560706,-0.4990967336113512,0.7652752112657123,1.090720652119169,-1.3530426769383703,-0.12012405845955511,0.4848712660241521,0.39285110713428767,0.27076391104637393
-0.357954573008937,-0.9933419133740452,3.35834022544363,-1.7523982103734113,-0.9092390309917193,0.24163840869401054,0.2504946071057128,1.520781958172097,0.891691496621825,0.9454932482410916
-0.7409569897271406,-0.6921180895842377,1.6943515005077519,-1.1548973762410917,-1.3160999543688465,0.3935254320653232,0.49865504630253066,1.560222379289547,0.8625766018769913,0.8468401401031418
-0.21868370232005932,0.10009520185016686,-0.27129588190077436,-0.5829541230578945,-0.4700881255514057,1.2234145985658165,0.0018280748358856641,0.4116945749860301,1.136115508096683,0.21178001223066523
1.0207346730426814,1.957167384112058,2.0882442609009577,-0.43542486135986913,0.7852399649613692,4.508036546187642,0.5657778543395308,1.0897876136260762,1.948256212673383,0.16739200901208015
-2.3474488301364103,-1.3511861830344927,1.8967034721358638,-0.5110693580892787,-1.668402786538596,0.9272745145801042,0.11364797256606095,0.21998626910705532,0.10700792580856006,0.5186118311426087
