x1,x2,x3,x4,x5,y1,y2,y3,y4,y5
4.959066989889849,2.7107890550075577,1.6637517437382732,1.7427447111388457,4.906475907583802,1.6683748027001908,-0.22469276633843627,-1.5355244999730056,4.53025403057924,-1.7946039165959375
1.7314683919203515,1.821396746761057,0.6549544565902153,0.7091805727826522,2.6640083087412147,3.991982933933029,-0.49536555369570173,-1.3440331692305882,1.087938253485268,-0.25264102260384214
-0.0915341600313916,0.09485115217413354,-0.13139263876556662,-0.3501535698524187,0.22176467624571727,0.991979971232226,-0.4454005336310437,-0.5512594231368886,0.02664163318089839,-0.29107887709792635
-0.49190263851267657,2.3418636336186176,-1.1175081516551386,0.5198029221017957,0.48061102915295506,1.8724251462757506,-0.5113083086088472,-1.7543420867023412,-0.5917927700688631,0.7456609827891196
2.3609037413265943,3.240131738393364,1.9160000157798123,1.0006856726503628,6.154185737121898,4.057767798489597,-0.5654985612361189,-0.8413978006135128,2.3015495568422555,-1.4701721527389349
-0.30647842554232757,0.18646718950077923,-1.1494124058301045,-0.003090353653215079,0.525301468852978,0.46538081367958417,-0.3265227787755828,1.0977793654024166,0.7479339067007106,-0.5829305549310396
0.04762582607791332,-0.3105216084135495,0.8407483797043892,0.6088884432985813,0.9803542363869406,0.26253411250512726,-0.013661378043350858,-0.5583901459986461,0.3417169140700824,0.1544656891372762
2.0737238902862263,0.5821972948355325,0.6539648315281719,0.2677345743700826,2.8976106033944955,1.5284404084660128,-0.6776225393698931,-0.7840939699429673,-0.6587401656191856,0.46483494311444945
-2.8781446762617766,0.6294128184977048,-2.5618784984705463,-1.0499462157908483,-3.4177660296613857,-1.607803145954633,-0.09746326260515428,0.15125234836893983,-2.463429848060441,1.0613415925426937
6.07898349345537,2.6819254396344565,1.8352346686413732,0.34780355615733904,5.644612926358762,0.6039605331713651,-0.9191983172727394,-1.1549683027099105,3.2276158829853285,-3.549905437244896
2.3616445767380116,0.5071969224320683,1.9900048575999973,0.7561440455680012,4.456080351979166,0.2874998698854606,-0.5338273805628951,-0.6819628665894735,2.5876946960247595,-0.13636437954890293
2.26168170703837,0.426117655221786,1.035576906860564,0.7468627568636834,2.3623375503657895,3.5522718549065897,-0.709253773909016,-0.5191945791498882,1.0614551215479764,0.06810221573950394
1.0715761008333702,2.2449332776811453,1.8508766428646266,0.6082058381383199,4.274234655772487,-0.6248895677352525,0.16203125405960664,-0.8340846115353028,0.5526179715304068,-0.4996796497848427
3.31165463454837,0.16878035390753632,1.1069839603072267,1.2315294893853395,2.12122242076016,0.18659893284559947,-0.26853178409107464,-0.3735212903833524,2.4056991976409074,-0.9245580434899547
1.6827144257955513,0.35456723842985416,0.5006520168507707,0.6974625644544701,1.084767624494828,1.8836810749816402,0.10609180514021442,-0.31207282660259633,0.6827049611628813,-0.25090414506721
2.929785788936683,1.6328837674178822,2.8363742386601887,0.6131580247468393,4.834579073147644,2.170637458525522,-0.7391751957010108,-1.6698118024389343,1.3253447527222821,0.1790224022224284
3.769665920728197,2.2440715120056516,0.15448107832233685,-0.4244261115770217,5.500539751985945,1.8887906601840097,-0.1053020110055351,-1.7884077578970123,0.746831031802788,-1.0237114060230252
-0.5667463678989413,3.4593929787010795,-1.054213091316627,-0.10710623641430474,2.349107058753341,-1.1627860410302484,0.8990987310500437,0.13273429119601238,-1.2240918701262045,-0.27911945314936953
1.3844490244317902,0.10692683469661723,-1.029589062313523,-0.20333398210465772,-1.9201663667300697,0.2613082915837896,-0.11234917536104241,-0.1265560897352705,-0.355895316649269,-0.23211199094491305
1.3376959869250584,0.7724496966695062,-0.07050113963261433,-0.45552969906550317,0.5416486123442362,1.3738221808979967,-0.4126947242793194,-0.983303773305771,1.5721873697730717,-1.0889804921337123
5.154225796665494,2.542138874803467,4.340126658113478,2.2475229112288386,6.65437703070609,4.165336162611472,-0.6694693961177328,-2.1160350116909035,2.295953865570757,-2.683690892526167
0.622493809944471,0.7347873882302138,-0.8497810553322962,-0.39835269987312116,1.4180719698389908,-0.0636406473857972,0.5957033368620807,0.04023429047413292,-0.6912166977117615,-1.2437785730085122
0.7716204804360124,-0.4810786920142517,2.0783599911947763,0.9034331768477706,-0.9189642926346018,0.6896902464869328,-0.6461874741932236,-0.7216686767830247,-0.5509999084616155,0.7875314508796463
2.2348847314524076,0.9921732329948694,3.212438035933378,1.385517855659493,3.9097910725436833,2.416505262839435,-0.8655563904990184,-0.8198235063549538,-1.1006549617463068,-0.7434462658262382
-0.49119829343538846,0.4398677864366467,0.8964179293068839,0.5664451150885436,1.8398065601692288,-0.831134365897727,-0.30322503336472495,-0.603453553971698,-2.259155130207528,2.3913124180457563
8.003404202357494,1.4185395320864402,2.0609127962870706,0.9911516139604793,5.016689036643035,2.7574183623028086,-0.5389596491540112,-1.8148436630847435,4.0227018276078175,-3.4704347954834995
1.3875140984254433,-0.5842278247732813,0.9437771600504713,0.9451220978880027,1.2123598664949058,0.7325638812651415,-0.27033720792596605,-1.9857774814699412,-0.39201959989876356,-0.2622233350557013
1.6950134018709277,1.5228181447762381,0.6389735677132257,-0.03721903965578948,2.744351870108889,-0.5026249314965192,-0.6452929540920529,0.29522853666687854,2.131608412756902,-0.6917881824158364
3.249742348931966,-0.8154104257002464,1.821586346662776,0.8981638787400211,1.9343172421530204,2.893077676597082,-0.754493168436704,-1.140161412142818,2.2846557272824497,-3.105926882920627
1.253655563070223,0.495832277685309,-0.04666298152123441,-0.14480649853492925,1.188455539010599,2.15961099513824,-0.45502990821664036,-1.7736304747897558,-0.8370150536429874,-0.03521322306118134
4.932573219610806,2.117746366470799,1.9953071091374976,0.781678038324883,6.034116661091307,4.44168377034347,-0.8210548085284957,-1.0991579844546835,1.3853849073353608,-1.9223258648118693
-0.5704403468682305,-0.21110183409719951,1.4879055824763041,0.6607811562515163,1.2328678175316001,-0.25925328438796225,0.17756591366852478,-0.6411216704837986,-1.3998431424386462,-0.9555578486962742
1.8754955569067515,-0.3941629224622397,0.9189084094575446,0.9491364745801741,0.916419203852578,3.7580310605672698,-0.7131219417036371,-2.6121830064666933,1.1880664541802104,-0.5366989586308325
0.5865174270096272,3.3643179722028886,0.005832940288860133,-0.7442103825752613,3.702353677222046,1.198191611219381,-0.22885060074497543,-1.0155151162137082,-0.18930891498218488,0.06450020126271201
2.1272996447515076,1.7415468030104186,0.455996709013622,0.24798060096866903,4.270319544871949,-0.24908824563116017,-0.1657977086113682,-0.5622381042447058,0.9872109659186371,-1.1189654665669262
1.429674867048898,0.29369785678863325,1.2449770268790379,0.28927012013888176,2.244993892562507,1.93195282784635,0.2493475237474222,-0.9665638767665093,2.198922730464755,1.6174672983037475
2.5962856701874957,2.31883153794674,2.1940835133013312,0.9746868313758045,4.146819815627859,1.476012783264801,-0.5176123260684076,-1.3038847393714126,0.748467641951041,-1.4304573489504941
-1.4237496302143522,0.8004202478147708,0.2289793310623104,-0.2809932469804519,0.5975025686590186,1.1386383177491017,0.33370803572819097,-0.405902669893316,-0.14496126965520797,1.096265267619463
-3.0583373143385866,1.1962843378063495,-0.3529242059352451,0.4870583942988108,-0.036129124229776544,-0.32102475862544,0.46954680818584515,-0.08469485283328011,-3.4781092926718813,0.17631793817729569
5.521930323812474,3.1037229000870514,3.68617193620577,1.3878415011123597,6.578527662817464,2.7564630392301437,-0.2100856613119198,-1.8958783136113646,1.354013945161377,-2.570880795353862
1.7860556537904628,2.795291307958041,1.9458404846982007,1.235419353728155,4.94303588045979,3.250243341454921,-0.30269883283840376,-1.4124315499801054,1.852867379843621,-0.827003974528346
0.09558482168948394,2.943765836423755,0.00466150693169276,-0.05322293952050629,3.011043592181134,1.0153635344294603,0.2598630493961121,0.27129582637613325,-0.3830967218503026,-0.48851709436619073
1.4863513888187379,-0.2165339971742516,2.3735591061386603,0.7920582549378856,1.0150125287426215,3.4031046495746557,-0.2710986780827344,-0.929632065196224,0.4645055911462598,-1.2910076133895896
5.3624278484269166,1.8077657495175363,2.711394106771777,1.4681435331794892,6.245935023379602,2.4132449345202556,-0.8285684150208996,-1.0261004395751776,2.0123197960972856,-1.8232543296732464
-3.9956151788707817,0.6177590205760022,-1.0684411905289404,-0.4507883744770155,-2.2898866735149994,0.3369892991201963,-0.2742518685885884,0.0683459768016033,-2.9091220109182423,3.1443556891789055
3.273787409662319,1.2456906245701607,1.0628590904173527,0.35150564010539387,2.013331197416784,2.196551965680975,-0.2962586212127882,-1.5395528780788013,2.617365845499987,-0.6951726483881441
1.623138736920437,2.8479124833962097,2.304722358143211,0.45221378567507725,5.484891027286382,1.3339861408809663,-0.4263107248264351,-1.058378366250322,0.5107504739948776,-0.57088323813606
-1.678382691914321,-0.02097236614681408,-0.8509506209910327,-0.42836252555521004,-0.44385898688331243,0.013246379271926581,-0.19183282486899378,-0.8127389525336247,0.32309606974335914,1.4448691610092308
4.176332560421052,1.0605074772737297,2.128730435010688,0.5764076704340324,3.294248212617938,3.3864447906950264,-0.8985275012908918,-1.418527227698866,1.6376452238968833,-1.3399486765265058
-0.41375772294682756,3.214542220068558,-2.0336226545881066,-1.3032802597741904,1.0301480047861022,0.8198440280996947,0.22526176527858116,-0.5262811178475719,-1.0543124225484104,1.3213615080439751
1.5279687809317593,0.7629048063327089,0.3184985844873086,0.7314296438516878,1.7192986440371565,1.251216674841393,-0.543300486156756,-0.8405506385161212,1.9483123839206562,0.08076564958647754
2.253456710639113,-0.16175380377881876,1.9353430089705366,0.691689178354559,2.4913228667641545,2.4828180706589644,-1.0109199477574733,-2.1539173085271037,2.168986224720496,-1.2273899218904296
-2.057686168683438,3.3130379999324866,-0.10457334588812453,-0.13241795511262172,3.709386691735943,1.9137125074212589,-0.34505359361682136,-0.10844830210977212,-0.21657202032124379,-1.0948530962460168
1.443017833893102,0.6907345553058719,0.5846125474808042,-0.12773116016802336,-0.7033219985517615,1.5252642360637734,-0.18298122172546705,0.07633120745241087,1.0662898835033023,0.9795751571578933
3.164174457960719,-0.6179658328611974,0.7700645633643265,0.5317931766997182,1.7526488805193372,1.3621719431572707,-0.36071197220391454,-0.44896297889902953,0.8986307502554225,0.06418818992900473
-0.6006625987091558,1.1626839967281106,-0.8141828690595301,-0.012972317456857221,0.5497310180209712,-0.5381619164941362,-0.23389428986660896,0.031692879568132507,-0.8855515224741362,0.16001772768203928
1.4209103595820027,0.777050737377605,3.0598040279882017,0.6197901070868364,3.2440559040814665,3.058499260179151,-0.8503625795444363,-1.1054036166197774,-0.11307598407914715,-1.0458141019015266
-0.5616125132127588,-0.8628316297371269,-0.4954962601983128,0.059596601953778826,-1.5418277116568233,-1.925604242101845,-0.021309140296043413,0.39153079555846315,-1.2006898120605896,0.8923509069657897
1.0413382313672865,0.17453828642700198,1.5175712035903306,1.2602048950859774,1.730677411042431,0.49197079425440404,0.10097369304937885,-1.6023742977303355,0.5277164767674712,-0.17194636030952876
-0.23810249622206822,2.172335339139899,0.5850840686915687,-0.26005031376798216,2.8639717813521455,0.4082312122652544,0.06908594210865095,0.37442798155828655,-0.8994798426378926,-0.012925729890333578
-1.2664349744308574,2.3935566867736613,-1.8280539429485578,-0.4944533562469146,-0.5325932945795997,1.0762834350436792,-0.06405631282564309,-0.563026797615669,-1.0485121269585858,-0.20215041648752038
5.049203090742835,-0.1132585517926199,1.9826930538833514,0.3199379207321438,3.258799284810105,3.4582250543642976,-0.6170113190354367,-1.0287353269632793,3.232962262739983,-3.1958131259879
-0.5389280564194887,2.962371628420351,0.8910080874062255,0.18151072371194432,4.617734065871098,0.28847317629155456,0.33098371039137625,-0.6673484272007251,1.044324571484657,0.6315032468192036
-0.5778648673900108,2.737872309885393,0.9963753647182512,0.49235957349386744,3.6080442770343915,-0.49783698068684396,0.05827435287156287,1.265222817959208,-0.7944243785717346,-0.1004647104667414
1.3687020376250596,3.0078200614898547,1.2978262530477769,1.0309201893562145,4.766378916047891,1.239749057545584,-0.6113615338194549,-1.0451348262965092,-0.16297893449747958,0.19740506775349323
-3.562828497867706,0.10423591837420654,-0.4065069135372517,-0.054236969523385366,-2.798435375095606,-2.673316520737941,0.2813863658464572,0.739369471395321,-1.3793145420052366,1.8189170263337895
-0.6216787441119289,1.4642663324180756,-1.332855145691128,-0.7302270113643394,0.09560251158613187,0.3529677197415494,0.08953664835028224,0.4470936402645965,-1.351324457274707,1.3779349501721874
5.7284666509145925,1.5641887441566746,1.9422570622086766,0.8522152726126365,6.936549449292176,-0.04265687135892815,-0.7901942697505139,-0.1658315840924656,2.0156271736523292,-4.749622328121326
2.743461489205629,1.8124303118166094,1.2683458962083383,0.07519017467835548,4.437527975713548,1.9356371636258505,-0.6551257874200831,-0.619483943330547,0.7327946596782681,-1.244120949613648
2.909940115885011,3.1499407744204495,1.0276938250757588,0.7223947640564818,5.517715642843415,-0.2985890917613787,-0.7923190432909845,-0.8262858062180798,0.3619529590659356,-0.4995429259961769
0.8467386219346209,2.3551713502778435,0.5555387903146097,-0.03497208029667796,1.1615204932181815,-0.24269794544473217,0.37286906478334614,0.5134636075143258,0.9349906892837622,0.05300200512027595
3.0158393629138245,2.553743221846561,0.8221958449290137,0.31784609941271347,4.724639518710063,3.5940812655020533,-0.6794129259463714,-1.547603798730414,0.251302460876345,-1.6145279749142525
0.3637349758596649,1.1230466659910245,-1.8278564756523432,-0.9542535887635741,1.8213144936599468,-1.3722795944216561,0.057619420695010026,0.6770976271037447,-0.42095586193305434,0.488867158748461
1.9839648005099875,2.9012617236570355,2.446243405719076,0.9535316135248548,4.379449034445752,1.0570969402422525,-0.09187120800099073,-0.5443636324844481,0.3082352897238778,-1.8045906146501776
-1.5172135568451552,-0.20026795097157635,-0.961146604155643,-0.3049004178296059,-2.5984521958767197,1.3779851525585474,0.024210689462720855,-0.7320331384518239,-0.2464025471634058,0.6459835144030465
2.292461783187947,2.7388043637593658,0.12471175990344266,0.29574776889987936,4.657803285430824,0.3559781001635717,-0.3599078664426194,-0.18605523807048627,0.952598911616511,-1.8054954060103428
-1.3406917088684074,1.1581612842925124,-1.6414380661064434,-0.16352851970688223,-0.6148055116886448,-1.5426887612933458,0.4798639368335661,0.25655554781648277,-1.0780318372449194,-0.30135878999741655
1.089915394959611,3.34279443608946,0.7082989482041996,-0.08933439950964302,3.972378482220895,1.0243584637996719,0.19239937822422223,0.2070173083871642,3.859795777979379,-0.662420613714593
0.17784086804397659,-0.9928964658806473,1.1079142101754127,0.86960344281183,-1.187612832301642,0.8194825346371779,-0.2912051273227271,-0.25936886462205644,1.1433301987105966,0.9092169766175529
4.187326985820778,0.8087283123827502,3.579134155272357,1.1940804265755616,4.742434644921142,3.465616489937976,-0.6746227455073767,-1.8267784076594464,0.59930131372772,-0.440462818306113
-1.841015382565512,-0.6539583518044704,-0.3277268452712435,-0.06189128956367915,-0.42107848286161786,-1.2413339872658102,-0.0693803724911381,0.6271073043691034,-0.37319071172451646,0.7904235560265794
1.2974892956277415,2.1634932021059115,0.20013668917688385,0.5036095391642157,2.7055342547871044,-0.8029358973929208,-0.053948277756139584,-0.648092875436292,0.635003940240335,-2.778855068460634
1.1721169645146996,3.16276930470867,1.1692049535358813,0.3647088162538179,3.0505500119428026,2.340096199943016,-0.6540804446637286,-1.48035003069024,0.043024568119574724,-1.3612874013288667
0.5907323367093615,2.320921117418938,0.15833381049114506,0.658946338384639,0.9043503519762641,-0.6336838491649301,-0.22934554496096204,-0.4241513669503148,-0.1369641420455759,-0.6048709081274222
7.011905397599805,3.33291633809167,5.08456006644852,1.7789141744122412,9.119164361335503,3.6821364019746534,-0.7697856609839139,-1.5256627888013434,1.9360115231949555,-2.6100720744317303
0.5532196448155914,1.6171739237458826,-0.09098869682313937,-0.5459930575791996,2.0862429632637767,1.9469161342051335,0.058827750263828395,-0.541853648828944,0.7753065385755229,-1.0134533375442023
2.293160454690765,-0.692683212959325,1.2590051119692633,0.47393379910704403,-0.197151016805867,-1.3496107328190183,-1.0065846035994266,-0.3153505574818051,-1.6689734621744186,-0.6731722411948439
1.3009943364534986,-0.2099713663600521,0.6644407241363944,0.0404790035214472,1.2076974208611926,2.1891330413782972,-0.1647784664898652,-0.3255023242070808,0.3126637126914288,0.16019765660471263
-0.23426787524300555,2.7666353632588767,-1.8525230436151745,-1.1276478435775952,0.2411940102342227,1.3922532721764935,0.15812128534027756,-0.5199187549365654,-0.5865025309183932,-1.569661745259121
-1.3173456462598194,2.59024013159104,1.090777787898942,0.1416124490775802,3.1315718183990464,0.9132825447354236,-0.4113182490199575,-1.6668765307508713,-1.5066162242147176,1.2629650911858834
2.9941588278547338,2.914156052880169,2.3002982478034983,0.5341661596128147,4.623326011960131,3.5194311897112214,-0.527313314739403,-1.4467564122069216,-1.7603593906443078,-0.4610899209752328
2.2053759229410375,2.4068715112925556,2.579873648029033,1.0072188259870185,5.759209045197468,1.380558266285316,-0.11422839474751713,-1.3254921231238177,0.8982867486443394,-1.4830718316667708
0.8275480597613358,2.0086411258687,1.339267257011393,0.42636661799840453,4.631460889911088,1.8025502171435217,-0.603890280648419,0.040611904100260575,1.904417365251911,0.743556048655018
3.51638422273476,1.3255151258115654,0.9212134131995757,0.3546847986230495,2.820527742789654,0.3674259034405476,-0.16306193975318298,-0.1506813597635661,0.5008273286550986,-0.4127340426599135
2.6625586850443175,2.793108859927512,1.0310276079357228,0.11345999835542267,4.332966955453804,2.7930565940261456,-0.8843688660969561,-2.8069059571788033,0.057990544566099755,-0.03078329455133703
1.5653991668239307,2.920991475895028,1.090497139934801,0.44950284293271725,4.871154859338464,-1.6565068201327307,-0.18610299834899777,0.1935499664477535,1.3066454505047764,-1.4161985835194968
4.801068144976026,-0.8855943490048627,3.367522308856793,0.5444720378958803,1.7745730023878925,3.121054955884573,-0.8630885378552583,-1.5982587615337118,1.322144746374128,-0.8787476528727889
3.074336487151531,0.6722359163709724,1.0146343493613417,-0.2656806742501944,2.405918788757915,1.389666339246216,-0.510288125488723,-0.3351279468613625,1.5648554759031235,-2.0627795478116524
1.6024519885270416,3.240212829829698,2.93293738454615,1.3746267344256837,7.048314600179902,3.0663702188005635,0.05017409740975226,-0.8321947684322124,0.4419220923980499,-1.456654221734959
3.821313419551417,0.5613666878441734,2.8969479779637095,1.7434656330640517,4.191846142043576,4.708797770262452,-0.9421260865424208,-1.8554770044193447,2.3486450089790196,-2.968170661758105
4.676707565695227,2.365391832141294,2.026639010438733,0.7386567600075074,4.469336598323214,2.2077873614113557,-0.7593232823267497,-2.5914851542072013,1.1331206500000075,-1.2420747963827174
1.6982483239394022,1.2370195711241108,-0.3930936197039541,-0.07214200745602489,1.0585507820708095,1.1885542821278254,-0.10190474870286076,-1.5248887699124145,0.5870853529266972,-1.1062928408316552
0.9214906469594182,2.3663985239076357,1.2709049916578063,0.8464576553238571,4.364143298274434,0.6051952426291354,-0.26492894333808775,0.1921182656107509,0.812019892763497,1.0184113708421754
-0.485330684060192,0.8122108101433849,0.1511235977361161,0.08464762753098741,0.06274027917876901,0.9300655375047918,-0.35347265011579926,0.26598744375895533,0.5689606543709309,-0.5588304000673637
3.076403835147725,2.7811084426986845,1.2521604145119443,0.2801618151039403,3.7317932593316665,1.9082740244361425,-0.4907038797784907,-0.9933839456648644,1.1864764755027137,-1.4965708191143694
-1.0176755510384352,-0.7258835558161321,-0.4964000371095806,-0.09233686786453334,-1.7768217431290223,-0.34113368040890857,-0.0725251286097262,-0.19407070514093952,-2.2817770195882643,-0.9347712565984841
-0.3759374498615406,3.0956518015512833,-0.19274315708802078,-0.09711957469872101,3.2788089804888463,3.6290062089660777,-0.5981898092665388,-1.435050686158651,-0.4817943796237489,0.30891674478248404
0.13325487210073195,0.18732681461307332,0.7348056533905867,1.0788248412063743,1.3059719593815564,-1.5799527708241743,0.15955827174276793,1.0123302108124164,1.7498910684210927,-0.02943600542930271
1.377410633277629,2.316187350430294,0.03817005330343897,-0.19239066835443855,2.5594702155933913,0.3191055678786381,-0.4007059420611904,-0.18215087735951507,0.17900509305444776,0.04126238068729884
0.48505211455354114,2.7630064676547614,-1.7387567046723655,-0.38188602617203804,1.4815255658550135,-0.7504233000246181,-0.17730020085671455,0.8828157277866641,0.9698300697331808,1.8517696433514657
-2.3895006130337184,2.946051075763961,-1.0837856309516105,-0.3913783815680837,2.4821493064861597,-1.190579805285396,0.7734838290410405,0.638068144370354,0.19494601848226611,0.09500378176457638
4.50010678404584,0.8577032818525858,1.1559027547193936,0.7781472617054787,2.809419068801782,1.1944577314855067,-0.6844853736583006,-1.9539921977616224,1.5474339678970588,-0.8656536157179842
1.2708061963128818,1.168901825064526,0.027613577956856004,0.01533010644902723,1.6206565415571312,-0.37077619117551447,0.28542188964581977,-0.8630559955779578,1.459597309583351,-1.9521578197833604
2.4162885138425403,-0.44701536276229226,0.07970769412990154,0.21823562495081214,-1.2310577700512484,0.21848182613819717,-0.23094040066032026,-0.4892446192394411,0.9445684862965307,-1.3042564543566952
1.8937521364298764,0.8325467649237517,-1.0533996317586645,-0.3803846631875474,1.396298886692756,-1.8838531917394625,0.31624516595122265,0.4962303111650083,0.8096417753718878,-1.6805744603568669
0.060016698798263456,3.3530879669455382,-0.5630095250104816,-0.6178190429539041,1.6678248541129035,-0.29039819405423634,0.4478138693622874,-0.19595423175281798,-0.9815043132718488,2.1272962829651125
3.59448088223201,0.6445764008767032,2.6728672402258598,1.0216556237055783,4.173333077617826,2.833011330182152,-0.33054642824585284,-1.2051330522572907,1.878732544323609,-1.8409345422343077
1.1211847019767909,2.5898416092770837,1.1035723576780978,0.07378693440796201,3.3615276400261305,-2.259286004001565,-0.23089690662701823,-0.19023909310863585,1.1473030750866404,-0.38716261726587514
4.2259693376930105,2.938571708913023,3.406508935299913,0.8503993012212971,6.568066564196709,3.7044696469370213,-1.014483660134251,-0.9701990122251435,2.280637878148728,-2.2310514741411644
2.9230538797048,1.2474929733215219,2.1609205671381697,0.6403392417698641,2.0744955947865247,-1.8105947008365326,0.13236094498763262,0.3715694914436293,1.581457692128776,-1.1409117012153958
3.69742063359702,3.0748171220390486,3.203892967538809,1.3313651242491642,7.999630327871345,2.9948740496653197,-0.5875306963706316,-2.1562926936316984,2.305481430219987,-0.5831428374963727
-0.341504936069422,2.5805850814119613,-0.40306887112029366,0.20857867535364488,1.6714478097272427,0.1493343810823159,0.1605183827611724,-0.37170204027296194,0.22742130470401317,1.7237527045093601
-0.9188402192074016,2.80941420288484,-0.7895442506258429,-0.45196673700719936,1.2777732444198977,-2.539728457580056,0.21891074973475738,0.13304515260423724,-2.0597185638773285,-2.595657865072157
1.5819555607382987,-0.9137329698556451,1.4695890922985106,0.43352459870870147,1.7182540442020326,0.8780777797291145,-0.6976852964166386,-1.3983726143923432,2.1689476140005297,-0.35779590770231384
3.820814355104592,-0.4846321441213147,2.1239713437879684,0.07507815810287156,4.164969510485606,2.7505951566347973,-1.156248884933439,-0.5377278730065287,3.05784705209161,-2.853251636540107
0.38607619116278713,0.744532931097305,1.3872602574064312,1.5085800420430655,1.3071488841681367,0.778607762002115,-0.5414439228709945,-1.6689405149899432,-1.2092136661042359,-0.4764187162603565
2.6548384098526396,2.0229083200840585,1.5318324970442965,0.9326030839522932,3.7262628425460154,3.245493080374775,-0.3550250228245889,-0.30297716025394567,-0.09829156947358464,-1.9088193665207094
2.4301797103333005,2.8967801880392954,0.9063612767200575,0.5246458981378682,5.480016705754879,2.6134657769327716,-0.791381014387277,-1.3638649783169086,-1.4014541634101172,0.37276756017779233
-0.15506741485906506,2.6975975238679832,0.8598158308976795,-0.3999159741890151,3.283645909513916,0.7462445230087557,0.058923053496006364,-0.3410261234628779,1.4116383157438601,2.0209148886573645
3.3419649159578473,1.7465897227097829,2.8833355805103276,-0.0030223325943356874,5.966955865392786,3.694898997544864,-1.120968392800692,-2.094711814572905,1.1666096281523888,-1.9689931483247758
-0.762833869808045,1.752060574010752,-1.6194864696190907,-0.02402208885050253,0.6801850623517194,-1.6910087446667528,0.019703619250147984,0.08028295366027306,-0.39236767347673374,-1.2154382156037
0.25144535201782087,1.0359250021212465,0.2915520791700955,0.7694837135700718,2.360007709694549,-1.080888733060926,0.28051666789370233,-0.1495074044388656,0.25582655046620695,1.1538356804456522
-1.9086062640495578,2.14100773824989,-1.4638946191840183,-0.4650358473263912,-0.5920640475358221,-0.893972022807611,-0.10943579304349722,0.5069754617412432,0.09450652891081734,0.5878421476514691
0.29353710867956967,3.2415509176826633,1.6111655639094593,0.580171764298703,3.9144078006587852,2.392884293975505,-0.8856507318362276,-1.2372338463686945,-1.4974160828030083,-0.8739510491429515
0.5072782151883302,-0.1384244556049551,1.2853308651689055,-0.17787833478753096,1.0559274315406137,0.21606327554231808,-0.3979308245257913,-0.6582427726900073,-0.11449619957651885,0.425869561075351
3.388920719157853,-0.7065129892971174,1.9514153252903286,0.6916765643751585,0.4235235826997945,1.505906611918058,-0.448207110292699,-1.1144174330246068,2.3288563648130833,-0.2212675607324191
-1.1416309270471543,1.0192507503696207,0.1483000039442006,0.3386203679214604,0.2432442934747123,-1.4466713717370656,0.0076076797268430675,-0.06125455784865678,2.007433554318293,0.5708332524376482
1.7303815057071639,0.15879656093238737,0.19162087795722124,0.5374526754117085,2.3843607263238633,1.1549224042256576,-0.49456236932078396,-1.471436175368928,1.3793999330683058,1.914692937137745
2.6005627448068664,2.626126982994924,0.5217556853511325,0.31850804167299385,4.471066753754695,3.0608820460509407,-0.9962739233536702,-1.0820210416208214,0.095677177996846,-1.7952805111041865
1.4569128787624002,1.6172117947986506,0.9018271827274232,0.4841462796770023,3.790746928858483,-1.486844279108324,-0.17396029792605552,0.38140847715298304,3.014489327007065,-1.5521034758908645
2.7479510402503387,0.5093675326181992,1.5715315132212722,0.6366871268034967,3.005142975364593,0.5211220696587093,-0.49191266855642035,-0.9585524619858468,1.1404177666390316,-1.674349132148235
2.9577303807418556,-0.3787442493720725,0.5280078052704579,-0.02101994208259996,1.5076977017560607,1.8471947530241122,-0.9934644468344559,-2.532751991485444,0.0757269062683057,-1.1451547343879591
1.9923113110695407,-0.5600553475233269,1.7602858228370892,1.0292151989753893,1.0189886918538198,2.3759150966310427,-0.8149358063065792,-2.271985767082721,2.1377381731764773,-2.361973812106291
2.605198524090758,2.020054436033558,0.8671670827310617,-0.22114629890030607,2.8520102564261265,2.9114504348217487,-0.15561703754356568,-1.7374313934837575,1.7686184502527778,-0.979906943111573
1.9242339291196597,0.8524594528250997,0.2617324968412356,-0.012797860956664879,2.674537317216343,-0.19281149956435206,-0.2982394309454838,0.8181604738022076,2.3538052778036707,0.3363398840442356
1.0807275764244995,3.136225201011131,0.41674945448989875,0.1015591973516333,4.456177545153609,1.273106918611785,-0.5486788513267989,-1.2283387982514866,0.9493448444817536,1.1719920254231926
0.5627170809080632,1.5020531348400508,1.1872676168783922,-0.08553369242025076,2.109891249244471,1.8745419379239727,-0.885365141165732,-1.0445218707306234,0.8241392582617042,0.4378795520423679
1.2084862709066027,1.3530012175260184,0.9119788351392631,0.5174346850104192,4.025122348655065,2.837327064935808,-1.2447271081573141,-2.9122474836569756,0.7239110584016156,0.9636392275231803
1.0230707606038478,-0.8748297955574322,-0.523519254946393,0.6744928919296984,-2.293977572816936,-1.7842636936437581,0.21434857508671687,-1.1326902707741213,1.5679062085144806,0.2975882449448349
-2.186062816770147,2.5261709241619905,-0.38396732336637707,0.004697101497451189,0.9754710009977978,0.6341203743939823,-0.46941872957153397,-0.14666778082127993,0.20778357769154276,0.40434665249364554
0.6366925164783032,0.5771236788026037,-0.5333980807150724,-0.12541394280669296,0.9735421552642631,0.934332717463301,0.3120423474907809,1.2409819798379287,-0.2079468103473383,-0.13520100157373607
1.5953501340149572,3.0346259460147342,1.1191787853681698,0.75519485690744,4.624686612328154,1.8165641667048407,-0.15313495106908456,-0.8303710642348747,2.457576010349009,0.7245336995866717
1.3491036364688973,-0.5859906557062391,0.3230206073018759,0.5042289043040828,-0.4527608736775255,0.26925967102697906,0.1642336028984031,-0.547668607306687,1.8449969722339628,-0.8366133924200592
2.4539644311169555,1.128565567924947,0.4259658957739108,0.7648319087057389,4.338369699980241,0.3129178901895482,-1.020071726356595,-1.5677437688063418,-0.6406731024660469,-1.2654217726232087
-1.4151837634589655,-0.2578022889010122,-0.5597810968918067,-0.511756172147652,-1.3430869716318723,-0.9762181937182937,0.21691570392380438,0.9809666777752477,-0.5952653035912444,-0.20771152808292637
1.0066456752743924,0.5644993407759435,0.48036028925837176,0.852243361743034,0.8103896855085888,-1.6194645397816363,-0.17990873743311517,0.021977264430587472,1.292245945791032,-1.9247442594299187
-0.7068678012697537,-0.9534734001868573,-1.9615212882064734,-1.0216465639155605,-1.1466463979897417,0.8650232788121693,0.43136592015806996,0.9685202158571068,-1.11595564999919,0.9430053804738806
-2.8185934304886326,2.0372995259703783,-0.8898483212410374,-0.19372298885738112,0.6394238623534918,-1.0451693388820582,0.13661118255090762,1.0845823216343873,-0.5479894524633686,0.47056210708867224
7.3385111460345644,2.967241293289231,5.175038062277217,2.0851741956866756,8.59019148558961,2.606786572245414,-0.937721959020747,-2.28028936301648,1.731833426623024,-3.1327120960561223
3.5767137817288543,0.5922472972245634,1.2797913139787427,0.16553205432185736,1.8863458581035566,1.5730496109722594,-0.801620723100715,-1.1132381464979202,-0.2524759713296789,0.41645847771803896
0.8191149863098912,-0.7052085568668762,0.4294969625331586,0.05750386649963489,0.7763747225040993,0.672999249342275,0.12482579446409556,-0.10680407255017484,0.43226057873654705,0.07983410308354683
0.06545176026951299,1.1768687247106087,1.4340562971647905,0.3652611867339325,0.8960600959452856,2.3888613564961645,-0.2269085604308714,-1.2785988117298834,0.7028100476349051,0.21024368511881802
-0.3080425352608661,-0.7434161978648479,0.38298077182631485,-0.6741281937658925,-0.7455991515190847,0.7696640825104082,-0.60822248826551,-1.1844875545040587,-0.7236094513042488,1.4029926586352395
4.1374243652925955,-0.05985506990792644,1.644533650654492,0.2925864182593891,2.817067299326493,3.7959398337241823,-1.293847951047692,-2.849400031101486,3.2289874492407775,-3.7718084063957487
0.18523432602397147,2.2837740422264132,0.4468075698200796,0.06087553101375883,2.1914963070923825,0.03233558410291379,-0.02536977636316968,-0.3764405219111294,-0.48739530735909753,-0.36640379584846866
-1.1066829354056502,0.045894595064035926,-0.37139834066450295,-0.7530059933458431,-1.7800106806303102,0.23706463107827136,-0.20135158932008,-0.6029853620944743,-0.9779219036794191,1.2460757450050783
-1.1422888017970454,-0.34269282178036753,2.1187218719616148,1.1596201845789786,-0.4719661812858097,0.13771658908747655,0.0011175168517744867,-0.6266249140070074,-1.0887660307375089,1.2953912031942623
0.23356957048506877,0.753890312967999,0.46202494373255515,0.28589808392599636,0.35326585175284964,0.08006944122460223,0.1521579368054737,0.21842687183235635,0.7847882583575186,1.0790872236894142
0.5344638040373266,0.08879483452267745,0.7118768311056197,0.07568647638171029,0.4486377423853354,1.239334122531503,-0.34679009554636814,-1.079080534207305,0.07201305153957915,-0.3613851992037256
0.9400833099163155,0.7301583395679065,0.9869425393493758,0.8834590112444002,2.1629362644516235,1.412251347962741,-0.1941982856244072,-1.8845233130820347,1.4130555996506469,1.821787320884801
2.274871976259592,3.3057425128550575,2.9384639425087156,1.3178753765805493,6.770376878935808,3.774885686283393,-0.43970385909281895,-1.4463641954265838,0.2977453013675845,-0.6204083089675443
1.3482558615028128,0.0607812519131532,1.0940821702535148,0.0014462808310541282,2.1748919003350116,0.8213579376481874,-0.2551186658620805,-0.7820767719913477,-0.09571942140735945,0.5273492419796094
0.8182243227471053,0.28578767549267337,1.172484862986963,0.5617134724396344,-0.04148158045196082,-1.2924734963805722,-0.052962363472318315,0.010961521040127977,0.9516871645761454,-0.732039728754839
-1.7735107960769045,2.602055406389372,-1.2430079221993457,-0.2808810427540863,0.475535531405215,-0.4921821314470792,0.3205275805202722,0.13289003595224638,-0.7047279346299067,1.4250020405254646
-2.5339538525289287,2.984929886387948,-1.7093603143112737,-1.5176197308079582,1.0697960823451167,-0.5366032582950045,0.23890862243743094,0.4260579688464012,-0.8612781250058437,1.0345545268729797
1.526048956270491,-0.18662172068601213,2.430046968645755,1.2102997132243893,2.5324123637334557,1.464598500699724,-0.47063675945103267,-0.7004032844624534,1.29406007949167,-1.2212223950107712
2.9045817140227115,3.2462071401913946,3.086743418907733,2.062116222221328,7.798633055335719,2.4373370690183074,-0.7017194278825334,-1.2540225943832537,0.4622606485226074,-2.325340967403481
2.064889216838644,-0.9264788815609524,2.007305628448538,0.8071091237814237,1.4648466991421953,1.566295300935665,-0.6223697525673136,-0.7840874522477429,2.117213261841665,-1.2966731634822368
1.4999376708645742,1.2389442852226278,0.9625914956717053,-0.13635362229953385,2.6484550567454512,2.7062884155460813,-0.4465901466035539,-0.6061823458957184,-0.06803587733264194,-0.526250522327559
-1.1727495321706576,1.3804264417414536,-1.6697099551644197,-1.1037980787015618,-0.10371587673242622,-0.03921988738598603,-0.19723319403131742,0.10201802948732547,0.9350701176062591,-0.028851119361713844
0.5712493633198694,3.3555259329870957,-0.9475850023246606,0.07120555324425303,2.049702820192661,-1.1862877413609192,-0.08023567537382728,-0.38436337107045115,1.2858990789389446,-1.098032032516727
2.3941599254303245,-0.8559862462164246,2.915066198579634,0.8695335990736414,1.687229659520563,3.051388746887018,-0.8279463669049497,-2.459982176472709,1.0224071592788433,-1.7023466671884955
0.16508882145675924,1.878410914095153,-0.0892416401885269,0.20418307713896594,1.9388599404910067,0.39442851417414404,0.07142629301334451,0.3503981839114294,0.4349781328181967,-0.1159188302157497
1.546960964536884,-0.8838928255249633,-0.12013998341707857,0.05342689355619126,-0.2777860211965804,4.581206217375117,-0.32140635252618965,0.08635216079318819,0.9338216466980102,-1.4859866341541028
3.5351781429232245,-0.48160389519982116,2.5325453863307965,0.5076658121094955,2.6164271542843864,2.745714997160759,-0.5511914448843421,0.5555684129981979,0.2723442742967439,-0.9231161490789029
-0.6224128329208909,0.44442699011626896,-0.09109472704676784,-0.28035856169428597,0.5064831706647397,-2.5969082842512963,0.1019382261538074,0.04485590507935951,-0.6494919984132016,1.289066797413975
1.593654647288869,-0.08824998147417751,2.30780321562076,1.218875679397162,2.1829790972323417,1.663738592773698,-0.13607047164099687,-1.0868170533742219,1.0782720444815348,-2.3151532584230248
2.3088749832876343,-0.1292271219039488,1.331539102299119,0.3690044672720109,1.284717837226144,3.4746263879786907,-0.48574004082556693,-1.8898532902614373,0.7521131873859477,-0.33464067944422243
2.3430442988331053,1.6846801890380063,0.7651048195159257,0.5293993936444239,4.39698248613051,4.084294213879487,-0.6677442210895689,-1.4090172932238643,2.7720794322668096,-0.041086472957183366
0.5836887433811621,1.4407125082564334,0.5484661142409056,-0.27393324486728965,2.207948587117328,1.8217081266346846,-0.6487239952342733,0.6054916921436535,2.003673906668682,1.721591528334966
0.21733236332864614,1.7674715533147674,-0.09139673483414516,0.47684519403520537,0.1498557053005945,0.012814119367853927,-0.027206928561803175,0.8790341834656662,0.9136912817910563,-1.9820397653325408
3.521636851610286,-0.5514567690821304,1.3867070490844435,0.7183169174929888,1.4893497843041912,1.0223130759149544,-0.4913220080250702,-0.22030340307111837,2.5521563989824014,-0.7242638280258049
1.1226359350434174,1.3735681875905192,1.1403668724924387,0.9781337242909728,3.0225456720362067,2.229033110420046,-0.8105647497572966,-1.308825412573204,0.24142702037109515,0.8043439940091028
1.5706631622331557,3.310277637536867,0.16615073959284915,0.4946770110827832,3.5696751147893044,-0.040372298304996446,-0.2876867923260427,-0.2801560309274153,1.2386205882707157,-1.0974897411860332
-0.7798514837884388,2.5576906814791522,-1.252787110073701,0.05322174396423837,-0.3820115733068856,0.1105481042711271,-0.46299007980381224,0.8733271507233167,0.8170265128357495,-0.8374981794091962
1.2980234054827615,0.4036078391513829,2.8040953617172018,1.2800114861784893,2.919159169612965,0.8350356801117393,-0.5722773445619417,-0.9172742859099328,0.004273382859031338,-0.9646997576500494
3.572043697969766,1.8424199884000476,-0.6813910874266289,-0.3756617333070455,4.279340729543065,1.5316510787569477,-0.35441039957167747,-0.9802716558680734,0.9194901807127187,-0.71591775958313
1.6648912370829738,2.3233834205534287,1.8494378500555917,1.0246745591491178,4.192703503332083,1.3260613540423472,-0.4609905893415881,-0.4225365589774151,0.3798443212317213,-0.3346508330711898
0.8724563554385079,2.2226315467087425,-0.08078983768647657,0.1621254554043654,3.044018570222693,1.291314214730876,-0.7799088539647947,-1.4204175482092651,0.5690891583570117,1.7372460281816804
-0.8499809586799556,0.6263332263589667,-1.3434132318776122,-0.5923299416930635,-0.8391722582372425,-0.35950142053783685,-0.25867625461611105,0.19636884661970055,0.9433879295078103,-0.5068110208410675
3.2467628742338226,0.30759669434690107,2.8775041663888015,0.5439012388387952,6.293199738792808,1.2918122179172395,-0.31713658866311895,-0.4730891290775613,2.623625323061758,-0.7306301666134916
1.057682559152723,0.03713180631597046,1.9463681462687181,0.1450880053102864,0.1283694816380121,0.08979508722345564,0.08639710960072798,-0.7634611940381055,-1.7217442204278628,-1.4769690801355975
-1.1835020526916136,2.7015282639537697,-0.7169172797494859,-0.3707513844930468,0.6612737071534652,-1.1190034452097606,0.230976551654471,0.8676905937718441,-1.8936388555958943,0.6171850166502605
2.5231039924376817,3.374503749741125,1.3034643467451081,0.3956440472597646,6.282263487217273,2.593194405402013,-0.6649927560346306,-2.2694730490759834,1.199080855850437,-0.5797614704409905
4.813672284895694,1.1859402662496805,2.6485122970508015,0.6967164842947886,5.354848485187632,3.7411364585329387,-0.6090128518942348,-1.860756867868047,1.5632335471608858,-2.3215249558874484
2.152541086685431,3.4582473359801718,1.0010778041533153,0.5461147347096206,3.3282257802263278,0.41129375578703165,0.07944201817884634,-1.2502374598663668,0.680439555735582,-1.114774241710706
2.846292581772926,3.2426630936810366,4.424149215668213,1.6361069571037852,6.9214465155816995,2.935076220522604,-0.6703357072232358,-1.8533393846482853,2.140303565480811,1.000217505093438
2.2577051644759245,2.151522002828093,0.7899405112307264,-0.11557544916539388,3.465305121284154,0.8185863402798061,-0.5782836048140209,-0.5471717962753515,0.603604168385401,0.32178644483902685
3.641858313531854,-0.026298929084820788,3.0470382663813953,0.5397640621231528,3.9645099916933972,3.7346139585549984,-1.4252167962391789,-2.5066129710147913,2.880579731247363,-1.2300350528775372
0.10219149057187195,2.393128852808705,-1.847096281676263,-0.36540675876763634,2.39563289475554,0.5869062152256319,-0.5392098244555826,-0.3123810956332983,-0.4024599727950429,-2.8457049187551773
1.6431758156595497,-0.5405093087338539,2.7036432114623867,0.9865332204008769,-0.6334557275265897,1.9253029647051259,-0.7791679057359185,-0.6631583672723994,2.57714654898324,0.9226315161935843
1.2370559515136164,-0.9944588377973278,0.4462019417361044,0.3587027290640698,-0.6151558320999466,-0.4722401001899048,0.35552633304134823,0.4193933274272087,1.251168178871226,-0.991808683332871
-2.7514357441672783,2.3649632545514927,-0.5896399274593324,-0.019967586839065368,0.8322782554283696,0.9437946402077139,-0.244602208484662,-0.7704160992144907,-0.781632392612078,2.2119644831530763
-0.31732186735379536,1.303063838271989,-0.04546439340214116,-0.022006303787479503,-0.03560617629674234,-1.6372322066428242,0.44651437624591206,0.021433803872397343,-0.7953076996447462,1.4303894824612435
0.3786720400554154,2.4052309112294155,0.011906725751590491,-0.08775414962933503,0.9493055463662667,0.6610477043905085,-0.3611576542554087,-1.1315709782138539,0.10514370339217594,0.9202773029233186
-0.866695342552191,3.2064152294503074,0.7965162705063794,0.5990813375053364,2.7031259607287703,-2.1827437130796232,0.1479569538213783,1.1330184132957581,0.3165005924312876,1.028751938220479
-1.1197138772526267,1.828820470791165,-0.9753985952623918,-0.4469091616923987,1.5845987058645017,-0.12049913648442057,0.0013351223333396246,0.03276001331729948,-1.7873325534913846,-0.17961771230035922
2.6699638071058067,2.5450989932855816,2.1846432721419875,0.9237390265593043,4.83062294297062,3.2196829811233587,-0.5149389388404613,-0.9876331308045209,1.0244673079316917,-0.6835208411579758
-1.4163399239317551,0.8220366388875686,-0.5935145889439849,-0.31649533665785906,0.8145834260918602,0.9975989622176943,-0.2053538557559825,0.6871595766637371,2.058513975136509,1.5549322091283044
0.4595163880340639,3.457076403102131,0.5164680031705225,-0.10816610200148294,6.111458812304851,1.2374727295000028,-0.3095782767965395,-1.3021069798831995,1.0135970293267378,1.0427034335458443
2.938574512902831,-0.11670915700700502,0.734511971176061,0.02043570124978049,2.3804564566164785,0.5778291726550576,-0.6691395619641112,-1.582119833210349,1.417363265359719,-1.057964075839664
1.2719899846275815,-0.9565344632800378,2.8072725778790963,0.9578695076796587,2.3772724890551302,3.73955389492317,-0.7117278485437274,-1.293132911928182,0.7679237620029797,-2.732403850274276
-0.045470236515537624,-0.09797620552388298,-0.2495792769938364,0.5465576048135489,-1.1298810881136463,-0.50428131450504,-0.5089339991308389,-0.23516119551303577,0.7582966531041904,0.30220827148592955
0.9753856109403655,1.848573899885079,1.4005526086355995,0.24657602098076267,3.9143945409719088,0.5102131522132702,-0.8225468633212172,-1.6113374777912177,-1.0836787520125692,1.7015610394970417
2.0650257912170726,3.1489223318330417,1.2454738482856558,0.18004911981562338,3.7546384134084825,2.3425784420124294,-0.88937648778471,-1.6538983586927642,1.0510438910343378,-0.8015481807047525
-1.6041150927985812,-0.86410403740204,0.2269714100305645,0.8025941399642591,-1.6869628911326002,-0.3331464579089578,0.10204591177785577,0.9091738321463165,-0.839166533141054,0.29628028139614565
0.5662103507948342,2.3802733664436295,-0.16113710357535124,-0.3367506820383531,2.4516898256405524,0.8026098770114375,0.014823781146879217,0.2558765543068105,-0.03165168026286602,-1.6842635853252754
4.519748901995187,2.106190555516605,2.180808554941107,0.9303387496010328,4.656495830488664,1.6488483540449126,-0.532288974814909,-1.5688932718991777,1.9067307275114755,0.39298438354064286
1.893725665765906,2.046121154081341,0.5551463617616355,0.42864367914013274,2.7081015833852575,1.50478234962134,-0.13515118611452362,-0.5232214123913549,-0.7730162592833629,-1.034876096239994
0.8857313904567102,1.91575913149053,1.6198631634388638,0.6211838693032413,0.8441184196170588,0.16298890130991217,-0.13472271949811848,0.09955770879910758,-0.6912229685946829,-1.1824961240611285
0.3268321146878975,0.5035528418148507,-0.47597832188027955,-0.7331403204897798,1.7295665470864119,3.5381769942161365,-0.3171625570217807,-1.4369283840262386,0.4043118564862,0.6273006381585396
3.8678730811208557,1.6656398265716574,2.4120144289585084,1.3544102167941696,3.883361779705902,1.95048260703299,0.12376505867154967,-1.010573024722843,0.022974877340001143,-1.27959969960589
2.1713336527992766,-0.8107930403202441,2.781654411955488,0.8967896130284684,-0.26062509318010196,-0.7006159592331103,-0.2550915988534405,0.6097002894581582,2.610907472521526,-4.1485298001906905
-0.3203330560614748,1.5637590862103337,-0.68517620467532,-0.29634764225058136,-0.29822078757451587,-0.5106404095160524,0.36314838633461977,0.753933432395297,0.5173222761835322,-1.1509524828439661
-0.8229388102487851,-0.020397382893151517,0.04729277601302198,0.11088737053465775,0.38983667762069485,3.468932174387355,-0.4842293362711469,-1.2402810283010548,-1.1214881172880875,1.4448753933089908
0.232507395886042,-0.6930294076999055,-0.27672539979642097,0.4330558616496131,-1.5974504559603875,3.399151134321343,-0.13017101215705879,-1.671916992681862,-0.0970548796746,-1.6360606337045738
3.0308444481401247,2.2607963787613308,1.5638685647986035,0.8823190728956638,3.2504177011063398,1.3135604014494566,0.08350788253406603,0.16604145513505744,2.5859611116048375,-1.4772588475486375
3.063344246850389,1.0845892770594197,2.245882565473683,1.3174852087389324,3.247183333846151,0.0736346502640739,-0.11259484547693813,0.1839422672523416,0.003991402884540474,-1.7864562794665306
1.7313422978539406,1.7000264832396859,0.33163364647774823,-0.09216269286157228,3.9327146648978335,1.4734618558146195,-0.7917235224841677,0.012423686214088715,3.227589227131486,-0.5245460965622154
1.402795790309908,2.4486699014740956,-0.479683008093945,0.3897455809669709,2.1306366194530693,2.0831729358393813,-0.3498135654001729,0.10605381515480884,0.4631885426381305,-1.2560783855251292
0.5997169375377821,2.1432489638980767,0.9011881578484747,-0.01832250954375062,3.8455950906618206,2.8039733892707597,-0.15678649987938048,-1.4969678165709301,1.3039479835705632,-1.611322181252053
-2.3246460977213923,0.605374279923993,-1.1351938708214788,-0.549839900160723,-1.5774616882765682,-1.7555455948303686,-0.6874679181732645,-0.42227423909350387,0.7126734151440544,1.0462775232186983
-0.8023219655910175,-0.01828982007154234,-0.015085046537683455,-0.10244533280299131,-1.56154473629778,0.45438698579816006,0.10141051675499653,0.7844632252886828,-0.5677034256832905,0.6987344553193792
1.8176255896425357,-0.25753321277163777,-1.2001169090468935,-0.3713816702302314,1.2722592895564029,1.2395983580393506,-0.2623709875812232,-0.2682956989473808,0.644841387492548,-0.5239389814335651
-2.0447179690198083,2.192103302017448,0.03792999074806217,-0.20086825264706798,1.3896227380162736,-0.6160168490236921,0.3400530312094217,0.4040121671143841,-0.9178264872564942,0.23957069369422657
-1.2257616456485396,-0.6284898871342505,0.018634983825680566,0.2748057551359325,-0.5444757141936586,0.2879288804673264,-0.40135960263925596,-0.5948445417582348,-1.8408147035541402,0.5566203983592256
-1.6875349003000155,0.3294253390594928,-1.2335700294398326,-0.06788495061468844,-1.1530042912960123,0.5459916905338406,-0.4325341293762841,-0.7502624183326677,-2.568293988989477,0.5375381861041053
2.2770130942965303,2.2041644553540034,3.259178806726819,0.9945631943457621,4.713731088676132,1.2686778772478473,-0.10496209845909324,0.2549137323546676,2.362161533696277,-1.2944283929117273
-0.5697889456281094,0.600791693831642,1.0395871136887176,0.04437597099928415,1.5663908679003071,-1.6111801014447207,-0.11702713373429811,0.1598310487489086,0.36958088834660185,1.971805107272799
1.2964043722361382,-0.2729600076144999,0.5273806363470263,-0.12863625618311844,-1.1812953011228795,-0.9023744344473488,0.14094172342684871,1.0772882082955846,-0.6531070636609836,-0.6047978237555219
2.631684922391136,3.0322235622418763,2.1959804193988455,1.2117696879226378,6.356700572268917,2.0936549229522026,-0.9282783283506796,-2.2976796913756665,0.9932017775591456,0.28549509469048145
3.1269021087297215,1.0397931167370285,1.8649709954325788,0.6008754439682823,4.114820060887906,3.101237113164352,-0.16526560874074814,-1.632575613723953,0.19409101160241504,-1.5563750626974855
1.4291509209737636,0.9635123158443535,1.1782806598280375,0.3694614839689881,3.7706621255767128,0.421518331863356,-0.05169586200264501,-1.1591199698165873,-0.21640770579407465,-2.985051613932053
2.081701364406491,-0.09199008626740579,0.3788110453159919,0.4868013929840763,3.7920508072952965,0.7453292040377602,-0.5796498076770525,-1.3126691885771729,2.665744748261779,-0.21283454098958743
2.0156465030898163,0.28767428819263996,0.2081760734725581,-0.355609290140147,0.31560633418392064,0.36061473746695105,-0.03644241599654429,-0.05952640374146747,1.4100293817795784,0.8709735460627832
2.4425631536157724,1.1571209379227634,2.5522954072649577,1.3570076256509627,5.000024328365663,2.6542935993183887,-0.16401391076577138,-1.1463315719266811,1.9897786932519725,-2.2791038691151773
-4.322940024137956,0.46645903935586674,-0.8534747627819023,-0.556387092148464,-1.5835951249533606,-0.6924630417991084,0.11186207616920728,0.39603259014840253,-1.3268408682390125,1.2714497162729028
0.04634433268210898,2.8913078770264367,0.4362170959862863,0.35709950128001444,3.791514974637023,0.44698721947774533,-1.0012244202794116,-0.9157237679435252,0.8956564519489144,-0.028356374373207382
3.0486050318006757,2.021998619053481,3.2051635210480085,1.9713469338593508,5.959492994474031,2.4971944742184404,-0.6792283852019169,-1.49424909363126,2.205356232199531,-1.3659685622993634
4.430365614557292,2.4813958855191998,1.7182020829624216,0.4746456297129136,4.127930215339369,0.37873747449613715,-0.6464055667797373,0.14440909240572797,1.8264146092122906,-3.377654383975016
-0.4868848575909212,0.22666910328506695,-2.214706399085751,-0.8692586883176634,-0.17628858343816278,-1.4551072491885568,0.15247084850886275,0.9850885162536721,1.2792268694146638,0.9867323006610971
1.6968091639127088,1.7088381437821836,2.1103157954288423,0.8472415606926296,3.5609350500623145,4.404707805785832,-0.3039665096543442,-0.6882415040489717,0.5295234932906193,-1.495236741548311
0.6055928352202976,2.762776586923196,0.1956349465064819,0.19744182095760832,1.109143704998223,-0.04546353469212361,-0.1411091384977252,-0.10482770319976221,-0.10836715735496276,-0.7315878328926237
3.6214341322690093,1.8050454059089343,1.628722282253448,0.25420749134364573,5.125147369500416,3.155596238451406,-0.6698366420500527,-2.3180179347285126,2.698817863402226,-0.4659329496626823
2.0339321537615898,-0.7636556994645275,0.3637169595411631,-1.011588323935436,-1.2841117690052808,-1.3621274949225923,-0.37496250879432624,-0.14858605570406197,-0.38907142835690256,-2.1211512243787163
3.720650315117019,0.4586655411792109,0.4454737701906325,0.43357306465112355,0.34404112701514755,2.945286558543988,-0.6781334349321873,0.2331091891899074,0.011078089517540635,-2.4552400116388853
1.4202389802508835,2.544931043750552,0.9410596628362025,0.19398442520188597,5.716932055818731,3.5027722902939473,-0.9474465863219237,-1.474016265633525,-0.6344525352579758,0.5658372460183915
-1.9379702046751748,1.1933562633479475,0.11889834773797368,0.09533766639390076,0.903721031496576,-2.4577136404086146,0.02011132262435576,-0.29100121535324297,-0.3690331508979,-0.6179555571856356
0.8738935001516728,-0.1264360817693967,-0.9270638526469793,-0.4165536081649548,-0.9677972032806155,0.1456563468955907,-0.1798024066669194,0.721525872620017,-0.7634951043997895,-0.6997722021977016
-1.478794362863579,0.2576979394647094,-0.6681375283663652,-0.5304093711599516,-0.5930741961154393,0.297563871438722,0.5064648952438322,-0.11452559050477289,-2.483432808075006,0.05280809315920408
1.4684678631151742,2.6398097003562193,1.6947958357998028,0.6922474822352597,4.158179281248914,-2.1493151453560992,0.26784003346800966,0.6237877581945243,0.06334808392548774,-0.6021589130991035
-2.038610273568609,0.7972874156434309,-0.11376589205561063,-0.14093741489466619,2.6281586946104696,1.1317868748527582,-0.43050854908886177,-0.5235320827662446,0.20034642624205068,2.182105479200782
2.244935670520704,-0.035160566633061885,1.695268852026852,0.8076059197096661,1.2962041485803308,-0.01745847096782427,-0.1432404672072216,0.2531380184847845,0.37184545848289297,-1.394752921178188
-3.7863191442425705,-0.7304381419942296,-1.7834208691612108,-0.26466741859173065,-2.3009639532262804,-0.2563023627969532,0.11085917087434183,0.1426345387701691,-2.655995067469651,0.28289934041223647
-2.1905992329917456,0.9092728712038542,-0.25836802876448567,0.10196282537794706,-1.7773174327894707,-0.8026108352309749,0.1427773605508965,1.1052857716758322,-0.24492864959474803,1.9595382494441935
1.8383189063243401,1.213535263108986,1.9745563818414997,1.209447605225936,3.6715449669511937,3.5236274173572646,-0.5910580482688883,-1.5727539379916193,1.3112266895837688,-2.6352656478955163
1.6427455364085781,1.7137562451983204,0.1371398361356645,0.33763823476652927,4.346275156986836,1.1188362943825125,-0.6858196603897786,-0.7666147486517921,-0.6083518165015545,-0.045780552431629915
1.302004004232695,1.992807178329807,-0.14238859759810069,0.1195206204151304,2.649947835423126,-0.8952790346108691,-0.05780544874322294,0.591199061805804,1.2390808256696375,-2.251845190662542
1.2215750952907245,1.278126760750912,0.8435167869916259,0.5201730706744426,3.4596919346535406,1.3152061163054904,-0.5839731420216252,-0.927623370136935,0.22522945367391856,-1.433433583772234
-2.7183699050699475,0.8204286351328447,-0.5543547770983608,0.5169624937305128,-1.4954803398928056,0.1990153019601647,0.2234855011731625,0.8994143090693416,-0.020795337093156396,1.536148194601582
-0.37448580680591004,2.3886087589716793,0.010521453218504203,0.23532697338516295,2.759774907411378,-1.7646789928497948,0.3908566060467535,0.3999341661648405,0.35470014278932394,-1.45885132864831
2.982269632208786,0.7522438861134222,0.9719687938639867,-0.033951329793581314,2.8854943102528434,0.3620828193557939,-0.7990657618236623,-1.7872097272224368,2.074954507791839,-2.5849774041019287
3.1818336521360724,-0.259953921075849,1.8089544273595042,-0.09773409302038279,0.4670686348116977,4.489900777085666,-1.0797423730991864,-2.0594199623233926,0.37392977479176626,-1.103304606178838
3.6930127018875902,1.1707886348437744,3.427639820606944,1.3498933859622728,3.6295767135122037,3.463110829546602,-1.1090760921623437,-1.3580246169575982,1.2407692875487268,-1.5727334035327836
-1.8141193377084694,-0.49629100160347384,-0.1571192551865224,-0.036631969612738444,-1.1295205528018781,0.09353362584170996,0.2926343749872153,-1.0785470045416905,0.05786719986516309,1.0288614769878401
-1.1159139467146126,1.1170194928947335,0.8313192172875028,0.6531809846099512,0.3457107348954974,1.6309096501833436,-0.8284794590980648,-0.2921787627893524,0.32905414573074443,-0.7706450244049408
3.0677233950977576,0.7453844155990728,1.3121928705757593,0.2046817329575083,3.5915050490923144,0.39545471153569123,-0.7748268339088072,-0.5414408373307712,2.8792488664309843,-1.520054495787177
-1.112749409468351,0.5352221268856967,0.4630608716923677,0.21334923552888665,0.9591728481591233,0.20283012392906108,-0.5663680070478653,1.465366992002038,-0.5473288872483528,0.8907140194637466
4.749339972831144,0.061884476463649474,2.6189516511300113,1.0848772139442906,2.618889851430132,1.2776801706612224,-0.8974841876723221,-1.2573062136104005,2.189602110245941,-0.6323758459437864
3.439503925495532,2.8580811923498657,2.3242135401390986,1.3814767842357922,6.437852152531333,2.742963899803117,-0.7297404225953213,-2.110288982932046,3.0568976708419533,-0.09430795658596489
0.41449675608892017,3.117886301140814,-0.2149956010931552,-0.27767200824482363,5.198524834838153,0.5959037074123565,-0.24346498132920624,-0.15231331397351272,1.3880408750206623,-3.3566735487686374
-1.8168620952665866,0.584170802913742,0.21507528625817385,0.10895299023357595,1.9476309267951322,3.8999545509322613,-0.5659638161645447,-2.1826834557708437,0.40273093848172775,0.7930112031565373
2.7672513162833896,1.9858521492722603,-0.24867280401420927,-0.5353859308283904,2.3101981327647882,1.3416669002734558,-0.28130881528640184,-1.2775498240495275,1.0453200567385963,-0.050452455885423984
0.2656932391980934,0.18798833333907106,-0.3786950979062822,-0.19325156573307078,0.36665170162334326,1.2682373816857133,0.125320038811766,-0.09631514360410656,0.5240689268534305,-0.21791338195767684
3.634453678938477,-0.5108776564850319,2.444743530296882,0.8444826056545159,2.314989121113107,2.022350321400194,-0.4364487703853378,-1.5372223589045917,1.4121678504469033,-1.3860581709516926
0.8023375011110243,0.774198669726424,0.10477145031188935,-0.3677460936480963,2.2713545762533407,-0.37099247860999385,0.10702704215509935,-0.3792233325910181,0.5994749579736343,0.060257451317837794
0.46461030800519704,0.6990963074078316,0.14886787602220894,0.7739980118403301,2.227455843397818,0.03822583140605579,0.1190871560828138,-0.21863347341985034,0.16354474911916292,1.0569361733427889
0.5326194468439512,1.2326814477773476,0.9566357361199016,-0.43607271901571576,2.3158100906476795,0.19997393216981107,0.11799565035614042,0.6946327566549356,-0.42160103635302015,1.0412661578958942
1.134639298981907,0.8171901606052885,2.1231207495702678,1.115185582961817,2.0149733772013216,1.268917446651079,-0.6820796848917321,-1.7731941077138427,0.5658868926081976,-1.8077053376067567
-2.2275838691975896,2.5667744620498563,0.0021515615573376203,0.36866278321860624,0.07506754481803313,0.7109244409253097,0.14363564610769927,0.8502942922723175,-3.013364975086346,0.40057610172435537
3.257000030913474,3.2516086376222644,1.8543100638240577,0.9746237730736824,3.7070978793025717,3.2870019919449325,-0.7493565373498893,-0.47471756872035875,0.3306471642770709,-1.757768114529915
-2.1192836400419783,2.1662546428456544,-1.4938400135212897,-0.34055275231721865,0.4017412936173359,0.2612522063756484,-0.02862618139052841,0.9032809449235107,-2.8645792643891532,1.575320669568176
0.04527612471159983,-0.03211417381180259,-0.3068266139213991,0.712714900062946,-0.5184261486876828,-1.7072292459964946,-0.133190003427117,-0.4752661224619111,0.1106147897330003,-0.6645453451901676
5.232713009282688,0.9363037783032375,5.140269585469866,2.4043039188759754,6.32783124948761,6.093133114147259,-1.0325929521717903,-1.8112338607724296,2.8010460839588234,-4.936785667880264
1.6851894456124556,-0.6608706644097861,1.2452164741686553,0.3232214496136422,0.19754579546180873,0.39726626887953453,-0.6831740888664118,-0.8110881779585579,-1.291280151219498,-0.0022438637645351713
-4.537444408263531,2.996669239216166,-1.7142552124565709,-0.2399858404577904,-1.0422280608137577,-1.2711624714820289,0.2484103933217213,0.32633855740162987,-0.3632166321775898,1.7034253535525732
3.0926912099109214,0.6934069133129757,0.715487118776698,0.21810141625531163,1.371563127827799,-1.397101464934408,-0.17267151827570693,-1.3295677024014152,-0.5564073158120255,-0.37010606235658633
1.600349498900755,-0.7236561777960052,1.768911574221648,0.49813904012895316,2.028000670546765,2.5234855108216783,-0.7678355865535251,-1.5513707129038365,2.540995887356469,-0.6602420300612024
-0.9896282483619265,1.0502985005315955,-0.2351593244942038,-0.04306683682850025,0.3558472211236321,-0.747455945796885,0.20177120303999327,-0.11675780914990092,0.015969448637561667,2.771623510900191
2.422452257942515,2.9211528994368763,0.2349990856247759,-0.695300867128067,3.911731528533369,1.910779302438589,-0.38740253091999066,-0.7202203736141046,-0.167670279601829,0.8006724319576888
0.7481632434135765,-0.8732793934395001,-0.009185053488901567,-0.41961304915442266,-1.019050596545351,-0.45818184473908374,-0.15662026521505482,-0.18810652899274058,-0.20986273785219234,-0.3160091625725417
1.9507107379428967,-0.6305336335429643,1.3025003821647714,-0.18951828844369964,1.6074340758250676,1.4522180873508703,0.0788295589776028,-1.2089547112509085,1.1497575593027372,-1.3931228139443323
2.4724895250707224,2.9528340110001037,2.110294300663305,0.30344574607715985,7.119928788509238,1.9692485803998996,-0.874741349539317,-2.838778115977929,0.9132985247039629,0.9549567762486529
1.755975177363999,0.1760476870649732,1.9374461058047332,0.2621460873622378,1.5241399154168453,-1.7515380309543798,0.3897581223779183,-0.23921821542096833,-0.8049483311333013,-0.43991739436919125
3.7305083190683512,1.6833913789356654,1.301007090431984,0.3986339757293146,4.996646809677811,3.855110857678115,-0.9555506142598311,-2.065481588138189,2.5852749972847304,-1.356885473685471
3.677065480134432,0.6976610206645886,2.5438027498061206,1.3167591717737943,3.4895696687655264,2.388022185419237,-1.0639842804339714,-2.280336430862559,1.812146558376402,-1.5624790258055568
2.687274050566889,-0.7449237702818448,0.8478862026632015,0.12601338319290264,2.0461672767331316,2.480312147296102,-0.17200912551979872,0.006252150421320132,-0.904601322720944,0.3519215407039751
0.01994607964135551,2.0073882980944915,-0.31232997196241474,-0.32804068172807554,1.7165223867292436,1.852864234193253,-0.22067687533730398,-0.7532464301149028,0.4093840078068915,-0.40957483014747975
2.6395049294061224,3.1500716772426856,1.7846979450208549,1.0015060242673488,3.0321582671300327,-0.4002825384299602,-0.2556997053270866,-0.4343938764121171,0.995994391583361,-0.6290271145835107
4.630177802314218,2.539400540798082,2.7128002096667214,1.8580331647187232,7.713072567396042,2.7551222273775977,-0.3487281580204248,-1.8548995353731184,-0.2715217459755539,-1.679894336942715
1.9580151722117491,1.4714296092574393,1.3183997444595672,0.1662358176401004,2.2242405858124052,2.562782912767634,-0.5386049800324495,-0.8966027407499448,-0.043643321333261764,-0.036695128923362325
0.9901314727727685,0.7046399251957025,1.4015138658386797,0.575863531511651,3.985326862176018,4.063585166391755,-0.7160267672165511,-1.9858506155599713,0.5197916569397153,0.983808026707857
2.3434035684668406,2.9453381387382636,0.7921612554836329,0.27128936425396477,4.99520062044828,0.10234428430485398,-0.23351716313421336,0.14937970990288438,0.4873995385334018,-1.215677044433343
4.463292083766168,0.7893685997813793,1.122134170288569,0.4990659575264354,2.455893883423914,1.9248696364308526,0.000496727755173641,-0.995610819135447,2.1482751211431252,-0.9033441880242735
3.4047175054272776,1.796125120955241,0.8075936084328235,0.16554148694737386,4.308324615541592,1.0382516573564007,-0.4164520173908722,0.11927337828390124,1.6515335042813974,-2.9338994095421067
1.299083313727513,1.5725062094204816,1.057513315796362,0.8969152825981281,3.7007285776140244,-0.4876689055007466,0.060884817213801505,-0.579276217979075,-0.09380311225241345,0.5341300276127053
3.891808960888899,0.4386617791923455,2.3426006986352186,0.7355571924413353,3.432229490100841,1.827222584553004,-0.9026624549427164,-1.6545705965735262,1.8581607033204386,-1.0288678411126944
0.35657194798238523,-0.932652027793281,-0.07736544829675777,-0.10107615445994582,-0.5432284103622006,-1.3010666442115242,0.4450608806328751,0.4601524944465827,-0.18682829678063337,-1.4277416515721966
0.6260923870825971,1.9717961418088064,1.3567533640009035,0.0668300164997995,2.3735905063165923,0.3756234804052865,-0.06515660930562164,0.1409699491923793,2.316689424469267,-2.747705747708544
1.5947292826522712,2.391308607654347,0.35549778304304563,0.3634256650595378,2.7195722927676953,2.9522872957390343,-0.5751884121376493,-1.1769823165729572,-1.0825314500230805,-0.9882350303738086
-0.7934267814784525,-0.10566767353497752,1.029267191410738,0.36021457299116716,2.216050522449597,1.1783731751746824,-0.6118752839205949,-1.5962612389703992,-0.6150691798652251,-0.015011660541723142
-0.13713858081029548,1.2340588995498543,0.5140601809395954,0.427665324846839,1.8514341579425806,0.8671107355894097,-0.10897027268702106,-0.4212362615574736,-0.7838193412602098,1.2559690989942476
0.5520085033014261,-0.10752807980117252,0.7687413629784648,1.114379252315512,1.8818691830006973,-0.28021514460501595,-0.23774004103687302,0.4846008976026775,1.665162554810895,-0.7866922991129389
0.5805079626082192,1.6013822141311609,1.5796925051556818,0.7058082693861207,-0.026447281302355186,-0.5991819430613091,-0.13600457643033187,1.2811073823123724,-0.4149360659324208,0.19419946518466766
3.02658040796203,0.633355987221601,1.9056854128041856,0.7508352759788319,3.0329002284300817,4.088832534185212,-0.9872244660083155,-2.6152982469169963,2.2516006147823333,0.2692871749823739
-2.1189585190344533,2.451913417138238,-0.7064615251306501,0.6231534003259701,0.8750521119755263,0.050630709515561645,0.13031090392646913,1.035334443014464,-1.4469641069156365,0.516563728771095
-0.12484610402708725,-0.5529877255907145,-0.3697290251119437,-0.34937992702881426,-0.05336263210837991,0.9758816220564313,-0.18390624699461933,-0.24296942945981845,-0.18768852197850883,1.1029407422441238
-1.3482727607313933,3.28882189005446,-1.5215181116726268,-0.3954764645029845,0.9247520223817798,-0.32981804996751946,0.07101508551635974,0.47536778147308184,0.99783366132641,0.29307941241540625
-0.06284103145372943,-0.3511820280619493,0.8081888313316926,-0.0016306237382205618,-0.2325993663846012,0.7608045644846146,0.21018086838359967,0.8358892461057554,-0.6600353912544333,-1.6119180398506026
-0.840161611148272,2.449074453111252,-2.006798863138264,-0.5219707663283447,-0.12871523761740478,-0.029279674704764225,0.1616190799090947,-0.25526837129207575,-0.8265519349790627,1.736773184719422
-1.7411685561323191,1.0259813168307415,-1.0774058411550291,-0.9454370603491207,0.4832190208777225,0.4197120046731003,-0.3990114168312076,-0.46011763832731534,-1.826588634818425,2.037398317061254
-0.618736670788193,1.1385196550926109,0.29196653702949454,0.3468760054226451,1.353949202722154,-1.5638968851750694,0.03464561255820746,-0.24020367244650026,0.09949462228903787,1.2565338995728765
-1.7672161864595524,-0.5415750614820523,0.13377969527169442,-0.2384775274248029,-0.6775424709098797,1.0321541194689545,-0.33447528881698857,-1.687876271974782,-0.9988827124720161,0.026969456821307185
4.239197794162803,-0.3882724557598177,2.359091225541974,0.6682820136456288,3.225044619885945,3.7203474122299927,-0.6700261771589819,-2.1443348644551117,1.2018078331105406,-1.189281994525485
4.4279120962419825,2.535730717160844,1.7224806403691795,0.48046090728409985,5.633703150781757,2.1196781964764133,-0.8075933611631074,-1.058065159359917,0.9928648580729441,0.5706841692054949
-3.113744516966038,2.076261662915201,-1.1361221982149712,-0.1206440659835502,-1.1649006745531496,-1.3030976438969701,0.361190029612442,1.036229515379481,-0.21712829755567264,1.3717503602917571
1.236939990587849,0.7329824748936957,2.0842266503650597,0.2801022738662356,2.3597221021350854,0.644933872506752,-0.6658246775795766,-0.4201827382044282,-1.4694539796140873,-0.08841700025235986
5.327718027205448,-0.45589039717315794,0.842576008904928,0.6834775725883809,1.3118220922807722,4.070413427079546,-1.1875389765192148,-1.4368167765234023,1.5652996600524105,-4.540976844170985
0.79634576315121,-0.08791925625345243,0.2387332925948189,0.6380420591849812,1.0734611765614406,-0.031947286041318135,0.0521874333186108,0.1820250004086748,0.2677880034465963,-0.13723220726017898
0.8095503634411351,3.40201931133924,1.3131218229368409,0.5374705933019691,5.063510166431771,-0.36090056559432226,0.16748341493111168,-0.43500047055952684,0.27452700903021393,-1.575223104467846
0.3430665766472855,3.218700719571739,1.2656206402551005,0.20267748259884755,2.6847950887264984,2.315570147015196,-0.49395792350412343,-0.7662055317670398,-1.0784145575065534,0.08981297794628605
-0.34936456235606145,3.447981051067657,-0.6360186558898001,-0.21899058888089284,1.5793495516963778,-0.42489560917263297,0.5644518774511594,0.2363581486098884,-0.1800146681209568,0.15868064941803275
1.103606419023521,1.0495713091097083,1.2743697696746303,1.0531570185879053,3.6050580342553102,2.997584646323754,-1.3989087363850525,-1.6174313852157525,0.03991424475005095,-0.763948875583113
-0.7209261256095362,1.4630390677573444,-0.20924193833545485,-0.46535484994187015,2.5503417508451016,-1.0257437689068127,-0.21806233257113206,-0.338588767533837,-1.4138031776126978,-0.17260460573194616
3.5495227899230724,1.5856519106421252,0.44169739700078187,0.29314869070559163,2.7310546218866025,1.433099430090334,-0.5943849421649705,-1.3626727925856472,1.532930817649671,-3.2440890915971847
-0.46819655070495925,1.3925407584076197,-1.2138151248890423,-0.0878112741618525,1.4115673223687697,-0.43018906812327773,0.3460022105623255,-0.09252832298113974,0.8748296850349097,-1.0860075391811945
0.26174418875043554,2.3740792476993384,1.6189423524572326,1.0653641442055648,4.487420008086351,-1.1287147493404546,-0.12004950159055998,-1.3531294609752498,1.5607843087302242,-0.7424397700271952
0.9559635439417522,0.6724288193115342,2.0533193301589527,0.6169238197913212,1.0259823476485304,1.2115456374184221,-1.0721285128858145,-1.5701406252171626,0.8894989273465411,-1.6915556495364783
-2.396627370512449,1.0483045336458554,0.04110741918842008,-0.07460863223491532,1.5388534610594793,-1.0597677882251397,0.19214582714116188,0.31310029273095413,-0.2884009728239708,1.2045487820545528
4.2150033963437,1.684472600980481,1.6462607372282372,0.24457425010955164,2.758616391438507,2.7881286053601912,-0.6120573242174794,-1.4575545090865942,2.1294237097061925,-2.7594232603294864
2.0999225190727904,0.5210456592699533,1.5137043220861286,0.5419843367933518,0.7387012374757815,1.1549479248874188,-0.7973244799802716,-1.6630394494288727,1.671608763831985,0.3547136517114765
1.163114779240152,-0.17003235054007426,-0.6109832532575085,-0.21848583084519774,-1.9396080107407225,-2.473289984907865,0.15125356952717695,-0.6854681779417109,0.9598739041334011,-0.13315282154826094
1.2023912268254988,1.4857940391708224,0.9065419181026712,0.5277579066103689,3.5105301830207063,2.0107244601583263,-0.4598343414484192,-2.7597885884623126,-0.09561282533763732,-0.9064942833945104
-0.8581019325501964,2.938968131518566,1.3537583929095285,0.7790543581335799,2.110552289415331,3.4076560979420387,-0.7362460045568409,-0.9467840841197106,-1.1116615517334476,-0.19649591566955682
0.7868667581708036,2.609621002520468,1.3177502027477692,1.0117570791298576,3.5115821352720857,0.44583552139254023,-0.1303634433336234,-1.0258286813741961,1.096414905372454,0.49163861462650815
2.707491383591021,1.160874359391209,2.141624454044958,0.7426476444071901,3.832853920069033,1.9147591413152203,-0.7929776589026356,-1.5931532982141996,-0.5498432908566233,-0.8474683854195042
3.4199228109119786,-0.5304555142990841,1.9187857870640488,0.47049997189784093,2.4621855101106953,3.2260160495797288,-0.7625815439685781,-1.4803189119470128,2.164728399565103,-1.88925872738727
1.8621411312593852,1.579209311128777,2.141856835195634,1.3825087419127913,5.9153611972144216,2.292656383067334,-0.16454970788735132,0.20558723858894304,-0.05442875752103982,-0.6278070551954191
0.4937083265758329,2.6003488069713065,0.31826560445838015,0.04722307647086335,3.0177401492176186,2.890646142847892,-0.3010043304948962,-1.303101659585532,0.33392764824060844,-0.4821394034310099
-0.911371326268121,2.5414805684099546,1.3263072223738104,0.2653602425762463,2.7978311994900835,2.2392179179706897,-0.2685192052378784,-1.6466023132606495,-1.8667995555081272,0.9289306988216661
1.3979602338200503,2.3022693292543113,0.9979880476537826,0.07749235809930269,3.658686751547853,1.0509535207749845,-0.1958752131459834,-1.0912180754615997,-1.447489777355702,-0.9488956435018875
1.7998220963610765,1.6489925342805751,1.9359098198718603,1.5934734131177324,3.2002984015131712,-1.3423932433085817,-0.5388819018300909,-1.0249651823018888,1.2433564041170744,-1.9595454577462925
-0.05030162822428233,1.1630031882082004,0.6697113887031678,0.7699531712543106,4.960757186290515,3.548080635301572,-0.6842641126333852,-2.546648542561877,0.46444241860975666,-3.3654797109548653
2.9280783972371474,2.5728355198811412,1.343896407750817,-0.2471201587660884,5.738016513599858,1.976912027332162,-0.24857807421629702,-0.6648552007220172,1.4732316491067396,-1.7531888364938193
0.15981504124258816,2.8139376417500688,-0.26842005079783954,-0.5629849489505726,3.610243872799619,0.870987364293188,-0.5516199432732737,-0.11472371671423738,0.7796723620168474,0.14393292264512508
-0.47533259900222724,3.2399140217956397,0.10169061283539324,0.27138172903749175,2.9610182595673824,-0.9091714157256754,-0.2179429690143976,-0.7690003551944904,-0.7577147114866505,0.707440803860168
3.2117371496217397,-0.11663996007838928,1.6830150396977681,0.8877051958800083,4.872990443805543,1.596445997335912,-0.3007506273507518,-0.7423867342128001,1.0864783102822864,-0.6114983014938156
3.065354893192352,-0.7015153821922895,2.334261324516223,0.23413375018110263,0.9383545067564593,1.2903136041124743,-0.10353576753369449,-1.0385098936504973,1.045701105744412,-3.4264210516864324
-0.06926742682099046,-0.6831414488750381,1.9029803864075838,0.5929260387025453,1.7566212923436801,4.193271853874617,-0.7313408997183553,-1.4957293914236989,-0.6102279109772006,-2.289379997295001
5.46785776116981,-0.14363404094438903,2.2977162384584546,1.4873899365934407,2.9955508211761224,2.5861241616332205,-0.7750141804636801,-1.1127046015390696,0.40891896760103275,-1.4496942352075408
-1.6497486365477647,1.5393023995270894,-0.05062663449413056,0.441840065057151,0.29090903405905655,0.5602138324936303,0.5141705527804803,-0.3459624156752685,-0.8678773799390175,1.3813327117688654
-1.094063929221656,0.5893518527312249,-0.6854038253204602,-0.12618178348473635,-0.392364876225991,-1.6563026088978319,0.67268014295744,-0.20403273616045603,-0.7620741267483409,1.534415838979666
-1.3319510231774452,0.30542249119580656,2.763472111059943,1.3835021222337662,0.22274916676388745,0.2571668483430091,-0.03648216645862404,0.18420971948993378,0.27365790895912945,1.0607456423000563
1.51600155988075,3.0833924564140966,1.58473907692292,0.9381870358822276,3.878762421197501,1.1021326111380765,0.8691242977408624,0.33945750493957616,-0.523280800247742,1.0096107663976883
1.124661778309635,1.657719718053372,0.8972487242959601,0.4529378950351816,4.904712763614622,1.6884393119090384,-0.5574350943539287,-0.8450819186630517,1.8999193822186795,-0.8882391359757597
1.756036639348065,1.4221811489808047,0.8965701549148385,0.3357557212181913,0.6360217700845296,0.12191269537645277,0.3351720328588307,-0.29441260467884983,1.1323221634923015,-0.4603987455284229
0.5581201702888846,0.006164995516854788,0.7168135877039893,0.29173328277953675,1.8623858965332998,0.2134779654014315,-0.15509840972676242,0.6011837486435172,0.1802539453601385,0.3956475305895372
2.7503373909916444,0.08475197398972201,2.7861686360315523,1.217832873899688,3.4713129393885858,2.0581076389389854,-0.9858087568654581,-1.7667352055102314,2.3610056492705405,-2.9443070066352104
0.3281469401219252,-0.688682369878176,0.6694511085120818,1.1573609385835044,0.3696087922724678,2.9946136975695072,-0.44515380727341286,-0.9607458058568202,-0.710948809673218,0.6338187904593078
-0.2197908230088499,-0.9199022983184294,1.442123145269633,0.6829813788501172,-2.002382900332194,-2.1895659349936976,-0.4801991431674415,-0.5475934549772757,0.5457996780048311,0.861304484076957
-2.9687099414462996,2.185614308727769,-0.29844375587455135,-0.6060642548829486,1.3486987931533017,-1.4852815347443986,0.017900796575282634,0.9033891256327184,-1.3144667922305193,2.172236913003455
5.60652752240134,-0.0821212751273197,3.5507556908436895,1.5874101861827121,3.1949590265238594,1.7420163070442296,-0.7370248182353464,-2.07816916736318,3.996978023666052,-2.673482475568101
-0.8088658530582855,2.9407598727094535,-1.9743424995196597,-0.48130878456054277,1.7875949466323855,1.1390621909724672,0.06375758045169547,0.23979684347787716,-1.726068450856371,0.9290449729761341
-1.8645840373825653,2.517248744387933,0.5998461130229078,-0.2384705282407711,1.2396155565593463,0.9575995138304818,0.08382861187185112,0.41777020949381327,-1.08709679436594,0.8151982336340969
6.249731354267048,0.9351160253229485,1.8898147967395513,0.5007116080645596,5.3608358427408245,3.987394611002211,-0.6779984469768975,-1.5888560294339074,4.663090589797507,-2.6405871252585604
2.774917468240236,0.29659654206516683,1.3644814923385815,0.982979495994384,2.685156709113889,1.1267695983164552,-0.2265397773522588,-0.3735676220756213,-0.7302246872112481,-1.225709234964483
-0.9454245134257323,3.1684571480311394,0.46265918360527214,0.20708732569509472,1.6598127422538214,-1.9295990393580873,0.6782771866546147,0.3537119128995778,0.06518349508168253,0.43619943631836455
0.8131127338702887,-0.935271246349515,0.12611827842806922,0.30726135145328465,-0.22176239820960442,2.000721447801655,-0.4780815416641624,0.07251968252804879,1.2015283383848294,-1.818342424322297
-0.7245364188977128,1.8087064878707504,0.23261996771397503,0.2982430401916217,1.525830638447366,-0.956624146069071,0.2714717851416162,0.689528715457356,-0.2407775776429517,1.2552358181895873
1.4219182390778946,2.6920600400332213,0.41708261756336124,0.6422444127964185,4.239502172418233,-2.2774791453261303,-0.047915438047462615,-0.22605078860711697,-0.09052662080693627,1.9834849960969665
-0.7427554019132696,-0.35890295440138875,-0.44273367737698993,0.5113976898994326,1.2904679152956153,1.4494105511862734,-0.26944121270316335,-0.47835384047168156,0.07006890100419694,1.6453626784142181
3.8494863433417787,0.11886577276207655,2.236463387102735,0.5470457698628631,1.4213093448662275,1.7888496366519806,-0.5325909751664827,-0.11847576908490136,1.599319493222263,-3.9660439950705437
-0.6189365068331717,0.516389721602301,-0.17839982512077596,-0.32241526795156183,1.030906318066625,0.30697711670393535,0.10960175532201788,0.5316832076837147,0.7890425058542505,0.3241471938376114
3.460671868796129,1.2436293163537724,2.2074684499649235,0.19947069400578218,3.553824806791427,2.620777526523412,-0.9045142088251702,-1.0017296908226203,1.1369762919030455,-0.9644556339378362
-1.6293125408340399,-0.28761572756187104,-0.512588982254297,0.5079932494995584,-1.0697909172302849,-0.48155151953632436,0.021650977836029324,0.5379085282662377,-1.3288970597594174,0.36056897958929346
1.1278309585667883,0.9869443577453989,-0.35936442994319334,0.4017147698014405,0.8761007453853746,1.6591272193030095,-0.09286241669043324,-1.1459823912039315,1.3860873920623944,2.497061360606829
1.7742865630724156,-0.9008669602558583,2.1262392405690647,0.4744058700745652,0.27848843902105624,0.7690709484464057,-0.2486923298133551,-0.7055678056972474,1.6167325346912786,0.7906227246528709
0.697825489250401,2.28057900740722,0.15071872276910445,0.3868939145883023,2.4466535789884643,0.3736681720398204,-0.3175738343636257,-0.7924754027701103,-1.6783707516677961,0.4680218666382141
0.6803797805963744,-0.5951058441664892,-0.7707970812306323,-0.6125824323416005,0.10651552290124933,-0.20695417805304972,-0.6227834572461515,-0.3488525583902262,-0.2660778380956911,-0.7441774493571425
0.9149728815850328,0.5293675737569581,0.9258337601889346,1.0395246029744212,2.909041302967752,2.287170216056238,-0.6451109701900019,-0.33026134708172755,3.086004804479706,-1.2934075055733372
-0.9511843547299742,-0.9479212888367079,0.5246345709363395,-0.07717388119114936,-1.5351646784366348,2.043422822023835,-0.5001485634870172,-0.40340554602828016,0.2968770825549581,-0.9573134940350139
-1.133338271040617,1.9260652109446377,0.6234600612418584,0.15937491170124166,-1.111714285245091,0.23209904624181565,-0.12336467392061715,1.4117847286818688,-0.8884385469503367,1.1574323237900666
1.2770044346266736,1.3835800763467812,1.0673792511227596,0.5037244737693872,2.388989907119528,0.42371228904328884,0.015335445211142197,-0.4025715477209641,-0.13882252661808522,0.11508708458557236
3.2820030715685022,2.8086903408867285,1.2743280132950336,0.7664227894423584,4.474163979097654,2.221968646900706,-0.22160396624575346,-1.3116101656641572,0.7428539985911066,0.013562508321233674
3.265467495779389,1.3894176997873777,2.8967825574752717,0.6218126447274478,5.042018885599296,3.999206571634759,-0.5765873379787865,-1.2665458862663446,2.328157821647948,-0.03192466813851103
4.151568506468319,-0.3084272071355172,1.3746087973579528,0.28019313945487967,0.5925880033155471,0.3947168373618175,-0.6760946019542707,-1.0364050842212575,1.509588160024871,-1.1665727943585587
-0.05152171540344373,0.7061855671884669,-0.3458463996399481,0.028066614150927097,2.490157119820879,0.4999001385012418,-0.2529391119978423,-1.33251941053864,-0.19718757614617927,-0.431260266963069
-0.9086988059466504,0.36346749203092155,0.23106372482373091,0.34825456873117794,1.1784376860247114,0.1543711872780065,-0.06405595516336908,-0.658695565866737,-0.1310273779103195,-0.378440952733958
-2.0815726221734936,3.097385844816227,-1.9202929823979753,-0.6377198789628837,-0.6659484906321023,-1.3268373484853475,0.0005019019655516476,0.49217558785942334,-0.7953330990159488,-0.7648531313751863
2.9547382704677734,-0.6498952905075436,0.9966219557630108,0.21836367664447032,-0.10604425135986029,2.2588867248267563,-0.9678018936336068,-0.994385468868609,0.35215120624230223,-2.258124182919833
1.177449606591036,2.7348872552226786,0.02082841871006191,-0.28130475718770115,3.1709743784782405,0.7197689530854822,-0.11868325692924293,1.156995631504009,-1.5957184152266528,-0.19597306910947548
-1.9769136114038113,0.030811219751966767,-0.32035011649881673,-0.5072159006142525,0.3943085617996747,1.1895694175424925,0.40953141681348293,0.4386522486680748,-1.889408285405735,2.240498437207922
4.138166858902195,2.5181696878969273,1.2177053720888746,0.6416567577947646,5.646163465736708,2.117260779435939,-0.601509895507698,-2.0798165590279187,1.5961210655149158,-3.3379460241540073
1.7413375814541803,-0.052294784473562395,1.908929227986374,0.2558550397302393,1.586427541665384,-0.4350872571792964,0.12523906028690093,-0.16528465514550758,2.09207639827313,-0.33068924853449144
1.0172165920690897,2.741262765154165,0.30375171098650705,0.13686519391194202,2.9577251286401536,0.2553477350433382,0.06780132034024124,-1.5068530781920784,1.1348702134892306,-2.028062446566819
5.206858903844013,2.5654716742362185,2.460618867710302,0.4851584311327472,7.381207517450142,6.268267047199952,-0.7209416434984804,-1.6438591374943279,1.044185169115487,-2.289566455202304
1.8042749330572938,2.7833951046634455,2.1332832584354375,0.33210476354633317,4.884123530817835,3.217587956397004,-0.8737041291247181,-1.9515070952171159,1.2665219770763343,-0.8952267162288317
1.053657476780429,0.946009456029909,0.9926330534874473,0.6018517282741839,3.3582565274483676,0.3083295171375201,-0.19679492228351747,-0.05668196311772344,1.1248599626896592,-0.6102942050763246
4.049007372571455,3.007225136068522,2.549088030132996,1.1995664826711963,7.214507533970769,2.017857924066814,-0.21900257780085686,-0.878988034621751,2.1741043098746986,-3.2640000498247965
4.422462490151981,0.3512930821264708,2.8724047962483783,0.9917795450900971,0.8675602855128925,1.8073128728908383,-0.46552041052153165,-0.29293102934685655,4.074829724467997,-1.9723595130488494
1.856105303809793,0.31055847927678437,1.2539799238998004,0.5932446964538753,2.0014354131269694,2.8237727854026096,-0.8029761997022301,-1.3686623673523888,-1.1616011011760001,-1.6690335174354232
-1.1377319798124874,-0.0038664860897721365,-1.3902109428925213,-0.3494400255530997,0.7266877348616068,0.38654025198604336,-0.258848145907602,-1.2072981167859707,1.1618107083309737,-0.7724243493022275
1.8883901024548988,2.007142625739215,2.753649976017275,0.839359664992669,6.01832993441758,1.1793071392589718,-0.47690292225850767,-2.0771304937054538,1.606640091238085,-0.8030918367779116
2.277603693206759,2.564833978371469,0.031579354958271626,-0.12943622519509587,3.279703493073759,-0.2749459996411441,-0.47337348505738996,-1.3928453641100447,-1.2980273170381689,-1.6772285085324639
4.132371913824352,0.3136067065532355,2.164841440919677,0.5621266193918062,3.311843267773413,1.8645290569930424,-0.4506343324437873,-0.8980159119867716,1.8232438258877695,-2.5860892124191537
1.9975820341619575,1.255936231141971,0.9725016712548612,0.31247649329555793,1.53821132363829,1.6566624898413695,-0.5326639465840454,-0.8464623252026781,0.01596127001523806,0.13591264346977172
-0.3046665868035284,1.4764979400069054,-0.006002394435596079,0.003340542534078969,1.9967165447844724,-0.060808895376468886,-0.15821080801093595,0.3178889400430407,0.38879455620644365,0.6491827710113365
1.4212030017260295,1.4894429309607466,0.4756397626759395,0.3050959196994461,1.5107031918011167,1.9554852478334361,-0.42152726591372947,0.10403549534948912,-1.3062800894121833,-1.2032152741160662
0.8442710868110641,2.167079177704133,-0.29734863680351836,-0.05245122014091258,2.9256078013319224,1.0834540093211025,0.18744933438869657,-0.9007096673025018,1.1864794860217063,-0.13756260737097567
4.365533730837453,-0.3291474432201019,2.229078523644537,1.130036988988649,2.422452111515214,3.808332920937175,-1.0823477471681853,-0.7382787227251726,-0.5716615206838918,-2.2210821443703135
-0.9617736250339491,-0.9926773886723659,0.42124317775010384,-0.07212183689038491,-0.22808340257998427,1.7438159446100574,-0.5526388083719632,-0.09750220617310554,-0.04885943193481784,1.2532954845147866
0.8189721149841259,0.07303622142254707,1.6929729372127718,0.6623107686768274,2.096978802356776,3.516465922166219,-0.3212940307626925,-0.8580156866682505,-1.3513389030373335,-1.337000257718658
2.925225802907894,2.1676685018092354,1.4229611544922902,0.1946523453877365,3.7339310744111893,3.0538636070314773,-0.33928824979915256,-1.632240557302976,-1.2675367324748243,-2.4880569908874715
3.5601636483491776,-0.5650354593985736,2.217080644155791,1.1335400464750445,3.009935158468618,-0.17946306638688414,-0.3926347386910908,-0.5691105890882969,1.7121548018798896,-1.5607750517360897
2.750688294652461,2.9903714786033557,1.6820561986437452,0.39161023812507023,6.650583563779808,2.5799529852514786,-0.2046881845252704,-1.246655332001,4.389277407844801,-1.111104321565165
1.312785079336387,-0.6302740525881136,0.9161663330618426,0.30111166011574225,-0.4983730646782807,-0.7811993664222675,-0.009433617205362675,-1.0075744124153738,0.8648558955487043,1.0950604186055868
0.7774479326057884,0.08024876748007137,-0.7600561024639216,-0.07929609278076806,0.5591289197864012,-0.2903260175056365,0.000654955319379495,0.25739461602236374,-0.7031419467617958,-0.5436275082277879
1.9185505155876335,0.9324233581725725,0.27499965012763794,0.14658135124623634,2.2550206645571214,-0.6395287867050663,-0.19075941266763613,0.3597285018568469,-1.0324296271595792,-0.6872767722252124
-0.6677097925916521,2.779719179243909,0.7989067892072701,0.9158909355000961,2.8892220080769584,1.7008795821925313,-0.046038196137780533,-0.21777022939396906,0.11481892809335548,1.666977869610801
2.020522606551752,2.0794235023970358,2.046496708649958,0.7940783606668715,3.1878722313338215,5.007114400646714,-0.706715269528565,-1.772400528978147,2.3169104023090212,-0.12481453214610093
0.9944032067848596,3.296105175389491,2.106597919743415,0.675530743662939,6.190570997884869,2.932972823236674,-0.7108521686110107,-1.542239196596234,1.9506003426508516,-1.9568627087604744
2.4035635614954,3.4518573369373104,1.3151532898644025,0.40738030408040016,4.1728738466817035,3.7595934078316366,-1.4487695621305843,-1.6864201523342377,0.3934589248303769,1.2972923727106387
-0.03144004088887971,2.2159221712678105,-0.21556901212250737,0.2279045999849825,0.37255746030926096,-0.18617125390715145,0.055581031268757804,0.12718609254203467,-0.32804834486383183,-0.07002871008748231
0.641334838658085,1.8526243386725345,0.23343468106619875,-0.029286525266893314,4.022525959561365,1.0938752488388053,-0.24440053098786887,-0.9188327274977318,-2.68142411363558,1.8525474593944815
0.7766726626282261,1.4836803278363053,0.6880217488452272,0.0649025674045642,1.7061176802876439,1.7099929404585343,-1.22901579015108,-0.8716422886496668,1.1462087310153404,1.4321427040732777
4.57811254103387,0.6271168418318751,1.8426233487128607,0.8592073860233979,4.551235064793014,4.460088356821191,-1.15753991023508,-1.7712944478351305,0.4102716203004172,-0.4740355697708265
1.5047390458843228,-0.3936693179074193,1.01739677394256,0.5828426650474171,0.03222236407376439,0.1130705329332315,-0.1758564962774926,0.8159668928312519,1.0401007955495853,-0.12101805871598188
0.9502908943852899,1.80199607927069,-0.35371440702238455,-0.44113172168164233,2.5184070536007153,1.795544578412582,-0.6467122224018946,-1.9439636574337977,1.80779041610541,-3.1816143588833135
3.5048927119002538,-0.25864681815190316,2.224002493757147,-0.09917033694004652,4.375007420611388,3.163656943365047,-0.9282403055320144,-1.9243240891873665,2.782905932544748,-0.46452414569585615
1.515455347206888,-0.11941618498774809,1.1701288523302125,0.5946381176358899,1.9138379728897654,1.3554710474656289,-0.26803671141145924,-1.8886511553248135,1.8321269759345868,-1.1513398879632055
2.5848381911547134,2.4099482269584893,3.374327543178517,1.4589143142008416,4.684446820273857,2.5879973584402154,-0.708487721700236,-1.1372745393674113,-0.5403384777070355,-1.7931609833667033
1.7988601935136972,2.673662995346829,1.3767137603097253,-0.20712368444858578,4.873696731543785,1.2295587486575486,-0.603305663915883,-0.6014793720402078,0.8066518872991542,-0.09877306694410744
6.29527192891378,-0.7468284978097619,2.7491780245954334,1.3374599687327215,2.57651630743854,1.738951180147588,-0.5912285867776619,-1.9746881070918265,2.6210876602482847,-3.6738409337094193
3.0080882376954268,-0.7003775759319395,1.0567423296973122,0.3277928020778458,1.4851048630600372,0.8338825201764765,-0.3422613689391074,-2.1904336232931234,-1.3794938970683612,-0.42189309306599454
-0.48774633555553176,2.3925373562501044,-0.0017996593773897092,0.8353533703343654,1.0959989670563184,0.6490482184975149,0.5389476494839383,0.08824070370620092,0.9655340035394717,-0.19981575873271287
0.579928357824861,1.1578412219938023,-0.3689288859151176,-0.7342797519879475,1.4828954077195182,2.9027035390271143,-0.7509617810185756,-1.155277244657335,0.4357319229262554,-0.5337870538248821
0.5543738222294008,0.5626432049357979,1.7147024240298465,0.551205597271618,1.6618079368127088,3.464242200691307,-0.8048843618703561,-0.5455977511434574,1.1482814129402164,0.055018209219382316
0.9637963743702428,0.12180062890736076,-0.04856711339789699,-0.30657562889839535,0.06203385086390466,-1.6987977561115173,-0.11485403643139298,0.9655313325947056,-1.820067535960126,-1.573356963275615
4.111085739437305,-0.7906164714787298,3.1909595329111227,1.6603028074152661,2.7181170859425166,3.481777719121509,-0.8120726611758005,-1.8069409682592397,0.3806716696687069,-2.2189183132070527
0.8842983082962576,1.5912510920592058,0.21663403927325878,0.3558836398056711,3.2315318711613576,2.581830695872109,-0.4434788555890399,-1.525941999618126,-1.6148599229131997,0.125127102358529
6.922269184126655,0.5599562500014188,3.7926255364333894,1.5902545508251102,5.702319394710847,4.3508438524402555,-0.6580535654031464,-1.6679091932872714,3.4460848483361453,-3.8167845468457666
1.2244127240980922,2.029297881152648,1.7969482619061832,0.8120677102327342,4.248660862539083,2.600625482005578,-0.7565489946245645,-0.6712453479193569,2.729724130099135,-1.10867914053472
4.202964059194906,2.122926219129611,0.4218952574985223,0.3705959834870449,3.9624104494092265,2.8137720929213272,-0.7093389716627254,-0.9030030370361799,3.259674661931303,-0.6146166933757845
-0.32021678168795326,3.2741409875113874,0.26731180271233446,-0.49412980208051704,4.160784869722832,1.3864141037040167,0.07733978954775333,-0.6045882040636201,0.19630738575237122,-0.516464918280592
2.8466544091042905,-0.9900705331196407,1.3361603402911366,0.7509551233354548,1.4645165019735007,4.648690445681001,-0.46867569847899615,-1.7628527852933906,-1.6990770036668548,0.9312657182132386
2.9740579103061786,0.5289213094073872,1.8447250593914493,0.8918182415677367,4.306962749420318,3.253684062017464,-0.779860525962785,-2.0953190762298597,0.16040807993677775,-1.2723093288078384
-0.12034650654478188,0.0725842404116066,0.7131325751416949,0.9569978073621007,0.641824995227635,2.177947510755937,-0.5386024592751009,-1.0629603230546554,0.7169844053660845,-0.9702459891954969
3.5333761726599917,1.3295976180246583,2.190450064278684,0.9853744473624532,5.185410375775335,3.605614282594334,-0.8760325983917321,-1.4618552068885649,0.5718023927372908,-0.20760571280428433
4.53596842395583,1.7471385263237291,1.2302971241592755,-0.6156235342997317,3.059945830060971,1.4932529824116154,-0.9142797385948283,-1.3919832794545814,1.5351347387886822,-1.4185672777700982
2.2970399680697686,2.693562030153383,0.3100307517253568,-0.09528856153515392,3.0101433452315742,-0.8061316980772943,-0.4460944910390676,-1.1107463972094271,2.2537398627782608,-1.3803188463393092
3.642467928077632,-0.40986060556438864,3.4428864338567413,1.317315909344218,3.962568167891127,4.481434765550835,-0.7865641265940946,-2.325089512586581,1.5052990818420156,-2.7558287782029094
3.092427105018173,3.1188503164543393,1.6573082988142553,0.6083573018670589,4.364894210832034,0.4979550723955286,-0.4838503544253427,-1.4538472375750577,2.801997405802468,-1.2848558818035136
-0.49174291120675206,0.9949403646627961,0.46596786680646957,0.34572480048400506,1.1703819453901654,2.0049692619759014,0.3462981890158128,0.0467252913891087,-0.38377614730214366,0.6308060987448323
-0.9790266466431726,2.7760985609375397,0.20318870971507838,-0.20919826903383304,1.2046095548522775,-0.7377122140166463,0.026718707496743037,0.26638164241063855,-0.7655674960966866,0.9779083273254724
0.6387164544075461,2.2273824985041557,0.41063078493496485,-0.3459178818117226,-0.3245114845537128,-0.9752187659497848,0.45511077170688785,-0.24166199150535952,-0.586279338995888,1.8094043873389558
-1.3678880413141528,2.0014972960402004,0.5875967713248966,0.029290820878833085,2.345738145685253,0.47745066207339104,-0.21608781367775154,0.20732388153404996,-1.7459255911032365,0.49962829541912257
2.5861819605990988,-0.48349572440940647,-0.01831602669514825,-0.06543913380045205,2.997779077368423,0.5264026493505368,-0.4681868739621635,-0.39836238496024523,-0.027634074932970015,1.11960163464565
0.2624859128454012,0.37959873631759145,-1.0194881559159528,-0.2905516702380051,0.10583363232793808,-1.8683156569078474,0.5106262475975567,0.3493567863723632,-0.005583627394414981,-0.763627132923227
-2.4834293973855304,0.36680405850448183,-0.4354190259325224,0.10878272044758622,-2.323836267130406,0.34565678670996747,-0.023077832547290737,-1.5187153278838663,-0.4776785869943472,1.9277018353973117
1.250852893254632,2.392645855621378,1.1571479287086002,1.160399942291576,2.4637333911451638,-0.9069493775678521,0.17518102316910988,-0.05498589625578962,-1.4865566341790255,-0.8615670530182108
-0.5858087977925013,2.815072688656415,1.077854675531283,0.05280264481971286,1.458532592882606,1.6411353733174547,-0.683445473911947,-0.5835749934320514,-2.1891714361054406,0.4928668958435927
0.7841336977019279,0.7804467757665132,0.45360695545483026,-0.5471719960235033,3.61188166056421,3.0107901815155333,-0.05063079909047582,-0.6967924202874368,0.4183402792452143,1.0217631618376164
-2.1618738396335737,2.215868569336786,-1.5990147486062811,-0.03716593057531899,-0.1258793409430803,0.11669131802946953,0.35473347416766154,1.4163466576763895,-1.2840417223933265,0.22547451537337213
0.77140759577268,-0.8782077459711829,0.8991023612210853,0.4251842822847778,1.7482769447347584,-0.5478121124732964,-0.29099355499505447,-0.4435261887391671,-0.04618237835594041,-0.1122618701221583
4.865501398705627,0.6063894141016535,2.6964173710303965,0.9700483774000256,5.349900268294684,3.4546065414044373,-0.5506289824624212,-1.3783869327246812,1.4606963436511609,-2.2481387434761864
-1.7078762738588544,-0.6881634497636457,-0.24285224764809396,0.1656229384884244,0.6710717814327892,0.6538728798107093,-0.12763003523819633,0.7068782590575983,-0.31423123994951846,0.6639605746530463
1.2381070763899056,1.4161071746709237,0.7826668191130852,0.5083422640082085,2.1462077436181795,0.20278623756368047,-0.42339458597525764,1.1018068541301758,0.36911177172536713,0.27082133846564693
2.6619117898837823,-0.8166867860697106,2.513535995151177,1.1160391392917346,3.7583755238072114,3.054629513488509,-0.7837392556786961,-1.4793502980407358,0.23142686727438178,-0.6988307845254728
-0.5370745980099519,-0.7226681616212458,0.8778876647139285,1.2819929743550547,0.5753893133391331,1.340651242561028,0.037992146844125795,-0.15853691722250238,-0.9378684395386696,0.8171753804002434
0.33364416710524936,0.38406017177464036,1.2961448805028857,0.4795621909962829,2.1895994105841594,0.8287533444673278,-1.0107689920804135,-1.8780170988770886,1.6287861156370396,-0.9352856151713771
