x1,x2,x3,x4,x5,y1,y2,y3,y4,y5
0.7167484936320144,2.004089348633935,3.033736220113754,0.8467304377582223,1.8430788080600795,-0.6963413769568267,-0.67285000055345,3.340393444376567,0.731080826747212,2.8477311349327126
1.0231109928638422,0.5152424342713098,0.3074203149073247,1.5586028968804997,0.5170977159530458,1.7022207766252935,0.18158918848363959,-2.070554989761975,-0.513725137701073,-0.8037261029972952
1.6043078995479714,0.4277506358357169,-0.39232304283781994,1.9081080890925672,-0.34752098667474907,1.4309955942597699,0.3519889628373409,1.325531688733896,1.2370379660871014,3.828356361090089
0.7600224543511982,0.11682664252034346,-0.6210643326212739,1.302575399328785,-0.7540167151727761,-0.04130015870748882,-0.11444214837821376,-0.3103301925770855,-0.0597770008023277,0.7786659481883875
0.5740158709035719,0.649666640668863,0.6314891500057573,1.4140541863033176,0.23517103740593365,0.3942142771012501,0.005806545160533476,1.7731218881054671,1.4234614368094072,1.261383088630951
-0.5501451448359819,0.07026616443248687,-0.6215597380223228,1.3240271112336364,0.2350043116262568,0.3314435077424175,-0.2340703910139416,2.3192358641146016,1.3988912636462847,2.3018951206524174
0.06421051742503917,0.39988945949064203,1.9898821457571687,-0.10975155780249679,0.9513817186958948,1.4560668683563731,0.008474029415344126,1.3776084760281764,0.7963046411949729,1.3917660299176184
0.23537058099543914,0.8145717587790166,2.6277136466000104,0.20801785704083578,1.5074544748103444,0.9490776219423006,0.29975298712437587,2.0986150202120015,1.331326699253573,4.948946770871501
1.144890231309059,1.1052486974071023,1.309747698891861,1.770043150501154,1.0085387173957656,2.027102619826798,0.6439720293195929,2.26248613840052,0.46106468801575995,2.7462958260734673
0.8281334234149248,2.1051507319065808,2.788248839439811,0.4383909226171361,1.1576588576406082,2.8467002098144274,1.0369287688610442,-0.09113839919659456,-0.41853678344445083,-0.671780003455114
1.4875868797588203,1.5031233376867215,2.4062226533965307,1.6269587366663987,2.0141689920624692,4.138476102911666,0.9443872892395669,2.750406942216598,1.1552164641179377,2.634749108736576
-0.4891838071629827,-0.2947190333851769,0.3998658189092057,0.4432522579599094,1.0440446246647062,1.082675570306014,0.044273227704543124,3.0235848001597385,1.4880690265247936,2.774714629296362
0.9743254022637,1.071044718994672,2.7044322385186925,1.3397691153281,2.3176664953605806,2.589977952249117,0.43457231999319784,3.380760799483846,1.0575280113293362,3.0752468418526777
-0.5591303863782423,1.8427823517019053,1.5782290882899237,-0.7255124056993851,-0.02421898578772913,1.390765549643038,0.19977274139583817,0.4851216557027509,-0.5835828781165578,-1.4163425436258814
0.40843596394696924,0.0014726490571472062,-0.8402383948865004,2.576124158732329,0.034719081670408825,-0.428227272061092,0.3094683549846748,2.661968173637999,0.13657371860250725,1.909147379979422
0.8327850906436072,-1.1920717211843284,-0.6110556449928596,-1.1669045179763011,0.08678031629884678,0.8396327676283459,0.2619647621959669,-1.416036457286758,-0.6924787669367869,-0.9969340250461896
0.46023975845871395,-0.6650040953086491,-0.9472518587293249,0.5599337598609994,-0.9680209490388618,2.0829224624346505,0.09388822183584948,-0.005058709177345744,-0.2680386233852818,-1.4178198061855032
-0.028083589129845987,-0.24529455447125154,1.4210067011431957,-1.0957041319433645,1.8716436885402379,-0.5785151719017652,-0.36292171974671705,2.429903715223685,0.7576960977584549,1.9128529305884265
2.198414969660028,1.9506576826068336,2.5177798005566903,1.9013761648290946,0.7455357092678748,1.596587412250978,0.8878644671924196,0.5208433034417077,-0.25588555002473845,0.7697637332334042
0.23827280844434323,0.8412682168073816,2.4444361291651315,-2.1091610378196863,0.7900563934678089,2.208620058280639,0.26717513125897935,-0.7224474511755963,0.9230758388756775,0.7896440817126824
-0.10690605267998926,0.9705833478416012,2.1517884479763825,0.17452267232231802,1.411374011484028,-0.38787363290217125,-0.38548928392134946,3.7453622176969743,2.134844937542792,4.724374188184215
0.9773556480751292,0.023128193628428856,-0.3994083354799103,2.1044511264311936,0.8955905691421695,1.6342905209187224,0.6471124909284598,2.729919366818434,1.0835490166781634,3.3030048054926695
0.5201306073476061,-0.5444069384650461,-0.25194752663365105,0.5238350289387848,0.02500754853378717,2.974558359223707,0.05415370537042786,-1.1704695679654422,0.24419053705247495,0.524577417760849
0.5536874227496679,0.9173283174058126,2.4796887616170618,-1.993992876408651,1.7681853996346066,3.3583049891872996,0.2237146785550359,2.711126737902497,1.4979928580844069,3.3339254747900244
0.7221583621712707,1.3875968946718615,2.69544947612902,2.764294779371617,2.2041065166704152,2.1017237616330977,0.23261421111504937,1.6858134599289807,1.0658551775944187,2.6783781316582154
1.2197279429017396,1.2206558530192144,2.641178682170082,3.0782181440206875,1.5038041259071302,3.3402509479324762,0.6814469408805511,3.8757377758745473,1.1067595905168381,2.875067316291574
-0.004986928137475647,-0.8606954098178874,0.7247062804366917,-0.6845722552707612,0.9003930636996563,1.6194514228205896,0.23655206389489564,0.3755558204895115,0.5780967848944434,1.9406618166946872
1.2104337879419078,0.0979794247014221,0.139812372182069,1.5653988150745293,0.13501958243739873,2.838303274140319,0.2520953285531198,0.9905950570101759,0.1707537490541957,1.2081926752919852
1.5396166220179408,1.6336994579197786,1.5127265781941968,0.8669579303785804,0.37072301316845535,2.1498948211852325,0.5170322956791066,0.13991211917157384,-0.7603365904384602,-0.5735248366083788
1.3065214391574955,1.4687126558987236,1.1656628631113417,1.4719998113367976,1.0001430915729932,4.40039248262097,0.8317781267784465,0.5849510184818817,0.46910559837540583,2.326755037827708
0.5152354499931902,2.076772586305225,3.433384722072099,0.40926278156186163,2.257046324845442,0.10629087855736269,0.21945813340259968,1.316708934384882,1.4308237372889485,1.0713096065117107
0.2904623091960756,1.6422049436105952,1.2259592426134374,-0.47320526917432393,1.8705577027717442,4.433320030781877,0.2911772294586321,2.662300079726568,1.3210830649996343,3.212100515794749
0.4458907382704797,1.5317599676704243,2.8178777027389557,-0.38345766452610813,2.4346962890494552,2.1978492132190706,0.42708399600552377,0.3766317688185865,0.4899629469273148,2.4059919128124014
0.38354356954638696,0.9650897479748144,3.2886426551281778,1.7937431733101359,1.8638947609181546,-0.28670010168937354,0.4631061116048048,4.012040512130305,1.226463711276305,2.3475524363146474
0.18639469826378652,-0.15038750071289986,-0.473140958038509,0.47226209899398824,0.7084233223044516,1.7162599905863671,0.5103720680960743,1.515245449243098,0.6978397235490812,0.7442628002401837
0.1502361693975467,-0.4215823330358184,0.22971117401115748,0.96047425180701,1.0814523666553142,-0.01430303495980878,0.6360695511510503,1.966800642324782,1.6659211130359723,2.6049130703622203
1.8666737744636683,1.1620176358829684,2.6387291381449325,0.9366908523765046,1.9704876155565056,1.554780001202092,0.6095865595303442,0.8993207244922521,-0.4545943300937786,-1.7498022805144324
1.8042155817679797,-0.6594184404146535,-0.7602159441595335,0.28037890499105855,-1.3921346577045766,3.4939261838755415,0.4638156284894373,-0.7719352572503945,-0.5167396192965229,-1.0036601837908041
0.019737696034897976,1.8838905800529608,2.268692128989265,1.353035090251693,1.3599891987943504,0.28809782214241453,0.13359429005508833,2.4405130251032685,0.009013939244417074,0.39717029246769137
1.1218405324092273,2.31500447189394,3.0432973634295832,1.4982969856083965,1.9290537904212686,4.13582334984766,0.3391690769332489,3.3174020891503164,0.7536005611570767,2.1723721161306413
0.8062183002237407,1.5139491314843843,1.982427423012422,1.1258858517972932,1.972512128352269,1.4361160926023848,0.06859651965954645,2.8621119467741982,1.317684866998325,2.3208569501494525
1.1824215054114249,1.8432304228334515,2.582478269122609,2.245524167144599,1.502248492885873,2.4599447966474406,0.45972336279498843,2.5769699133551325,0.44660546411531704,0.16577100984063928
1.1749914698568151,0.18038416413321273,0.12710051245164156,1.6914391555848258,0.25269335206005417,2.106906119026552,0.5398809690026939,0.528917403560881,0.2769163630033043,-2.592674539510308
0.010571428837324913,0.6517345733247846,0.18589438895746468,-1.05126662865663,0.7161866562374666,1.1423358081341806,-0.07280806529939844,1.8268351560748144,1.2018275085627652,0.35796602127171284
1.1223891500124745,1.4029847977041034,1.1714426811013476,1.7639953622712239,1.2135365490311867,3.057306005688145,0.44906294589185003,0.45080095098817696,0.8318962769498124,2.959345230735457
1.3874343259367319,0.9967800930170837,2.877118131966155,-1.6752095743195254,1.3698744879240763,0.8891480657546358,0.4525051000360095,3.5018405127921284,1.3502270977298825,2.7090518171060456
0.6110630535368231,0.18973487425614702,-0.6088957375775002,-0.06921941968933282,0.2984420800612134,2.355505610238292,0.5701447997322996,0.5234321232581447,0.45900370810351887,0.9309985432437708
1.3900376678626916,1.50698714230791,2.7979621687977345,0.3718882798581889,1.1332911808069188,-0.26511732891362205,0.24876494305717087,2.002126706655761,1.0254223909677749,3.159077060894036
2.085555894694906,1.050060407333003,1.4209746041797935,1.566658815418971,0.4826366650986804,3.5417566111848595,0.8475880279502921,1.2443075578471106,0.7761199335043457,-1.3525542666290216
-0.24125301300316504,2.261423994171012,1.8608415616160574,1.0190291222481533,0.4699635427805203,-1.6786577455700535,-0.08068709730298439,0.2102442549820519,-0.3758130698864873,-0.9636953727698478
-0.07902183167594726,1.4492553639677233,0.570834558723919,0.3977631452433824,-0.02972737928946717,0.44044208661382567,0.0921899488383994,5.792270571376332,1.263843598006233,2.154592544142564
0.5821919196914074,-0.053717051783173285,0.5893949254101087,0.15984508655306207,0.46204745847675016,1.9924023899342829,0.24027188618169032,0.08748004982773061,0.27979974819109266,0.5980923062563693
-0.03883074872474486,-0.41340220996363053,-0.6044170876316344,-0.785930316458865,0.41422665703143907,0.8007567764973913,-0.09429009398583202,1.3250313464731232,-0.34951855780009444,0.7438261136546115
-0.20712046753921431,1.01082591613698,0.4575687160085351,-0.05206664183446222,0.6718760155836421,-0.8851888979364692,-0.15645778435087987,-0.8493674010701876,-0.6496296596163883,-1.388942732873325
1.11879603628486,1.3618856701303996,1.8132667558821476,-0.645527384005649,1.0454722948319983,1.6193110096162517,0.8719234269313338,0.3431951957216523,0.44937524565391646,-0.7313234104795217
-0.4579015485445719,0.9708567286826442,1.341101879897658,0.596688017774122,1.6352743741067004,0.06436883424506878,-0.04960376764438281,1.2468330489165889,0.6928896325480125,2.0214664011375847
1.2386562581346074,0.18572746471928217,1.3137292840719876,0.9010403032039497,0.7726365401342585,2.6854582867892,0.7907727188365754,-0.31926577195557637,0.12705903020792517,-0.18061489368653058
1.2857086550466463,1.0586874852645132,2.5512656745740108,0.8179419857058579,1.1013340023328788,3.5711839182769145,0.6342603472800338,1.7266607311298539,-0.4454446237974371,1.108236569579033
-0.6067860935268733,1.565916909347027,2.760956474275716,-0.8674560061334774,1.2060361716388714,0.39991542542801306,-0.43168874636358184,1.5667519440140873,1.0051745865705861,1.2464980118678457
-0.17177756868458285,1.1890565390798864,-0.10747014961611101,0.4149758631038614,-0.732410403464425,1.1722686877993713,0.0348179078607354,0.2192850366600123,0.36385614039580577,-0.8636838415780385
0.7922337482588185,0.6708962475621001,1.1274191357480823,1.2289068281348399,0.2949623111800401,2.8165407596575265,0.3532339947481384,0.16754711841367664,0.832918376477952,0.6879434029896374
0.6120514929987124,0.6763893687851892,1.4624507201070203,1.6748203280151017,0.9876901624651816,1.6435347762684787,0.27695693930288184,2.8410479866997393,1.8273526538074865,4.317381134984862
0.0961952484700871,0.811196650805861,1.0967038346947628,2.054686733951042,0.9775239879484028,1.6594474345746746,-0.47837713971394485,1.004806319234961,0.8069587240806605,3.763325863116758
0.7188578780332487,-1.1046228920347323,-0.5374734189029625,2.49911286057011,0.738956239329513,2.0247477524207795,-0.20391351903564273,2.375967409126639,1.2580943070758412,3.1624473877410684
0.5076983300882926,1.6314020967453047,2.89840049591478,2.975824504312732,1.926784861934085,2.064115166250244,0.1602224907271083,3.989763512448878,0.8799388771386312,3.8826714153736686
-0.2083915890023458,0.5228000448065718,0.2431249443588952,1.3836014689667524,0.9770859735925808,-0.6743323768856306,-0.21912301007874815,1.6661255256009198,0.9021565107991498,3.564953366967787
-0.5332264977260425,0.2427613914591164,0.45856470463165633,0.15081612021687124,0.05267546316229155,0.2681644142354941,0.25015009814834693,0.37101848535593535,0.4058246386780696,-1.8683271141387365
0.660325317750078,-0.43124629652914803,0.6265472732922972,0.9344719668758326,1.752908036436342,2.341052014129098,0.12001784418222292,2.4647182270594055,1.228886610639912,5.920151889971127
-0.02930622154362805,0.20677882717828033,-0.08058566019521407,1.1150685021113027,0.98479231552808,1.7559013527017986,-0.005042871754589106,1.9620982864794219,0.17127245606746322,2.4654667050314982
-0.6461280828608265,-0.6592253201030245,0.30844008225715247,-0.6218131541192968,0.462000815575513,1.357717098281348,0.1959683846112784,-0.6033412734014787,0.3119459007266932,1.9916017742249252
0.10916952252706769,0.37734287167209746,-0.6688154544583715,0.5032516432348907,0.08381577119310124,1.2921279528700218,-0.11901820506715365,1.4239983501681264,0.8152982837677082,1.0670527851042546
0.15123687524427012,0.4347079843666598,-0.006366499578646101,-0.49426302445095793,-1.1447561374610489,1.5242996897834384,0.01549021241731023,-1.254816014590089,-0.6465540649591736,-1.8257299914826932
1.7403650212456996,0.676390136122286,1.6891086358236969,0.5976813707518215,1.222545179370923,4.086213161617775,0.24848568146682357,2.731240349674627,1.3087158184710563,1.515303933874717
0.4661942940228878,0.8730877991621693,0.24804252891961598,-0.6082666416963467,1.156613281184335,0.9765646792645319,0.3134942520864603,2.111820206550546,0.25853855714709956,2.295761204569697
0.8633423128691625,0.6264190935681071,2.267710341176646,2.0781190412509036,1.8207686346318495,2.893225075894679,0.33598374380233903,3.0375798046542406,1.7788737311722296,1.0205515828592493
-1.1967718436531787,-0.8329148156801062,-0.6485055881055981,0.008461268687515566,-0.013848183904956152,0.782545852610997,-0.0034868717923465203,1.1790761464545536,-0.27043176063609975,-0.5336545833527866
-0.4353962972230284,0.3830738362140692,2.427698904599976,0.1177277678457695,0.23236282100697156,0.6093753679158974,-0.3590706914966892,-0.3388941947363356,-0.7822867512466413,-0.9220162160966285
-0.19856183122651533,0.9113987179171704,2.4835911384006955,0.5410852198212928,2.061414424297256,0.3522225202098849,0.027467564123179713,1.0462400489184729,0.16531296510294047,1.6296077066164447
-0.18776451987766965,1.5076274916199304,2.0041106059026674,1.80391468127355,1.8943796479072454,-1.1146398383215659,-0.2829339328263431,2.3519918892064884,0.6901370457065614,2.575607437102922
-0.39625010748134115,0.5422900957887857,1.5028415937275246,0.11448361473340624,-0.09650781780622672,-0.11831497807731486,0.04078367895344939,0.8080658602628885,0.08514554976611728,-0.4249504721359622
0.8288697285851434,1.3820679254907258,1.6786146812649312,2.4683825487916704,0.7773997250389124,0.7763636458157732,0.0010481096864141538,0.017465631085401223,0.20905499451614676,-2.5068744242530157
-0.15306074920408191,0.1904042415776841,-0.18692968823416833,0.07429226814711981,0.6496576590340466,-1.4974945091134602,-0.253362838594506,3.8097724213144906,1.148469684414579,1.323842410186297
0.48662880834636746,1.410490965868106,2.8388786100892354,0.7905439362707152,1.1208145834569618,0.08986044437295299,0.14041454735234193,-1.5170569974826433,-0.10713136556506822,0.9218047937815737
-0.23452479325490475,0.8070980409961277,2.5907642006981395,0.21119630995153038,1.6718099803202746,-0.2697062743852374,-0.16651147038176653,0.11580963487313634,0.3175892931068767,0.5637757711494393
0.19318507666244142,0.22563364845274203,-0.37017414857873643,-0.9947520140763976,0.43482346237319197,3.828915745249429,0.49942699415920433,-0.5194814993057528,-0.3341199186982679,-0.4795705846350617
-0.40153494863179867,0.8367488533339912,0.2840674689832572,1.9478764312377492,2.413290192313209,0.2803454259696293,-0.6118619388357491,0.03456806085346642,0.3607574305725526,1.7334227502458368
0.3614773412598932,1.4702796506461744,2.456453880014499,1.1780177032641188,1.4199501123882916,0.4514659990921933,-0.38571721995623814,-0.3145691542917892,-0.49246815549504996,-1.5177128980338659
0.23484565779179706,1.1480267021124797,1.9865805021115568,1.7171914724050124,2.0763207356847433,1.0236524683436115,0.010537380070087343,1.0422133885143268,1.591848762671404,2.0187630781040653
1.4007283281379608,-0.589146908426195,-0.04874624448110432,-0.5307391645594759,-0.3957755750826769,1.4491485537528808,0.2607492260368527,-0.4302190092734164,0.03094932223297433,0.43405433191599035
-0.2629963027336973,0.9375360751474803,1.7691630341831495,-0.2118506814520144,0.5548853951739795,1.7806620444256125,-0.046791822657082455,1.196710748236744,-0.04700415003144241,0.5944510125849505
1.2820883791288276,1.9369359166812439,3.3237559339476572,1.0312388934720613,2.325613235051566,2.6692243754320955,0.414937975771206,2.025508942662286,1.131881072368398,3.15948024891722
1.0614373587211168,0.6456794651874723,3.3681714699183223,2.857896983819767,2.450760652943955,3.353815788476753,0.5876162886299668,0.906191805567055,0.9070227523878206,1.0403369707739671
1.7241799824605353,1.6607570113468075,2.184526261607444,1.646634726593817,2.1396209636503793,2.9482027267645763,0.32976244011903244,2.693294689336937,1.9026726148361897,1.502419684292562
1.6396953410022133,-0.9163999346055338,-0.6517596965291241,0.6953805427589289,1.6037814794949548,3.9762730871640732,0.3657326108684114,3.479375485432482,1.334233541045207,3.104556625845986
0.9475272418351812,0.8291355705161962,1.2312473322368835,1.6790690028464454,1.3689803489700334,3.608107430265803,0.6613118748959962,1.0408158432354795,0.6522082472314055,2.765820298891687
0.8192964127874945,1.310108362356176,2.861837695666873,0.2472080975581471,1.4768565014621968,0.19421864881223427,0.19431447977797972,-0.08285748275828642,-0.6126830929607402,0.8051641417577238
1.2029935897553712,0.6854746765344057,0.45560414333645016,0.42503958613357384,-0.4110016897850498,0.5672054751866475,0.47146950203675786,0.10747951571804548,-1.2092998564249695,0.05418871565769627
0.9813974154859062,0.5512729231734039,0.017565874533524317,-0.18769664613463077,-0.38386195725999017,1.9550425767181763,0.7271362335956593,1.554379631533111,-0.13149489683483448,0.800608871174697
0.3707410295607585,0.5499969215178591,0.4418458107369292,0.5759098555936132,0.6844207192710405,2.085743538895721,0.02705361375639963,2.0155788874723806,0.1568046181056302,0.4400504138468762
0.46186056292716576,0.28207723627893977,0.2857265927848385,-0.036001595552654864,0.31101286807129913,2.3348229917326004,0.21435291211374133,-2.320063829804156,-1.446935886034129,-1.9814519196542124
0.8778449315086491,0.41078731833863885,1.3073437010900673,-1.084529864777355,1.2123724827016908,1.1438539301358306,-0.15265302003554812,4.180104551159509,0.941112195438749,3.0717006145848504
0.3722707294622596,1.5066490712645806,2.689966997741848,-0.6447128824839026,1.645544131474767,-0.6233736814975677,-0.11942767127902736,0.33883662880178483,0.16725536446267136,1.0727583474892137
0.027763905312754703,0.456723206319584,0.08149508130891503,-0.5617197176054652,1.2208252298516258,0.5200398342918351,-0.18978039230198251,-0.7725897063814973,-0.5798100397948287,-2.10332021037941
1.5584442942112917,0.5725324170483489,2.1898460304959264,0.8464979448831584,0.6343238900062784,3.930377562486229,0.8106779457580624,0.5176575215674584,0.45509341099880046,1.493774499932967
0.07625946476368688,0.7210596256029782,1.6290292291747113,0.15621226312480746,1.6065443694951562,1.4112774807133928,0.30178259845296407,2.8800913343020844,1.5481361026534461,1.2672028125579042
-0.5055862040725912,0.37396891569512153,3.112608098266847,-0.0299219553417904,2.4463824701570998,-2.0980067674082123,-0.02430418324101838,-0.1467497320972831,-0.10600820252880937,-1.3284689943516061
-0.9913791973676466,-0.32514466843438256,-0.3100551502299729,-1.122489744001975,0.9840794187668265,2.694264764618955,-0.023757142016615468,3.6828173969869287,1.239579810337979,4.427635673428033
0.36221330579865485,-0.4439862243548293,0.10377627170960646,0.7956285645405919,0.2047000432903706,1.2089585117257295,0.1795756915191387,1.4019953074673805,0.6577043918312188,-0.7778732234238316
-0.1362765052478761,0.5579010743307838,0.4663958675902067,2.565032499687478,1.2480523433356554,0.4751911869096198,-0.1553072601871493,5.149967303090515,1.0117832911958788,1.337037573017545
-0.18096286607758974,1.4142845434534526,1.9139393708345445,0.0515410026282668,0.4908861894252664,0.3303558336089889,0.020843781430820343,-2.2145968089810344,-0.7932249413026337,0.4747209556073893
0.7309780611977086,2.025516695033897,2.792869523663614,2.5615660474375166,1.7685509858956276,-1.5514748472296316,-0.226798612140697,1.3822763786223136,0.5354750099665576,0.6669991552522099
1.2054667682843778,0.616374307060782,1.1029925766872588,0.1043046935818274,0.23475737016457127,-0.13243400210380907,0.8019907591218259,0.1505332741241224,0.2756441927197198,0.8366862531576809
1.0814252014840584,1.1444280999793406,2.3120169553368317,1.321524854451099,1.3226643233665145,2.1779851255013716,0.43867589608168867,2.720725108829491,1.6757615759611988,1.477963740860945
-0.7532812040985262,-0.1904508435105286,-0.8767761542572995,1.118640800781889,-0.013524368125034908,0.8878118240857843,0.463948514606159,1.2072205193598955,0.15136208163194687,0.9460705627084833
0.3526813022978582,0.7805481625509066,0.6796469606042863,-1.3908286037874704,0.6275466317972627,0.521620295284289,0.20912968381968963,0.2879130575285877,0.32036795861005235,-2.480326015016519
-0.8252606115108316,1.5716653515273709,1.9877315925402255,1.273893538520159,1.5837441052089443,-0.9672727265498361,0.10009181358181933,1.3282965321326605,1.130818723272446,4.894158512821176
1.0393122341362582,0.5078950941015539,1.6345666003115378,2.015989390126639,-0.05459715619911677,3.8723185365742587,0.7037895560654712,-0.41379295362625323,0.7823927400775832,0.688742303018497
0.2228880128481841,0.87842049756714,3.1597013063535755,-0.1512490671205758,2.2660196957291765,2.329007146907623,0.2781671400818502,4.327789357380916,1.7839900597758165,2.4786864156425406
1.35867367567682,1.5788406520105471,3.394743040929005,-0.18102694325165214,0.8407883792448364,4.5995799781317945,1.0273576093254806,-1.38732225253733,0.3236564779498551,1.6542542701084646
0.8735763121040775,0.6788284422187506,-0.7407920376100247,0.8727078891043247,1.3696257489708437,1.3384518248907746,0.6093917091362278,-0.04825116555224063,-0.6035987806051691,1.6903153612598674
-0.7266550082554373,-0.03630811597752226,-0.41781898612446666,-1.300446339102931,0.18763152411113238,-1.4947349443165296,-0.4998688369054747,1.5816138174709062,0.5133579770253295,2.4357457797391944
0.5507366222438429,0.30845330098776996,0.9517705307595552,1.0502153592139003,1.2187976676228838,1.5138527899290226,0.5208811192104884,1.6672715536062825,1.6127140217251106,2.3201797856227806
0.7928109139000549,1.5950141092658183,2.1329547734983434,1.3900592733444137,0.8682834394376017,3.320572914376821,0.377155522366246,2.7743608724645616,0.955463057908077,1.2966162047015821
0.19400441918176436,0.19760181479066205,-0.08507147123964509,0.9548233000470709,0.7493139924553485,2.266023966926081,0.10771128881567256,1.6098262947796451,-0.32108292633703484,1.0275615424280844
0.3372383246538538,0.8615769395678731,0.8607344609286729,-1.287163779205237,0.48067766518722155,0.09698746856387574,0.08058769320793885,-0.18236834659635248,0.01661963150099817,-0.5144472019967891
-0.37508924239421104,0.915821328094871,0.40843743476875427,0.9883669487528826,1.2644359734011896,-0.10871986820576313,-0.1710858150398356,2.312778316892226,0.7773006674415406,1.5428918575475965
0.13724537947963011,-0.8149338752202865,0.10408189677427582,2.0822303624740934,0.42412136590491534,2.0630084722449396,0.4627396098994122,-0.658711645065508,-0.3846856099511164,0.02320241025193932
-0.17659011974823327,-0.012605535953578455,-0.7544668765352491,0.37445199536339085,-0.0023955110045387196,1.353784682652282,-0.09432805099566287,3.0091486857724465,0.4521454329642415,0.626399938744133
0.16123723487576652,0.44541277236553284,-0.9543364697023815,1.4276257131488677,-0.1803529716388036,1.9791514332844635,0.1576957164754929,3.280183979998571,1.4592305358068247,2.847683174743344
-0.23331248403790347,1.1387733143132932,1.7196264893709854,1.0132225108213129,0.586730658964482,-1.6940201318499688,0.23104671092004211,-0.47416957527215275,-0.8227463182017499,0.0012321173177281316
-0.7297137746776765,1.6565568862844313,3.028292724073853,0.42474400010200236,1.34781151118895,-0.019842740183464214,-0.009516401730455704,0.5664117501750454,0.03278297747166176,1.8049315799673649
-0.2359748257146318,0.4783274874389492,-0.4433690834035159,-0.4740280957825127,1.437293544142876,0.5108766484952011,-0.4650589492169642,2.9669643910771217,1.4083495346797335,2.5620801535184428
0.73179696111417,2.3845152151756936,3.379982821945397,-0.709242393569446,0.9366787048195202,-0.4355082243702748,-0.46060402496584735,0.5407237105588434,-0.14593519145024872,0.3635712012723889
1.161385890302583,0.9376308016986088,0.9501350076245596,-0.4572108234797553,0.3202296066907381,3.1815374963328216,0.3811969767495428,2.7445853048049282,0.5743538325337914,3.4124027615544765
0.6753197897927977,1.0476162477056048,1.1529527843108291,0.9390515065093955,1.0879899936905781,3.2131766894469576,0.7106155896131328,1.971996356395482,0.2164442861028557,2.8270299018131393
-0.4461806384283939,0.16116306024910879,0.52883663802424,0.31257476917112553,0.649567969196231,-2.2305233869275423,-0.23685975303979118,1.413888547684328,1.1169881405749131,1.073875188362477
0.7021409402381509,0.5881280600555503,2.7886571675389704,0.918267547969382,1.9219711996502427,2.8103297879599847,0.23941419422217697,-0.4371432254800731,0.008962529454059166,0.7140201859444456
1.5861737947256007,1.0609471871659808,2.4934117211624174,1.1156447661507867,1.4165654334553202,1.4393198497956046,0.6669895305092349,1.7802158734932187,1.0696989808890078,2.7555063443543206
-0.9612043660645574,0.5034710337141413,0.7637529496050017,-0.5566430102565243,0.8276345984460045,0.5037790183413184,-0.3797397476707635,-0.5271605757362592,0.36308945007063487,1.0589896112270893
0.4540182000088077,1.1956468331323336,2.334036207086814,1.6366419823242286,1.704179067769003,1.121270591651455,0.017589181656551437,1.6869553310481882,0.8471329013532526,0.08393391927460768
-0.4232162634948246,-0.31047216843131065,0.8021791353093246,0.9804201961451113,0.9190687216132044,-1.8227988054153146,-0.12805453312022977,-0.8394177709726772,0.09363021495894293,-1.4629579104798616
0.7046263589852526,0.5656658349211485,0.7907754829522886,0.32903411476079353,1.134844906585557,1.6712534079136887,0.7322086598884369,1.493114614014759,0.41275910983673864,2.3889450519394715
1.138599281150454,0.5721457183939238,0.8633082804818579,0.688089783750429,0.10568566825290537,-0.5467031593502625,0.28149508694030245,1.5868121022919557,-1.1137944405163724,1.34832941607746
0.0977266994351157,0.38008436329184386,0.49191247096627366,0.5567928377170726,1.1390814714083797,1.5686449938475626,0.060791787268153326,2.954681257387857,1.3489838411521649,2.5408400070162798
-0.19484977601938971,2.3149018964270702,3.198868209517948,-0.23413641289677484,1.508349740174952,0.522974715663509,0.053154632182440244,1.9876814019861366,0.5222368186829861,1.342879663997736
1.3936302709708968,0.3725753810115418,-0.8204752057617988,1.2067797417971615,-0.003501173800140825,3.226954655883552,0.6047557246137433,2.9304892658927537,0.337477006667895,0.8257961477233801
0.8751359604474621,0.08239530608917486,-0.36028376198774914,1.4219329443627962,1.8804330467307455,2.5588286715825417,0.3973414485801234,2.6634438358294585,1.4234180972377233,2.666883946597849
-1.070726113288191,1.3989967743572556,2.8668748277163405,0.7785900691475202,1.349582802819318,-1.2450873947663885,0.10357193109939623,2.0943682273463957,0.031075441593227768,0.8252468853911851
-0.32623633424121756,0.9025991418464333,1.3813043987783682,0.6234159149811317,0.8690882327290375,1.5474904869401347,0.47303451627956855,-2.541337366094259,-0.3683079218515794,-1.8077723374045127
-0.9641123723126459,1.5224612380592084,2.3783211438617697,0.7584889514937907,0.7367680186830055,-2.5399059252869174,0.12089769436868451,3.053615117750409,0.5486616351470535,3.771525448494827
-0.32752758538518645,0.005857178030959952,-0.4573451064783185,0.7570537338466045,1.076787661338821,-1.359153657801165,-0.10087102950281467,1.9053017008565771,0.3223635080887246,0.8212469932224223
0.0010506128819498394,2.694747450703575,3.268690015402563,1.5784207717359302,2.8257238929091937,2.2532177802787934,-0.024881350985109896,2.107200281014584,1.2772617061085914,2.7734777546649174
1.2953029450159972,1.1101516514961596,2.2950548090371825,1.317822350357992,1.9707134539119666,2.3945683703960623,0.40864193472899263,3.711589538171644,1.0150282282534893,1.167290745985048
0.43316686710760277,0.8565983955260221,2.2146836703561865,-2.3660609931724546,0.29053895319582007,0.2480792836422333,0.29963536849918404,-1.6609515845931462,-0.4831253497215463,1.424785432646914
0.8038490721379216,-0.7371265181685184,-0.6387209960939759,0.32322861237007117,0.42046914176008954,3.44978232645511,0.014593193875351814,4.439654967585769,1.084600107872774,2.37731845863444
1.7620184719618068,1.0614645565004686,2.3862879617070107,0.36271111187037774,1.9396909147192698,3.5079799899400075,0.5853592505744472,2.6163760082647567,0.8059775586601288,3.61604151826822
0.5808166945549635,1.254194684712687,2.6595667445034676,0.45324965321248134,2.0829031407239453,-0.05500990454078645,-0.16991094389954411,2.7017395837969116,0.9549535877393279,1.4471967801367012
0.8787853608760624,-1.0606719507546778,-0.5343363275871005,1.039222984745761,-0.3219749026174244,0.05784148681635104,-0.0623683850543771,1.3254615242907177,0.7726164669387895,-1.4975098906713826
0.42809516508795104,0.0036575338649661934,0.10816619591029064,0.48770882778757385,1.7540725198288616,1.7197643480236786,0.35105673270326254,4.372876886347211,0.9993682972260995,2.087493007847631
1.5757847740952478,-0.5194794864819998,-0.9464195535704882,1.39645952028094,-0.6904736429802673,1.3076650718187337,0.5540272341703304,-0.8853389197183287,-0.04300623620502634,1.4348942048142892
-0.08982740188283629,-0.0024126432620239103,1.4249701453953203,-1.0482650324638556,0.47686571860850946,-0.40223280187322474,-0.377516383836302,0.008904554440085893,-0.04279842982119469,0.6717370341490341
0.31444408942340735,0.17162797726912368,-0.4743630969946221,0.9122982982856731,0.5935359282500193,0.8342108213938828,0.1482781297162394,4.0608493861770505,1.6965753497461178,5.358326020682399
0.21813497036452253,0.26080703570372527,0.13116714968170817,-1.487882736011435,-0.36232634557248605,-0.2693074833167406,0.26124734182231507,-1.4688838583899841,0.11196058986001689,-0.9312533286217966
-0.3115974168883676,-0.38670001548432836,0.6178580971784338,-1.2199979659615203,0.5132894005349473,0.6891645950878051,-0.4203686112188121,2.2826447382616006,0.37283436609520937,0.6040709501848889
0.38597774547159863,-0.028928034434740894,1.4599484868025887,0.8646358235452111,2.0287337500354266,0.7251704231710934,0.1737751736645279,2.9850281824829707,1.3617816746184495,1.0227233492506456
1.4148359596412654,1.541272454663365,2.7003613502387065,0.3594502918644731,0.5892032589446765,3.1588941486374638,0.8065092708801397,0.945490042182507,0.39224847059355233,0.36347663336614183
0.9052357992339747,0.9484932411240118,0.17883802273955363,2.2530618297194533,0.5827915841890667,1.9416355009360695,0.5926233607683974,1.5618289441414746,0.9533932784414832,4.154980924338526
1.1268477500233824,-0.447275872006792,-0.34728743551448427,-0.08292955329927498,-0.6656257571127967,2.7594269110793275,0.4698842123451537,2.096651325526148,-0.36317341829810496,0.612499806259599
-0.19311130732928156,1.016297781769564,3.0781949189716418,0.9834147175554784,1.531560832090099,-0.3089202563915914,0.07032282094308114,-0.45857428836216163,-0.2654300282388814,-0.5465102039171504
0.2671840889616217,0.9308991248030418,2.9733872760732414,0.31412056875652283,1.9401274672234032,1.6575864151616437,0.37320968568942803,2.782937386899476,-0.3815880052966462,2.297126412179126
1.0103170458353112,-0.6774736428798173,-0.10677214562956261,-0.3774605049754969,0.80180626239225,0.9399981482960088,0.19728890919171113,-0.5725205233300836,0.6862513446904436,1.7449814942602149
0.6440063029338757,-0.9685590430365772,-0.9836772474620387,0.1760846081117325,0.9148873095432932,1.544655492430449,0.08411078641379448,-0.44801136500522754,0.8889547437092769,1.4125404077619785
0.40980671399690843,-0.06104922813582796,0.2419230024110759,0.38574759930584024,0.29535481739393943,1.8700377846801153,0.18741142956328402,0.5466365700947029,0.20197722268902155,2.90443125917198
-0.31912724778450724,1.6009647917958014,3.454828893091422,0.28427220117953445,2.289179751711813,1.438933666277501,-0.014294814904779587,0.24875290126950533,0.016884756831689402,2.934818631486129
0.35211758107239527,0.5018121029569175,2.1882483989448347,1.2100222555241802,1.8946636122841953,3.6492972077638655,0.6188785780908543,1.443087422861036,0.9888422166790329,4.064424470390227
0.2733032118984177,0.8441358442114747,1.3499971224599445,1.0388890529482049,0.3252187661459293,-1.1797437058537321,0.314231113635687,1.022180370740919,1.138462425402439,0.9829469989449492
-1.2127752895288915,-0.5218007253580004,-0.9636568208087837,-1.4831868348287256,-1.1267746392365978,0.4003163751471599,0.12818995605288344,0.8246263217356894,0.2828775294982538,0.0598826000034807
-0.050208503307205284,0.6244968054110899,1.500422351191117,2.2447750711135956,1.7745998285518676,0.4228636545446963,0.13199774304410603,1.0908730560278643,0.27317620175893087,3.428731318947113
-0.4611226820737163,-0.9194942741714847,-0.747769147330059,-0.779207550897068,0.04367121138514427,-0.40090616401246315,-0.08540058202551438,-0.454403543130251,0.15631347147089275,0.08174752559753176
0.5679276642137637,0.9173441015717453,1.52208739585476,1.9284327686992642,2.2678071117071097,2.157608984913228,0.48771916138876775,2.1691432118637506,1.4310617778146408,4.573287952024268
1.1725032363739016,1.9392277821602213,3.451377171091144,0.9514571141448079,2.129039381306403,0.4458084156717661,0.43828261240463684,3.7783317652068544,0.6868797133825643,0.6368245586103416
-0.3852720346677958,1.55270626569707,3.3199283827201898,1.080928082977469,2.62639257552543,0.7731024179725852,0.1378341759602939,3.0958306327548053,0.08333431433627382,0.6326568945435296
0.17059933492650714,0.27038979711467304,1.268806614809507,2.9045841298903174,2.1790029676357014,0.4387639511292747,0.36403093132915826,2.0271195838720093,0.23140781770611774,-0.0887387286272157
1.2603019967458844,1.336750483179961,3.141213239441761,0.4963417433347998,2.5318643022702108,1.5085790634597647,0.5880357567272146,1.6885344607001604,1.0785172732384432,1.4115117925000573
-0.40040036683194186,1.4836265625905891,2.735050669622692,-0.0007399627443168133,2.5537038839083577,-0.019921221725429317,-0.14872578580135054,0.8950964013106057,0.5128735262197501,5.8125048833843485
0.5523362304610987,0.3682668015650518,1.7085528783896557,-0.8823879948969994,1.29681265553626,-0.1803476621834561,0.23277026729458788,-0.3953978666583158,0.33995180520360874,1.7022579538172
-0.3810557998349535,0.1914213855023929,1.4488146729868552,-0.5805100337332548,-0.37606704091032817,-0.826306465525486,0.1288090698952582,-0.014223502901225094,0.481704622913276,0.8332630354409531
-0.3583377344554865,1.720533889935384,2.492421172845402,0.07422880786490174,1.233540795295528,-0.6239381060972281,-0.15494759416004247,0.7506633578607056,0.2815931653556091,-2.0933408834115403
0.6242336376360382,1.8049551407787294,3.346933742389835,1.2133406266004454,1.824156154532544,1.4076315509434953,0.2575648735453978,1.5634487906919512,0.4274709952075241,3.1382911687582404
0.5853734369697685,1.895194998111876,2.431657907985868,-0.634957029095316,1.1318201783589712,-0.9790805650257375,-0.008109772866241914,-1.5561066433754747,0.14132969154122535,-0.3024016087550609
0.5610844385518595,0.34808224609736715,1.4271258619440004,1.393141348756929,1.3686271480301766,1.784981579259996,-0.0749406727671062,1.5132977325049892,0.4002651757462527,0.41877644649350687
-0.1673054513298005,0.7098197306098014,1.3333778001143815,0.9620636790006931,1.267348916291119,-0.8033294383756614,0.13953553863668425,0.9817639451431691,1.0041157287873077,2.3523696699462926
0.5496464619886241,1.1136963625413243,1.5983998258693104,2.048623682068617,1.270520511198833,1.7846020352025258,0.4872972101103509,2.9355330536730193,1.7833556190338145,1.562575587981721
-0.539907735882824,1.8495010784367596,2.7638085659219227,0.5782951157279891,0.6413700623778501,2.040291629234086,0.13531307511851068,2.033276770490624,-0.21056070939788357,-1.6798421023928993
0.1042939520418857,-0.7235746588695134,-0.8758941563939274,0.48087098888694246,0.6543269611292557,0.5668175215711894,0.02163079883352149,0.4047755943999612,-0.2879554505024788,-1.0752683325845787
-0.04422130061725178,1.870022442665244,1.471941247748401,0.6501144206022016,1.7145300762156215,0.5197240012430087,-0.20404270007693043,0.8566901373763032,1.1084125706129493,0.9639387199595446
-0.31708328168803696,1.0101800475872595,2.6405436710500796,-1.477207660972176,0.9883274799451991,-1.8994968336633353,0.11475535786947044,-0.3968454002104831,0.2575575346382003,1.0398719498037465
0.1104430750156124,0.49861380045497905,1.8377978947713092,-0.24077039842254028,0.4604043760884941,0.23497291195686448,0.19783568256050113,1.2222726646303599,0.026186271268977927,-0.6551618995383348
0.1322431030672495,0.6043189463551635,1.445909683469877,-0.05838947675339583,0.3046167518560734,1.1927073654912954,0.29603480725233616,-1.2613543623571049,0.019188370682497055,-1.2787390839481452
0.9631143231248349,-0.5735475047695846,-0.9743116779974671,1.8471338477931238,0.5901952829474341,1.7614116728385754,0.3246906060330774,3.2094960399351304,0.9691701536407097,2.1550524982884847
1.6556904001335464,0.6926434446537582,1.7623051313141649,2.706438738019475,1.6678461501098134,3.0339719769650633,0.5580268255683957,1.5896113256571007,0.7058242591530034,2.830767828745842
0.8782254932941513,0.2079954112282479,0.16959201868905915,1.4987965647348078,1.5074476220217974,3.659436183714842,0.33057937147456334,2.5442208173045335,1.4935017701765885,2.558347302808558
-0.441885014338218,-1.0672567565120525,-0.932049763561064,0.08925906092642803,1.1567453878791016,1.4653759645877065,-0.05701064502977026,2.403373908433127,1.2458766073199843,2.215898988781987
1.3454026256634382,-0.998176384106627,-0.702046203939664,1.5969471349919457,1.0976731388597247,2.4867889066978726,0.7561235172803789,2.978714787437133,1.5025827012693145,2.759090858498778
1.41058166306678,0.5401779988118481,-0.29075595099148055,-1.1966910673783577,-0.31640208244134294,4.490642840079925,0.425605806831292,2.3469674635882636,0.015737343841699274,1.8828911801825756
-0.2585926599952578,0.9108554174212619,3.0702348214663795,0.07416448685524346,1.9320512056262127,-1.5526190264026136,-0.1622377111106503,2.6195238734800856,-0.22653540110205503,-0.5670249706306798
0.20478424247578134,0.03062471113742746,-0.96654355687777,0.1003565729735783,0.08091494964712742,1.253290111148442,0.055558389160922705,3.566360656394254,1.6568174002031737,2.926701178650421
1.2994067770352764,1.1356027763790992,2.4342145757632387,0.5421157734909363,1.1112651645970575,3.3287391960604826,0.4454689096250277,3.9344728976546977,1.355689129787769,2.7937953363074692
0.9786120114148323,1.8594741335786846,3.187064768316641,1.515784853770005,1.0806155123275045,2.8542056559664637,-0.1607576175627074,-0.11593361138061131,-0.6571831353395607,-0.16564310539391996
1.0683055750151098,1.7980120554259333,3.3522164970279213,1.766122249897817,1.0972789572406099,1.6718912472970007,0.5606997503042238,-0.10191743094296501,1.0834839474714721,3.141447806408337
-0.4263693962225882,1.7244352815014903,2.6021867937870384,-1.2107994357280938,0.499010688517363,0.6373172405892993,-0.21541449357289,-0.22653525217160886,-0.08908795824579561,-0.2637857323079871
-0.45915034954706285,1.783584482736658,2.3271491517406013,0.7719970483343704,1.3868947952508859,-0.40716718849018474,-0.16574438223737858,-1.0050040139580314,0.39734308516619365,-1.2567777307268113
0.5377553649376179,0.774991490788478,0.008114282376635806,0.39981457791096386,0.3334057129287112,-0.5399378002980054,-0.2366089450132426,4.28889314663318,-0.26622462314461637,0.6363168009579802
-0.24201173535568943,-0.9242373411869815,-0.3936845960122919,-0.29562568053408445,-0.1630582833924534,0.2208214048246554,-0.44951726572324996,-0.2866103521025758,-0.777983854411544,-1.180507803996263
-0.8041529734619262,-0.43522079644007755,-0.6186431446930479,0.8213627218289559,0.7758936901415314,0.7636852262037965,-0.3495481814735639,1.8452354161158244,1.140323412291302,3.6644778725744804
-0.45559434628581535,-0.5280715785727371,-0.6843778290407627,0.6636190492743149,-0.2607555502465161,-0.9088444549415565,0.16536156634676513,1.9230188981107985,0.7153296488865812,1.4135904308072753
1.6284006040516168,1.3083595343042627,3.4426564848135026,2.001640862799355,2.435593562955911,3.350262849716454,0.4424704776919637,1.7973289121155542,1.6654746470124264,1.8496933811585416
0.4090516611759936,1.986973084887138,2.8641826323675157,1.9496023002632559,1.4632273720619666,1.0441039106920935,0.22222440768003754,4.656806917152151,1.0304122906598396,1.4688834410454805
0.27984018098704805,1.763163859056259,3.274891217247135,-1.5432893401621097,1.7775521064139446,1.532152992588022,0.49192815434406867,2.8461495972626687,0.7025860321465622,0.3039590900265971
0.01000292276631581,0.953972020764516,1.5813228461104218,0.3523590511865298,1.0187853807785938,0.7823593916197585,0.22619334596945584,1.8825517191722079,0.8306517416739669,0.4726458323730126
1.2597644654725222,-0.2998022926688874,0.6373132038924816,1.120532387855327,0.28141239501300847,2.11124630655348,0.3862947544455854,1.0331002254641835,0.1357105409699465,0.32176575961152604
0.5207679774563174,1.3042064009971284,2.1431827564992947,1.1333042847481105,0.7865048895422411,0.9348656768799247,0.24473373500475157,-0.4134091759904065,-0.17307575404171585,0.6904321257882169
0.45851882560578616,0.105506325270846,-0.36912267280301514,-0.1114158001736861,-1.6299124766046629,1.5419330089342083,0.29410440790334885,-0.7409640412045526,-0.1985657068296691,0.8441099662390041
0.9770101683890848,0.7299596990687399,1.016338915523109,0.1426825458097038,0.7163095014804294,3.5015576575153373,0.21153754144984813,1.6015467065576066,0.6235315958250318,0.08954620562074458
1.3714952423532447,0.8801980817390467,1.8269377907961606,1.2541900786281586,1.1923760733262725,3.313870959758118,0.36790364851978785,-0.07130119803520119,0.4696402243010577,-0.07812040405409185
0.2926812601399228,2.0878899110020956,1.488144657803478,0.7349810011227982,1.0159972240966841,1.1927737786365622,0.11317840500422796,0.11845313507848276,-0.3682418037234817,-0.21123518576110084
0.47212841131492544,0.2653525614996523,1.772558512467942,2.3489055026507124,1.6163869745455741,1.8013460415899671,0.3219311182695705,0.25262486581923793,0.08052421997471175,2.6236440114540236
1.2186075363429398,0.6229410648372601,0.9681604377311062,1.4997703528450386,0.8656060392198355,2.0133696017128067,0.3320569114227833,3.225335845107721,0.9067375512882596,4.125704126778778
1.4991278188753232,0.048454949003237574,-0.15630897075462968,0.762783373262921,0.1846102301939544,2.3824638303423313,0.47276045665226946,0.41438668118404665,0.5905665391183051,-0.37684837653135383
-0.15807268289613274,1.109782473893271,2.6909221349606436,-0.47217807513966237,2.1599540962677946,0.29582125865995157,0.12950837217399186,2.1208041562334734,2.233268564289574,2.8263467103544895
0.979495044133071,0.5150854895200472,2.266711527282941,1.2655133948207713,0.3378120935013561,0.9229667026903248,0.20348420159343428,0.4150283228412728,0.7716808689383715,0.18619380062106433
0.5668952786666357,1.6572437807724911,2.3108142525067943,0.14896662491272428,1.9311266415040838,1.217446444473295,0.05960597899167708,0.8945685162283646,0.6494826999227123,2.4927692554156824
0.3843001659459881,0.8101995359571249,1.9457867823111372,0.7794198849740865,-0.03267660404074196,3.791643357904385,0.4366174646491469,0.303055401963804,-1.0078054763749071,2.286658819008637
1.348687796035179,1.1098706297057594,2.2493967707174707,0.04971016845970011,0.9844259406402023,2.789946757510193,0.6399872249863026,-1.0331008706892946,-0.4652606458909445,0.054849224872265644
1.7537166225316876,-0.5348673679260487,-0.14900736447559948,1.237693347841767,0.7995449395828439,3.613757293972249,0.8746548545361021,1.1974699858308309,0.36109372555958585,1.5147530214284284
0.48871510039348404,1.0710139885314562,2.259649848330817,-0.8879035027369624,1.1542271837819955,0.8140882289357017,0.39777828585675035,0.2627387853148865,0.1530499443935094,1.9936493108074858
-0.02647216712378042,1.370167714966575,2.3583625928255376,-0.031622437005276956,1.4087748180054764,0.8081645031568856,0.10193551839766964,-1.3254489767090316,-0.2079179048964882,-0.02195974308502134
1.2770470609208964,1.2425393847817021,2.5688696139799285,0.9307804622762473,0.8303871845929343,1.3696473274607919,0.5493387534859466,2.244956922778685,0.8431614365185948,1.603867281437952
0.9660185217864641,0.9970976011370313,1.4272390775163109,-0.07566929571786402,0.27262933291361313,-0.9708663726814561,0.10125595008309332,0.023247224233594904,0.010141547927064263,-2.8232172712039576
0.31705952967409795,-0.5471282501195173,1.0970582723535633,-1.3273663902322848,0.9935920658501185,1.5202295405083484,0.21303348316605034,-0.11963775702919038,-0.1463960020539426,0.3159487839503323
-0.2699126111945734,0.6521574073248179,2.7462915931954073,-0.5942528354829953,2.1527127228487224,0.5265665229354312,0.44864362743829866,2.9016764591972954,2.0502095174712527,3.1541524760172996
-0.4066878781692336,0.7421088114735215,2.15221641315832,-0.42751127520130017,1.5447377802527422,-0.1643098303443165,0.049416579567647195,3.3270027454821225,0.7973110440687579,2.8157830004698705
1.755913549314525,-0.773011350900862,-0.8389791746582973,1.7218484935857115,0.9109832292039091,2.9146564109966207,0.4980830517446273,2.4642631601171043,0.9510826151329576,2.073871719802469
-0.36804556200101074,0.5694715529381547,0.2942951655002244,1.1495434692034903,0.3692771610088491,-0.6152828607259014,-0.06635940320016831,0.6269302558314129,0.009301664726540421,0.7291508003246497
1.2275435758260693,0.9014746956327772,1.9243887501520232,1.883054407056402,2.5834676065653035,1.026955295372916,0.040973782714314226,0.8704430307544371,1.7531511803644653,3.4964353102955132
-0.11748242646630198,0.719045476084227,0.6596763704789665,0.6080211274006575,0.3025890443111713,1.789553812992772,0.525655226849389,1.5604714041208236,1.0708469831352705,-0.22069542522742092
-0.5524060748559216,0.39405183663965804,1.3368081808992085,-1.2964960232008005,0.42842656331573215,0.7843402964787696,0.26102962685126463,1.0854837389038232,1.9441896071182998,2.170078690044898
0.12682290326041298,-0.36657161024639756,-0.7631128667358289,0.7282080694246632,0.030519485961068963,2.194624007466026,0.02152047226439318,1.5372019927399432,0.49136862345059246,0.23475774510784525
0.8431933435663962,1.506221639522755,2.645567357313216,1.8862178024865077,1.3641069734653433,-0.25661912182095803,-0.1654825581421216,2.9066509880448756,-0.21969340847188548,1.9842125782789444
0.6170370603739491,1.2330954422662832,1.7812608777123917,1.645069258954223,1.4838334511688576,2.6284844557515097,-0.09282781289746588,2.526876516586582,1.5752684935604473,2.8085061805203124
-0.18691032308639974,0.38550220253348916,1.2754514370320758,0.9399060266064674,1.4885003893626092,-1.8550073490902221,-0.38768447110041027,1.7400417479251846,-0.04851961461353328,-0.4140744051805333
0.611123602164119,-0.29071972455110884,-0.29648617030714264,-0.35523785213399484,0.7787832469788574,1.8798868290021147,0.20948410153581937,0.750066957910237,0.5069647203503522,0.4678963553401135
1.24538389687025,0.9924993356798614,2.1615621211980507,0.016236658452732616,0.6804563249284902,0.8608823364793987,0.20112746799770756,-0.032421539401803506,-0.5824953243573668,-3.493668529459546
0.5079673637971787,0.47509699230343533,0.7386240076724284,-0.29969979630975024,1.6262763339203432,1.229472029083945,0.32292797550926844,1.0141369286197146,0.46982816554814777,1.604100700676581
1.1332826567607663,0.7721254175172712,0.7237155089750402,0.4835987001589687,0.4486790563111342,2.468822613769997,0.8272296932889913,3.9698746511296994,1.343104747491974,3.785712172413605
0.28438739902009863,-0.716363155349596,-0.18024310771736662,-1.5080299588813355,-0.7072309384603499,-0.54791342077923,-0.17724201123198283,0.34601912082242514,-0.17778287708611498,2.544454393204048
0.30197038731765363,0.40578974392729966,1.756831329239973,-0.4963484487015456,0.9479257715780183,-0.038656951037661216,0.013465165760678983,1.9359599053124597,1.1889042481947754,1.5815698643906444
1.3708282306334814,0.17952892857958458,0.7293365610700311,1.2591962265485719,0.9992900882787668,3.5109342802558214,0.42246045328734144,0.36127042845405233,0.6312889054569722,0.8975849949766215
1.4794241641630688,1.1439327106003836,2.4429121334401644,0.22611329034052224,1.1824147944267502,3.891471331697011,0.7719140998138269,1.9391892925254552,0.7520762542632516,2.9853881625123506
0.868264519303672,0.7180525361518053,1.4639721911681338,0.3429098563725209,0.2597243221438267,1.8607885942543427,0.6541963655019838,4.472953478109097,2.052499505377237,2.785079567883699
0.07664238573768745,0.2294846129118454,-0.2637866295790605,1.7521908678969302,0.8716086141502917,-0.6016111102809796,-0.1044794273354843,2.31666239860213,1.1128709813368423,3.0411292024381544
0.18831640063387825,1.484115314789578,2.55124106510695,-0.6072008495377375,1.4301661481338168,1.929528383254081,0.433605047532097,1.769697026101701,0.5625434775518906,-1.4974234292827968
0.28919377435468246,0.8728118763050081,2.592614151965084,0.5569498423482659,1.8780971709505456,3.1125893580201,0.35956005765965643,2.459689990781726,1.4854618051849913,2.657677637090094
0.049613332607161574,1.3733628708659458,3.0190888348184624,1.918099115460754,2.3360622042715677,2.302814400258813,0.2349093039410077,2.6863139130525564,1.3444234344491135,3.530766088306645
1.3566480838676276,0.12514258398815603,0.014298979423135183,-0.03262033477688919,-0.15160752180483295,0.43361166203011803,0.42763444103980897,0.6977559691255812,0.831196116943007,-0.1427988909496233
0.3186210630119808,0.8964207778761343,1.6722375362085788,0.21778486719388673,0.9858167831461118,1.343275725342649,0.12813841976534976,0.351415431492841,-0.09576055265934888,-0.3694999842784674
0.6455936810556897,-0.1420641764998083,0.16309279010670186,0.7647439760630459,0.13971566405339925,1.3648365769950626,0.0027754121488170512,2.023212167689276,0.6780023731268117,1.0823284833445255
-0.06427126085895554,0.40675599255477396,1.4017325558588842,0.22105273818762866,1.0098609291232394,0.8571803381636576,-0.28051080975824877,1.986952293855221,0.5995801054448026,-0.4047526228948373
0.7394532247117926,0.677475542097411,1.3049019968529496,-0.8498794098518255,0.02433950506470392,1.6496691711757268,0.4982048271780901,-1.5499608959746032,0.08518415478386923,0.42548554643577113
0.5576725834391496,1.1329207972819733,2.6844067337443005,0.5559447932508252,2.2558030589789033,1.2160064092832896,0.09083996798225381,0.7171572562858184,0.7164243353184365,0.8132221420617409
0.10570201720291875,0.07237356696048557,-0.09200941929586093,1.2878366240632648,-0.6774245013878517,2.620519959477398,0.4666373641683874,-0.6156716194274597,0.12857838827481025,-2.3852316987983357
-0.47162615932012775,-0.17286836750468973,0.48997113165922523,0.4317499948644118,0.8276451882911754,1.0749801260176988,-0.13189038880861084,0.15172810443391715,0.529874842597895,0.8651368907837695
0.2244797984297938,1.4562282354843146,2.4713104014579526,-0.36373817794923696,1.9211835511549993,0.6895782688661158,0.2059134446971525,1.950604549347772,1.5497397057620903,3.8417510525719805
1.6687285108343048,0.10572100934576972,1.1872219032587519,1.1271566358448035,-0.39233771602435535,2.0929665251528116,0.467758897453096,-1.9262450199858074,-0.23416996062736123,-0.46229877080359194
0.8543936802967249,0.24725708133586188,1.4519085901241073,0.19918424650626337,1.17515152036878,-0.8272280758130921,0.12366111923474549,4.0008983258765305,0.5900419342155581,1.888701811495812
2.044089485277617,0.9233467839584453,2.409619488622922,2.296507995846466,1.4648955073508108,3.5470652285142896,0.33719566399927514,3.367001927706369,1.7894458510978688,1.7637122308475308
0.8258638700853567,-0.445280020564098,0.3079855614068927,1.327170490555973,0.8331176053033589,1.0084918686378197,0.23330840628708402,0.7211884724056535,0.36134848763359045,1.9383231296368084
0.9405907823904992,0.6087628943026576,1.7367731876772283,0.3749273343415883,0.7520859116404699,3.7063094979400244,0.4297871274178704,1.2382860606730326,-0.40751697886548666,2.477403887433748
1.1127104547290931,0.35098080469168874,-0.5480969313183024,1.6714887887486984,0.3286074028508582,3.748030400796055,0.4914152645879163,2.396497098997513,0.8902729255328462,0.5088424119005082
1.3070990157232252,1.8356745957802443,2.3564238908848787,2.0532153690872312,1.1440943534478145,0.9732293487365751,0.0806146226369458,1.2789304753269657,0.7321750809785377,4.314636522620747
0.07685161372070365,-0.8256158661682466,-0.025463859183865734,-0.07043401003250263,0.16075491383677432,-0.4976925195703855,-0.03543921484314436,0.672405673319512,0.590447235796854,1.034271783018947
-0.10195529805384342,1.6227354129124487,1.3841297251128046,-2.1207288953364554,0.0020630109508242844,0.24573228896934374,-0.3419124180274911,-0.52896662083457,-0.4801888955421695,-1.2443471045521033
1.509468450455246,-1.2504111894919265,-0.4846985776243684,-0.6265889854207671,-0.6598575782250398,3.16850738603985,0.7367583192582068,1.0168384188707378,-0.6078806297238856,1.823021638080209
1.2267557494060601,2.2581783511471847,2.533214638052604,3.9614860131476792,2.4347885680227637,4.364488850872662,0.7492795283420433,3.4393656099182444,0.7578112572272231,2.9992088288081824
-1.4605242522361923,1.1779767167208697,0.5447177781350032,-1.6555754361153383,0.47789375263194767,-1.5787459167418385,-0.39843776925291374,0.8110021663718804,0.01724774831313663,-0.1270264092806413
0.6726190729006037,0.43852952952512125,1.5637188623592566,2.085297734491294,2.21672936138929,1.344284473996946,0.18824501993522108,2.0310938865988946,0.4587450881698737,1.3874768814980805
0.6519680609240485,0.6343901461295538,-0.23653988853360997,1.440251083988933,0.9302339931409721,0.8195026999245149,0.35843664121221674,2.791667777730353,1.1031786021429646,4.036175629524463
1.342825736869266,-0.39000257266368943,-0.12525241910893503,-0.3905802925070758,-0.41035271194537404,2.848163597067789,0.35643641601293696,1.5679563154758165,1.2205909942150064,-0.9880531737976872
0.12982017041384789,1.073078828177619,3.2784634665493497,-1.741658137822872,3.3103398158162007,-0.8702873515074152,-0.24467211431669939,0.7444142159551121,0.6506600079693514,2.247661566262186
-0.06929897467206,1.100509021901203,2.6700017272628873,1.297192282848468,0.745592364428765,0.6000432638202254,-0.19893698437315585,3.127547327025891,1.0905328810527275,2.5813033731157815
1.6752485674955626,0.7220045962504101,0.05832542913788763,-0.8445442502688363,-0.3605787442931597,3.6637896364456304,0.5503292876593835,-1.1986493465509693,0.41236766710874484,0.18971817018114898
0.8347032297012923,1.35354557690272,1.517887502380432,-0.5266193370616069,0.6422309922609037,1.1337711698259563,-0.29577677851009637,-0.14342229934260553,-0.14593732030750756,-0.2249039610337624
0.5039748526385256,1.757015240565706,2.7652435678940472,-0.1746535610629529,0.8927930498829081,1.519766102030468,0.27899907960649584,-0.11085558217329461,-0.4733753305559361,-1.137527944891059
0.25942652081763495,2.5736940249685634,3.349530502364246,0.1511169968482593,2.9925515788068817,-0.26830740844753176,0.1974437940639544,0.6763585681709257,0.21162580218387644,-0.8028179100000453
0.18509231543622423,1.6500245081220162,2.7222984446934007,0.8680006627204091,2.853140105901579,-0.30055932380872497,0.16979075941710473,3.6397713602099295,1.493749679459384,2.981870374162306
0.5714965046701106,1.9613557546631444,1.1373222414493944,-0.33610126040530675,1.2449879868545188,0.4724689517073706,0.30615127698045297,-0.03457457138662612,1.1932735813562823,2.515030409574334
0.6089090820466367,1.6187443041581073,3.223553881284305,0.06580530010564267,2.314415375728184,1.2754373636821126,0.3195153277861949,0.5969988508049873,0.09568000883028412,0.09327567031227568
0.0830297179271747,1.9529059481048772,3.3672727995522704,1.1988220283981104,2.184401870815488,1.5287109149523255,0.08289742104196661,3.687120275362425,1.4729792854796004,3.1218327964986985
-0.173179835335602,0.7898060560948511,1.1843184323462084,-1.8708247830349403,1.4362083918235637,0.7715485227526692,0.27961313577256997,0.9065374166604556,0.27701396952629714,1.362276866910566
-0.5968876914868226,1.407045392464081,2.852239860800996,1.1120457252811486,0.2789964691569257,1.203056645874145,0.1799825247498726,1.857943742834084,0.8349629651272753,2.0019081453523304
0.15782204383238416,0.6922838406451463,0.14602698344597353,0.19112414439336134,0.6098356878397038,1.5556505500454654,-0.022808162340559532,0.2152497130576143,1.2148334585215734,1.2825385666581006
0.8305774747531234,1.5839013277484537,3.190039350241065,1.0427346448158505,0.22470644151908475,2.0710013390012625,0.05132673603405651,1.2058243200130545,-0.5723792494302853,-2.3951695756277065
1.7382072861126912,-0.08239626123721212,-0.15352103674943884,1.301960064526599,0.671173300035458,3.609175365663379,0.677425945411668,1.0696109548660233,1.4347484742080847,2.9648310418193202
1.0165970656707206,1.4293850061552122,2.316541549688099,0.8422610822531189,1.0755419646569127,2.8485602762395557,1.1254315983375847,0.6071136509982654,1.302256867302119,1.1545507385296565
1.5368256049505982,0.7686783072170772,1.704718558882797,-1.2464204188235097,1.328834438069374,0.5936455307624091,0.28567323513737974,2.3449899137920744,0.8415416641615207,3.2486784437824325
0.1792124018130497,-0.17635284956169248,0.6962843528103664,0.10664957953692447,0.4604217924072135,-0.2975020665245141,-0.02421333482459098,1.4083447707411942,0.3971493607541555,1.3832931352313576
-1.0429745434638158,-0.42746480923604435,-0.577493864335795,-0.21585688704789296,-0.20757473514334732,1.1148718185795443,-0.19502125796867625,1.0623253383116507,1.4861260895728226,2.9610513633648794
0.24352554919857733,0.1876958475341212,0.3232387815932032,0.5345562921570352,0.1162493083900083,1.666855369814218,-0.07352635222420639,1.8271181269644627,1.3178903952038243,0.5470246521194954
0.19621147045538684,1.9266356965629525,3.174764889554739,-0.09242493020579616,0.995366891606054,-0.2963150364831385,-0.08824239537307582,2.0260145042516298,-0.06586229791855924,2.615272689935472
1.3090493159662948,1.0370443496981174,2.7601846539748567,0.19149785208929643,0.8831078160264189,2.247298161696264,0.49766688483334104,-0.015990671551160962,-0.4406699760334037,1.6435478332723092
-0.475487741297606,-0.2850846718678618,0.9104402186837783,0.8081909305057488,1.3815575954922892,-0.20679570036087325,0.45171964579017393,1.8641131375427133,0.9792531516449686,0.2631980579045591
1.885242916045236,2.159309886621685,2.7690328121692382,2.002417464125681,2.0439455965608193,2.8827570634280164,0.5683954752832624,2.4271965189812863,1.2487362112235076,3.78620882717882
-0.4442519912658172,0.6802512489127632,-0.034396381564232525,-0.46068187379342324,1.2870384815044522,0.8152432707645717,0.18185766905314335,-1.6483525873006761,0.2426979200430469,-2.0484988771218955
0.8306554395868578,0.6213968648966446,1.0230174904570601,1.393235930802261,0.8919418624534716,-0.026231137299501828,-0.16000844011514773,-1.8204430367696864,-0.8338093309336303,1.3327319493545149
0.1924101431912186,1.7527849729573521,2.0543330258096835,0.14370316202167951,1.4249141780783263,0.9119885679595885,-0.015299440636296189,-0.7260832383076259,0.021028373463611624,0.4484093998574924
1.372910731001813,0.031038139114980212,0.4576160336226658,0.03707456858094798,0.8644451401525278,2.1258878238842205,0.7323564499253544,-0.5340900206253911,-1.4479610146478672,-1.0077668739001147
0.9154227233010988,0.6542279123254461,1.799345831629597,1.8242084600090893,1.0732430512673323,3.417607530336986,0.6922914088321371,1.7002286931965653,0.7882984886228215,3.03784060846258
0.5915446746301288,1.7164402436244244,2.6215057717456,-0.3187041284911697,2.2529265991913956,1.792201474294661,0.3718368216776589,2.0701844617246064,0.9561025432782402,1.3379171722127676
0.12925030920323827,-0.19933868433447205,-0.7883655009161663,-0.9328446191391377,0.033920734439355726,2.7393004649447783,-0.03725737310737803,1.6621118541576745,0.4707936610634176,1.4532202235494949
1.3548324513312173,1.5800417434367005,2.441510614359247,1.628264433804819,2.222211231211177,1.750735494171716,0.7834027857517656,1.1613424867906308,1.8379038792614197,2.9337224495664387
0.62790300966007,0.22133913695046503,0.7643286858271092,0.5643312663844539,1.7845999676634072,0.9379618689140998,0.1434781069962289,3.267842411691408,1.2899145423882399,5.099008130755119
0.11924515443365251,1.321991700662857,-0.3131407259437876,-0.38259169437115176,-0.07864413731117309,2.0058562120190886,0.3777783009348682,0.051040552442682574,0.10534609426384135,-0.33153380996303844
0.2530534285807196,1.225998799234211,2.156694022120852,1.822720435789411,1.3028529598677623,-0.6548303118911897,0.0506427914653536,0.9504669056298153,0.6003367907154432,0.9036918846135651
0.045647806881929404,0.7629185402073889,1.5706327985816757,-1.3916265228235927,-0.3635397264056338,1.5559673062828434,0.5066787849526723,-1.420952972950848,-0.2936507478817611,-0.45893468668035037
0.8829649113681179,1.0481699886365166,2.659137333635534,0.9065893913937606,1.5124569767889788,2.744387148273215,0.5394026545885516,1.0649424724071141,-0.3352106926365988,0.42445575288040477
0.9637762329444355,-0.7649688576288085,-0.24375777903752904,1.820261322828431,0.9213025188960765,0.29598375117628223,-0.23914417016765213,1.6780588528529885,-1.5564037326731643,-1.198574474635442
1.098066524617072,1.996809208534961,3.43368343156165,1.16321698753202,2.9538096205518465,1.8011009480754745,0.6836325660727268,3.1335189993115624,0.9891905080844464,4.739025318131304
1.8217770504067023,1.7932609986000208,3.32059116368952,-1.054076606470587,1.6577922854117766,1.9330759359324445,0.5647376634728203,0.5680711916828567,0.41866668911847355,-0.9011696446837334
0.8950681241648952,0.3449780044485581,0.7238785885194592,-0.8595406486500858,0.1818937359454311,1.7499075622013271,0.20176800259252659,-0.4338594592212728,-0.44451882645620056,1.061302021039663
0.07046125066353127,1.1937401672108183,2.4241836820352187,1.4675252114168507,2.131187969245662,1.490645974900054,-0.09803991298106875,2.018756945225811,1.03485936974281,2.3218620750672363
-0.5600893393470002,0.5953749986283959,0.6938124464521356,-0.31827161216690547,0.968883541850439,-0.44830395977416193,-0.17776101634888533,2.5756081222778677,0.9404790576675931,1.0652106453786216
0.892486676277514,0.9971728571091033,1.5792757784077343,-0.4999436422261632,1.207138618609046,2.076360847634194,0.1764723657564515,0.43974805945754136,0.7086055999197508,3.20793994060677
0.5111668413674294,0.32250816389350695,-0.26754200083522406,0.44263283152102467,-0.17026717539681083,0.5816769685049576,0.2843024881981943,0.8130975947737038,1.32814115562624,0.8678183595090988
2.105681644529016,-0.037234934340310465,-0.30945395081787286,-0.6479325413643622,-0.3071421657234169,3.7611715120255735,0.4890541359237733,-0.8162887875300213,-0.4118595671745268,0.6284151209433986
-0.12872456340324995,1.9054110834723264,3.0931145522599186,2.2794730035292425,1.517779272350343,-1.0388432959627438,0.4549122835630746,-1.3192953061721264,0.35446472179886485,1.4556658409890406
0.1682136213727203,0.3798894243434507,-0.24054261207682648,-0.5884539377614841,0.17608517187953776,-0.30772176880487895,-0.3508725722905602,1.6975248654858144,0.6837629859704178,0.9088588881949791
0.22686516267012125,0.43020750963923443,1.9066066406955442,-0.05382833019756994,1.7624782795865037,2.575118249147186,0.4862022293978338,2.1454813389709817,0.704453589587269,1.208059901370333
-0.5319627676163291,1.0952238897141566,1.994259010951064,0.03540396366054055,1.1210929806024577,0.40135650567545444,-0.09399326157310153,1.8796946714444829,1.0548721865467277,1.184849898769056
-0.28664040466271107,0.6724205055200917,1.4858715865489738,0.38532318880035327,0.9818744821670016,0.14245452458164162,-0.1714974499833611,1.2390115479017463,0.049127864040174156,0.13397190790817104
0.09465082252326697,1.0575826380143387,3.2177718653669993,-0.5374761300879727,0.6773177582620518,3.053487473634288,0.5126399482035415,-3.2812855976306876,-0.144212446482621,0.9115812741217193
-0.41666939096848693,0.4044468144146962,0.6718896510191401,-1.2674525485099546,0.5902011554400052,0.8312531219649822,-0.45966314443571815,-0.0704548642440217,0.3523129793690496,-0.5946137689333169
0.6827571297506794,0.543426185974994,1.6427920872407658,-0.46827604265893114,0.9409587398900849,2.0243039880089673,0.5737082181131835,-0.14148209265394449,0.4393536412629927,-0.3612599539955381
-0.6515971440893211,0.9360245070962083,2.3220051732481632,0.40769074053495186,1.2341437690928663,0.5854206978957978,0.2913225679350921,0.7509045172185368,0.5940714532827478,0.9992388386404588
-0.4962172406064576,0.08738305717958184,0.8604993969289148,0.935153643119421,-0.042958920629875885,-0.23505928042498758,-0.29686187134127917,1.5408575528921022,0.6364194557633801,0.7110951328057209
0.3470806342609925,1.2079239932477384,2.6719613942361757,-0.22179873442557618,1.6981506540555453,1.4269205371978178,0.5816576717317776,1.6651365371572076,1.1962276198378945,2.214878501385375
0.13603190328323808,1.191058618723781,3.2529846754445906,0.225086393550046,2.5346045747348698,0.6115826452699594,-0.1272986699503621,1.143978832829359,0.8744188383570614,0.13584565057437137
1.174592690073828,0.2503926729718928,0.6484039661095675,0.50802256692276,0.9417220572871368,2.1643371006394254,0.8369341871086678,0.8865059117001768,-0.7274419237814536,-0.2748788525384203
0.38820616967683325,-0.34480508752539146,0.2501747070141398,1.3399818566571466,0.7014631462531532,-0.7473405025884379,0.1984739853475134,2.9963529674918234,1.748419290708572,3.707600069915012
0.586961635678212,1.3534722398387051,2.094319382698397,0.9654531734663645,1.4038130248438745,1.1811315218993261,0.058808216226363716,1.4031370901159068,1.5286420017837579,3.6847579763396383
0.9543426927359372,1.432717399230791,1.3738783322990629,1.0342556021782248,1.0684429413920387,2.4249842917449604,0.13163740745032468,1.1852168692360578,-0.2899518940420877,-0.6455886549909414
0.28702999429557813,1.1351106041530286,2.8821741402864247,0.6230026220636768,1.35659617307367,1.7905104862690595,0.38110729680662386,1.8581022097956137,0.4352779142962781,1.41241836364715
0.7673181038331145,1.1348908919327378,1.2022808318494072,1.4529958841117594,1.7237533865490984,-0.9464955145683764,0.2882454206533256,1.9194627590269926,1.6746064761479371,3.2165854304256394
0.48999801862388626,0.9951017252326343,0.8809064861579405,0.06516999678118698,0.2596368543876936,3.2508101250750014,0.06375371535726962,-2.1261803873691605,0.2575359098561949,0.49651857272298566
0.6023306494232789,1.510359108608293,2.9482167562291184,0.4963138523990136,1.6412546147726805,1.311363599155134,-0.11536584257697569,-0.23868567031644425,-0.5596775265917394,-1.2742664733722162
1.7206656116538879,0.80531666087359,1.299343610307417,2.0959061155595693,0.6789698504619284,3.39381869742871,0.9526848762750962,2.348841910606196,0.8072625319585578,0.7580925770283634
-0.024830522262199912,0.8735220132890169,1.5626643027372351,0.19386952018909304,0.21017687148331088,0.9779471147595964,-0.22539845070141423,-2.155373088624719,-0.40747305936438427,-0.13050915727259058
1.557257278678767,0.2841889059889469,1.1242044475245812,1.7623007715987902,2.2611089367356656,4.2303096204758965,0.5396399617118661,1.8513140756358752,0.8562810631371921,3.17455844127412
0.5535106537974875,-0.3606959946939977,0.17487705181396973,1.137673968418979,-0.7377877314940235,2.2111982407538657,0.4131465240173802,-0.21887043992367627,-0.3661821416761645,0.6855128145720282
0.073423076701184,0.05401089370040227,0.823825711336581,-1.5657875002194317,0.002878494037135415,-1.2101272968698584,0.12345702802073492,0.38331802190055647,-0.27176857136853455,1.077090601039723
1.0231096783588514,0.5505790457142796,1.0416420526822892,1.20732821664795,1.4809677084456387,1.9129010585412978,0.4977256674983883,4.021397235882671,1.1361603475195257,1.8502678670963184
0.3371570258283422,-1.0510510067748537,-0.9525180452366684,0.9273314397517445,0.057494761636533276,2.9518225147996686,0.28675974262467024,1.3057855473757018,0.023010511809051008,1.3679691241048615
0.196252846975995,1.5097870011743824,2.865351204139548,-0.9535290390359591,1.5066522448031803,-1.2012453757917145,0.029649120684197627,1.9600382013878863,0.34488305056989527,3.460600420344459
0.07399039173073779,-0.9247390964065252,-0.5604730937327194,0.45853171863213876,0.7737976214054946,0.8931201123933853,0.0499913657206845,-0.5725341224866898,1.4134595882224255,1.51502610863543
-0.38784567758428234,-0.2119469346082953,-0.08024742590186673,0.0171403671706497,1.0149758511154985,0.23323364306505412,0.23236131326258555,3.07298701290265,0.8432471500046804,2.238692437873794
-0.11816511781354982,0.9742362776843796,0.3167287532145986,0.1517065789262837,1.144330301677955,1.107463939678214,-0.018902184870414448,3.8145782424236874,1.5385520545233602,2.644864179937804
1.919018897248651,1.6917086635695087,1.8705347078630687,1.1586083270259036,1.2466805285930602,4.0985580894876685,0.6884050117479364,3.2590707828459493,1.1883259576517617,3.218680297453734
1.0173687842393178,0.18623530629320595,0.4531115469236042,2.4007757102247758,1.1814802232537156,2.6009912507609174,0.23285872678473146,-0.6261650992093779,-0.25027634376674457,2.0257724175485614
0.37537464163009243,0.04708781699025038,1.2411422870156308,1.0194363465810596,0.7740272014032095,0.0008215030539259205,-0.17223252445762224,0.19618575784507541,0.24144139461706735,2.8132104096027333
0.7676757565013625,0.3148313191740522,1.3182012306373805,1.4324206537198434,1.8812545199706556,0.800348482914645,0.35524159703857744,2.385388208150299,1.744620666455113,3.8168037407612876
-0.4991948729094795,0.3871324746562631,1.6004472660388642,2.193689577093174,2.0557149924016636,-0.015146257642319638,-0.05449018675101991,4.174100947638912,1.8840480234813615,2.778955822558938
1.0727174084043571,1.7280834001137488,1.8307552240960683,0.44686428651769283,1.3330800074818203,2.003186306908103,0.639580253038687,1.7072553223795452,0.9968440209575169,2.198346492309627
-0.7444821878562312,0.7598502715667791,2.6759547803661112,1.2641391991922384,2.0425789656244615,-2.2742065929862294,-0.16796448183070264,-0.28760863680666326,-0.45635094032636403,0.2720298445503597
0.5082973574798061,0.5389892358696053,0.39059030495744573,-0.7884070991404242,0.5130090095805695,3.1604822120841622,0.9194269780621528,-0.28925559453490624,0.8485997074558794,0.6109532725479211
0.1885262310419074,0.10696603957049251,0.7652969063086312,1.4834129468509958,1.2787104458113754,2.4355889033009634,0.3750026369611935,2.0825514955294047,1.4926464991590145,3.4831227590374834
0.03945106499507319,0.15553971718777274,1.1889148328971983,-1.0274362734484677,1.7082886949847338,0.45949347583285877,0.11582203502435405,1.551190857243453,0.9702257689176097,3.1121159820043682
0.7640156728082755,1.376973663625666,2.073674602562861,-1.0230632075163029,1.1458402495369837,-0.5830642602489273,0.01096115841982347,2.5306235764432046,0.9855554893855089,3.665802521887945
-0.14842805433903491,1.0588919992062165,1.2945903417625702,3.1702789326825864,1.7536920203885389,0.5246274275991116,-0.22833518024089772,3.2484710425241334,0.9133244472665342,3.629153873532089
0.6934949539086421,0.5930258048044789,1.2330528549510857,-0.3169507131995909,-0.7136148864585116,2.793590234547979,0.465640086787938,-0.1879213418728306,-0.257201192245962,-0.6784902702777891
-0.33994147430684757,1.70762316002243,2.250219933308269,0.391319964498246,0.7440956703951893,-1.6745440717649527,-0.1172268960081907,0.5553324369884791,-0.691453021702591,-2.2391794202620314
-0.3717557836475462,0.1521983102793135,0.5007509836506847,0.465719152426771,0.6904259739085176,1.4807703547626965,0.26655939505581444,2.288374946390179,0.3326933375997442,-0.649582655253182
0.21604945239084575,0.9221359062534453,2.7289603101832394,0.29727597839949443,1.617664123061975,0.972301781898373,-0.2674038881583371,0.2285488211878779,0.9056601103734822,1.7710435776556306
0.8803867636934385,0.4945201624493093,0.7133076302012693,0.1706223648141949,-0.4798440504338255,3.195909611878993,0.557656061957853,-1.4998021065326472,0.026481977695461026,-2.693364602387285
0.21673278586151912,1.3104205659702615,1.6468443618455781,-0.6172322042508369,0.04994117986258462,1.3741264691743298,-0.5567029428190496,-1.1772757752233143,-0.019393965906332626,0.4957206845201885
-0.6898248103714509,0.44580424071314445,1.2854168217759492,0.6947721879256641,0.33197763684152415,-0.2638961482116821,-0.13260067329183997,1.2339139492951685,0.3508803793799943,-0.5506565529768368
0.45111839251237984,0.9887855134898185,1.7893969533624752,0.02875807678649743,0.6507610146739825,-0.13777714484599968,0.31438863825641883,1.4672747962671193,0.07241130287471749,1.5385456077620074
1.8950158985262884,-0.03254304323497426,-0.3735779600501632,1.73267574799886,0.39617852638602336,1.483082319018523,0.27677943743206873,3.049857804085952,0.4258753743064503,3.2448517846986547
1.0219199569414255,0.9064299334218409,2.753693319671436,2.3719965381448267,2.1594225812107366,2.2180781092367425,0.8767674406736407,1.151421525121552,0.7823776145440817,2.4459765642842313
0.18946284635079697,-0.254319848266496,1.3065393784178063,-0.027189836721911442,0.7969592312810113,0.19712691950140626,0.0018936502729591355,0.39413970296232503,0.4201529891406375,-1.5098504635060352
0.9594860873289496,-0.06792094732938983,0.9485095319215413,-1.035726366903304,1.1853885429754656,0.35644262840095453,0.5812348245736896,0.9025382910700215,0.0939865133451745,0.9777677756622312
0.8455859625198633,0.8534119620829107,2.7131177265850255,-0.8775925505073824,1.4066751308631602,1.1055536769558074,0.29983656802182124,3.6433084835095393,0.6186337833809586,3.0073899244657
0.45829612112054147,0.5613533169116954,1.2329921625669722,1.8320908074262932,1.3756909299054785,0.3285904204311164,0.22905174196166958,1.8467247355957725,0.9626973501653631,1.39230649466962
1.0832646132371786,1.424811258263687,2.3186700990014826,0.17041917029117082,1.622052543811531,0.8289213017073501,-0.06475166547407832,0.5375781483673042,0.7812247021428442,2.5419486488339578
0.35401858372161715,-0.487462574854451,0.3152604382087778,0.38628774494205614,-0.08708908854628708,1.1998165557518001,0.4263774583148466,-0.9155386325164088,0.14090043015976048,-2.00556365809062
0.02347320818283337,0.8307865236944175,0.7573467961227529,0.20682790991847289,0.003183888816167102,-0.6389159788597187,-0.013957592949361504,0.052451618031079505,0.3657671009081286,-0.6275465885159329
1.1015638366989284,1.4048262165516,1.8635457878344925,0.3475320697625961,1.6697281886496895,3.340533362945693,0.8819591744379114,0.4188262480398078,1.1956790270340985,0.3572087651752066
1.796980382773993,-0.0822543228681279,-0.06456709681759487,0.9483936703037313,0.4180410823330852,2.346461178229937,0.47059942963361845,0.6316340973663765,-0.022452740889156098,-1.1835263485991425
1.35271728238556,0.25903265083075716,1.18463671034396,1.8902894539107367,0.6882634791373783,2.77236378378786,0.8334010436869135,2.8747939297804885,0.5476539148113815,0.5308982329304284
-0.3730976797873792,1.5026560898369705,1.2076628979909274,-0.5225234620272868,0.9080296393645798,1.1747870408341758,0.2178094145515913,1.936184758242664,0.8876820983780374,2.489214796743811
0.4390132767309931,0.5363939598687746,1.473240523209252,0.011273114434828521,0.5372982056091058,1.2838874350920222,0.7340535908223395,-0.5289697335744649,0.12260388661319896,0.3606298934588397
-0.230777184341249,-0.4657429046870148,-0.07927623665896644,1.3226059871126603,1.3883209217235144,-1.3405811420083742,0.05174393512332193,1.5515468766929512,0.6755457010448793,3.804356805276463
1.0902887439785285,1.833305198199894,3.0243513071231707,-2.015186285840743,0.45272148163572645,2.456213486321501,0.4303079356816411,-1.3012176632775023,-0.051356377536331356,-1.7623757720796813
0.9557848744147089,0.5181451353351686,1.8117176739244312,0.6886310802866713,0.08289950112831435,2.8026382787705115,0.3502832806198847,0.17722594539423664,-0.7450762281151815,-2.1899598944172833
1.1646624519778024,1.813761994620399,2.3364406155697015,-0.13685247157135333,1.4745436640739698,4.001808511023738,0.6858317632394266,-1.2723429740505132,0.07712902831580516,-0.15108190899294854
0.6061925046803183,0.6417587684237116,2.129445471705827,-0.5064340774584638,1.2295414281782164,1.409814698532232,0.36130249329366304,0.5196786299257441,0.5700508906309865,0.7652942852136255
1.1474499646202927,0.1947375437523984,-0.021273973332522123,0.705416693393002,-0.1447312718238026,2.114939169382742,0.38828315028214433,0.289501757495239,-0.1827774392728011,0.8904216013110194
0.9005416919129183,0.9382686240485442,1.3470200107113248,0.45334444683315933,2.286711801864147,1.492847444039302,0.728955973690608,1.7385566903844576,0.34011438490833135,4.585199302955861
0.510690827178259,0.9623110728963513,2.2489276541250254,0.41275183391356995,0.9628086101402703,1.8294843499326283,0.002867310301440175,1.149046508620307,0.9273251206786594,1.0945072700306504
-0.11850254011791854,0.34494122026299756,0.26776924876239083,1.0744711702319045,0.44885828438726627,-0.5221114472534713,0.08544254512640234,0.018705999322574718,0.521523277051771,0.5432709866062806
0.5206400281896791,1.8773950877600818,3.38899632658768,-0.7457460728202803,0.9030140334389589,1.745781493069271,-0.0734978863076915,1.7430890268770765,0.550063411967242,0.7314201682171827
0.4642950277625565,1.1082735947434141,0.8301425049950475,1.4179070730446715,-0.004424786111726198,1.790040192531141,0.3494095198540751,0.8367786651331696,-0.8539888557811943,-1.0928825647289209
1.8309194185001643,1.0223623931340966,2.9705224576491505,-0.13740206998464893,1.252072239342684,2.096253053123288,0.8798178142839067,-2.1240868518831104,-0.6962668840853082,-1.6722125576303548
0.07397109055326809,0.7969046786451022,1.7327678665641848,0.10538747027342427,0.8236745182015315,1.6763287242503913,0.0013257958668294804,3.756252206469044,1.6311798476069572,4.11113040424131
-0.1593879305125676,0.3161563144268206,0.8844359460702931,1.3655291879477087,1.3655792876516601,-0.268592252187413,0.017341292319965857,3.4757534947044624,1.669004894908377,2.669325820475653
1.0518174406716285,0.6746127921524092,0.4905377856812132,1.9741321857166119,0.8662255768725662,2.7319371748420207,0.6246054897806628,2.0342581523442953,1.6099846859516276,3.7557089022310834
1.0469889759709934,4.061283738312333e-05,1.477040685374181,2.8165929958199767,1.5237137561355136,0.4922997899165768,0.009907550267695405,3.8904254551773505,1.9042277805704917,1.6765261929196222
-0.2590582247756648,-0.8591295905415223,1.2237315655211094,1.517720566616507,0.7473355772313357,-0.3791737554789705,0.09152959336849122,0.8397282891684705,1.2441678237910152,1.0488878296549058
-0.5713051300453966,1.7293420339375003,3.444035296874934,-2.1207728198828506,1.5852585115404962,-0.6063371750457983,-0.09692750984871823,2.6027678989160803,1.221446623492603,2.66713647905226
-0.004237755142599215,-1.1077760162806944,-0.8591564495774818,1.2226073936499915,0.5131762728553286,-0.24804979237657332,-0.15320127097481143,1.8866015811926287,1.6923056282036442,2.348748833334354
0.06481331889392092,0.8255147263318787,1.1939165014249369,0.1935530526258466,1.0407788541299503,0.011735910659547072,0.06301983638709997,1.6753976904777574,1.3919028569542513,1.7733621966716557
0.6949689939851015,-0.17334085116835898,-0.007916283302092708,0.49968903127573583,0.4566001602480284,2.635940578955309,-0.08844661890335594,1.7808594095523391,1.3174050508145558,3.201790266507041
0.8193211350296156,1.1989536339475613,3.375395048188686,-1.4097128571695954,1.5059701950350637,-1.2656649267239706,0.15529488806073985,0.24374630650796225,1.1008245539270967,2.4373907587606882
1.7442445559543356,0.4335897993512707,0.38889648802333077,1.562464320627888,0.43487539512278567,0.6615560046759645,0.7015986727318261,2.3933744185778565,0.34823263682394034,4.683847761716561
-0.14632690262143674,1.4450513624447077,2.9600815055742196,-0.7939895547936485,0.7613758893198407,0.47207729321611935,0.20417235094726194,0.06712955329407114,0.5219193820273955,-1.9450627344726146
1.3067374299302674,0.384688096561455,1.449067307083347,1.5383610293081262,0.9641106909466223,1.8136123634066803,0.2867400381703521,0.48827877320291285,0.4534621897239361,-1.6717079295290107
1.721444600894518,0.2249912554271588,0.8271553072055258,0.0391191182570888,1.3810351539405359,2.657201196688398,0.5660266820297064,0.4495735785487398,1.4621463831767625,3.6390266211738367
1.0965181994138635,1.6873690509195705,2.3407616028431346,-0.04333756585378562,1.486712791418787,2.827371130956105,0.5087253336156475,1.0765425981686128,-0.018316739656589684,0.4578163976465744
0.38049400453623305,0.4964585413480052,0.2664340837466963,0.6149078366321867,1.3154301887387851,1.8011816247280386,0.4587690020182247,1.3562752013597366,0.5203581345824371,0.6137768540939627
-0.1073736435633239,-0.059503426338736745,0.281847535806401,0.9812269323988683,0.4137860557593927,1.2163907430129042,0.4204018828184533,-1.6318304299346384,0.3640878394193354,-1.0768749422605772
0.6868352007567851,-0.21045538560795374,1.1500498006470559,0.6609083755636076,0.09773549661572967,1.8567752759650509,-0.006339687349860817,-0.5072584086715989,-0.038878526185380215,-1.5250989297935262
0.21710360060258344,0.7252057492996452,2.191333953537396,0.9338502219569574,1.5368365583134667,2.435238192316303,0.18546618386937078,1.4853271445985712,0.6342666829319454,-0.685606327718422
1.0720401620507207,1.7860328895553823,3.351986892479622,0.44240352766191315,1.1122288216583116,3.7844938663359953,0.638019431946041,-0.302314752578346,-0.6717505023748859,0.8207108440586012
-0.11589327685121348,0.5487508270853194,1.7383320286056114,0.8696926685162485,0.8023483058912595,-1.433611589454343,0.020098887577909234,0.6135016910688897,0.312998416162004,-0.07702473671659706
1.8282590066751472,-0.16526984292799968,-0.355279775793515,1.8049431862985865,-0.18332526498471546,3.1824880598668974,0.666226874704881,1.1136534979410604,0.1963089419652288,1.7072015967851213
1.5816540628374443,0.5416172273191939,1.8534346785842897,-0.9902222597482714,0.4998519445206706,3.798047646868694,0.5919672425346787,0.9353041715030848,-0.3338465213653696,0.6473031288442022
-0.08543953717423877,0.8291837023659295,1.962727512768343,0.10392053048137176,0.8617572415674772,2.5996615056600003,0.37975795823868336,2.1072591984083204,0.8048499074763371,3.1949985807877
2.085561221560135,0.02861883002324276,-0.2326348095101458,1.9339164824632658,0.9212445127102425,3.3381712364071006,0.7177251105682486,3.601927293361421,1.1090692917361609,2.341767547898716
0.42143480236804376,-1.0717145035504545,-0.6421540470551725,1.4670542399008963,-0.12877022769238206,-1.9186964778486,-0.4304219240803952,2.131180062925609,0.5978455611287063,1.0189931296550137
0.8661847795423893,0.44307893133867016,0.15488781657589445,1.3660711811125503,1.4893568799407664,0.6004699844293617,0.013403377456904399,2.505266279209352,0.7366192756368422,1.8206119274631531
1.2276660264895258,2.3848765650946704,2.7097972922805496,1.008023974066727,1.1806341952036157,3.348273886152506,0.5152591850544352,-0.6620376055960727,-0.43953546472093435,-2.224847493006479
0.4462261771180104,1.7088027800610335,1.9078555323104198,1.9714552778218202,1.3062288691950408,1.20856425762946,0.5132100203243981,2.6794495305397747,1.9245646109291525,5.1799069594227705
0.41070443119905703,0.7082692774806569,0.8713784537180915,0.5491325108948675,0.19677178947774515,2.8987391906871838,0.2690009839875405,1.205753818100982,0.7503410840361773,1.527520555750601
0.5210341139856928,0.8775977878212297,1.4923808869744923,0.998893064648003,2.118254368388843,1.7579011797935755,0.3451382676361123,1.4534106004024394,0.13125159729943148,1.0302128064586333
-0.47966272146843825,1.5392166852809517,2.4266045989412826,-1.5773524127578198,1.1444660957048285,-0.6112981342930868,0.20077645781867134,1.6444637373181294,0.9536955896383335,3.114793062023513
0.011988311834171145,0.6693770795596058,1.237402903521414,0.21590389086445905,1.0016038397893032,-0.21915902332479065,-0.08151421835499996,-1.2149201682864847,0.40049399570264754,-0.22123497256473235
0.4082364345697688,1.257619978062019,2.9215250295190054,0.7433953635272817,3.11145126512343,-0.9560485331546182,-0.1209476895437902,2.087558583286134,1.4189292880107716,4.364130713081868
1.8899784452077557,1.6470486677378626,1.8146610850624514,1.6597829946693443,0.6391121344492431,1.7253462302836131,0.5491275679133962,-0.9756121024676236,-0.2563933993727172,1.339141094029383
0.5248516219026138,1.1551708351487848,2.0232401087739165,0.06017166512782551,0.5805938519680822,0.17345979220343083,0.42051903041840016,-1.1404100475759886,1.3796997153546475,0.5016926589826539
2.0342445600381507,0.15959995697611648,0.6225587009006548,1.5498748132028797,0.10913058951798973,4.163522304016403,0.509110938614381,0.8908317690659947,-0.1848722413460022,1.3590678243067091
-0.7651332906258991,-0.7089142774921332,-0.027459101767342342,-0.6729054838029913,1.315878725889985,-2.288781393277092,-0.2955775456594227,3.109525409160726,0.7192470788955644,3.24275804747337
0.31049592142575466,-0.5088216339942149,-0.4911367805082093,-0.5352458059979032,1.3905552089830806,0.3572695014526679,0.3215806181135633,4.414935670131099,1.240355439753169,2.4365467097424824
0.3869406746174823,2.0724369148479296,3.215664395623297,2.591348218704584,2.2168783546077813,-0.7162294174267957,-0.024990539062116127,1.106224454720646,0.6516982363023953,1.613832247534034
1.1546801604592436,0.45687174396160346,0.5519247358411312,0.387854720990898,1.7493796141337072,3.2274270253207216,0.9363117073900594,3.99255811247228,2.343559885594783,2.7362771864015163
1.4702418660744976,1.1956219614279673,2.5337794907409963,0.3461696742923546,2.0742497533432873,2.7840537263024014,0.8732928167302464,4.441634571862908,1.3373739181606714,5.357164866259518
1.1574158195498636,1.1739353348593506,2.7524504474088536,2.5911993191711384,0.856191458410225,1.677058259649269,0.010212135415735983,0.906905774007737,0.19354728922546657,-0.7652891903363318
1.1841807843960155,0.20603506349796116,1.8022168678674366,1.412037648142417,0.6397637992411125,3.2276167059935865,0.4453223790236751,-1.5006588387118174,-0.7532520938970798,-1.5907496889485053
0.17036714426388638,0.24872767411746935,-0.41777092181351705,1.7244182078820705,0.7662148110619955,0.7639476603211481,0.09778680478934197,3.1484487400131993,1.0161445413913546,0.9775060128722255
0.8984318213888092,0.3257463191506619,-0.5140893449570079,1.0662996879984898,0.016135225910662937,-0.5308064031036435,-0.06811766235218027,-0.9762473613682552,-0.09750760425032431,-1.8063937531510492
-1.0732090484223964,-0.1734938470187274,0.4314394308334428,-0.609039001565726,0.8929159774521968,-0.7285499340009103,0.184964410808687,0.6132185902493189,-0.0028826753087241854,0.5064312313662475
1.8007424631297182,-0.8166758744005415,-0.7437566095915285,2.875426321105328,-0.41218453294324187,4.247942669005854,0.42544341752965803,0.8787309426530852,0.8158248909386514,2.117114593624103
-0.2273246441315029,-0.9082016897653901,-0.04361598705038672,1.77507367606821,0.07898361734610931,0.3750522046840352,-0.028141840270744393,1.2465153559071933,0.38194621830121295,0.044082435025308044
0.1462849055030233,0.5681366766106132,2.3712502376111715,-0.7148919332288399,1.038201948491328,0.7660079509908346,-0.4004563999496761,2.0652403963746413,1.1703674758138023,3.006138824732887
0.8887524842697161,1.5839449246264614,2.0409073587352715,-0.8869942883091877,1.2840523999373574,3.958004497607593,0.6495112334485891,2.6233777573036146,1.4845571396974429,1.7209991259204203
0.8074575272434164,-0.12745276046384313,-0.7110349240242706,-0.8757608032737974,0.24823182817012848,1.2459836466232357,0.5001126920118786,1.4569750520511953,-0.47997291846974055,1.0797993019049401
1.4955770872734488,0.8989231093750252,-0.16632174394412025,-0.026075976927883632,0.16891706454964325,3.5444150250829596,0.2776507111630622,-0.7376393231105783,-0.39665658086879124,-0.6630639158823645
0.707356536759834,1.7030021424275126,2.881838390414911,1.2863549358873128,1.096075784528414,1.2357649894787193,0.5732626052926638,-0.4625244228597526,-0.174352021174153,1.6242468023301646
0.5360355774092469,0.26007667569836407,0.09914617327465591,1.1861280839386816,1.4980604722439417,1.2261402556566199,0.006345730527118499,2.0636481498101857,0.4341417710634998,0.04607698958608043
0.4983453651857636,-0.16045243850730898,-0.32863358691524835,0.903817077746891,0.5628085323902987,1.1123353505693547,0.324326214178506,5.240300445139671,1.0536602864871873,3.8329354417274493
-0.6463664557498432,1.3033212204725455,2.2156163034017933,0.42233194414630437,2.0638369291030605,-1.0938246657359936,-0.04582473505119815,2.2616822797186593,1.8965669286821771,1.9921059199968032
-0.20438064838270434,0.5221515411274996,1.5404629714229636,1.7351592596494028,1.2550617995709856,0.7461879686929173,-0.3154525482361453,2.368413302945486,1.0157297191340515,3.184538033835574
1.200304317298082,-0.3841014264126423,-0.3060246920418074,1.160407421331669,0.0503433401094896,1.6252831823438412,0.38190646113536714,2.619811552234543,0.2525230568287171,1.6122029800194797
1.147904842729205,0.3020604124114617,2.1101335103333017,2.3860548579472036,1.6274688681313774,2.344745596591939,0.6713953065715672,0.5504474747319363,1.2776667243405635,1.5256986828578887
1.5171925860109146,-0.4408673335649969,-0.7494458301593971,1.0109544491576774,0.5664973854057456,2.726733296661696,0.33103700564224314,-1.9582496596002716,-0.47779967635564985,-3.5807162294239445
0.0795770252020112,0.16848719570001444,0.9333572808675259,0.027065502708561673,0.9129802492083028,0.45626118581670694,-0.05560934088190374,-0.26416127612354806,0.6873805290809077,0.09043526045261954
0.4057970887574186,-0.7697102215652012,-0.565081957420259,0.6121554670672702,-0.4964835461178176,0.20749173441707125,0.19350559873548606,1.034898081434694,0.8625209996765115,2.5973425186636314
1.5628487133191287,3.06857943122632,3.1578228833101223,1.3588146500456317,2.0164631679629776,1.4612175087222583,0.3888052718656071,3.6311431982616647,1.1545360810622283,2.87851401349311
1.436492107797122,0.5681178750870649,0.7267855563556733,0.6473665262997064,0.5791235824654619,0.7918832104000839,0.21730457451221571,-1.2572880816681917,-0.8228786178631439,1.3940843066103097
1.248512940197264,-0.2804911479992075,-0.025868689863659644,-0.3956443910579933,0.7676597206408394,4.599855937575948,0.7435522868391038,5.43976815845155,1.2902308527310018,3.5653909186311283
-0.5930586952749586,1.6010161287945754,2.6924212332490893,0.564362550871576,1.5270131137909284,2.2109826789659732,-0.4569244345686935,2.3251930939055585,1.9277038185803619,2.5587229292722764
1.0768750543019727,1.6052866411682372,2.045042558343328,0.7465391547940461,1.4062032314696746,2.987839651570516,0.718810982114893,1.970296205802445,1.2255564926413343,1.9573585097787831
0.38954982419151835,-0.0009902577078792225,1.6698337371822842,0.5962474161790015,0.7796280930211601,1.5265993229425465,0.14311538408262142,1.3567891561587828,0.2793178789832408,0.07548985741119854
1.257894886941811,-0.10807275223580878,1.038985083898282,1.063339359272018,0.7163033343112263,0.8170774353399963,0.6381754043273765,1.076376101871843,-0.0846893326281641,1.758479248340921
1.2360694707882165,0.48985524600250785,-0.026373359878628655,0.951181160100238,-0.37013082939829517,4.393334930377698,0.35571018534026577,0.8613264453909387,-0.7372756342237029,1.3236332583594934
-0.9181857448138483,-0.20439448700117663,0.47609778907967515,-1.4692153888279678,0.9915233180908274,-0.6257093554792575,-0.3237129469262023,1.1558310556975737,1.7889811804807592,1.4394747102841017
1.2114851300395462,1.6982475046310073,1.947611751524637,-0.18459630123462903,0.616274706584423,0.625125332095912,0.3768522047370493,1.2457243631374662,-0.5630959203503132,0.11127057921549574
0.496320144262638,0.05213820915089176,-0.08650310061115263,0.5875985340029272,-0.7599506272405797,0.7710511024725093,0.6273264189782846,-3.4313268477881267,-0.0844434940711481,0.8204734409540859
1.497546733489302,0.4886153444426628,1.9732727437163633,1.610357129936257,1.3894939753621176,5.967261434370016,0.40728254736424063,3.723292166700065,0.8434010581050093,2.6922658833638344
1.1044454214000083,0.2729460790386755,-0.9102075940324499,0.6244971357226311,-0.7580250624527493,1.5472035005521314,0.5132682815504599,-0.24648800597767928,-0.4847984122644015,-0.7042513763101492
1.8718950689678788,0.3098807301262247,2.3025139609360252,-1.9114500892383097,1.0448086050830316,2.0217745458343575,0.9363713015322179,-1.1065193203556307,-0.1794086246402551,-0.49678624054229065
0.41153347485463554,1.4822665170343294,2.5869175836760614,-0.27500152623557966,0.9908363954762051,1.1342413183180764,0.29536919948323004,0.058315394374833796,-0.026661891789157715,-0.7973780349750661
1.3247267149321664,1.197549234828584,2.3687230151753256,-0.693572748025659,1.1939277100532562,5.558944788058492,0.23141077308998367,4.385868470142937,2.4982280435306894,3.126386203958608
-0.9435380650290245,0.2717061222910996,-0.6306171071342489,-0.28682505739427205,0.9728551943684117,0.28560452547947446,-0.3830399282284659,2.782155736605895,0.2841642540620172,1.7864907493506317
-0.23812223373965227,1.8454027258829784,1.810683206328184,1.0908224785204137,1.3060461688760716,-0.3024073905071336,0.27634907884205,0.5837143276544912,0.1633305082611804,2.0224588960231875
-0.05606963600249707,1.5828743326337278,3.258383631811692,2.444542517018735,1.7406558536210437,2.309159797280686,0.5354829160140658,2.1297752168203856,0.35415691864443294,4.049686361902045
1.043860405813207,1.1796581666645964,2.3887694292667256,-0.18631499948384042,1.3358479783253645,1.7033679384030305,0.37930164126959076,2.068626137490846,0.5543447447501912,0.711428290055967
1.5233771268910015,0.06260073013859223,-0.47328701628369907,0.29047359970282,-0.29969473153982873,1.415673069091991,0.5632018072238685,0.582389035358992,0.7006982854716991,0.1948374872211169
0.25273875440428595,1.1531072313393615,0.8288105767973863,-2.036638043737377,0.6059855462705971,-0.9783294375733413,0.23384214758699098,-0.13159392420127958,0.4995127015834283,0.3859530477448108
0.5253495068046101,-1.2823424164607573,-0.994349704221642,-0.25011616581829194,-0.011178491855312611,-1.3160228458760326,0.7063536141440518,3.47228037401643,2.2670407417836405,3.201366704635004
-0.5085730255014318,0.026641972579775665,-0.03695607986800287,-0.1814351193563164,-0.1606344720797518,-2.1600197957854306,-0.13061628289272248,0.0024725800579451646,-0.40331343628610317,2.215292653354298
0.7426658061229854,1.7175094573276437,3.0091851414929476,0.7366777012363076,1.4486696977805504,0.8836455299839243,0.11737593326099158,-0.5708396320183258,0.7227057273882276,0.6066555080615936
1.184051262478538,1.356307861015393,2.2875350507176186,-0.0887177090318636,1.5795923018146543,2.7599026155294064,0.6826111130496598,3.745705749306995,1.0886454957283793,3.5785543623789384
