x1,x2,x3,x4,x5,y1,y2,y3,y4,y5
-0.21097367716714388,1.414349922870016,-0.12843356737385378,3.40774853827644,-0.36604309511372324,3.9832167024231078,2.835881456423534,1.9360283842276051,-0.578042911839317,0.6282748117610314
-0.3083797215383483,-0.06091003913172788,-0.5412642292880309,0.9652916315882709,0.1990035640310482,-0.5086829665525497,-0.16193428578182123,1.2067730106866001,-2.0759570208881435,0.7674221123169075
-0.2827654706184285,0.7359383764970917,-1.0956726084940485,3.3996217577174725,-0.129424112805833,1.8815589120488219,1.9088207046862196,5.2045979932027535,-2.505671096025865,1.0619220075071583
0.4778065891714678,0.07567420971693317,-0.06019895396241772,0.9363292664681684,-0.26836904590893607,-0.2654000484612731,-1.8179895133959025,1.6128713128925622,-1.3467862674683388,1.5603578497612498
-0.4796844890531067,1.22918090245407,0.09394732188002794,1.977726240984869,0.06748089127241177,3.070817457487256,2.7954504382756054,-0.13654898370987434,0.3333257995920373,-0.06731748193729614
-0.1605569872868027,0.5797281991629333,-0.46193520123056186,2.6783577467612907,-0.016766161232217087,1.0146756581016558,1.661170362053167,1.9368546008164338,-2.366187127928672,2.052016261096146
-0.1404602073617879,0.6864785377132205,-0.8873106997631216,3.1267320441460145,0.23308270457940156,2.172476879042156,1.6074755003251928,4.356029492720329,-2.216381556874094,0.9357655659845227
0.03528169264712736,-0.045985732556267145,0.11682726395608065,-0.023268517863304305,0.2945659038279418,0.0703831403716555,-3.241824982958159,1.458487379940687,-1.5715994545296383,0.10793123528639524
0.2209608005744642,-0.3385932125557942,-0.3378745783318733,2.5912611456234176,0.06855905532886702,2.458990769648157,1.5388962447632695,2.216380020619443,-2.6436202088128957,1.1465363390399739
-0.4048164881837197,0.02007528397105207,0.32104410843224696,3.0578510754131063,-0.27071666154565555,4.683335063320909,1.7486537592482847,-0.7836538995170731,-0.7553190987663247,-0.5294779887058538
-0.0001915797065783212,-0.06852826294779768,0.09949954871152504,1.8772909085287295,0.32048555836939624,3.623308668455099,2.6603549463601217,2.9318841186517384,0.6957286234100654,1.3070880933581486
-1.0599685602965723,2.715572154503787,-0.5637641847127716,-0.5431176580027657,-0.2424382115001702,0.4520964676939387,0.6110725888799036,2.548120757621937,-1.0405365498714856,0.20121657266001336
0.17468210882889876,0.6833678095948554,-0.5160551201070244,3.146573677447754,0.045772598747240496,1.6037852731499487,2.1804340947442937,2.5459299978559597,-1.4095526862833203,2.267812854282057
0.45452862615311995,-0.22929812199913546,-0.21041607462902306,2.0026819369195326,0.022310735019693585,3.320042873925277,1.378208338503236,1.1031380298503113,-2.7170847633639017,0.38450041582216554
-0.25608196141826023,0.2041168762062504,-0.262282659992535,1.4087575400586871,-0.18751441383606832,2.7826369365510777,2.802864288388022,1.407291805739429,-2.0280051090458415,2.1488655507519945
-0.6033519621050721,3.380157353783016,-0.1835597687776673,1.9587071606887365,-0.5870275462605675,0.6103370924100305,1.236557599324788,1.1392557291706116,0.49200414785598834,0.6154632204551571
-0.37292828257816557,1.7118783686338515,0.14140954763298408,0.47725560691777646,0.3893150997378259,-1.2833592853633145,2.0500921576806754,0.20294190963812386,1.26205813078985,-0.2773063649364167
0.010097573948918975,0.06848205319570932,-0.8414797766876907,0.8204057296053022,-0.023550764113635412,0.8923909660844206,-0.06598878527609608,3.984619065142171,-2.6150580262192924,1.966390813751005
-0.35503829113396607,1.6659354786063978,-1.0644302924595552,1.6591519073266823,-0.6856400278487963,2.3108658436883607,2.2891048293722998,1.6201915805567775,-2.6906174107591054,0.6876253387566623
-0.2140643309669262,1.7147950896837898,-0.0978484314758452,-0.6032540081225743,0.08522860077898346,-1.659173425164489,-0.15147395446779133,1.325837744361351,-1.0488430686576515,0.40910183447587667
-0.08322356102163722,1.0254249572608023,0.027538059597634446,1.251843244249089,0.14223512760860996,0.1358311815328622,2.0876423503259183,0.8699865350524257,0.012866351509420296,-0.2832734540708228
-0.6645187228271021,2.568706364720191,-0.11225145424106514,3.33556474018473,-0.30463131709815217,8.5071626849106,5.165447963335008,1.1046931145910592,-0.8220774770835049,1.3123753642719882
-0.3986031374895978,0.7669038966680224,0.4428626814290312,3.120986447718515,-0.8076644241734446,2.337401667421657,3.427660600742639,-2.029645120152636,0.026017315953814072,-0.21331623729219584
-0.052499895429917634,0.9415032254964026,-0.9373657047861069,0.6374599716574545,0.3666917647300524,0.7784398812239537,-0.7748382464748025,2.3393858729245345,-1.6688241597545308,1.2757356465412584
-0.4443665224390844,1.880355636862888,-0.31050180192812277,0.9769748305074613,-0.03880034192227026,1.5846593814628913,0.2114862173759457,-0.5784539586850773,1.1566764575273545,-0.17962496689204
-0.023363282356970695,0.8076607608369422,-0.9363731505561421,-0.49363279711081753,-0.11023132433983522,0.37299354666126205,1.4032043471596918,1.6146916385633518,-0.7302237033269195,1.3842445225329238
-0.7164702967353596,2.2408478153005356,0.026211238996309727,2.832133046761941,0.24630749665626603,1.3205916378477962,5.888747357818558,2.5967324023732488,-0.06023265902098306,0.48151645947296606
-0.2959114751716362,0.728128211437409,-0.6357214299614524,3.381425502697909,-0.2771384403458598,5.168168200479835,2.1707877672800677,1.8177662361353735,-0.9842612977077462,-0.038459996189667583
-0.2937411185754705,1.635111881410174,-1.0031086775666362,2.172423910989052,-0.3427550064999609,3.739671320986891,0.5735823591186252,3.7229839106948632,-0.74506080821344,0.4173715542513009
-0.9808909496884597,3.2116466982671197,-0.41631650391896313,0.8948999630043311,-0.22387566058604733,1.7118907566083554,0.35058319206577615,2.056984153160885,-1.2018510937032356,0.2900060590829646
-0.8157123902104516,2.1430207484385044,-0.694770745353141,1.3249659565941432,-0.2931184541510477,0.1719765169435017,1.9691389538919357,3.7068695994586935,-0.49271886408475235,0.9569280243073913
-0.8247195437189598,3.032822440712226,-0.06373390418333207,1.2567104348378564,0.107030863500705,-1.466440340266506,1.578644805461609,-2.4930305633280496,-0.1272544996903998,0.5372153583496193
-0.3534981879900172,0.8473775895097335,-0.07193204909260438,0.649246546987337,-0.04015723156219144,0.80320034814758,0.05407724992276436,-1.5634955221659474,-0.04240939483829696,0.05035221927738566
-0.5497085531611758,2.983862346739613,-0.5376750511061692,1.706103487311493,0.138962438730081,3.2207669109161925,1.3701410158897964,-0.16809153011347155,-1.3670141400819584,1.1462335013886722
0.4790635707403233,-0.9817966358524874,0.16345974863649154,3.3820923787263206,0.1717020048427056,2.230905857436016,2.046956907263339,1.9370389546609255,-1.4489639212678644,1.058949335130978
-0.8438320010285342,3.3681670339685867,0.04584019431096176,-0.395239607415402,-0.14828093572829903,1.8430895460010852,3.7551424520328727,1.741690452858765,-1.5508235479427956,1.9269236136512444
-0.9542775198469025,2.231847197253442,-0.46770744538074416,3.144141283740306,-0.025018769643256923,5.5265786077327235,4.846602184874758,0.6347328333928255,0.2763786683359067,1.7206085066716539
-0.1196369606383847,0.7113486581884476,-0.5327527587345605,0.7507933752939289,0.23083925723296173,-1.4548749342774143,-1.0859524598252757,2.366979886676395,-2.018077194217209,1.7249401260102537
-0.7342084198889339,3.173122893896264,0.14394896372047103,2.470434488946686,-0.036316193551897136,2.435398568689676,-0.5617231169031522,0.03752213676903848,-0.7179850717211789,0.08442227137847484
-0.049775080285606996,-0.7403660931512535,-0.730202481348196,0.5559153941936559,-0.2896564493216341,-2.1230671739941025,-0.31696728737432256,-1.078986267227256,0.2119757515000292,0.6175464164047488
-0.5811903707590044,1.1549688569709362,-0.48970313271019134,-0.19158794152595926,-0.010137214268313668,-1.3726941108858746,1.3769283297906076,3.5349723992997375,-1.1965962285727798,-0.35025217164063294
-1.1842640873673635,2.984671168522021,-0.2548408718405347,1.9486883666420103,-0.37325770794745444,0.21373286572803174,-0.09858220818791505,0.7125167427994145,-0.8367894182478117,1.4533430291477114
-0.18521680951720426,1.006777584443162,-1.0417596678732863,1.2849622055274654,-0.24566299834003888,1.7727416755427519,1.931009967743334,3.7775986152648398,-3.469629919463753,2.490328468894723
-0.3949302465334358,3.2046372294856713,-0.12046409389850074,1.4699625822818079,-0.06516146761985515,4.086187395953224,3.683342607970079,1.6416191376320617,-0.2784306541870154,1.2077359066151
-0.717828794083657,3.145024590810573,-0.9221993745992184,2.7974262242159957,-0.0439973632282461,2.9917316898810795,4.16016640302507,1.9950842728037972,-2.3149555744725165,1.0407627485560824
-0.04914055198213621,1.8227414122704042,-0.22862226103575578,-0.24730651431191253,0.23386247040655728,1.2255685548832203,2.0291804133490863,1.008434464870381,-2.6700324644108813,0.8102985437390984
-0.053644266192780565,-0.025252934155778117,-0.29030395389686214,1.0240602751170131,-0.10065770279159802,-0.11713333756073141,0.14949690643306213,1.4079615377309844,-0.8533460057203955,1.173478323455831
-0.8966450477636403,1.9504726166645332,0.354810951696473,0.4318938661800791,0.27593669520179737,2.920273641314267,-1.1003537888520647,3.6817931599843146,-0.9831656165836865,0.5906708311334912
0.008692890051405904,0.32456410826325577,-0.028455431930653932,-0.09919722902091443,-0.21707413276488075,1.2922013066496,-0.5630140445301444,-3.0068109907733205,0.12859125829164714,-0.8447765811792883
-0.9140472763794447,3.3029352709117132,-0.5347006032792441,-0.6488494121671127,-0.07542929955277441,-2.0573468858469783,-0.5488028753572383,0.6061274886037897,-1.295633186316659,2.6251263353394054
-0.305485860922808,-0.017648254833857457,-0.9626339478285649,-0.6274384727262164,0.1830644060485364,0.6946387421265516,-2.935033315316789,2.841081416009477,-1.0885529514237215,3.4097877437900053
0.4476440196970327,-0.8928865057360541,-0.09610708482991814,2.898779131741768,-0.09138415755363206,0.7968045521249874,2.9951810501376883,0.20412812095183697,0.48434619999527917,0.14026458875299289
-0.06563864410405926,-0.055584128143269074,-0.41549833445615425,1.0983077626127358,0.13152537473215806,1.1372870730699798,0.34639357205016447,0.8682924149181854,1.1492272438388509,-0.21365268379059502
-0.4355545418073796,2.837192557412258,-1.1432564852214384,2.7993571901846885,-0.19933382462301072,4.500285556495711,3.480871201483474,3.694000231654932,-2.3183879673387495,2.397414263611445
-1.171128325532564,3.40946128813904,-0.28807586252400674,2.2227029150741964,-0.20796160657733814,3.3962955986615,2.65221515415831,2.493608082122435,-1.805213122772421,2.519959084726477
-0.6103299022864386,3.3147321989263148,0.9884796710796333,-0.19837703513447136,0.23590401477747114,-1.0661740363169723,-1.218353378890459,-2.7262076845328207,1.1175156561986503,-0.4012292942181521
-0.7048578298836796,2.680123339665406,-0.11000226688532896,0.0129336611736941,-0.29726796147594736,1.5208787476081915,2.967737897302362,0.7427641982002214,-0.7240108347084206,0.10894028075665337
-0.2517566808075266,0.6429074540985027,-0.536087276900841,0.7037627560848216,0.15114869064305808,4.792738357144181,2.4053392075541553,2.16004565763763,-1.678166035921075,0.641413997342799
-0.5410931226433737,2.3403932415205064,-0.45207959708004364,3.1355958017234364,0.312917832327612,5.574461838585989,2.412540850677173,-1.7109082642619657,0.7912321732002758,0.7299589285355611
-0.3322251677465952,2.0739151410115237,-0.7678328289740124,2.901390479392494,0.01734064953005241,2.2583448000299806,1.753419197307849,0.17079638151992316,-1.4998263651194275,1.8929350913746859
0.1720568915559352,-0.32596645962650783,-0.2694183495402695,2.6452820070291545,-0.037135294654009346,4.400487475228322,2.4316520418235825,-0.4408373749385174,-0.6190018846401476,-0.4894971244513653
-0.8798323643754923,3.187020646148916,-0.13352226737262146,2.4546021581464204,-0.1397461634899935,-1.1426089806056274,1.288216213637246,2.529252148308509,-1.720479340822085,1.6856843563982236
-0.8223263272456278,3.239624842500155,-0.7276226436509734,0.0888621142076067,-0.5379266179322925,1.1168353486293348,2.057925021085302,2.3520441169179236,-3.475304922157852,1.5043534883787388
-0.557389782945958,2.4904234597527513,0.35281863850807776,1.5982275892736917,0.19267073879667326,1.4210757726886534,4.642352615135611,-0.553059795068336,0.48303859587186126,-0.059694888135723885
-0.40679264081649036,1.5259950768298496,-0.7987054271124543,2.1277185091027486,0.3224661395304153,2.094788594521569,4.931422636281267,1.7008910259932595,-0.5990440581155277,-0.19860304602482373
-0.7726731346921495,3.2993368505170793,-0.4587008753020624,0.9136095388741134,-0.1396195062419411,1.7015391388804335,2.3175858092044974,1.6960748547927404,0.1091593316548993,0.8487501930789894
-0.763140302348342,3.1909405824349646,-0.0960448394807106,3.334152406655961,0.1800199703429751,1.002632216795789,4.483249025473938,-1.9390309456012398,0.4847141850147928,-0.7018202092697406
-0.7491069621907083,3.4374161720240544,0.13602583143403899,2.2357951958461446,0.0008234476855258167,1.080086546444361,4.1428573917856575,0.5034937748602929,-1.750868561553235,0.4188352297978851
-0.1967408349542982,0.3873167706262399,-0.10782203417320071,0.7975960204186667,0.34523779572324603,-2.82258283088494,-0.3902261273573956,2.7902331034860506,-2.4675153093646935,1.8658023078122836
-0.28148640382130474,-0.3327331480776612,0.2989681391553725,-0.575556390475839,-0.10645541720009837,-1.5682434400279393,-0.39932034162428043,0.908472107968499,-1.33586529145731,1.118433375486623
-0.45748390637210024,2.2122447658423456,-0.2371193812165419,-0.6630428669957485,0.07411558328584611,0.8036817684182096,-0.24562988629390214,0.6181386453843105,-0.6628214364251365,-0.2990829732535184
0.22800624782385714,1.3127256334881583,-1.041004922080972,3.0985058189613195,-0.18560303064902195,2.710151481624102,2.3196441023995185,3.376435199776501,-2.3766616494379345,1.5854843719218503
-0.08103001902459703,0.8315468057289637,0.16602635279022854,-0.23386166543828235,-0.31382925708139936,3.4583406404098227,2.5948719695560323,-1.4577542467162161,-0.14395778233966214,0.4720493104398416
0.29102296201876715,-0.2616901487896468,-0.6450569740577347,-0.2536850079696469,-0.10094661105351042,2.0006402022953784,-0.3611141629392468,0.3011666120830123,-1.1404009320610269,0.9095200793299251
-0.8429224508157137,2.7322521679387672,-0.7417577525917061,2.228172082721285,-0.6694165167318703,2.5213608528122884,2.163196784874003,0.9916413907026762,-0.5703183198079685,1.2030787333051882
-0.4561943498173126,0.5930252618309473,-0.4882058777400807,0.7877150717880037,0.3021337433867489,1.618323247801464,0.9859154730074302,0.15416711676871975,-1.1891051901183487,1.8410851026132729
-0.8579949321116664,3.3536047831516775,-1.0466023011861099,-0.35574739330718885,-0.3342157983753462,2.5578875451183314,0.16943914693632656,2.9515878967486446,-2.0746244709362194,1.4623691414460247
-0.22391479835142483,0.9353290126735316,0.01917461310538853,-0.7037805221312194,-0.14647247112276957,-3.1574101700101114,-0.5378553747863762,0.5790380250817748,-0.021828281833610397,0.2817226606404278
-0.8508188812234488,2.442908472571249,-0.7223847760618458,-0.643699332100666,-0.17450789863839522,-0.0686441835361371,0.3056234304155895,1.8190544242093531,-2.458555714680132,1.8125628237090952
-0.23246319247993558,0.2376461702374575,0.24592119290670778,-0.5208975302064119,0.08892840440518313,1.528854857117199,1.6476704866464904,0.28403613156883156,0.7805168232560028,0.29229405316517837
-0.20260221986639537,2.4928628266247506,-0.421324708328255,1.4879706151997807,0.1411125549349456,5.521060790093684,2.4449924624380923,2.368390582904956,-2.999983830728952,0.9149823424985433
-0.16267616700220194,1.2018012963524196,-0.43567268751669197,2.0332042551185365,0.2652544970992274,3.8936011343136863,3.297250970478871,0.6204198727703514,-1.1878982054139213,1.6893125993030542
-0.35291222972448444,2.0508943573877287,-0.8778898335726482,0.799487492878765,-0.5319863986785884,1.511237963250699,0.5093724770514766,1.4830214579442933,-2.3710518798850826,0.44382645284806604
-0.4253215719878587,0.5463815767542324,-0.6135534370831016,3.363711605031023,0.02428233331258301,3.679785826437296,4.275346821273538,5.303406453135043,-2.8177914579908263,2.653981236095276
-0.6520174214162446,1.774929635315376,-0.3754376294590379,2.1748194577299205,-0.15115193024434853,0.6620068213437922,-0.07263419571434782,5.084529630285093,-0.05708745716370388,0.8031503650499467
-0.2642856073592755,1.621456831763608,-0.4927182818312772,0.5037715640911173,0.02214166629176482,1.2093837121050566,-1.9486967325470785,1.3630999101601453,-1.5191773376495619,1.344799672367283
0.2279744505875594,-0.39819004306713357,-0.33841023467605624,3.2408043638361352,-0.08878326977606978,0.38955873549533837,3.6379151284098636,-0.004793825316243172,-1.3833966750902225,0.6272698179361662
-0.531177920768847,0.6460664041910229,-0.2266112571673321,1.6014423929965695,0.3649723331202013,1.424791822740487,2.632849938645802,4.009949961209519,-1.3259863183489116,1.771958135742475
-0.701984259599382,2.786668179206508,0.26080366277324596,0.15378373606563467,-0.28983091151017987,0.08821054749522883,-0.8698503350908524,1.4853668494416348,-0.028340392371730617,-1.3993722751989568
0.15340283751340988,-0.4191669691766461,0.20495309451804042,1.6425811502003937,-0.10391199827247176,2.129799732818805,1.5381451104739812,0.6346235905415463,0.3256241997481751,-0.3955605272727873
-0.24052245818413573,0.09388924891287376,-0.3119990462765353,2.258202777810048,0.07611551874785316,1.9923518794422463,2.243877686715699,-0.2690896481018322,-0.8513332177665944,-0.15055332008563196
-0.6843973091935044,2.3456461677078764,-0.1773772285529311,0.09767289246253008,-0.05060327863171697,3.586345100209452,2.632242310918671,-2.559552163464039,0.8757283379214149,0.03397190566912674
0.2199453404875823,0.2841254297179667,0.501391289952302,2.4008837954897477,0.29107616413439535,1.2544892276689985,1.585282946037659,-2.0690937552247766,0.8044783201865555,-0.8881307155653265
-0.6985204568255248,1.664177278749385,-1.0218303867407121,-0.5826281615335955,-0.5900922726077289,-3.1132300624726508,-3.656735278236358,1.3297461638737555,-0.7129451882365121,1.4129518176814622
-0.7442498680735773,3.260096341628814,-0.14821509868435856,2.430171427941578,0.43592930938334457,3.520592004503329,1.7839955025082446,2.7269648464254983,-1.057906540512371,1.185735417061599
-0.5050071751104924,1.3560823442002485,-0.879878656927299,1.1970489795102632,-0.4577649012345201,1.1334780982921264,5.406309079687693,1.8018154379614373,-1.137259353909066,0.9361060318576151
-0.9077746155758768,1.8941425084289145,-1.194517907145275,2.6052442512721763,-0.32713308047743783,3.264968383514033,2.371155457507575,3.3777824187764898,-2.177433036517851,1.654076764741667
-0.24072643744282088,2.40087419427585,0.005122700156844517,-0.49615880978480675,-0.09409617728308069,-1.3083516682876357,-0.6467066815736835,-1.2532913715170335,0.5671308377220349,0.1390828513059682
-0.18221981130945278,0.8856818343877955,-0.6421032078128267,-0.9433018644159947,0.10467474525899337,-4.345280345109361,-1.7277272632271066,2.7016532078650592,-1.2489613780952524,1.2463318845422546
-0.30368695910725635,0.5842659542248909,0.6486263161768925,2.0005564966636995,0.181963857845311,4.469449341640775,0.18429077554664242,0.657081817212732,-0.12492014660782098,-0.586264912276205
-0.6679026154927505,1.5689086054241055,-0.022683500816770737,2.3145806904099144,0.3504126857852954,-0.12754863072775535,0.9307979871123045,-2.6230639475242037,1.1375270929369987,-0.34706295333855824
-1.1214222708882822,3.307151901108764,-0.37960562526643626,3.1370003047869925,-0.34074821250585274,4.358714322808161,3.4219925901984567,-0.40611662725550746,-0.10008901640595826,0.42404141002824486
-0.4084772789621437,2.6693204226170697,-1.3042998315222283,1.9969689159198225,-0.10130872393682085,2.9445858731979184,3.628423525125486,3.158523722493985,-3.1094251714212726,2.7584305400669122
-0.138573219410882,-0.34149641407739006,-0.5250545614665867,0.7686329760019435,0.34858942093615536,0.6601464350532179,0.3800792996391358,-1.2699165961777785,1.2843835219162034,0.5935411048009929
-1.200773537915294,3.3232045489504562,0.11267927947214376,2.1388333066319176,0.008555620091550201,2.478124788177827,-1.2442773874272404,-0.021760873024447236,0.17555978369376796,0.18908370636051988
-0.716396627174471,3.139326150994691,-0.6127733434720097,2.577559547600974,-0.3154539810390682,3.3478932969915616,3.853401078258694,1.9116214557758484,-1.5912856235477855,2.1128615922414773
-0.4631141433942938,0.4247194539601351,0.12094430331207837,2.92866839650991,-0.042326596856204206,-0.8773306934598912,-0.4149821594481795,-0.37894015051791674,-0.018773850756547153,-0.5773793995563493
-0.17797772364279796,-0.20693814769062535,-0.7078219912046452,0.23107418716701655,-0.12507730353529145,2.919332502771365,2.9167369763263045,2.065160194246024,-2.300499774815736,2.218697426037837
-0.5213177274282372,2.679944241865979,0.29716278166085197,0.6056776081407484,-0.37666507008026173,2.9864993421357844,2.739471846341691,-0.4550822751373881,0.011998592300112267,-1.0459776503024223
-0.671602819323247,3.3248298069162425,0.2089144634420376,2.2631837617722805,-0.19816678489024156,4.569272491451934,2.1954578164505105,-0.7089801563184669,0.12360756090028176,-0.16699914967210583
-0.003466065968213233,-0.2966624236708568,-0.9094507910987577,3.4588922852983677,0.2207135363476392,-0.18952050273233434,0.13276041124533688,4.306106779452521,-1.858823606514182,1.9755225201764046
-0.053940867803458456,-0.557725099821486,-1.0021932211562292,1.9084810233329783,-0.16967496166924706,2.8675110020780656,3.599591346265031,3.171945906383405,-2.308444897269274,2.36015685894543
-0.05750764858604235,2.1766835147396884,-0.27299244084780105,2.6056769554589736,-0.6290035514126181,4.41902079218969,5.209743995952413,-1.472671101648666,0.36804530135702945,0.014156611656422756
-0.7178791044954009,3.269415048886005,-1.4892217181217369,2.32455450504252,-0.05357984770601095,-1.7541610939900814,4.579298201708783,4.3810791232869875,-1.7908385586706683,1.5215060432768388
0.05896178335179038,-0.012398344928595706,-0.6595044465290136,0.41899668101642806,0.01853711879850962,-2.1770153126826752,-1.2569621724238018,1.050560905189125,-0.9675811300338597,1.7483234394231348
0.06622014723984364,-0.46690565828985386,0.2518334065920221,-0.7567519472499767,0.11358805985401527,-0.30578807312704787,0.5288861863343319,-1.926249756513497,1.35017810260122,-0.7393985660400852
-0.936980372950666,2.620511279752801,-0.09596855524176853,3.4150137357052204,-0.05079395802946396,4.305735644195524,5.227345762157779,-0.18570666551695847,-0.008381462587844897,0.12387467263303913
-0.500212187100073,1.411425523926848,0.7850660342949127,1.3893993497288388,-0.05494646408740879,3.718949344781185,2.8769317258214206,-1.6962849733684202,1.1772211602908427,-0.03021915191680141
-0.5229300291436603,2.6475590225140118,-0.6303278527994439,1.255977513440821,-0.4128850482275452,3.689141311556135,1.8392718230281628,2.723843939719945,-1.4334420087238422,0.29156145874595213
-0.24920436126775783,0.7956076435257533,-0.004001529277563032,2.2608768283913077,0.42260483956676265,2.347116311072463,6.689436821698031,-0.2720086502187902,0.6246331910686901,-0.6967972319173503
-0.6670643166988433,1.8209876316680087,-0.26086973638297567,2.6739798490833193,0.18077958104430977,-0.7426547744606474,-0.9088806246505753,1.165574863612519,-1.845794727750001,-0.4339413006008434
-0.254225352151235,0.11731505598761882,0.21016147191343487,0.03353810555541381,-0.3231419805053656,3.975022794105504,0.26899547250417943,-0.020614017759738035,0.32078178510707783,0.7849188813571858
-0.9651524121367242,2.9713265586841113,-0.2673365080536608,2.3766149388595434,0.0950735139644173,1.7821657146208751,0.9218925011864587,3.261491047605063,-2.817889281100096,1.451762692649237
0.06421924801570057,0.9621649681115676,-0.4748240829881426,1.2588169394985456,-0.3436856404101745,1.7837524460133598,1.522854648158988,2.403039935567694,-0.7798272402742233,1.1016823870365866
-0.8424601011797985,3.0423186972664826,0.24744651405628865,-0.35519195229461253,0.07370076483480854,-0.652937019284676,2.0639978755928134,1.149663426986682,-1.4232089423789172,-0.0019832848398562645
-0.3739430172442026,1.6888006286224222,-0.22877858688012268,-0.4078969817974043,-0.4418481308584196,1.245340933906149,-1.0221614407048798,0.6921835654449898,-1.5721287135614703,0.6738149130254609
0.04097003091739035,0.14932023843668518,0.04089827233558874,2.3478026262366893,0.23265444772531754,-0.42708029995351304,0.9403643967978822,0.9813985393621846,1.6676260475198947,-0.2372683532529391
-0.4162825542580277,-0.09543546669615777,-0.18170704080404448,0.30979952148956147,-0.22717605135327995,0.8988830882011001,1.9352875412305202,-0.7412270203593916,1.1635518401687563,-0.30175842856200213
-0.34530452042225,-0.08352726767221286,0.5742423826638264,-0.3905784613394938,-0.014047225268634186,-2.7524244175021453,-1.0790181203972322,-0.3708633624504315,0.23517886272013688,-0.16213200215574108
-0.29296408206358404,0.304281089081881,-0.00494381454904165,2.5211234953466817,0.06044727637985403,1.4561078506348255,4.43122394341467,-0.9082862402794497,0.8206408094330545,-0.3424582784000987
-0.7089221207604971,3.0108314504093876,-0.6056454357277172,0.023646811781939725,-0.12897494879098925,0.6936968608228256,2.933697479138897,0.8819422520991349,-0.9758771486051235,1.4625771376620285
-0.5414362148769659,1.746564304342392,0.22934122055384348,0.30025333897038564,-0.11228199377872757,0.09344860265851174,1.7079724084520762,-0.3635879483237268,0.4457695944891837,0.35838795206762597
0.44811910777023706,-0.5649967984661325,-0.035674493647345734,-0.003855076245224631,-0.049027906666871984,0.8003832275452449,1.718168416820001,0.6339194460874772,-0.2924314970870529,0.974824042409744
-0.2897889643350639,1.8471285663817074,0.07915990158225064,2.328235446926773,-0.1371984800656253,3.392822430288633,1.4644125741567218,-0.6309101751640989,0.8360896117044,1.609225457720091
-0.15698376913436762,2.872356843247743,-0.8813579628383512,1.2703199245203125,-0.1255986004666627,1.0041274406557146,0.23254706811270293,0.19279359304885269,-1.7214794866946426,2.56977393237679
-0.3701747410943006,1.215853601455899,-0.677466610913807,1.6706598870545744,0.08695202012031736,1.6134212598642819,4.16922288242226,3.617052130098569,-2.589177076174326,2.286653912068604
-0.42627557310799175,0.9570710147581583,-0.022170227713557315,2.0967198444380233,-0.019849933877365885,0.3194765184118791,1.7438156098386308,-0.3699300093254239,0.2761113201493179,0.3482935634556613
-0.043520540591733645,0.3601563218273365,-0.4508204621729465,1.839187528016888,0.41639130797340196,1.7474779704644339,-0.5096780815099209,0.937244446361205,-1.236193858349306,0.6509512741333484
-0.119246777314296,-0.6305065768647435,-0.5539159535170031,-0.8056319267610401,-0.6069757104256396,0.5427223850556492,-1.709492868483642,1.271127767772502,-1.707452792026937,1.837235394424164
-0.8044785723381753,3.073868491912692,-0.30370156035573503,-0.14822273103780914,-0.2444202200282057,-0.9209387554169726,0.9004247646154974,1.754100337603509,0.4312181229195963,0.9024547203982248
-0.7225437065860439,3.0441383523684777,-0.11285245094418107,-0.5286784155585446,-0.12807417863561785,1.4054418833952578,-1.1240354843759015,-0.82586094760478,0.3555311140036317,-0.03507999853161869
-0.09056869962064995,1.0849692123422496,-0.4082750565384712,2.09073034541211,0.24008817393140397,3.695767233908221,3.276263208227836,2.551219664203516,1.3548211810232313,0.26463421271064563
-0.32285215867108924,0.8697261667798935,-0.5027811639266476,-0.1032853926991939,-0.3643677666084438,-0.4655596381997964,-0.5735927069103988,0.27046020159417816,-1.595751685726789,3.5303632588651155
0.1671238241099025,-0.9024630910973521,-1.0345744755548438,1.0784939823289057,0.012897958721957878,2.5784879172926516,0.9764388701361746,2.427943039781905,-1.4101061702592277,2.5597688488534245
0.3861504822538384,-0.7830765225981254,-0.7268690696031814,1.7444509638224979,-0.0859611526988755,-0.4737135126255931,-1.6572915661538565,2.004082864852211,-1.1438768424386794,2.4631549441084735
-0.3635014341593493,0.48524688796099613,-0.5345530602637473,0.5527344424023699,-0.0766833378583732,1.0827116996736081,1.2722864812580936,2.1467268244226982,-0.9491694956791186,1.7937729962174904
0.027887276230291833,-0.1002786921182025,-1.1249112599082387,-0.583001292551685,0.21160400035301832,-2.102084110328636,-1.7992660212756586,2.0773307894678785,-2.5036105328280964,2.8960392776514206
-0.3896813919296432,1.6734720989699978,-0.7225177159174101,0.6751202264726495,0.45619034999019387,1.632646014676428,3.210702355308198,3.411242396236404,-2.428181184788484,2.2391308729978108
-0.4892636162796651,1.9115689692699402,-0.5536123264203868,3.0472776423230172,-0.5884183282872044,2.0611540823565466,1.4429540854178384,-0.5385889853238848,-0.05528018350698608,0.6549800950847113
-0.448360269741224,2.996637777107735,-0.12260727800209265,2.1486346786968067,-0.1574672861792307,4.761479678190569,1.8673998973935686,-0.3986732715217783,1.0571956635292794,0.7242396229043312
-0.15567345912743916,0.45103232621732103,-1.101726811690381,3.2331563122105287,0.1703957146280145,3.981501515099599,3.7582452432424005,3.728240054994685,-2.1160669484202708,1.171945020373242
0.0011306409041044695,-0.6632556833787833,-0.07742564452206582,0.9516968011979636,0.011440291726156238,0.19228274179493732,1.7243970804388444,-1.2712510821982779,0.7459182316841222,-0.32748595999926866
0.42590514819704284,-0.3632123373328031,-1.0346064617374007,2.875920359723675,-0.24415347377661928,3.0649085237898857,2.415678069666436,2.6218698310773094,-1.688877133325469,2.2058846028170387
-0.43650948629561925,0.9785852490074041,-0.33076549527263477,2.558930365562507,0.08717232459636134,3.335998168004737,4.42182579775067,1.1185653498151815,-0.6317624500450294,1.3153449013825895
0.1149361579614789,0.1984550435615815,-0.03525044977204417,2.7887419694063276,0.051807410564363894,2.6349488168288033,1.332001766965462,1.4808588514793073,1.046928232511232,0.9832954808208341
0.07273418654201862,-0.6582746025129833,-0.15929818979317295,1.0142974520007666,0.09634884505330416,0.40988126805764447,1.4013596586360704,1.0524055949632223,0.19451358817592482,-1.0075079154142734
-0.0188313689688177,-0.6159811974945368,-0.2800123691164018,-0.4237634470614574,0.1547503176439331,1.2100193556661702,0.7718058160580206,-0.12973386358440642,-0.4573274869590511,1.2717168386422575
0.05430144271744177,-0.8586523734643894,-0.3099809422596871,1.9809139829420372,-0.2951907460428109,-1.1564145026507264,0.41271415580512194,0.7372656829179615,0.6410449922362688,-0.9108136310571515
-0.1929082287898408,-0.10046040045178972,0.09263383051341972,3.3886031598139654,-0.24721697649690555,4.565191248865348,0.9346260104334996,1.150175467109797,-1.9604338703742472,1.745075687637215
-0.25532235581491947,0.786332690936214,0.24051422280676665,1.92464700796656,0.11813336235852379,2.3098037811538914,-0.1878145677258436,1.6393443071579064,0.40091601381519865,0.6608204316748683
-0.7766545748979438,3.4345432076557696,-0.9805013589025712,0.29988398848922637,-0.038619237171954396,-0.5141008029468291,-1.0653240485550213,3.698717425710989,-2.4611514376570907,1.589732822123389
-0.6478645863443763,3.0770389408661716,0.14992832268456152,0.03687062719788203,-0.2778702501050256,3.987289138515247,-0.5624718483265454,-0.13362213871042106,0.776071544845193,-0.1597824608836895
-0.22655236027325887,1.4116226255021105,-0.2772419742263211,2.1281210398888404,-0.2396676163213131,4.8480207113516895,5.068363290650046,0.17785581900612124,0.5190433023794303,0.06157238889331074
-0.7149073850335851,2.4685559790069354,0.24946225207934064,2.383136600405576,0.14654082380238032,2.7530712298172118,0.9751467833083495,0.3160491475357357,-0.0472792111202055,-1.0655662246822113
-0.25399580241922387,1.3633518662921658,-0.7304375315341181,2.3335493718278038,0.47262411887777317,2.1131209248750107,2.6048680742210304,2.3456865782229506,-0.8235129997625068,0.3444495331835511
-0.03548777342999541,-0.4629405540192898,-0.07353920652393076,2.4804493342003067,-0.08556398348809496,3.408811087255481,1.4494102223902683,3.34399182777047,-0.9141151177748756,2.553654107860806
-0.7096611415697454,3.057563203681913,-0.39588562503988717,1.6061024125549186,0.043829901978799685,1.0000096631859576,1.293819921594077,2.921312082897755,-0.6410034141655545,1.2873302265914612
-0.14302061604814373,0.672054010626715,-0.7951396449508351,0.019734744813962424,-0.17877390114304031,-3.1182959235417833,-1.1484945750628957,1.9600714633443876,-0.13183023117642884,2.2454563463085493
-0.971732038383959,2.8367463966523547,-0.8055887150146211,1.7302381863905212,-0.603470794509504,0.6709384399233794,-0.7426842130563442,1.0948120197451217,-0.7284889210201144,2.2278024563320162
-0.5312083921004372,1.8955967409609102,0.47858438349707594,0.08158447325966556,-0.054245944933854234,1.2766578653700722,-0.8093545332013116,-1.2215314324314508,-0.36642511554970825,-0.5240427042457207
-0.5996901603656731,2.4528643303804074,-0.3445348899540491,2.1306872196052735,0.17327488549738154,2.789063327299292,1.790441674293243,-0.11609333468232408,-0.8201265393853615,0.5445819968217108
-0.4146572108979454,2.364532786877059,-1.4520331360460492,1.1134166828563576,-0.5596092659929873,2.870020854957889,1.4998723328127836,3.118595936730891,-2.858933496382639,1.611965026426462
-0.3501564407838464,3.1625464983728646,0.15042349159126128,0.6250292980478331,0.3600132794998078,0.36487573666734696,0.747237311035492,0.6870861173181714,-0.7000185723387812,0.07514809049315935
-0.2785990101089736,1.6754402079235637,-0.48161475882118343,0.3305290708000779,-0.39160419101193233,3.446671929655041,-0.36724864077481456,2.4039866864030897,-2.1468389594205046,1.9319900251998536
0.19238281326939363,-0.910933074330373,0.7341764912554458,1.309979225799307,0.1504475750943881,-0.4967770337728833,0.23269761842989767,-0.8959249516267487,0.7305145395639521,-0.32094583752078565
-0.6138272969123795,1.4204461372680655,-0.16391476228105084,2.0556483757563173,-0.08680500742131908,0.4340920312887142,2.2188326794456255,0.22874614179959973,0.21621315827966292,-0.04013962456195177
-0.354190146941865,3.2065783274466515,0.4773318004305615,2.47445484654061,-0.27579274641506746,2.036029716766756,0.12680312934128835,-1.4435348713972127,-0.45785203180346,0.21719340970834022
-0.6772682058801042,2.9375514307769213,0.23172211186996064,1.9750571531342067,-0.33801350381636547,3.653578362368836,2.1754751645494075,0.04516792838093675,-1.0219712904986524,-1.0547477707122752
-0.633508918278516,1.799415749473941,0.20896930208558342,3.375149622339057,-0.05963084909366084,6.8456222356713985,3.895609508684715,0.6716144055895478,-0.08206453591008517,-0.07588996498687964
-0.22206867711023612,-0.9208433617861276,-1.3583553919205464,-0.8396179788293239,-0.06062509769671949,1.0502600252140715,-0.9024825366788826,3.73917999954065,-2.45804878693817,1.4402623089150681
-0.11477949506552813,-0.4521663772857132,-0.920228151221365,2.103415082184241,0.11020806665811107,5.706757850990627,4.009099390726636,1.8115125749612269,-0.9446953596256895,1.4459129533753514
0.21250779524718744,-0.9766524946821269,-0.04162108040141921,-0.027529877153919413,-0.0896138930005655,1.2454742763873945,-0.3877321056670112,-0.012030043017416336,-1.0451468549513776,0.3029526800339326
0.36610891183749333,0.24371983896730676,-0.24935101712551905,-0.6989699400308313,0.21677372254228236,-0.49838672072726925,-2.483514607466882,-1.4609911677251002,-1.3948540652486585,-0.41057671389345085
0.06070660205470819,-0.6696482444396161,-0.41815690913306064,1.2649076359588936,0.29959213956677216,2.3971713510832675,-0.07121847112567631,1.1818746911502083,-1.279673705295638,0.17827756310038695
-0.9167941714094104,3.1300207096330537,-0.5315445940049857,-0.08207286283070425,0.10323624255597948,-0.4355473984866647,2.573916181218475,1.4256562092876275,-0.9564974392469618,0.9570847952740622
0.013501495565919437,0.34673200399576354,-0.28479084041106717,2.707747968545777,-0.272976380444321,2.8420591608199404,2.056071716551875,0.2889246399024973,-0.178040306918349,1.4349179232050806
0.21670448646725496,-0.903620248575986,-0.5965421445336379,3.1788556354761583,0.1841791402020679,1.6025787689321112,4.03419526087147,1.5816277754889325,0.4975440870656866,-0.40540529114194873
-0.9014131581415042,3.3721074302306384,0.6534964812633258,0.43368836694068214,-0.3206583167123375,0.4026023377414786,-2.114824049983356,-1.4334197807116897,-0.1174775709581544,0.02116414592541413
0.144098859907228,-0.9854489090984481,-0.7172868607280587,0.3181020173665938,-0.31518024874612427,1.5980963610632737,-0.18931783510246591,3.1943532227210443,-2.311026175843312,1.4044123125052774
0.2788386680238419,0.6622299996671421,-0.3831267754541649,-0.49729315889973535,0.05643374179906855,0.8117397209345656,-2.3608842779065453,1.9389069558301597,-2.401352813156381,2.647170175552042
-0.5309849625877229,2.260071780712837,-0.5079639774308304,2.2335947546254826,-0.3679037284138497,1.2436731671901131,1.669996994106176,2.656700108901825,-1.8647495827756915,1.397185336544117
-1.090090429028256,2.0692796413481536,-0.7478031468977636,-0.5330811103968172,0.019478182999474496,-0.27352755827101577,-0.7259455056785724,3.7774576033249025,-0.997662867979879,0.7750317642931754
-0.5560496589902636,2.031685510680364,-0.5155436763322119,2.764884729317129,0.041769789938108745,2.282485808924974,3.7221800339567643,2.8574978951745176,-1.7323167545569431,1.9918924909555642
-0.2170586631056236,-0.19270890930897722,0.12629588961645258,1.203779178898856,0.42418719086196327,1.665337865092806,1.4627062029683202,-1.250523165500999,0.7270225935257286,0.04678846696784866
-0.09889720082108927,-0.07386851399234917,-0.6967630879762309,0.805719268329602,-0.03569491577935164,1.9565164394916326,0.7033549669179238,3.350164691488607,-1.5817330763056971,1.668913992014481
-1.0519674683413862,3.4569218921168305,0.8247284415681243,-0.5264720229581024,-0.29808214143396794,2.711675564565554,-1.1441405159873763,-1.0279628330485184,0.9597146384483377,-0.7266658388550028
-0.31097328050430606,0.7307570317050838,-0.8170059087568436,1.80954678680532,-0.12373595697770037,2.8043460842040946,2.9275819233543947,2.1443273704423143,-2.831908285756564,2.029842180526478
-0.11815999360723717,0.880453653226493,0.1460215153527211,0.27552048167472587,0.4319674509571039,2.80103313327092,0.20871875830362574,-0.26095591648951166,-0.7448406377479929,-0.20734709652137004
-0.30765822139506543,2.3901278733311457,-0.5721465487664741,-0.6826129720350538,0.2274310333506435,4.651406656667577,-1.3293338139256003,0.3245950543479953,-1.5564743371708771,-0.11759791584540272
-0.9164675363582255,2.1527973087968193,-0.2845780746693203,-0.5569776779957842,0.011389496243940278,0.08059805871525472,-0.5565411863607767,-0.1817243457288975,0.46483931822855123,-0.8568853603460413
-0.7578158563239323,2.961530695113892,-0.7240351457016071,2.182922393471472,0.06772063082143405,3.1683109655140456,4.647651300930814,2.046410610707449,-1.2230128255966717,1.8097707872238507
-0.2780682010197002,-0.08536218273906948,0.46192334596680207,2.8702211082298783,0.013773088300693638,3.372403916687124,2.2183198592706135,1.0183049458936622,-0.8010785194166613,-0.5166054301096481
0.11976443529581053,1.1154408290633033,-0.08779306520069999,-0.3626588802923463,0.09643831798722124,-1.6097855509462353,1.3867138896935944,0.6079044233244036,-0.14420944518881568,1.0790379435958761
-1.3459833738426714,3.300444319094522,0.07407011220246383,3.2593157785414206,0.1419879149923258,3.0989078932069494,3.1885031491440574,0.7298873443412731,0.4511954579325339,0.37720163594399503
-0.31777391707992697,1.736709767580971,-0.04543722902895769,-0.7477575142316333,0.17531767993864875,-0.5610500528976964,-0.2008558253260634,1.0206817480227097,-0.8815208520828196,0.13149619681776067
0.28245547530929815,0.2227623006464694,-0.05032763544116671,0.39152699776695554,-0.11948912666502429,-1.3872970866084529,0.5543504844867957,4.133579615950242,-1.7998867938676566,1.48054476312352
-0.8887924368310035,2.6720055661018627,-0.45062991737980485,2.96983291976883,-0.20843522406999784,5.540520501343069,3.8139596010771286,2.3816807216628266,-1.6794142187958712,0.799550354497883
-0.7432956877068102,1.7592116244581888,-0.4548670790251208,1.1790446221633317,-0.12095232035739037,4.763660344665178,2.4719893456695305,-0.297586518898326,-1.7983904992230373,1.354906983885252
-0.6236887010109593,1.7472207724505764,0.056387091628383595,-0.4419286588446132,0.22643226550344592,0.0110233175876302,-2.422059275387113,-1.4822485724141563,-0.5065591173639106,-1.4540727412776109
-0.21019321546209138,0.019697724625200363,-0.4982803661856955,3.00261252418382,0.40259223783149756,0.9475771548876679,3.7454366781091917,2.637545446736652,-1.8577864826132255,0.5961005604264954
0.020868063265281102,-0.9798307924277516,-0.5186775278166282,2.4307966587111163,-0.5163061630667442,2.247111640041509,2.7721385084735384,0.5977809683775566,-0.8071468515079053,0.45738522023589306
-0.08675802357380386,1.5875438061982212,-0.01761266020499818,1.4015302173450501,-0.07177803505278584,1.0508439601992492,3.21844536848121,-2.691084020127705,0.05321929389922554,0.6000608945385747
-0.4054533291664838,0.9960981429652214,-0.20826480380985382,-0.6606788110918613,-0.05425183537251887,-0.8022410762496013,1.358938364719647,1.8511446517062193,-1.1502776526453902,0.5012044449056899
-0.5883596544747963,2.5003189759591637,-0.8324610929741596,-0.7536861171486111,0.06778727923589753,-3.3235308279097007,-1.5488614483806826,2.4314269214946425,-2.353126830918981,1.3846888376692128
-0.2447823339750482,1.2772007410438304,-0.5698142165734507,3.0366106668263804,0.08227440358265768,3.1121602050049533,1.047219476036903,1.124810543109092,-2.1308355691802716,0.5008259981628587
-0.19153200260781714,1.009721888855026,0.26412906443998924,3.319742734076426,-0.1965478817368074,-0.5513876933747306,-1.5777146032287586,-0.513692868262884,-0.101250903931634,-0.6565486720628109
-0.7572534529063202,2.9018226755172445,-0.26205620973706234,-0.06560223075211824,-0.2240954144191542,-0.24532202936249325,1.5568226546536994,1.7501979609818363,-0.37506828098132694,0.33811062315240953
0.06069707484006022,0.5046696277656411,0.4255390792578659,2.5201586770604267,0.05322276712896167,2.8651137396737942,1.170207336340721,1.130174905690462,0.6183505800515202,0.22701229554360292
-0.13240752499357084,-0.41795377571239845,-1.0277092883144048,2.41420313893012,-0.052012997175033784,0.8338020953174281,4.596718551258501,-0.2444127203099093,0.20804581801885266,-1.0089354403591506
-0.23094699277785644,-0.10242143037266815,-0.020590477939351592,2.1196965414534663,-0.6588940705493564,1.6110238539196733,1.46895624383633,3.407220230096721,-0.0755945047854613,2.147741117192398
-0.24679642621635073,0.8251777384960477,0.07312521704694727,2.858523295682067,0.4279840234104633,1.803589472939314,4.679727405863465,-1.303878216756534,0.3580730512299268,-0.14885653937411458
-0.7810673034909171,1.4327718393113953,-0.887661974493573,0.33464667931920444,0.02826577092566741,2.458009178591802,2.656820292825961,1.4586126253613971,-2.05661156292303,3.0369767611900094
-0.185519501840531,0.9709444485374659,-0.7939802446524441,3.0201529400869243,0.26059044840393497,3.238775748070843,2.6992698704307188,2.4843319285766325,-0.4663310265292954,1.186800247611431
-0.01696705959403364,0.6605850703742477,-0.1574481609637336,0.5481169547923028,0.044147993139859794,1.768291497639144,1.9719697958987048,-0.0702660550371213,-0.2416584174515873,0.3107740383339625
-0.7259739580564093,3.388447660897815,-0.1553854484608192,3.375425259069969,-0.44779352387652016,6.591679600562178,3.9508830161712063,-0.6463786611250854,1.1646724591326691,0.021435816181320688
0.15914036069698495,-0.7379073401862036,-0.30931252734840514,0.6231217647821192,-0.2655396337135144,2.3967117422552255,0.36384749866081023,0.6241425293959483,-0.2591260273794783,0.7654175002744434
0.1321444677036992,0.5058280547534608,0.3133761092939289,2.608479668718528,-0.010522927091675762,1.1670907362641707,2.121139607583573,-1.1787539516636025,-0.5426990105113694,0.16443463709845393
-0.8013974996277058,2.344551868362594,-0.19058131873413536,-0.21981265364282265,-0.20391663954689107,2.6898931575526928,-0.1941147729345196,0.4142268835256555,-1.1428798955193067,0.4397954859706177
-0.7295423962129689,3.2310097144845127,-0.4877154254483197,1.9854563910818426,-0.8026409503968209,-1.3628890757557621,-0.7713949374044393,0.15152179412386158,-0.06633258304717898,-0.9819411958988049
-0.39399398500916333,2.9429776360429667,-0.5179608181935663,2.1358918356901704,0.05307465865023923,-1.5719802461690227,-1.2212678292879637,3.244228543370175,-1.7403730747706365,1.0440947002425334
-0.7008710616773102,3.3442741013672173,-0.30695930608634137,2.597772642737202,-0.3957067943966823,5.810034110005455,3.400992805780108,-0.6514902904116507,0.8570451764411343,0.5965516127225217
0.23767201055242201,-0.9238798304128839,-0.968938743851275,3.280235419080201,0.48613461245564515,4.889271496096782,5.165705255012404,-0.1829173907502033,-0.7456972721477892,1.408178173181518
-0.7992301768213088,1.2454569077864237,-0.778452303655776,0.3344091745729276,0.01567622041093741,-1.7037827154852545,-1.1162089203921546,2.6259906173064365,-1.44548789271093,1.3181374777754942
-0.05223551633608484,0.508168775140752,0.3406847542056616,-0.0494229597895145,0.3827388317103807,2.218682342393779,0.26811038129041664,0.5134988180324879,-0.6972091122406148,1.0119231372329434
-0.48814819823028455,1.8432170042718474,-0.2137047718906787,1.5507982383587753,-0.22951369241370273,4.434938887543478,2.5665376051301814,0.03263945762306286,-0.8565861822757204,0.02804621480264561
-0.9107027703762868,1.7393718602924038,-1.2425370315351052,0.6350363526953722,-0.2917322074996154,3.5901512063228695,1.1897887501038316,1.5049647748707788,-2.0542348685716223,2.695080862463558
-0.28167558526211617,0.909132572519628,-0.10895263418218096,2.047477575543123,-0.020682948213042607,1.0880750450772922,3.543594403483696,0.5239238845924121,-1.427187292130239,0.9839228205445569
-0.14423926958770056,0.21654583897409507,-0.4696519393549209,3.1635724678786206,-0.08296996564426536,0.7745333274571644,5.959288911058032,0.9221450048284389,-1.0358533512872359,1.7083753452820643
-0.4158119011081216,1.6852288645524602,0.39107133827098395,1.6744492015035553,-0.1527834723054339,3.235299647257869,3.734163297659043,-1.9955035364132767,0.8128358339828059,-0.8978237865557022
0.31278983029570956,-0.7931165257000621,-0.5419655444890025,0.5456282451783092,0.015784613577139447,0.895538112330272,0.25045209239700866,1.629384594210968,-1.2489784009576619,0.046364361877963486
0.10732558166050869,-0.960868941486608,-0.5452743608540456,0.06488355335431217,0.2983142926756173,0.44935907858768553,1.16181368497223,2.958228927940472,-1.9793095307295836,2.0949681984484654
0.01930708935394721,-0.08483738798613438,-0.8057853274391331,0.20561421704436067,-0.04502935695766508,-0.28988588008622235,-0.36125515290520394,-0.9900385008401187,0.2571652170200461,0.2937510005501189
-0.5236018516180732,2.171167820233871,-0.7288026482997348,-0.053055840562628354,-0.42781753128396904,1.8601737077755098,2.3000105898955474,0.40663601173035624,-1.1733030014376764,-0.07154823743693674
-0.13598139966053696,0.10690127476727396,-0.6798002690826341,2.373119819544084,-0.0923636542998997,4.786965537761771,1.8394991674339618,1.6874108847409786,-1.6516155843978275,2.402176689988993
-0.2257318444974782,2.4403662548012046,-0.3535517740535306,3.4468909106222396,-0.1399948166750095,2.6597059495823476,4.089098229032555,2.2660412521208664,0.7914312745191731,-0.10180700377962783
-0.5021330861778028,1.0528639167970404,0.1565142942690088,3.064851929195469,0.287245141660912,1.6684974404889952,4.421274856900239,-0.46036859615141446,-0.5326052308578975,0.46162614386316847
0.08572094307288906,-0.500971891551332,-0.2979725859586728,0.9652559291569371,0.3021612747511913,1.717631391512599,1.61944468392571,-0.6738168971748731,0.4250473210710981,-0.20583078288902062
0.1702687339730134,-0.19354217897352388,-0.18679610322688572,3.201966774259815,-0.11227486668312635,4.287139346630695,1.616597786873188,-2.41704876060483,-0.9001794346950538,-0.714947135533871
-0.44816553318307545,2.4449351226994387,-0.25701347124016494,1.5524928480119264,-0.000595749320193483,4.43595554366529,2.5055810058322283,0.38152969944169346,-1.044337395109464,1.185056836135512
-0.11006520304281465,1.365061976679705,-0.4764505132864451,2.1431967609263216,-0.11631415814568502,2.2522464002196334,1.883999653345124,0.7835983365186783,-0.24800961037971803,1.8208697323438379
-0.3687049485901815,-0.9316679759871482,-0.17880929264674494,1.9184663958761794,0.4089444563895862,2.4211026305219154,2.3907645748846145,2.9450753997943204,-0.8545506186134313,-0.6547815476656963
-0.010377362450943624,-0.4977762352287195,-0.2609498479925293,0.7604949596494261,0.44754610373805875,-1.5015571577130493,-0.8695963125913311,0.9001668149562384,-0.6523204970712165,0.749000424552084
-0.3720925339118808,2.6018897186490406,0.004795889458116341,-0.7699572752409377,-0.31477257116270496,1.0263364902552643,2.0360310867371916,1.5744213060061116,0.13457597273368163,-0.8861445054248547
-0.13002242992220514,0.6252940208019937,-0.027582191679718735,1.4569983853817403,-0.30558007378734375,1.2312996109992385,3.3600283489847618,-0.18880767763830242,-0.8604191787960436,0.20220361014228586
-0.20389186021579214,1.761710621239982,-0.9423337027156389,1.3139860605033555,-0.23068193925681624,-2.208635358987928,0.5578991756820656,1.9896688434940915,-2.1124793285022623,2.198683849470038
-0.8056909951458505,2.7397569003078455,0.3401864053832787,2.444175667308544,-0.1980863579987454,2.552079848661622,3.237168567835708,-1.6541203606668802,1.0106667017575293,-0.1419850549131559
-0.15071053330577724,1.6392520800456531,-0.5542946683634118,3.2413963831158803,-0.14671950572057385,4.9661859295997,2.5326034857314554,0.9379551869339868,0.13690968659228478,0.327472176769133
-0.6442833307013182,2.9008522109400983,-0.5314858262330717,1.562097099735234,-0.5836582269908206,1.316712489844962,1.009697792036013,2.492717256872802,-0.8254720336551203,0.781521373849121
0.2975814942805073,-0.5922787274255421,-0.9490481764751401,-0.09834382209626613,0.260640808519775,-4.013276012704962,-1.5291773690313697,3.8683750795039478,-2.0523436338827663,2.354382516611748
0.1411977591466997,0.6532508288694974,-0.1159370357226143,-0.9431497689895071,-0.2269668533900271,-1.0593498817581803,-0.1902856557194541,4.0324912960554125,-1.1311311755258484,2.3451608758593894
-0.5579957010388658,1.451659309358834,0.2790163399596376,2.518764749532373,-0.08850995521449542,2.5229367055246206,0.9893446667705061,1.0279993746055078,0.659612572751945,0.12257015546467522
-0.7553919359790261,1.3739587814192742,-0.7551588632183832,0.32529220704031214,0.12922915667466675,0.8941104137543174,-0.43183524548684715,1.6296686837397683,-1.311070903631743,2.2229389119455947
0.42289107026746076,-0.9418062984489486,-0.27658257562409233,0.9221454564934777,-0.20597184949436104,0.7226505517396262,1.789258930180007,1.0557646263549467,-0.5843671309787494,1.1053822282336623
-0.7027431689159978,2.131377366862002,-0.9049260432234507,-0.21080754868724028,0.2578006718551947,-2.5943080321372585,-1.7561295577200988,3.305139756944439,-2.493050440594302,3.6733244004771475
-0.6515194902275883,2.7237223816922613,-0.2693965216937623,0.20637224318892788,0.006079543348748486,0.04461054222432792,1.4638952583866356,2.079498609095989,-0.32958245754129717,0.57372208483801
0.18803907499237893,1.2208338593981138,0.43796475700314935,0.2701849926236062,-0.04196065782180513,-0.6097359488846117,1.0437678003807123,0.8973107899934513,0.9259141145162095,0.10595690616207105
-0.5996476078782729,1.2076588433592423,0.04761337388928814,0.8616530058818017,0.13627671112656228,2.122730971693677,2.060340137129873,0.010686170841401,-0.29744582548209325,0.0446502699872067
-1.1323551583631941,2.9133174766879413,0.22887674556106907,0.18717906896284453,-0.06158313435216834,3.4981004868069974,1.2411459869072616,-0.8461804333955764,0.6163436592176779,-0.14694222439872892
-0.7684223871688066,3.3363421411833265,-0.5410835030056143,1.4205763641943348,-0.3841297302052452,0.5254922846107213,2.320879264412592,4.431520696344849,-2.8096926678305105,1.707096883664552
-0.7679103404887604,2.7209747062322633,-0.803314275468107,2.9314193969732045,-0.11040810826150821,2.0784234680347273,3.352551667741123,1.0084716753722542,-1.8685961619922389,2.508381609392883
0.13272730795689935,-0.8476960897473631,-0.28904900967107805,2.3822431728575433,0.3343534230926462,1.0518628876349105,1.418332975449424,-0.2796926707759435,-0.9426670213655405,0.246246295955815
-0.8333072743081257,2.0994701429803992,0.0749284483800901,1.400364686467571,-0.0800229747064813,2.6011837882482407,1.2532140914523588,-0.8070470963413261,-0.5847354555509621,0.16717573863377047
-0.3490895712803539,1.5118474019267594,0.3572392532701386,1.6013680263293684,-0.23604886860114133,-2.345607916860971,-1.778135643488726,-0.4178656535363259,0.15222075165586876,0.2879830404124346
0.2189900626161137,-0.6057633598717117,0.19427946385148523,-0.8987989129825494,-0.595477421581112,-3.4643574641481343,0.25989837976313646,0.13721636141555496,-0.0035726101865188693,0.4155512610277309
-0.7981453470355154,2.4291141910824128,-0.20015525919557065,2.2438929773286125,-0.24596936766882221,7.841561958502892,2.79542398519188,-0.7133385994174701,-1.0144298876705988,0.10991062998977798
-0.3441180663609865,2.133344562378874,-0.1563894719417025,2.2103931989081977,-0.3153804089154523,1.8975636595369556,3.3424937053492134,1.5909943199140906,-1.705816268412478,1.645330450655236
0.22767182604178338,1.0386836484844588,-0.8139385752531958,-0.020966510612875466,-0.10611110246837849,-1.630989406761734,0.2650346988271539,1.7410571878733172,-1.0538395593357746,1.8433275664857283
-0.4872808329159538,2.2626056826130037,0.2943756418168274,1.0768589358708955,0.05259219719189207,1.9252334056114735,-0.021009053653762155,1.08753628068608,-0.10610751312643402,-0.35340744566215915
0.12826985232299712,-0.650716555339365,-0.6489202314592429,2.790867106419285,0.048751437340607405,0.923641378243117,3.6659460026628894,1.2238296409083795,-0.6635536176551081,1.2341922914786274
0.13704317672507899,0.9164543271735437,-0.8307395928472111,1.9093357108115399,-0.1518122386361895,2.3876997122795736,3.347471194375239,3.1352164809779692,-2.9218154453669762,3.4068971092005103
-0.3677229220779594,1.005404070247634,-0.7346836830793582,-0.3347805313372544,-0.10978139809633358,-0.6712323283981412,-0.2666787308479708,3.7926785181575666,-2.0844776751624723,2.2486642057447486
0.044060205009187906,0.1779790666005201,-0.5900405881763222,-0.4969179376697739,0.011681922480970545,-1.6142531831411693,-0.4556620111636982,2.53003572793454,-1.9941635009626437,2.854024079051938
-0.2392224851048945,0.8986903756592728,-0.7878848619812698,-0.15380432375440634,0.08976512916500697,-0.4502785996439147,-0.9401565287991873,3.020951562550374,-1.2224866972163884,2.5040053800297244
-0.22945464260496942,0.40309102883389447,-0.4486086704954879,0.6517108292470439,-0.2133838377583839,-0.29423912813505526,-0.9257019983603434,-0.7140585967370869,-1.4365183929367156,-0.6246028566431249
0.6396601039001814,-0.9696450774822385,-0.2777460756061574,2.6110910342537017,-0.0208854029376433,3.8900375483017156,2.3305054714298286,1.3671279102528067,-0.2878366135264103,1.6445047694903605
-0.45073390945186753,1.619985032022266,-0.777165306299031,0.24395542727323138,-0.3065992781419556,2.1671833209042854,2.704297467659448,1.966463246077188,-0.5555955250980955,2.022267640420297
-1.0256398470072146,2.9851904667011615,-0.16257037711389583,3.2154385461234956,-0.03354664175892117,5.0934085028882015,2.7804111814465866,0.28977407832478597,-0.5544852217170279,1.0134294124080987
-0.6729053605219071,3.0197251820942723,-0.9789859800228562,1.072541011589271,0.12208921537933928,2.5128140943402246,1.4653553911356139,3.091465152101055,-2.498555228115294,1.3687962085858596
-1.0432586060159093,2.6705354951668845,-0.927565272121046,2.702336941645326,0.05948354305810346,8.005907457803078,7.752148602027607,2.5630753252901677,-2.2103445818443,1.6870966873798041
-0.6682296530268894,2.298394765239434,-0.8622607302465621,0.7000445865326383,0.2103861670501728,2.53291870600761,1.333062410580726,1.737944813927021,-1.5878549220476388,1.1809542328583462
-0.513592688275239,2.3513733669425783,-1.2711353189426147,-0.619244840622578,0.016322174832735844,1.4538127487028967,1.102964561897924,3.051015331480151,-3.0161921465463197,1.7695728753527482
-0.22349690036542624,0.21847116311393777,-0.1587804690045141,-0.9227818069997726,-0.07407271906057886,-4.757830592351185,-0.8349723129295863,-0.29118774771263917,0.6198776368984367,-0.3980094417842287
-0.04865853652178949,-0.10566917328576908,-0.4064377601195991,1.568768844517919,-0.18585609444702522,0.19553877948434284,2.6572177985131185,0.7832879417505461,-0.5585901502332925,1.3994307720060022
-0.46521922214942246,0.8763085730168532,-0.6886179638272045,-0.02157931038288763,0.05110966445091122,1.3968582771032745,-0.5490691536751967,1.4326139732536372,-0.5969002344367659,0.2531978416976632
-0.8734322936810013,1.7670047324141063,0.10811116771598761,-0.9086762666887354,-0.1811498227451743,-1.6706330347765863,0.32738504986647754,-1.078257596997295,0.676436031454895,-0.4557163057627334
-0.5314970250209082,3.4219547820131595,-0.48859721698241537,1.1246331448773943,-0.18024012775317558,1.1529242716765729,3.540667990979581,0.928508828401801,-1.0808623490172051,1.912535362643064
-0.8950079199280349,2.948416217201093,-0.9715562996435372,3.1773566684209307,-0.19448332554782558,4.769749588457084,2.7226599085035175,-0.1171607815987632,-0.8094470171198096,0.9900472786053772
-0.3028610484986777,1.8436883371706076,0.1840013137409157,1.6453822509733347,-0.019831016150760227,-0.6246647243803443,2.7126620480386636,0.06818326372524004,0.050579977900390684,0.7011521556799343
0.11770762538117198,0.3805371716344923,-0.9163613644844796,0.826124480728432,0.10604277283820655,-0.7340918480095143,1.1041504417292964,1.0892499274757925,-0.7627110071856189,0.8675733251717249
-0.4263726567959866,2.8222334502814714,-0.04517516779077037,-0.5604807268176524,-0.05227042825958298,-3.641309444026666,-1.0712341932803162,-0.39901858040715976,0.7850304892835474,-1.4710357785591475
-0.6747049574248237,2.668624213164504,-0.23762261989166233,0.697378116181113,-0.7812208430559974,-1.65788089153654,0.8146938339102288,1.1513525538380511,-1.2931954151238843,1.582595715724519
-0.181578984919355,1.8422329686093075,-0.20044159544762466,2.254473065022014,-0.4178030343317421,3.665275400789221,0.6341365240746328,2.8414105675156955,-1.414091064643338,1.057270505574472
0.42763181232889413,-0.755300355604152,0.3538584587660317,-0.5352533911066097,0.2792026654724544,-1.2403887178006723,-1.8635790687337017,1.8340688670564214,-0.05817698863919545,0.6806054998772861
-0.1920801313688849,0.13721178583480453,-0.02905725427606899,2.842900719348182,-0.2666035297396095,3.1254880870665556,3.702551294382522,0.4389156577771871,-0.07422411533245095,0.1653716069094065
-0.2847909294829797,1.721141920067724,0.31048250653981735,1.1450618739600746,-0.49022321836294463,3.0905754288334126,-1.135614414500251,-0.08554022778724835,0.9628162958589656,-0.44253867666416097
-0.5840949186295616,0.48444191728174313,-0.46020893171018673,-0.9297387411257763,0.030937805540808667,-2.8858011212465944,-2.2780032222538553,2.2194792073525424,-2.5964427575137607,2.9473090561488844
-0.5828912524823406,1.4570321121960457,-0.27997577938153023,-0.49700204069129905,0.2602763585211719,-1.0121570010582028,-0.5477226786186941,1.4619889138037545,-1.1584308677545017,0.6329916480331745
-0.2927573984949287,0.6990089320490462,-0.8986323033507275,0.27387696287882135,0.10019687953327551,0.8617621771088684,3.69152472365127,3.0664861546647932,-1.6055372209369214,1.719938073380784
-0.7399785160794379,1.9032521033634295,0.08035843959118344,2.4285932462694295,-0.2011989278160118,3.0701367648306044,3.3676967063550167,-1.2627516709696622,-0.6996549187059788,1.9816567047277596
-0.7826826944801941,3.041266469921265,-0.41457776005332186,-0.24360842088423806,-0.21504719081983276,-2.822705242409281,0.047222109371796384,-1.207571073696946,-0.4596963665457247,1.1895737877312869
-0.4794539640715865,0.25809775988129524,-1.0814519073288722,1.1264232054463843,-0.1682097778223646,-0.019043768634839087,2.5781534527918204,1.0949453626538403,-2.220411446045737,1.4819772551390569
-0.42786333551755085,1.1208300979270422,-0.10705831679144734,-0.1510165558612634,0.16968119448352273,-0.9534578097072469,-0.8715108198168724,1.0128593317565415,0.09158672352963225,0.7388390384528091
-1.059331112305568,2.4387420532826454,-0.184639637640939,0.8165290612465377,-0.17062888436873586,1.5485883769962239,1.4191186564971356,-0.3882491962552813,-0.4388032296750542,0.7405447714399122
0.15823193484863093,1.0119052902103842,-0.4714013695780308,2.1514515190442585,-0.2238040926100561,1.477736695494093,1.0180684626135543,1.0627607112651438,-1.985922665649826,0.941357868744347
-0.4212868005967119,0.8371216533020649,-0.26525878327011876,0.5467230511253947,0.014978741195174061,2.491793968883004,2.4883166446676244,4.344220181577385,-2.4839176109398906,2.0178499608801985
-0.7089733528364152,3.2566196432171184,-0.8497857334795371,0.4454411871444448,-0.5802749952563636,2.2693586306407973,2.557890237891795,-0.4091446039870228,-1.6434188765979405,-1.597647552702586
0.065284731137579,-0.34126747617218556,-0.29313232114452925,3.2703734403009195,-0.09720370323259815,-0.35521957090055434,1.7640635501877786,1.4244983651286645,-1.2005375595026326,0.09800572929928494
-0.805002539694644,2.894530398766888,-0.38747032620366323,0.8254895740747779,-0.027205990699150445,0.6008722670507547,2.9325155522879083,1.7004335005242226,-2.2427891904427426,1.2465643208519626
0.4111265686486423,-0.7654315956044669,-0.6786593605875325,-0.6271008216631213,-0.021387483261249233,-1.3988736228668568,0.7723227043319861,5.23486444095586,-2.3054814008235454,0.7331730271394242
-0.5347833867696157,0.7325617082772673,-0.06771779416899378,3.29278611012691,0.10484248712450815,2.017153018563005,-0.19232994493777833,0.17456996925767143,-0.4293180864749361,0.6794889279661195
-0.4981385918280825,2.706055559320213,-1.0927609926173045,0.9986869968435161,-0.22608294757605646,4.1575618849199,0.487727446532792,4.221918180278493,-2.001203991868091,1.979092651044728
0.24184222379218795,-0.811788238102866,0.05347039914844115,1.594107755287716,-0.030167839949890963,0.2774007857498555,0.027892806827580552,-1.5701009148107858,0.39190756204802213,-0.8474832358372264
0.47544959135435566,-0.5125633789795527,-0.5085111165032363,-0.23670332492080193,0.3893592626741687,-1.6602781681031002,-0.024994155728716327,1.2050032358474445,-0.7409503727363455,1.8159060400392786
0.18742906161777037,-0.06472935498949006,-1.675833771251736,2.3096288894795927,0.09129009271933215,1.142414048912861,-0.8209370115539206,5.426228503374597,-2.8048716683445356,3.0084473078982588
-0.10069985631378366,0.28579578729598687,-0.33110647609667004,2.672471902804766,-0.1111064035258693,5.4227038370198155,4.60458197414688,1.4289265416079024,-2.580749787022705,2.092008435891603
0.01662104966794781,0.051170883912371457,0.08700274252044374,1.1196730427731603,-0.13099833539783468,-0.26319497157380006,1.513841402929116,-0.006519365884997574,-0.2789866073020635,1.9654880686848737
0.0453511501617827,-0.7080155903421517,-0.8965040870008922,1.8157760230861126,0.2243866319390177,0.9377236007108036,1.8732711230177974,1.3507360824508359,-1.8487652564892978,2.0944132657648544
-0.1364712139772465,-0.23456591571196483,-0.9128384635811073,0.8193349626125708,0.10661828717306777,4.217823801873679,2.201103490457435,3.7536223120209575,-1.587554893819503,1.2562310828515353
0.022085398081819085,0.9534822060870844,-0.3299516372709364,2.9868937222661,0.10945645870718491,2.851009307588679,1.7349216784074102,-0.06998545610835377,-2.037283674799746,0.7516959993780645
0.5218684029111965,-0.2149064906242646,-0.24649079116151848,2.0012896899932002,0.04651308140856226,1.2823784223725738,0.6806355678130626,0.01932506952864088,-1.268156477943753,0.2586678134383095
0.3868916210436974,0.14882410860050665,0.17049256332955656,-0.17126639804036603,0.5987712542833972,-1.2861525387849395,0.1968781862334334,-1.6097120789986001,1.5338269466738474,0.4299679627749847
0.27514742276369614,-0.11414759086116444,-0.5239216797539384,2.800987072763595,-0.022097285168277542,2.2982685130581038,4.739806333213945,0.12472725732471979,0.49962636482353123,-1.613048044651251
-0.4733079785038351,1.1294176305284975,-0.10147696132128578,2.752273527237706,0.3467013237810889,2.179863652214717,4.661218763430842,2.7986967320034375,0.4072933161146584,0.2608981054227569
0.5756267958469539,0.024243548160528094,-0.05022177972650088,0.9151147823372658,0.09921817262587286,-0.35025714983866885,-0.38685942010415075,0.5881729261401877,-2.744817192084335,0.5534006236127624
-0.004004347592735909,0.44991322186761473,-0.6077182114814332,2.2099384152969233,0.47875643611265184,1.189751470528889,0.818570639179657,4.846965589185668,-0.9147617920835789,1.9445084780075617
-0.6376169344101833,2.464305074719687,-0.6797102962969044,2.962532536989577,0.08865023121359665,5.436165669549117,1.3171175344677422,1.4781529212925932,-0.4557713288520728,0.45314621679041117
-1.0512211406824759,2.494078223604209,0.2181764841750007,0.6831157854631376,0.2050505203203744,1.9131439970067183,3.0533826926978556,0.6547117963733694,0.7536348303225737,-0.10263310881144339
0.07359597593934761,-0.7851135480852841,-0.4750136341884155,0.4856122076672025,0.1539289484954697,-1.403529798938188,-1.610190376511855,2.5080307815680865,-2.0447604205560657,0.6904328354981698
0.013009258344193189,-0.9139330616388324,-0.9444295337500472,1.458069268304102,0.16438942742452484,1.0192840050701752,2.6509814750113856,1.1402246700918575,-1.549620769167061,1.0212323718947425
-0.6012893303415208,2.821090873976884,-0.2501086997389572,2.0803652285137364,-0.46957479291720755,2.7063922872616466,1.7708877588277745,0.36296282564982446,0.42776824709693695,-0.05751397421107532
0.3240655635788559,-0.6710516837007041,-0.0006169256368330916,2.1681179206757983,-0.005118923697311687,-0.5450949100270717,1.0614125907879473,-1.6912821699378984,0.45550647836319336,-0.9036460343572216
0.27564734944121155,-0.9355009123379736,-0.12970632953946096,1.4360906181887212,-0.2522325359488361,-1.5417271274805167,1.7049624497466247,-0.33867857311452454,-1.154834898827799,0.3916129949976861
-0.1797470264150739,1.5383599192686899,-0.04099576505511538,0.766256497869044,0.006366230024438863,-1.0690745244855893,0.9900828616412665,0.3717158827682283,-0.7367066795791404,-2.1679269519293403
-0.4614425189979874,2.0909593783459104,0.14823419794139078,1.9494482682243564,-0.49683210874945904,3.089351313544043,1.709311525801287,-0.6753323560884199,0.824461327288815,-0.9291228673097958
-0.9995306256282439,2.73663721924734,-0.7608076056100916,1.3653040335890458,-0.1759210221387849,3.7785545938488854,1.4475047616191739,3.366091957600003,-0.8850652977567987,1.8135237534492452
0.07007933161023856,-0.20994320352630436,0.3700085512093828,-0.7123401144202958,-0.23024843482673873,-1.828545007045037,-1.0012136375632439,-0.2918504836072703,-0.1254185246957872,0.1995483926063498
0.22702292375521674,0.18626951509922218,-0.5183884820313432,2.815732336027742,0.23766873529720894,2.1996586511191483,3.840982949053834,4.455920051947214,-2.5560192393980516,1.9688689381667304
-0.6999134882509234,1.7226445785413005,-0.9524040984467841,-0.931997102425642,-0.3578954381697844,-0.3130767403979935,-1.2161490270166166,2.912279968360513,-1.9034283281518116,3.8866151136297513
-0.8109796170710664,2.7435771090727554,-0.3522334092180661,3.072506616886564,-0.09535490461545906,1.5527557595642834,4.029171460945061,0.8744953848532575,-1.1231313500244806,1.2490183817359872
0.3803003754886011,0.19676112674096724,-0.6643004927450114,-0.25640114454007845,-0.07496106533855158,-1.5166510023607371,1.2146787898839448,1.399340281542326,-1.4109010409699605,1.0852961645478247
0.1581119120365061,1.128904906211602,-1.2371215072588755,0.0434729681324586,-0.061229446426558816,-0.8342703779138702,-0.39137124640287757,2.5273775202998676,-2.3106229521535555,1.8694974753832103
0.0686104236893573,-0.4634744485377035,-0.7568520668261562,2.5868941841211113,-0.1649213632590852,2.8165045863551414,4.45174733423905,3.7216962556368403,-1.8208272995333916,1.6701988543459867
-0.5220545796625394,1.8353632564950653,-0.051186206532678837,2.6313987241084114,0.09342357927424128,0.8791165275590739,0.7749362042314334,0.2443239855473992,-1.970344871426875,0.4918410502415823
-0.5567924373064743,1.4987999691360696,-0.4551001280573238,0.45903299412594034,0.28780603359229806,1.9327930046308592,0.2176086162662462,2.5512868352921596,-1.2136637759245792,1.624697311559955
0.19640137151611314,-0.3954306008344849,-0.5371633676018868,1.5271089022096391,-0.006088819809116088,0.06076111750292268,3.0028022713830804,-0.22950269851925365,-1.781148805395731,2.079987932443697
-0.055515078807826655,-0.16686182030573726,-0.793271808907305,1.4897332114796829,0.29957729870167626,1.0897826949594724,3.3664412643063932,4.08499824127802,-2.011287281664406,2.1353522788022414
-0.26793138408628847,1.1500548065861382,-1.2045183873427736,0.005364350589112776,-0.5596047173169536,1.122805292709285,-0.3461888602568434,3.0417460155170146,-1.373357405802845,1.9380663097311406
-0.5537806729109265,1.5915092391191643,-0.553779991960403,3.0412290113119758,-0.51882540879893,5.049176625568835,3.3130413317664074,1.4766762875592574,-1.6662359552547985,1.7651453986075054
-0.27145695605365416,0.16649272684085248,-0.33925543470534253,3.060188831875779,0.2061054598566539,2.238338116405882,3.408579406576006,2.7352869104055637,-1.1264956701511064,0.850583990184144
-0.37433020906516296,1.723030469964736,-0.900732876737505,2.0550260082567275,-0.3384758201119164,3.1791399016168755,2.7880373603945983,1.9700465703180638,-2.2079680530983232,2.5068840639652863
-1.217900202916504,3.3835630601335662,0.4856978652882269,-0.14503106946033617,-0.3806001647037159,-0.8016178195044944,2.8077837419142546,-1.5048246277429758,0.14048889014733845,-0.4458266967013686
-0.6868026680368571,2.612302383830477,-0.6059384991336327,0.1258490454208021,0.088674007309909,-2.109920533908508,-0.4607177554579008,-0.40161862132075243,-1.6776079456666093,0.09791868434079715
-0.8809641887738031,3.193031110807886,0.0376525708290407,2.267676807965145,-0.4968520318785806,3.1317264349447336,5.0998117855789875,-0.23385545416044207,0.3012706436751367,-0.40625834142405975
-0.14079418353487677,-0.05537747874180221,-0.8539149443750822,0.28737464531434975,0.2358377550915823,0.779112735515638,1.5628805924457856,4.776506712606389,-1.1303209282043247,1.7148361421517122
-0.12520481503873032,2.111631803590548,-0.5728630583843306,3.166810410952966,-0.015621285869681612,3.679551549419741,2.5056069714620754,1.0149305195819125,0.18391425973854134,0.7241827011203746
-0.4128073116171624,1.2778411223118153,0.08270243480119975,2.8399090713083,0.287402349286228,-1.1294307420473175,0.3800835844054117,-1.1247965096032448,-0.34447125253947114,0.1571912169993275
0.039970977745623554,-0.41886461912324535,0.04973377643989757,-0.29497772845102377,-0.2814805915121955,-3.5600190372463008,-1.074981430642894,-1.891137567273104,-0.16110339339031426,-0.5865173392557373
-0.2245710663506644,1.3120257582777115,-0.06096317243894911,1.2751357431273393,-0.3018445314426541,0.0014350554882172073,-1.0054893467033565,0.19906150356647456,0.3437582416587325,-0.23878073417679552
-0.1002508096790145,1.7968331087741878,-0.0004799915024776835,2.9024658461024684,0.36321948706474183,2.10001682721194,2.5235252921323372,3.213966774072507,-0.9435814920506984,1.7186201360302347
-0.733110554184191,2.4017656685591806,-0.9618087492727092,0.3337937515624809,-0.4921345885557787,3.968796336518109,2.5527302692045932,1.845324592510328,-2.5218158975329072,2.2428373624843414
-0.4776976676946269,1.8785906207802974,0.37496620312001994,1.2538764774682307,0.11334451491027782,1.5348695982251068,1.8795877383844655,-1.6283324866347546,1.7709845021506363,-0.4160757532556256
-0.0675477145872242,-0.5621884510404096,-0.5394002955493673,-0.8722651859591878,0.16008576994857796,1.7904657533056025,2.4894415295207017,2.627962303853245,-1.504334991184445,1.7834494951920874
0.19006301419366345,-0.8546331046634639,0.1595926922082122,1.2964600585399486,0.09260226310933181,0.24831163123831818,-1.477899769895663,0.18747122513533576,-1.3153482889932158,-0.557026910332615
-0.3259260387953178,1.3654904449300602,0.08301505776999482,-0.23728527365455065,0.12776556331263472,-1.223879220524892,0.9990236539533446,0.6402954443022839,0.24358630712540613,1.0280168290342322
-0.02333514364696362,-0.618092544238211,-0.0366865051844717,2.1778080839942766,0.1271623030450591,1.283027581113749,2.7336503472920266,2.389384435000593,-1.333178014088567,1.9130738384315016
-0.15193627141044025,0.8827777605987994,-0.7211717241193384,0.4910021649004901,-0.12400624232356601,1.0546969375894768,0.5333778435940592,2.572339247228993,-0.9794952150254554,1.6575973131533626
-0.3879755197543094,3.2317909635428643,0.12790520621665702,3.1618594150546775,-0.013413304663340979,5.292064812069014,1.5461633683448295,0.17594274614996203,0.17972200029251786,0.3568296767987483
-1.2319534865538808,2.9441027755578815,-0.7632867476994041,2.98457673836161,-0.14154600173247583,4.17443611199736,3.4238197845514042,2.8178892891822955,-1.4664925212972404,1.7669012182741985
-0.6254761744862348,3.220367702454623,-0.4732963752488776,1.8201721251036393,-0.1972052515942524,3.6796389675318117,3.076813143439378,1.8887335534345164,-0.234816803930754,1.251841007268138
0.07556963319536317,-0.4554269998486913,0.3575816492722813,0.36973501102383777,-0.09049189781975361,-0.22856732673034907,-1.363755530321672,-1.7772074018826425,0.6113469667302753,-0.6845462873270473
0.0641514299945613,0.38035320677032947,-0.6329579297889389,2.741641370706282,-0.12737795091628032,0.895235426012287,2.4804790165184003,1.220304897292961,-0.4381123481386823,0.7874711125594483
-0.33040790567574946,2.481465809793447,0.030300332871735614,-0.7152171335373574,0.03529290724556517,-2.6528290619931747,-1.5433494247826731,-1.990007467304113,0.9628747771324755,-1.2801790850778918
0.3198249276902151,-0.41949702873134465,-0.3791587842048976,2.6817816189004064,0.07324722788774603,0.0016931660198828968,3.5123879798952933,1.1724214256449572,-1.452597403527802,1.111867494149903
-0.06981462956788845,1.5090394336556,-0.309487918054048,2.892174691041215,-0.03529365605449297,0.6455429263902897,2.3716721063210167,-0.9914383342182189,-0.0564521344250065,0.3450210586263439
-0.9544544222290893,3.4504418200790052,0.20240536389243904,0.2746740719147851,0.11882376705127742,-1.303268570490358,1.1995508209669152,-0.6782275127217904,1.5289144813777724,-0.7041728243567694
-0.5551156130136455,1.8635938030331651,-0.07308245698309979,2.687085524843763,-0.23112949216391918,3.9833171685411006,2.278732231063353,0.4812457375155598,-0.5193353888685728,0.7951435720886652
-0.8202684280284015,3.450887957656371,0.3404439121985985,1.3483452479812188,-0.42138250978060754,1.2689164239402233,-2.1373703837340816,-0.5345645288566105,0.5205126844140325,-0.3517687284607232
-0.8198912737972609,2.9752667739428396,-0.7057369539933915,-0.4642599717015792,-0.6923394020598164,0.7191862351112998,-1.9607297824536907,3.4588386016812405,-2.1199680083729087,-0.05178967363826094
-0.15050535952312108,-0.028493560415218222,-0.3411824898597415,1.5827256631484157,0.06868081597350359,0.9941789900649214,1.3532904934427195,-1.0302404433354992,1.4048848902819064,-0.3975425215117989
-0.4402260738016443,2.865783046126216,0.5749333390322919,1.6871957000442488,0.14227248592495031,3.4765951373893658,3.0222261744269105,-1.5955488353562743,0.6975846152446357,-0.24629644634964437
-0.5538316858210259,1.9668951728901445,-0.8137109159368694,1.3729775913589921,0.11887089607336533,0.8862203734511942,0.7597394200361565,1.3122507278738875,-2.1243521878852754,1.5290638993159142
-1.1433300848605907,3.018404552643826,-0.5742602731082457,0.34043663348298026,-0.019294045599100914,2.239862606249983,1.0116368248293701,4.6679979918693295,-1.222976331083933,1.9424079950766293
-0.4279714658248645,2.0013979364813315,0.2387566124734929,-0.025030355654106606,-0.12389465592668185,-0.3643512730032872,-3.79996725375722,1.2282519608681457,-0.41168835367406065,-0.18232423938648284
-1.1201051976008662,2.765986549421945,-0.8762622096504439,-0.785541821479851,-0.1602016266641609,-0.273112365075354,0.4264255944821519,3.7438278128931626,-2.3537644160330173,1.4618784799175066
-0.1251546334854148,1.0890397827189386,0.015630256994029687,0.6291621478182603,-0.06554366325897233,-0.6143739460250014,-1.1943522311911834,0.5306312089588995,-0.23400628001960322,-0.37379610516004785
-0.36588345789408,-0.04323204857548513,-0.7318803753715196,0.9585162547636461,0.21482879300552568,0.8932559621101952,0.6143448658148931,4.4893756939197775,-1.3888665491968706,2.030067289999273
-0.6993323349663594,2.236592876264687,-0.7393039344131713,-0.9478547135152859,-0.09480878996224992,-1.1629739046789922,-1.9492122461195835,4.4757792195278885,-2.515115414424805,1.660289893926616
-0.560969213164474,2.368437582371923,-0.789943082103035,0.7513394096182384,-0.006897618994516612,2.0567284652673288,5.4394693152585125,2.1634561817217417,-2.0151231890676167,0.7199236507158865
-0.2814653485200135,1.0016597675193046,-0.7397039599107089,-0.6773554793183423,-0.03739042292049426,-1.6947807024296266,0.1515221013342487,0.8774765670685611,-2.13531207445752,1.0414445849101126
-0.6923851045758065,2.344517175664871,-0.5455090546152888,-0.7639030256149041,-0.2010139840915732,-1.105618223220184,-0.718120392986783,-0.8663533268663088,-0.0519413219611896,0.25229315176301803
-0.1268914268797285,1.0446025296066725,-0.11150392093529624,-0.1119177721399861,0.16623386169431448,1.3223652445956675,-0.3285040049058072,0.7951860379485334,-0.46346713518767496,1.11141061229283
0.15678657325990106,-0.29328976617062397,-0.39271225376338326,0.461669045279524,-0.5324220869255748,-0.6657524915253842,0.6813633811743096,4.006012034553358,-2.8665117840018604,2.273191328522641
-0.723927662571027,2.9520352792345026,-0.37733948784109145,1.0928289419129547,0.054663198101947134,0.8063130542192968,-1.7206934377258083,-2.0153239923111923,-0.026787961393312014,-1.0723323418884552
0.10203018277626667,1.1835191363653608,-0.5288836726080686,3.463730734626151,-0.12476591104147283,1.0480994637652903,2.543222627808956,3.394762863549823,-0.5967732148249657,0.9739972199619735
-0.9485562218908297,3.3900335828516193,-0.6250337024751728,1.4213661613607762,0.034160859266928495,2.975049643721201,1.1756106401396385,3.6069413554485035,-0.588314609569878,1.3282261634729
-0.7878960372301903,2.6720841318999136,0.20236559260414075,0.7090503559877384,-0.2567213646589691,1.0816595465876429,3.2637147571378557,-0.8138785604267493,-0.5821507428977201,0.8232388766990022
-0.24453431833294326,1.5950833339428407,-0.5153580513603583,2.7531867129197596,-0.3246030606326716,2.678658480175706,1.863106771033548,2.1002446496459717,-2.2489520526024434,0.8819178359484939
-0.6671899255594749,2.606352011364274,-1.15925506844197,0.11418857997143239,-0.09732126543320024,-0.08021826716952563,0.08987482896832738,-0.2922598816198516,-0.90982285780012,1.3638047256514698
-1.004164033767447,2.4232742294427205,0.5874538132890972,-0.5665179302601209,-0.21580427172270442,0.6188195853892384,0.9213100141347377,-0.06388625637023215,-0.8288313867401446,0.7976555115610221
-0.6300741315528314,2.7349404867766527,-0.7415607841681537,1.1870749047685325,-0.47798976154955725,0.5033541453298775,-0.041658911026335815,2.434482893268336,-1.0966094248982856,2.289837336088795
0.47244489548860497,-0.7070493530305448,-0.5089572661765224,0.855265020293285,0.2706633081127607,-1.3992946553924606,1.0748401369331355,1.6201600448519722,-0.7320104533196345,-0.06958049654293905
0.6632493339670404,0.015817601139959114,-0.15760056101306574,-0.3574384992125993,-0.050361282985128764,-2.467048113757676,-0.558950995717975,2.2026440580880604,-0.1681055942060636,0.44263924245806924
-0.1463268836869305,0.8739060600604762,0.35229047518174067,0.00851000297449156,0.1461555061884586,-1.955073193966196,-2.9264798721882515,2.569523274972915,-1.578791542588545,0.6282301742890174
-0.5673771336999538,2.2689298895290255,-1.0353146235839423,0.6602275713902697,0.08749762343890664,1.025606622690525,-2.083363172226594,1.655001135759126,-2.4365101181796973,2.022677953372148
-1.088065634170819,3.2568301694921686,-0.9982841777982316,-0.7604930957205717,-0.15952038610149663,2.674795530601311,-0.24592067823592845,0.7756958794602788,-1.6063502221554518,1.5828524979294685
-0.44796801684726284,1.7492626056077976,0.3712306173234953,-0.23630893506372097,0.06730875142710935,-2.0276012101193976,-0.5380296420805659,0.7026130879903983,-0.4967052207651815,-1.3002047135002897
0.1907807145873683,0.2707153514009859,-1.2130196206562835,0.9479054208488187,0.09813201214867845,-0.2573742380488194,3.2397441797558972,1.5306789874477174,-0.9849991177539329,1.0139060255354422
-1.0346052995182724,2.2359545904901035,-0.5867186008340505,0.46139265507198646,-0.2894254092105396,0.8319020246932238,2.2393550816885908,0.656078797964901,0.12482469239814807,0.415900705879646
-0.749886949797622,3.1131733741414793,0.5876479066033307,-0.9746823741033881,-0.010942082352941506,3.181885384739244,0.1629057108519223,-0.38437083793588367,0.034064231091320715,1.007546147187642
0.21505982520111996,0.6763035792875527,-1.0751258301418876,2.346629704409446,-0.026991877824375485,3.956208217541112,1.6542555304420516,4.608537511621734,-2.5027144115786166,2.5819703464407278
-0.4386944227817666,2.38838493455962,-0.8124077635972001,2.0609451983385396,0.16877170554003842,0.7055129898864081,3.389201830551025,2.911585021677607,-2.0690541202869315,1.896531821853541
0.06530578792370084,-0.49367578316466887,-1.2031777986099026,0.8333150668456677,-0.2174471147295408,-0.44017623931860084,1.491391267002249,2.9281175782090583,-1.5524324283870372,2.249295659392857
-0.33871442047957606,2.284691217454177,-0.5958575268608769,3.0914006131689478,0.11268592182730339,1.2724619830307176,2.77645304560757,3.474162644964871,-1.1852219189683735,1.51395664610475
0.031218043692323987,-0.2283632090563652,-0.5748948333825519,1.0375015085667227,0.23762839607647948,1.4374683344989363,2.541939865162531,2.11017285018921,-1.57848388945808,0.8531872711743129
-0.6007176437450444,1.7163462211417988,-1.0195423622974673,0.8723952307599032,-0.00855311460003718,0.8181549378131924,-0.19052413995339212,4.661956784072854,-1.7756353794593773,2.3564652489117286
-0.4214385489518299,-0.036989864815135776,0.7525200643069653,2.4006173953562717,0.3357478113356952,-1.4937079613641406,-0.47806077273815445,-2.5393184354694793,0.42299199881325567,-0.6994014276212949
-1.183702176174888,2.275742536124698,-0.6318540024597369,1.6769389797199445,-0.20672499631121097,1.3617913575451128,-0.21234877549538084,3.2089984479476463,-2.5254366542424056,2.2494757319554637
-0.22378576717276175,1.8590274008964993,-0.7422814579592769,-0.6441579264129386,-0.36124973600699223,0.46917726045193775,-0.03555919705949561,3.1930553923924694,-2.393163125504471,0.6661762798242477
-0.06858473638298201,0.963176950583102,-0.07828785846153032,0.8549210617715879,-0.04422865306080043,-2.576287367295703,-1.222443423252721,2.8987940641867826,-1.0976532551637035,1.6604631675834858
0.25813840250096926,-0.6261455625217764,-0.22134767344627526,2.51108253231446,0.1999874741292679,3.6950006994799383,2.0129579852320476,-1.4410948613579457,-0.4703230440509911,-0.7651178161879524
-0.22192895762098333,1.4850924253573528,-0.49894562951245697,0.8150156774868504,-0.19424557401141507,0.495622635710659,2.1293723311681187,1.7790043014013373,-0.03701252344938995,0.904116597516379
-0.13899238707936848,2.281137435876246,-0.24115744573103876,2.3208456668924327,-0.13333423822594212,-0.6240723321451183,1.6124963660986842,1.0461269099772794,-0.20409781345200034,0.8817596481843418
0.40745483017942313,-0.8554276586474225,0.2272273821648701,-0.44879709876613616,0.05699478976975734,0.06116895185111093,-2.1254694406334185,1.1855988130122226,-0.18692159116698023,0.49977828794147083
-0.3692550199650971,2.5999985358721633,-0.33482353287670663,2.957075680376707,0.009572008129058727,2.998323882331144,3.676215352698647,2.478922207095934,-1.170854340842505,1.6446343427298447
-0.15022750614783362,0.6025846039369742,-0.8691626476117398,2.4382645363547533,0.22543502451324574,3.7855854875515336,0.8406693853615175,2.5734071265226315,-2.831372576516784,2.984868345299676
-0.4814088148582809,1.7845989072135242,-0.41284195215399166,2.392300705895625,-0.11486441782423791,3.178729648329959,0.7477922591878576,-0.26582755657955315,-1.5955118120160834,-0.13600159850993207
-0.2356855786789263,0.977668442282807,-0.6242749688123053,0.6637224988593255,-0.05723243433531158,4.646157767456425,0.4671807847787961,2.6699164012758856,-2.1614362578420705,1.5330962688422392
-0.9275259763635082,3.4064263772168246,-0.19733964245505645,2.184083572058522,0.0170262948158899,3.606252527322466,1.5779285982835445,-1.205058892810274,0.40611478042224464,-0.37968051869022684
0.47022199894451466,-0.913935923032531,-0.19261557276085062,1.1866591844054124,-0.2082575648302598,-1.573740116017699,1.9712396125229552,0.9061416429795464,-1.3021687635324835,1.5143743416326325
-0.027699888864597958,-0.26145978186558183,-0.19807468423375674,1.0146718735770826,0.052944308788545245,-1.2683761596104404,-2.7241411153947377,1.7020598131309994,0.10569039117790842,-1.282131723440119
0.30203476761507353,-0.4749885153131955,-0.46510590317631406,1.5668245774563618,-0.04427061118207301,4.920188794925727,4.028457824605433,0.22660621763949354,-0.3576724477284121,0.6399260819456981
-0.9492117243137363,3.410077329152255,-0.634556117368217,2.905167480046569,-0.041144227621537605,4.278642602400574,3.380578782618046,-0.022540121836148064,-0.6864818536742627,-0.4036041174873771
0.1826245074994419,-0.6645527281699555,-0.2978373900761383,-0.6180511005296803,0.0622098156277003,-2.362827273458056,0.957611428623753,1.5922251904731528,-2.3084302801977112,1.0109702215878853
0.1989284003689398,0.3371056090301068,-1.2191938214802707,0.5105986361306543,0.46533541613494134,-0.9145735935446059,0.736077744121541,2.9036732482334586,-1.5597150885184201,1.5550897581858574
-0.07243759066305852,0.38937039531620377,-0.25023828628574485,2.65197834576904,0.08633906682337777,1.5391471453822558,2.906667620692126,1.7499531636365173,-2.1757577587797208,0.2848069915484765
0.06609926943278081,1.8116772049378413,-1.4350138532518442,-0.36735627154163286,0.024567925856464175,2.9484857876832646,-0.6555211839919639,3.9700871522849877,-2.7187300920772617,2.819166276597143
0.3709086539834179,-0.7907766920172332,-0.5501205958516158,-0.48939410472945344,0.0930939767663403,-0.7976271819630196,-2.6844958081551127,3.3613653974174316,-1.7390171832856278,2.2358494921951872
-0.3125132107373805,1.254667199959996,-0.15335166039607825,-0.22462647823763227,0.07333575118507367,1.330450950792503,-0.00742069678659163,1.9567731409719804,-1.0639866451635107,0.620704288557262
0.1454219230983181,-0.049374682397979486,-0.7517925174190924,1.922505238894228,0.10990631033636679,3.8951351729461923,5.192632483386123,1.9595708015595406,-0.508222444633158,1.3368407088758585
-0.8342178571000689,2.2459084158732128,-0.37997017035740493,2.921174034670964,-0.3374804044942949,3.552101397437087,3.7121502070074,1.8134570549375488,-2.40777935831544,0.2403026896983119
0.027946617031773847,0.3670918992691097,-0.5034928679533641,0.9582508100988811,0.1811177950221981,2.4135961959882413,2.1772798666744344,1.0138861167725022,-1.4493208149908121,0.37469560053412276
0.017038654324275267,0.25434524926780955,0.2159776248542032,-0.22580775209197035,-0.29117247943804087,0.4316781728361083,1.8816089068657633,-0.5825536127012789,-0.5448391583659342,-0.1673669345927773
-0.3720032142094675,1.5414958582041915,0.09700849659247546,1.8665120613883337,-0.1840014386379263,4.990780504145662,2.386390666693001,1.4959014310483516,0.1625693710441752,1.095415396498562
-0.060202850187249704,1.4126580555039796,-0.2621155159341246,0.4812002740252066,-0.19670633481489297,1.1611742508599032,1.6012691804698296,1.818208575009791,-0.43454342294774206,0.4435209315143769
0.08809334039738062,0.2919185137176161,-1.2019594699247298,-0.7474572432835267,0.10841966176235546,-0.9378742219556412,-1.9083698103259943,2.8022026544103813,-1.8426717020031127,2.1148956617563353
0.004310052125634193,-0.8118706696768727,-0.08869464620442169,1.2307872222857954,0.38173112473364,1.0756799903804883,1.1206281688720197,0.9151961619748668,-0.6421760972309156,1.6738099449149708
-0.9712998790481038,2.8746539279674206,-0.37459706829254774,0.7299349920143385,-0.01973540400671944,0.32260095723467985,3.4436270639579694,2.043046826318807,-1.4294682278177648,1.9755019154852567
-0.44151821999416085,2.5473194147851985,-1.2803122562624605,2.6159086747352984,-0.25574397673668753,3.250630920077816,3.9891976711278203,3.9835635150181696,-3.094548620989714,1.7917167520777797
0.15622378376607005,-0.16888255809693065,0.422753067332759,0.5792306898101438,-0.2326438816865814,2.0486875635108825,1.660727625223152,-0.8440771569097159,1.0589932977482122,-0.4513392852565576
-0.36871081283064505,1.6484176908949189,-0.12719002686884257,0.08435440864586297,-0.26410152382641006,0.44923905728619956,2.530806973858943,0.47789444562051697,-1.7029952496651393,1.3742652796832906
0.13367203304259337,-0.2833698746406129,-0.7711473835680479,1.4627460862575759,0.28758566354994936,0.040246500504012794,0.15239773058633566,4.431026264145418,-2.565027468530102,1.6463709327219347
-0.634873560327664,1.9625029667735632,-0.8186719255800831,2.3799180793097867,0.04773178533341056,3.5802301996933323,2.475082567415427,3.129364807030794,-1.1622537985314898,1.8523878061346757
-0.039302597005779476,0.9264585300048427,-0.8644608467267549,0.09575873454215555,-0.017610319849901558,-0.3988986133107516,0.07442249258171238,1.2270528498224371,-1.4289521036436523,1.534006349465173
-0.8065498828832015,2.5355834716032435,-0.24501599036427296,1.957755993988699,0.15514802900870936,1.9087211126545427,0.5776145901023122,-0.06837040481678186,-0.38621462945612467,-0.7095617303764572
-0.27182013521507437,0.6714837521681054,-0.42347483584350754,-0.9882994874477846,0.41590834293536944,0.5166106263695819,-0.07717689425960228,0.8533047014913903,-0.4047925766490296,1.1862104713546187
-0.5898627889818477,-0.062053130643451304,-1.248175967231419,1.0608289196188005,-0.056598087210227764,1.0285054679111947,0.3476010025239909,3.3402909838035137,-2.3145526291658,1.7840113808941045
-0.17378269732935903,2.3344528959272663,-0.5926789919941654,1.143536131882466,0.13489451406942468,-0.4933925743216896,3.2461856605326105,2.050764552182564,-1.1933584519541824,1.9002110349953178
-0.34008122669893603,2.9856865451474555,0.5522004680108333,0.9203167438728252,-0.12173636754954709,3.897624924556931,4.068850597592655,-1.86050527359729,1.775429852870609,0.8895697482148153
-0.22115662858197707,1.0534920543558854,-0.5374596294974624,-0.4495345998235004,-0.5330885787251778,0.08243917985921567,0.6834165061675876,3.1853654299672347,-2.6248239147581436,2.7711296427287686
-0.9328561301544266,3.2359089344930494,0.05737872760889558,1.7693035061741376,0.19037846165519354,3.4517956897061137,2.101078426426376,-0.5396638492005532,-1.2568609576283298,0.6968773105538681
-0.2773274158306164,2.2649709209907383,0.1308532785957354,2.592455542374017,0.2950323249681307,4.817394759648757,5.221632763097247,1.2315369343420492,0.5698563169706318,0.06651979849322326
-0.3994993125351846,1.4532385931276361,0.26162181597244094,2.2090790754633325,-0.09876091740237666,2.7618456964314233,-0.06954572394232528,-0.7160359588160203,1.148321257148684,0.2644996917134609
-0.13076311820161968,0.35613701654049956,-0.16293673906155035,-0.7599591851408718,0.199242630615807,-0.3176151953155315,1.322839057728958,-1.2086380199938074,-0.7764346752073767,0.038354422849930195
0.14129238721213175,0.00027610066177019554,-0.09911237214010271,3.3872062352210266,0.08583495254347366,5.568822357458501,4.213516785240121,0.7606397679238515,-1.4634854994561273,0.22877506982749415
-0.5080874876314714,3.0467830986385884,-0.41337132147476585,3.367753482741109,0.10459498196629947,3.678002342393726,2.6514411368291038,1.102752927659787,-1.6055014778299528,1.4690264933353814
-0.4700703539743778,0.4176269959723944,-0.910357486648699,0.41037831334870956,-0.15185759751898767,0.7627625973711418,1.3371972693160827,1.9032327686821375,-1.791876335678214,1.9330762089217928
-0.19696969106533294,-0.5809608946466218,-0.5561238248681719,2.195214522807665,0.09930719178113424,5.611009894834487,3.3751105574653284,1.2136037891324367,-1.9284145866884732,1.3204313840128907
0.031077378234251843,0.03443030457810603,-0.06574744632880919,2.2189996656718045,0.09620204998461825,2.1105272837012645,-0.0048174589854221295,0.361402078643535,0.7223154166022177,-0.055840490203369335
0.4341258402850207,-0.1330393712931517,0.23384849670767127,1.6423171637434852,0.5232439127408273,1.8908572238189336,4.272879285401633,-0.336901220861094,-0.7425334037227423,0.6034565127059507
0.16100860015841253,-0.714869376873168,0.26020903511693516,2.238510891110589,0.037717936224873065,0.7457431227312438,-0.5251111383958831,-0.15177456242849574,0.06785029171405402,-0.8387648336969071
-0.07892318219679502,0.10200578738598343,-0.15527013779266932,2.6363391440952975,0.5171866293600061,3.265752845125957,2.851479155636044,0.10603692402583675,0.1837992445303295,1.3774491429500944
0.04479919059038882,-0.9548194392144586,-0.7802033057683542,-0.2671170393430007,0.04116851282635972,-2.461996713366198,-0.07711969624449089,0.6680751395073738,-1.7318245963447703,0.9833477221634128
-0.8829285979423228,2.905400625577333,-0.35364436435918395,1.0452479720845562,-0.33427195553055333,2.0746518214099448,1.149464247250676,-1.1171267621688794,-0.7723434586626161,-1.0845883746533265
0.30559819161005514,-0.652333311170805,0.18747999154999878,1.6398595596950507,0.6385540836231783,0.16911286022409389,-1.7428913593145328,1.419415272960499,0.3814733860842127,-0.2678739955078175
-0.4574211378047192,1.5393695615289276,0.16316498792441425,1.872618590620596,0.24953453377012505,2.827991410211557,1.311421407285936,0.9876886082142626,-0.28378140608593233,-0.7490285344404036
-0.3973370506180499,1.3066259908200677,0.5963036127035668,3.2956541436493136,0.5820011723906484,2.132640730406789,2.6590750260732507,-1.3974399819947956,0.15710982236692084,0.5842703510846056
-0.11934424094963797,0.683922775590649,-0.4685188091293351,2.369244792352543,0.27292548038511133,3.109609072168625,2.6235335469000014,3.1699959189785347,-1.2042584644175005,2.462004262304745
-0.09178264594895903,0.5682913265167766,-0.04661697277129617,2.9996637767085716,0.19228673608757496,5.333963119307452,2.4161873646208774,0.49356183717442637,-0.32424696844503453,-0.9002110655852671
-0.9113912002206697,2.0990837444661046,-0.07675428709577325,0.41367486608736304,-0.4618392838076864,1.631313315793063,-1.8563002540089728,2.8117332512643065,-0.8206541023072039,1.5324314112666901
-0.3644813080965812,3.3384655623712955,-0.3405315109736555,1.570887281016529,-0.23968320225195844,3.0696694794646313,2.7570120645267657,-0.4968338441345487,1.646791366371579,-0.2962450188249645
-0.6152554087679899,2.580067176321203,-0.2265585813023227,2.9602328515545233,-0.21633839014795156,5.946286725054097,2.71381018579515,0.2696698618510225,-1.838216549560517,-1.1423435016529837
0.07633471395617696,0.4980948335167781,-0.5417486382309504,1.0302256888618868,0.5003731226299718,0.29095851332424133,1.7988470643894572,3.580521966510532,-2.466429450590318,2.78081524959917
-0.837429640532774,1.8237295852494873,-0.554600437284228,3.0452644911922944,0.24381946675301347,1.1576864719006044,2.304633811568773,1.787289314229631,-1.6593712859977214,1.6628597844621467
-0.9219486231003216,2.9231714163812357,-0.47654866887379416,1.0326836079188717,0.299686518341739,-0.3918241184773559,2.4308074417205896,3.1645181304213077,-1.3654076276507952,0.18330175114671646
-0.4144867782955171,2.142031610777115,-0.11819265921345665,-0.6102094812884227,0.06102371924423744,-0.9653258119916402,-1.5397341934437656,-0.0013597242940581733,-1.419199527609288,0.3140747611382199
-0.6112144900449207,1.1523900925783765,0.5281481792143409,0.9261005614438151,-0.5490455819060533,2.5364580854705956,-0.1617444142953105,1.5896206866985727,0.7921394304250039,-1.240637553052422
0.07826365563139978,1.974029098979849,-0.2057846171389488,-0.8736686262562934,-0.3427004451422869,1.282814467000757,0.3442874075525124,-1.7469792105602777,0.10793883025353894,-0.23283388490710452
0.4269594300263919,-0.44534333554327443,-0.4221018635054244,1.3617679308461481,-0.11405564904018166,1.5989831164883965,0.9722521017576489,1.7094886602720596,-2.3887086676592175,1.3133980646842929
-1.0502139126106407,3.050413310538734,0.2863170231046912,1.3464514351882135,-0.15599604093777228,0.9277225766892345,-1.7670545276864869,-1.419762061595435,-0.3520995300302642,-0.022362923379344552
-0.5950283930826266,1.713455108039466,-0.29815851184304665,2.7101524533824914,0.2671664148599778,3.1442426278307622,1.3803006835321365,3.711227528951505,-1.1861052856202292,2.6751882961728466
