lhs,op,rhs,est
x4,~,eta2,-0.3372087746541969
x4,~,x3,-0.4938944165389638
x2,~,eta1,1.0920323236531346
x2,~,x4,-0.5537441715706373
x1,~,eta2,0.987752687379627
x5,~,x1,0.8667539724501697
eta1,=~,y2,-0.6545278707927118
eta1,=~,y3,0.12341357543337718
eta2,=~,y5,-0.6281355579058429
