lhs,op,rhs,est
x1,~,x4,1.0968656548006226
x3,~,x1,0.6603430756314475
eta2,~,x3,-1.0388984906080494
x2,~,x1,-0.8138978564040378
eta1,~,x1,-0.893810395359966
x5,~,x1,-0.32046669934731736
eta1,=~,y2,0.43238889363264776
eta2,=~,y4,0.5180067225729255
