lhs,op,rhs,est
x4,~,eta1,0.9751596893223
x4,~,x3,-0.9440629418700237
eta2,~,x4,-0.44975128457956537
x3,~,x1,-0.18288172560617919
x2,~,eta1,0.6535728825526691
x5,~,x1,-0.39996889112897716
eta1,=~,y2,-0.2568850773076762
eta1,=~,y3,-0.31467145845615385
eta2,=~,y5,0.9164108893181104
