lhs,op,rhs,est
x5,~,eta2,0.7839468557600375
x4,~,eta1,0.6114205961794325
x4,~,x5,0.4053703097647318
eta1,~,x1,-0.9099989944365894
x3,~,eta1,0.14743505108392954
x2,~,x5,0.7984434928752764
eta1,=~,y2,-0.7825515045653851
eta2,=~,y4,-0.2516001923739385
