lhs,op,rhs,est
x5,~,eta1,0.7747116492071661
x3,~,eta2,1.0065209518335971
x3,~,x5,-0.28143433218732294
x1,~,x3,-0.49528797659430435
x4,~,eta1,0.23339173662057602
x2,~,x4,-0.6655426500650334
eta1,=~,y2,-0.3091988497151165
eta2,=~,y4,0.1777137981970301
eta2,=~,y5,-0.7909009510669659
