lhs,op,rhs,est
x5,~,x3,0.4162865629888115
eta1,~,x5,0.8273354962114412
x1,~,eta1,0.768307440059528
eta2,~,x5,-0.28817943437556404
x2,~,eta1,-0.6844953130490791
x4,~,eta1,0.31634757969033794
eta1,=~,y2,-0.3293489220961466
eta2,=~,y4,0.9594246108478457
