lhs,op,rhs,est
eta1,~,x9,0.7105969318067008
eta2,~,x3,0.352742953334155
eta3,~,eta4,0.44185891177103803
eta3,~,x10,0.45041160017455173
eta4,~,x8,-0.22998796583438447
x10,~,x6,0.12874727524101043
x3,~,eta3,0.1854779467256004
x4,~,x3,-1.5958330935016471
x4,~,x9,-0.5593942167858931
x5,~,eta3,-0.44356405543138966
x5,~,x2,-0.7940019138676012
x7,~,x4,0.22139409003096908
x7,~,x1,0.7815206987169431
eta1,=~,y2,-0.7430980963350841
eta4,=~,y3,0.25731206097763876
eta2,=~,y4,-3.7385505272555575
eta3,=~,y6,0.37501435273722494
eta3,=~,y7,-0.5728153512724152
eta4,=~,y8,0.21333490728137672
eta1,~~,eta1,0.5620697382152693
eta1,~~,eta2,0.030197536055080604
eta1,~~,x5,-0.1374260621717135
eta1,~~,x7,0.1720527489710316
eta2,~~,eta2,0.0722500327552615
eta2,~~,x5,-0.0015134447565943335
eta2,~~,x7,-0.005967232821301846
eta3,~~,eta3,0.1621251021582011
eta4,~~,eta4,0.0
x10,~~,x10,0.015960146470989613
x3,~~,x3,0.0
x4,~~,x4,1.0496532049237703
x5,~~,x5,0.5465002674769582
x5,~~,x7,-0.10128019469541638
x7,~~,x7,0.8547183980399061
y1,~~,y1,0.9129585939720897
y10,~~,y10,1.089006990486118
y2,~~,y2,0.6182533376055716
y3,~~,y3,1.38084609851632
y4,~~,y4,0.0
y5,~~,y5,1.8162454073048662
y6,~~,y6,1.6996457061959815
y7,~~,y7,0.7745466389056372
y8,~~,y8,0.06483171245548615
