lhs,op,rhs,est
eta2,~,x6,-0.4246147322766741
eta3,~,x2,-0.6259509277331254
eta3,~,x10,0.27477420410103165
eta4,~,x3,1.3420536309827096
x2,~,x6,0.6746848896246628
x3,~,x5,-0.2079791779305387
x5,~,x2,-0.19247532420674435
x5,~,x7,0.4539442987996543
x5,~,x9,0.35311195836423553
x5,~,x4,-0.8383471004671611
x6,~,x1,-0.5094939664318755
x7,~,eta1,-0.12634684995906711
x9,~,x8,-0.14952238149388997
eta1,=~,y2,0.5394063474693005
eta2,=~,y3,0.6643106571620403
eta2,=~,y5,-0.4108322139983568
eta3,=~,y7,-0.19507592140340366
eta4,=~,y8,-0.17901762477602856
eta4,=~,y9,0.6074331034143361
eta1,~~,eta1,1.2065091038173152
eta2,~~,eta2,0.25727443302366887
eta2,~~,eta3,0.0010271189272492796
eta2,~~,eta4,-0.21601019036195707
eta3,~~,eta3,0.4412330567269936
eta3,~~,eta4,0.12031064937717745
eta4,~~,eta4,3.9553118296930863
x2,~~,x2,0.6762915192564445
x3,~~,x3,0.1445083621170178
x5,~~,x5,0.9834638316047976
x6,~~,x6,0.31561596082010984
x7,~~,x7,0.003990154258369381
x9,~~,x9,0.021390443500802447
y1,~~,y1,1.2199511142484867
y10,~~,y10,1.7604582742781414
y2,~~,y2,0.12119340248377948
y3,~~,y3,0.5133361631624416
y5,~~,y5,0.2906381874451512
y6,~~,y6,2.0057184370004
y7,~~,y7,0.07191177287951256
y8,~~,y8,0.11911823058528892
y9,~~,y9,1.9697511995806838
