lhs,op,rhs,est
eta1,~,x4,0.3770164161283955
eta2,~,x10,-0.7560936064307211
eta2,~,x9,-0.4436989525719772
eta3,~,x4,0.15389362852102687
eta4,~,x10,-0.3605657134927441
x1,~,eta2,0.09786241944207624
x1,~,x5,-0.6814926596068991
x10,~,x3,0.5579045259996651
x2,~,x5,0.21936698642403515
x4,~,x8,-0.29275877079614054
x4,~,x9,0.2259205178758945
x6,~,eta2,0.20257185301873984
x7,~,eta2,0.7162748339050865
eta1,=~,y2,0.049213191732331664
eta2,=~,y4,-1.049230721567244
eta2,=~,y5,0.5978687325001169
eta3,=~,y7,-0.11755065491094611
eta4,=~,y9,-0.16482776371918614
eta1,~~,eta1,0.14787095408722792
eta1,~~,eta3,-0.12281541585705733
eta1,~~,eta4,0.008486975470781566
eta1,~~,x1,-0.08878578490495166
eta1,~~,x2,0.0506901345815552
eta1,~~,x6,-0.013557237467930356
eta1,~~,x7,-0.07847505607571326
eta2,~~,eta2,0.5375176256011577
eta3,~~,eta3,0.6275343323502576
eta3,~~,eta4,0.06120024619133983
eta3,~~,x1,0.07920857410598962
eta3,~~,x2,-0.017201588548817936
eta3,~~,x6,0.011456871388061677
eta3,~~,x7,0.08968079384123948
eta4,~~,eta4,3.665111694450425e-19
eta4,~~,x1,-0.023309418779745603
eta4,~~,x2,0.0021024624269699367
eta4,~~,x6,0.001213128053316065
eta4,~~,x7,-0.09242945796346118
x1,~~,x1,0.5945676329620633
x1,~~,x2,0.0011189955025491657
x1,~~,x6,-0.007031966526896948
x1,~~,x7,0.02526787988251601
x10,~~,x10,0.20932310560623776
x2,~~,x2,0.04788839921652756
x2,~~,x6,0.004833038783373154
x2,~~,x7,0.014291561612799679
x4,~~,x4,0.12736050893768308
x6,~~,x6,0.09316410310847514
x6,~~,x7,0.016227105625762704
x7,~~,x7,1.1144565626547358
y1,~~,y1,2.0018475351985474
y2,~~,y2,0.02109786336273711
y3,~~,y3,2.017935777489429
y4,~~,y4,2.212495196132592
y5,~~,y5,0.6789331393264441
y6,~~,y6,0.574613255345084
y7,~~,y7,0.15740583927110519
y8,~~,y8,0.9188337264264528
y9,~~,y9,0.0784067343613423
