lhs,op,rhs,est
eta3,~,x9,-0.4151053507914892
eta4,~,x7,1.052297489850284
x1,~,eta1,0.6731314399841064
x1,~,x5,-0.7509994914823234
x1,~,x9,0.8079316909200238
x2,~,x5,-0.2517246340054742
x3,~,x7,-0.32191491989039683
x3,~,x10,0.33728711593539157
x4,~,eta4,0.37110320090062787
x5,~,eta2,0.9669474309990849
x6,~,x1,-0.3803285829691448
x7,~,x1,0.2583460569273191
x8,~,x5,0.42741596073680027
eta1,=~,y2,0.4096512996937671
eta2,=~,y4,-0.2807481964356053
eta3,=~,y6,0.9110503375983054
eta3,=~,y7,0.4319479671381502
eta4,=~,y9,-0.5217619131897101
eta1,~~,eta1,1.7286847964426644
eta1,~~,eta2,0.04542976293006636
eta2,~~,eta2,1.567668111427689
eta3,~~,eta3,0.05029466984535367
eta3,~~,x2,-0.018829840734554196
eta3,~~,x3,-0.015241416977126995
eta3,~~,x4,0.004872371894634793
eta3,~~,x6,-0.15481347846200247
eta3,~~,x8,0.03608331648859599
eta4,~~,eta4,2.221111595115293
x1,~~,x1,1.2783794136372941
x2,~~,x2,0.06929868400009949
x2,~~,x3,-0.024082445379627726
x2,~~,x4,0.014858469238977927
x2,~~,x6,-0.07186720016736735
x2,~~,x8,-0.01633453206865904
x3,~~,x3,0.3122061827455124
x3,~~,x4,-0.003829596987162786
x3,~~,x6,0.06913887090619354
x3,~~,x8,0.0456343121152436
x4,~~,x4,0.33619750962643213
x4,~~,x6,-0.04371206179892585
x4,~~,x8,-0.03627912851229009
x5,~~,x5,0.836948449455687
x6,~~,x6,1.0227290630286778
x6,~~,x8,0.11208116465387792
x7,~~,x7,0.43486998041648084
x8,~~,x8,0.20697967605973344
y1,~~,y1,1.070329345237007
y2,~~,y2,0.12168459782341574
y3,~~,y3,0.8638023437369122
y4,~~,y4,0.10871275536469091
y5,~~,y5,1.0151905722688688
y6,~~,y6,0.5145242972262442
y7,~~,y7,0.2307222374360077
y8,~~,y8,1.5197661961802251
y9,~~,y9,0.8722107524471713
