lhs,op,rhs,est
eta1,~,x10,0.6303105631274855
eta2,~,x3,0.8155008531853191
eta3,~,x5,0.0505259743883291
eta4,~,x9,-0.7052009137035774
eta4,~,x10,-0.38515301288362114
x1,~,x7,-0.9242228628661048
x2,~,x6,0.8190175448236771
x3,~,x10,0.4773546431805548
x4,~,eta1,0.10931341173752183
x5,~,eta4,-0.08039920870075426
x7,~,x5,0.8670726503977134
x8,~,x7,0.7271640088830619
x9,~,x2,-0.167670827182201
eta1,=~,y2,0.6007228216826019
eta2,=~,y4,-0.918582166334402
eta3,=~,y6,0.2537916247510492
eta4,=~,y8,0.7245863222497988
eta1,~~,eta1,0.46602450628278697
eta2,~~,eta2,0.7235438835340422
eta2,~~,eta3,-0.02018693126823571
eta2,~~,x1,0.06011559310692493
eta2,~~,x4,0.0011914039047366113
eta2,~~,x8,0.01868235302350066
eta3,~~,eta3,0.27408936041190474
eta3,~~,x1,0.03475775223602103
eta3,~~,x4,0.011018418571361807
eta3,~~,x8,0.03575114552001307
eta4,~~,eta4,0.8678437111007639
x1,~~,x1,0.9351816246377551
x1,~~,x4,0.0013610947150693453
x1,~~,x8,-0.015848318569949005
x2,~~,x2,0.7447056295712646
x3,~~,x3,0.2527813953916101
x4,~~,x4,0.012810511689527328
x4,~~,x8,-0.006579631283743872
x5,~~,x5,0.02680793817042214
x7,~~,x7,0.4168552126176368
x8,~~,x8,0.7471811923528527
x9,~~,x9,0.012728959919600238
y1,~~,y1,0.8568390346501905
y2,~~,y2,0.32851827545558615
y3,~~,y3,0.7244598485398008
y4,~~,y4,0.9319805682891464
y5,~~,y5,0.8840426852198918
y6,~~,y6,0.5148140512001795
y7,~~,y7,1.9898649934841606
y8,~~,y8,0.748160117665365
