lhs,op,rhs,est
eta2,~,x2,0.8363844995187331
eta3,~,x4,0.03411040724357454
eta4,~,eta1,0.5342977377324589
x1,~,x8,0.7582661915768079
x10,~,eta1,0.2843105651443081
x10,~,x8,-0.3445308479925293
x2,~,eta4,-0.4781523662944998
x4,~,x10,0.02222116072908269
x4,~,x3,0.7646914741507538
x5,~,x1,-0.22948250156161737
x6,~,x3,0.8118680079844343
x7,~,x3,-0.16126784999308513
x9,~,eta2,0.6559107611043664
eta1,=~,y2,1.1364552669576968
eta1,=~,y3,-0.3746601247891743
eta2,=~,y5,0.9564427104368072
eta3,=~,y7,1.5187288584843903
eta4,=~,y7,0.4180708393849824
eta3,=~,y8,-0.25792992505217877
eta1,~~,eta1,1.6823089197757186
eta2,~~,eta2,0.9199335100644773
eta3,~~,eta3,0.5712821846343906
eta3,~~,x5,0.012897045741145162
eta3,~~,x6,0.06826994100878184
eta3,~~,x7,0.002536758437442868
eta3,~~,x9,0.0037408846772283883
eta4,~~,eta4,0.23641612879278892
x1,~~,x1,0.6381118186971143
x10,~~,x10,0.12210364448006147
x2,~~,x2,0.41614679520383424
x4,~~,x4,0.5871894812786628
x5,~~,x5,0.04536773551477828
x5,~~,x6,-0.008951969239289148
x5,~~,x7,0.002540902767483956
x5,~~,x9,-0.004794623257367985
x6,~~,x6,0.6477721705731586
x6,~~,x7,0.004015160390505538
x6,~~,x9,0.006282564275376759
x7,~~,x7,0.019901568166761394
x7,~~,x9,-0.0012670752645991205
x9,~~,x9,0.3951521401969394
y1,~~,y1,0.9053470840259938
y10,~~,y10,1.0014865822994745
y2,~~,y2,1.1416893128527907
y3,~~,y3,0.11973186742877887
y4,~~,y4,1.0548411077104316
y5,~~,y5,0.5468277112935843
y6,~~,y6,1.2916463716678697
y7,~~,y7,0.3156591789291665
y8,~~,y8,0.053988019784508685
