lhs,op,rhs,est
eta1,~,x1,-0.827421775001251
eta2,~,x2,-0.43429830967311917
eta2,~,x8,0.8474211444794488
eta2,~,x9,-0.5666313079464103
eta3,~,x9,0.5670712967843732
eta4,~,x8,0.3802073530683497
x10,~,x3,0.4987914630796961
x3,~,x6,0.4129439269698157
x4,~,x5,0.4547342751231911
x5,~,x9,0.5207906283405983
x6,~,eta1,0.0672199497457109
x6,~,x7,-0.5361724603122616
x6,~,x9,-1.0753034642305677
eta2,=~,y4,0.19349973415610297
eta2,=~,y5,0.7595073787418231
eta1,=~,y7,0.17143087283529945
eta3,=~,y7,0.6628457559142782
eta4,=~,y8,0.15697181645939057
eta4,=~,y9,-0.7789876418042907
eta1,~~,eta1,0.4255931783193285
eta2,~~,eta2,1.0586472340738753
eta2,~~,eta3,0.08585701947840109
eta2,~~,eta4,-0.046543696580131425
eta2,~~,x10,0.141414850961331
eta2,~~,x4,0.0016956913025617203
eta3,~~,eta3,0.1953763507492252
eta3,~~,eta4,0.019675641655633826
eta3,~~,x10,-0.042796888138330484
eta3,~~,x4,-0.035350129764334215
eta4,~~,eta4,0.19400672568316765
eta4,~~,x10,-0.009868701315691588
eta4,~~,x4,-0.03229312651543455
x10,~~,x10,0.25255523626845344
x10,~~,x4,-0.01663899766825359
x3,~~,x3,0.4944547585957811
x4,~~,x4,0.14846963003623
x5,~~,x5,0.356196087912107
x6,~~,x6,1.2984371891704034
y10,~~,y10,0.9900469558727815
y2,~~,y2,1.377124474133627
y3,~~,y3,3.1451886686402206
y4,~~,y4,0.12735416688745835
y5,~~,y5,2.044528810101034
y6,~~,y6,0.9513171764081882
y7,~~,y7,0.4543002757790715
y8,~~,y8,0.03269518921177782
y9,~~,y9,0.4008745482073888
