lhs,op,rhs,est
eta1,~,eta3,-0.09001975207181076
eta2,~,x5,0.5046028860024675
eta3,~,x2,0.2697084199623653
eta3,~,x4,-0.8441895316397011
eta3,~,x7,-0.7831096990658978
x10,~,x4,-0.4848219153464112
x2,~,eta4,0.46386412886431433
x3,~,x5,1.0920919263943956
x5,~,x2,-0.9500896193216163
x5,~,x1,0.35198446564872704
x6,~,x2,0.2247279793837964
x8,~,x2,0.2999705360814261
x9,~,eta2,0.4215836329565259
eta1,=~,y2,0.25329625830951186
eta2,=~,y4,-0.9687677411615472
eta2,=~,y5,-0.676461938488608
eta3,=~,y7,0.9655809236740144
eta3,=~,y8,-1.0139242118354646
eta4,=~,y9,0.43094668478628284
eta1,~~,eta1,1.775494899239849
eta1,~~,x10,-0.03287902345651759
eta1,~~,x3,-0.21940034253301394
eta1,~~,x6,0.04296536182296603
eta1,~~,x8,0.057761798646270054
eta1,~~,x9,-0.04928542248890483
eta2,~~,eta2,0.5371302912397374
eta3,~~,eta3,1.288338041472642
eta4,~~,eta4,1.7640743872865488
x10,~~,x10,0.22399836481482455
x10,~~,x3,0.000702261400865107
x10,~~,x6,0.0013368840353764017
x10,~~,x8,0.003982197021603446
x10,~~,x9,-0.00020184502555899243
x2,~~,x2,0.3509517822829963
x3,~~,x3,2.2897816510401157
x3,~~,x6,-0.005782177035880042
x3,~~,x8,0.012892679752376636
x3,~~,x9,-0.004331477723249204
x5,~~,x5,0.4380085235966798
x6,~~,x6,0.05065924718108755
x6,~~,x8,-0.003450511728430724
x6,~~,x9,-0.00039623237727108313
x8,~~,x8,0.08556019757079922
x8,~~,x9,0.009539333593244572
x9,~~,x9,0.3013866363554867
y1,~~,y1,5.884801837597546e-18
y10,~~,y10,0.9287469914845706
y2,~~,y2,0.47674736607500817
y3,~~,y3,5.431216763797383
y4,~~,y4,1.0701210332108515
y5,~~,y5,0.7372970909227528
y7,~~,y7,2.2830300678376294
y8,~~,y8,3.054178625492305
y9,~~,y9,0.20217901850399075
