lhs,op,rhs,est
eta1,~,eta3,0.1983967543059193
eta2,~,x4,0.8032645849280078
eta4,~,x10,-13.115477435342736
x10,~,x3,0.058748725464063255
x2,~,x6,-0.2462708192549392
x3,~,eta1,0.280514615568127
x4,~,eta1,-0.4524623255960662
x5,~,x2,-1.0755101998509145
x6,~,eta3,0.7249482035056704
x7,~,eta2,0.2019060434593107
x8,~,eta1,-0.1741757913208453
x9,~,eta1,0.6761913053910814
x9,~,x1,-0.8940183037538006
eta1,=~,y2,0.9214550478028428
eta1,=~,y3,0.5898696755792742
eta2,=~,y5,0.32970942487997745
eta3,=~,y7,0.5508373535468931
eta4,=~,y9,0.036582807787090735
eta1,~~,eta1,0.08054012255366372
eta2,~~,eta2,0.44669459266976963
eta3,~~,eta3,1.6707381699576624
eta4,~~,eta4,0.5130976995815915
eta4,~~,x5,-0.0670464862233664
eta4,~~,x7,0.005529839389991339
eta4,~~,x8,0.0003832329163026028
eta4,~~,x9,0.08622659575041465
x10,~~,x10,0.0012529994687320535
x2,~~,x2,0.0567409830812839
x3,~~,x3,0.04431844300226478
x4,~~,x4,0.27599342413506234
x5,~~,x5,1.0412779413301378
x5,~~,x7,0.002045868884266352
x5,~~,x8,-0.0012992019931726132
x5,~~,x9,-0.08764344882864171
x6,~~,x6,0.5739659221746017
x7,~~,x7,0.06709156463634798
x7,~~,x8,-0.0012581398732846485
x7,~~,x9,0.011090731876745127
x8,~~,x8,0.035235102155102935
x8,~~,x9,-0.013004407556902757
x9,~~,x9,1.2886571743314599
y1,~~,y1,0.8949834824013797
y2,~~,y2,0.8699040097566731
y3,~~,y3,0.6988673475231317
y4,~~,y4,0.9991749660651663
y5,~~,y5,0.12375252486326643
y6,~~,y6,0.9964840995657939
y7,~~,y7,0.3265171046062978
y8,~~,y8,0.5226375376036639
y9,~~,y9,0.09957972345910275
