lhs,op,rhs,est
eta2,~,x4,0.07370543396703652
eta2,~,x9,0.4534649647870983
eta3,~,x9,0.5526337037476524
eta4,~,x5,-0.7267185221425299
x10,~,x1,0.3134569487286242
x10,~,x6,-1.2494830694242018
x2,~,eta1,-0.5471285856795635
x2,~,x3,-0.2592533858915425
x5,~,eta2,0.3900304073805274
x5,~,x10,-0.7274265357060686
x5,~,x2,-0.4345013760727519
x7,~,x5,-0.05168447634585892
x8,~,x9,-0.35617222992661907
eta1,=~,y2,-0.11096548550062899
eta1,=~,y3,-0.08991012730263423
eta2,=~,y5,-0.5316024108166614
eta3,=~,y6,0.7331408243108023
eta3,=~,y7,-1.0099050284923938
eta4,=~,y9,-0.8797427192017324
eta1,~~,eta1,1.823381341534303
eta2,~~,eta2,1.2307691481011061e-16
eta3,~~,eta3,0.2857873155455834
eta3,~~,eta4,-0.07603473637267871
eta3,~~,x7,-0.18781795836135248
eta3,~~,x8,0.009788885626804838
eta4,~~,eta4,1.7694422967192927
eta4,~~,x7,-0.03735256563033203
eta4,~~,x8,0.05082173039001898
x10,~~,x10,1.1853065612412164
x2,~~,x2,0.36131228528815557
x5,~~,x5,2.312733761021667
x7,~~,x7,0.7478320912472874
x7,~~,x8,0.12459589326061579
x8,~~,x8,0.12653564883639962
y1,~~,y1,1.0351921473774282
y10,~~,y10,2.672681568416553
y2,~~,y2,0.013235543664452985
y3,~~,y3,1.0977013699354345
y4,~~,y4,2.169604920757606
y5,~~,y5,0.6447658955877673
y6,~~,y6,0.36004556485305717
y7,~~,y7,0.6547001676207996
y9,~~,y9,2.3882683879883855
