lhs,op,rhs,est
x2,~,x10,0.39191990742953936
x3,~,x10,0.528182044968418
x5,~,x10,0.1807765743807891
x5,~,x6,0.18202733542224328
x5,~,x8,-0.1797133690649741
x7,~,x1,1.049261476085776
x7,~,x10,0.4292296873231653
x9,~,x10,-0.5009363978554349
x9,~,x4,-0.2169871193274484
x2,~~,x2,0.16351376500849293
x2,~~,x3,-0.0011055001819797346
x2,~~,x5,0.004831986836284665
x2,~~,x7,0.006929429690321807
x2,~~,x9,0.025669972077652512
x3,~~,x3,0.23657887062326602
x3,~~,x5,0.0033415604228423093
x3,~~,x7,0.015616560839800816
x3,~~,x9,0.006518553527065928
x5,~~,x5,0.09415418646737869
x5,~~,x7,0.014923340002669112
x5,~~,x9,-0.005386683270347449
x7,~~,x7,1.2427551341414287
x7,~~,x9,0.03183349632867014
x9,~~,x9,0.29628304107977776
