lhs,op,rhs,est
x1,~,x4,0.1596305142294649
x1,~,x5,-0.2497674870690144
x1,~,x6,0.45191922021699565
x10,~,x1,0.723030276265968
x2,~,x3,-0.33200292622786476
x2,~,x4,-0.7272158312875276
x7,~,x1,-0.5096077796541133
x8,~,x10,-0.7906261934929629
x9,~,x7,-0.6119885903811304
x1,~~,x1,0.2802476098057229
x10,~~,x10,1.0523460851829776
x2,~~,x2,0.6605812257781791
x2,~~,x8,-0.06277362203818639
x2,~~,x9,0.012938469847054998
x7,~~,x7,0.8828011529570107
x8,~~,x8,1.6306774378801623
x8,~~,x9,-0.08733367390527359
x9,~~,x9,1.2809112496399624
