lhs,op,rhs,est
x1,~,x7,-0.040784444591035515
x1,~,x3,0.33904652382777833
x10,~,x9,-0.8755970940215342
x5,~,x4,-0.717266579036153
x6,~,x8,0.9349326826976058
x7,~,x10,0.24037488613999525
x7,~,x2,0.7895544070615803
x8,~,x10,0.1804703884656166
x8,~,x4,-0.5525529272426659
x1,~~,x1,0.3556771851201058
x1,~~,x5,-0.013168897296829756
x1,~~,x6,-0.028840133045031583
x10,~~,x10,0.7734991415193204
x5,~~,x5,0.536352436562177
x5,~~,x6,-0.05668860780077621
x6,~~,x6,1.6001134808841897
x7,~~,x7,0.6091012739140657
x8,~~,x8,0.3406932918731264
