lhs,op,rhs,est
x10,~,x1,-0.4910120895134546
x2,~,x9,0.5216817185326997
x4,~,x10,-0.4565850988257139
x4,~,x5,0.46879082314224235
x4,~,x3,0.1306623189746119
x4,~,x7,0.662047857051581
x5,~,x2,0.26083793236921254
x6,~,x4,-0.23220961716970626
x8,~,x4,0.11257168231528365
x10,~~,x10,0.3161378875645829
x2,~~,x2,0.27954382639210507
x4,~~,x4,0.7835219922345047
x5,~~,x5,0.07179988076779706
x6,~~,x6,0.7242386721741052
x6,~~,x8,0.0021941658595651527
x8,~~,x8,0.3013608636498692
