lhs,op,rhs,est
eta1,~,x1,-0.1337749371757712
x1,~,x5,-0.5767451424987519
x2,~,eta1,0.9115992457172525
x3,~,x1,-0.5660333264385379
x4,~,eta2,0.6182628485307733
x5,~,eta2,-0.5331917785195862
eta1,=~,y2,0.788011295694371
eta2,=~,y4,-0.8056579927590471
eta2,=~,y5,0.13430036602511916
eta1,~~,eta1,0.03138818977212311
eta2,~~,eta2,1.762794001357161
x1,~~,x1,0.3578171092184256
x2,~~,x2,0.4028282340360951
x2,~~,x3,-0.020017739019092987
x2,~~,x4,-0.022247271407129992
x3,~~,x3,0.3478199537007683
x3,~~,x4,-0.002006842049332189
x4,~~,x4,0.3795521069342183
x5,~~,x5,0.30479684367931853
y1,~~,y1,0.957767974226827
y2,~~,y2,0.14057951862809967
y3,~~,y3,1.0701453185519658
y4,~~,y4,0.5573142136172927
y5,~~,y5,0.015801440800816104
