lhs,op,rhs,est
eta1,~,x1,0.5273877131371337
eta2,~,x5,-0.5678783295867234
x2,~,x3,0.2708178452319442
x3,~,x1,-0.1364195895598098
x5,~,x1,0.5409964366982541
x5,~,x4,-0.64781433447733
eta1,=~,y2,-0.6858810718013212
eta2,=~,y4,-0.3301192185426724
eta2,=~,y5,-0.5036551207178854
eta1,~~,eta1,0.316740763338451
eta1,~~,eta2,0.040950437839549214
eta1,~~,x2,0.011816244353790348
eta2,~~,eta2,0.5388732974904438
eta2,~~,x2,0.006925547313391412
x2,~~,x2,0.0769323764438495
x3,~~,x3,0.024841880878730155
x5,~~,x5,0.7540515271998285
y1,~~,y1,0.9958265843507426
y2,~~,y2,0.31250858177286156
y3,~~,y3,1.981331308327053
y4,~~,y4,0.15576201225650438
y5,~~,y5,0.36521619324943416
