lhs,op,rhs,est
eta1,~,x4,-0.10970084662035948
eta1,~,x2,-0.3039141628521419
eta2,~,x1,0.4540540978819176
x1,~,x2,-0.27979045326263857
x4,~,x3,-0.39290942148806346
x5,~,eta1,0.6669361309893922
eta1,=~,y2,0.39174733102221526
eta1,=~,y3,0.44923429104868784
eta2,=~,y5,-0.6595355673037442
eta1,~~,eta1,0.07339616043319869
eta2,~~,eta2,0.10066835372006733
eta2,~~,x5,0.03526725129863683
x1,~~,x1,0.08516906415544523
x4,~~,x4,0.1329084925360661
x5,~~,x5,0.7176658637716433
y1,~~,y1,2.1094959729448783
y2,~~,y2,0.23029807928363316
y3,~~,y3,0.3713475036465595
y4,~~,y4,0.935239876178271
y5,~~,y5,0.5004431813747956
