lhs,op,rhs,est
eta1,~,x1,0.4517844891875733
x2,~,eta2,0.7959904543573199
x2,~,x1,-0.5547429213399305
x4,~,x1,0.09735790882715481
x5,~,eta1,0.45065052459986815
x5,~,x3,-0.7827321343609234
eta1,=~,y2,0.6433020468014834
eta2,=~,y4,-0.48763002192693694
eta2,=~,y5,0.36616710309337
eta1,~~,eta1,0.232476939539461
eta2,~~,eta2,1.5252657817736421
x2,~~,x2,0.8161515103408704
x2,~~,x4,-0.004837441978798716
x2,~~,x5,0.1060956067898222
x4,~~,x4,0.009364073581062601
x4,~~,x5,-0.004067367615916493
x5,~~,x5,1.0210372097074631
y1,~~,y1,0.8929133545032856
y2,~~,y2,0.5065410245499739
y3,~~,y3,0.9890139450976155
y4,~~,y4,0.1987590629257552
y5,~~,y5,0.13778799832278008
