lhs,op,rhs,est
eta1,~,eta2,0.39992426012610477
x2,~,x1,0.306330583346288
x3,~,eta2,0.5794924210733181
x4,~,eta1,-0.15399817916273434
x4,~,x1,0.6785500464429872
x5,~,eta2,0.2403374668751211
eta1,=~,y2,0.5449514131985354
eta1,=~,y3,0.32139797661372693
eta2,=~,y5,0.49958413309221217
eta2,=~,y6,0.4398364916013276
eta1,~~,eta1,0.17641151948567807
eta2,~~,eta2,1.6697759047632357
x2,~~,x2,0.10534292356925616
x2,~~,x3,0.009172374149906145
x2,~~,x4,0.0065855335075472145
x2,~~,x5,0.005729101148091975
x3,~~,x3,0.35404680088054546
x3,~~,x4,0.004197587422178542
x3,~~,x5,0.004259682059190958
x4,~~,x4,0.49325537936863884
x4,~~,x5,-0.004036467240711124
x5,~~,x5,0.059489813755886856
y1,~~,y1,1.0941847018114816
y2,~~,y2,0.299423421562251
y3,~~,y3,0.07675619512501879
y4,~~,y4,0.992964090986379
y5,~~,y5,0.26147248595810507
y6,~~,y6,0.22627521731251965
