lhs,op,rhs,est
eta2,~,x1,-0.11290410687517169
x1,~,x5,0.0606920061395818
x3,~,x1,-0.8929764243300345
x4,~,x3,-0.8132311004060603
x5,~,eta1,-0.2736020818005575
x5,~,x2,0.5720951607398324
eta1,=~,y2,0.4434956989030719
eta2,=~,y4,0.025090137665189777
eta2,=~,y5,0.07741303222994278
eta1,~~,eta1,1.4864521812489198
eta2,~~,eta2,0.32848864011805234
eta2,~~,x4,-0.021449014500791116
x1,~~,x1,0.1511310756554132
x3,~~,x3,0.6743943782399803
x4,~~,x4,0.6601583994563265
x5,~~,x5,0.40922210903957124
y1,~~,y1,1.3051058978904002
y2,~~,y2,0.1320593926642748
y3,~~,y3,0.7416014606294411
y4,~~,y4,0.019489176389196207
y5,~~,y5,0.049961416270514356
