lhs,op,rhs,est
eta2,~,x2,-0.5510251264453386
x1,~,x4,0.6810972663689725
x2,~,eta1,-0.2524997083345385
x3,~,eta2,0.5917721929430703
x4,~,x2,0.317556292368954
x5,~,eta2,0.09899962885047477
eta1,=~,y2,0.36892757526089387
eta1,=~,y3,-0.16726759547066666
eta2,=~,y5,0.3767210156468828
eta1,~~,eta1,1.65053493240929
eta2,~~,eta2,0.3159163442047065
x1,~~,x1,0.4475051599764122
x1,~~,x3,0.009189955714213287
x1,~~,x5,-0.0014480415880054416
x2,~~,x2,0.0593121004123296
x3,~~,x3,0.510863759811043
x3,~~,x5,0.0019852239108153133
x4,~~,x4,0.11496496818350839
x5,~~,x5,0.010562486421908922
y1,~~,y1,1.0979058867790976
y2,~~,y2,0.15204735455105786
y3,~~,y3,0.028752940039487553
y4,~~,y4,1.0156081033107232
y5,~~,y5,0.12282443146760047
