lhs,op,rhs,est
x8,~,x6,1.0169809175261872
x5,~,x8,0.48555491161341413
x1,~,x7,0.46178285055904034
x1,~,x8,-0.876332463229249
eta1,~,eta2,-0.860438484380533
eta1,~,x1,-0.14127488650301573
eta1,~,x2,0.6348558048942062
x10,~,eta1,0.34593705689619797
x4,~,eta2,-0.3237688745849503
x4,~,x3,0.20273902127619228
x9,~,x7,0.8261803132073475
eta1,=~,y2,-0.8087591922885751
eta1,=~,y3,-0.853162549958356
eta2,=~,y5,-0.42358131631819096
eta2,=~,y6,-0.49475794962975816
