lhs,op,rhs,est
x8,~,eta1,0.9002105344015181
x6,~,x8,-0.12672403379160646
x6,~,x9,-0.2255762777807461
x1,~,eta2,0.8720711043756992
x1,~,x6,0.3477239450616991
x1,~,x7,-0.22619320053297953
x3,~,x1,0.6108018541031758
x3,~,x4,-0.5846852443491529
eta2,~,x2,0.7379888633802077
x5,~,x6,0.34539269667960776
x10,~,x9,-0.8889984414375599
eta1,=~,y2,0.8978499698722366
eta1,=~,y3,-1.042593511112562
eta2,=~,y5,-0.1465271839854432
eta2,=~,y6,0.11194268845679235
