lhs,op,rhs,est
eta2,~,x5,-0.30643694027025287
x1,~,eta2,0.5730446704256936
x6,~,eta1,0.677930010409269
x6,~,x1,-0.9365022488623177
x2,~,x6,-1.041600468938122
x2,~,x9,0.9756342823336237
x4,~,eta2,0.12562492291390862
x10,~,x3,-0.38970931702041
x10,~,x4,-0.21721866634870346
x3,~,x7,0.39063792541595355
x8,~,eta2,0.3680092747163916
eta1,=~,y2,0.48021728002258157
eta2,=~,y4,-0.259469633757419
