lhs,op,rhs,est
eta1,~,x8,-0.23461864671595986
x3,~,eta1,-0.7886310647661802
eta2,~,x3,0.765637830746605
eta2,~,x7,-0.19350281074467707
eta2,~,x9,-0.5101244199424767
x2,~,eta2,0.256695193481237
x7,~,x1,0.21019711753792628
x7,~,x5,-0.46417188050202385
x4,~,x3,-1.0507029689507046
x10,~,x4,-0.5938054597097354
x6,~,eta2,0.11784586330214947
eta1,=~,y2,-0.44215836756063964
eta1,=~,y3,-0.6796299164919319
eta2,=~,y5,-0.80970487650207
