lhs,op,rhs,est
eta1,~,x1,0.43102332299163854
x2,~,eta1,-0.5037742411182141
x6,~,x2,0.6524220744109388
x8,~,x2,-0.32988489417684713
x3,~,x8,-0.6940568466994144
x10,~,eta2,-0.5636962095455734
x10,~,x2,-0.5828190675204928
x9,~,x2,-0.1400569546557671
x4,~,x9,0.2446945977686109
x5,~,x7,0.4633039677016111
eta2,~,x5,-0.7409926859724639
eta1,=~,y2,0.19799138546832654
eta1,=~,y3,0.7825571634584367
eta2,=~,y5,0.11158103985436965
eta2,=~,y6,-0.3802992849054817
