lhs,op,rhs,est
x8,~,x5,0.525496696999317
eta2,~,x2,0.5466968601677654
eta2,~,x8,0.32515490444373635
eta1,~,x1,-0.9000167133944947
eta1,~,x4,-0.32490515735366476
eta1,~,x8,0.16750243745242233
x7,~,x6,-0.44951466774955534
x4,~,x7,0.23369586844833287
x3,~,x4,-0.590586991695242
x9,~,x1,-1.0661491695477854
x10,~,x4,0.39757206319727956
eta1,=~,y2,0.47120846107919606
eta2,=~,y4,0.5330225290254512
