"lhs","op","rhs","est"
"eta1","=~","y2",-0.523253161040034
"eta1","=~","y3",-0.433006951198573
"eta2","=~","y5",0.538774923245704
"x10","~","eta2",-0.600638275480459
"x10","~","x7",0.18483337755863
"x4","~","x10",-0.0503963225611579
"x8","~","x2",-1.07517929728004
"x8","~","x4",-1.66994417476518
"x1","~","x4",-0.0339487500069582
"x1","~","x9",-0.427312229455774
"x2","~","x5",0.614752704778613
"x6","~","x3",-0.638131042207685
"x6","~","x4",-0.96989588089338
"eta1","~","x5",-1.13283005044022
"y1","~~","y1",0.843643388073597
"y2","~~","y2",0.348093964866852
"y3","~~","y3",0.234467544140424
"y4","~~","y4",0.783230277911059
"y5","~~","y5",0.294507162388242
"x10","~~","x10",0.33182327448677
"x4","~~","x4",0.0825918212632359
"x8","~~","x8",0.899054434027697
"x1","~~","x1",0.229361405043516
"x2","~~","x2",0.379698421484839
"x6","~~","x6",1.09121326131115
"eta1","~~","eta1",1.27372264878514
"eta2","~~","eta2",1.78905268654315
"eta1","~~","x8",0.0180356609522439
"eta1","~~","x1",0.0559682595114031
"eta1","~~","x6",-0.00268493739269602
"x8","~~","x1",-0.00971125506712867
"x8","~~","x6",-0.0556494065880147
"x1","~~","x6",-0.00960680462484967
"x7","~~","x7",1.71103242089315
"x7","~~","x9",0.012313098054334
"x7","~~","x5",-0.135071560788408
"x7","~~","x3",-0.0783842865959363
"x9","~~","x9",1.69633798245135
"x9","~~","x5",0.0847165951256846
"x9","~~","x3",-0.0312789611474043
"x5","~~","x5",1.58779832962456
"x5","~~","x3",-0.089941500508464
"x3","~~","x3",1.48910044943266
