"lhs","op","rhs","est"
"eta1","=~","y2",-0.31106722648569
"eta2","=~","y4",-0.50640880567961
"eta2","=~","y5",0.453195210117733
"x10","~","x9",-0.166022605123267
"x8","~","x10",0.280281659723476
"x8","~","x2",0.408517310980471
"x1","~","x8",0.123035093333334
"x7","~","x1",0.123591928871807
"x5","~","eta2",-1.04199344131379
"x5","~","x8",-0.143496173896797
"x3","~","x8",-0.41302646648722
"x6","~","x3",0.375135266033515
"x4","~","x9",-0.521501432579221
"eta1","~","x2",-0.990331739222805
"y1","~~","y1",0.866566748248027
"y2","~~","y2",0.13437173998575
"y3","~~","y3",0.88482654818728
"y4","~~","y4",0.277580474936137
"y5","~~","y5",0.25006871985879
"x10","~~","x10",0.0299051540776496
"x8","~~","x8",0.361869770866811
"x1","~~","x1",0.649570508021471
"x7","~~","x7",0.0129508929650555
"x5","~~","x5",1.12289387123951
"x3","~~","x3",0.587091055887779
"x6","~~","x6",0.416927475614967
"x4","~~","x4",0.249249486488514
"eta1","~~","eta1",1.0537449407006
"eta2","~~","eta2",1.68134711318816
"eta1","~~","x7",0.01482619554393
"eta1","~~","x5",-0.114486390092284
"eta1","~~","x6",-0.0357783242575201
"eta1","~~","x4",0.0134399727405519
"x7","~~","x5",-0.0108514346159774
"x7","~~","x6",-0.00234719027465209
"x7","~~","x4",-0.00908844356933874
"x5","~~","x6",-0.018451347171562
"x5","~~","x4",-0.0351305553511628
"x6","~~","x4",-0.00143074608842923
"x9","~~","x9",1.66261597109525
"x9","~~","x2",0.0107014304372204
"x2","~~","x2",1.6767689713913
