"lhs","op","rhs","est"
"eta1","=~","y2",-0.102842347559389
"eta2","=~","y4",0.115385080250236
"eta2","=~","y5",0.512230084611512
"x8","~","eta1",0.774298462907686
"x8","~","x3",0.145811816400507
"x1","~","x5",-1.1005408853602
"x1","~","x8",-0.142124794977262
"x4","~","x1",0.104833503879639
"x2","~","x1",0.030183543977645
"x7","~","eta2",-0.0492928228529971
"x7","~","x1",-0.554981405925809
"x7","~","x10",0.243638837016655
"eta2","~","x9",0.409974087087793
"x6","~","x1",-0.724888574622057
"y1","~~","y1",1.02535815656803
"y2","~~","y2",0.0112977727287692
"y3","~~","y3",0.952417987058603
"y4","~~","y4",0.0108625005691695
"y5","~~","y5",0.431929596346181
"x8","~~","x8",0.622114980500578
"x1","~~","x1",2.11597155523264
"x4","~~","x4",0.289826792094543
"x2","~~","x2",0.022828695976379
"x7","~~","x7",0.779323678639608
"x6","~~","x6",0.901665395506473
"eta1","~~","eta1",1.65605254437493
"eta2","~~","eta2",0.129031996605119
"x4","~~","x2",0.0349548149829309
"x4","~~","x7",-0.0143452672470926
"x4","~~","x6",-0.0288019805223574
"x2","~~","x7",-0.00668182884243683
"x2","~~","x6",-0.0141917230029688
"x7","~~","x6",-0.000493992898883693
"x3","~~","x3",1.75498824538257
"x3","~~","x5",0.0874765080256932
"x3","~~","x10",-0.0766358452863542
"x3","~~","x9",-0.156067480511975
"x5","~~","x5",1.62504266766654
"x5","~~","x10",-0.17367414109692
"x5","~~","x9",-0.0209649397290624
"x10","~~","x10",1.72598814213489
"x10","~~","x9",-0.0753248448901598
"x9","~~","x9",1.59934727595782
