"lhs","op","rhs","est"
"eta1","=~","y2",0.269847693001142
"eta1","=~","y3",-2.06294824366805
"eta2","=~","y5",-1.3546242843173
"eta2","=~","y6",0.794451139438595
"eta1","~","x1",-0.128021737741352
"eta1","~","x2",-0.0722394793432135
"eta2","~","eta1",0.00255030427087137
"x8","~","eta1",-0.358278656757167
"x9","~","x8",-0.168276461164377
"x6","~","eta1",0.210317637360669
"x6","~","x7",0.496059151587601
"x3","~","x10",1.07629088631506
"x3","~","x8",-0.399054959510012
"x5","~","x1",-0.272492487262612
"x5","~","x4",-0.349125598222678
"y1","~~","y1",2.36556515150316
"y2","~~","y2",0.0703599970563896
"y3","~~","y3",0.804106026920804
"y4","~~","y4",0.885210119716708
"y5","~~","y5",0.936586159249577
"y6","~~","y6",0.889823594660416
"x8","~~","x8",0.374729907715603
"x9","~~","x9",0.024555900356048
"x6","~~","x6",0.383464375619034
"x3","~~","x3",1.12560071883619
"x5","~~","x5",0.187803471349551
"eta1","~~","eta1",0.0584049312508133
"eta2","~~","eta2",0.111304943760392
"eta2","~~","x9",-0.0128252045068371
"eta2","~~","x6",0.0233361368067511
"eta2","~~","x3",-0.0799187966283083
"eta2","~~","x5",-0.00454875907674844
"x9","~~","x6",-0.00838076947337377
"x9","~~","x3",0.0207378042108064
"x9","~~","x5",0.00377820909696521
"x6","~~","x3",-0.0146721201612297
"x6","~~","x5",-0.00180252573573542
"x3","~~","x5",-0.0466505437089272
"x1","~~","x1",1.67291430499798
"x1","~~","x2",0.10659325762245
"x1","~~","x7",-0.0796984259391282
"x1","~~","x10",-0.0974539004364765
"x1","~~","x4",-0.00282180709665064
"x2","~~","x2",1.73640262420818
"x2","~~","x7",0.128790969081251
"x2","~~","x10",-0.112197608168434
"x2","~~","x4",0.220539643117774
"x7","~~","x7",1.69529944249
"x7","~~","x10",0.156295011630635
"x7","~~","x4",0.024440251098258
"x10","~~","x10",1.58095251754092
"x10","~~","x4",-0.043638109454892
"x4","~~","x4",1.60137788116891
