"lhs","op","rhs","est"
"eta1","=~","y2",0.257771162750533
"eta2","=~","y4",-0.650123702797628
"x6","~","eta2",-1.03053671472237
"x6","~","x8",-0.188866627190135
"x9","~","x5",-0.63399035209329
"x9","~","x6",-0.720329406192051
"x1","~","x9",-0.23716925859033
"x2","~","eta1",0.361612946571808
"x8","~","x2",-0.320524646146598
"x8","~","x4",-0.372598610891261
"x3","~","x2",0.297257816557002
"x7","~","x2",-0.305001812794984
"x10","~","x7",-0.376328288586287
"y1","~~","y1",0.948694607057234
"y2","~~","y2",0.0633149259753434
"y3","~~","y3",0.942923854402936
"y4","~~","y4",0.509137666977504
"x6","~~","x6",1.02785406925176
"x9","~~","x9",1.58892712172978
"x1","~~","x1",0.179331196087664
"x2","~~","x2",0.0864043367944882
"x8","~~","x8",0.190918020865399
"x3","~~","x3",0.094560056496411
"x7","~~","x7",0.116246938103686
"x10","~~","x10",0.0705974850725021
"eta1","~~","eta1",1.675983589491
"eta2","~~","eta2",1.72375797293298
"eta1","~~","eta2",0.170961146543158
"x1","~~","x3",0.000607705288978269
"x1","~~","x10",-0.000924112251595233
"x3","~~","x10",0.00228154442400544
"x5","~~","x5",1.60060800230979
"x5","~~","x4",0.00628409808402081
"x4","~~","x4",1.64883368679783
