"lhs","op","rhs","est"
"eta1","=~","y2",0.62141333434794
"eta1","=~","y3",0.193237440703701
"eta2","=~","y5",0.597090745909113
"x7","~","x4",0.845078763005961
"x7","~","x8",0.225227143944353
"x6","~","x7",-0.712569686000354
"eta2","~","x3",-0.882939221053823
"eta2","~","x6",-0.456351403190031
"x10","~","eta2",-0.103460376836559
"x10","~","x1",0.934003472614306
"x9","~","x10",0.601394379627786
"eta1","~","x7",0.514572673905675
"x2","~","x10",-1.0079690369324
"x5","~","x8",-0.154168537500949
"y1","~~","y1",1.13394888152386
"y2","~~","y2",0.338648333377495
"y3","~~","y3",0.023177267743359
"y4","~~","y4",1.5438369585526
"y5","~~","y5",1.60745998723167
"x7","~~","x7",0.743243858099893
"x6","~~","x6",0.881539295459587
"x10","~~","x10",0.812704840163441
"x9","~~","x9",0.638105568846698
"x2","~~","x2",1.9723600950419
"x5","~~","x5",0.0256490173871575
"eta1","~~","eta1",0.599622244757112
"eta2","~~","eta2",1.07969735858531
"eta1","~~","x9",-0.00917584357211976
"eta1","~~","x2",-0.0364995528847215
"eta1","~~","x5",0.0170548276558356
"x9","~~","x2",0.0563646859026669
"x9","~~","x5",0.0122549897781783
"x2","~~","x5",-0.0169226861818687
"x4","~~","x4",1.68150647678244
"x4","~~","x8",-0.0546935162173884
"x4","~~","x3",-0.00734745121521515
"x4","~~","x1",-0.0171901465709914
"x8","~~","x8",1.64480044074318
"x8","~~","x3",0.225217438326361
"x8","~~","x1",-0.123362874678931
"x3","~~","x3",1.67745842275292
"x3","~~","x1",0.00883003350731384
"x1","~~","x1",1.68450574472037
