"lhs","op","rhs","est"
"eta1","=~","y2",-0.434255803723589
"eta2","=~","y4",-0.384034775880698
"x4","~","x1",-1.0403102020512
"x5","~","eta2",0.405718968498633
"x5","~","x10",0.961756304779989
"x5","~","x4",0.379440085468368
"x5","~","x7",-0.103810376824977
"x2","~","x10",-0.870481612754857
"eta1","~","x2",0.733702470869703
"x8","~","x2",0.310679677552955
"x8","~","x6",0.730453869098353
"x9","~","x8",-0.811012728619237
"x3","~","x10",0.862309168521352
"y1","~~","y1",1.01623895552521
"y2","~~","y2",0.172719597356841
"y3","~~","y3",1.20406666104655
"y4","~~","y4",0.118337295563157
"x4","~~","x4",1.20106972821369
"x5","~~","x5",1.15317588797231
"x2","~~","x2",0.921714240763075
"x8","~~","x8",0.509053132438624
"x9","~~","x9",1.24482643396854
"x3","~~","x3",0.642163718756606
"eta1","~~","eta1",0.477058247836324
"eta2","~~","eta2",1.62498966293071
"eta1","~~","x5",0.0438862598295909
"eta1","~~","x9",-0.00398449474118199
"eta1","~~","x3",0.00921754664335443
"x5","~~","x9",-0.263542986831111
"x5","~~","x3",-0.060776678522337
"x9","~~","x3",0.0305509549062592
"x1","~~","x1",1.57487165539787
"x1","~~","x10",0.0287959737397517
"x1","~~","x7",-0.0128888245058068
"x1","~~","x6",-0.0629706460545133
"x10","~~","x10",1.71676914867831
"x10","~~","x7",-0.0738501372507141
"x10","~~","x6",0.118390469650174
"x7","~~","x7",1.61002948611827
"x7","~~","x6",0.0129360682479044
"x6","~~","x6",1.65918278008769
