"lhs","op","rhs","est"
"eta1","=~","y2",-0.688231581943308
"eta1","=~","y3",-0.461332750176101
"eta2","=~","y5",-0.75697715220479
"eta2","=~","y6",-0.676537177882674
"x2","~","x10",-0.215234709277793
"x9","~","eta2",0.63361200900205
"x9","~","x2",-0.23889291788824
"x9","~","x7",-0.914291895919859
"x4","~","x2",0.507430876467588
"eta1","~","x4",-0.265439960251895
"eta1","~","x8",-0.618912560366195
"x6","~","x2",-1.31574548840038
"x6","~","x3",-0.409663306694672
"x5","~","x2",-0.718984619365013
"x1","~","eta2",-0.748680810319259
"y1","~~","y1",2.13435829047077
"y2","~~","y2",0.825304374473101
"y3","~~","y3",0.464255126420553
"y4","~~","y4",1.05552402931356
"y5","~~","y5",0.519387803105928
"y6","~~","y6",0.359627409899697
"x2","~~","x2",0.0598639507009599
"x9","~~","x9",1.43253590717561
"x4","~~","x4",0.252943432292454
"x6","~~","x6",1.35741260985058
"x5","~~","x5",0.332339004174128
"x1","~~","x1",0.634805449875433
"eta1","~~","eta1",0.776114479522944
"eta2","~~","eta2",1.60288882466574
"eta1","~~","x9",0.028143488318188
"eta1","~~","x6",0.0184691888880611
"eta1","~~","x5",0.0256446026767143
"eta1","~~","x1",-0.113950351704674
"x9","~~","x6",-0.0103910297752356
"x9","~~","x5",0.0476526094289951
"x9","~~","x1",-0.0671240033295483
"x6","~~","x5",-0.00115302837336179
"x6","~~","x1",0.0915677645709648
"x5","~~","x1",0.12512407842705
"x10","~~","x10",1.74736318106615
"x10","~~","x7",-0.0364079560889743
"x10","~~","x8",-0.0818106521154402
"x10","~~","x3",-0.139071522431912
"x7","~~","x7",1.59548966132949
"x7","~~","x8",0.0239119530919108
"x7","~~","x3",-0.204538262333349
"x8","~~","x8",1.69181954721655
"x8","~~","x3",0.12575111592629
"x3","~~","x3",1.69214023020959
