lhs,op,rhs,est
eta1,~,x1,0.3824323608014198
x2,~,x5,0.2301713389878341
x3,~,x1,-1.4328080567388237
x4,~,eta2,-0.8471829699709555
x4,~,x1,0.9417299905706803
x5,~,x1,0.5860204579373315
eta1,=~,y2,-1.1644368610994622
eta1,=~,y3,-1.78789683804924
eta2,=~,y5,0.41278485770381257
eta2,=~,y6,0.5531462055552834
eta1,~~,eta1,0.130685926359761
eta1,~~,x2,-0.0029368693118249035
eta1,~~,x3,0.03488287581688285
eta1,~~,x4,-0.07005620471962773
eta2,~~,eta2,1.5345463121234884
x2,~~,x2,0.05476464831802895
x2,~~,x3,-0.004026443217031073
x2,~~,x4,0.022177269593537087
x3,~~,x3,1.9270143698016062
x3,~~,x4,0.03395429144573959
x4,~~,x4,1.6828915112032505
x5,~~,x5,0.3220488936295365
y1,~~,y1,0.9048877998165312
y2,~~,y2,1.3207473782481145
y3,~~,y3,2.1487188869618348
y4,~~,y4,0.9758188200464494
y5,~~,y5,0.15539581045513992
y6,~~,y6,0.29760970304704243
