lhs,op,rhs,est
eta2,~,x1,1.1213150519489328
x1,~,x4,0.8817100423836537
x2,~,x4,0.3934584390319662
x3,~,x1,-1.033792108468322
x4,~,eta1,-1.7807450936249136
x5,~,x3,0.8157756094933485
eta1,=~,y2,0.7925738923924813
eta2,=~,y4,1.662973240050571
eta2,=~,y5,0.766836391278573
eta1,~~,eta1,1.6204228172787993
eta2,~~,eta2,1.2124123730909409
eta2,~~,x2,-0.004493814553838877
eta2,~~,x5,0.01955613056553707
x1,~~,x1,0.8407396036495982
x2,~~,x2,0.13783151047794512
x2,~~,x5,-0.011852880066898797
x3,~~,x3,0.9832895584944686
x4,~~,x4,2.222645146639897
x5,~~,x5,0.5967988028329231
y1,~~,y1,1.0353634478316887
y2,~~,y2,0.5134141491000387
y3,~~,y3,0.7631430787919075
y4,~~,y4,2.789549284177954
y5,~~,y5,0.5906632873600304
