lhs,op,rhs,est
eta1,~,x3,1.9314219171679439
eta1,~,x5,1.2778374153993777
eta2,~,x1,1.3239166459667422
x1,~,x3,1.1548142400817907
x2,~,eta2,-1.8809774992929789
x4,~,x3,-2.000321868861888
eta1,=~,y2,2.1482153176146164
eta1,=~,y3,-1.824678442014077
eta2,=~,y5,-0.519765007365007
eta1,~~,eta1,5.239896198635515
eta1,~~,x2,-0.26248638819921744
eta1,~~,x4,-0.6020952563757578
eta2,~~,eta2,1.836663083108144
x1,~~,x1,1.4849846437132739
x2,~~,x2,3.7818145150862437
x2,~~,x4,0.18851844387015634
x4,~~,x4,3.8234257402000584
y1,~~,y1,2.1562576036106362
y2,~~,y2,7.550255674500404
y3,~~,y3,5.8184263284346205
y4,~~,y4,1.067789753627952
y5,~~,y5,0.2728914012095172
