lhs,op,rhs,est
x1,~,eta2,-0.6946401606255359
x1,~,x5,-1.0106878700628894
x1,~,x2,1.6862917716549357
x1,~,x4,0.5151791270552517
x3,~,eta2,-0.7700831793727265
x5,~,eta1,-0.3100917960023752
eta1,=~,y2,1.621999418028163
eta2,=~,y4,-1.2810241347389992
eta1,~~,eta1,1.6506694245011355
eta1,~~,eta2,-0.056104136026359164
eta2,~~,eta2,1.3722146318216366
x1,~~,x1,5.368260710821276
x1,~~,x3,-0.0015728264545088442
x3,~~,x3,0.4246516355120593
x5,~~,x5,0.0974882901187792
y1,~~,y1,0.890439930536817
y2,~~,y2,2.5709958703871236
y3,~~,y3,1.1517327793214278
y4,~~,y4,1.6646532976323332
