"lhs","op","rhs","est"
"eta1","=~","y2",-0.429636739347806
"x7","~","x10",-0.233155464750271
"x7","~","x2",0.304924706806265
"x7","~","x4",0.457186253939112
"x8","~","eta1",-0.867889655061764
"x8","~","x7",0.0978293670773627
"x10","~","x5",-0.544445389522147
"x10","~","x8",-0.0139743872392835
"x6","~","x10",-0.42298090244609
"x9","~","x7",0.385813830787587
"x1","~","x8",-0.808066165990778
"x3","~","x7",0.317106617170674
"y1","~~","y1",0.791321409830269
"y2","~~","y2",0.230626247444927
"x7","~~","x7",0.351851069707139
"x8","~~","x8",0.749040568988798
"x10","~~","x10",0.861172715774185
"x6","~~","x6",0.606967982241022
"x9","~~","x9",0.479458597312583
"x1","~~","x1",1.31379387355921
"x3","~~","x3",0.274761487013228
"eta1","~~","eta1",1.82002430473263
"x6","~~","x9",-0.00810351941516364
"x6","~~","x1",0.0171993149406958
"x6","~~","x3",0.0240389271458308
"x9","~~","x1",0.0782943623909873
"x9","~~","x3",-0.0112641989845498
"x1","~~","x3",-0.0189950547801506
"x2","~~","x2",1.52925083106757
"x2","~~","x4",-0.0795495030297941
"x2","~~","x5",0.101984749322349
"x4","~~","x4",1.50797111302774
"x4","~~","x5",0.0939161493421482
"x5","~~","x5",1.54677093510957
