"lhs","op","rhs","est"
"eta1","=~","y2",-0.480998250627122
"x5","~","x8",-0.359052283745924
"x5","~","x9",-0.196699248840177
"eta1","~","x10",0.875238066487398
"eta1","~","x5",0.136906066996234
"eta1","~","x7",-0.383751551634398
"x9","~","eta1",-0.00379088168176023
"x9","~","x1",-0.333490830333304
"x9","~","x2",0.77520621560875
"x4","~","x1",0.63285051437906
"x4","~","x6",-1.08178179171194
"x3","~","x6",-0.714284505159151
"y1","~~","y1",2.72179876872629
"y2","~~","y2",0.561083185580307
"x5","~~","x5",0.238189435294689
"x9","~~","x9",1.25295623235654
"x4","~~","x4",1.44658718890986
"x3","~~","x3",0.503292459213141
"eta1","~~","eta1",0.973663362103708
"x4","~~","x3",0.0342929942829304
"x8","~~","x8",1.53653497543036
"x8","~~","x10",-0.102903374628769
"x8","~~","x7",-0.016299893363371
"x8","~~","x1",-0.00371234006246976
"x8","~~","x2",-0.0271229482529029
"x8","~~","x6",-0.039427281791148
"x10","~~","x10",1.62400661694532
"x10","~~","x7",0.037463054747643
"x10","~~","x1",-0.00918094838405004
"x10","~~","x2",-0.0203025309563992
"x10","~~","x6",0.00379327803410739
"x7","~~","x7",1.52484009229082
"x7","~~","x1",-0.0913056610010723
"x7","~~","x2",0.0266341756833147
"x7","~~","x6",0.0253371179682761
"x1","~~","x1",1.62901995001348
"x1","~~","x2",0.100793880583864
"x1","~~","x6",0.0333922893589284
"x2","~~","x2",1.65273521685157
"x2","~~","x6",-0.0651282758123478
"x6","~~","x6",1.50651240181704
