"lhs","op","rhs","est"
"eta1","=~","y2",-0.62747054541214
"x9","~","eta1",0.344907534194824
"x9","~","x8",0.248362028142642
"x2","~","x1",0.243799323871672
"x2","~","x9",0.0688884060534846
"x6","~","x2",0.0760178377414586
"eta1","~","x3",-1.04659352258781
"eta1","~","x4",-0.643380998220717
"eta1","~","x6",-0.176330886457298
"eta1","~","x7",-0.106343384972995
"x10","~","x2",-0.30145286799775
"x5","~","x10",-0.774932457010761
"y1","~~","y1",4.51118859204612
"y2","~~","y2",1.30102185765981
"x9","~~","x9",0.476623757175907
"x2","~~","x2",0.281542068257982
"x6","~~","x6",0.0103549008353932
"x10","~~","x10",0.236271776006177
"x5","~~","x5",0.656291870232803
"eta1","~~","eta1",1.72074029764227
"x8","~~","x8",1.54437530061912
"x8","~~","x1",0.0601732577183638
"x8","~~","x3",0.0114692684871425
"x8","~~","x4",-0.13884256790093
"x8","~~","x7",-0.123564794885923
"x1","~~","x1",1.47775966476191
"x1","~~","x3",-0.108307478341717
"x1","~~","x4",0.0472611632596
"x1","~~","x7",0.0290253143239022
"x3","~~","x3",1.58348460929761
"x3","~~","x4",-0.0717113394048941
"x3","~~","x7",-0.0938033505731811
"x4","~~","x4",1.61939271248324
"x4","~~","x7",0.00127950758628816
"x7","~~","x7",1.54451198857341
