"lhs","op","rhs","est"
"eta1","=~","y2",-0.460911607163672
"x10","~","x1",-0.27697942166949
"x10","~","x8",0.0584440722757705
"x10","~","x9",-1.0849797678298
"x6","~","x10",-0.574363259012137
"x6","~","x7",-0.251624011980751
"x3","~","x6",-0.429112511785394
"x1","~","x3",0.20467930979906
"x8","~","x4",0.39633894601819
"eta1","~","x3",-0.887652751479423
"x5","~","x8",-1.04987879376829
"x2","~","x5",-0.37359030543885
"y1","~~","y1",0.715003709569024
"y2","~~","y2",0.401288017059487
"x10","~~","x10",1.01338543458932
"x6","~~","x6",0.392784197501253
"x3","~~","x3",0.222913475813898
"x1","~~","x1",0.0372890771449686
"x8","~~","x8",0.153094850345916
"x5","~~","x5",1.14964062360053
"x2","~~","x2",0.13721017261818
"eta1","~~","eta1",0.902574668502451
"eta1","~~","x2",0.0219610977714162
"x9","~~","x9",1.53586827144518
"x9","~~","x7",-0.205990959134322
"x9","~~","x4",0.0189551968160224
"x7","~~","x7",1.2775565230509
"x7","~~","x4",-0.00426072589717691
"x4","~~","x4",1.6941617669691
