"lhs","op","rhs","est"
"eta1","=~","y2",0.26288572442095
"x3","~","x5",-0.145351765894122
"x3","~","x9",-0.42124936992387
"x5","~","x4",-0.578053550914146
"x5","~","x7",0.998551096191068
"x1","~","x5",0.118033100068332
"eta1","~","x2",-0.727740009012189
"eta1","~","x9",0.370979693626198
"x8","~","x2",-0.967087503799385
"x6","~","x4",-0.974622615740384
"x10","~","x2",0.460899214881234
"y1","~~","y1",1.98115976347659
"y2","~~","y2",0.100084098549448
"x3","~~","x3",0.207272273996247
"x5","~~","x5",1.2512169505302
"x1","~~","x1",0.0305959709198328
"x8","~~","x8",0.810566514567379
"x6","~~","x6",0.968061780618807
"x10","~~","x10",0.184934838648966
"eta1","~~","eta1",0.59115449962059
"eta1","~~","x3",-0.0157222374718323
"eta1","~~","x1",-0.0043608888302523
"eta1","~~","x8",0.0743152234749635
"eta1","~~","x6",0.00537626396181715
"eta1","~~","x10",-0.0283807817641378
"x3","~~","x1",-0.00296900347283669
"x3","~~","x8",-0.0161749081389359
"x3","~~","x6",-0.0251020192165962
"x3","~~","x10",-0.0046226688959304
"x1","~~","x8",0.010049590934728
"x1","~~","x6",0.0179265077783529
"x1","~~","x10",0.00199184981117586
"x8","~~","x6",-0.00315725884097494
"x8","~~","x10",0.013181777866777
"x6","~~","x10",0.0146195795971662
"x9","~~","x9",1.61220744086428
"x9","~~","x4",-0.0614933665536591
"x9","~~","x7",0.0611984333102961
"x9","~~","x2",0.0797770020250728
"x4","~~","x4",1.45566862545602
"x4","~~","x7",-0.16609805335505
"x4","~~","x2",0.0144792454225038
"x7","~~","x7",1.53718184665072
"x7","~~","x2",0.0360561398314931
"x2","~~","x2",1.65807885983184
