"lhs","op","rhs","est"
"eta1","=~","y2",-0.632643561450051
"x6","~","x10",-0.962053814834791
"x6","~","x2",0.526816101614228
"x6","~","x5",0.815869436719975
"x3","~","x6",0.0844179731461029
"x9","~","x3",-0.876140764362633
"x9","~","x7",-0.292600858622079
"x4","~","x1",-0.814780681723757
"x4","~","x3",0.141571948573888
"x4","~","x8",0.225087772791858
"eta1","~","x3",0.62991337358407
"x2","~","x3",0.500357255924165
"y1","~~","y1",0.877713496115311
"y2","~~","y2",0.778100078689008
"x6","~~","x6",1.59652422298387
"x3","~~","x3",0.0493284029326962
"x9","~~","x9",0.680153100677752
"x4","~~","x4",0.689721679913678
"x2","~~","x2",0.2198520958632
"eta1","~~","eta1",0.487110063256211
"eta1","~~","x9",0.0204269272346356
"eta1","~~","x4",-0.0293779118204573
"x9","~~","x4",-0.0139627515957394
"x10","~~","x10",1.41945884017773
"x10","~~","x5",-0.48526136333466
"x10","~~","x7",-0.047040516890129
"x10","~~","x1",-0.04078319527986
"x10","~~","x8",0.0319756926803889
"x5","~~","x5",1.07361297090976
"x5","~~","x7",0.0214364547756724
"x5","~~","x1",-0.00921808700907684
"x5","~~","x8",0.0499356018468537
"x7","~~","x7",1.62144831774765
"x7","~~","x1",0.166964163180899
"x7","~~","x8",0.0152393283285022
"x1","~~","x1",1.60238705323987
"x1","~~","x8",-0.0168162876898802
"x8","~~","x8",1.53118857293494
