"lhs","op","rhs","est"
"eta1","=~","y2",-3.23230497980597e-05
"x3","~","x1",-0.577228039675398
"x3","~","x5",0.962677569095722
"x3","~","x9",0.577854649081226
"x6","~","x3",0.126272733812716
"x6","~","x7",-0.498581155627745
"x6","~","x8",-0.596069374772343
"eta1","~","x3",-0.0447591458448561
"x10","~","x7",0.538669004175885
"x4","~","x3",0.184758163653444
"x2","~","x3",0.464299771302062
"y1","~~","y1",-1571.42766065745
"y2","~~","y2",0.40801217954472
"x3","~~","x3",1.57695987468108
"x6","~~","x6",1.31642616200649
"x10","~~","x10",0.292232368688423
"x4","~~","x4",0.608270586354392
"x2","~~","x2",2.24723926560077
"eta1","~~","eta1",1572.44506816889
"eta1","~~","x6",-0.0700805846750703
"eta1","~~","x10",-0.0338095471929135
"eta1","~~","x4",-3.47156833091061e-05
"eta1","~~","x2",-0.0634279616466862
"x6","~~","x10",0.031814744262373
"x6","~~","x4",0.0648199183593058
"x6","~~","x2",0.0904486440971282
"x10","~~","x4",0.0429092623996259
"x10","~~","x2",-0.0290183763521014
"x4","~~","x2",0.0552583777298021
"x1","~~","x1",1.32701614896441
"x1","~~","x5",-0.235811869108302
"x1","~~","x9",-0.0597661175216459
"x1","~~","x7",0.109175109120864
"x1","~~","x8",-0.0791093082420768
"x5","~~","x5",1.38154333428444
"x5","~~","x9",0.277819315031811
"x5","~~","x7",0.147151490306329
"x5","~~","x8",0.100185097689538
"x9","~~","x9",1.05808031699172
"x9","~~","x7",-0.0037384907387299
"x9","~~","x8",0.0465993504949656
"x7","~~","x7",1.55044574345842
"x7","~~","x8",0.000601421762795535
"x8","~~","x8",1.68462191849419
