"lhs","op","rhs","est"
"eta1","=~","y2",-1.09974837653376
"x7","~","x2",-0.777909193871795
"x9","~","eta1",-0.476745681268872
"x9","~","x10",-0.747265639285622
"x9","~","x7",0.543932624311844
"x10","~","x4",1.05928193743862
"x5","~","x1",-0.281920830819291
"x5","~","x3",-0.252530091543687
"x5","~","x6",0.676220697193424
"x5","~","x7",0.747686657922799
"x6","~","x8",0.894745840219703
"y1","~~","y1",1.04755621471611
"y2","~~","y2",0.909338758054526
"x7","~~","x7",0.549407725927809
"x9","~~","x9",0.900698267597132
"x10","~~","x10",0.913644414450397
"x5","~~","x5",1.10129097737468
"x6","~~","x6",0.874620297087028
"eta1","~~","eta1",1.42337152063655
"x9","~~","x5",0.0509541318096305
"x2","~~","x2",1.57390876231014
"x2","~~","x4",-0.170613995345538
"x2","~~","x1",-0.0932659911148511
"x2","~~","x3",0.09176852074048
"x2","~~","x8",-0.0773450552783066
"x4","~~","x4",1.64913233792323
"x4","~~","x1",0.0256243436965725
"x4","~~","x3",0.0358422440384205
"x4","~~","x8",0.00499261770545849
"x1","~~","x1",1.55751746942592
"x1","~~","x3",0.0510022284968167
"x1","~~","x8",-0.080766939583836
"x3","~~","x3",1.53980235296482
"x3","~~","x8",0.0593756270486474
"x8","~~","x8",1.69060659359867
