"lhs","op","rhs","est"
"eta1","=~","y2",1.15521282803039
"eta1","=~","y3",-0.247700225422602
"x5","~","x8",0.0470473555511364
"x5","~","x9",0.90552153570079
"eta1","~","x4",-0.207787697321513
"eta1","~","x5",0.677389087551072
"eta1","~","x7",0.69935554971806
"x8","~","eta1",-1.11767185886112
"x8","~","x3",0.628468720406106
"x1","~","x10",-0.297109272566283
"x1","~","x2",-0.546816953642845
"x1","~","x5",-0.906301650660854
"x6","~","x1",0.805942498976137
"y1","~~","y1",3.57732901368935
"y2","~~","y2",4.22986231376442
"y3","~~","y3",0.256862956793176
"x5","~~","x5",1.38766155889584
"x8","~~","x8",4.60010819952804
"x1","~~","x1",1.95690137554556
"x6","~~","x6",1.87579571424743
"eta1","~~","eta1",1.21354730882283
"x9","~~","x9",1.59659863584517
"x9","~~","x4",0.074663133428169
"x9","~~","x7",0.0320981035258426
"x9","~~","x3",-0.0918891694221397
"x9","~~","x10",-0.00887873802280118
"x9","~~","x2",0.072070987522751
"x4","~~","x4",1.58823984473933
"x4","~~","x7",0.0282148066961135
"x4","~~","x3",0.139597886679196
"x4","~~","x10",0.014888727702217
"x4","~~","x2",0.0110710890078824
"x7","~~","x7",1.61203144964086
"x7","~~","x3",-0.0618150911704621
"x7","~~","x10",-0.0930092149388987
"x7","~~","x2",0.0117543697915066
"x3","~~","x3",1.10628269987885
"x3","~~","x10",0.00695493907991093
"x3","~~","x2",0.0491454837346156
"x10","~~","x10",1.58063819866343
"x10","~~","x2",-0.196891477853484
"x2","~~","x2",1.37393473766402
