"lhs","op","rhs","est"
"eta1","=~","y2",0.183762855928834
"eta1","~","x10",0.0216109766255452
"eta1","~","x2",0.0611050562104081
"eta1","~","x3",0.347573821541875
"x9","~","eta1",0.107984122105998
"x2","~","x6",-0.165029421693296
"x2","~","x9",0.288293976133044
"x10","~","x4",-0.838248641320073
"x10","~","x7",0.237843175942078
"x10","~","x8",-0.567451860192109
"x1","~","x3",-0.973248109248778
"x5","~","x4",-0.38819443925505
"y1","~~","y1",3.31982151092624
"y2","~~","y2",0.0551058604579376
"x9","~~","x9",0.00952163377789812
"x2","~~","x2",0.071461547984325
"x10","~~","x10",1.07427623347766
"x1","~~","x1",0.911438743544983
"x5","~~","x5",0.133342811439921
"eta1","~~","eta1",0.107916154780919
"x1","~~","x5",-0.00174027996565634
"x3","~~","x3",1.56979894510585
"x3","~~","x6",-0.0754165725356344
"x3","~~","x4",-0.0315205554876708
"x3","~~","x7",0.0283866758474957
"x3","~~","x8",-0.154301053307726
"x6","~~","x6",1.62157931452474
"x6","~~","x4",-0.00120557034477791
"x6","~~","x7",-0.0273460033544116
"x6","~~","x8",-0.00503695954046241
"x4","~~","x4",1.58328719846122
"x4","~~","x7",0.0110179652584593
"x4","~~","x8",-0.000840502306791139
"x7","~~","x7",1.64966181165886
"x7","~~","x8",-0.0451790091369645
"x8","~~","x8",1.53018563067664
