"lhs","op","rhs","est"
"eta1","=~","y2",0.672223226655406
"eta1","=~","y3",-0.146691280742112
"x10","~","x1",0.145816124213447
"x10","~","x5",-0.862256824944675
"x10","~","x9",0.325806284834799
"x8","~","x10",-0.301484031358258
"x8","~","x2",-0.648734415709296
"x9","~","x8",0.13452661935554
"x3","~","x10",-0.583497723391116
"x6","~","x8",0.0958158356189641
"x7","~","x4",-0.854205748338981
"x7","~","x5",0.551575620782555
"eta1","~","x4",-0.205073496016012
"y1","~~","y1",0.970784193178867
"y2","~~","y2",0.954445914924377
"y3","~~","y3",0.0299349343180042
"x10","~~","x10",1.21234287766842
"x8","~~","x8",0.674862684173971
"x9","~~","x9",0.139040904318619
"x3","~~","x3",0.944838018087403
"x6","~~","x6",0.0523397432254618
"x7","~~","x7",0.93865339916507
"eta1","~~","eta1",0.0741505704211845
"eta1","~~","x3",0.00136697119905973
"eta1","~~","x6",0.0113787576633385
"eta1","~~","x7",0.0294023012706575
"x3","~~","x6",-0.0249648329093957
"x3","~~","x7",-0.014911147110564
"x6","~~","x7",-0.0067938181723206
"x1","~~","x1",1.69908652768804
"x1","~~","x5",-0.0402830604797766
"x1","~~","x2",-0.0209432636460645
"x1","~~","x4",-0.00717979514709235
"x5","~~","x5",1.17216641152627
"x5","~~","x2",-0.148857636183166
"x5","~~","x4",-0.0565299029836874
"x2","~~","x2",1.36977449970878
"x2","~~","x4",0.0666394534236927
"x4","~~","x4",1.7262193057676
