lhs,op,rhs,est
eta1,~,x1,-0.8318577445009095
eta2,~,eta4,-0.11779594401402115
eta2,~,x4,-0.8117151536721273
eta3,~,x5,0.4620086620394264
eta4,~,x2,0.9892691918056842
eta5,~,x9,0.6492777105399258
eta7,~,x2,0.04592888432489442
eta7,~,x8,0.6929139860468995
eta8,~,x5,0.3210602894646729
eta8,~,x7,-0.0800361838340061
x1,~,eta7,-0.013458096206849738
x1,~,x3,-0.355618939028786
x10,~,x7,0.3545143755259795
x2,~,eta2,-0.4046831122000442
x2,~,eta6,-0.9884811968209517
x3,~,eta5,0.5362349488618492
x3,~,x7,-0.2020101376773207
x6,~,eta8,-0.005901922080257214
eta4,=~,y11,0.35082605421200963
eta5,=~,y13,0.12699790363369431
eta6,=~,y15,1.0441880730602304
eta6,=~,y16,-0.8505795661710049
eta7,=~,y18,0.12655524555173014
eta7,=~,y19,0.9267128269768601
eta1,=~,y2,-0.7355961851736534
eta8,=~,y21,-1.0621578769442408
eta1,=~,y3,-1.159292362544397
eta2,=~,y6,0.5432569061459911
eta3,=~,y8,0.5856097725075268
eta2,=~,y9,-1.2866595548395692
eta3,=~,y9,-0.650524969304582
eta1,~~,eta1,1.3129521438312706
eta1,~~,eta3,-0.0005726595217091587
eta1,~~,x10,0.013719945471140952
eta1,~~,x6,0.006524791307074833
eta2,~~,eta2,0.7622785182620733
eta3,~~,eta3,0.19382491911842425
eta3,~~,x10,0.021676811174952147
eta3,~~,x6,0.0020491739184568744
eta4,~~,eta4,1.8387484352076813
eta5,~~,eta5,0.45605910682638057
eta6,~~,eta6,1.1196356987511455
eta7,~~,eta7,0.7109291957339638
eta8,~~,eta8,0.01882259082448424
x1,~~,x1,0.2389885906089442
x10,~~,x10,0.10821640491756963
x10,~~,x6,-0.0027286406135936117
x2,~~,x2,1.0626291388338691
x3,~~,x3,0.26863415912515193
x6,~~,x6,0.3689754665853863
y1,~~,y1,1.7052999528688344
y10,~~,y10,3.397628741811542
y11,~~,y11,0.3014741100760797
y12,~~,y12,0.884039571280778
y13,~~,y13,0.01342306924096213
y14,~~,y14,1.0034156660762363
y15,~~,y15,0.7120190091143406
y16,~~,y16,0.7016097890018475
y17,~~,y17,1.8666410319050786
y18,~~,y18,0.024832408674823933
y19,~~,y19,2.1812015977851287
y2,~~,y2,1.1574495263741835
y21,~~,y21,1.200521720006914
y3,~~,y3,2.2581358766809396
y4,~~,y4,1.811794010150763
y6,~~,y6,0.6815579264123837
y7,~~,y7,1.0012844499413283
y8,~~,y8,0.22596885774224085
y9,~~,y9,0.9157850718363036
