lhs,op,rhs,est
eta1,~,eta8,0.5533078052077681
eta1,~,x10,0.04884498153801616
eta2,~,eta4,0.12974585920797313
eta4,~,x10,-0.14366987351382787
eta4,~,x1,-0.19042073161090986
eta4,~,x8,-0.717813065314805
eta5,~,x2,0.19961041251814948
eta7,~,eta5,0.0456600612155905
eta8,~,x4,1.087474206206624
x10,~,eta6,-0.13976114209497867
x10,~,x7,0.9819646147931261
x2,~,eta6,-0.7960097275307619
x3,~,eta4,-0.019144177828408063
x4,~,eta3,-0.8546143997785656
x5,~,eta1,0.20531933474688652
x6,~,eta6,0.54249843787833
x7,~,x3,0.588049393962713
x9,~,eta7,0.10725617436934261
eta5,=~,y12,-0.5353537526080406
eta6,=~,y14,-0.3694182962679892
eta6,=~,y15,0.4603619083052263
eta7,=~,y17,0.04871691035949451
eta7,=~,y18,-0.04861460199329304
eta1,=~,y2,0.4542935270181756
eta8,=~,y20,0.36277575564171477
eta1,=~,y3,0.7936523036092825
eta2,=~,y5,0.40916506260391733
eta2,=~,y6,0.6605780364286057
eta3,=~,y8,0.2851244162868856
eta4,=~,y9,0.19906655009567698
eta1,~~,eta1,0.3237062698828488
eta2,~~,eta2,0.6249708906611284
eta2,~~,x5,0.007893567074003871
eta2,~~,x6,-0.016472763108396068
eta2,~~,x9,-0.02511482626982743
eta3,~~,eta3,1.5799453786419135
eta3,~~,eta6,-0.1026438034718645
eta4,~~,eta4,0.5422977680521244
eta5,~~,eta5,0.041258180797565644
eta6,~~,eta6,1.2430963516149616
eta7,~~,eta7,0.9063556146150847
eta8,~~,eta8,1.0850242048814653
x10,~~,x10,0.877421840056184
x2,~~,x2,0.6818654308844757
x3,~~,x3,0.03215430686746241
x4,~~,x4,0.7225674624971026
x5,~~,x5,0.05638375874404735
x5,~~,x6,-0.006146208537843144
x5,~~,x9,-0.01039486888148793
x6,~~,x6,0.1632427235030287
x6,~~,x9,-0.0016043980525737088
x7,~~,x7,0.6599644680776403
x9,~~,x9,1.0907478812363027
y1,~~,y1,1.768857384435852
y10,~~,y10,2.4763584513328656
y11,~~,y11,0.8250086118176377
y12,~~,y12,0.8885630149169517
y13,~~,y13,0.8290504715404589
y14,~~,y14,0.08413134477362975
y15,~~,y15,1.0857625153049355
y16,~~,y16,0.0
y17,~~,y17,0.5354978446144426
y18,~~,y18,0.9738033812055018
y2,~~,y2,0.32449225562781026
y20,~~,y20,0.12159042477022965
y3,~~,y3,0.9365345041217717
y4,~~,y4,0.8932114804349038
y5,~~,y5,0.14533919506820103
y6,~~,y6,0.21404306252717198
y8,~~,y8,0.10358160978841784
y9,~~,y9,0.13561387660408702
