lhs,op,rhs,est
eta1,~,eta2,0.12416821140208387
eta1,~,x5,-0.6556358997790335
eta2,~,x4,-0.94147242682598
eta2,~,x9,-0.5814407421194786
eta3,~,eta1,-0.4738225087892802
eta3,~,eta8,-0.2385234590298288
eta4,~,x7,-0.26169985154138725
eta5,~,eta3,0.19660901667568367
eta7,~,x6,0.3532292162941759
eta8,~,x2,0.354356532323336
eta8,~,x10,-1.4391816433697713
x1,~,eta6,-0.6358813161735879
x1,~,eta8,0.25649020059250344
x2,~,x1,0.08491043774635909
x2,~,x8,-0.49088476386829755
x3,~,x6,-0.7902454862403141
x3,~,x7,-0.43169333155305334
x5,~,x7,0.5193285483443527
eta5,=~,y12,-0.019650871392104724
eta6,=~,y15,-0.8194230705840846
eta7,=~,y16,0.6183496463637976
eta7,=~,y18,-0.7620484105967353
eta1,=~,y2,0.12471235550337419
eta8,=~,y20,-0.11928447660290617
eta1,=~,y3,-0.6018729979249403
eta2,=~,y5,-0.4514006928251421
eta5,=~,y5,0.06343875523277963
eta3,=~,y7,0.23930335347635948
eta4,=~,y8,-0.48267046894635107
eta4,=~,y9,-0.30481608306472396
eta1,~~,eta1,0.49274066732080946
eta2,~~,eta2,0.8793506327425407
eta3,~~,eta3,0.4621082506549902
eta4,~~,eta4,0.03482548650416176
eta4,~~,eta5,0.02622027014527327
eta4,~~,eta7,-0.04292966440088954
eta4,~~,x3,-0.002510961745102951
eta5,~~,eta5,1.9104629036995007
eta5,~~,eta7,0.004490757460304461
eta5,~~,x3,-0.029286938766172357
eta6,~~,eta6,1.5485440007506515
eta7,~~,eta7,0.12463649345834892
eta7,~~,x3,0.024536213892848897
eta8,~~,eta8,2.2826330169873925
x1,~~,x1,0.7656397040644324
x2,~~,x2,0.2831822076026644
x3,~~,x3,0.7466512842741354
x5,~~,x5,0.23259025478376297
y1,~~,y1,1.7702432317891463
y10,~~,y10,0.9138336180683824
y11,~~,y11,2.3933401209431645e-16
y12,~~,y12,1.3311010835421642
y14,~~,y14,0.8743142851904913
y15,~~,y15,0.6893954012812122
y16,~~,y16,0.31269244406541
y18,~~,y18,0.32241068627724045
y19,~~,y19,2.7833357218307517
y2,~~,y2,0.0329545342353085
y20,~~,y20,0.09428613728813684
y3,~~,y3,0.4955273410558553
y4,~~,y4,1.7522640121336177
y5,~~,y5,0.5121055825761001
y6,~~,y6,1.9404288220409585
y7,~~,y7,0.10698440233334204
y8,~~,y8,0.27453406238563866
y9,~~,y9,0.08519119789751035
