lhs,op,rhs,est
eta1,~,x5,-0.2611233014645892
eta2,~,x5,-0.6366925285942542
eta3,~,eta2,0.553039387718725
eta3,~,x3,-0.2819165572354456
eta4,~,x1,-0.14210906937708834
eta5,~,x7,-0.07234025015201234
eta5,~,x6,-1.019583776864869
eta7,~,eta4,1.469023289929672
eta7,~,x4,0.07497013861894015
eta7,~,x9,0.7304809978538915
eta7,~,x10,0.4708377591223801
eta8,~,x10,0.7649914679812609
x1,~,eta6,-0.8609067861626563
x1,~,eta7,-0.25358878352507064
x1,~,x5,0.4039326217758541
x4,~,x8,0.18974122950258226
x7,~,x1,0.31554699457071006
x9,~,x2,0.2595086788437659
eta1,=~,y12,-0.32338306202618744
eta5,=~,y12,0.48777939587585994
eta6,=~,y14,0.8673047203278141
eta6,=~,y15,0.7927193172133954
eta7,=~,y17,-0.18828321268102804
eta4,=~,y19,-1.0762481980200607
eta8,=~,y19,-0.18892463655264768
eta8,=~,y20,0.30654951524216095
eta1,=~,y3,0.24426031555165298
eta2,=~,y5,0.27681370493519947
eta2,=~,y6,0.4661978349707482
eta3,=~,y8,-0.1752723490372864
eta1,~~,eta1,0.030545464118157277
eta1,~~,eta3,0.06431116487562187
eta1,~~,eta5,0.005419203835076022
eta1,~~,eta8,-0.01725697071994124
eta2,~~,eta2,0.2789364976210554
eta3,~~,eta3,0.6744230050608383
eta3,~~,eta5,0.033426959734737326
eta3,~~,eta8,0.08871977157332547
eta4,~~,eta4,0.35667616790886836
eta5,~~,eta5,0.6710347161405772
eta5,~~,eta8,-0.1236262241966229
eta6,~~,eta6,0.9283328047302977
eta7,~~,eta7,0.6125244005411461
eta8,~~,eta8,0.5790368383376373
x1,~~,x1,1.304734140280434
x4,~~,x4,0.0369893120972834
x7,~~,x7,0.4666444671352391
x9,~~,x9,0.062143344085348974
y1,~~,y1,1.039697406857676
y10,~~,y10,1.073689859487924
y11,~~,y11,3.2792509032535455
y12,~~,y12,0.7379406001260271
y13,~~,y13,0.953857885224304
y14,~~,y14,0.710461364881903
y15,~~,y15,0.40108313273471274
y16,~~,y16,4.230265775174287
y17,~~,y17,0.9963118943949757
y18,~~,y18,0.697844975832614
y19,~~,y19,0.4877669630783195
y20,~~,y20,0.09853969137158293
y3,~~,y3,0.093567101546063
y4,~~,y4,0.8957613644461059
y5,~~,y5,0.059572833755465626
y6,~~,y6,0.21575463962286917
y7,~~,y7,1.7848356153505396
y8,~~,y8,0.07347155604445159
