lhs,op,rhs,est
eta3,~,x9,-0.6562070222466715
eta3,~,x2,-0.7509297775669969
eta4,~,eta1,-0.75357587686001
eta4,~,eta7,-0.3998054627211624
eta5,~,eta1,-0.991430179089638
eta5,~,x8,-0.4450595802433365
eta6,~,eta1,-0.3394127176706972
eta7,~,x6,0.6137936796468161
eta8,~,eta2,1.1130868137635372
eta8,~,x10,-0.007908580913886082
eta8,~,x6,-1.068581687857225
x10,~,x4,0.2125057815824849
x3,~,x5,-0.11946231157228408
x5,~,x10,-1.1771567832267167
x6,~,eta4,-0.14686246820721144
x6,~,x1,0.8669947773378285
x7,~,eta1,0.6799129315910459
x9,~,x1,-0.5732644005407886
eta4,=~,y11,0.27167588254025365
eta4,=~,y12,-0.5771988531275328
eta5,=~,y15,-0.7938509038804283
eta6,=~,y16,-0.3808046311995821
eta7,=~,y18,0.7063144970909625
eta1,=~,y2,0.3500124679972253
eta8,=~,y20,0.19196113206245147
eta1,=~,y3,-0.6753230672991961
eta2,=~,y5,-0.8710186455332112
eta2,=~,y6,-0.7666855695868748
eta3,=~,y7,0.3202516571590873
eta3,=~,y9,-0.37174614032675574
eta1,~~,eta1,1.608101696068662
eta1,~~,eta2,0.04012959634064513
eta2,~~,eta2,1.4978645856717876
eta3,~~,eta3,0.5513330780464073
eta3,~~,eta5,-0.02498317883230079
eta3,~~,eta6,0.008198684570475212
eta3,~~,eta8,0.020753187744825232
eta3,~~,x3,-0.00636771687983749
eta3,~~,x7,0.0007048851024408464
eta4,~~,eta4,0.25592262656843157
eta5,~~,eta5,1.0169829464831157
eta5,~~,eta6,0.04607270531047539
eta5,~~,eta8,-0.11855210160531056
eta5,~~,x3,-0.013037182939016977
eta5,~~,x7,0.07222511469421108
eta6,~~,eta6,0.26843065695274726
eta6,~~,eta8,0.1609658390836393
eta6,~~,x3,0.002280562696382499
eta6,~~,x7,-0.025368915915945395
eta7,~~,eta7,0.623629493615981
eta8,~~,eta8,3.261522727291458
eta8,~~,x3,-0.0015046763899306662
eta8,~~,x7,0.002042743625651988
x10,~~,x10,0.03182761076265164
x3,~~,x3,0.010517576868589782
x3,~~,x7,-0.005266726706953136
x5,~~,x5,0.6994659462179412
x6,~~,x6,0.712101050011768
x7,~~,x7,0.44177925020737063
x9,~~,x9,0.3085075820696305
y1,~~,y1,0.9576938549495276
y10,~~,y10,2.96645853967001
y11,~~,y11,0.2913596729738215
y12,~~,y12,1.4262895485379354
y13,~~,y13,1.9112504125299465
y15,~~,y15,4.360920446276653
y16,~~,y16,0.04277419101572311
y17,~~,y17,1.786143449033602
y18,~~,y18,1.3295701922346808
y19,~~,y19,3.8867327522887996
y2,~~,y2,0.10192789220863814
y20,~~,y20,0.0994694365020033
y3,~~,y3,0.34529238676608187
y4,~~,y4,0.6685215933886569
y5,~~,y5,0.8862122416819229
y6,~~,y6,0.7478236192246412
y7,~~,y7,0.3553106283382468
y9,~~,y9,0.4085607445448323
