lhs,op,rhs,est
eta1,~,x8,0.1452182407129596
eta3,~,x5,0.48686415686694157
eta4,~,x1,0.42570188396619885
eta4,~,x6,0.7682199133988541
eta5,~,x5,0.0026336172845666333
x1,~,eta2,-0.12536420072799712
x1,~,eta5,45.24250887673466
x1,~,eta6,0.6614026161361152
x1,~,eta7,-0.3794985537762124
x1,~,eta8,0.8866418096601212
x10,~,eta2,-0.9643511569103114
x2,~,eta5,-24.138090904885324
x2,~,x9,0.6283296372787797
x3,~,x2,0.0953232230127333
x5,~,x3,0.39494806660109055
x5,~,x4,0.7005241568218239
x7,~,eta1,0.48423883118937017
x7,~,eta5,-15.750655137167898
eta5,=~,y11,18.628488233229294
eta5,=~,y13,-17.896724128972892
eta6,=~,y15,-0.3134840770968055
eta6,=~,y16,0.437080480574611
eta7,=~,y18,-0.9212871151474128
eta7,=~,y19,0.4464854330938474
eta1,=~,y2,-0.14649421746526795
eta2,=~,y4,0.8935050688749573
eta3,=~,y6,-0.8673267965011724
eta3,=~,y7,0.6962062433080236
eta4,=~,y8,-1.1489103043376978
eta4,=~,y9,0.4599158773274579
eta8,=~,y9,0.3935542904997279
eta1,~~,eta1,0.03192267328312079
eta2,~~,eta2,1.8125747440160611
eta2,~~,eta6,0.21187938759095795
eta2,~~,eta7,-0.028733805416826172
eta2,~~,eta8,-0.04539209567111928
eta3,~~,eta3,0.7436722874962491
eta3,~~,eta4,0.005656863280773695
eta3,~~,x10,-0.03837128060553078
eta3,~~,x7,0.01545968432958501
eta4,~~,eta4,1.6915826032500658
eta4,~~,x10,-0.05851534985278267
eta4,~~,x7,0.06428171751457597
eta5,~~,eta5,1.240811447865105e-05
eta6,~~,eta6,1.4929180537498214
eta6,~~,eta7,0.010334653010869695
eta6,~~,eta8,-0.015120849115454575
eta7,~~,eta7,1.4627278660759089
eta7,~~,eta8,-0.03424416760641705
eta8,~~,eta8,1.7094643625544381
x1,~~,x1,2.0168475452851102
x10,~~,x10,1.0998934826839595
x10,~~,x7,0.01730230410497195
x2,~~,x2,0.7618504070464303
x3,~~,x3,0.0426930700170141
x5,~~,x5,1.1466213234875062
x7,~~,x7,0.306803749621614
y1,~~,y1,0.8402198966721337
y10,~~,y10,4.734391136409655
y11,~~,y11,0.08529327471144024
y13,~~,y13,0.5066523770381761
y14,~~,y14,0.9766292764688451
y15,~~,y15,0.10343453225954131
y16,~~,y16,0.22399528213820488
y17,~~,y17,0.8879260883766732
y18,~~,y18,0.7577883239152898
y19,~~,y19,0.1844620212533944
y2,~~,y2,0.10210016557852766
y20,~~,y20,0.7509645285583959
y3,~~,y3,0.847137970099685
y4,~~,y4,0.6066831765144935
y5,~~,y5,0.811323131499058
y6,~~,y6,0.8778917970990562
y7,~~,y7,0.5092090791351346
y8,~~,y8,3.8075662150797602
y9,~~,y9,0.9769096890605525
