lhs,op,rhs,est
eta1,~,eta4,-1.0489371028120462
eta1,~,x8,-0.15723424599434016
eta2,~,eta8,-1.3500437055305656
eta3,~,x5,-0.5194940243709185
eta4,~,x6,0.833064424130131
eta5,~,eta2,-0.4516642206597181
eta7,~,eta1,0.5214692984251633
eta8,~,eta6,0.14850869824502647
eta8,~,x10,-0.0760840441535095
x10,~,eta2,0.5174975725739636
x10,~,eta3,0.30804631371543717
x2,~,eta7,0.15619916987534874
x4,~,eta3,0.15975270065687636
x4,~,x1,-1.0140843561148645
x7,~,eta4,0.3387152021609144
x9,~,eta3,0.10886329389739777
x9,~,eta7,0.49941666937304013
x9,~,x3,0.09043615177996091
eta4,=~,y11,0.6187506936498859
eta5,=~,y13,-0.9817961479827879
eta5,=~,y14,-0.7912156222598087
eta6,=~,y16,-0.2723086632125093
eta6,=~,y17,-0.12606923015913415
eta4,=~,y18,-0.21816860432469942
eta7,=~,y19,-0.14617264106593644
eta1,=~,y2,0.6649989527990607
eta7,=~,y20,0.21329876186261632
eta8,=~,y22,1.5611944267341464
eta1,=~,y3,0.21139474037086603
eta2,=~,y5,0.9139702243100236
eta2,=~,y6,0.6718910700147361
eta3,=~,y8,-0.8368426058205128
eta1,~~,eta1,0.9527979921791541
eta2,~~,eta2,1.0304049355716038
eta3,~~,eta3,0.1965668672536183
eta4,~~,eta4,0.6353666917573964
eta5,~~,eta5,0.2672825500709518
eta5,~~,x2,0.0013698280068101388
eta5,~~,x4,0.009517461789867423
eta5,~~,x7,-0.01173590386432372
eta5,~~,x9,-0.0019901732855730357
eta6,~~,eta6,1.5766938266553043
eta7,~~,eta7,0.17145989181923854
eta8,~~,eta8,0.019400706038609127
x10,~~,x10,0.6016651408018453
x2,~~,x2,0.018415513270021458
x2,~~,x4,-0.004964569461346478
x2,~~,x7,-0.004334142807397662
x2,~~,x9,0.004343676458892454
x4,~~,x4,0.9085443325158623
x4,~~,x7,-0.006778175993870681
x4,~~,x9,0.026616778771459397
x7,~~,x7,0.08594760625875843
x7,~~,x9,-0.01121535487536273
x9,~~,x9,0.2589353309969131
y1,~~,y1,1.7441972403642385
y10,~~,y10,1.1584919675170675
y11,~~,y11,1.2244052613676153
y12,~~,y12,0.8489185674239396
y13,~~,y13,0.6049583100142429
y14,~~,y14,0.5300648703452379
y15,~~,y15,0.8264177604536886
y16,~~,y16,0.06661693934536476
y17,~~,y17,0.01749267548910119
y18,~~,y18,0.8417734121443902
y19,~~,y19,0.017126882172656756
y2,~~,y2,1.21272551896856
y20,~~,y20,0.04772263721727098
y21,~~,y21,1.8181854319504165
y22,~~,y22,0.5563222549416924
y3,~~,y3,0.10290317408817465
y4,~~,y4,0.7961527233898871
y5,~~,y5,1.0114369033421182
y6,~~,y6,0.4911983372181194
y8,~~,y8,0.8858749069832712
