lhs,op,rhs,est
eta2,~,eta5,0.14511200384256398
eta3,~,eta6,-0.2907034343990382
eta3,~,x10,-0.26050261945243053
eta4,~,eta6,-1.236013603887437
eta4,~,x7,-0.19002803293378057
eta5,~,eta3,1.4201496265165001
eta5,~,x8,0.2883484121626306
eta6,~,eta1,0.04069781093724639
eta6,~,eta5,0.00567499689995237
eta7,~,x3,0.0004648353742694086
x1,~,eta8,1.0562745386927936
x2,~,x1,0.5432589171543445
x3,~,eta2,0.3226928292457717
x3,~,x1,0.14604188372596902
x4,~,eta4,0.4410896900327886
x5,~,eta1,0.8586514009740054
x6,~,x1,0.7968482990374636
x9,~,x4,0.7625473961993575
eta6,=~,y12,-0.9765331180342808
eta1,=~,y13,0.8916523837073842
eta7,=~,y14,-241.41148625568673
eta8,=~,y16,-0.7423852229002517
eta2,=~,y4,0.3397419586999864
eta3,=~,y6,1.0351224416621847
eta4,=~,y8,-0.6584261615865132
eta5,=~,y9,-0.17028737554501475
eta1,~~,eta1,1.462091629243092
eta1,~~,eta8,-0.05886773214518493
eta2,~~,eta2,1.0517098248541714
eta3,~~,eta3,0.17757981480276153
eta4,~~,eta4,0.5392438568701986
eta5,~~,eta5,0.6946653825961585
eta6,~~,eta6,0.7618186965960391
eta7,~~,eta7,6.898850514666417e-11
eta7,~~,x2,-1.599774207608875e-05
eta7,~~,x5,0.00018765183117237436
eta7,~~,x6,-1.7851716296758905e-06
eta7,~~,x9,-9.012173156392874e-05
eta8,~~,eta8,1.447304490776674
x1,~~,x1,0.9192549526241448
x2,~~,x2,0.2776419274070318
x2,~~,x5,-0.013638404849528886
x2,~~,x6,0.03132189103156598
x2,~~,x9,-0.01983247713380549
x3,~~,x3,0.131990914028427
x4,~~,x4,0.2527391766606445
x5,~~,x5,0.5299343859730653
x5,~~,x6,0.004284339439052376
x5,~~,x9,-0.02225947906127857
x6,~~,x6,0.4810478613891885
x6,~~,x9,0.032450653903964115
x9,~~,x9,0.4359655991320642
y1,~~,y1,1.0118347337303553
y10,~~,y10,3.3697993742091708
y11,~~,y11,2.115337534506863
y12,~~,y12,1.2112473414009042
y13,~~,y13,1.5827014251108273
y14,~~,y14,0.15567342015244431
y15,~~,y15,1.0381980841769254
y16,~~,y16,0.43724854763750876
y3,~~,y3,0.911206487571453
y4,~~,y4,0.10446188942976008
y5,~~,y5,1.96600089913611
y6,~~,y6,0.9396552465161515
y7,~~,y7,1.6163093144789316
y8,~~,y8,0.9373301780516021
y9,~~,y9,0.13157235693063113
