"lhs","op","rhs","est"
"eta1","=~","y2",0.36272568490484
"eta2","=~","y4",-0.300646342143607
"eta2","=~","y5",-0.825557116053999
"x1","~","x2",0.666328721336953
"x1","~","x3",-0.781987625250387
"x6","~","eta1",-0.340270175485373
"x6","~","x1",-0.260165830053605
"x10","~","x3",-0.952139383997432
"x5","~","x3",0.461694096283873
"x5","~","x4",0.934663463060775
"x7","~","x1",-0.473697629370092
"x9","~","eta2",-0.224793308011345
"x9","~","x3",0.6041717970037
"x8","~","x9",-0.640734131118159
"eta2","~","x8",0.873028861854014
"y1","~~","y1",1.14349130176589
"y2","~~","y2",0.0948274224708597
"y3","~~","y3",1.03222009394757
"y4","~~","y4",0.101400253962022
"y5","~~","y5",0.748438386095236
"x1","~~","x1",1.12289120300123
"x6","~~","x6",0.253905794718609
"x10","~~","x10",0.8932560813661
"x5","~~","x5",1.03067457181395
"x7","~~","x7",0.545564527764686
"x9","~~","x9",0.4233834729027
"x8","~~","x8",0.334092936030111
"eta1","~~","eta1",1.48173988574098
"eta2","~~","eta2",0.78297029135959
"x6","~~","x10",-0.0300406868154708
"x6","~~","x5",-0.0434574877382486
"x6","~~","x7",0.0174656381610185
"x10","~~","x5",-0.0823297207160113
"x10","~~","x7",0.0440008842982143
"x5","~~","x7",0.103717032584364
"x2","~~","x2",1.66162935551731
"x2","~~","x3",0.0484418231838268
"x2","~~","x4",-0.101881056233306
"x3","~~","x3",1.70213308808307
"x3","~~","x4",0.152438502768032
"x4","~~","x4",1.61580388089409
