"lhs","op","rhs","est"
"eta1","=~","y2",-0.396479037823154
"eta2","=~","y4",-0.308228157997845
"eta1","~","eta2",0.180939968207289
"eta1","~","x8",0.69396200199433
"x9","~","eta1",0.0752895499428379
"x9","~","x3",0.0943633572085848
"x9","~","x5",0.491327555759943
"x2","~","eta2",0.917300671889515
"x5","~","x1",-0.924923263932409
"x4","~","eta2",0.343501666993014
"x4","~","x6",-0.189132901804231
"x3","~","x10",-0.180647129607259
"x7","~","eta2",-0.861952960302254
"y1","~~","y1",1.79843028698295
"y2","~~","y2",0.271995875640212
"y3","~~","y3",1.03693922860167
"y4","~~","y4",0.0814097245248349
"x9","~~","x9",1.08115306367256
"x2","~~","x2",0.660293061134005
"x5","~~","x5",0.810347102230021
"x4","~~","x4",0.157967308915745
"x3","~~","x3",0.0364919481493267
"x7","~~","x7",0.641985610188792
"eta1","~~","eta1",0.447076153335529
"eta2","~~","eta2",1.47863255160705
"x9","~~","x2",0.029082819419145
"x9","~~","x4",0.066511391720137
"x9","~~","x7",-0.140302429672567
"x2","~~","x4",-0.0220809311402528
"x2","~~","x7",-0.0175520327721789
"x4","~~","x7",0.0221764608814607
"x8","~~","x8",1.67695270922996
"x8","~~","x1",-0.0176091218266893
"x8","~~","x6",0.114941606396575
"x8","~~","x10",-0.0770107889950834
"x1","~~","x1",1.67036027393686
"x1","~~","x6",0.0284043648025885
"x1","~~","x10",0.00130163741143896
"x6","~~","x6",1.56332131115823
"x6","~~","x10",-0.0173943389343622
"x10","~~","x10",1.60625596635844
