"lhs","op","rhs","est"
"eta1","=~","y2",-0.175246142303143
"eta2","=~","y4",0.219451267846871
"eta2","=~","y5",0.442347400860199
"x9","~","eta2",0.333892288572685
"x9","~","x10",-0.260206302418613
"x9","~","x5",-0.519323830922472
"x4","~","x2",-0.892510733478765
"x4","~","x9",0.184690882136241
"x10","~","x3",-0.987979106337624
"x10","~","x4",0.128171494596444
"x8","~","x9",-0.233646146175149
"x1","~","x8",0.485380443319428
"x6","~","x8",0.115299606878717
"x7","~","x8",0.211336583732959
"eta1","~","x5",-1.1175967846789
"y1","~~","y1",0.769407606847048
"y2","~~","y2",0.0420099858362762
"y3","~~","y3",1.02078258816123
"y4","~~","y4",0.0368007064626878
"y5","~~","y5",0.156845780083081
"x9","~~","x9",0.483994689855203
"x4","~~","x4",1.08455489948633
"x10","~~","x10",1.14987542798368
"x8","~~","x8",0.351267833245746
"x1","~~","x1",0.361970225053655
"x6","~~","x6",0.0221705804176664
"x7","~~","x7",0.0633867732522396
"eta1","~~","eta1",1.28802826267822
"eta2","~~","eta2",1.50359100931117
"eta1","~~","x1",-0.137037285438995
"eta1","~~","x6",-0.0200005870656375
"eta1","~~","x7",-0.0789325821758128
"x1","~~","x6",0.00805545922321099
"x1","~~","x7",0.00852120690531098
"x6","~~","x7",0.00313206386656723
"x5","~~","x5",1.58395976702171
"x5","~~","x2",0.0450591178742837
"x5","~~","x3",-0.100600223457309
"x2","~~","x2",1.69822116657507
"x2","~~","x3",0.159575198075302
"x3","~~","x3",1.59901687731947
