"lhs","op","rhs","est"
"eta1","=~","y2",-0.181758224663907
"eta2","=~","y4",0.688721350709431
"x9","~","x7",0.606308506389531
"x3","~","x5",0.253102319083159
"x3","~","x9",0.616648742787225
"x8","~","x3",0.66200985945456
"x1","~","x4",0.271280935458186
"x1","~","x8",-0.595679926365621
"x5","~","eta1",-0.36968929794232
"x5","~","x1",-0.268596939176256
"eta2","~","x5",0.108872188156054
"x6","~","x8",0.659713615232996
"x2","~","x4",-0.573747115810133
"x10","~","x9",-0.179533464438316
"y1","~~","y1",0.774465044834712
"y2","~~","y2",0.0411722058663493
"y3","~~","y3",0.874479961514489
"y4","~~","y4",0.84966753337957
"x9","~~","x9",0.348509633107222
"x3","~~","x3",0.413629604405307
"x8","~~","x8",0.54734225219041
"x1","~~","x1",0.600368314795582
"x5","~~","x5",0.564719106437477
"x6","~~","x6",0.308069821447949
"x2","~~","x2",0.328015504198049
"x10","~~","x10",0.0295067860164872
"eta1","~~","eta1",1.54302358824976
"eta2","~~","eta2",0.171293743814146
"eta2","~~","x6",0.044405973073757
"eta2","~~","x2",-0.109908757253308
"eta2","~~","x10",0.00191922824567964
"x6","~~","x2",-0.0225127433458454
"x6","~~","x10",-0.00341191625467342
"x2","~~","x10",-0.0115846886517271
"x7","~~","x7",1.62886200332611
"x7","~~","x4",0.00874740192946967
"x4","~~","x4",1.62292863199776
