"lhs","op","rhs","est"
"eta1","=~","y2",-0.444009763931758
"eta2","=~","y4",0.505897683644779
"eta2","=~","y5",-1.09709098180439
"x10","~","x1",0.0547452239498413
"x10","~","x4",-1.07817075128894
"x6","~","x10",-0.179787158513331
"x9","~","x2",-0.364266251705242
"x9","~","x6",0.622834265768515
"x8","~","x9",-0.688583551644709
"x5","~","x10",0.662331675891266
"x5","~","x3",-0.332135707216388
"x1","~","x6",0.391345881385388
"eta1","~","x6",0.562366742775036
"x7","~","x10",-0.679213126009413
"eta2","~","x4",-1.15774574146839
"y1","~~","y1",0.844548052000216
"y2","~~","y2",0.10171118116641
"y3","~~","y3",1.00331311052192
"y4","~~","y4",0.339597062051611
"y5","~~","y5",1.13362316381137
"x10","~~","x10",1.25764028467895
"x6","~~","x6",0.0276320201548119
"x9","~~","x9",0.615711318958175
"x8","~~","x8",0.909697847920027
"x5","~~","x5",0.633371285743315
"x1","~~","x1",0.116653195322231
"x7","~~","x7",0.514815595589533
"eta1","~~","eta1",0.222221189044639
"eta2","~~","eta2",1.03980232619298
"eta1","~~","eta2",-0.0253341697757165
"eta1","~~","x8",0.037559828565698
"eta1","~~","x5",0.0131181796982631
"eta1","~~","x7",0.000435383635626803
"eta2","~~","x8",0.0337662344991043
"eta2","~~","x5",0.0258660192651178
"eta2","~~","x7",0.00639333126834133
"x8","~~","x5",-0.0632413905182231
"x8","~~","x7",0.0501211761121593
"x5","~~","x7",0.0226186618948348
"x4","~~","x4",1.70293329581768
"x4","~~","x2",-0.0190494917975383
"x4","~~","x3",-0.124441918341367
"x2","~~","x2",1.5976914067357
"x2","~~","x3",-0.0296920592937598
"x3","~~","x3",1.77511411769643
