"lhs","op","rhs","est"
"eta1","=~","y2",0.92597322215565
"eta1","=~","y3",-0.767255119795861
"eta2","=~","y5",-0.265633826339312
"eta2","=~","y6",0.607690033320443
"x10","~","x2",-0.418074510061853
"x10","~","x5",-0.193673554806929
"x5","~","eta1",-0.402157091323285
"x5","~","x9",0.224753474854469
"x1","~","x5",-0.156180365073667
"x4","~","x1",0.591102222528684
"x6","~","eta2",0.636050388791912
"x6","~","x5",0.428371660470162
"x7","~","x5",0.685910090829668
"x9","~","x7",0.826509090009065
"x8","~","x2",0.156576473222998
"x3","~","x8",1.05488167931449
"y1","~~","y1",1.01774583900073
"y2","~~","y2",0.982527246201787
"y3","~~","y3",0.734594647890288
"y4","~~","y4",0.962662026709844
"y5","~~","y5",0.0944018603567496
"y6","~~","y6",0.279379362795117
"x10","~~","x10",0.236545575602549
"x5","~~","x5",0.253551476872683
"x1","~~","x1",0.087693266428449
"x4","~~","x4",0.214654451383833
"x6","~~","x6",1.19677416630681
"x7","~~","x7",0.396620139205344
"x9","~~","x9",0.850195275020661
"x8","~~","x8",0.0293379741323625
"x3","~~","x3",0.86524555917665
"eta1","~~","eta1",1.57234431455405
"eta2","~~","eta2",1.69998516280518
"eta1","~~","eta2",-0.0682143971763159
"x10","~~","x4",0.00167576552551692
"x10","~~","x6",0.0100951756362475
"x10","~~","x3",0.0302603474711389
"x4","~~","x6",0.0150800820929162
"x4","~~","x3",0.0394864064820066
"x6","~~","x3",-0.144713657935774
"x2","~~","x2",1.55003562765681
