lhs,op,rhs,est
eta2,~,x2,0.5377311304875707
eta2,~,x7,-0.8290045759103941
eta2,~,x9,-0.9679059057338059
x1,~,eta1,-0.8220988548345219
x3,~,eta2,-0.2546548680362803
x3,~,x8,0.6221744464343675
x3,~,x6,0.3238417663298414
x4,~,eta2,0.1812271658916449
x5,~,x8,-0.23526352298439518
x8,~,x1,0.9560557628593938
x8,~,x10,0.1205752011109309
eta1,=~,y2,0.7246028598365042
eta1,=~,y3,-0.8471317626251169
eta2,=~,y5,-1.0720141625514013
eta1,~~,eta1,1.4722043215394802
eta2,~~,eta2,2.1914973854776254
x1,~~,x1,0.5858457721668391
x3,~~,x3,0.640491893472611
x3,~~,x4,0.1327820097366569
x3,~~,x5,0.006304002592118073
x4,~~,x4,0.13801295160701496
x4,~~,x5,-0.009864735070375137
x5,~~,x5,0.10707780939906127
x8,~~,x8,0.8489262264539043
y1,~~,y1,0.8489547740823837
y2,~~,y2,0.3934860224091697
y3,~~,y3,0.6477625934882674
y4,~~,y4,3.006810597735029
y5,~~,y5,2.42669470298414
