lhs,op,rhs,est
eta2,~,eta1,-0.2666751988029212
x1,~,eta1,-0.6326523093821916
x1,~,x4,1.0285849644281289
x1,~,x7,-0.5936089172749146
x10,~,x2,-0.12074377878518912
x2,~,x4,-0.13365673380662135
x3,~,x2,-0.37199156510018444
x3,~,x8,0.9632204928201833
x5,~,x4,0.6583296603667441
x5,~,x9,0.18152123830328645
x6,~,x10,0.550453257390578
eta1,=~,y2,-0.09075133651108626
eta2,=~,y4,0.9323406880558024
eta2,=~,y5,0.27020900427628086
eta1,~~,eta1,1.637077972673282
eta2,~~,eta2,0.05676105445667232
eta2,~~,x1,0.019025791193050024
eta2,~~,x3,-0.05596002534237087
eta2,~~,x5,-0.0076419665159879226
eta2,~~,x6,0.0175567602801285
x1,~~,x1,1.9114827626135373
x1,~~,x3,-0.053685802668142414
x1,~~,x5,-0.008725261628445708
x1,~~,x6,-0.014080290073323894
x10,~~,x10,0.00908790933789836
x2,~~,x2,0.01973497355137531
x3,~~,x3,1.253966441301979
x3,~~,x5,0.07190274671008277
x3,~~,x6,-0.003432103596870944
x5,~~,x5,0.4683744044804668
x5,~~,x6,-0.038851314146237305
x6,~~,x6,0.16976632993926236
y1,~~,y1,0.7691745459886747
y2,~~,y2,0.011959973851653878
y3,~~,y3,0.8781072718369246
y4,~~,y4,0.8089400177786623
y5,~~,y5,0.08563995254691631
