lhs,op,rhs,est
x1,~,x2,-0.8016739923234335
x1,~,x3,-0.24401114266178167
x1,~,x6,-0.19761074684704982
x2,~,x10,0.2832964967031676
x3,~,eta1,-0.48024018603079227
x3,~,eta2,-0.6068553852732896
x5,~,x3,0.24685173357118148
x6,~,x4,-0.6973844972495589
x7,~,x10,-0.478129177857623
x8,~,x5,-0.7713159207951227
x9,~,x1,0.19322465099862474
eta1,=~,y2,0.8114690480373968
eta2,=~,y4,-0.6150717741967175
eta2,=~,y5,0.6687531510270135
eta1,~~,eta1,1.3294042894322553
eta1,~~,eta2,0.2896734009185981
eta2,~~,eta2,1.4754985800914058
x1,~~,x1,1.210816741602556
x2,~~,x2,0.08511024467963488
x3,~~,x3,0.5160012747554861
x5,~~,x5,0.16471907328195515
x6,~~,x6,0.42766391798810616
x7,~~,x7,0.24672897721340759
x7,~~,x8,-0.011745423989269707
x7,~~,x9,0.004636919554146254
x8,~~,x8,0.5739914365316106
x8,~~,x9,-0.009340586631278005
x9,~~,x9,0.08172612375218981
y1,~~,y1,0.9870241158337187
y2,~~,y2,0.47216777437489205
y3,~~,y3,0.9158229120857333
y4,~~,y4,0.41616550627278037
y5,~~,y5,0.39213816748603364
