lhs,op,rhs,est
eta1,~,x6,-0.22684515318070278
eta2,~,x3,-0.14614544597672333
x1,~,x7,0.20133649584796381
x10,~,x7,0.1323038274611954
x4,~,x5,0.6363692169885794
x4,~,x8,0.3935352870067983
x5,~,x2,-0.15591192960645697
x6,~,x4,-0.674172893434892
x6,~,x3,0.6487901169765022
x7,~,x3,-0.4402038619367747
x9,~,x6,-1.0762531851704706
eta1,=~,y2,0.43098739586961327
eta1,=~,y3,1.3061902307068267
eta2,=~,y5,0.6789777103250575
eta1,~~,eta1,0.16657588233107878
eta1,~~,eta2,-0.0321792801049027
eta1,~~,x1,0.007156072514180036
eta1,~~,x10,0.008397885251500599
eta1,~~,x9,-0.028482264364532783
eta2,~~,eta2,0.028059275041598702
eta2,~~,x1,-0.0018649272036349125
eta2,~~,x10,0.00267326719939941
eta2,~~,x9,-0.02718481964667892
x1,~~,x1,0.038472545760535846
x1,~~,x10,4.233680904397015e-05
x1,~~,x9,-0.007804703771178657
x10,~~,x10,0.022212267696641558
x10,~~,x9,-0.017047549493062076
x4,~~,x4,0.694570526777913
x5,~~,x5,0.01943233180303304
x6,~~,x6,1.5458888023559652
x7,~~,x7,0.19966369672382386
x9,~~,x9,2.1191285848805133
y1,~~,y1,2.0037020321377863
y2,~~,y2,0.2891234035291524
y3,~~,y3,1.5748799665111823
y4,~~,y4,0.9100592575467187
y5,~~,y5,0.6038099894483644
