lhs,op,rhs,est
eta1,~,x7,0.07303942847829953
eta2,~,x10,0.34783358053879404
eta2,~,x3,1.088945537547662
x1,~,x6,-0.7814002691928155
x10,~,x5,-0.15066283283217669
x2,~,x8,0.6780236736876
x4,~,x10,0.46391386359121883
x7,~,x1,0.9780083903972535
x7,~,x2,0.8439542097322985
x7,~,x5,-0.27342965017627563
x7,~,x9,-0.45904897930040567
eta1,=~,y2,-0.4624134878940112
eta1,=~,y3,-0.9683350331963099
eta2,=~,y5,-0.669803602040467
eta1,~~,eta1,0.04300656242665626
eta1,~~,eta2,-0.005733717902203366
eta1,~~,x4,-0.013251599977622175
eta2,~~,eta2,1.0573332279332044
eta2,~~,x4,0.005702525909860486
x1,~~,x1,0.6227223006994594
x10,~~,x10,0.021088330902394526
x2,~~,x2,0.3491451395093467
x4,~~,x4,0.2282497125974741
x7,~~,x7,2.0272207928771766
y1,~~,y1,1.8613392718012685
y2,~~,y2,0.09856546688027666
y3,~~,y3,0.544038791665703
y4,~~,y4,2.1185495513936243
y5,~~,y5,0.9267134385398624
