lhs,op,rhs,est
eta1,~,x9,0.25760662150778585
eta2,~,x9,0.6887772321296975
x1,~,x3,-0.7754783849200941
x10,~,eta2,-0.30331640173609714
x2,~,x6,0.9157522262327528
x3,~,x8,-0.43256445074901184
x4,~,x2,0.3447943311088497
x5,~,eta1,0.5219152515436177
x7,~,x4,-0.6984220337567212
x8,~,x9,-0.3861473986450128
x9,~,x2,-0.48361289564744525
eta1,=~,y2,-1.2811026376400623
eta2,=~,y4,0.7343381749426389
eta1,~~,eta1,0.06994606690795496
eta2,~~,eta2,0.5165692440833342
x1,~~,x1,0.5203004365590552
x1,~~,x10,0.008661688481783518
x1,~~,x5,0.009554539039891362
x1,~~,x7,-0.006360932963409321
x10,~~,x10,0.10697526877837119
x10,~~,x5,-0.0029422001366855343
x10,~~,x7,-0.0011964458821215377
x2,~~,x2,0.8453328532627695
x3,~~,x3,0.17120335745636003
x4,~~,x4,0.14137378190099156
x5,~~,x5,0.22206204442865252
x5,~~,x7,0.016377061762850614
x7,~~,x7,0.43762439480620013
x8,~~,x8,0.15193333467505377
x9,~~,x9,0.24213157446413086
y1,~~,y1,1.0676031416942806
y2,~~,y2,0.5235038699690038
y3,~~,y3,0.8400622511697792
y4,~~,y4,0.6613150992858763
