lhs,op,rhs,est
x1,~,eta2,-0.5924891723763516
x1,~,x3,0.27022657384580434
x1,~,x5,0.3295903101604806
x1,~,x7,-0.5170409031588556
x10,~,x1,0.020603410957356554
x10,~,x9,0.8450695403024304
x3,~,eta1,0.16095924130619274
x4,~,eta1,0.7410030204121417
x4,~,x2,-0.2156216974972802
x6,~,x3,0.3691341596704199
x8,~,x3,-0.7421429471264587
eta1,=~,y2,-0.8287978541481921
eta1,=~,y3,-0.9790270169222651
eta2,=~,y5,0.3804016986415489
eta1,~~,eta1,1.3739170468458073
eta1,~~,eta2,0.0994008819985126
eta2,~~,eta2,1.7410072880312533
x1,~~,x1,0.8039805959315449
x10,~~,x10,0.9894753163616588
x10,~~,x4,0.05216783944542869
x10,~~,x6,0.004168449654530769
x10,~~,x8,0.03552357403304765
x3,~~,x3,0.023901314468897258
x4,~~,x4,0.6110672731321017
x4,~~,x6,-0.0060745155654444655
x4,~~,x8,-0.002281289128952743
x6,~~,x6,0.17761892235678833
x6,~~,x8,-0.006697245734529149
x8,~~,x8,0.305778840001133
y1,~~,y1,0.8423772159388796
y2,~~,y2,0.6063293153578523
y3,~~,y3,0.7126649292349274
y4,~~,y4,0.8268162420261568
y5,~~,y5,0.11848929208314439
