lhs,op,rhs,est
eta1,~,x2,-0.6152242581596563
x3,~,eta1,-1.1430892983238916
x3,~,eta2,-0.5023458470977649
x4,~,x3,-0.3187424125116729
x4,~,x1,1.023350195654846
x5,~,x3,-0.13075576630086366
eta1,=~,y2,-0.36520239108365077
eta2,=~,y4,0.25744235610604377
eta1,~~,eta1,0.4289126827391768
eta2,~~,eta2,1.127748136637923
x3,~~,x3,1.2707071082349826
x4,~~,x4,1.2042736667127156
x4,~~,x5,0.011493235128860956
x5,~~,x5,0.03210578907247393
y1,~~,y1,0.8862418703882307
y2,~~,y2,0.1198088809560943
y3,~~,y3,0.8707955424497357
y4,~~,y4,0.09196032472774965
