lhs,op,rhs,est
eta1,~,x3,0.2575086179773734
x2,~,eta2,-0.1869819032218499
x2,~,x5,0.9449720458249539
x2,~,x1,0.33673551230313287
x4,~,x1,0.4641222412342354
x5,~,eta1,1.1284122404360395
eta1,=~,y2,0.3674721407415285
eta2,=~,y4,-0.42651357877566964
eta2,=~,y5,-0.8386073723228653
eta1,~~,eta1,0.07473083375142406
eta2,~~,eta2,1.4762029225935223
x2,~~,x2,0.9494375733217426
x2,~~,x4,-0.008059356641700833
x4,~~,x4,0.22041047184249105
x5,~~,x5,0.6282428385386295
y1,~~,y1,0.9344246995832121
y2,~~,y2,0.07490140607987916
y3,~~,y3,0.9880152017718378
y4,~~,y4,0.18887262898576654
y5,~~,y5,0.4777941994331151
