lhs,op,rhs,est
eta1,~,x1,0.3901692411940676
eta2,~,x3,0.33605289106297404
x2,~,eta1,0.2883971230199399
x3,~,x2,-0.5199441806367872
x4,~,x3,-1.1441671191793714
x5,~,x1,-0.34718976344912766
eta1,=~,y2,0.5233527285938482
eta2,=~,y4,-0.3906962827526438
eta2,=~,y5,0.48478852089484975
eta1,~~,eta1,0.09692066720661012
eta2,~~,eta2,0.1363394972536702
eta2,~~,x4,-0.010916568854710295
eta2,~~,x5,-0.011087683889348126
x2,~~,x2,0.18383769471063044
x3,~~,x3,0.2433773754081916
x4,~~,x4,0.9815874880362494
x4,~~,x5,0.019707766195519557
x5,~~,x5,0.10402318482590131
y1,~~,y1,0.9884489012464436
y2,~~,y2,0.36203687548741514
y3,~~,y3,0.9375029401748267
y4,~~,y4,0.08015115703248195
y5,~~,y5,0.2897960955604895
