"lhs","op","rhs","est"
"eta1","=~","y2",-0.914744373940047
"eta1","=~","y3",0.820151422858463
"x7","~","eta1",0.170652026263044
"x7","~","x5",0.449444479297476
"x7","~","x6",0.216017705947745
"x3","~","x4",0.45673016966873
"x3","~","x7",-0.0105080586997065
"x3","~","x8",-0.873920156505736
"x1","~","x3",-0.0150095138498505
"x10","~","x1",0.699584593891992
"x2","~","x10",0.792358889629501
"x5","~","x3",-0.766551642741056
"x5","~","x9",0.93398838420591
"y1","~~","y1",1.0447452947054
"y2","~~","y2",0.960339702241707
"y3","~~","y3",0.826528271975766
"x7","~~","x7",1.11524160602597
"x3","~~","x3",1.12928669117699
"x1","~~","x1",0.369514257354125
"x10","~~","x10",1.04033261513024
"x2","~~","x2",1.24307881848145
"x5","~~","x5",3.10871020607695
"eta1","~~","eta1",1.57387129560967
"x6","~~","x6",1.60044651109318
"x6","~~","x4",0.156297029355629
"x6","~~","x8",-0.10864447995614
"x6","~~","x9",-0.103761876540647
"x4","~~","x4",1.60009639117343
"x4","~~","x8",0.0132829800557545
"x4","~~","x9",0.0635554469476736
"x8","~~","x8",1.75754297414972
"x8","~~","x9",0.15428871047638
"x9","~~","x9",1.69876825573129
