"lhs","op","rhs","est"
"eta1","=~","y2",-0.228176304640771
"x2","~","x3",0.74051047624202
"x2","~","x4",0.148273923908713
"x1","~","x2",-0.443966092535992
"x4","~","x1",1.113101079241
"x10","~","x4",-0.728608517448363
"x10","~","x6",-1.18396985314628
"x6","~","x9",-0.561283810087726
"eta1","~","x2",1.07669124644428
"eta1","~","x5",0.247275533680533
"x8","~","eta1",0.788852395198291
"x7","~","x9",-0.111122806704295
"y1","~~","y1",1.93893975662761
"y2","~~","y2",0.126900896922609
"x2","~~","x2",0.550125081535811
"x1","~~","x1",0.237019799665891
"x4","~~","x4",1.15150489776108
"x10","~~","x10",1.51168548905931
"x6","~~","x6",0.281296210272907
"x8","~~","x8",1.20674066293243
"x7","~~","x7",0.0111340029177604
"eta1","~~","eta1",0.824195716329934
"x10","~~","x8",0.162595195386513
"x10","~~","x7",0.00464450727951599
"x8","~~","x7",-0.00828016452639972
"x3","~~","x3",1.58642782444398
"x3","~~","x9",-0.0472746026928594
"x3","~~","x5",-0.0235707677362534
"x9","~~","x9",1.62889180365006
"x9","~~","x5",0.0230872857031562
"x5","~~","x5",1.76336069980903
