"lhs","op","rhs","est"
"eta1","=~","y2",0.402107075704994
"x8","~","x10",-0.181786410437199
"x8","~","x3",0.216318694005099
"x9","~","x1",0.86194185561719
"x9","~","x8",-0.602095510477633
"x3","~","x9",0.126503858198384
"x4","~","x10",0.565269048137015
"x4","~","x2",0.315859483830791
"x4","~","x6",1.04342541202029
"eta1","~","x10",0.17318778977864
"eta1","~","x7",0.807772733852076
"x7","~","x5",0.465802400502348
"y1","~~","y1",1.79644536952163
"y2","~~","y2",0.269529311166622
"x8","~~","x8",0.0944235767504931
"x9","~~","x9",1.01307686567032
"x3","~~","x3",0.612417770630983
"x4","~~","x4",1.41480387880955
"x7","~~","x7",0.214340236028879
"eta1","~~","eta1",0.459750546243848
"eta1","~~","x4",-0.130410167396699
"x10","~~","x10",1.64840659631655
"x10","~~","x1",-0.106502488829404
"x10","~~","x2",0.0390901887831639
"x10","~~","x6",-0.0348214448318329
"x10","~~","x5",0.00722760251724676
"x1","~~","x1",1.66185691570371
"x1","~~","x2",0.0758533742829399
"x1","~~","x6",0.0913634287415169
"x1","~~","x5",0.0726147035379123
"x2","~~","x2",1.64508960095214
"x2","~~","x6",-0.0998045731455307
"x2","~~","x5",-0.148290682031675
"x6","~~","x6",1.72506229075955
"x6","~~","x5",0.146786056226872
"x5","~~","x5",1.67861509660554
