"lhs","op","rhs","est"
"eta1","=~","y2",0.593187178338788
"x7","~","eta1",-0.933488945030627
"x7","~","x2",-0.989947124858939
"x7","~","x4",0.306356339547566
"x9","~","x3",-0.155718907120355
"x9","~","x6",-0.241944607172254
"x9","~","x7",-0.0276697853477326
"eta1","~","x9",0.284539324646666
"x3","~","x1",-0.975891870346077
"x6","~","x8",0.308384151776485
"x10","~","x2",-0.143160637939019
"x5","~","x6",0.616180375897868
"y1","~~","y1",2.05810366954558
"y2","~~","y2",0.258590764513061
"x7","~~","x7",1.55518525915697
"x9","~~","x9",0.382228697996922
"x3","~~","x3",1.01201749095161
"x6","~~","x6",0.088165827552611
"x10","~~","x10",0.0183225616813184
"x5","~~","x5",0.387461249358457
"eta1","~~","eta1",0.289179077136866
"x10","~~","x5",0.000676636913309112
"x2","~~","x2",1.61988439645885
"x2","~~","x4",0.0407844750232868
"x2","~~","x1",0.0224010861166518
"x2","~~","x8",-0.0396627267131255
"x4","~~","x4",1.68461765196042
"x4","~~","x1",-0.0198661277257798
"x4","~~","x8",0.13071127304599
"x1","~~","x1",1.62925813153044
"x1","~~","x8",-0.00532696908772246
"x8","~~","x8",1.61135184299456
