"lhs","op","rhs","est"
"eta1","=~","y2",1.03547344791992
"x8","~","x3",1.89966971172484
"x8","~","x6",-2.47611375396381
"x5","~","x7",-0.0890404071233933
"x5","~","x8",-0.778462644711541
"x4","~","x1",0.268650593987416
"x4","~","x5",-0.742333637330074
"x9","~","x3",-0.413770296818367
"eta1","~","x3",0.707443280250254
"x6","~","x5",-0.274444173946482
"x10","~","x1",0.441866964776136
"x2","~","x3",-0.259713181789705
"y1","~~","y1",1.19446779138086
"y2","~~","y2",1.16289913157709
"x8","~~","x8",5.43923440936306
"x5","~~","x5",1.34947199277133
"x4","~~","x4",0.795669965509317
"x9","~~","x9",0.17091059632359
"x6","~~","x6",0.0489230965666129
"x10","~~","x10",0.199405046776933
"x2","~~","x2",0.0742858025943131
"eta1","~~","eta1",0.305098655640033
"eta1","~~","x4",-0.0122757999459043
"eta1","~~","x9",-0.000864860203238352
"eta1","~~","x10",0.038240174358547
"eta1","~~","x2",-0.00559430317635312
"x4","~~","x9",-0.0216028290160976
"x4","~~","x10",0.0471998459684623
"x4","~~","x2",-0.0201292989727573
"x9","~~","x10",-0.0582924583737479
"x9","~~","x2",0.0074351775669799
"x10","~~","x2",-0.0204475460429502
"x3","~~","x3",1.71513382618735
"x3","~~","x7",0.237017095771601
"x3","~~","x1",-0.0410195753441132
"x7","~~","x7",1.69569672361011
"x7","~~","x1",-0.12782175964935
"x1","~~","x1",1.7891728012478
