"lhs","op","rhs","est"
"eta1","=~","y2",0.602236924520589
"eta1","=~","y3",-0.315375630838625
"x1","~","x5",-0.232401207096655
"x1","~","x6",0.616634101057193
"x2","~","x1",-0.0457286845870298
"x7","~","x2",0.00284363251608571
"x9","~","x7",-920.63604096987
"x10","~","eta1",-0.984934613916786
"x10","~","x9",-1.24748285281929
"x6","~","x10",0.355653849874228
"x8","~","eta1",-0.240644356059518
"x4","~","x10",-0.238222395944945
"x3","~","x7",-1.34233411289319
"y1","~~","y1",0.906491028426932
"y2","~~","y2",0.370600487643192
"y3","~~","y3",0.0960161165077331
"x1","~~","x1",0.55654296857626
"x2","~~","x2",0.0177204997934866
"x7","~~","x7",1.2485942321647e-05
"x9","~~","x9",-10.1908697175404
"x10","~~","x10",1.6051706613377
"x6","~~","x6",0.228798827123157
"x8","~~","x8",0.0617485686917195
"x4","~~","x4",0.115927158384451
"x3","~~","x3",0.0171347404852436
"eta1","~~","eta1",1.55987969077135
"x8","~~","x4",0.00430027048523944
"x8","~~","x3",-0.00354276839997807
"x4","~~","x3",0.00259474266660282
"x5","~~","x5",1.72430423484912
