"lhs","op","rhs","est"
"eta1","=~","y2",-0.331363590722782
"eta1","=~","y3",-0.806934522830646
"eta2","=~","y5",-0.55987652561316
"eta2","=~","y6",-0.34320592914288
"x4","~","eta1",0.72376527400582
"x4","~","x1",0.245982532385192
"x4","~","x3",-0.305018103112454
"x5","~","x4",0.0228398084677781
"eta2","~","x5",1.21240450258312
"x2","~","x3",-0.127789976250715
"y1","~~","y1",1.135205832524
"y2","~~","y2",0.101031876061449
"y3","~~","y3",0.39323188994332
"y4","~~","y4",1.09308066990828
"y5","~~","y5",0.228978333905183
"y6","~~","y6",0.119170251884057
"x4","~~","x4",0.617897651950861
"x5","~~","x5",0.0164646307147264
"x2","~~","x2",0.0143335648511129
"eta1","~~","eta1",1.24748791865481
"eta2","~~","eta2",0.43692188432698
"eta2","~~","x2",0.00112307524834726
"x1","~~","x1",1.56274526186367
"x1","~~","x3",-0.106374903000899
"x3","~~","x3",1.68597681996607
