"lhs","op","rhs","est"
"eta1","=~","y2",0.192370758842403
"eta1","=~","y3",-0.567396927038578
"eta2","=~","y5",-0.416241167649348
"eta2","=~","y6",-0.0950147408638827
"eta1","~","x4",-0.833755669470409
"eta2","~","eta1",-0.52703072114037
"eta2","~","x5",-0.283160090760155
"x3","~","eta2",-0.350732628104072
"x2","~","x5",-0.387643397660153
"x1","~","eta1",0.279227030957803
"y1","~~","y1",0.722053928194598
"y2","~~","y2",0.0433877369437747
"y3","~~","y3",0.403779373831916
"y4","~~","y4",1.98549061383922
"y5","~~","y5",0.399263049964178
"y6","~~","y6",0.0138682914652689
"x3","~~","x3",0.186920477334443
"x2","~~","x2",0.12447781307018
"x1","~~","x1",0.091388231260726
"eta1","~~","eta1",0.716754441581995
"eta2","~~","eta2",0.185709372894725
"x3","~~","x2",0.0476670243060769
"x3","~~","x1",0.0149241602125717
"x2","~~","x1",-0.0213192955328883
"x4","~~","x4",1.77773431249192
"x4","~~","x5",-0.09376459452828
"x5","~~","x5",1.71607292632028
