"lhs","op","rhs","est"
"eta1","=~","y2",0.446896832184291
"eta2","=~","y4",0.328329793591799
"x3","~","eta1",-0.521859948403999
"x3","~","x1",-0.0905114157179584
"eta2","~","x1",0.82535314070781
"x4","~","eta2",-0.730653501966756
"x5","~","eta2",0.151734484322851
"x2","~","eta1",-0.643298715187934
"y1","~~","y1",0.959658947908889
"y2","~~","y2",0.166028088475368
"y3","~~","y3",1.02401553722243
"y4","~~","y4",0.105010217328295
"x3","~~","x3",0.369115857626215
"x4","~~","x4",0.40348244892119
"x5","~~","x5",0.0242922779648368
"x2","~~","x2",0.53339563455274
"eta1","~~","eta1",1.54040535328489
"eta2","~~","eta2",0.682022979333457
"x3","~~","x4",0.0387299351516902
"x3","~~","x5",-0.00775578954340061
"x3","~~","x2",0.0567179268130021
"x4","~~","x5",0.00840921676912203
"x4","~~","x2",0.0409361470021916
"x5","~~","x2",0.00267190248507533
"x1","~~","x1",1.7207499830967
