"lhs","op","rhs","est"
"eta1","=~","y2",-0.316143815321548
"eta1","=~","y3",-0.307677068621432
"eta2","=~","y5",-0.179424559554487
"eta2","~","x3",0.626151539472099
"eta1","~","eta2",-0.549111818510346
"x2","~","eta1",-0.476450348972963
"x1","~","eta2",-0.381106498606757
"x1","~","x4",-0.443701282928586
"x5","~","x3",-0.589888106096177
"y1","~~","y1",0.905149837117948
"y2","~~","y2",0.08032709196982
"y3","~~","y3",0.0962336919542176
"y4","~~","y4",1.14495008229004
"y5","~~","y5",0.0367569663606613
"x2","~~","x2",0.259360805420675
"x1","~~","x1",0.353588428881142
"x5","~~","x5",0.360482253204133
"eta1","~~","eta1",0.338864998129824
"eta2","~~","eta2",0.307603176852492
"x2","~~","x1",-0.0139371747366225
"x2","~~","x5",0.0178183134282798
"x1","~~","x5",-0.0282026117578172
"x3","~~","x3",1.71257726966249
"x3","~~","x4",0.0363086331898803
"x4","~~","x4",1.72763915096197
