"lhs","op","rhs","est"
"eta1","=~","y2",0.30976886666174
"eta1","=~","y3",-0.32166162356911
"eta2","=~","y5",0.168961500786432
"eta2","=~","y6",1.17167901755204
"x3","~","x1",0.300155296768597
"x3","~","x2",-0.402053442105507
"x3","~","x4",0.127667119745398
"x5","~","x3",0.33237353474376
"eta1","~","x5",0.308252980899543
"eta2","~","x4",0.11108398066685
"y1","~~","y1",2.09624635627598
"y2","~~","y2",0.376970949512704
"y3","~~","y3",0.402157296480667
"y4","~~","y4",0.996844185139971
"y5","~~","y5",0.0521163181196578
"y6","~~","y6",0.627064272295201
"x3","~~","x3",0.242849708107273
"x5","~~","x5",0.91829635445186
"eta1","~~","eta1",0.102852186065402
"eta2","~~","eta2",-0.0162489348222576
"eta1","~~","eta2",0.0107035496906106
"x1","~~","x1",1.64025526315436
"x1","~~","x2",0.0622712313457444
"x1","~~","x4",0.0762012401770961
"x2","~~","x2",1.50389140064723
"x2","~~","x4",-0.0838051350858307
"x4","~~","x4",1.55816488632123
