"lhs","op","rhs","est"
"eta1","=~","y2",0.43637131912565
"eta2","=~","y4",0.494250964563621
"x5","~","eta1",0.246893074989392
"x3","~","eta2",-0.273364234098218
"x3","~","x5",0.629004332620663
"x4","~","x3",-0.119931075906265
"x1","~","x4",-0.200969830706006
"x2","~","x1",-0.118031581197885
"y1","~~","y1",1.25059417845431
"y2","~~","y2",0.0782401725988137
"y3","~~","y3",0.427696522816298
"y4","~~","y4",0.704782326594067
"x5","~~","x5",0.0571180888151599
"x3","~~","x3",0.576463777198905
"x4","~~","x4",0.108730154223822
"x1","~~","x1",0.0730776771071682
"x2","~~","x2",0.0207845233806151
"eta1","~~","eta1",1.48897051267328
"eta2","~~","eta2",2.24464235912206
"eta1","~~","eta2",-0.108715688309768
