lhs,op,rhs,est
eta2,~,eta1,0.3595245660581055
eta3,~,x6,-0.5014292689533671
x1,~,eta4,1.039370593360755
x10,~,eta1,-0.8817232021798689
x4,~,x1,-0.7026187841785562
x5,~,x6,0.630956777812363
x6,~,x10,-0.5120629378618644
x6,~,x3,0.30090933593027525
x7,~,eta1,0.22424618551967052
x8,~,x6,0.9959329925516048
x9,~,eta3,0.5599751434521074
x9,~,x1,0.7251324976240682
x9,~,x2,0.42998377099969937
eta1,=~,y2,-0.32511482594533153
eta1,=~,y3,0.1283738996714676
eta2,=~,y6,-0.4120213203894666
eta2,=~,y7,-0.6698785680131135
eta3,=~,y8,0.41719877254693627
eta4,=~,y9,-0.3027886760417611
eta1,~~,eta1,1.7821022412747631
eta1,~~,eta4,0.14671568671455112
eta2,~~,eta2,0.11158437016787082
eta2,~~,x4,0.008387138514830528
eta2,~~,x5,0.04623648951784939
eta2,~~,x7,-0.004914091775585978
eta2,~~,x8,-0.05367092372558603
eta2,~~,x9,-0.09715161501755462
eta3,~~,eta3,0.5233635276346533
eta4,~~,eta4,1.4801945245020791
x1,~~,x1,0.8311167366679929
x10,~~,x10,0.7987930894005522
x4,~~,x4,0.5093784457857446
x4,~~,x5,0.0008938527799180084
x4,~~,x7,-0.0036225786045357175
x4,~~,x8,-0.012657219887773168
x4,~~,x9,-0.00793590410710583
x5,~~,x5,0.7715984267974226
x5,~~,x7,-0.002411144230437129
x5,~~,x8,-0.03925764637526784
x5,~~,x9,-0.0010244871818516452
x6,~~,x6,0.3665433194947893
x7,~~,x7,0.05504530647024787
x7,~~,x8,0.015038698492309
x7,~~,x9,-0.01678249441221046
x8,~~,x8,1.918114862565729
x8,~~,x9,-0.0439380293728027
x9,~~,x9,1.0305838124671658
y1,~~,y1,0.919740695347632
y10,~~,y10,1.0006241024020452
y2,~~,y2,0.10858966056306263
y3,~~,y3,0.0166170256674656
y4,~~,y4,1.0449359088983377
y6,~~,y6,0.11370695990221635
y7,~~,y7,1.3350605332723084
y8,~~,y8,0.13392484340663388
y9,~~,y9,0.09131982761860141
