lhs,op,rhs,est
eta1,~,x7,0.05524524318149335
eta2,~,x6,-0.13538553175807888
eta3,~,x9,0.7483419221026311
x1,~,x10,-0.17378009610770004
x1,~,x8,0.8141151211636379
x2,~,eta3,-0.8474150295900205
x2,~,x1,-0.04085987604491986
x3,~,x9,0.3194446173638232
x4,~,x6,-0.6395895027814311
x5,~,eta3,0.615375692997747
x6,~,x10,-0.2969028095005785
x7,~,eta4,0.6388845387081403
x7,~,x6,-0.09562172609146669
eta1,=~,y2,0.5270498770847512
eta2,=~,y4,-0.1021802573973625
eta2,=~,y5,-0.0052207890206342495
eta3,=~,y8,-0.4117281844792122
eta3,=~,y9,-0.5795904192987597
eta4,=~,y9,0.386819626686645
eta1,~~,eta1,0.3434633323391232
eta1,~~,eta2,-0.02660009980713002
eta1,~~,x2,0.0022620977830759745
eta1,~~,x3,-0.020328248828542554
eta1,~~,x4,-0.014567722132614204
eta1,~~,x5,0.0040817272494478975
eta2,~~,eta2,0.5492018779639817
eta2,~~,x2,-0.08080282285650264
eta2,~~,x3,-0.028788487487736186
eta2,~~,x4,-0.04943743315062546
eta2,~~,x5,-0.038802919546723165
eta3,~~,eta3,0.6189272350336239
eta4,~~,eta4,1.7046453181175494
x1,~~,x1,0.7381763936188912
x2,~~,x2,0.674387635756606
x2,~~,x3,0.00471801211267354
x2,~~,x4,-0.06349830599612116
x2,~~,x5,0.021962770799561885
x3,~~,x3,0.1018933185275894
x3,~~,x4,-0.006812120786092992
x3,~~,x5,0.006800421800347827
x4,~~,x4,0.4635704481367237
x4,~~,x5,-0.014792459609335049
x5,~~,x5,0.34928974828036913
x6,~~,x6,0.0976417376630754
x7,~~,x7,0.24100495223641033
y1,~~,y1,0.8977115790301826
y10,~~,y10,1.0182680032173907
y2,~~,y2,0.13967209758551383
y3,~~,y3,0.6632810684829274
y4,~~,y4,0.7117007346078703
y5,~~,y5,0.8673273476261899
y7,~~,y7,1.0357754869608926
y8,~~,y8,0.1269842451617507
y9,~~,y9,0.40995414591318113
