lhs,op,rhs,est
eta1,~,eta4,-0.05798140001016697
eta1,~,x9,-0.1155345909816527
eta3,~,eta4,0.5735177110295404
eta4,~,x6,-0.31740497107766524
x10,~,eta4,0.1381719951819827
x3,~,x1,0.26201189721840606
x4,~,x7,-0.666169780843137
x5,~,x7,0.42133284276673355
x6,~,x3,0.6185512384019409
x7,~,eta2,-0.7718333954656255
x9,~,x7,-0.45968817989052385
x9,~,x2,0.7470488794709135
x9,~,x8,0.8015671836252785
eta1,=~,y2,0.26172147478584107
eta2,=~,y4,0.3260065522231428
eta3,=~,y6,0.7351707413846434
eta3,=~,y7,0.6764694503629131
eta4,=~,y9,-1.0503648339450875
eta1,~~,eta1,2.4241773668943045
eta1,~~,eta3,-0.05823782247575087
eta1,~~,x10,-0.014357888136850697
eta1,~~,x4,-0.013413147986841355
eta1,~~,x5,0.007826744058987081
eta2,~~,eta2,1.5214463524680084
eta3,~~,eta3,0.6506424577230244
eta3,~~,x10,-0.008392687304248568
eta3,~~,x4,0.003787283555928477
eta3,~~,x5,-1.3570068082883415e-05
eta4,~~,eta4,0.12516826415057158
x10,~~,x10,0.030996218862547657
x10,~~,x4,-0.0015134110639251715
x10,~~,x5,-2.2150614639612352e-05
x3,~~,x3,0.06505478141718571
x4,~~,x4,0.44416432955056256
x4,~~,x5,-0.0047416147011222825
x5,~~,x5,0.16000670235098943
x6,~~,x6,0.39876996479909377
x7,~~,x7,0.6433185126509418
x9,~~,x9,1.396462465832443
y1,~~,y1,0.1716115445008117
y2,~~,y2,2.3545136862060714
y3,~~,y3,1.1169191882953182
y4,~~,y4,0.07223330415256085
y5,~~,y5,1.0578283384071907
y6,~~,y6,0.4166573589021236
y7,~~,y7,0.3763147943387322
y8,~~,y8,1.0388522822452317
y9,~~,y9,0.857811444266844
