lhs,op,rhs,est
eta1,~,eta3,-0.44331897837026274
eta1,~,x1,-0.20727768966288884
eta4,~,x8,0.028461518607925732
x2,~,x8,1.062622519017905
x4,~,eta2,-0.2762508405383284
x4,~,x2,0.12108783813140574
x6,~,eta4,0.3164984830119453
x6,~,x3,0.5284474417863182
x6,~,x5,-0.9324054882252986
x7,~,eta3,-0.12563244457871509
x8,~,eta1,-0.4365550457144481
x8,~,x9,-0.8013888515925031
x9,~,x10,-0.6994948668198196
eta1,=~,y2,0.8254692807226344
eta2,=~,y4,0.9417430407210966
eta3,=~,y6,-0.7773066906255608
eta4,=~,y8,0.4606563916255722
eta4,=~,y9,0.16518924010233557
eta1,~~,eta1,0.12557106525772557
eta2,~~,eta2,1.6021895577165324
eta2,~~,eta3,-0.08652282107167264
eta3,~~,eta3,1.3475637409077106
eta4,~~,eta4,0.19631218147700183
x2,~~,x2,2.233855264466767
x4,~~,x4,0.07007892729232208
x4,~~,x6,-0.0011528459283571763
x4,~~,x7,0.00039923833366080716
x6,~~,x6,1.1685107692840173
x6,~~,x7,0.004279540132619651
x7,~~,x7,0.01289250828546648
x8,~~,x8,0.7890336403329543
x9,~~,x9,0.4423675065135994
y1,~~,y1,1.8882190966637848
y2,~~,y2,1.8820947704921935
y3,~~,y3,1.1290297136181975
y4,~~,y4,0.629352534215783
y5,~~,y5,0.9842448389044731
y6,~~,y6,0.5036321308644311
y7,~~,y7,0.9009014646859156
y8,~~,y8,0.262722278270374
y9,~~,y9,0.03594176403905639
