lhs,op,rhs,est
eta1,~,x10,0.17432606124114833
eta2,~,x8,-0.3665148752972487
x1,~,eta1,-0.8214065797201024
x10,~,eta3,-1.3511166600049433
x10,~,eta4,0.4802457034502908
x10,~,x6,-0.9946535299708259
x2,~,x10,0.16517061773340322
x2,~,x5,0.18762753088504835
x2,~,x4,-0.1301459037366213
x5,~,x3,-0.9688385857109234
x5,~,x7,0.672268526449285
x8,~,x10,-0.23171833026362984
x9,~,x6,-0.1790216936274708
eta4,=~,y11,1.0029332974971652
eta1,=~,y2,-0.21103246464530095
eta1,=~,y3,0.43365824470512115
eta2,=~,y6,1.1425871914114243
eta2,=~,y8,-0.5599238400856904
eta3,=~,y8,-0.20161809964857036
eta4,=~,y9,0.1362818485086883
eta1,~~,eta1,0.32510332391934504
eta2,~~,eta2,0.08422422184243944
eta2,~~,x1,-0.008612748080979199
eta2,~~,x2,-0.05771487873135793
eta2,~~,x9,-0.0019042370878999699
eta3,~~,eta3,1.1690132645710811
eta3,~~,eta4,0.16957746952126904
eta4,~~,eta4,1.93085086334324
x1,~~,x1,0.8217909488405591
x1,~~,x2,-0.208579913531662
x1,~~,x9,0.001231954327375232
x10,~~,x10,2.0364303232218077
x2,~~,x2,1.2399252789735806
x2,~~,x9,0.018447768328160724
x5,~~,x5,1.29007694195604
x8,~~,x8,0.6854758266275978
x9,~~,x9,0.033248746081267745
y1,~~,y1,1.0095224784934178
y10,~~,y10,0.8976542755669351
y11,~~,y11,1.0338200495827163
y2,~~,y2,0.0440813544661419
y3,~~,y3,0.17812441154602793
y4,~~,y4,1.0297653030732437
y6,~~,y6,0.9502492348684625
y7,~~,y7,1.382862997091399
y8,~~,y8,0.2197068919059935
y9,~~,y9,0.019595978943717195
