lhs,op,rhs,est
eta1,~,x1,0.09251859534742507
eta2,~,x9,-0.006396296109636189
eta3,~,eta2,0.5976753279358422
eta3,~,x1,0.4858927105206179
eta4,~,eta3,-0.2502053375802488
x1,~,x5,-0.39705359777700155
x10,~,x1,0.8132565795953464
x10,~,x4,0.16004243885858938
x2,~,eta2,0.09699082806115007
x6,~,x9,-0.33148733251113166
x7,~,eta1,-0.7715157672781994
x9,~,x3,0.4814703244045039
x9,~,x8,0.22268796718172684
eta1,=~,y2,0.13711562298183924
eta1,=~,y3,-0.3635108197852228
eta2,=~,y4,0.5539837687529536
eta3,=~,y7,-0.19910762221975908
eta4,=~,y8,-0.48470501992836096
eta4,=~,y9,0.5630896550137174
eta1,~~,eta1,0.08808861842084399
eta2,~~,eta2,0.37916184084536136
eta3,~~,eta3,0.5251848451098684
eta4,~~,eta4,0.4812328887803613
eta4,~~,x10,0.03617491501034934
eta4,~~,x2,0.0031398387647401573
eta4,~~,x6,-0.008304140694308133
eta4,~~,x7,-0.00679928800524408
x1,~~,x1,0.1601708571644037
x10,~~,x10,0.5722012390213856
x10,~~,x2,-0.0010921821887036902
x10,~~,x6,-0.016464126361007535
x10,~~,x7,-0.018707551565894986
x2,~~,x2,0.010008040331661847
x2,~~,x6,1.129053241500841e-05
x2,~~,x7,-0.0033326269538214714
x6,~~,x6,0.20135020385138902
x6,~~,x7,-0.01951544721249305
x7,~~,x7,0.17041467159206158
x9,~~,x9,0.30946879649624237
y1,~~,y1,0.9568863150361373
y10,~~,y10,0.9744271949531926
y2,~~,y2,0.22123831143388686
y3,~~,y3,1.0186269810532431
y4,~~,y4,0.6183617460714639
y6,~~,y6,1.8105397758502795
y7,~~,y7,0.09658517739662167
y8,~~,y8,0.350080378512077
y9,~~,y9,0.37835120412390577
