lhs,op,rhs,est
eta1,~,eta4,-0.5351987802696542
eta1,~,x4,-0.519890998194923
eta2,~,x4,-0.3481899601305286
eta3,~,x1,0.2864957089076421
eta4,~,x3,-1.1156510862668023
x1,~,eta1,-0.21615344058152955
x10,~,x2,-0.13840351843429086
x4,~,x2,-0.48065533708733
x5,~,x4,0.4366585256777436
x7,~,x1,-0.32995869219341695
x7,~,x6,0.47260317388775847
x7,~,x9,0.47616770604952
x8,~,eta4,-0.5153548206037639
eta1,=~,y2,-0.5553005307800473
eta2,=~,y4,-1.4300533122266683
eta2,=~,y5,-0.5578455179132437
eta3,=~,y7,0.7024553294396745
eta4,=~,y9,0.3946462725558229
eta1,~~,eta1,0.9713118822742126
eta2,~~,eta2,0.18143952720234327
eta2,~~,eta3,-0.034081403839537346
eta2,~~,x10,-0.0002353980155504867
eta2,~~,x5,0.01320478596088069
eta2,~~,x7,-0.028791274404450576
eta2,~~,x8,0.007095031736867671
eta3,~~,eta3,0.08325487322060345
eta3,~~,x10,0.002512145996810962
eta3,~~,x5,0.0016501177564542946
eta3,~~,x7,-0.004181368102654941
eta3,~~,x8,-0.0049925315045508505
eta4,~~,eta4,1.0295339097342129
x1,~~,x1,1.352742525605203
x10,~~,x10,0.01763351574941779
x10,~~,x5,0.00018230887909919416
x10,~~,x7,-0.004965499948361893
x10,~~,x8,-0.0030024624685970535
x4,~~,x4,0.22212028677095652
x5,~~,x5,0.2088061988569768
x5,~~,x7,0.008597970852537648
x5,~~,x8,0.018071188852502047
x7,~~,x7,0.542079588645231
x7,~~,x8,-0.0072081586816717105
x8,~~,x8,0.2640113447431366
y1,~~,y1,1.6750424487202198
y2,~~,y2,0.5794902755864394
y3,~~,y3,1.0066965688038134
y4,~~,y4,1.1174849929276807
y5,~~,y5,0.25493359513604325
y6,~~,y6,1.0242362857354506
y7,~~,y7,0.36658045067253126
y8,~~,y8,0.9770451454848007
y9,~~,y9,0.1874789545040509
