lhs,op,rhs,est
eta3,~,x3,-0.00860003193415542
eta3,~,x10,0.17751923707477427
eta4,~,x8,0.4098958098800815
x2,~,x3,0.0032447382525857917
x3,~,eta1,0.6359469991894602
x3,~,x4,1.0484711049501563
x3,~,x1,0.18302979105274716
x4,~,x7,-0.6991498263349866
x5,~,eta2,-0.8598897584049313
x5,~,eta3,-0.287822453672388
x5,~,x8,-0.19614472857202203
x6,~,x10,-0.9601596652036202
x9,~,eta1,-0.609720438300749
eta1,=~,y2,-0.5762156937036305
eta2,=~,y4,0.468710979674759
eta3,=~,y6,-0.4938223342456773
eta3,=~,y7,-0.22341367428955547
eta4,=~,y9,-0.2476925194365455
eta1,~~,eta1,1.5904113384102345
eta1,~~,eta2,0.10763717116957962
eta2,~~,eta2,1.5337988729657228
eta3,~~,eta3,0.3556640637893589
eta4,~~,eta4,0.20178297841369347
eta4,~~,x2,0.006162305208664554
eta4,~~,x5,-0.009005824292709408
eta4,~~,x6,-0.000255039465201048
eta4,~~,x9,0.005120898635647756
x2,~~,x2,0.2764597416566455
x2,~~,x5,0.0012077488933355009
x2,~~,x6,-0.0017249791073619214
x2,~~,x9,-0.03148199334389877
x3,~~,x3,1.5899328950933442
x4,~~,x4,0.5002122788450929
x5,~~,x5,0.9306818127329689
x5,~~,x6,0.013269804100007268
x5,~~,x9,0.01068789990389756
x6,~~,x6,0.8193755445567651
x6,~~,x9,0.01880742774741486
x9,~~,x9,0.32667303208377
y1,~~,y1,0.9846302943303183
y2,~~,y2,0.2978223667006842
y3,~~,y3,0.9026701617960835
y4,~~,y4,0.22689122630299507
y5,~~,y5,1.5917149347633526
y6,~~,y6,1.113009567376395
y7,~~,y7,0.27537115558013847
y8,~~,y8,0.9059068643932063
y9,~~,y9,0.07059989614549884
