lhs,op,rhs,est
eta1,~,eta2,0.8381567773591081
eta1,~,eta3,-0.02097201707667894
eta3,~,x2,0.5812663424364444
eta3,~,x5,0.17332688207808297
x10,~,x5,-0.6555885310156161
x4,~,x1,-0.28894196148871526
x6,~,x10,0.8536827143373122
x7,~,eta4,0.2498064430358278
x7,~,x3,-0.7125411541497364
x8,~,x1,-0.11173387199918788
x9,~,x10,-0.301288837465218
x9,~,x7,0.4337419213283242
x9,~,x1,0.6940413310193947
eta1,=~,y2,0.5137542510809088
eta4,=~,y2,0.5122076586423351
eta2,=~,y4,0.27458647325236846
eta2,=~,y5,-0.2983842706105591
eta3,=~,y7,-0.5479920766941156
eta3,=~,y8,-0.13082532595142501
eta4,=~,y9,-0.8411939596029828
eta1,~~,eta1,0.5455498664110383
eta1,~~,x4,0.0018214425873743628
eta1,~~,x6,-0.014790452636912876
eta1,~~,x8,-0.010279175141363794
eta1,~~,x9,0.07717797880382778
eta2,~~,eta2,1.65455548991058
eta2,~~,eta4,-0.03943439396705903
eta3,~~,eta3,0.38503852475712846
eta4,~~,eta4,1.6797205598870775
x10,~~,x10,0.35351208906821785
x4,~~,x4,0.0883588215969846
x4,~~,x6,-0.0027492552669595165
x4,~~,x8,-0.0012741490221775615
x4,~~,x9,-0.005813434355463159
x6,~~,x6,0.8180589269243583
x6,~~,x8,-0.002061850264566842
x6,~~,x9,-0.08031526072550012
x7,~~,x7,0.533612444572828
x8,~~,x8,0.011077844418842988
x8,~~,x9,-0.0021605790318867052
x9,~~,x9,0.9054218185896835
y1,~~,y1,2.071198944965611
y11,~~,y11,0.9399460607775068
y2,~~,y2,0.6550559184284096
y3,~~,y3,1.0801306636782648
y4,~~,y4,0.07930060923700359
y5,~~,y5,0.08709526840949992
y6,~~,y6,2.329144221666076
y7,~~,y7,0.633242341852399
y8,~~,y8,0.03397883104199507
y9,~~,y9,0.7260408614427795
