lhs,op,rhs,est
eta1,~,eta3,-1.0490492515121013
eta2,~,eta1,-0.4093871754620427
eta3,~,x5,0.24808378078585494
eta4,~,x3,-0.6668074015036992
eta4,~,x4,0.8206002836508195
x1,~,x6,-0.5544375500204115
x2,~,x5,0.9920285464721752
x3,~,x2,-0.7283942176772761
x3,~,x7,-0.2920950115149211
x5,~,x9,0.5092087357625792
x6,~,eta1,0.2999715758523047
x8,~,eta4,-0.628433728162417
x8,~,x10,0.4972277633673857
eta1,=~,y2,-0.4964944575722893
eta1,=~,y3,-1.076533431272135
eta2,=~,y5,-0.32388269167292644
eta3,=~,y7,-0.8258150596788455
eta3,=~,y8,-0.22670735969258216
eta4,=~,y9,-0.20563063637617973
eta1,~~,eta1,0.721857981419185
eta2,~~,eta2,0.3922958505257344
eta2,~~,x1,-0.023584178376262102
eta2,~~,x8,-0.007578873185466295
eta3,~~,eta3,0.0829707194950495
eta4,~~,eta4,1.4572392160524623
x1,~~,x1,0.40807604825389265
x1,~~,x8,-0.01971060788514534
x2,~~,x2,0.808607099148577
x3,~~,x3,0.6343843993484356
x5,~~,x5,0.23837149286623982
x6,~~,x6,0.08699408991017984
x8,~~,x8,1.3121206171733977
y1,~~,y1,1.1081869891046405
y10,~~,y10,1.7413657936297176
y2,~~,y2,0.29192945567760936
y3,~~,y3,1.0801170118394823
y4,~~,y4,0.7868546440730391
y5,~~,y5,1.076437871855768
y7,~~,y7,0.7588443367004297
y8,~~,y8,0.049915239535705196
y9,~~,y9,0.09216112295497278
