lhs,op,rhs,est
x2,~,eta1,0.32889796145607264
x2,~,x7,-0.11484295752282168
x3,~,x1,-0.755271063838664
x3,~,x2,0.7610258179116437
x3,~,x4,-0.6037989654309804
x3,~,x8,-0.16681394297867408
x3,~,x9,-0.8002284681059063
x5,~,x2,-0.14453728601634394
x6,~,x2,-0.2614818563948932
eta1,~,eta2,-0.9620477582047958
eta1,~,x6,0.7644611624845257
x10,~,x4,0.32519724054364674
eta1,=~,y2,0.816622625997431
eta2,=~,y4,-0.5584326276813021
