lhs,op,rhs,est
x4,~,x7,-0.3739977654943276
eta2,~,x4,-0.9876266490323965
eta1,~,eta2,0.5789623695663131
x10,~,eta1,0.7777233915248633
x9,~,x6,0.37369788314486957
x9,~,x7,0.477162141556329
x5,~,x9,0.3549678344779626
x6,~,x5,-0.7077438535274592
x8,~,x4,0.41398023157111064
x2,~,x3,-1.0941164326602488
x2,~,x8,-0.9254628721342586
x1,~,x9,-0.9126177904050293
eta1,=~,y2,0.7549815822899583
eta2,=~,y4,-0.5657280327677554
