lhs,op,rhs,est
x8,~,x3,-0.9901029845992173
x7,~,eta2,-0.15592356166169025
x7,~,x2,-0.3034787949797497
x7,~,x5,-0.43582155558380936
x7,~,x8,0.10740092438223164
eta1,~,x7,-0.400750700448221
x2,~,eta1,-0.8806145234530588
x4,~,x2,0.1647784643023993
x10,~,x6,0.7401630819553757
x10,~,x8,-0.35575083794428447
x9,~,x3,-0.13516284890145094
eta2,~,x1,0.7082594513091787
eta1,=~,y2,-0.366752097226779
eta2,=~,y4,-0.359550757351828
