lhs,op,rhs,est
x5,~,x2,-0.2968999729326302
x7,~,x5,-0.3434852852112916
x3,~,x10,-0.6396155192926747
x3,~,x2,0.9660800701665448
x9,~,x3,-0.8745331563557467
eta2,~,x9,1.056674921537498
x6,~,x1,-0.1330365088984303
x6,~,x10,0.6655423461990823
x8,~,x6,0.8743062277107337
eta1,~,x8,0.5845483669769028
x1,~,eta1,0.3200118582292286
x4,~,x8,-0.46102715001140926
eta1,=~,y2,-0.4671857812039049
eta1,=~,y3,0.5541122251512747
eta2,=~,y5,0.7753004518285939
eta2,=~,y6,-1.0881951770661031
