lhs,op,rhs,est
x10,~,x6,-0.5581633097023544
x10,~,x8,-0.5905297597288456
x10,~,x9,0.6199019195122719
x4,~,x10,0.3482705313945459
x7,~,x10,-0.8288164386425871
x5,~,x3,-0.789565273609782
x5,~,x7,-0.9762744309548685
x6,~,x5,0.32664415031521904
eta2,~,x10,0.844801735171816
eta2,~,x2,0.6344368899990904
eta1,~,x1,-0.26734300288705526
x3,~,eta1,1.0467732690574607
eta1,=~,y2,0.42534331106335194
eta1,=~,y3,-0.4402917311223353
eta2,=~,y5,0.7755687892077364
eta2,=~,y6,0.15831148017526564
