lhs,op,rhs,est
x10,~,x5,0.9694048648869321
x6,~,x10,0.5482790838363788
x7,~,x6,-1.0267727426762352
x7,~,x9,-0.5318383856365859
x8,~,x7,-0.43771565795085693
x9,~,eta1,0.3263669119712552
x9,~,x1,-0.9865331863332362
x9,~,x8,0.22411234668004648
eta2,~,x4,1.0388792521761474
eta2,~,x9,0.13142656068851927
x3,~,eta1,-0.37724529374441607
x2,~,x4,-0.44705302446577305
eta1,=~,y2,0.43239325906874887
eta1,=~,y3,0.20095484556897175
eta2,=~,y5,-1.010463483388398
eta2,=~,y6,0.7032187195394722
