lhs,op,rhs,est
x6,~,x1,0.5180288263870007
x6,~,x5,-0.47872405902984005
x6,~,x9,0.40998741596199056
x7,~,x6,0.19586853423757705
x1,~,eta1,0.27570456820484607
x1,~,x7,-0.6760620495704625
x4,~,eta2,-0.3170680877754918
x4,~,x5,1.0627824536014465
x8,~,x4,-0.5625639127647759
x3,~,x9,-0.9784868866423024
x2,~,x7,-0.6258621140996994
x10,~,eta2,0.37928330482112615
eta1,=~,y2,-0.31072361325985515
eta2,=~,y4,0.37271906678859074
