lhs,op,rhs,est
x4,~,x1,0.3384022285580698
x4,~,x5,0.3590821366076638
x4,~,x6,0.5360170736409277
x5,~,x10,-0.5309214224748212
x3,~,x5,0.8215691773590723
x3,~,x8,1.0326958660832926
eta1,~,x10,-0.29957908200866595
x9,~,eta2,-0.2749966860983653
x9,~,x1,0.3661603918039968
x9,~,x7,0.9303123433745611
x2,~,x6,-0.3544613890252092
eta1,=~,y2,0.6339009479058408
eta2,=~,y4,-0.8698705035222323
