lhs,op,rhs,est
x6,~,eta1,-1.0122996667862023
x6,~,x4,-0.22164138833869224
x6,~,x7,-1.0779055880200163
x6,~,x8,0.7124854510344035
x6,~,x9,-0.7247253246385041
x2,~,eta2,0.19093965873930663
x2,~,x6,1.0916432365661957
x5,~,x10,-0.47743283093264877
x5,~,x2,-0.20208135747359532
x1,~,x8,-0.10502689725159678
x3,~,x1,0.9797826733814663
x7,~,x2,-0.8407568876823738
eta1,=~,y2,1.0036229835478485
eta1,=~,y3,0.7611948872660217
eta2,=~,y5,0.47278251153798606
