lhs,op,rhs,est
x6,~,x3,0.9631713177587997
x6,~,x7,-0.2663780268744981
x8,~,x2,0.705733501117492
x8,~,x6,-0.8774752498309173
x9,~,x10,0.25578646768531854
x9,~,x6,0.5906615550021694
x5,~,eta1,0.3786871038272226
x5,~,x2,0.5337055730537047
x1,~,eta2,-0.7908795145559412
x1,~,x5,0.8459510170765483
eta1,~,x1,-0.9011944124459986
x4,~,x7,-1.0774055480010842
eta1,=~,y2,-0.43271592226833466
eta1,=~,y3,0.3407058323749473
eta2,=~,y5,0.35191989599062806
