x1,x2,x3,x4,x5,y1,y2,y3,y4,y5
7.380271708280825,2.47306561225474,2.0202563231921036,-3.953314062425337,-0.7352465880330967,4.762157518832614,2.75640002930278,4.465501209395461,-1.2050629225459855,0.2541665560293829
-6.9865747329256,3.5198487799187363,0.11851828806722071,2.447304608336742,1.4355648644229086,-1.4599761456945952,0.027611182826377624,-2.4871682051069337,1.0163888324635748,-1.1716378496656343
-1.742833202173216,3.6756594667318576,1.2417210340372444,-3.4935550422990826,2.3395541800565556,1.465148751486554,1.3348167951253838,3.9007881137857487,-2.2651379880093105,-0.33672071094026174
2.3822238558155893,3.507842781465987,0.7371228361350701,-5.003938469872935,1.5999818360219056,1.0067443775355265,0.34056501062687033,8.917615973301311,-1.1964082152352629,-0.9960407975726261
10.597234200035132,2.8006311650879394,2.035297453722666,-6.094479290405162,1.2630545241806397,2.1791056013267722,2.206249406324003,5.19406468556701,1.306760386138369,-0.5873844522959423
-4.571796627506035,-1.6078582377218595,0.15698092976195638,1.8304765035839454,-0.775334839542289,0.9800307602981454,0.015116549348939334,1.2113422300755048,0.44478478797132626,0.5530776252383313
-8.27848765670634,0.830671469102699,1.6072079719814611,1.7214741580310517,1.5252640125311783,1.710607413400743,1.4698032329383626,4.976297720173161,0.5776181396213139,-1.2341168707443944
-4.891800670216078,5.042370223366908,2.086537716964898,-2.016142208290929,3.4258056939634125,2.9908335707469926,3.961922680597971,7.334018065937124,-1.5199231313557138,-0.8655651698763456
-3.165139975969571,1.3759506098559748,1.3114995529452762,0.21315843549877564,0.40107399697292023,1.2733053090542175,1.4973093549990173,7.1148404627420065,-0.4081389063628452,0.010531105085312928
5.604484188498453,0.3709291761920708,-0.2594387449629551,-0.643562181217575,-0.4235859566691904,-1.0324356817253115,0.04467489338284757,-2.3677072979446523,0.8369788315747666,1.2009401435012943
0.41167841484064516,-0.9126726178997725,0.8635198945943633,-2.083362697661582,0.26318304478544197,-1.279721388907857,0.2664045799894081,0.599950864484861,1.2776500414276333,0.07168745174174078
0.26713800779640673,3.2961713839477067,-0.12426078517580569,-2.65313288927396,1.1197490005695658,1.3203463977322671,-0.48501513726309015,0.7865697797288337,-0.7616396818754572,-0.06981160835757623
8.155481743972818,-0.3445178100287221,2.0823939489502727,-3.983787162690345,-0.8232871855634403,3.6317540011227787,2.494989663053858,2.241671387794216,0.6547868091565713,-0.025143844525735436
-4.762326976634661,-0.6813624859903763,-1.535829083928322,2.4800626624173923,0.2914470565284122,-1.7584222683332662,0.95810053550476,-2.7554910895321076,-1.8862740918510423,-1.1986706854887603
-4.850298306718073,2.0318996432259904,-0.05409512045413354,1.1364174014065231,1.6434922115353237,-0.6763271935200998,1.3271170185715364,-3.4896485059681277,-1.998837105371416,-0.6551492355249962
3.5196334420262048,3.515613662336014,0.911764337150842,-3.7372936718840553,2.0384504513066024,3.9224236857245387,1.2687082064309585,3.4664307343517535,-0.7607752620018015,0.6060051248865939
-8.672568546457237,5.2651715828401215,-0.6072502329949446,2.0416506983315976,2.6825419387628173,1.545780996326858,-0.19155752321049163,-2.166757376601757,0.7066620875142341,-1.0066790895994582
3.1796808698170804,-1.8781431833103717,0.787699095978469,0.7113409458180086,-0.2898642941010615,1.4980318565135398,1.4096277464686526,-0.1970857955557457,-0.11050066097767663,0.16037009403524677
7.2062977858586965,-1.2939168546412478,0.3012185368252329,-1.0010922698108558,-0.7317801373255485,-1.533082294614973,1.1034677887551776,0.999631928746199,1.8315310675380525,0.6376899743356812
2.482259517701981,4.600333351613679,1.7948913902340762,-2.295286013853984,1.4639482745602486,1.0733186271194257,1.8770811600003219,2.4408476951588107,0.5515350926738316,-0.9466975789973006
1.219802184465783,-1.9473834742866374,1.2043896265640917,-2.654601794024735,1.478921923929157,-1.764276174241831,0.9774895944551871,3.1554141339287334,-0.8065195110979521,-0.7186300379467901
-2.5765597463619185,4.043407538431553,2.3088802269963633,-3.369922940914673,3.0127049354477355,3.5112655295353448,4.3864310072577695,10.83013849491752,0.45320522948608577,0.14395070934166507
-5.074057562934614,2.807830168663707,0.0333438626931346,0.8574376390198539,1.7850564413963959,1.8911663160048306,1.041344162924473,2.1927024021239383,-0.7723366632455031,-0.4935973612205405
7.563889091530064,-1.7774854667694853,0.27856317042262474,-2.0264740810134074,-0.48288484419184696,0.8115597286726965,-0.4027204261816102,-3.987055784987262,3.223900038390393,-0.07213058652472787
3.225167234625806,-0.5455384355768798,0.8360936450871708,-4.496092646026958,-0.29562817513750195,2.448405997538982,0.9947732420224367,7.697886859610392,1.7323050395558401,1.0543351493196225
-5.3232749042667455,1.0329317138821783,-0.1615388913983992,-0.5196357429232701,1.2422651701443805,1.2367624804079675,-0.03518325286058117,-1.560183586784408,-0.7182439566341046,0.11136783741954945
-0.09532730602490957,2.9209582144475545,1.7993535840885448,-2.317788440756784,1.90664191240417,1.5539124426133242,1.0481814673227485,5.977700912556138,-2.0929848523420054,-0.8549640690858445
-0.03895018744968448,2.5557995977731025,0.4173950771601791,-0.880526459669423,1.257257807580595,1.8266581512998898,0.34955600866816894,0.45765062740228774,0.010008583096635729,0.34054869546963057
8.550468526695392,1.6678214264930593,3.223965508880799,-6.497480397845099,0.39252456570252914,3.105532055148418,3.474472928449403,8.630039940201183,-0.6279091170553818,0.29556858515536255
2.553028811013767,-1.802780137519395,0.529486839362691,-0.9967491857847691,-0.8312924150139527,1.1178084711081695,0.536444863926077,6.293197714379368,0.5856894615514343,-1.5124897563920259
4.696894986109983,-2.0197555316541163,-0.1159452396883234,-1.2140574615229776,-0.47142790055300354,0.08813801360392676,0.8552640236464032,0.7501940547088026,0.9030380303779882,0.6796256891833591
-1.5173736651259992,3.733772800903785,0.565849666685399,-0.1282901257341564,0.6582412664881496,2.3264297064704187,1.5460346177224298,1.8140844948113621,-0.45555844449286353,-0.6995279334041463
2.4223462139381056,2.863455507781172,1.4376436113598774,-1.6032191403024838,2.039784905877608,1.4500397360974555,1.1389570709791454,2.0151396391565277,1.9597048116518225,0.3113616387211741
1.391189801507649,0.09699112726218173,1.487484732091086,-1.0888940367362616,0.373487057540868,2.662060287883737,2.091840055710814,5.022785264473122,-1.2397859539141138,-0.5662304713646045
2.3714159389342795,2.766714539930933,1.5085487283124097,-2.4139834299588383,-0.5540759704932248,1.0836686871784431,1.927879058206207,2.4072967278351824,0.1324278951413877,-0.005713489863171605
0.27249371067876016,3.396528365279403,1.5062673254406123,-1.3320349308179904,1.5158220769057529,2.669407453325211,0.7571763920965631,3.0595516931689253,-2.1373008283102406,-1.2111035756091242
-3.4085726481249043,2.693843850027166,-0.4220289191731942,-0.589068614457147,3.3530489217031914,-0.805617456400044,-0.2885462011305205,-5.413337969108892,-3.4996235317348203,-0.7938008087895787
-5.133315470373865,4.407277496585918,1.2684955256337114,-0.38747469837796245,1.7234230647614823,2.1825966209961845,1.2507352620860552,6.120931165803631,0.552678797659854,-0.08121015363035444
-0.6384165929203122,-2.9919251806538334,-0.11457219542516972,-1.111988525349049,-0.553840513023528,0.35330466435935065,-0.27128509795154704,1.3165689530665776,0.709320499301473,-0.4856711012504581
-4.328528312004519,5.9442312342683135,-0.9927558939311678,-0.025886177581755765,3.19721397840446,-0.7207642429010521,0.4260337519227953,-4.5404154474791465,-1.3939743313020125,-1.3336845836320927
6.643486856264419,-0.985034914993199,2.6974087916968053,-3.4972720018581884,-0.6348187100983256,2.4688086682209596,3.5869040604169014,10.58957249548327,0.46137441426680537,-0.3847281233014983
0.4060996496665288,-1.5886757606232171,0.15237155564225585,1.781240699809674,-0.8020406202959689,0.2766344103575775,0.1730998984862514,3.251412308448388,0.13066126906674336,1.4062601062228124
-5.738061068666745,5.178551437284273,2.1495917136725873,-1.2901036465772286,2.260294334889696,2.3358918622949383,1.4544670353595381,6.126850212679673,-2.128745432132442,-0.5115629654750007
12.028672120218026,-0.7271943839504866,1.468932833562951,-6.118916838241771,-0.6592982093973672,2.913346072246291,2.7036927966104303,0.6937843619410234,-0.5955939462236978,-0.5576855783133144
0.3685556915911108,4.418436263712723,-0.20629210588139874,0.08327210542573381,0.672258725672386,2.7014712174925126,0.8847801815402877,0.3941120398190759,0.5867239226607703,-0.4994157541953497
2.202226332754894,-1.799047904246592,2.4487548883653782,-3.2496736779370425,0.8012996713917631,1.6667570360771913,2.7798113266370805,2.4445563035385165,-1.566938301615712,-0.5546841879084017
3.3581580507325137,-3.2963510021931413,1.0079414444624921,-2.1758542577122664,-0.8587983738981608,2.8816014122281435,0.4188699109432063,7.029971280848955,0.09034211959003285,0.2882918790085928
-5.289416624474805,4.976799725937953,2.606264883708862,0.15331552722887773,2.93963298978131,3.0246139695909817,2.5581416787246978,7.1964158038210435,-0.0999819166343685,-1.353126178610237
4.278343566410903,3.2881489186884965,0.4736455389223016,-3.2210011610015736,1.8543143423156638,-0.658735093650101,0.2389306876565192,0.6680885545234742,2.2009374322083004,0.6854355721682458
0.9231791619685601,3.7930832721254433,1.3104007530526407,-2.307865679369915,1.3119933117275862,3.2226318737554287,1.4669456743587328,4.0473950194873165,-0.5983288259458177,-0.6470067656570289
5.082107237663961,-1.2285940976777079,1.5815769232055605,-1.859839235738029,-0.4167491519052675,1.9014426260539339,2.164762631212174,5.51929880210598,-1.347541214712039,-0.12278449791642086
6.239064636581393,0.9288133106939492,2.897072531974114,-4.65254393643853,0.37118993922422083,4.413070472174461,4.02886864465634,7.35536302979489,-1.1628191012196214,-0.5225152938688887
11.494536115338633,0.9098629914870923,2.345643928939977,-5.550556088043146,-0.3658392621590615,1.640200966038548,1.3607786388608036,5.442474869186712,-0.10767435047948937,-0.2232921815596315
3.0948876731094845,2.622470372388602,1.2684126331580852,-2.4566356302558345,1.3933861551717799,1.9816433346358966,0.6886959321570254,3.135909750156429,0.5210457497104616,-0.15836643915631823
-6.362312180541825,4.689845100547516,-0.03469131165711541,2.635458980355197,1.4205091814962039,3.547527133651251,0.5644227119021135,4.077558696907474,0.3483366859036069,-0.38336387365505664
-0.008598172095365286,-0.32041021231528255,0.32807857823737585,-1.2375384894053036,-0.33086854268300536,2.9055022890203057,0.773855482635022,3.6004408536781876,1.4878186649574054,0.3794983613014826
4.935423261805176,-0.4649001275395335,1.0025968889291421,-4.141288517760486,0.7408872956253474,2.2124188590236344,1.7087466546880938,5.180631842697151,-0.4856841911734857,-0.4547125606263521
-0.38820520401396363,1.0038904300782632,1.5452988722181442,-0.5212046794632015,-0.1274831042156208,2.993792220885493,2.359393072985494,2.5213973976361346,-0.47005964601232253,-0.33718429054491994
0.08142127690872947,3.3894328642760927,1.1004576908241839,-3.2720253350976036,2.5682119745460925,0.30841123564827744,0.8287149799173347,4.513186462860408,-1.9755899651093753,-0.6171888870662995
2.9709587119244323,1.4526668730914103,0.19018007798922498,-0.09370294930095138,0.820714079992372,-0.2591363574817094,1.3164230851047363,1.1998676171878726,-1.3991244431417404,0.653264586896792
3.620012599497241,-1.4752163376592464,-0.13257530244932308,-0.9400861948693598,-0.7970124019882606,4.2051861359139755,0.26568262683467486,4.565611825953417,0.7966399774270229,-0.011889585707433757
-3.021193691102576,2.0261593827291775,1.1464236055732802,-1.990224407810136,2.6522699112944688,3.0620985571772614,2.795868745302569,1.7316144105664117,-1.810220317975057,-1.2644074962521075
4.513544258082447,0.9249970567459455,0.8212622836788992,-2.9674054367807092,-0.7228879206188136,0.6019987566318611,-0.22021994466775988,1.1573860180247266,2.853410542556505,1.1027259317163287
4.375320483098478,-2.5036641177641368,1.1313217280968664,-3.025021328952013,0.11440378501842519,3.9655034055840996,2.253000989852765,1.2985698829681909,-1.0543825091177972,-0.18310513699138156
-1.0912710075105332,1.6630175620414298,1.4259403385162224,-0.5805013745596751,-0.0652390627279994,1.4234148078746247,0.3894983534470875,1.8760687304978285,-1.1389771158998678,-0.24008966978177512
2.4689845496869065,3.7047032117590537,0.6673041602754926,-2.1030079683842113,0.8163548219201662,2.060618191606159,-0.10877642288831955,4.3807261238195006,1.0995312997464048,-1.429210674733618
-0.8270271289215867,1.056267749079424,2.0902697483212442,0.2584314780108256,0.8045745823027957,0.33218987365619523,2.370251464845178,7.36184174570694,0.5873882542490039,-0.025802860056829458
2.771949440284548,4.003626750314411,0.18681709064242147,-3.918963789462454,2.689230315164231,-0.14007063899648525,0.47377176436286983,-2.4166390798229016,-2.5403400583953855,-0.7870753919371747
4.281429220490886,0.8406063970184333,2.167934870591836,-2.7219466951842715,0.2596339259433402,2.558445257095946,1.8585280035806937,1.7132677191844872,1.18637579707202,0.6347089713844868
-4.137857097471069,1.1718359652058994,-0.16732176144071415,0.8217171113634785,1.3086346348593656,-0.43160429712797976,0.056656238709347634,-1.6241823610496025,-2.7095395475248347,-1.2416910047518783
-14.119881366791194,6.136692882523158,-1.3007633129738518,3.5158608854968376,3.31886748043988,-0.8966265332170129,-0.5170275651977195,-0.1731508449261626,-1.1894002977356748,-0.44247061381194003
-2.632862957358599,-0.8537026204825099,-0.7170098119243196,0.1293902307746076,-0.04175714622512772,-2.0252297775094217,-0.771306308977419,1.9211780386569932,-0.3890612151154892,-0.29732588678971905
2.8648679179336933,6.209995604894641,1.52575263186316,-3.9239451209079066,3.452370832538886,1.8751598263168732,1.7864158420027512,2.8924108135817783,-1.660597946056595,-0.7403189107661841
-3.0058830925409605,3.8795824710333346,-0.47945433283778605,0.27083355180286917,2.164825585332734,-0.24709169558453836,1.238453667835684,2.817726882900488,-2.8308070339717117,-1.0035320679616666
-2.4155326729626507,4.022221105430336,-0.4205929029605897,-0.7341513830317468,1.916128180432065,0.699123280468066,-0.028235618098995878,-1.349788838748342,0.6461985497817697,0.06604401643014558
-2.3971060964782773,1.0793689902179675,0.40138499209302314,0.11675617517377986,1.1177988155406173,0.008144716991763168,0.0036348879485076785,1.3057171362563766,0.23033533299319586,-1.2688708787346727
8.089552330155085,1.7786867346057686,2.67497030956981,-6.722480359772231,0.4129569490306495,2.7502084797388666,2.9669181205896384,5.541624824672535,0.3718113160664575,-0.11334301654905055
5.995258768024861,-1.0051814141178503,2.162472635881325,-5.8070698728249805,-0.3666461398469344,3.586622764788454,0.23389516912085223,5.59165910935942,2.8101822747162135,1.5118151804062443
-4.408036673774065,2.709551396281353,-0.6811652890918144,2.607328054036423,0.6927984743307674,0.0008745611869191844,0.3485083851237555,-0.5178263655984677,0.20417826384198445,0.5041183246934894
-12.077074058284886,6.650804721045774,-1.5971546119802502,3.5565411706956804,2.743047432254103,-0.04134691800340645,-0.17453010494174687,-2.263868453230588,-1.52322321565358,-0.5693225864589294
0.5591050335568646,5.7313906751881065,-0.7078546395234554,-2.872242832269157,2.7098415366270032,0.4190839380820025,0.6774891873569941,1.043853271926062,-0.852669394632052,-0.7075320598278478
8.352329168760118,1.50614203406612,2.211790174435909,-3.7422912329258464,-0.711452522238101,2.8253986566316756,3.114058821157383,3.6513028524997573,-1.2779351766678786,0.7659951476619989
-11.382831412751255,3.335210607043725,0.254330446264632,3.0495202201326976,1.8695713314725095,-0.15446087917039286,-0.3575514113327441,-0.1690926074060068,-3.3419114678494077,-0.3071423143161719
1.1456341245232018,6.88851130324041,1.0215958039893034,-3.672898087732006,3.350403073014834,2.116420492576995,1.1149341384322824,2.5190507434937994,-3.115030037814663,-1.3641522123232945
5.122433315793465,0.9575137818833038,1.71499926394674,-3.9382885139265325,2.182545208573055,3.095724661647888,2.5849023130480036,8.464502144146163,-2.143032130265146,-1.027893587308285
9.102323137092458,2.979003460504888,1.492418934137478,-5.302083368278402,1.9595136474275843,1.4131419871498723,-0.06178905885699846,7.917606261114297,-1.5300927836776799,-1.0238936558101275
-0.3795555661676435,2.684472699622547,0.3767925521032607,-1.3853124535866923,2.6777449335813084,1.3174824866838986,0.825290582240294,5.105548303133098,0.11035990963372533,-0.8484934859107385
-0.9063440631590964,1.9260400136444749,0.047219330779689365,0.09696119542636784,1.5415817942194447,0.48474003641045627,-0.9198002142272235,-4.03317197335143,-1.5745972848683558,0.22658518450771106
-1.235069043796599,4.415383224761909,1.1363625048785446,-3.024594012855142,2.1765544541683544,0.9250127326562052,0.2894232768043918,5.9049199967841695,-0.2860703483206928,-0.017667881498239058
-8.389747305780896,3.80107777504139,-0.8887715995094161,2.6781696649305258,2.1373510159112628,0.5846827652014904,1.2600682589507657,2.698424026994386,0.12739431027403691,-0.46953635662217696
1.6462813218840486,2.1250548087071146,0.445111618148354,-0.7335025712238565,-0.14146918021226318,1.2236765589283178,-0.4635811768153359,0.7217918602081024,-1.6179388900908054,0.42594660483839564
8.67643613065835,-0.5450775823501933,1.8978069277321872,-4.763385337151038,0.7441325870695117,4.327452863142695,2.0024775633934873,4.605000999359298,-0.09541602646966152,-1.4922025931835265
-10.354889422960103,1.3402198851906113,-0.19575902793838854,2.692790373512988,2.4281263725897984,0.8549917800332933,0.5925438634668041,2.761451304424874,-2.613377077511028,-0.6429412880568206
-0.6962623328770121,1.7041116236185767,1.1719828372659316,0.012733776246953772,0.562424502156178,3.187040315907974,1.3992093259446907,5.083571080182978,-1.9869797099989008,-0.7553413121032364
-1.0936211426275864,3.9846678529862003,0.6343327902853289,0.20540815591287803,3.1202907859969997,1.8779373294070592,0.012650756820850213,0.9659754767306358,-0.800639392272355,-1.1387819418785758
3.3966984741442574,1.0077241228716702,2.608500204353569,-2.611921746207217,0.6900708859830076,2.927249934654171,1.7293187623493376,8.52142051555405,0.7939111184922969,-0.13859677290931788
3.5273706088973533,5.686238893032948,-0.008140690947405011,-4.479415359116729,1.9122508709944976,-0.127535431962022,-1.0026414179018077,0.09550882458057165,-1.7910705993542262,-0.8881216579979975
7.5834872134866105,-1.5499509385646342,2.3218637691279587,-4.651117132485662,0.2270567214528596,2.8088399775129633,0.9012262165319403,7.1114734011608665,1.5826399377386997,-0.056994501724322036
-4.64205949381455,3.455133686506832,-0.1689493452032658,-1.126635368903528,2.849170584848565,-1.0029537980949867,0.18360284520142298,1.1698344102278624,-1.8860204780145704,-0.8382628164293537
3.2075955350560426,1.6789840794617492,1.8664994378201618,-1.940814865306643,1.367894901627352,3.595390543310623,-0.201651801486177,3.6194767678427713,0.4974419614343712,0.32681081124152517
1.1533937380680828,0.3627657940006493,1.222336055026191,-0.6326998190406524,-0.10190671167209586,1.0522399719211009,1.5617764953683937,3.1516669578370684,2.424866921361727,0.2481657507623845
4.0739934603885235,2.0031657473838433,1.7462896443457783,-2.7604764195419924,1.0844892842855698,2.9400838927074524,2.0310644308916053,6.534249415081392,-1.4161807014149472,-0.05569065756265273
6.321561980957951,-0.9490626749447759,1.6643826114214622,-2.7125873903863584,-0.7346279506534372,3.6240860134055466,0.6190260219902253,6.24319187415923,0.8558077340961772,0.18142211987635937
-3.2070742133935246,6.303607123111603,1.002063788957885,-0.9587954557361971,2.2748169084632037,1.3191807244954237,2.0644157762588327,1.4178773251333427,-3.461976935379954,-0.12098666617099321
-3.4186313612606503,1.5059570900966779,0.9547512863312967,-0.7890939144115288,0.9030684099621509,0.4503477408594657,0.6743595866317496,-1.2332938429369116,0.33625650525518735,-0.9038111084216318
-1.0691451474189404,3.7786513823701218,0.8116452286787704,-1.5762019500638793,3.4184204427319553,-0.06831291440122356,1.5940991063346837,1.2611117038281556,-2.9249320133893715,-1.3440931397163134
1.0598504370734085,3.125321655723531,1.916193063174519,-4.402584282523608,3.298356075786237,1.7368559190645527,0.7844141827470497,3.2359350745140363,-3.0996276256578397,-1.445980326273292
-2.9407020987449384,3.312821767243594,-0.48104304759378086,0.49453105195755576,2.0670050793944705,-0.9655227350365481,0.1567886471389832,-2.9248495038984132,1.0083397164261276,0.4103588815517018
-7.651804123900565,1.1882319900588885,0.8246492034213265,1.3471473875084503,0.6261597238215446,3.0363711735508416,1.0397312529589755,2.758157192566442,-0.768449097731502,-0.04886711503552708
-4.019974090362019,4.925794596344655,0.10302586949399038,0.19697745929003205,2.511408601507549,-0.4099476791129981,1.4095208283197342,-1.463883268837306,-2.227425873366974,-0.013939259516160695
2.4366126473458207,3.515786546117451,1.4190498964047307,-1.4382983342933173,0.7033664702683113,2.8477635819370786,0.9861287941130463,6.95726254491454,-1.1134014669509655,-0.768072968688902
1.1686819862337963,3.25900041177636,0.13996534945202532,-1.4011789249349422,1.7406968565448566,0.3966690879447713,-0.19749802130700117,4.5199872336085845,-2.0599978424669265,0.015645706269271725
4.421424964236539,-2.102162011488664,0.18683080214781145,-2.2038523485802872,-0.5679667123513433,1.694707674858423,1.5031971080628008,6.578160163045089,0.7935643542550223,-0.03558646836553914
-6.355815805788679,0.04890588638891695,-0.7378777255008,3.34462535174981,-0.35339621909553787,-1.0174059572205885,0.6338477336228822,-2.0114755443009367,-0.2580153065418537,0.37190953638083785
-4.3655121876491565,4.796184570970258,0.43785782075392493,-1.8551652567154837,2.983462329082611,2.518019296289187,1.8850046418510344,8.18792822703459,-1.3765267636833347,-0.29508084983860855
0.44725947708794234,3.99177694196518,1.9120201676734514,-3.9097235065641787,2.806640670997599,2.4072147506075763,1.1709320030341779,7.7829834746291375,-0.4635066252606168,-0.6171623899579489
-1.8467417040175174,6.320738490018203,1.6821754365248498,-2.6645214810709787,2.48847922159767,3.2097722378367597,2.6447686451190022,6.234640971365871,-2.2211505479165075,0.2771086452882205
-3.9457805882184003,-2.195719208315786,0.7663547738394657,0.5733016913739704,-0.034250020394504976,-1.5203580573429778,-1.2548285639994305,1.6818470463803392,0.3487324796745862,0.057330592185573674
2.0523890086444068,6.653703582011174,1.0678235781214016,-5.451878238424006,2.7985489829370573,1.5856413796098754,0.7639846880479528,0.434835122223814,0.12179142835510104,0.11248313603797086
7.779840313792056,-0.5701202919177901,3.3524612554289597,-4.611360002664371,-0.30686190084598297,1.6826436691173121,1.9047824644285236,4.33620041078188,0.05207329052581189,0.2714716335410346
-0.01183664814067198,3.016775799412287,0.61854643009095,0.07765162410967998,1.324852729040321,-1.3672112204962636,-1.04529263783141,-0.71055897937455,-0.6144959856486296,0.6958843185206253
0.5544603018545073,0.1599066463245512,0.8215480260946687,-2.5865487113773002,1.2589296268706818,1.648428866466555,1.0016938840175855,6.4315550647538045,-2.404028386382609,-0.7399010875750058
-4.298997609148762,4.254506222943136,0.2371353238122596,-2.849598940172671,2.0378278862799246,1.5207563788169356,-1.0309177158355785,3.771040068103597,-0.5893307716248307,-1.0160134545902375
1.3902987941190845,3.462117606164982,0.8722666538357291,-1.5187636487832799,1.0868354277949455,-0.5699915990620588,-0.1296275776721005,4.801158791178683,0.9546502669491506,-0.24137203777549746
1.0565888849335172,4.385477790118265,1.4677769188229561,-3.2212843849623733,3.164871462457066,3.5824443162376696,1.4912216789067425,3.583909793451653,-1.5245142745735047,-1.4467959376820942
-7.319774932977326,1.058845240312313,-0.475155650601786,3.5935214987064383,-0.06364637438486631,1.1029056337207666,-0.4773795388409679,-6.587907657052632,1.4881175879872512,-0.03617719154989994
8.6430483367803,1.1941802148414753,0.8489208623059663,-3.0792188787801544,-0.5938693803082509,1.167305774374518,0.2364459214673066,1.8486451184145336,0.041141390879614326,0.5228905739306104
-7.3228701643699825,3.5860877249048895,-1.2212419025315766,3.6738559065113523,1.8752940316466282,0.5079205758796062,-0.1303571252157276,3.657732897866975,-1.407852517513088,-1.1378195020184152
13.29881148839603,0.3426872832820514,2.378339080477121,-6.900554177702485,-0.6815234986035794,1.0289154196227255,2.013272684962709,7.756057924724948,-0.7149412209867891,0.18361653358216623
-8.027599708783583,5.088425815303607,-0.8092510901751994,1.7219211817012157,2.7040020892755696,0.80274613594989,0.8864090859338111,-3.324187684553071,-0.8646457042670266,-0.8727042828100422
6.6731749820191215,2.4636772499398703,2.1374135122369418,-6.066240355718081,1.051066507601166,4.5313330403717265,2.8445021667921,9.656291353638352,1.0002327577095365,-0.9919353935017654
3.8045816877253196,6.929786092598557,2.0228911117466875,-2.41461349256583,2.603604693457518,4.089755227838222,4.117318451598193,6.794259268043627,-0.9068659933214356,-0.5208373122438
-5.253164702940023,3.861936014377986,0.9812351541503821,0.9492811303300328,2.46420605114073,1.6910184176460228,2.9003157976299176,4.471571645895478,-3.3362171567523533,-0.6202425226290699
-1.042315053595697,5.564486339198544,1.3162944699699166,-5.117146565997585,3.4556681888818073,0.33968114256146587,0.4723372482091442,0.4348012557197881,-2.213247205506158,-1.0472906844044303
7.9143432244341705,-0.03201237373516622,0.7798046133605461,-4.487909736784792,-0.5851209415316581,1.0802632259388618,0.5884336232623014,3.2641578522946593,0.4209567360934153,0.5028865755099104
2.4896588513327433,2.166332989640636,1.1516688163688718,-5.378654545388397,2.3537820637808333,2.166116814867303,2.205227382746575,2.58305064677697,-0.7575463828057175,-0.8394588132783205
-0.9217722739482257,4.374524275123049,0.384417010700361,-2.8332169043028834,2.9920601845485257,0.5246438839424951,-0.2627662137504506,0.12958023467665178,0.2467966700678963,-0.9790439976369033
-1.2087692324618198,-0.5845756378101586,0.04840117174271843,0.9278233053697518,1.2803488590091088,0.3026798453761478,0.5324231552785103,6.9940543900022485,-2.570935899399716,-0.8023988928731006
-1.3923597891032582,2.7181110129240014,0.014267691198196741,-0.3337392841831182,1.167869154023152,0.5392647242181983,0.45493439064117314,1.2056333574041989,-0.3009272452477702,-0.7083718901793343
-1.8965180576336063,3.800291773556319,1.0247508830958296,-1.9906824545789992,3.025324109974452,-0.3484751682112197,-0.05626434632285336,-2.9798099851873125,-4.396055623218549,-1.0920940329145272
4.211383684223826,4.304449813878945,1.1620321299656682,-5.331408765706628,3.358662995698765,1.0375687814985404,-0.0009891766387971625,-2.6565579589938397,-2.5518763310286268,-1.1528121755402954
-2.5312835079122666,-1.0487221836466332,-0.735482128218248,2.903285875299829,-0.44728755825313316,-1.0928106454698479,0.17308515351333062,-0.4305828538205119,-0.6218810052391615,-0.19021380861543877
-3.2993236871264284,0.8089560521081054,0.3579442106403857,0.9320366827469765,0.9069565796575416,-0.49128847762797223,0.5791692687451687,3.223383663314628,-1.6420274568942994,-0.05470872474673189
3.018143422413612,0.6531531562974822,0.4759048492364519,-0.66263778879124,0.8784760658006181,1.272212619855861,1.5237677181229738,4.224085047472,0.3374352936196241,0.17499926174800334
-2.336531685606966,6.145277316885294,-0.017686922971333792,-2.6854369750782783,3.3376031704033364,-1.024793731363198,0.8847097705037205,0.9815101931464927,-2.494964075171031,-0.2474330964178468
-3.3816248797099178,0.9326746015346842,-0.19154200157645293,-0.578644707395406,0.7271084412775599,-0.5112810244462913,-0.5070833738794203,2.4831500224608023,-1.0363631009731487,-0.1916778219886276
-5.9122246978638,5.23635134064778,0.611903277058282,0.1124410996538282,3.0760682627673397,-2.4102633392784827,-0.6349106957621462,0.4110596044103288,-1.8399105470103223,-1.4647102249564363
-3.9362247959151646,-2.7649999523621327,0.8747283958522106,1.9333854857567982,0.6371065481095581,1.2357089904222875,1.2732171179171823,-0.14281634599682164,2.0939094096268844,-1.253427638836251
-0.8565723239897316,3.6314798794692558,0.7419041584969545,-2.104650776413406,1.2510594880281354,4.536323044439623,1.4603365711667415,7.235961880037912,-0.010681706535936364,0.3730230814128396
-3.965482646735837,1.6278698009811772,-0.44119630419073735,1.195643609265492,1.237671188875658,1.0390623492739095,0.7975469840248728,2.673958302011261,-2.7946761693475772,0.12811873525754883
-7.1642209951902664,6.28884244749023,-0.28706222034206474,0.068678745892877,2.5293669014864806,-1.3039236910735603,-1.0740505800128697,-2.3902346680666766,-1.3149383464517554,-0.07961581076620675
-6.039485866121723,0.23171312498652483,-0.6614293758541432,0.4812643947742913,1.9253785956077536,-2.02756057008123,0.541921399182703,0.2031757849443234,0.1725971504943996,-0.3914333717553746
3.7645550794212292,1.0947078155548562,2.4339003876268204,-4.655267852662198,3.0597132721045357,2.9432337656248975,3.2375741067662736,7.482500795912173,-1.8830056909145858,-0.8805143926598613
1.7923861095237512,-2.781338603393893,1.0215729596087026,-1.1794132654839868,-0.6965920975357257,0.2524295734942148,2.228774113137119,1.5704646742565946,0.8023542123911478,0.053753658453197885
8.713242476781836,2.285875679242991,0.20344141275446292,-2.861497359808627,0.6829426740256335,0.760620233948913,1.308277877767969,0.7449293521077863,0.36256421027578367,0.0759154282641542
-2.2583894981408577,4.439908693781943,1.2167266218272499,-3.3335630642692053,3.4420175050618367,3.232241691410761,0.9023367730897042,0.7092070954013366,-1.8237400470238496,-0.7596206396495508
-3.6014946323446817,4.430056348913979,1.0429109577942555,-1.8283659059971857,1.982704034808096,3.7642364615012194,2.712016789089233,7.25380067058536,-0.6484990703748058,-1.036523257919287
-5.292288645687956,4.80995744459876,1.7024645785520265,-1.8309554457253219,2.8302225204600306,2.2919952337757254,1.545465313605771,3.001145711785298,-0.8104625955082276,-1.1647167012472412
10.780119584383966,-3.7854568681053173,1.739009549663782,-6.678852415780294,-0.7272207367510545,1.648087209690929,1.6649652175553147,3.1428292093304697,-1.083858960309703,-0.4764060272027592
-1.1795829613078563,2.1611569634467998,2.3497818440831915,-5.284361357343936,3.280866510105694,2.626427913181347,2.0544694825356467,3.0295387407810916,-2.6218662890241182,-0.8611583329844884
-5.588031098771609,-0.007043042475196734,-0.4699234510092056,0.39683663467724534,0.873899148575142,-0.3449471398662237,-0.02305127417205107,-1.7036691335335805,-0.16456331937841664,-0.854662595696413
4.019156045800066,-1.1702945205907473,-0.48664109772015157,-0.5126844633967738,-0.2970704372964693,0.05845444644391777,-0.4590156543726968,-1.1381940806067286,0.4488796557104211,-0.25944480799302194
-1.6751012982160742,1.2478097101940226,0.6062062738812098,1.4386474942275336,-0.6707972023925848,-1.6223672571175622,1.136485835048769,4.483713498760999,0.12147101606333965,0.32698083241552445
6.852536247689618,2.3721243134283845,1.6113921788431793,-4.957542981779487,0.7280182046975305,1.9303885111618846,2.5542431653140545,1.9853096002820028,-0.5356680016811203,0.15295111184925655
8.11826540333862,3.20677096641752,1.3697489398146456,-5.488372093376427,2.56756863680232,2.48559198170359,2.5296407729034796,2.000175972598432,-3.645364921044125,-0.5131197074758305
0.13555885334697404,4.932716133605494,0.6789412906766137,-2.067498637839088,2.8996925910260027,0.43952939368596877,0.5664043766156176,2.6200948548815686,-0.19563698996627044,-0.8454486149582188
4.433158925850572,1.199100631480289,1.6635652778051329,-5.445405970989082,1.6140070266228044,2.751077787211284,2.7182207631374666,8.01600399347018,-2.4285588648650025,-0.45616518456615773
-4.96405468848933,1.4615842443240292,-0.4627251647510081,2.3548318433570623,-0.25411395463224506,-0.6579211766600467,-1.5038191936303182,-1.8704847012962968,0.0020706149499724047,0.5505531184231416
-5.330989886085179,0.21288257321282988,0.18680008070056792,0.14496868569817145,0.04798852914554197,-1.3443687034978535,1.172901486121604,2.973456782566362,-1.4623504635018445,-0.5829234129409109
-9.690364782858332,0.7966280813655967,-0.7393187387244914,3.991556298926085,1.9687050882413835,-1.2373545615586288,0.24561425753967012,-1.2653826059764164,-0.8927868335949205,0.6250067701605774
0.46327152244273906,0.9652143168050863,0.7830790886714311,-0.8992096742739992,0.7970992408402997,-1.0208983820959738,-0.10284904402245065,0.13400548705763884,1.1909733782617482,-0.18215014863728868
2.3625949251818605,-2.836570041378321,1.3347057950654042,-1.0818283998854132,-0.8820896098535371,4.0155148581519065,2.044759507293495,6.988115273573415,1.267204591060308,-0.24065480528905045
-0.7922093193069939,3.9975045723524136,0.3266902318842669,-1.0426530582797948,1.3722335381126989,-0.25212138933462325,0.8136712202788542,6.444041019578727,-2.9263923872721,-0.9493406875375882
-1.1885053252788131,0.7759896200270754,-0.017587153722409814,-0.12786050967556215,-0.17788377358923413,2.0439223761613197,2.058098824388656,5.041838481809173,0.9999889997782504,0.6391821686035991
-3.803936517043658,2.608292882839738,0.3910013812087158,1.0941941205569856,1.3168235693964054,0.18946826326719457,0.23528484349709194,3.8875184157191094,-2.689904453532478,-0.17243609514879463
-9.589154288212846,-0.0025820922770232488,-0.7034000773070097,3.438991920091427,0.6885108006451612,2.879720913609859,1.260541752203031,-1.6109896313523902,-0.06436621920927477,0.11692732887022458
1.320433387107884,3.1881506367373893,-0.01644752415600888,-1.6955168311979574,0.19395739913344312,0.32335316466468256,0.4677180793453057,-1.204706583007566,-0.6313861688505615,-0.5832215667912715
0.1037356693526279,2.631965806533233,1.2491402140234475,-1.1957940031382157,1.1936958985335435,1.4046056739666453,1.503002561515376,1.8878362116055556,-1.085475965032984,0.4253404509594172
-2.745602840779891,2.058533835946389,0.25524617089222656,0.25784028286593247,0.1611718859751925,1.1556706645942438,0.5886775976300418,-1.3293622776481426,-0.48831557578774665,-0.49549778840047237
2.130146207969551,3.475975677028626,1.8716938399539258,-4.1432390873546705,2.8218769507723693,-0.37485006947674077,-1.4864993589484607,-0.030751643305579154,-1.5603613233755662,-1.1716551432952445
-5.264383447765001,5.927699119131898,0.6948943724474833,-0.7109897782314282,3.174113415683708,1.149157216523771,0.8900259945397997,3.892790300767937,-1.513588007347767,-1.3022704566898324
4.474336563222682,2.3053244652210445,1.0045019917622988,-5.341115456792134,1.2611368395185365,2.6976368507094333,1.138236712125681,4.015134320393743,-1.328182357661291,-0.25686163651470156
10.150571371105185,2.976660232995004,2.913035353234896,-5.536798507318645,-0.6087732020176543,3.9776400498365456,1.8003577718642532,6.526624068651755,0.6585699615296586,-0.33060623126477273
0.09592766391756546,-1.5172039690099086,0.7551448657478833,-0.6043578497226006,0.7015287909921657,2.3424428550697667,2.002893006516676,4.014249269214983,-0.21264899995770226,-0.20732893226963267
1.7052346465076116,-0.9989592633799274,-0.10268085325855539,-1.2042912570885342,1.2563280863636854,-1.4133928506634796,0.4538164540542869,-3.5615513071631715,-2.660697249359503,-0.01132583242737382
3.2035048628960068,4.529021556163776,0.049987976869542074,-4.617843215686968,2.626277590168076,1.6525166655066679,0.0326583402237576,1.7887813613072958,-3.837429819828995,-1.068480748677101
5.244751317002451,0.6177120198326568,2.43218597812771,-3.626411799526982,0.2933148415774123,5.432452237781312,2.4767643923861447,4.362827234403464,0.984191042803784,0.5644198291819102
2.426550690859931,1.282065246071085,-0.8267494989130725,-1.7543952599384338,1.7591813997943828,-0.9424887640175421,-1.341078832168492,-7.272827302916156,-2.1095135054646623,-0.6943567353484926
-8.93427612959407,6.356458807305445,0.4704991460488637,-1.7857081197764462,3.3465807557262943,1.0299667616472348,0.16579564804695476,0.30598277772114796,-2.382715259320729,-1.2307869719072977
-2.997748930458802,0.07130318880124345,-0.17618196900673594,0.6261427424274288,-0.2529012368433312,1.0778138361701695,0.12191523177367655,3.5023799998044547,-0.5168808302329511,0.19332335096194517
0.3542156696936005,1.6152024788114103,2.3294451912922867,-1.3753643678648384,0.8114461603267973,3.787538533515775,2.154757222969323,8.53252264390289,0.3397644431871304,-0.005314545346663129
3.8303591710988005,3.3594406876942897,0.2777183630647275,-2.379747438911058,2.125354469345302,0.3863923271133263,0.04259411560711474,2.7336949530016716,-1.8697679202774238,-0.519266038061078
4.436249171887738,2.0656952611023036,1.4118361920164464,-1.5443616486610343,-0.09696356155453512,4.781126598026546,3.350834419164497,7.751677841736308,-1.0954256141606216,0.3873916047304876
-1.9089037110507547,3.374849211181235,2.3230277525399523,-1.5758203629399379,2.8800992304567266,3.1632676251536873,3.9018315353564823,5.071698596986511,-0.32534847233968445,-0.9363392271104491
-1.2084387942149053,2.7108953509226232,0.7517107657298555,0.48489705652984205,1.4920283934018088,0.9191135601592927,-0.09223566762291109,-0.23098473655789523,-2.0966040139842272,-1.10378640025211
5.134214733449371,-3.1289279309384646,1.6723803673476607,-1.53175239810304,-0.6313970975069185,3.8584099482006886,1.290307673918519,4.9429229650700295,-0.9251383197307853,0.1890070490324481
-9.53210917817132,5.909444012444609,1.3818825123054406,1.9263801024690088,2.7054568354480737,3.331102972959196,2.047094931137653,4.902092930490829,-4.0922934272519536,-0.7908113919561243
5.335320630481434,1.8123285862245389,0.3161643802598321,-1.2582460684312209,0.8756876258800628,1.3945664413667898,1.2976006090289642,4.256146759883678,-2.85775486059723,0.10664945464067524
4.840035819519659,1.8484623493983163,1.5120706264380777,-4.167819091441977,0.9426192460896732,1.9967531224232422,0.07788368674254845,3.1020084098462757,-2.9714382407678914,0.15466898477532867
2.4764939992901063,0.9965477620180176,1.6776894999223255,-3.7495191950642304,1.1527360796826724,2.8774982806419573,2.307862738565958,5.046661249960334,-1.8998708671141784,-0.09495617671217021
-1.184822645512123,1.5522905021362818,-0.22476694693886753,0.9425334704182166,0.5747398795133407,-1.0232599619012188,-0.16206659240560478,3.71159657482242,-0.7958710490385994,0.04531577047661795
-5.837607116255812,1.7767055811503398,1.4348571551206806,-0.3809936899175921,0.9847115638411779,3.703771672683907,2.5149962794922542,5.429443879232151,-0.7008312757232986,-0.6323678525550851
-7.178157455633199,1.4682516345992418,-1.4507567417182474,2.103731377891682,0.040710276888333397,-0.03608662358065562,0.5978241288889822,0.420400253493477,-2.205943418702366,0.4701237190569386
-0.03742956154975108,0.811686174312094,0.06835155358247445,-1.6207304098086128,0.20335395974239745,-0.7858643603542559,-0.21463745720785748,-0.44322341839787704,-0.1438783988825043,0.6389636128202282
-5.292737963310546,4.578161611819302,0.20260715073596744,-0.48941379382135,2.5207315119869826,0.5243297289497206,0.15075930607987453,-0.5656209862044983,-1.8515104727743852,-1.003022189825066
7.899541312131301,3.1648658352385457,0.7965461086656843,-3.997131902223788,1.6446089742919217,0.6419836985410234,1.3767329167344509,2.822002876907864,-0.6827593186466484,-0.7911984138613831
5.433947720820333,-0.04686886852540344,0.9721717718311665,-3.228315674722535,0.35555675922704366,2.2022706740148497,0.6602287607163679,0.9297894236328159,-0.13833682086080692,-0.5510310454140311
-2.92350010848204,2.8821265612413787,-0.34056409315562186,0.8849566513427783,1.0969852499588817,-1.9669524354904855,-0.2748916244797089,-0.6848395856508095,-1.0430187705090093,-0.43527914840249576
-8.615741049138094,3.1593373411707213,0.8879042405529294,0.7722288948852103,3.1401432331688506,-0.7602534410416772,-1.360580693639376,7.2093022709908485,-3.4055239712464225,-1.361909972005433
9.308957523513385,-0.9271860857483516,2.4182169531859863,-4.345985353384115,0.36552108834899544,3.5007670820710044,3.34935601250298,9.31958944575116,0.8319868059480774,1.0118126750959984
-6.902041490617714,4.617938174616132,0.636793596256503,-1.85678891043021,3.102544645167818,1.8402291848444348,0.7511139205653332,5.006287630094987,-2.4001538276849645,-0.4763479710571976
0.9482405138089947,2.547340585331933,0.2596682571148118,-4.347835558699473,2.260903849479006,1.5077524929271795,0.27427429123912844,1.9562590457362863,-1.0841955341992067,-0.5010850950809876
0.7065953495772042,-1.3212017031734562,0.8069494108128643,-3.3514465742350805,0.8304184269204125,2.725617360875284,1.9712119707719264,5.390323379684139,-0.6423202742155076,-0.8286385871058396
0.2241474994386543,0.03294203361406707,0.8898182251889908,-1.7666210446553496,1.50218587396945,-1.5665096357169546,0.20937690235596634,-3.6467058896884157,-0.0193821809394632,-0.8948554329453159
7.999613289560924,-2.0788991543191107,2.3009580388757325,-4.9322679910436715,-0.6676908383781952,3.016594407122366,4.6877868934925955,6.61469153099614,1.4787204045418851,0.06661276061045528
-3.056577738323505,-1.0507248360622619,0.41753924941274373,1.6478598735386332,1.6766387676058434,-0.07474459252712418,-0.5918728418354541,1.8651974214776035,-1.842688130166018,-0.22800583108011924
10.182737283926201,2.770054694131232,2.616135961289508,-4.317627176214294,0.1735110144321308,3.0600277753815948,2.196468926392187,2.7919402378974025,0.12686111318115723,-0.2694630754359668
5.893734650708125,-3.939235494116064,2.0253884543517406,-1.8029484156662903,-0.8746189610802371,1.5858833134861028,0.5558387788781738,2.8529531213130137,-1.2401703878798906,0.7214708745335267
3.755158907389178,2.276448589781372,1.8571677515298768,-5.578733553738755,2.967397388662212,0.9850730608862086,1.1256659862550114,6.43189443345158,-2.61554703966643,-1.1691947850823805
-0.48918909992676085,-0.24200105637736283,1.644471551505551,0.015123698673741592,-0.8142503715603135,1.4718994950338717,0.5450255571508721,6.84660411110524,-1.345112674746814,0.4875804033890058
-10.947105583994123,6.105615437120712,-1.1635855928198757,3.5603044259995964,3.2739323044929476,1.823301864693497,0.8496917755729009,5.608657572048832,-3.4664845614843784,-0.8595213580271169
2.7975039758815368,2.81848019598845,1.1161033078193656,-3.126331793633956,1.1896273140373745,1.4780626217222477,1.2714750557969547,1.980779076790914,-1.2564715837995346,-1.2110549405836366
-3.230365905775451,4.35161789398067,-0.02248095124790518,0.42065615166129267,3.2304112475370994,0.9327988101295207,-1.4634738231516702,0.04183572836777929,-2.858743619369612,-1.508055948090312
-12.037402700107537,6.013533774276126,-1.483155722457629,3.124881459610162,3.395747090724573,-0.41011673085676414,0.16969435277136055,1.2132485021003043,-3.4672064168442365,-1.2145569538034646
-0.30949603934371384,6.5680268769225,0.18670587074968217,-2.7936735877636965,1.9845051692173064,0.4506516727089156,-1.4546392302047841,-1.0288230622247336,-0.9800531897108212,-0.606282353259923
1.0177165228688045,-2.1109788531528304,1.0173576486803326,-1.4942492176456488,0.09428296244590695,0.7482734036289418,0.6533897924726294,0.6162555423410568,2.079734714578011,1.096542874448295
2.2711289151197254,-2.3988721912535236,1.4476256606330107,-4.25072328655491,0.09514088121675335,2.861521267312525,1.3905200282471488,6.548953882143786,0.5601804966541853,0.09190375020969961
-5.747750340523631,2.01218250482724,-0.6536363188894144,1.9402317160838647,1.450408285638122,-0.5061312458724687,-0.8675542895041037,-1.2843352188849637,-0.8063980541622816,-0.3749463962688921
2.219745786852869,-1.6268968341764651,0.04142895259284135,-1.0626676360383243,-0.6856864433842487,0.6621006979840643,0.4959984180546737,2.1047238252500726,-1.604620386510009,-0.30189509961456246
-8.202074087567073,2.5968952763020288,0.04001672377578518,1.6373238418265754,2.1493140009651834,-2.038969243546295,-0.06625520384839649,0.7594940171635771,0.4728471351886898,-1.2860357340138127
1.2554688636381526,-1.7088595919276948,0.8759329511108671,-2.3850971805221515,-0.07190266441662163,0.3415284304310211,1.7016502668107856,3.0873094537250707,-0.9356422458348903,0.05059637874659827
-3.2864746549669075,0.016727221260841106,-0.7793429475526897,1.4523234187108551,1.1945478469916266,-1.110115332022362,0.44839634506757264,-0.11241510862123028,-1.4904104208780011,-1.0192817744585299
-6.502706400930898,2.387735464178687,-0.8367596796545199,4.297181360653358,1.9208804646604847,0.7023214615326622,0.6244683571749821,-0.038650390113084215,-3.041251821988496,-1.358838918819646
-4.701604838352985,0.6375144221784882,0.14800053134812174,2.7109418229509474,0.08200731284593488,-0.7909856505145063,0.9819053259470961,3.4870664594348093,-2.556163128903737,0.07816652106337686
1.8467481129312675,0.43489317731401644,1.3245330808106488,1.0210280253019883,-0.8734897143090479,1.2522979334312114,1.3500311478974751,4.743721960765705,-0.8438314767314343,-0.04763623432558302
0.816473281573507,5.593260192080947,1.7657167444419242,-2.1338079338668217,2.679237266592424,5.2811628666478505,2.208919463049495,5.5557670819986855,-1.9178166985373073,-1.0906959478834388
2.388647156119337,0.56151961482036,1.1852818684581758,-3.171355943083834,-0.3508066314599728,6.213487890292921,3.2340930745139587,3.99081897153267,2.0592831806414127,1.0149360999813808
-7.437472217322094,5.148511919352022,-1.47822202632654,2.9727975077793745,2.6124351964988834,-0.7345573347451613,0.24154105572031004,-6.167522270189044,-1.2709487267971542,-1.2269647808862933
3.14050136724203,0.35936669583404895,0.8213716065885865,-3.423879420363202,0.36368039186460965,1.7307209864982989,-0.8696331101170133,1.3802365810077795,-0.48157801678711726,-0.09409959183687741
-3.2099053626226466,4.938831184794227,1.046616585126015,-0.30238283865326465,2.592347222111245,-0.27397463697866964,-1.0624060907125783,1.6784122928082543,-2.4247327163065417,-0.8972767544335658
1.1948809622628465,-0.16790658043193382,0.7439295623244757,-0.736001276971927,0.3576276826551894,1.495637984796774,1.0376505209045048,1.8689312574369579,-1.3600507211284611,-0.21886263114934715
2.6007363636767002,2.718006494334001,0.019452882673517594,0.12404911793019238,1.0005994931658004,-0.1473483925747857,-1.0056528127121147,-2.328960375362802,0.2824365904228393,-0.04210298496570202
-6.239759037168268,5.354330462662907,0.4749210039823611,0.7090569416104427,2.3855756409172053,1.1948809478570277,-0.4927156575687334,0.9878919851372727,-2.881517916937625,-1.0357198615368808
-1.0907986695042835,2.2758209140426366,0.8359666184081094,-3.4898235940465994,1.4041902843257494,1.756864920122375,0.5594863725989022,-0.45645926942311726,-0.5615314631815016,-0.37001063415825286
-7.069371289737465,5.538414344809138,0.3529856133388095,1.9671217220531427,3.2787422654456417,0.5548254887365508,0.5676628969274757,-0.8285594777187933,-3.083156745726785,-1.2222228112139213
-4.13608981589216,2.6567509794076583,0.7204019199706254,-1.1392502199531969,2.5853299386267676,0.17134320702413097,-0.24274048829700304,3.3871240280874804,-3.075834658746509,-0.5570674822226442
5.783243350035786,-2.501589632132275,1.2524348386560915,-2.1664841129734946,-0.028450990116646868,3.887993367572011,2.168409474118582,3.9980391680472294,-0.8289647598194105,-0.6328146958380007
8.666413601117473,-2.3682724422404027,1.4667502587755674,-4.210329178456036,-0.09026424758589979,1.933340784086845,3.1575694964087315,4.3638417572643275,-0.20895271321235281,-0.16133073448665974
-2.0290580399615656,1.446999161537958,-0.025591609139962758,-0.4595388490217933,0.2763403638609907,-1.2117121153320094,0.48554377778349744,-0.5141633666327593,0.9074103626150878,-0.5903939530914452
-2.0358198189029713,1.8799660553509079,1.3085070216426569,-2.1130648059004193,2.0124039407570056,1.0404980456750372,1.8907286284315754,5.684566062629564,-0.811593763055892,-0.18930146739861078
-5.168267288279971,3.2854920786176027,-0.3097199841667826,5.0480380891855745,0.172176389963838,-0.47457568645579995,-0.8627206589455623,4.191105991550895,-0.28695577455354404,-0.3174352043843289
2.613251547400404,-2.2673195634939405,0.8197517986603035,0.1525490109561992,-0.928639497035886,1.636763387023651,1.4286674501452723,2.0293579241606206,2.8999177300658734,-0.13078988853369278
6.742291873425765,-2.4069391158468876,1.6467381004587451,-0.6763140131514632,0.0012447896245659784,3.424448306795095,2.205857168948266,2.8220894871284967,1.8076382281084098,0.5703978452836869
3.598144347371628,-4.563032882810128,2.0588566083040813,-1.6678233000997524,-0.6752759915327304,2.0067709178842836,1.6847873196521377,9.638504072200254,-0.31492762202894886,-0.8199870159965307
1.6021496710259873,0.9065483416997909,0.2642940598524642,-0.49750346218841357,-0.21061731695371366,1.1179457092324057,0.037859409199849293,1.3040794891828904,0.8384083204251755,0.17943419403802616
0.15330996956821125,2.440445553586195,1.1047096467020299,-0.9918697718457561,0.2606269332430051,1.183781009528892,0.8498731441406341,6.2349092393712215,1.0230222576207726,-0.5097451376747872
8.670251619001084,0.7540594935909986,1.9921533863944019,-4.18232699260811,0.6071915259146483,1.5304149278056638,1.0238376158969156,3.4989360286940134,0.5369175379116614,-0.047734552912973564
-2.786666134995651,5.3726714923796886,0.8109033505233021,-3.121178194868349,3.4287843308156534,1.5458305649208302,0.8156926811651378,3.1357741729202533,-2.77686866207973,-0.798668202275272
-2.2496309192277573,3.697914198297322,-0.7676206159540091,1.382396400959729,0.9075280510301889,-0.01496328691196358,-1.6827486820249986,1.3467094778489552,0.3648854855069241,0.03937926363870287
-3.338912070539264,2.5010441074060537,-0.6810136866774704,1.4705364562412686,0.30875054071933006,-1.65641576575555,-0.2592910612325453,-1.907244127958839,-1.278655479990232,-0.7532195106216708
1.634069839482756,-1.5270445658286995,0.6006797910329625,-2.595439160777804,0.8334665106735846,-0.07208759592938252,1.187904826681498,5.43785009825899,-0.3578488729919247,-0.2618013726865998
0.4771414229749773,3.6277760663139627,0.9790266882238399,-2.003665445931819,2.195684864605892,2.233619092384554,1.5125029133048198,7.652785338224269,1.045299070846021,-0.24378883927358752
6.546859831709373,3.1162699396479523,1.9984897725559552,-3.44266143370506,0.9681827262638265,3.3152494605311795,1.6498144595029196,8.757439355589995,-3.5360741644615246,-1.2213495971506407
8.778318423115415,3.601086705207847,2.286714038312291,-6.99617383216942,2.5954288056968258,4.197167772670291,1.5113574543644301,4.7863108432445225,-1.1065784116562312,-0.6614144377383397
-1.2281034556489323,-0.3339145945275777,0.6064936502320856,0.7564672937075662,0.3847532266829927,0.48780588853315576,-1.3175587010691845,1.2287807291330013,0.6089495509919758,-1.0385043042435378
3.156929059988984,5.213655463824867,1.5154842038516771,-2.8503234331891676,1.6033601677900102,1.3925589991423706,-0.0242556926717601,2.9717439484889185,-2.2341240137421097,-1.2349962271461792
7.762372200440003,1.7524474520726157,1.6560278972418863,-3.5361769086856563,-0.5384424201559141,3.5498600934966813,3.5701075034036425,4.0791064170848355,-0.17845199597957562,-0.11947447679858689
1.3874261080487313,7.452444439627225,1.5609016268670626,-4.185602203502422,2.5921400725821413,1.4691839111074678,0.25060061538590334,3.025275524427873,-0.9823965831190375,-0.6991469980906144
1.0725307586030102,-1.2547184774302353,1.1504891672674773,-0.8457683644136347,-0.8420515111761521,0.845031575985047,1.1302992657637194,3.7319741645717177,3.025374984297726,1.068408666897402
4.758604395981036,-2.8559740551068855,0.525761086932918,-2.552399427031714,-0.7160971692536566,0.3019842698508819,0.8156530069138062,3.9598028476160034,-1.4983571563615068,0.218565960954218
9.69194259234966,-0.459479069640278,1.7219509742985781,-5.693883828835735,-0.5659644532755412,1.7688745757663469,0.96381675025666,1.688619502790323,-0.8879847429759533,-0.5469278515882348
1.2270031018777057,-0.1927832270435523,1.629945885974688,-0.39366326272899554,0.9324335794248795,1.0746959322349523,2.1237298301024228,8.220046866733592,0.03168836261240249,-0.4530044358049896
-2.655276331305574,0.054701837134988746,0.6817205366732946,-0.9272920523348718,1.4291680918063583,1.1272728310423041,1.3163549986976362,1.979649326625922,-1.3635067874808513,-0.8410791510485455
-3.0510460827783508,1.927132315465149,1.6718471959145143,-0.7157668116529939,1.485616449061979,0.8327098620758804,0.7819611272920413,1.6832490135252294,0.38135485110048606,-0.6702479327103683
2.7698856412324977,2.7707828297558854,0.9990632022572196,-4.255999757312882,1.4331125350024956,3.338533737793039,1.172875215307325,3.2126793616678024,-1.6770317119639346,0.37812363333939325
1.1735215880810077,3.0570660138118866,1.2701693958179718,-0.7974689319379034,0.32420128802868087,1.062897349608838,0.5183582929736803,1.408416952990872,-0.4670139757819491,0.21056242279490844
-1.0716844922338082,0.6692256774674276,-0.6497442285791045,-0.21402353255699377,1.7454603925830479,-0.6656467613012732,-0.4374345062076693,4.01792795775144,-1.0960615000522087,-0.42324341192181036
9.043633077432215,0.20907082909193273,0.7717960951157451,-3.064887845066644,-0.29964251522723995,2.461079533578835,2.0592853054840936,6.018916352289612,1.6092495512881875,-0.3958881418101201
2.0542455833209328,3.293581207495574,0.6171574415248112,-2.055806844459763,1.488508064167907,0.6424081218854114,1.214879881667527,8.716432984778637,-2.025366156996068,-2.049279611301962
3.413644008752682,-2.6499163122738887,0.6050429431409352,-2.7875952332713334,-0.19495276452706678,0.1709673514144716,-0.460195871610837,-0.943696684315118,-0.2701629407903093,-0.060505818544314485
-4.803919516561325,5.195938238446837,2.008815572701985,-1.9067796848116751,2.8236116198372274,3.4848403055182393,1.8374179037266338,6.578479538645638,-1.0319198042386006,-1.1047085244330832
0.43998201476372456,-1.5530504990779272,0.6152187176772901,0.34241753543102404,0.026036999150049978,-0.5333112401700884,0.9602888999975577,2.400158583013813,-1.9909101362604278,0.006534466351714637
6.333427185442954,0.9208340331987469,1.6695599307022269,-3.880569340827938,1.5822305818108755,3.297372097548279,0.7503968382756548,6.28555071586319,-0.8481713191131242,-0.2960765053978916
-7.397632469229903,4.232580297117216,-0.332065801487022,0.3585135536408303,2.993989548544519,-1.9529725023278413,-0.38783372416217277,-1.5159446150934583,-2.833529196606077,-1.2933451377962295
1.3897991075772143,3.1263887672066852,2.0214227998269254,-3.5024312476931585,2.312170997615826,2.985375980546473,3.340837671307015,6.385269593051998,-1.1956625607237692,-0.9722909824769113
0.8462580515854992,3.295170391091773,1.3772109559702084,-1.3946596005513345,3.359877930659933,1.6644303876854742,2.489366571412124,6.150925951475389,-1.6097545237312647,-1.278015037421024
0.15416565336143684,1.407157674738766,2.2016033807016244,-0.7752001510396513,0.6057251582948417,5.216251436276073,1.6704499753639266,4.433940798253379,-0.6611035716054465,0.5241068635296557
-7.056534947802659,7.773735214120218,-0.26680007865639266,2.4723165379495238,2.82802053731922,1.5444906589662384,0.9269187964595328,3.3591665880008135,-1.8233859599129576,-1.463313755204354
-8.198946091374602,5.447713348014208,0.22166101273015412,-0.30049194100179055,3.1923519731175327,-0.4739345761104442,0.7408362532477534,-1.3780278517391003,-2.1835063003713193,-1.403805207942009
6.526736532801063,2.10012710447414,1.8297122421873317,-5.64757935720609,2.068067386343056,5.596098985331409,2.4255026282555825,4.102806087303367,-1.1160370126599144,-0.74794030138645
-1.3050870080551236,2.896746985828878,1.6571133483312042,-1.655987046025788,1.0860488071535568,0.5733542466545691,1.3428156551105588,2.9495775497406034,-1.942350996758861,-0.3666906612662042
2.8034286425364487,-1.3299158654333394,0.6981728930095528,0.1980603464371291,-0.9670402727062763,0.30138226417304403,1.900058008827485,0.9987092747900254,-0.5369044842390662,0.4787529994318786
-3.401157959527798,0.9882933270664241,-0.20410512695087818,-1.184117383277623,1.2942355524750027,0.6078388813559906,-1.270075907859511,-2.8354500989954676,1.001853382696188,-0.3457753651412631
-1.227815054700316,5.067480710921397,0.5379781567319962,0.5546942501647787,2.8392633747199696,1.6753316955398425,1.1712052209392345,3.8593328365647204,-2.5019690168069655,-0.6498474325585709
2.404734971266946,3.114557164385301,1.392800744988215,-1.7347162621853074,0.3090369353486746,2.0438174868758443,1.2738604158832743,5.581772142200427,0.6506546160966943,0.08667507372607891
5.2975115240099875,2.043498501185486,0.6592950367842605,-0.7336005690875385,0.14354622594022337,2.3571078450606118,1.5611704762799852,6.150549810996101,-1.127545671340554,0.24230205038004526
6.631233843415318,0.8817695785282086,0.7758220278277475,-1.9423701645223006,0.006973882962651334,1.1416878536342674,1.9982404692280924,1.8995697311946171,0.06337873338961561,0.42046666030232777
-4.364814137040797,5.379723233915037,1.330540849587276,-1.3986861816821559,2.3785290631386724,2.817123883871896,1.4092211581368879,2.5556662104432593,-2.0885227754504614,-0.5983977794747157
5.088984377044451,1.555971050159749,0.8683563745370529,-3.9001502634087104,0.20388811140992869,2.8037835479979063,2.5861294138012254,5.288679877462054,-0.43895312074335924,0.202460472665705
-4.233293403925012,2.7322368067685012,0.8452436847231897,0.5818690744118924,1.7718586903599007,2.5352776165091444,1.1466448821556086,2.629236787561849,-1.4038297512663827,0.01383807926750605
1.1304253532877593,1.7372648973124103,-0.8084658118053356,-0.8767250189726196,0.7116256775449665,1.066822174837562,1.0859193353174523,-1.2802189987109736,1.423722147550798,-0.5540987375873849
-2.305455112618946,1.5534761336304133,1.5243574002982139,-1.6384425083131204,3.461651367511494,2.0437760161874534,2.392919645901309,4.819915471147398,-3.1580197484150645,-2.1467151441317442
-3.9322650180388834,5.600542627516781,0.27806061799770543,0.5083603998600242,3.3800069183673127,0.7170299852373487,0.9037351941155003,2.96064057050476,-2.314229192819946,-0.43892281551491835
2.1126388231300286,2.5253062832384825,-0.0063634647537593675,1.1221898540246908,0.5646890405680338,-0.28864462493150905,1.5206999343984495,3.615951290675701,-0.9764331542926452,-0.46278985938789974
5.3020043043474425,-0.4550367013658974,2.3144915840407903,-1.9508759066640513,-0.18509256453857048,3.2584518504129423,2.5913882189779978,3.5263812038111455,1.4764371078027163,1.12152864737363
3.561793664287096,-1.5484927331657532,-0.26879899099668275,-0.030153348283221422,-0.7485606156171623,-0.27908359411660233,0.8155281458562179,-0.5669712010449312,1.1522304056882329,-0.4925836397466969
1.0550309570282166,3.6506634268950013,-0.32091871961030555,-2.5357867287763725,0.8924263866350846,0.013242011843235313,0.9756583484032504,0.501898840513814,-1.008695621475928,-1.2726809922123254
0.2635690264780808,3.7047759010475594,2.3613548454276745,-1.7342935681999856,2.4177376810810816,3.159410712683481,1.47347857080912,7.908074153085294,-2.2827886674240117,-1.257207873326723
-6.008184321984703,2.9011596366896297,-0.7592662464542503,-0.07196370156887279,2.8760041545835278,-1.9784068054742026,-0.6763861817949223,-5.625394951041901,-0.11849758772871463,0.049625879731381474
-11.277206115736007,5.322164021870389,0.2268947742119185,1.3786879540760355,3.281033045963629,2.42064350026883,0.767103650193122,2.4308401344932262,-2.7153006808268954,-0.03358221747451343
1.7096943631563293,-1.7259175347855416,0.8128074685538422,-3.3769831986462204,0.12229965176112167,0.07852108151022397,1.4084174044122866,9.638599032557208,-1.3973072319773132,-0.14004074326351548
-8.0817711041608,5.025718952125913,-0.3334653642580404,0.42594493310603954,2.396579621506458,-0.4654139379371255,-1.948766109466125,0.4530245712405158,-3.0863288103583573,0.18817101329656677
-3.6437758857513716,4.312591832331754,0.8147472948529817,-2.1366714048562563,2.0185081760852506,2.1542908616710825,0.7058987799137307,3.4337123083069794,-1.4494142511084527,-0.8620474136824487
0.5873455083352717,-0.4039163868218893,0.2977412503722826,-1.9020476921015321,1.699634848389318,1.071453518618047,0.5449718893664566,0.05611092515692094,-3.7862075520249103,-1.1726199133000281
-1.5592768272196578,5.419713939377146,1.8224707378223157,-2.008102047464351,1.59726458391231,1.710789814370035,0.8548731575877576,9.806971521615727,-0.714125990871769,0.14763499017317705
5.145185381812844,-2.271139868830042,0.6657647850098262,-2.4347952804626676,-0.8745684908136596,1.4262878256806517,1.953298954000129,2.770422872658124,2.3563855584365183,0.3817468812484132
-4.359022764418945,0.3045452370151672,-0.9642067858470421,0.5489108206823099,1.6205691983732105,0.1527705564372719,-1.8901733401377834,-5.6464719086040365,-2.293241161314793,1.1855298085742223
2.3374339945389,-0.2558918254166054,-1.6498934313109128,2.7147117623263632,-0.36276154077280354,-0.2554487269214678,-0.3752118077416062,-0.625920165049585,2.0476615785913825,0.5034779060340663
-1.434377312816154,5.985183787636174,1.6853711863816565,-1.7502943374757394,3.0792695070286324,4.052009667453019,2.021362018462534,3.0297809765619017,-1.3421613455381027,-0.4707554703694901
5.8009430746175425,-3.4430224173046757,0.4302431272272392,-1.7553321531949606,-0.44024919124231776,-1.8098232711988125,-0.3685613597590039,-3.804881365418577,0.6490566428726796,-0.3146077409959008
8.565543951937634,2.7452343487134048,2.424634811566696,-7.923541281806436,2.3661350514579356,2.1579108874000337,1.5054969511305722,7.704693391592049,-0.19187771242000617,-0.3822196533132621
0.5432399187031449,-3.4338009648824617,0.07045847481818016,-0.607507037615748,-0.7135884188820582,0.7149915111292505,1.3883613169131055,5.839708597463027,1.878326828830842,-0.2373412149173302
-12.205335774616671,2.972733138304549,-0.12705488539852594,2.8093047506944893,3.4599574035204714,-0.5883173415325338,0.3635190676362743,-0.16825219824672188,-3.5069034853269967,-0.5505868750800844
1.1989048136618456,-0.7839730235949317,0.744078303738929,-1.3741059013282553,-0.9261455584010747,2.6515496399688834,2.8395577787077406,5.6848089208285755,0.9596107328799326,-0.11479239502883186
-5.89486876656294,4.056482675821483,0.8367283906153892,-0.41107582274572074,2.534206877198694,1.0021969008763842,1.5232270130237398,3.5183324611164486,-1.7761740947155809,-0.6370262535226239
6.025945106413699,1.8181801190910856,1.1000940860177821,-4.170560515197278,1.4947550032352437,0.3853161575971491,1.2986392078600255,4.717623504534041,-1.8600021763418901,0.2176710466122297
2.023091828768152,0.15530314433776493,1.0834996596715725,-2.155466601198346,0.5070362428864867,3.88213713595839,0.13209721445083136,7.0822287100268015,1.2334583463388569,-0.3193355122873348
-1.4127788158728602,2.3405872087040205,0.4325372375553191,-2.6697413355569806,1.4609072985700928,0.6305560805461172,0.9597707140793602,1.8404396003987418,-0.35015387203668846,-0.4619456223230734
-0.05143906945394777,0.9330550742505584,0.2234157734866219,-0.47290410964840673,0.36534298745337646,-1.0178662229460262,-0.4276129199457679,1.3093108922372882,-0.3478149034281091,0.11812949989110468
-6.008252926492364,4.47402313921542,-0.6007239857453669,0.30898563279397895,3.2022168966889923,0.7975145422978924,0.5465204596704341,0.2669624336681317,-3.0403452468939745,-1.8839598502422703
-2.585112868625435,5.483009516124943,0.6949488166802592,-0.86515805174471,2.6599113379210007,0.8980396495866007,-0.8628933139144863,4.711987356242324,-0.2233243247282659,-0.709634798599455
-2.08242932246515,1.2100925804660712,0.00861352751654962,-1.0844082589343809,2.1812162867119578,-0.3650088889095543,-1.08821754897199,1.7636694628944067,-1.0110098578891091,-0.8858475257998031
2.9693851923636494,1.857605417757905,0.47551200429692075,-0.551566118554231,1.252667655410956,2.987147029618825,1.20273383534652,7.703032289022601,-1.9161098320883458,-0.7915721661659133
-4.670048444586777,6.549414164362005,-0.643517676413767,-0.10022486253437674,2.227467464580731,-0.5393987397111006,2.1425937157836317,0.6673801114938854,-2.057733190435701,-0.09293394355790502
-3.3610390551935074,2.0873756119787137,0.8868561115043619,-0.633832238876625,1.7666734380133748,2.4901361837881217,2.8385738125756035,2.848989225567675,0.34275294014210744,-0.32525915909733166
-10.65019264851454,4.249420307781827,0.490930020525598,1.262273582520369,2.90205994415283,3.3557448756018236,1.3581715368656824,7.82812407802723,-1.908816540894886,-1.40273955074543
-0.013156306689720232,3.054618706617799,1.9454701724738395,-3.0017506721365095,1.8105286664343598,2.9443217155576327,2.1872072554624897,10.750446636456758,-0.717861812592989,-0.5135619597430057
-1.9028139008567633,0.06829661528015955,0.2952888367035054,1.8351730268436366,-0.8539997807553076,1.501424380465935,0.3260481329180316,3.9209204771121255,-0.2268633512109639,-0.07810314645019711
4.523610539556741,2.716626944433639,1.0782639597072736,-3.2725336098195266,1.530830724207516,-2.9424783047649683,-1.1181873254035706,0.2864414316350993,-0.7159586276214478,-0.6357417467962867
1.1270994314079674,3.4848992389280746,1.3019363058375841,-3.180283774065391,2.4971576227370607,-0.031431039779099335,1.2811949227046846,1.0483216665364556,-0.2254109095472691,-0.9818738558425908
0.9820498401576057,-3.3686206487723767,0.5036186433983914,1.8456962148073024,-0.9189899802063363,1.929861058736167,1.021351140961632,0.8803190665269514,1.3900168057690536,-1.2077585517320812
3.0248244950900487,1.0046764483014168,1.44501904850903,-2.3323101225743814,0.3338038572385682,0.42152051798015533,0.6235538394284863,0.516542819817579,0.035856649712064675,0.7129683267196111
2.027126426749569,-0.6881814796827207,2.2774088862353166,-3.740044769369908,-0.887726047074715,2.554990423436235,2.228581086759246,2.933325963916004,0.9049873812898623,0.5562911807595217
3.780510662853684,1.5817947629390454,2.7179737450340906,-4.722414225558211,0.9063959245855608,3.5422772498324067,3.0593542258240833,9.100186306277879,-0.762847742032619,-0.6202828427639823
1.6437151276858715,4.28512905803478,0.6850940766080948,-1.3115728537945914,3.1119684005206887,1.658392285847562,-1.5539082808469455,2.765412640696053,-3.2656426413511808,-0.8217940031587931
-3.700773038877906,-0.3887004225822157,0.1577965448570416,1.344541773655368,-0.15293630217254073,2.237449540224875,0.876101876207644,1.0841534239514754,0.34801020751227557,1.130835261373303
7.654341840975869,0.5187034715026378,0.948641810944881,-2.616354313007122,-0.27088481092898553,3.7475126299911024,1.0700632736476223,4.53440910305032,-1.081355947520474,-0.3984251254580099
-4.3247920720589885,-0.03881113677793067,0.9836890625973922,-0.39716580704159093,0.026049160370694935,-0.2675179650475821,2.252476855886946,5.836817671446845,0.34403340488809464,0.3352579309086834
-9.784684904467118,4.549749535733135,-1.9586840073163065,2.467952568674112,2.9962931975579883,-2.2119809959358507,0.30477860017291,1.0653954150572489,-4.879493117073647,-1.3961390645647207
0.3846996160994911,2.495993332330025,1.5808551479094113,-1.9892740399627626,0.9805327210827912,1.5326753689850734,2.1206898258359868,0.8346645865835334,-0.2673815456131672,-0.01265611895062549
-5.053787497289287,2.7007571265056827,1.1486584245476856,-0.2238621679761258,3.2377845331187265,1.3408342899536798,0.41860959223932037,-1.9105480912930917,-2.6061296145946784,-0.90437779105541
1.9878591700532071,-0.69013124080356,-0.8450129831683263,1.250429781560995,-0.24374179223857628,1.0169728361652461,0.14249603771690866,0.5473697147521631,1.0209038845365785,-0.16326335495014355
2.3831531086312174,1.5328793086597108,0.38708756300122155,-1.489034699052661,0.9811212714752755,-0.4662427598433121,-0.28321108738072515,-4.021766998419682,0.060367623567722184,0.17815186220858267
7.2718715403250425,2.7582839019477365,1.832374264752554,-3.6693528220898792,0.9246295334184074,3.7662891098682976,1.1252350061616903,6.5316024685123555,-2.1784664281124804,-0.11790885032015604
-9.365820915219135,5.637898116700555,0.4927066886132911,1.57850917014762,3.4116300553590593,2.443765532094121,1.4061352903543687,7.75930080453799,-1.9799679234781395,-0.1135067708103921
-5.451720415864303,3.5922754182558436,-1.1733718529188095,1.2591631483751171,3.3292676288155905,-1.5641897933902231,-1.9397020091006762,0.917334444353794,-4.110253117923099,-1.6661996167863045
2.1447634296774796,3.256889554927595,1.2411947470790294,-3.2533056637792583,2.1437982128456583,1.3232314375203547,0.3113122404171211,2.381538634162811,-1.873929065202051,-0.31708084070968834
3.013596370821625,3.551037337812855,2.198668636000318,-3.945157622870226,1.6281069867384992,2.266062425549109,0.10887483385579723,4.228752250111756,-1.4743898551288517,-0.315438397429039
5.408246841459662,0.8617218114392834,2.552714718236074,-3.9868988504204403,1.368600921919156,4.52219685982348,2.316484423206536,4.757160580329796,-0.7712846476987277,-0.1439375479993392
-3.9524272606386335,1.4527156904964882,0.19326552933358612,0.7809127723016317,1.079587862407236,0.1293849909671715,0.24403552522961275,1.9849095154094756,-1.8897887009252496,-0.12772789842840646
6.071809349457409,1.6902418762150904,0.8754299951429615,-2.7998342336512194,-0.9640726746601624,0.03427646961389824,0.04821555241496668,-2.368155753697247,1.935449782371939,0.22697802857189142
-1.3297947303868525,4.097544665595413,1.3959312069498113,-1.6842119710075385,2.684133801281484,2.062494984049165,1.453094162054772,8.414474726404903,-0.8692381594692948,-0.3677408255204525
1.0248673110696789,3.5722276368964505,1.7520287260794989,-3.5032227351169825,1.6106361049020417,1.323562850609128,1.54805142354365,3.9169211148425735,-0.6543560143239529,-0.1822592701805823
11.187821788841994,2.3600258659241726,1.459571999925421,-4.790771222769564,0.2482958558652837,3.025287106255662,2.450560911563954,6.71679818778569,0.6038189645323385,0.24732733287547604
-4.3915845134894695,6.103155573598179,0.35088948354417754,-0.8651252217933024,2.453780000183911,0.7531531119446266,-0.002824130406607486,3.1040244904519168,0.10087136601756674,0.05953915884732267
-1.0791459243148482,3.311616284391106,1.2987610888723407,-3.5712236731480083,2.823564798026861,1.0607462566187165,0.434820522629633,8.725663424983582,-2.5506042864245133,0.07564601378642236
-0.1693560807794645,5.04604147103911,1.8582667755089555,-3.3853242309094265,2.1045237036380815,0.9171608356673413,1.978470060237754,7.699351443899198,-1.0725317802059406,-1.25461295513413
-4.839025855776901,4.7529148840773034,0.05128385821781068,-0.7763926769070776,2.398199206613241,1.475192871163436,1.1192071597648634,2.679646843249056,-2.088693881539762,-1.6103725857907127
-0.7056619604621324,2.96703456422342,2.1415751997679853,-0.7843106151135714,0.8068846698420387,2.888538289800055,2.36982443422818,10.815727224589615,-1.5975389570125738,0.0037068375333504247
5.236889356048682,-1.9775604364283923,1.2050517888604448,-0.33432899183379833,-0.8154326892676989,1.9884380310720238,0.7755706344467644,4.786005389408813,2.4111926971115185,-0.35342748648684863
12.932193917503685,0.26452841027674917,2.273508481570688,-7.795216243487779,-0.3857038394164316,1.0268650264032195,2.3881179286999044,8.328539053328639,0.499867933233794,0.22346838301102576
2.0958537695669075,-0.6067065794264895,1.2971063161793503,-4.521707732783971,1.0952397986860736,3.1548271171488427,2.044713666918093,2.6739997803931894,-0.032232602632597834,0.2798622009832853
1.3789340959455387,3.707655073846043,0.7333391432810644,-2.815541699988409,0.5623396096347035,3.7305744613025986,2.14834514604575,4.989661960195382,-1.9930051396837167,-0.03061784497113762
-2.932916642751018,3.9090353946555276,1.0218795128621583,-2.4756693869632294,3.2051304991277245,3.5649555864369686,2.8844960649089546,7.553404014167169,-2.461505640904232,-0.7515091347943628
2.0094991484320865,-1.8358757038867586,0.7778350695259032,2.0579380415223403,-0.9947856643510046,0.08511548395580354,-0.36205714378901505,-7.018850129920171,-0.5553265843863888,0.2976619394190646
2.5881235768363875,-2.5198563389383426,1.4242988254830513,0.22793775144459452,-0.17418058229214872,2.0778670488481126,2.0048640980283863,1.515049162840963,-0.07515028315262653,-0.11445017185233335
4.6833271270611885,-5.4413326666333734,0.812361508522838,-0.8819392616261476,-0.7617816322756932,0.2894989373944729,0.39686150681805415,4.178377729884362,1.3482067930766428,1.0918264207586006
-5.685100385446965,0.7843795996393523,1.3835764139709612,-0.843739193360709,1.60738475157068,3.593559913425911,1.3382248631665543,3.0718316719717644,-2.3655881657259594,-0.2920279981102287
1.6521305022516182,1.022962849743903,1.838063839276365,-2.8552296153561905,1.6944939889240054,3.8717772870948517,2.1752892919662328,11.136050645737765,-1.882379070229458,-0.957935636156348
3.8235560581155994,5.116855012083679,1.5435204763079746,-6.7565822303277185,3.150065811819628,1.3003789259160201,1.08504781390465,3.321850178140876,-1.8310426596496354,-1.130972607806878
7.778222726471251,-1.367309619081137,1.5333579510148263,-3.548639847298604,-0.3473654180920387,-0.00019851425504613385,0.8250942391498167,-0.554055234489846,1.7815031835045005,-0.04100965671714833
3.8077261561666367,0.5125888881273558,0.25888917266714906,-0.9525244959299289,-0.6006202992963986,1.8625722509535618,1.7796607383254472,2.535722169475937,-0.6641231954394328,0.20233829467616957
8.979024300678633,-3.246207432078536,2.0096591126826424,-5.922459852911441,-0.6975101067651359,1.4980012578282347,1.721485195227774,5.276587550216791,-1.0243348254675417,-0.6603256151283543
0.6584624773876531,-1.1942182093832692,2.066782251836237,-0.9319384406056728,-0.8525916490177138,2.363221245035097,0.26990415426450587,2.169299898451251,0.6909158878679404,-0.08477481871316503
4.6640981752806905,-0.12699353480380599,1.6218307776031973,-3.096606841175861,0.36333815250003454,2.726223311749209,1.669921529532319,1.616622895928373,-1.5289108408634835,0.31083046403308673
-4.173549463978905,5.378284380524973,1.8402763629656975,0.17106420755521087,2.6617210817913586,3.4551714512527956,2.2314630083287192,8.70647831945288,-1.700713435527542,-1.1419319043431877
-1.4525802122731966,-0.8037398250574407,0.22252137097708422,1.860518209584344,0.3833504819136788,3.169271621943458,0.9140809291627824,0.5624854842250383,-1.5353470072116338,-0.6517854038471326
-11.45559206784004,4.9964193852931835,0.11682211701777524,4.145587947033218,2.3013748057822854,-0.15995665294465616,1.1102832973999595,1.2801623739996386,-2.04725558693323,-0.955486234344274
0.8064113599468601,1.2196833946377241,0.258567003634654,-1.8041040651180387,0.6139589553798137,1.2592244458029578,-0.6397992360205427,2.785129906321689,0.47039627441351634,0.24442471544634797
-4.250616014785881,7.175007489037831,-0.9627769054517274,-1.5716204212416731,2.5696572013162093,0.4239053459564526,-0.295033067661798,-0.5945904423699392,-0.2530344695918313,0.49592983923316974
1.7999872021776548,2.9408762429557043,0.3121651899881652,-3.123413081391355,3.0398020428728616,-2.1978879844949346,-2.556362662717663,-2.0111298632102055,-1.8375456256281315,-1.8493774545799209
-5.703589963425667,6.473066204689123,1.3239821166615535,-2.3556482520177644,3.233172048870369,1.0089108934164446,1.380955687739154,3.6354882691074977,-2.24801863012038,-0.9417322415380298
-5.340042197745065,4.262186900466997,-0.24908434744108862,2.6946727028879787,1.0022562028510276,0.3789899866293739,-0.4584342580132767,-3.255434643474234,-0.6576808065754045,-0.7098322797568258
4.13941054069985,1.9160972645809873,1.4635079116996728,-2.0751478173953553,-0.23984146392681227,2.202442619748118,1.4469606507722654,4.974373059140632,-1.6500839092309498,0.9497378204150521
-5.8369059216566175,3.7611629888488545,-0.788805424079744,2.183184000956802,1.425568925082887,-1.614595347416547,-2.1628112328492346,-1.2566370572050864,-0.6294622240011432,-0.3432761679570485
-7.048423451826473,-1.0202235800373707,-0.17852053596495196,1.7166019367430594,0.9442039106876228,0.7085187735414284,-0.40937204445253433,-0.1899458606984426,-1.0360618942554143,-0.22212435430724597
3.415451596016493,-3.076998547678141,1.2867667871861492,0.2691747188218589,-0.7885564206759423,3.600682494675583,1.8034587135953077,3.1882624419291274,0.8200033405510421,0.016177961129384757
-2.6417988947369904,2.7336531592981315,1.746301145292686,-2.3402197039352957,2.8668158786529565,-1.3170989254171666,0.5788694738047715,6.87470041268907,-2.4865458675068286,-2.229785348839628
-6.935978807762892,6.014796763508098,-1.083371526809116,2.708024759610101,3.34408134527044,0.3660338782332034,1.309834096055004,3.686026276959006,-2.4927707673562014,-1.558757976990514
7.839493479373869,-3.5155825597277035,2.573679815734077,-3.7776366273886715,-0.9838858853241751,2.5888105300569224,1.5609542367575608,7.914779148932294,2.40012484108478,0.4492119049170445
8.859920113565998,-0.24370645060699184,1.291055700362512,-4.9780683862997295,0.4027392241971619,1.4116511140930115,0.47903161200992966,5.920283804257718,0.9956549792094055,1.5548667433996226
4.440653250112847,1.601593188878935,-0.719828720811322,-2.26242948233182,1.799019743917329,0.38594098840598656,-1.1912253879610664,-5.0259625780238055,-2.4466650739152396,-0.7119755002670719
-9.239047955372502,4.141065970311936,-0.19204086483032892,2.3836855519031412,1.7757219887149325,-0.775778483825116,-0.238377707867724,1.8397600036467163,-0.6403266257235997,-1.1053117095128056
-2.2499844654945833,4.069092186004613,-0.27293374556446376,-1.757381318744216,3.128429607520874,0.8619559613511296,2.0489569214982524,5.268471127829574,-2.0425188439521302,-1.2216648630536382
-2.476559236970441,1.827496985714736,0.10723536231993727,-0.6387694623728725,1.5492023500872572,-1.3062534019195797,-1.7832630497659592,-1.624270887511131,-1.8367828106463642,0.12371937366599225
-4.938112978548217,1.4109477247510753,1.9054830433993022,-0.42286902323659387,1.3022821873361146,2.7370091728784787,1.7949349376741095,8.209734367188402,-0.9344620194550601,0.19254049676395135
2.4769549546846354,-0.24490589037351612,0.5253864130887398,-1.3477129670015768,0.0008679404691067649,-0.957231002337867,1.375761573930572,1.077596945359927,-1.1885678846118644,-0.1969722758596857
3.004185286929209,-0.31824750217223813,0.8672884363258136,-0.11363148231491639,-0.8114018242209636,1.5918463522576576,1.967531053067784,2.827449811926624,-1.4126282953420146,0.18596191985035174
-11.183444243965813,3.9453177053548223,-0.08220659747199127,3.1583209216416304,3.193698411275194,0.03728711932244555,0.8655729449116046,4.951477823627105,-3.306097488102217,-0.7269991506296142
-2.7329317610863084,5.737596961750257,1.8150913270608624,-2.6119705650952842,3.3068636972757135,2.368845438321909,1.2557925916599262,6.706490683349487,-1.8472558930030685,-0.5268902398686955
-3.946481586374626,3.4197727779305063,0.0598065881888123,2.1169525795647295,1.7785231155989005,-0.303860724059944,1.5547644416622852,2.5735115595636278,1.4964323355577733,-0.022201977914403724
-3.911213093232597,3.902129863966877,0.08707253334740103,0.5491187330674555,1.9504580032046297,-2.3121855304808516,-1.3558142018993051,-1.363131845749565,0.831591313898449,-0.14864946074668084
1.3350001164563716,-3.9265024526597347,1.6061173513652318,-2.587846911556783,-0.3666822880499174,2.167020378060078,2.0572525631792953,1.7336537082007277,1.1532503064118018,0.22330567062872034
1.7198028907125646,-0.222176369953233,0.6337510059288333,-0.5623946503067797,-0.8204968760073708,2.787313175429077,0.41529177859540506,2.2170166709737957,-0.6606049530968947,-0.273913029351492
5.282697038560805,-0.670026860637198,-0.1778350455953015,0.0925200811215532,-0.9945929102558972,-0.4560968666352795,-1.259096809088805,1.9586229998231817,1.014196482741247,1.154261326434856
-2.0604460214824756,4.677370411660071,0.3426499499896936,0.6478266948682514,3.420792434827308,1.0042109099843328,0.9618803659654591,2.9884699516358286,-3.569275613291981,-1.1579966258560448
-3.054720286594497,2.6785522589418775,0.6436845387670896,-1.475178751523168,1.5006516110538635,1.0238164380300536,0.8139039790256062,2.177100054825963,0.7463395965681362,-0.4923217097572343
9.88577603769013,2.1585007548545083,2.3583461960522683,-6.276837901176694,0.06529482996444647,2.1251395536900484,2.960453361196639,5.294095559167947,0.20998941732794524,0.19610870261396596
2.968830290147108,0.08415655672929866,1.5343748825869699,-3.4076981664799377,1.329084875955922,-0.4579199573520554,1.076757854600121,5.988575676416225,0.22478865387919753,0.0968512485198671
-0.717836557586145,0.47855744594735994,-0.6347056050995321,2.4969749643715593,-0.19192573793357426,1.0100955950273556,-0.09405697750144865,-2.9279348967033827,0.12675035508398266,-0.1566239882092857
2.1906280613080313,3.269773765101015,0.9892070333119447,-5.284632796789019,2.062986734502565,2.3771663699895367,0.3702240917628875,3.7298229084048176,0.29835264983928234,-0.34003597966849447
-2.9915807061059354,5.280511003875024,1.9761478286067216,-0.9738363481006008,2.290925393032333,2.839593484277283,1.327263169546976,6.924951531961398,-2.5988426255268027,-1.046133966790753
-0.8176019452921421,4.973773761217612,0.1845180234710235,-0.3278675561868949,1.990237374841782,-0.4709114008093501,-0.3991267345611199,2.915382441284919,-0.22223162174994415,-0.11171247301585996
4.0241578810463405,-1.273376564335949,0.8915417838210032,-1.1818333078200765,-0.2948470603371134,0.6838087209450867,0.9306414429936197,2.5013492567472975,0.9679487313498193,0.16318303274876203
-3.6909499872440574,-0.2542545904582982,0.4919970863682622,1.9705377686564172,0.4160121781267272,2.3317002085170486,1.4779908336140497,5.650202232327027,-0.644722292068406,-0.868888661344924
2.7294599353155204,-1.5428164952837309,0.26031504082750845,-0.8767640054251733,0.3679290452520352,1.8409161527982547,1.0747272525029419,4.130164894845421,0.2728783096987936,-0.38398698129358105
0.6761022874351477,-0.3442483918867615,0.47770019791163404,-0.42907932984589675,0.9789802891046082,-2.047648808082351,-1.051412449362284,-1.8222486416330463,1.113357048628735,-0.4834758199452444
1.0704007954732093,2.9608095666954215,0.6626316121560445,-1.100727632178252,1.6120617428491384,-0.742993643509259,1.1506090083892382,3.783552013756635,-1.5666577095802585,-1.3635369814793512
-1.309851048636395,6.776213847011775,0.895992057748296,-2.0096445048407245,2.6040663381516524,1.4410378221316942,-0.06307449026210335,2.5390598566410185,-0.18070792534147517,-1.232692067876429
13.945535799877632,-1.8986670587017287,2.9572863835704504,-6.365961763336897,-0.9869901681491038,2.6029165547336706,2.48869482645475,9.534319144810794,1.8708758968314652,0.2340523652875616
-2.9328245287941845,2.7434932203198183,0.34882479884355405,0.8146008616189423,1.0069570350026722,1.9661148127667036,-0.5313857230605809,-4.164477538611895,-1.1203961383620697,-0.3726665883259079
-0.0532591781131595,3.1602128905952607,-0.8425028736004541,0.3906521638341801,1.4746665336254647,1.7926467727560447,0.3526533029846177,-1.7709684831766195,-2.946806464307987,-0.2835715250482325
-4.18607064052555,2.751374493439245,0.12425920795240762,0.32564995298132876,3.236334704691001,-2.4890565673885794,-0.5151438999661324,1.6156243561739108,-4.354038018297284,-1.1445849257422451
-1.5569342278381701,-3.5282189212133814,1.4634642835527516,-1.4975332308855587,0.025201914314180396,1.7253038538621368,0.16336364920166457,2.8797164575229637,1.5215439729016018,0.6088834153098932
2.885456677911078,1.379529740103078,1.712929673710059,-4.079593054938368,1.9044940173578584,3.893755171791953,1.3994968648809967,4.0760731172400035,1.2422557075294347,-0.19110062101504374
-3.0999022773061777,6.21247168149212,1.8759275221174134,-3.7616864179854,2.9535433099628823,4.723834227175248,2.27787988764163,6.405147780960955,-0.8311522554629307,-0.8105698925013107
5.471676678870018,0.34677792398082036,0.7042653665834184,0.01517713518759461,-0.503862773333005,0.18777656028677325,-0.4348393275718793,-1.3660344975147087,0.5756844671998669,-0.08767198061676623
14.638494086994738,-0.280901889573353,1.798883820530584,-6.551218221156453,0.0661740599867846,2.498300453902601,2.2776092828401726,4.834164917811457,-0.25080593887765723,-0.8743947375087417
-0.1155296680221446,-1.1628818137259376,0.16680606226858627,1.120769497733514,-0.48327881289368047,2.5901772075227396,1.5230894766390197,2.3363478594871228,-0.19615793282751634,0.41316181807754593
-6.429553178255541,7.435241864952819,1.1436087145811977,-0.19023445955969695,2.79678613882845,1.585297728730849,0.7087306156662964,4.487585645657635,-3.009405937342019,-1.6589433429953044
6.75881964089318,0.788529858357091,1.8951421033306397,-4.011292356969638,1.1760591345617573,1.6352514230365878,1.9982754390428041,2.4443737525683646,-2.5777946308431705,-1.0511698429093292
2.4135345440127107,3.580299902382246,1.9037196983075344,-2.971779410045001,0.6067541116813284,5.537789247842206,2.359889323861254,6.569012096854336,-1.4058970971517597,-0.07498621794995301
-5.8171462401268865,2.9455256443712234,0.12036383992338102,1.6640155712102587,0.9212293946413268,-1.0493177762386554,0.5999028808171037,0.6950037573588991,-0.8887095142499986,-0.7578799473960662
0.6740212948103506,-0.9041314910519989,1.4398179444584092,-1.3778727327500435,0.7546083052972634,3.103436418692121,1.2001119624034542,5.06057639273314,-1.094146900120556,-0.6531638663159511
-2.6153265158887082,3.52657478044107,0.48468840408343716,1.1891530662520362,1.7693847205194184,-0.5250970173041375,-0.21038735705825598,1.2755393090311526,-1.2819212110921838,-1.1514768453620305
-5.80355342048704,2.533715306335262,-0.2952413635099289,0.3589918862807532,0.9873081803898061,-1.9169967436701214,-0.5850708628573521,1.948806573833923,-0.2724107256543064,-0.5976231868476413
6.44461490636345,1.6955738597372896,2.73222776710286,-5.8170660373501795,1.062103656293644,2.2591725572648453,2.2594605911662393,4.510170825543103,-0.38811165713703116,-0.5718628273636541
0.17094517903148054,-0.8950262474700781,0.08255711346240717,-0.48271289148198904,0.14768124149228945,0.7161996327293734,2.161210404774762,4.271932563117017,-0.8115891986222608,-0.3077560035824586
-0.6799896356674404,3.6770176063846596,0.6448102230831273,-1.470656760431448,0.5010412503181574,1.1109375595068782,0.3667078485651437,1.2013212094275831,-0.21518631034654057,-0.24704516134819376
1.3465241389220726,3.491200985600838,1.3955492477613818,-3.1782775669527217,3.1120366859829804,1.2663276303253075,1.0819494390555442,1.8674075931922371,-3.811392515411746,-1.8204413283289695
6.014944827088584,-0.2799763406851874,2.3373825063747518,-4.114398057058301,-0.35696073369660875,2.1094060444528258,2.802897912764737,5.636423670606206,0.8585526462261102,-0.07389733331444534
0.8136290202638481,0.9259185359465039,1.381736989195644,-1.1928879364612643,0.32651162202327777,2.5213956455009683,1.706207556246423,-0.4069352284266966,-0.48878852213966695,-0.5348159976442818
-0.2174224281734456,0.4147460145625429,-0.8617975228026135,2.041889744883188,-0.43529418540625764,-1.3917083028392043,0.6974795298392463,-2.013686522324749,1.395100603095736,0.3755682040382961
8.713638758597519,-3.0142686799335485,2.8036410227103077,-5.906415169452604,-0.48992881745370054,2.399584564961601,3.0868599990670003,6.619939236589054,2.583918132076506,0.48602336831367565
-5.580530728015884,3.2038016773524904,-0.5667729718497948,0.7627444935509865,0.9957134889925368,0.8683515507085376,-1.1587068401225833,-2.6446529429320487,1.3508894203949695,1.4373633676305977
-2.9402722905665737,4.069409993771783,-1.020474663923263,4.1485910265428885,0.1370195150833584,0.22816180939288921,0.16625451980397257,-1.7136653781317253,-1.9501607362949596,-1.1366171092848012
4.1633138274780315,1.3645211202452738,-0.2656056872767834,-1.9601113619453985,1.2430643114759636,0.6302369148528314,0.5517273763803895,0.22417476431693997,-3.457592916674314,-0.5235358265411515
-5.262017501954231,3.648897686943453,0.757585766980651,-0.5934633626871498,1.5348656545537036,0.5940722557293832,0.7071258543481503,-0.12915635748012352,-2.9573012175088085,-0.2925655551033605
7.289281177528176,-1.0110487116896685,1.3522206627702056,-1.783915114533555,-0.5798652251691372,2.1196869800826086,0.6943668106253158,0.6191114563591003,1.2573171496465527,1.1649811738076903
1.2288037502026223,-2.234511341052355,1.1636442231436133,-0.6728425304844792,-0.7085654145225844,3.827806190317664,2.5239052118627967,4.929867203296847,-1.1148907194166533,-0.39019641936685234
1.1823549320851618,0.34733014082528946,0.06161289160760108,-1.1223237374329187,-0.027778623873856656,-0.08961265917129846,0.6922791199519992,4.119708551553778,-1.0585005772984033,-0.2445901652656441
4.408680319821868,-0.44619504572265295,2.605612817629114,-2.6149605528760556,0.42113816368088,1.9364279450742314,2.0269422131756385,5.4833780044856235,-0.7451674762753011,-0.5743397548267422
2.417324811692166,-2.265981065202858,1.0920771760070158,-1.0592502599141806,-0.3592411186397694,4.697375384604481,2.608182099172005,5.717437156753784,-1.007194861755703,0.5940762373679511
2.4265242983211706,-1.2811299028217358,-0.2869771926512414,-0.3229445768946601,-0.8984688000700127,0.8779418557633334,2.0424481055731,0.8794169615816261,1.5045991178987492,-0.24123534855835826
-1.1283078928254016,1.5709475640485595,0.7842857956771707,-1.9888995033484935,1.260767916042731,0.8094387581699032,1.7709581682674402,0.825711446049823,-1.276834599698251,0.0266181462684167
6.4114702916412165,-1.2263422941087525,0.37025903942806615,-4.1503187829398644,0.12374071338385728,2.2661517747941438,1.1006342490146346,7.408199889660892,1.1517556385966348,0.8504598115223597
6.207399486184988,5.601224452709788,2.1540844285353336,-6.196171702024155,3.0120129523973285,3.937297467571899,2.497844228185433,7.408110728413461,1.6891888801853616,-0.9375729481002922
3.732603157336458,2.1321303847780193,0.9615804030007101,-1.9335592849873513,0.7952050863142681,2.5275713502716637,-0.2350128379721646,1.4681290432010285,0.28047827471078923,0.9328225503574332
8.283525654240705,-2.9932673451583707,1.9644204833778252,-7.62556898945182,-0.3850440032166992,1.8265525657053892,2.0574823986390927,8.993693757208101,0.4065123435330289,0.1980446729719361
-4.346490119022854,3.922055399375206,0.47568022363251233,-1.4863605126544532,2.134841846676619,0.7624558866007782,1.2751468957646968,3.0874206828409014,-0.0605763713633517,-0.13055519238295307
0.8915608631736629,3.3700701286949197,1.3843530802484467,-1.6689046818836897,1.6921201990170265,0.858410378147235,1.1982305479546658,0.8288897782289144,-0.38717221852234124,0.6325153907920931
-10.323694153593474,2.1936628775722227,-0.5222611866248251,1.6445531813078045,1.0192346423391356,-0.11873971898909509,-0.061155032437096406,1.1522744261506663,1.307337384590365,-0.22613053909496375
-5.803244793694227,4.525081791396616,-0.26475794560817995,-0.7033663470055855,1.970516352257813,-1.8844305788292313,0.7167530200608472,0.7608606922068725,-1.577623642308077,-0.7302368422365358
-5.976837577425342,4.057679167452837,-0.6316780159626563,1.1896613910817324,1.3676212617978285,-1.8590426457436506,0.23991967193581326,-0.11627171325749723,-1.3713396004844907,-0.27453179449630044
-5.970643846906551,3.1255894979009944,0.13002746829159065,1.7361302156790919,2.9157005607113415,-0.9824556184573661,-0.2974674683400972,1.0480064900852053,-2.0548796053186966,-0.849767766274613
1.8631349540246112,1.2084775736444897,0.5425803906743927,-1.6892813995362796,0.0128417065522195,-0.2567534350248859,1.172546583148506,6.535694790976387,-1.2101602884963012,-0.8183061149773532
1.627137116275513,2.458499254992826,1.6099107120747094,-2.7913429401755065,2.708942891918128,3.3455464950899167,3.089923830607212,8.595675138163857,0.26205353761067274,-0.2735523938308001
-2.187231177502086,-1.8763980486654497,0.9973698788018147,0.033712035069586005,-0.4849102972250926,0.5617219524954151,1.0101179414929686,3.268754898962906,0.9077141621925576,-0.2009244106482158
-8.231168781341912,6.32652132217005,-0.10347679495390091,0.46056517850003104,3.262832875955662,0.033071108370446245,0.2700472555792719,-1.5935637189529255,-1.4856127196079378,-2.1534095757181775
7.740844065293273,0.5371888980281475,0.6174121115760057,-1.0718625912107422,-0.5864577869370526,0.3074862305546566,1.9614830245018926,6.52169686227106,1.401881119180561,0.3440188743567675
1.3521008430390071,7.114968040941904,1.6273897106963156,-1.546472294514507,3.058104719747555,3.2483024201361133,1.088670314662344,5.679778277366484,-2.7970312868421687,-1.623480342323348
-4.5101436026390544,2.8460362023355277,0.3442857779654404,1.57945625346533,1.2201397781825887,2.500278832506021,1.8914052722838215,1.227919992481753,-0.64196673948471,-0.5300202219923804
-0.9726994782340856,0.7032676792544166,1.1608191645918173,-0.3971789936408841,0.9829730071459779,2.6292561055007306,1.0111549523255887,4.3167750248970425,-0.022324098365941847,0.28898525182434076
-1.9509244198601243,3.62889411373826,1.4508216349491978,0.12243292856769931,1.0804498865737728,2.3383384567140553,3.294932476663104,9.17396601622169,1.1888234731256797,-0.11456635419322049
7.795014012011201,-0.49781092933870247,1.7757249120905079,-3.29115143157861,-0.05896209903743066,3.1586306953977226,2.749472657579179,5.493702917454001,0.6405644631449472,0.5812459180919709
3.533633464352624,0.38110531542201725,1.07769682045286,-4.75890239218594,1.5365162915092019,0.6399400136804156,2.5828214138205126,4.3568010239668995,-0.6343599416633696,-0.19907172189559516
-1.4345300365563047,-1.5132565574417773,0.0683126790496614,1.1603025255659092,-0.040670855443151854,-1.0927728164238746,0.7004477441832659,2.911956091879552,-3.1274495752322475,-1.1399775356320654
-3.0064170632077363,-2.0148529072461514,-0.20915331867457723,2.236037734776626,0.3288521551724959,-0.9548689108384624,-1.2108420695971727,-0.6608979730670367,-0.10307908934293386,0.18894542173641604
0.01211879614204095,-0.46863663155709884,0.23397629784004015,0.4215722575288948,0.7048228591899077,-1.4056371181700902,-0.10898347609631942,-1.1825485770539794,-0.37189182022915124,-0.490553327135155
3.506786072236915,1.4644973351375286,1.385102904421464,-5.968981855167571,1.029753665881214,3.058542685265123,2.5453385809687634,8.364702158388484,-0.45007541921301875,0.2581378818827538
-6.7005613192496725,6.407324623382391,0.433355612362194,2.2514195331114824,3.0257622717922468,0.5315361180457081,0.980904961234909,0.25726774008702563,-0.6879825289008472,-0.9461853954811121
6.007102409668989,0.8056664426840164,1.5563886448102067,-4.479863690357111,1.0210091424163266,3.1556922679864914,2.650359458838111,6.2004681220316025,-0.6973800806500714,0.17340113548170272
1.1715271880434592,7.00985820902434,2.1441914656740617,-5.1270295118300515,2.7743026761709015,1.936622146481097,2.470771645062444,5.2678252203469125,-0.36030428630639666,0.0430910751104021
-2.501410913313268,2.800404077213911,-0.49127708827531896,2.5374654087517086,0.7412321052812201,-1.0636103536512236,-1.5142462192248065,-0.24840032183194943,-1.3397560378558377,-1.0251802106972558
-0.2828847230480047,3.9631463347057196,1.2601842044730636,-3.3223160611058615,2.4898769842752437,0.44071018608310264,1.7108741856388145,0.9933505907914937,-2.160172830048125,-0.960472937409478
-7.11293865891042,4.666975010263702,0.7576007849927173,0.47947288216847,3.06487659846239,-0.11032733372940773,0.0680339169580096,4.295589357312793,-1.2685241225624035,-1.0898132836750072
-0.8955612465659761,2.4222131324863403,0.15862286151231098,0.8344857066754576,0.6664374606815249,0.9851611923071603,1.2457798029231368,-1.1001076201228357,-1.0306724160417495,-0.10957655584352943
-4.930974082085081,2.0957822882927455,-0.1176237137615921,1.1037730677430129,1.2710584879995976,2.4656487275979644,0.881026713152873,-1.4420904183545218,-1.573378072583546,-0.6755422297788037
-1.079421234526035,3.2460042759059924,1.5054864934903915,-2.932430496644965,2.662959964291079,1.1784945492096264,1.8536515015391262,2.202574364550781,-0.6809217890834125,-0.9574586139660378
7.286032441229584,-2.3590264542161323,1.036243360925845,-1.3894998026023464,-0.6524896192703444,0.8296121512633546,0.02987647602997529,1.73609442077841,-0.36771484733703735,-0.20413381410391382
