x1,x2,x3,x4,x5,y1,y2,y3,y4,y5
2.1580259303115117,2.5470262048224326,-5.410130093049833,-6.425331561822814,3.7801399234957787,4.004701035458385,-6.801102902334155,1.935547906213391,2.7920230820205187,-6.951258996598665
3.146478153702735,3.8871182068834464,-3.803754322598489,-5.869109023834304,4.310135455691723,1.503246872602198,-3.5724055446430962,1.1136517616089139,3.695579982742997,-3.69604891425235
1.7132196787716278,4.6627783179707025,1.929505520416848,-3.9449190277709207,3.28624884827179,1.3922069878619647,-6.725930272102862,3.1005230596364286,5.438535930612032,-9.023600293540701
1.102938267889511,0.2734294432615088,-10.395551482769584,-6.870219437188656,-2.713807473164856,0.34204732591797526,1.1788929483620811,2.2662391035015395,3.6594812271889627,-5.246311067806033
-0.38185559159016136,-0.022162568620112268,2.0145892638070255,1.8723389274497666,-3.8794221328842484,-2.0208225460089584,5.479208199576387,2.69993251558376,3.169112175656624,-1.6284787697618206
-0.07894670321044661,1.93693738502273,2.467305489291485,-0.0029904961942269184,0.036674405331775004,3.081460129974409,-5.030806501572521,0.9110083887609615,-1.2720251902761932,-0.1599981918318644
3.0293963787019305,4.746937444635859,-10.643734178201331,-9.892099508891283,5.920569695397335,4.462402479452647,-6.829198249886307,2.330984017139684,0.48928299864403363,-6.426342354111146
1.1404276833851221,1.654630169140086,-13.50978072658373,-4.974759397235591,-0.21216052092342005,-0.4490472076528654,0.4773229565682975,-1.998202366337079,0.019381557773752417,1.4007651319166066
-0.7266061169468847,0.3010560246653969,-1.805497657249923,-0.6659545734491474,1.066752154239297,0.7090614904721098,-0.49783684512091014,-0.3104347942495208,-1.084672838324059,2.8722826140619375
0.030368676550288187,1.8963100453175268,7.378618981712355,2.4033513324354088,-0.6740996359635024,-0.4725807673131076,-0.2174966273206069,2.410369698225816,2.963506502698943,-4.875661743801547
-0.7701818857381126,1.9891542552017645,10.853698269315144,0.09688277353502503,-0.5049180615366115,1.4867104566762133,-2.43506086894553,4.371604277110345,4.730593513229891,-5.546722569496978
0.8669071550574943,2.4632929938721873,7.135395459156598,0.9785471496624312,2.5405436564634925,0.832369774162618,-2.97829703405767,2.5643238645699853,3.4467540934032534,-6.580984463932016
2.6775578679774346,2.9988447617926126,-5.613260782434686,-4.909938771749463,2.293657578219026,2.5226788681084087,-3.840508658773853,3.4687659410024025,1.7304630989283651,-5.329007075588899
1.3401242822521335,3.881749028841582,-6.911503391130179,-3.1514035400400493,1.4518835406221167,2.561273587279797,-1.320324499158549,0.3234386450342972,-0.08945075964484896,0.499409401229056
2.3804225323292925,4.6161226682537695,-4.172814029119663,-1.6874546950177878,3.8389916754942557,1.902468318372546,-6.100226065797472,0.8125631823157319,-0.323249503099858,-0.4937103882006894
0.3793080630754788,1.7319939477096769,7.923016020007724,0.3351050728899332,-0.571216392770308,0.5826116114475767,-3.545134764856414,1.196642996065202,4.156387785187046,-4.7547966339915
-0.20158298416254095,-1.4792429572098653,-1.8438794291917144,-3.507912725309543,-2.508941176093846,-1.7836378176692889,1.5274547077961191,3.6909886563975687,2.2991321887243674,-6.303723429345814
-0.6068419292929441,0.4217083676442377,4.288842230975806,3.7101715681294043,-4.212714694091383,-1.4174521359182952,4.28269740731935,0.47048283218449405,-0.42977848493125337,3.493336257797687
-0.9247708581651122,0.09206578544820791,4.559399184002922,0.7324024741446089,-0.6585363828023266,-2.886331029379026,3.5651850153056546,1.4814026840923717,2.5637662826776677,-4.280696743951424
2.1476743799914964,5.110726901948675,-0.4266733407103285,-3.671108421653287,1.9456790985308756,3.0405541141888133,-7.532452256092275,2.4883304807614315,3.496001171664817,-3.330943290045121
-0.022807457045861956,-0.13598082340881126,0.3340042038418387,0.8802519390646253,-1.3699595372676907,0.33422916280279064,-0.822714969627567,2.1586994638166614,1.0768681765315293,1.2193818248178665
0.04956313383731925,1.5952902150761004,5.506598449969522,2.9046858376937377,1.6702884133024498,1.8101894095788746,-2.046861944990679,-0.01722326001473292,0.2585684337791376,-0.7423608183035378
3.340552215666281,7.740766203153842,-1.9567936839827267,-5.8503820440050065,5.393562373310913,5.216675128370714,-7.325782227751243,3.7984826693265212,2.1776278946997047,-4.019825057972377
2.6443402589436777,1.122748467688414,1.618853186691215,-3.475169136719436,0.9985279178954829,0.4999290397770473,-1.8125097350931834,0.35643774337530854,4.354200689680854,-4.231977445645118
-0.07050487647035308,2.776076414224968,7.653241202126734,2.240040386436535,3.639871493477074,-0.3723491322376109,-3.2247993091352467,1.640998401787762,0.8744801659064665,-4.989506198907705
1.4190215244189317,5.481215064165509,2.5635630384342445,0.02654910869420704,5.605187799833437,3.179866802889567,-6.392024106984349,5.470080706971918,3.725068258472476,-3.7227927270582817
0.5230460239387551,1.1072370444023745,-2.5652050480524795,-0.7499252854198662,1.6075393509229194,-2.036823524937404,-1.315540397535646,-1.0520727731676605,0.9464092078775894,3.09465882407409
0.3369131182442606,4.312380752558459,-1.0502005468347368,0.04564379979410587,-1.00692400667749,1.8365324990528111,-1.4577715796412298,1.042514543789716,0.8253433484340915,-4.668701538895005
2.5090667947889727,7.354594811698805,-5.573077183382527,-4.766620626754991,3.304483440862582,4.25198508951687,-8.26526390448646,2.5028758919699596,4.231199228731706,-3.6639282900207997
1.8909997286190885,2.4981863843842325,-2.5784085209687655,-1.6131836064285536,3.113463633240373,3.8235663050957087,-5.6018182289736504,2.8271703285280783,0.04494173279876115,-2.647248820466637
0.10640472077633478,0.2895277439269202,8.193957060731561,3.032665248635473,-2.0051351809101168,-2.4178677918629585,4.057358913974724,1.1636980090341362,-0.41326151008769874,-1.3475761878209829
1.856553415423623,2.1539099793686085,-1.219885094402339,-3.903803969458212,1.611525468099006,1.3966675095572851,-4.993242938062945,4.1336470931027725,1.6731707698350593,-5.368075480001367
1.855386930487236,2.591981693024647,-0.7961644001112091,-4.475389786804697,0.22486782275286404,1.379792278725741,-1.7919422827025833,2.160823089012528,2.0060719459707443,-5.179003637061033
1.3654767843166922,2.5079347772704046,-5.350966283197971,-2.1234788796014423,2.9748335447320833,2.8637849073264685,-0.23188496850225734,-0.45025335639633274,-0.9140846725718417,0.35546188144654967
0.36183977897283115,-0.5195382820420327,-2.553457451854052,-1.609015693258568,1.3487497326043785,0.6536888667296901,-3.8162775312492845,-0.09972402387937224,-0.6402311382572168,-3.4631171448119913
-0.9542466197859779,-2.896001559346274,0.2636625372802368,-1.1695355990499474,-0.9977788992718848,-1.9823862086801793,3.01628523020366,1.2059839818402356,0.162348587448023,-3.867018371651473
2.6318540218599877,3.521542330052222,-4.982416999828437,-5.607880542513894,2.1579580873623687,2.3834496023474925,-6.02551060488373,1.7616963094463696,3.497800265172146,-3.297884632817636
0.5662607529854558,4.8178845860424095,-0.25649286938627824,-1.4490784529947358,5.975557409952461,3.4000428940661545,-4.195602910386722,0.8230651318420596,-0.060223515499982325,-1.9930954420988218
2.911363574301446,5.465610563400439,-9.864838867296521,-5.958863230495062,0.936705445237639,3.315724106206055,-9.140325770994274,-0.7971728377064671,-1.093954802458072,-3.6940592768750324
2.2555466804272992,1.7342087302527045,-0.97382504603579,-1.4731830967019928,2.5466380020500807,4.215774469211189,-6.828079703246445,-0.8351528153872534,-0.9379994742559673,-5.490549068816657
3.071450108957909,2.1929505283408077,-13.445143451805704,-7.975387059164362,2.561739055820422,4.782948277184023,-7.096813811611669,-0.4124985255869533,1.2927779169042897,-1.5034734971412649
1.0664963259058462,0.03550881116830145,0.009718505030911206,-1.8952100089066377,3.50691534821052,2.2409107792446865,-4.1886439823641695,2.193887782448734,2.1863057400098724,-0.6288046322019373
1.9405267177010477,4.007123067624376,2.9955978180414498,1.0479199979846832,4.239654209704592,3.8550025937363603,-6.941740950440385,1.7763330452065123,1.0920130155913825,-5.574930144272372
2.046467220148943,1.5809913518088439,-4.461230088552405,-5.197414616559647,2.780503082633558,0.9677370243674905,-3.1076246458912977,0.9465600356853586,0.6788822252931275,4.434696902389047
1.944022702387481,2.0882917175308715,0.9092305438197155,-3.0491755338151463,0.5804329275128091,1.1266127847714842,-2.9801375269245516,2.956908918887434,2.9861828145206495,-10.867764228807204
3.175304258701919,4.866215180920195,-8.65553441303884,-5.401295411833603,6.542497803031031,4.248599672599903,-6.877169687813892,-0.7846231193098366,0.4676276290287791,0.70169038221133
2.2825334254864305,4.189858698541841,-2.514731237909314,-3.244855312306767,3.0919165711136944,3.642767581436496,-5.097363859549891,-0.7108808968777885,0.3639798722312609,4.406322325915226
0.04250881113200067,3.18375900073524,-4.900097424366635,0.248990060546987,2.2074690943659925,0.7674867323247031,-5.342503779702728,0.028986580837654707,-1.8702574436664092,0.5903354364348324
2.5915425743431433,4.8048243044214125,-2.1240381414972775,-1.8883342645169987,3.7444802209995998,2.5781493129492548,-5.602884046429572,0.8054408352073252,1.7114494598208405,-4.950918527710808
0.2980686424830441,-2.325389034244477,-0.6826939500951705,-0.5198896414440486,-3.013249754550904,0.16519703936883284,5.585909874559632,-1.2415698299043505,0.09835911906265725,-0.4746644078871695
0.9278783384548992,4.835433539893858,7.14409933081293,-0.13751988527814163,3.594545404114671,1.3943842335971603,-1.5557885587044638,1.3730511887631558,3.246388106484584,-9.393462118548824
2.3280404137373156,6.78950559734699,-9.724671969710457,-4.839428220956498,2.33852755956545,2.394937573743377,-4.197185302865431,-1.6364114960771432,0.403162646142101,0.5331572384326855
0.3690434031037435,-2.4055714444271423,4.0235943791256705,0.9947832014945975,-1.097248356920621,-2.9945886457214623,2.0150141835092614,0.31872313348036957,1.0608575130273858,-1.9438432209763932
-0.951362474274601,-1.2480213832973541,10.474516187538992,2.6464310298940963,-0.7997973382061936,-0.3553040128617018,2.2036201169186636,1.0134329314358845,1.5108594292116253,-1.2470207655307457
0.9670884225445251,2.078464597371163,-2.6404391354164414,-1.6351530949722304,4.236563668508155,3.549170634385625,-8.681178588687365,0.6323624223394376,0.06138456057519477,0.3931138590985654
0.43628001845610465,-4.186933562916983,-9.448992331452336,-2.36168503863842,-1.643847003581198,-0.9397537888982863,1.5869417108754684,-0.11851642900950841,0.22297650354680817,-3.2745400661743327
2.905556245014517,7.300310415711722,-15.30709033551275,-8.18384176451337,5.058745456553941,5.13033543681751,-8.042216662777962,1.9731114664013112,-1.438714305436408,3.720670742711101
-0.2955082676753684,-1.85637574116089,-0.7889133177418828,1.708103589859472,-2.2570436009443706,-1.2547407125759857,4.541846804410193,1.4764183630635435,0.9915128291343971,-1.4066042916680264
2.3177722249990067,3.73665659649827,-2.771840804639858,-3.3977673487423643,4.932666620437235,3.2800245402570853,-8.217299371757157,1.0099402515403473,2.775360471093788,-0.857103827086995
0.020451623935236585,1.960175803856901,-5.174025377030782,-2.083157154570781,2.5848075118599843,-0.6704080747166613,-0.1881374664152193,0.4960915862406554,3.1012331871510708,-0.5489521090687048
0.4854200564707576,3.0546815679218198,-0.021621680254314768,-2.5892709708555675,2.8163119224865336,0.5250997044408258,-2.6124538807783138,0.8075143154749702,1.6928511111941587,-5.475168683346619
0.3781524002988097,1.8901977030148271,-1.3276611826633449,-1.7861237602636637,0.09774593311518938,0.5205132702984485,2.7108907314653545,3.50118864940218,6.713097626234218,-1.7945903733653865
2.7729717384620836,6.589627342238329,-1.9072542998904138,-6.560633614435843,5.830502282168876,4.281049157061135,-9.203326382992469,2.5597622578314176,2.434315034261433,-2.5940003306416575
3.280152491431471,6.860613610302197,-10.094625596790472,-7.30920506826071,5.418841617739749,5.347971535886404,-11.569162933176218,1.2072922497323377,1.2946202858284348,-2.3308537868737607
2.305474497079913,4.347516916286564,-0.13733901720119812,-3.6904988642393355,5.175365869731885,4.76173339197107,-4.318215507840419,0.8790854111211638,0.5338285889468004,-3.0124108941550536
3.4003651378134734,4.850211238778549,-14.164124338959578,-9.584144542778965,6.399028744278981,1.8171936895072682,-4.094009215707334,-0.7727283268598053,1.2292143968547353,-1.3784800578039302
1.4891976137914882,5.480147877836351,-1.8973620440755337,-4.349437398661104,2.6263360448895146,3.036089833683192,-3.72755049256674,3.654321157138125,4.481688663400201,-7.624842437760197
1.9695863718572273,4.6288623997249045,-0.8853750856903049,-1.235653788389077,4.349740274253977,2.5834127112255674,-6.068389033831334,2.2987513049761876,0.8784368077637251,1.2050983494498213
0.9125051193092697,3.1125578179986086,-9.781400803084022,-3.900366213087875,-0.05109522972739664,2.3965633867905147,-3.6370720461870594,-0.12090692808462836,-1.280061170114054,5.021834284125617
0.9576401418918292,0.6657495360693279,8.437478765705524,-2.0000878235884088,3.325174222184741,3.269694043875928,-4.039164939186912,4.292809159981438,3.6619057855351973,-7.211852546905347
2.9927224615677845,5.230725780250076,-2.843341420693243,-5.17540348392369,4.924761184094432,4.280490336564846,-8.4336673385933,1.217598579110188,5.041654484361532,-6.458287352695567
2.2760506920444383,2.6609381176645983,-3.4692304239588863,-5.608359883543317,1.0652520380608987,1.7571264749863227,-2.7228143496732957,4.244301303838167,5.703553188326398,-5.961883140803458
2.957041943774149,5.687713962970747,-1.9117543705031186,-3.1805431116799294,1.6841934706591342,2.8109523818834594,-2.8587411712968738,1.7501272658107392,1.7224130851078072,-7.082744885048363
2.2496513409732395,4.895010796145655,3.8848224891235845,-2.7173824305683287,4.0090547578760445,1.501393161532753,-7.684606620927595,0.007491727738471399,-0.1339327361033515,-0.014551845001845877
3.2141538982126825,8.199252386418303,-6.794039190121815,-5.762232628320774,7.488843635286521,5.632408423437217,-8.829282347625075,0.6958342743359296,2.480390310710099,-2.425239116664623
3.023403852043285,5.359935143947774,-5.245717797628428,-4.549197251702008,4.031286510747199,2.052470472784041,-6.369546183099665,1.313507656470728,2.249932976114756,-4.578687854598021
-0.9789682595805604,-1.924301269379807,7.509179153496595,0.9490953754559691,-3.731727121659061,-3.225350940355052,7.456301395637617,3.3257463473880913,4.339090680113191,-7.089206284991073
3.369045029939109,7.307940819192672,-7.406716816561998,-6.1590427239050225,4.389173393324085,1.6471511246970294,-5.596562179851054,0.6466262377117489,2.742320480234623,-3.9278194482892754
0.16608462368468735,-0.9141893596567441,5.079847503908361,0.9368617286647333,1.3972295130772268,2.35278942033708,-3.774702308681027,0.22151399108593273,2.976532246121451,-2.860923449175303
2.8062766416309577,5.1622069030949795,-4.747220039819925,-5.468561382324919,5.093112045786884,3.3235783586444483,-8.750439978388012,0.7203099721236967,1.155554183705134,1.887658672926747
1.2175935566988767,5.76387854065382,4.085272895538003,-1.2490197193268326,1.7623678115998527,2.042344322934369,-4.796566597233668,1.9583737470697375,0.8473665745217946,-5.3841119042230305
3.265912297044631,1.023449176054189,-3.74056428217003,-4.38527658414054,1.654399865996051,1.6120160887572959,-6.307307684597177,2.4971506012811107,1.8940285289990337,-1.7403251331732807
-0.2451901170816615,-2.1920471880097976,1.095761245627637,2.134814151992993,-0.7226541386846135,-2.611578440413502,1.9320521500497607,0.9816771879282185,0.7121537478394935,1.555607010485351
0.5047620570092781,5.955740655935338,5.4679758276372565,2.1898903569162065,4.618784990463278,2.457562276364993,-6.314939763747043,0.5635920060430877,1.2751525091527913,-0.8101869873668807
-0.4144691904114278,-4.788111039595673,-0.857156980038853,-0.1620917420769204,-4.060690127206501,-2.218998149631996,5.468918230422128,0.09245393339325214,2.80560972832811,-2.51875784406419
1.8665383682453234,3.2087539049715605,-3.4953306613301662,-5.354013226031642,1.5276384115644304,-0.06937678905929068,-2.83271963058282,0.2907056392009173,1.475999409927054,0.6060438849329276
-0.921680728830432,-3.5040857827785348,-1.14518034856415,-1.2529856462354418,-2.8034220071987606,-2.2373992742301283,2.9021725835448215,0.6670722617269242,-0.9869123369290643,-1.7692979445234485
-0.2790844461435916,0.8826265885960352,-0.16333856044889083,1.9139127744255064,2.2167820337970037,1.3313630029255723,-0.7916200659772308,-1.07143896679551,-2.17401198738267,1.06860066763731
2.8732254945221127,4.12691461482768,-6.763961136685014,-3.3253578956077354,5.10382236242522,5.186100722983714,-9.052522597703621,-0.7089034435552785,0.6277089447976851,-2.954086341975486
2.9897061841899766,6.786918209576337,-9.434582500151652,-3.495080045261487,4.766593909341315,4.75961758680571,-5.701215423617003,0.2754909056641799,-0.9892903797575421,1.7390380020321416
0.6544292532509819,-0.026296283444865662,7.573667490566974,2.3678547354287787,1.7683498669103346,-0.7182746990507348,1.5298739386884324,4.426030653586562,4.487331995039909,-5.445834196802974
-0.47875801757822123,-2.4149359370600556,1.367549932765391,3.6022674246372883,-1.948454482926694,-0.3894945272070006,0.6636851227553385,1.6569570087875514,1.388980840562306,1.178619800484875
2.3446014502228256,5.659311491039168,1.4516057015650565,-3.1268774925398968,3.459472796466936,4.189073785693687,-10.3989322619433,3.7699580857224637,2.0077815180215057,-2.8194314296140774
1.8714597883289001,6.277881451853337,-11.972913325481798,-8.241539861528112,2.6261915878690827,5.767605571909687,-8.898353523194546,2.5429232300964086,2.2751288543851707,-4.088411896316513
0.7268687580735234,1.508217625873936,5.3895564185130445,0.1329733410377993,-0.6080175108188135,-0.011825936517605107,-0.8401895928999393,1.8440782834885265,0.3553374854024028,-3.5725015650854535
-0.9034815992399972,4.434338366741201,3.3245740589225288,0.5919124241861009,2.332824366499822,1.4313178784318135,-5.344837095334928,3.0967207363895586,3.0100477505628986,-6.093188636058908
1.1740856986654356,7.280697758425651,5.897247886491797,-2.063695790021081,1.4634647044984566,2.2187650831804313,0.3086242185403646,3.9776103074078715,3.1110041121763023,-6.199191140996167
-0.6634017077971432,1.2774770570011882,4.7670399729521185,1.8050602690103066,0.3112562086259161,-0.4840507080298648,0.7836182320461343,0.8123797533099794,3.168475362174565,-2.3969331319935447
2.609086064257233,6.349212163105501,-1.2222200382614083,-5.055164604163633,4.482813156411167,3.293250458871735,-7.912825021921178,2.7710023945080815,0.5362093381855086,-4.456025949818241
2.8745370000571957,7.893668884026967,-6.260632235835714,-5.154364118156028,3.3320126892286663,3.3437717964362115,-9.67305796506631,2.103159826616238,1.3261892827234465,-0.9979408062038712
1.146993634279049,3.4174599173363664,-7.597781176694544,-3.8633468482905857,3.144976618186295,1.987842526645492,-5.905825722739282,-1.4113521165330971,0.44604544447356553,1.397290687965111
-0.5505336406184455,-1.1814983256130982,7.263226889569264,1.9924023218877835,-3.409635504067268,-1.92112606327744,3.207909288724883,4.187482687131014,2.962924920835678,-6.420588951355667
0.4125502403796806,2.6442600540218275,5.531749093811053,2.0570660169987787,1.5743173708524485,1.4135801253800766,0.4817386139520807,0.6917335578527086,1.0621709888194177,-2.7788982266569624
2.9173804230846745,3.4235729244265865,-0.811878596217757,-3.9715061366522955,1.829086451283232,2.862332784503168,-4.2980492218287765,1.555783387794329,4.921200675990001,-7.598240444821691
-0.9476510241082677,-2.4353184508876318,1.5335758732333447,1.3721226952695262,-0.3091246049597458,-1.3894142969372156,0.47862738327991244,-0.49800872824368186,1.8159740969038922,-1.2458341651118454
-0.27224578421009415,-0.18437765411423973,9.960863010714949,1.5183613449524678,0.16191444056309043,0.153406955564237,-3.324908573595563,3.490544001895989,3.9832750923489435,-9.13347705720808
2.8121929511085924,1.9165721729201586,-6.072686396331328,-4.068886870429858,2.042742025527548,2.54959998408043,-3.368662061943258,0.050080470907345354,-0.4729203809809032,-3.0925601186002885
2.8887505158965268,6.900532616400145,-12.218102662038199,-5.484614780560278,7.361157458605649,5.535830263131361,-8.699453708841558,0.39560870348694543,-1.099393187453556,-1.4258444931335723
2.0666254342494503,4.468771970054127,-3.643610956316489,-3.2952247400967707,2.613367509000974,4.461692022982725,-5.923102194736957,-1.1451767299593483,1.5421983215033062,1.7540099096415032
0.7003475589794723,-5.415667832334116,-5.091767110604293,-0.7546812978983521,-1.4152673029308018,-2.6748239625620838,4.500341512232622,-0.6484690447369519,-0.0030198057970590884,-0.6162111772154713
2.3002825563653406,4.073806563606562,-14.412260666998197,-7.84907063485317,2.5579723600630535,3.223259223789687,-0.03286816342376435,-0.9414490558977947,1.7364825632444942,2.691336734483423
3.3007625529516327,4.181650999842038,-10.567745849365043,-6.531397781117611,5.257133004633494,4.221146374602988,-10.503874541906791,-0.8408817646208998,-0.20095775990975764,-1.9115721620628512
-0.4108799615268609,-1.6354494144683371,1.9856371104143606,-0.3724709887730151,0.2839294303629296,-1.9728141453129946,1.5114248324384694,1.7586019150267205,0.17583715592555518,-2.9253072980736023
2.7745376166954525,2.799721209901081,-10.731278791748858,-5.0109709463525425,1.7932228387200049,-2.1976572856445244,-2.0224441577405963,-0.34432330964443514,0.97490319606758,-0.5560775992163732
0.14246661251155324,1.5393526147044718,-0.730158348461313,-1.2145993734398364,-0.6233077293017709,-0.03485244913050978,1.0381421761740908,2.278402144999565,1.1857973853400952,-0.5047382157003435
0.06008326224633276,-2.156951482373788,4.197848327973186,-0.48585002087039564,-0.19166347877213574,1.3248981090757428,-1.3651164089989156,2.1532191612591154,1.1358565293217484,0.892675709483441
0.21063516110527303,-0.756733782405652,4.060922901469309,-0.19492651465086056,-0.08105050281051535,-1.1685281217679204,1.4931571238801487,2.1854994202120412,1.4157683631531606,-7.5003569712627804
2.1481840407189585,5.464091400997673,-5.851275506021005,-4.98658558253652,2.9107831397037,2.4412051236140577,-7.0570272125894125,0.8175361530077698,4.47020898293639,-6.756777825097156
2.8792312816765295,7.395447670704863,-17.02098716794817,-7.281958727592526,6.3575746357005345,4.649839662432302,-6.864744593669394,0.9771846448515341,-0.7474716419129216,-0.4754173683232426
0.10808608288715127,1.9334600328513254,9.480524058426841,2.6232311225125886,2.2264442675036755,0.18031453196731384,-4.434251059625803,0.7309584288860376,2.41895888112452,-6.462107510138991
0.6494639941055211,0.722602467257282,6.491575644805924,0.6929820713174837,1.0165676150297975,0.9917344218114503,1.1686908342921434,3.122444993394584,3.8925974811119666,-6.267853232721016
-0.501197801390918,1.8559025570660244,6.941606032978211,1.1650343977289237,2.8845691123597246,-0.4618702643586214,-1.6928995729192218,3.4943706232463216,2.4566365904789227,-4.381419269521845
1.1076932250700535,4.416691578942022,3.400274246996726,-0.06394554667633258,1.2568942285721023,1.9948890044110485,-2.536717149910157,1.5077710361874015,1.0666532807211422,-3.521461036132928
2.0135417670750377,5.289097093608557,-1.8984766555258759,-3.857045491248818,2.43750642970599,4.1716916911463,-6.83152312568727,3.502994239874176,2.7833563408670763,-7.957509193332011
0.2585076602075811,2.1253003438031164,2.725533675036104,2.186198503263163,1.2492397932667019,3.7944410254759124,-3.0299961112305,0.9440048376533773,-1.8163032116770317,0.0771983023695114
2.480822448732213,6.239861423277616,-5.068120353952512,-6.4188164513089365,4.615029357330883,5.71508886705169,-10.053600216768352,1.1344767054207499,2.997102060976195,-7.165619393651493
0.0059334414763139165,-1.0312084371887102,8.8107935803074,1.179283793597062,2.149142731459436,-0.02232197710732553,1.0041472937161111,0.35691200689196867,1.382370484948803,3.06038971716227
0.7334711089529484,3.4852867564007797,-1.2681528297519649,-1.8970777298811876,4.655563064459817,1.8576510273784808,-9.138368854170507,0.14551940298206684,2.1751628276229638,-1.2553932352120223
1.29144976001646,5.358829983500806,2.9605474895316073,-2.123868420361501,2.932609773150945,2.705191276873739,-3.282531769916927,3.0931028929710234,3.668008476581646,-6.810371549262245
1.7582408787230874,7.599865151700936,-7.716123447312977,-6.046437042354981,3.8362380703590993,5.615160365266616,-8.134644253192931,1.262347103201944,-0.9120591933466967,-4.942689268928109
0.290096398680757,-2.7408843822819695,1.6415232480766686,1.2241919036220015,-1.0058473031704291,-1.3984315657424513,-0.3474497705064278,-1.0273678512630613,-1.8106895268834,-0.2800004715179085
1.5616412884758857,1.313382420354093,-8.698797237736278,-4.517221240587651,3.6589385322247856,1.2071245816905245,-4.654903701886382,0.5912807799317232,0.8828614553712133,0.41093838467822386
2.9060530868999335,5.998755499572216,-10.236816246872124,-9.192171788529809,5.048366451301492,3.9225406626763566,-9.344573706728731,2.4887378233825146,1.249906753104204,-4.830062630483004
1.9715647879494393,1.333408756876535,0.8206026772812987,-0.32114762376060385,-1.362399041987981,0.6979958801360829,-3.547101086861922,0.42986928485715276,0.906165099453018,-1.4460070705538504
3.0582865325295483,4.7692498100295095,1.1233259702815177,-3.094190408268087,2.2260796225799595,3.3099700853852365,-4.360572547179008,1.791857858400461,3.3392063297971406,-3.5891944128540985
2.2094660434331956,2.63563260416872,-3.7852325367844237,-3.682846441038646,0.46547476235820784,1.1473398168537154,-2.4700006827005656,0.18817448374500734,2.8255474215493788,-2.230128469492637
0.3052215752879879,-1.8082931659381132,-7.1963023242028505,-3.4358588831141916,-0.6123113817822494,-1.2702411301128427,1.9470415346863235,0.7493664907670436,-1.0324824627511302,-0.37977076169547513
-0.8938835904873641,-4.364477411015406,4.257789428855996,2.9633703172867496,-4.325993155250013,-0.8897724985898938,4.841374494382009,-0.6836612130449236,0.12419583463812496,-1.8154710749769922
0.5372740777100335,-2.5583124936891246,0.9549613254311953,-0.7269702149902894,-1.351227861317085,-0.8243380317971848,4.850471919071645,2.960023999160647,3.5788088767976043,-2.4100136821252165
0.7215139572140712,2.2128376371660305,3.334250636144482,-0.6812802928591473,2.443831164242193,1.5610676836974526,-5.903356044029032,2.4538886828961974,1.537488042760647,-2.714661594942623
0.9004240926769971,3.317285257458971,1.9129422174616195,-2.694612277762553,2.319169546787119,2.136855453558266,-1.6048079742361712,1.1735107210786384,2.1399236499174465,-4.665574013782954
3.2516607536987854,2.5068071270268906,-4.879768374464632,-4.728440392943852,1.8918699926501814,0.06777387587641681,-6.440698215508215,3.5199745443895294,3.8434022592668775,-4.769199580842533
-0.9605143273331008,-1.344280850896546,8.410532606721427,3.0268558042090152,0.8425008733644113,-0.13375769380665814,3.7118822560519393,3.804684833055539,5.813165323554979,-7.542946459017573
2.1527364039874524,5.189996293109847,2.8951149139214136,-4.232953236408406,3.1483381931274077,4.601725390539485,-5.421241998950804,2.3409139215815475,3.929727374409004,-7.097522827050974
0.34142674495503433,5.006299831982511,0.22413553379254847,0.37723287429179675,5.39718770669186,3.341639022526875,-7.01600495079419,-2.4163492022702617,-0.877105676042661,2.831076413976765
3.216259111878009,7.302288239575081,-14.980302001243032,-8.040561511056167,5.912893182081822,6.581041783900238,-9.923171154704017,-0.1046305584103781,0.26516742166007845,3.677013740647082
2.993295065359807,8.522108920992423,-6.524658276130294,-6.521867694840432,8.034297504329189,6.503026452704851,-9.165140140050466,2.3186391394484307,5.240527391543019,-4.53968516055605
-0.6227027731178488,1.1761743659043977,6.852902783033847,0.41687167735856584,0.11190961335083996,0.5957150519243102,-0.7325413706099848,1.717585835510394,3.0749555823085792,-6.097987143615356
3.0912368220900097,5.687472382989965,-1.264156215456464,-2.580235605750282,3.293865580352589,3.6606618086197003,-8.700155469326411,2.9322225702928875,2.8172087176925915,-5.938163700824425
1.745079865259958,3.5420805697345537,-4.32660201467131,-2.327113234337704,2.64517332293911,4.722241300343899,-4.39563135017759,0.3864133368727687,2.8169653889632382,-3.929327930210362
1.1827232636694451,1.1962359800678628,-1.6104434705883324,-0.6150691795854201,1.1765364188117018,2.7926527185062793,-2.596002006191386,1.3747924526701598,0.05829653415235217,-1.2991290323754088
1.6454580998128718,3.84268417883048,-4.464647550139779,-1.3581983235370558,3.4785100264708233,4.719114186703008,-8.897466757121705,4.280685287452428,4.313236757289435,-4.417729369084704
3.2934099743232625,5.267481731258648,-11.400257027617307,-5.0099152559746205,2.6973336940070567,6.103266890212437,-6.467182877601468,1.0009120356606422,-0.9724834490157963,2.8317364642273244
-0.3352380658312081,-3.3148156394916533,4.983902973606427,1.2745855599051095,-2.2599912860818114,-1.1510645628505225,2.540893754130992,2.416482295256327,-0.5245997185216968,0.19413989490674047
3.0560987485801974,6.3857493241673104,-7.032773383140423,-2.439268440419111,6.572941619985747,4.181388930824692,-6.164611383472249,0.6798899744540239,-1.9191176728448958,1.2716065820372677
-0.3010273222984585,-0.787963751980981,1.110287886782469,0.41661249021463626,0.6813853247908767,0.7027781559294657,0.6019401904761433,-1.4815310832116837,-0.4710761162981864,-2.2810186895192612
2.0952046995777502,4.703473229037249,3.399161598313661,-2.3312768434284115,3.829883269026919,3.5429881008315083,-6.570800382815154,3.177314271634566,3.1238470028068335,-4.35245208711034
1.245565401100166,-0.6514441753489636,4.8313788267227675,-3.3946195051459833,-1.3991854698705324,-2.4334659961217855,0.47425592991037013,3.933903900315511,3.1141151917233874,-7.634309676881371
0.9989354575938656,-0.9761025118210136,0.43009570613190373,-2.255491357436192,-1.6901866735245503,0.8353603433000727,-1.5907382740777836,2.2745142678719303,1.1267467745223045,-3.9180487250603058
-0.6496509091928933,-4.425162102281293,11.465594016863218,3.013536043406692,-2.122606421155587,-2.9319929005977547,3.2165198992762347,1.6262567788300943,3.7124402370705507,-4.170835652804447
2.82720677930147,2.172611523539925,-4.162360472798449,-3.389662067462873,4.182183962270707,0.8104120629212745,-3.351833017064605,-1.871797545349233,0.14481576655311684,2.698604356797282
-0.3972000836514217,0.8990661755508114,-2.4743251334733385,-2.293431616922304,0.20319140112189205,-0.07466131680708732,-0.5652012608223563,0.20067606147921652,-1.662590121781535,0.39295649880106664
-0.619283984602437,3.397545335004378,9.521975898347364,1.7528106372190182,3.5286688149761916,1.6017282752069353,-5.076468617843909,3.417365100016254,1.4810759121959982,-6.806780875603564
1.0338576555513326,4.037131590925098,-3.3585682743286362,-2.930283627306891,0.8167757670332212,2.0301029102287216,1.2495410223732681,0.8340718148262185,0.4290920759504962,-1.5019672214874147
-0.7448337551307948,1.512396844313427,-0.8928293721038657,-0.13741122595699484,-1.0389690274052412,-2.4023374603351675,4.146575192621378,-0.8973906923971813,-0.28231734820756144,1.896012044671024
1.9773465548535194,0.8814587836826874,-7.708361741231155,-6.039218711403288,-0.18925863660205197,1.178049770108685,-2.063641680923998,1.230984072564506,0.46676359331304984,-1.0036108962984012
2.101805216544581,0.8908492492391056,-0.28137295000844587,-1.342056604507018,1.535066484952959,1.2216199771858467,-7.185442962524448,1.2362152847213648,0.33718577330862765,-1.7933681002588346
1.2642373127343958,4.092985987409808,-4.322578389803305,1.1178017864254564,2.618523015275127,2.104832381046067,-1.7777252581276184,-1.2672493081136023,-1.4614743079219172,3.5060779359119087
1.326903400668821,3.0914191157410023,7.0911796752597,-1.5046380275683953,2.198482750119928,0.16657520427697636,0.5823241159382068,3.1382031417878498,4.321728700559835,-5.544261387989976
0.8904391782701593,1.7229870182491043,9.718848577945007,-0.8411789805196322,0.7597506226639958,1.820546445695284,-3.6089760265092456,1.9321125792144298,4.58833129422073,-7.102700672423348
3.4303526813446004,9.141339101346956,-12.214757166887075,-8.546729865168293,7.73320926076218,6.703323524070875,-7.353429610050969,2.663361971326854,4.502498191777754,-2.1193839259095597
0.8172785526294015,-3.8912880977824575,-9.434349023005488,-4.665818253198856,-2.397902275054843,-0.47597267528940335,0.01125341276477538,-1.3059687183926354,-0.20368638885718382,-1.413012022676615
0.25616407622820714,-0.6694521715678968,0.3851864702145974,-0.30359099706830106,1.8429484553306423,2.2987480035382974,-0.29893417560142416,-1.0469663900075,-0.5135279073431049,0.5141462591765759
0.007057065806124196,-0.938867245573996,-3.271192949558399,-0.2109131279536923,-0.9391815810470366,-0.4493194625192128,2.5914244831976285,-0.8473754826974023,0.31684369652358774,-0.6929203841711827
2.52370793513404,4.1126812869746185,-1.4735542393067793,-2.4473876996726878,1.699884638088853,1.5774046318127581,-3.0344836290071844,1.5042048087729867,0.833934895100966,-1.8774930286052425
0.7801602401154053,5.382238198171959,1.575310108280898,-2.681941720376115,1.1293497294600516,2.026118093692324,-4.351733564821903,2.5713109352618098,2.8310976126534046,-4.890897269105034
1.9508745746070981,3.7870937665458575,-3.1020248598202063,-3.821927257079687,2.564365077790687,4.663735086656809,-3.683264858711611,3.092819273061676,2.4128086708316157,-2.094089096302345
2.0637246656573422,-0.07936720702719151,-5.006215778875601,-2.014728992409956,-0.08708506000390502,0.650900328128642,1.385670848399305,3.1345166447090174,1.8636346390593896,-0.502232339995328
0.26158130713201744,2.1723219170935724,1.202309536299589,-0.7384111930363988,2.0622929012462774,0.2701178067813773,-3.12547279900821,-0.8496906643287931,0.03375846130486514,-0.8631332744370631
0.8573507897080483,3.8627774038727467,7.624327542019955,0.5958707326850666,-0.19442074327887068,-0.5489707909101104,-0.22072611058226022,1.3943388153590588,1.9495410627836525,-7.7986540229161365
-0.5174572202714235,-4.402152520949392,6.115891934063287,1.7752446084527527,-3.5767499742002835,-3.713308584317001,5.434798678181072,-0.5518055142256049,1.653179194443521,-0.5597874316563582
2.3530267027540033,3.7399117339328525,-0.6426691344342284,0.16905876435101286,4.350450155779731,4.141393367495947,-5.371914149400135,-1.1370243021273516,0.7624710443178395,1.7845532808621434
2.8794058944690635,8.76740806281986,-13.290154504104521,-5.574153342540001,5.5568284871752605,4.8694363916100745,-7.53444253546931,0.55859789387824,-0.22776124147119775,1.5652185132048795
1.4267353302347971,2.476544374433721,-7.992669685486771,-2.3217279582085437,3.288068826486571,2.5021298706480963,-4.448568213417286,0.059507025177339246,-2.785637757269277,-0.891601483802309
0.36468149493197544,2.426515339901932,5.601141172322382,1.6142149531164693,2.4777157248059734,0.4493713780319706,-2.1713508819300027,-0.9168894702228407,-0.5551522458827279,-3.7525269138271877
1.9484208143572417,5.272398843923673,-0.2688189450684284,-4.658278492732433,2.9180724803021376,0.3466569482529477,0.02949884810339454,0.028369312212394054,0.575414378484339,2.7857480208286836
1.2048359883030302,3.310512982499343,-1.307864585983806,-2.1217187926875543,3.679497479585504,3.1885113739762767,-6.846213307405958,1.4024295302564989,2.8293331841752187,-4.981753914623709
1.863612926994461,5.529498225186087,-0.21774308535907894,-2.0521171758636316,2.49759397953676,1.7383501753618258,-6.955149094650895,2.3440806209346237,2.2997181569182934,-3.1576228785103266
0.02312402953778725,-5.253649184693392,0.21595144468262006,-2.5338981009511476,-0.6421032967570235,-4.015884964957032,1.8020382414651712,1.0976871030443993,1.9207408359551592,-8.362147518232558
-0.24734613434002173,0.8085425499088758,-5.545999823022955,-2.9383337872271067,-1.9929764940449486,0.586942627895091,-1.8717374687497341,1.1265793869959055,1.5448603361701818,0.3726486749437881
2.0445983182722327,5.667601568255233,-13.802071912352599,-7.272208885956672,4.1840928481257,4.001316129926791,-3.3976770249992687,-0.3364674442478831,0.0446062098944565,-4.98184024495884
1.1884475459938906,5.290129868135427,-5.149134785389091,-3.660206811186703,2.24993555931511,3.3115435341228334,-5.092302100685401,2.619267013020721,-0.07618983424578558,-6.447752605149977
0.2850113540272299,-1.696060937127203,-2.179677549314832,-2.023801262925921,1.5586751480484078,0.3750879759503121,-0.5269145360402853,0.4058874928607962,0.22532257904581562,1.8954007658373686
2.767408903825887,3.595587416267078,-0.31410063598671023,-4.354555489911323,2.622370998109357,0.5101036014565508,-4.806297189468874,1.0321521230786785,-0.8471991247069581,-3.349163027346042
2.976400158998028,3.7750618946426413,-8.918279326139851,-5.265408455549796,3.7435702380232456,3.4033452189090863,-6.107160821632733,0.9745922116353354,-0.4054649414787764,-1.4389749408831993
-0.879592027143469,0.5363314330533663,4.188685922080602,0.11719376157937812,-0.1877335196168405,0.008986609564929027,2.379694934093963,-0.2980169487829176,-0.2369286102885285,-3.760957225570158
1.0156296638728537,4.566052450138904,-1.9220793482838165,0.8914463319144733,3.4056793554676092,1.7256712422213836,-4.963430169016622,-1.4285044503313604,0.6431347904343045,4.532593356212017
-0.711838928031995,-6.9293138878523965,8.518050489848138,0.84713709901442,-4.073254379221977,-3.0092997181684003,5.252913365570081,2.623680098422155,2.928727826077364,-6.453036718501581
2.348521409914787,0.2673838410693973,-6.537216261630686,-4.237253304858413,2.5751961661041207,2.1146784107907415,-4.009496023130533,2.2166490983574043,1.9129658025032954,1.1065010545551395
3.1626028484333144,6.234071576138178,-0.6923580186491392,-4.041253460561696,5.873175390599647,5.839295933797121,-8.676940131820729,3.5707319670752584,3.6658800974300574,-4.432103181196856
0.7832103077286705,-1.3760527260573254,-7.6136080587348225,-2.7279856130914304,-0.777416728280579,-1.1499179500644514,3.365186402061655,-0.291501631472171,0.7832010996012098,-1.1411570291353463
3.3956931677046116,5.960777931427321,-6.5130324865314115,-6.63716157432087,6.778326335400848,4.922937733644828,-5.6643911653612635,-2.334478064452818,-0.8126910296680817,3.641668822097521
3.130110159792949,5.7725901344935036,-4.448127753590356,-8.477770370265711,5.284032449443371,5.117189688320536,-9.193198602969543,2.959431619467402,2.3942742529979872,-5.771108287350458
1.1918384659602483,1.7045380072954632,-5.545596502597926,-4.948428230319648,4.039868218788819,3.4292668976165728,-4.944926542750426,1.8437541534177733,1.8543779330883814,-0.7931568024672292
2.842583968318048,3.670374779693765,-8.646561951897201,-6.652639504318498,1.7574974236981136,2.5235805405971106,-1.2187089896381944,1.2977839214921947,2.2143555605739835,-2.922304942041044
2.8579948583589596,5.641727292501171,0.3075158387078396,-5.993356087124792,4.206867847199767,4.255884633311765,-8.113799797611083,4.763750104684588,5.71313793478315,-7.250323648118515
0.40159750035719277,-3.7160962787120604,-1.6634960168030863,-1.534829566632369,-2.270950815443186,-1.76393175269589,4.743957958772112,2.842576847643574,1.889421131294466,-3.8020304686013744
2.163754476786407,2.5349161933583946,2.66010145338661,-2.604472087895897,1.990852616600509,1.421988929895698,-2.8373198864557603,4.194610430121849,4.323398166977088,-4.844848070351485
-0.709878414115875,2.6289015946986454,3.8142134835194477,0.2808785484496196,3.2010667552810173,2.1528845334427533,-2.1608412781137796,0.3845887332547956,0.18845737322634354,-1.0593014740177542
-0.9150716683232355,-5.163270446662554,11.55590403158945,3.5378571641638086,-4.1415893438216544,-0.7941395546577135,1.9025507192010913,4.344362685539972,4.685209173051106,-7.61268992595409
-0.545164233499116,0.3830314264753015,6.885314036460051,2.3028417778356967,2.4460139835858716,0.6049135118474627,0.846798888565445,0.03743976011722949,0.5865837145293019,1.2872419839763491
-0.9209746726970723,0.04351784890660305,5.5997791898027796,0.01688790299460826,-0.10847317738684376,-1.3797415978744665,0.18204878234786542,2.562577313291241,2.7713181865208067,-8.777769003415232
2.9054366991859912,6.064950689774803,-10.180774433018332,-7.714287193109038,6.598173536799283,3.7779087674758443,-7.856024914734759,2.1532678039162345,1.8916714273549027,-2.515652420121027
2.136053870214372,4.906492863693727,-6.531319760519526,-2.3791406315191335,1.004668638245837,1.6588718829645845,-4.450185851577938,-1.6219787321774088,1.4253816517150464,-2.3090377300177436
-0.0688667635361867,1.7576743525059004,-0.62601133943824,1.2457905447861526,1.2119103744717536,1.2252778016506678,-1.7037194492128007,0.08933848521587129,0.6922247677692626,0.09621166863628071
0.22528648341704338,0.7221959098035498,12.336940603649069,1.3716853849350894,0.32701809475565996,0.06341201417439296,0.7878349757113549,1.3168805632616656,0.9850525918598835,-5.926293026131909
1.0079398548130265,2.243171624351104,-3.010463818159252,-3.7975950618609926,2.7175483943261827,1.5190275822134516,-2.646717975939021,-1.4205044916945213,-0.997388729184233,2.0784750108858914
2.5747988976360423,8.771909743888642,-10.417902124584906,-6.569058695492586,7.405250993143801,5.834768503952796,-9.732934808245522,-0.0040427979945610315,2.384397898675381,-0.2320221884251481
0.6868628598671811,-3.898112489675308,-2.2974560173142082,-3.0603208674924387,-1.4461118563537456,-0.17880768555805315,3.2199421111273607,1.8591893967711628,1.2147811007534937,2.999200630604745
1.8049180336903636,6.407656172780499,-14.53749224404309,-5.580594068711417,4.456620129347801,3.891785351887213,-10.422144772862394,-1.1259552954798755,-1.380972195112835,-1.035891709306139
-0.043911152800024555,-3.114308366469809,4.636421136323068,0.5020494385598665,-2.777228401076396,-1.3950346229630186,3.042209996226442,1.417873817987226,3.491204908764864,-2.0386716517062573
0.994779988987569,-0.5079343540034762,-1.6833170917061144,-2.310888648049751,-1.4683655855076678,-1.4836575612061274,1.9161040682882338,1.48833057023802,3.0497823578737453,-2.060930172265452
-0.23793906799541598,1.7494769179171672,1.607806042532396,0.08816174107793592,1.300621139975423,3.676743982763899,-4.569436479909574,0.6971216302234021,-0.16534583798244143,2.4057356421002747
0.4045305175087788,0.5109904801082635,6.459445919387876,0.23776118024545137,-0.5886379465452006,2.497554214561222,-2.0009874348592307,3.978928667769158,3.4724510855927995,-8.337554587421133
1.6173818672640188,1.2789105462342216,-6.118508881733828,-0.7780900263227872,2.1269434302896193,-0.04193773880951279,-0.7330707814169594,-0.49616906662093624,0.3908523297600642,1.150865713705753
2.3871370122389375,4.336104983686344,0.7646952256991515,-2.2247925913421955,2.132645058520951,2.737632831898845,-3.8574944441893035,2.486739951682507,5.013660685338362,-5.819624952280913
0.13317965487759742,-0.8574457742830736,-2.7881041171344876,0.004413022785483326,-1.5961384107555774,0.08440980132776477,2.9248190004404524,-0.9563478916562618,0.4211254256094037,1.0240812403838706
2.8626814767090187,2.6234802861405857,-9.01482815589739,-5.907365710605485,3.4665353906859275,4.882972027603529,-2.7935274505146452,1.2784538193392447,0.4391530151092116,-1.350168871885334
2.7631116836449796,3.736064507314673,-0.40273936714584124,-4.1500868253651255,3.587066609421686,4.051016666638783,-7.774402667217965,0.30852302652313357,2.540979368784779,-2.9614397644795623
1.4684108564935539,1.750394432773382,-6.660370867638486,-3.6485267347942796,0.44838380303666403,0.7816802447863644,-3.805411229416642,-0.2767735827812171,-0.20970921318794586,0.8436556634496161
-0.8997269868515356,-0.5022436826868117,10.140600174521431,6.2062189392425715,-0.31831407664792866,0.6320124295057733,-1.4954787397008842,0.8647902112762236,-0.8257898897612014,1.123359077242422
0.5371176402522542,1.7570328941365074,5.751279664307045,-0.9355947113789265,1.9267400735145375,1.6953378105977763,-2.43194452898902,1.5876189877003488,1.4605732203439052,2.021844138263266
0.7516232168387273,4.417749442538279,-0.7405665795814427,-2.11897697350768,0.09842767084275354,1.1912050534385519,-1.8344440809967681,0.8831995039952258,2.143637545018441,0.9611977095261061
2.9970167668579935,7.436267492195143,0.9146298094818386,-4.143338722548903,4.259705097296401,4.192410979102975,-4.078338641345594,1.8325545473491784,2.6047886676017695,-9.017168190737785
2.5474512036389316,4.4759255232718145,-3.811489977715228,-3.2558139083049396,1.3138702889044065,4.156936927196189,-3.3108444711349905,1.6029122116315875,2.246160254230337,-0.3676732565270235
-0.38770406601458884,-0.6271397708238323,4.120208599293213,0.849778386316127,1.0618332607880836,1.1946533242063289,-2.9598302971460484,0.9507174504866237,0.9958488097386384,-4.507658883921832
2.9125111778858694,10.128225944448513,-14.552250067674972,-8.521309158533423,6.532800337385932,5.896517053877963,-12.42932142934072,3.3275963521619394,0.3071443617550158,-3.2337643337566737
1.5512509607531482,9.78173399652338,2.6882564766296366,0.23216696628036596,4.757812973529783,5.198482716791153,-7.248519785089719,4.179278987224309,4.555305009234688,-3.0813933708586663
-0.10817141500123162,0.8866854086788097,2.8006841026073914,0.6607847186879349,-0.6911457244847945,0.8303476427163616,-3.162804270024743,0.6818394214893957,0.17582694091033,0.05261295714422634
0.3163465858278032,2.7516952003738826,5.445757916075511,0.9427819639902739,0.28370462426522486,2.6284487747086276,-3.104957394526762,-1.1349149542344132,2.740992768401313,-0.9831452408905635
3.303985191397566,5.323818572800739,-8.964135326304971,-6.35664604668288,2.965659437209778,2.9661850071231592,-7.303536831643612,-0.3195524523385652,-1.7654358063989952,-1.1284396069137708
1.332531545697023,0.7919224285655596,0.6641577160619516,-0.4113042651581963,1.516479998997037,-0.0635839113858565,-1.7529673729222404,0.43368100754082284,-0.07656844157698499,-0.5395065335263168
2.643546057888513,2.708958572162043,-4.0648913635811965,-3.994553955096247,1.3823816725448017,1.048806768387853,-4.324259812152111,-1.2062831970639338,-1.0285086952557074,-1.8686620630444903
0.4294158557498551,-2.9219486659414797,8.618251648112206,1.849774561734181,-0.15234933257739214,-1.7923322507174073,1.9411355890528934,1.9896210184456895,3.8444616978528594,-5.366327847311239
1.9766076572495175,6.2032482424793045,-6.187802147064955,-2.9643379970748054,1.1472593034033742,4.801393765138084,-4.9881550478739065,0.2123233930204143,-2.1344676677968923,0.9862817044770678
0.5378532056915737,-3.8809283524263765,-3.889913971007344,-1.591115256598789,-0.2967590728711438,-2.38166223348642,4.458070476772026,1.3310618042905145,0.7620887712917838,-3.1984123617400453
2.712328076767795,7.868417216589208,-5.263085243443657,-3.261640193502979,4.279270904312859,4.137594910814587,-3.743209972125774,-0.7040177315297362,-1.3058672842739478,-0.25085738665200913
1.6311429385287526,2.4232140769451016,-4.580775630047926,-1.371480972035012,0.402386204842872,0.12833853248584692,-2.2879140316036106,-0.3469913153458824,0.04572210972459028,1.9547783866783233
1.9529177295520568,0.6953659858388249,-2.5101851305100626,-3.7615862229859656,0.9219476880166464,-0.8379145890104985,-2.9387869584576674,1.9048876597827618,3.721465119801099,-3.9447783626542345
0.033411958886870874,-2.180164644246719,-5.826338653738487,-2.206424319372111,-0.19772395493778191,-0.5563835243955362,3.422975674442542,0.5925778528652131,0.703308486883309,1.5619059184686068
-0.6177901950195206,3.5641722855224356,7.530185280159037,3.4821228233859,0.9170519300386855,1.2105549083425429,-3.727991872607299,1.333266724778455,3.3731662266242166,-7.5315133302527455
1.5265760425909267,5.636485714723872,-9.188020991982203,-4.670866948731414,3.0202589814253975,2.597990403711523,-4.616104987147615,-1.0802185468036152,-0.6499932411788376,3.754001055635179
-0.7971860950240739,0.512050081477311,1.5302766512927866,0.5218193102759654,-0.8629454403890766,-1.5358635184135583,2.86776221838043,1.3884171533846814,1.2884043310851434,0.9994336686680447
1.2584641983056115,-0.35311342853603195,-1.713933717979108,-1.84229002233348,1.2959138981954188,0.9056939631057259,-1.0775010632228241,-1.3467513484629614,0.9536454062945372,1.3167989888063139
1.3836280138919634,0.07367465918687818,-1.0902080877318419,-2.0163645342985905,1.9050601067614932,-0.008509016117205115,0.37261777440239263,1.012694713727263,3.5624805358406935,-5.359939989819805
1.3197773094478715,1.125497987717002,7.377610410947115,3.3880242530161913,-0.8189402278738265,-0.0784749105306376,2.8052765893118696,2.389375717189226,2.7615018122445183,-4.289000836521089
0.9849120702239595,-1.9960407938532756,-2.531380144601895,-5.447452483901258,-3.196804436714014,-0.8527701057997277,0.30686160400631596,0.6005888586285296,1.9487702094540758,-6.44098825993481
-0.049598342786314364,3.329018162264659,7.746595556112858,0.3757938976896976,1.5893141457849373,1.727696173663265,1.1421242914476861,3.1433974242609386,4.231059704222153,-3.4117872378057394
2.9571463363696178,6.225619623015489,-4.773524063842306,-5.447367282892885,3.4460144821076124,2.555917009426147,-6.998977461265653,1.7866274804678235,3.5259994922176388,-4.596089863017666
-0.4609996537420159,-0.7483204665810465,-0.5136086793912615,0.5527725812707719,-1.395084352165967,-1.7121881668287675,-0.08825280572115694,0.7921121019498186,-0.3681686094959085,-2.132489562158256
1.0320363130061447,-0.6101810897482371,-5.3526691240174,-1.924908840202826,-1.294049680350497,-0.7681239306096632,7.247447110601559,-0.10350060225992269,0.5096929702336429,-0.5215665752355444
1.3932057866728411,5.617174120888562,7.183749229008008,1.5072315242129062,4.319121183726388,2.5454941822412214,-7.320962804447956,1.9841639222793641,3.00678532762285,-3.608811046256015
0.28486168776678866,-0.9384046823075098,-1.2401282328089949,0.03267515614606249,-0.22007872703563186,-1.1722727125787693,4.140239768298797,0.27754764791633274,-0.251741358757313,2.529407354430967
-0.3888039390143624,-3.6742077210025195,8.95558303424011,0.7969400140693013,-1.6889979541404954,-2.3068905302838694,5.698373169163565,1.540369088281255,3.5274479944976287,-3.6086115822651554
2.1302052312614275,3.419440872800089,-12.548347041155646,-4.17827712951409,1.2175267764907738,2.720908998912921,-3.404999521017801,-0.7401261890506275,2.5520252632873506,0.692526944580869
0.5359707197904107,4.268244218814478,7.57884976840589,-0.5139446235837075,2.114656410156358,1.4221957935687333,-1.6880617789009296,4.167180865620939,2.4023665804530547,-6.3677186165415955
0.15895215060253998,-0.23443900990253597,2.505708391528311,1.5311947879548056,-1.6411786721384023,-1.472033319870717,3.082154577234115,3.936466079122628,2.4627685252196914,-2.7831085285386545
0.15104974052929254,-0.8118932267587613,4.446059988045237,0.48530312672620235,-1.556307118798685,0.17101155628864573,2.3957885016174707,2.032873993403178,1.7063603533725782,-3.0970317238944696
2.88428148880743,10.312986930533333,-8.802109157459016,-4.444020343934486,5.446524830518988,6.738592190067305,-12.924868129623015,-0.09189360628651616,-0.44686532100985965,-0.6900698615189582
3.40664422672058,6.756752999452891,-0.025139687885921802,-4.480801220604598,5.50281411619638,3.557283454656371,-7.615810676267084,3.2614723945143806,2.6393269962870134,-7.085535569482733
-0.2295973763913306,-1.6909409264443749,8.765150349307131,2.3975920858769117,-0.21334860512496837,1.6320878622287291,-0.6077291009649208,0.6700960973277812,3.8842527323394425,-5.665086832095716
3.0322128697846162,3.3696565994854497,-12.552194562201553,-4.936868948420634,3.336475400012095,2.7468361736834557,-5.051562027742869,-0.8026488479955587,-2.145246643805449,-2.284781309091917
1.4281687464791317,1.0188741098541603,-2.482389916348014,-3.8471810851879065,0.7026588270128954,0.13169742570929924,-0.8381866754786111,3.065477144620463,3.5061252225522748,-4.375902627841145
1.669921342855473,4.48577030778359,-1.5800200518767058,-3.2893061090331863,3.5485677042139434,1.249439151039044,-3.915201825337715,-1.120877685280499,-0.053664586146448826,-2.3714052879649787
0.9143487290407877,4.163501964286867,2.1617041119295886,-1.1538338209247903,3.0320162192242033,1.955376352425946,-2.7499096886304812,2.4099100782909604,1.0523373354382244,-3.518769889470712
2.7867382497536086,6.260132243247705,-7.421099786346485,-6.688615706540764,1.302543921534956,2.930537166124461,-4.452611621626142,0.14321200332218675,1.4582870087035047,-2.1206154382394766
1.8487827186732466,4.0481362915609065,-3.894160657805243,-3.343130461267046,2.461836075393488,3.6223547531889926,-5.037452787521607,2.69940816843037,0.19263527000772082,-5.009258673828188
0.6846434663489276,-0.35926908315120465,-9.41593206386375,-3.338523878622457,-0.866620969091856,-1.8780553060525262,4.608563052838787,-1.00139105647393,-2.203451568282618,-3.8350424306698727
2.002433803885554,4.05666920725623,-10.350640899625812,-6.965294977254671,0.2483440074245552,2.9010847351018016,-4.010676607322849,-0.6636456448142249,-0.42000983976432155,0.6966583775268717
-0.9054788762607721,-4.268762712711421,2.329343643427242,4.111135111472122,-2.2348947102544403,-0.4680328221836719,4.002287718461503,-1.404761435770163,-1.547477660268342,1.7473344037560348
0.7632019671503967,3.3525916985774775,5.769531142751585,3.19948677146169,1.4246800892951863,0.6416721797076979,-2.470598791894214,3.010233320927264,0.7366895538541689,-1.2027281002945391
2.8167884275586887,2.7761952182305545,-13.956759613653421,-7.65543480909696,3.545477896461264,2.464218070408915,-4.023470580088488,-1.3430974745494704,-2.611845895142075,-0.5145134457273498
-0.4421469758909816,2.912290519596418,4.016281639851654,0.9899035165262535,1.8794120693070209,2.239683444446648,-5.143819935285006,0.4845416301649139,3.9260525711359966,-3.3327763030271638
0.23870726781241447,-2.954180986911855,-5.873344224901588,-0.6146363513941641,-2.8113797798845233,-2.516638328520281,1.9587845230030956,0.0794244376460278,-2.3650133412277126,4.092513085040377
2.5422993669786234,6.1811331637123725,-6.882594456459493,-5.087461574909271,3.351734774154122,2.8102038981065003,-6.910309310997294,1.0432148525417975,1.7084223539361523,-5.615616666268062
2.544971873126039,5.555038873128095,-1.8806909389412783,-2.60635902862443,4.599747594716554,6.607169821931083,-7.267369237684325,-0.5134219687384762,0.20513561339205413,-2.8989968936918826
0.5668847528118195,1.004429834662966,-3.0653938647000922,-2.658059804450349,0.4873250841223195,1.507566139786457,-4.248044747659604,-0.24276062861762115,-0.04322177018044988,-0.6679579214867584
1.0806052797112105,0.36026488014222263,-1.8948716571740527,-3.038739950765919,0.2925780790525381,-2.2622415570910808,1.1545730158759595,0.8434669075750717,2.52720368487376,-1.5522965886767606
2.642303403279191,3.9245070016144257,-1.9422544197625926,-2.3295716018243473,2.369086086350231,2.0343680337501464,-5.1704880002704625,3.1632374671158656,3.889224644247698,-4.798596385297448
0.6378088128840982,1.9138679332253459,-8.06860482694281,-3.099829252388025,0.8999775427536493,2.3197141080682404,-2.159762762856377,0.09264076479810135,-0.47278116595104563,0.9425078516409079
1.2890898480713324,1.53260181604078,-8.690701999838884,-3.89312168113934,3.2869829308373664,0.2984610751973833,-3.0323084349604534,0.709532146386092,-0.7691464184975964,4.760130910157988
0.3229219265662613,-3.2041693564038565,3.485009560661561,-0.24451143008565168,-2.331739767792316,-3.2177320613547105,0.6162629829986797,2.0608835284120293,3.917804088230627,-2.841706311173987
1.1200924162684962,-0.5093914830607567,-3.0768296527163015,-3.954601215066803,0.8919761178637367,1.243937727608251,0.9020199778554757,2.385718570440926,0.981946606134072,-4.803261088465255
-0.9055343064238962,0.10349766802042616,6.8970587281936595,2.262395844600692,-2.7263346236368755,-1.3037557146488248,4.176820865252513,3.2400141134316085,3.821919687322857,-3.3864804158861306
1.726664522077085,6.492081609297726,-4.478298732579373,-3.8113525049932684,2.398143190561076,3.2114858268760296,-7.9452446971704545,-1.2369556283110705,-0.4461283358994064,1.5597623089037271
0.42592543027034435,0.6511971312004224,6.952000452859305,0.07174307398167883,-0.26765676999474286,2.99271738016213,-3.308738226182108,1.1708227558977264,1.6562538651236969,-3.8615435084111143
0.1542734264110277,-3.222469894081404,-1.2387162495072532,-2.2077242498839964,-3.306264909666039,-3.454116060432219,7.06469830018341,2.854692340094483,2.643541215475194,-0.7187902917142553
3.1499636576159578,4.612657036098739,-6.1995737803680555,-4.627654133640704,2.4995090238173714,4.899766147918305,-6.005020503593189,-0.6777944346020764,-0.2783961721492748,-2.1875604450785486
0.42700504152937446,0.7986896017323643,3.8514729178539637,-1.350411061101488,1.2715954502240265,1.6114318856324388,-2.026818179783665,-0.6607496214109725,0.46979790583782516,1.3921983031016387
-0.531114396953362,-6.3448688260453725,9.85287985001118,4.033614795449088,-4.554001700432587,-3.6157726897751568,7.507035875867469,1.9461209033848696,1.828066755210139,-2.1493046994271947
2.05593868467844,1.7094651314976657,-4.827337060092253,-4.534051618185569,-0.8373216381658208,1.0362722266846967,-7.220397691057805,-1.3496910473265142,-0.4407608029309202,-0.32950993130755957
3.4236238452490815,7.274694815069469,-8.355376536464899,-7.145884492588384,5.49333251181611,4.95672292175673,-11.617270806311687,1.211981847973898,2.869322133647782,-4.383922335271636
2.7758654464325905,2.0020243419815165,-3.3009408492632506,-3.258016686465607,1.6092288452152657,2.0935229956658086,-7.988913183726313,3.3090920441129823,4.773158655310525,-10.330498861997297
2.682003080668856,5.352161396703128,-12.366968195821,-6.510309301792541,2.89305572526026,3.0869341305086713,-9.327886929637126,0.45660464960505637,-0.9388965963749591,-4.420072613618518
1.6670423167555497,1.7542432164541382,-5.6988987289843465,-4.163545906348022,2.4693513183341813,3.209134576514036,-2.3061759250493576,0.4137032340824748,0.7381455208541746,0.8994514771025762
1.1220596576730886,5.01739922508838,-2.9243709099991886,-2.723318596565752,3.237058847896139,3.636579816396707,-5.38375474317846,1.5569960092773591,3.5380240899432183,-7.885897823642708
-0.02074237672980972,-0.3902577754423511,-2.645926802748965,-0.944682792032484,0.4953855032301106,-0.570258333123763,0.7871916993970447,-1.0084872483372944,0.7845578710615956,-0.17598515544322466
-0.584020427346702,0.5236379275028376,11.84211092538884,4.11905028314673,0.5345059382048837,0.40009218743981345,1.0219624525802478,2.729830878967154,2.450760728019849,-5.795784961819862
1.5085012898788732,6.499703153266398,-3.2541233853980467,-1.8245517809719156,3.9990525115507345,3.8247517152420403,-7.541755413712597,-2.1647955141860167,0.5090022759120362,-1.3803479682641544
-0.8692594086713771,-1.492952765276407,-3.5725229853167724,-1.48442362930943,-0.6644523881014197,-1.3732029148424987,5.624110916556833,1.065371732793259,2.518625960623869,-0.7937333452634876
0.6577208063475206,1.2224215649046855,4.642065671867738,0.05482065694231391,0.6833786812737981,-0.2258425116220041,-1.6582843305709658,1.0267928832030886,2.1957525010856704,-3.013836677905394
1.4537842876323466,3.7888366708344674,-4.978162558275315,-1.787200429464639,4.089374049999433,4.206165268689581,-4.715554290729458,-0.3065622724058332,0.5083773668807794,-2.009647861678084
3.083327807315147,4.79558573767645,-10.418116099523072,-7.9065833269254036,3.869340748180342,4.600057668197533,-5.567247532130081,1.2147680406413004,1.730133418268335,-3.8831596339227095
0.9350578885996517,-0.4027757930566443,4.520295019014674,-0.2856419546555434,-0.8686149481485829,-0.9425041778781607,0.7561192673739422,3.6083127721525408,4.5444511606052975,-6.028473930469508
3.012066541875794,5.408831575655577,-9.496567129550334,-7.0575917843677765,3.6030046997176477,4.736520368534852,-4.469346922300672,-0.10625331301402219,1.447471657903181,-3.5388589104225106
2.1966585008449035,3.4968564648894724,-6.857718455371079,-5.301073331604054,3.3749303608321926,3.403484637439421,-7.08698128671348,0.8674309764495398,-0.26961096867476303,1.0742165768093233
0.621877897545976,0.6399328728152048,-12.384024363112024,-5.9015343933553135,0.8196826292783826,-1.9260359422992883,2.364663732781307,-0.2822112877659969,-0.9797723010564514,2.89039703082786
2.397204353173072,5.002416466957155,-5.861293530821055,-5.2915087181270435,3.690509030697312,4.472467002357035,-9.537911236474665,3.885151212483936,2.7263738744515362,-1.7357160239885463
2.787034672106512,3.9649437242453986,-3.4258643518471503,-4.923213626189958,4.479427595965261,4.090429154245077,-6.361775983845757,0.5661290439651929,3.5344673623478595,-6.014632937736822
1.2707274397237138,4.269538394616054,2.2914804641259785,-3.084618454842396,2.8639076096793374,2.363299311527683,-6.6804930131455444,3.7340630293757258,2.4856861638916716,-0.6599114078382484
2.296775237394889,2.311725413969932,-2.7746330938960098,-5.994856951994177,4.349975005592469,1.5360751328614999,-2.779701716464703,2.6161830690928443,2.636169569018338,-8.13879958262356
2.676655393917413,3.2414265862996934,-1.7487117040752604,-5.236533480351273,2.220626891000348,3.2479208474507217,-5.644332132480542,1.9298753384710614,0.8000094605098357,-1.363084721526867
-0.4005917561969701,-0.8732498652288478,6.74919990487441,2.2890346163082325,-1.5752127525542445,1.3320291568381029,1.5746697714212412,1.7829539827043166,0.48525564467269083,-0.21640691679086618
-0.4222161105965433,-2.529551570164262,-3.302462691555059,-0.6398976607982662,-0.6642734970167699,-2.533915278422876,2.3669804269863928,-0.026200577186017093,0.4446640221304303,-0.9447571144939267
0.7978653367882187,2.8816571836802556,-1.2709202961144555,-1.769796279992808,2.7098671031373036,2.8901772831993604,-4.602429188817564,2.6554545686226207,3.197840385313203,-7.424753894338784
2.5925919499415238,4.512690176897911,-7.091626180683806,-3.8231364023152565,4.1036730127004075,2.9459774998650365,-5.60187530494645,0.8046266874943275,1.7351875395058034,-3.496196880896053
2.168816629441582,5.834431883918747,2.4302517995410984,-1.8148535801154435,6.734882831451822,3.1987843825357443,-6.493193082133879,1.1698548379447382,0.9052946119965164,-2.828599424007399
-0.9626135334226681,-3.216845017451588,11.161460100751894,2.8464139786351197,-1.1575935038394165,-1.6830837560101237,2.1728161347341888,3.078824602230121,5.390282575621616,-7.273237011382545
1.3801798483456942,4.111288910239919,1.6521025153794486,-0.2408509551524025,5.670829669790028,2.409686084371508,-6.733396196136127,-0.6429370024727026,-0.05352747911866625,-1.8767627086087326
0.41443477775976034,1.7504212752542265,8.413932617902917,1.3577234273005174,3.4058517301450277,3.305974769486793,-6.930836742117396,2.7478490262246815,4.369496007309565,-4.702372713467332
2.86700325855867,5.678421279168813,-7.1916634287555095,-5.538820642131827,2.2873996282931324,3.0668632382897734,-5.487136731818055,-1.4853907860042637,0.2407471563612813,-2.698900282817301
0.016112014000237096,0.6047093533454544,6.0521297991949075,-0.45694981220239717,1.7278868693778504,1.3330158173289088,-3.4315578878668043,1.194431622374146,2.156231999478334,-4.079777442158534
1.6782309615610083,1.445494874077066,-10.910192692210138,-8.507623653603229,3.6442875209529384,3.187047429369488,-2.4387002769988375,3.390732395565299,4.938708448284057,-7.658281433191469
3.0741266950033417,9.509741564981429,-4.893380950559635,-3.3139303776266034,4.578597487428484,5.158998636688874,-9.166043937558529,0.9391013392804327,-0.981574343871008,1.0107317334947785
0.7658055138017446,4.26399278562597,-6.916815758613577,-1.059781143199915,3.543024015615594,1.9426854939754798,-6.738406572667428,1.529114842113202,0.9279245973098526,-2.3495517877995638
0.39190708397350194,3.063225249713245,6.233165992163836,0.3116107992460575,2.9033910605365,-0.8733040507225982,-2.3947682841201763,2.7282660080275236,1.7118993697391944,0.12980870919373522
1.8917383856009757,2.298583030852107,-5.556697128648062,-7.6750537947039,2.722935790891014,1.054161451600175,-6.239371947972265,3.983255453560475,2.1565957738166404,-7.225997099854544
2.5684177366055096,6.938109378770126,-1.3746606623383197,-2.563765270003199,4.6111343980953805,1.3229126427200908,-5.5885472357146835,2.917516418950795,1.940500518056995,-5.276667132002659
0.5162606066988731,2.2404197562923454,4.074591139706882,0.6178739941872686,0.0009818599542772439,0.765247398112471,-0.37330953272467327,1.2133616611171933,3.254478827042807,-0.7598601963363801
1.037409508890204,0.3192539318809751,-3.9570541074000607,-2.9319754356888703,2.3194995865446337,0.26059452616158785,-0.4909171071001395,1.4429642191588097,0.6643946740642648,-2.9781969129794494
3.1705941892597362,6.637201501131403,-0.4149987006967608,-3.2235358304571102,5.532493133300965,4.0152129190932,-6.051885993932321,1.7620506174658555,1.6730635777476348,-5.328736147677409
-0.9068991107598601,-2.7191694693305295,2.0914164427807505,0.16171554776534164,-0.9141827799996248,-1.3777341194028807,1.8394658758194578,-0.06902081091048728,2.2293884102531027,-3.292554180034365
-0.7418170867139089,2.5814860113197717,1.5261697899498936,1.5045178109336954,0.45721715624137443,2.595811733663667,-5.511284389708603,-1.7657700963580323,-2.861075818095551,0.9411835610195655
-0.3886862169493175,-2.1763698412898496,4.454656970916999,2.583843265089859,-0.641756008694442,-1.0183910501489903,0.8449510269579212,-0.31422405277000465,0.878905972920541,-0.6905810014272611
2.583308574730944,3.736832757623377,-9.33559662639151,-6.585345096350087,3.7798822133400356,3.6136139870445843,-3.4507198899867646,2.031795640104745,-0.6303259407202827,-0.7384641443885078
2.204399923857455,4.192019882259106,8.626898367495805,-1.2446504813849617,4.166450354255046,4.01561422328824,-2.341537884167538,2.1523729352959706,1.1183440679644172,-2.7606293228876804
-0.9677844098613467,-5.697999111272658,-4.097567581187248,-1.123168323700374,-3.850068993368959,-3.0447466476450775,4.699581522192494,-1.3620539540301433,1.2625770097022926,0.9338614909584607
1.7809020986170752,-1.3972797407583093,2.07148739895871,-2.879148179770999,-2.860204595409559,-0.7814598598303566,0.7120430713180071,2.740685539170796,5.147582631746273,-5.882344066887112
-0.33818784979452565,6.30789524271874,2.9625717257822126,2.2479629190596837,4.323387473699002,1.421613455426845,-7.31714721854772,1.5561184310991605,1.869115854978577,-3.325410051914591
0.014067839418371753,2.877339882779805,4.712696740412939,0.5098361194382294,1.063710676276204,0.3714328244344003,-0.8194599832998006,2.1025512508350026,2.207382243242564,-5.9749037257837765
0.5057641257022647,-4.29795790795213,7.500792334875708,-0.4827450023262543,-1.9149804999519082,-1.4922542682938982,1.7128510344820067,3.290603961590017,3.3869550290871153,-2.8930592928678043
3.057512727285814,7.330949566026332,-3.682793008301119,-5.6722951459144815,7.259901773469075,3.127111818253076,-10.125128343728393,4.8467459148505005,4.681458240145269,-5.969179007557808
3.3919010508350986,5.818608674559862,-6.454972330082089,-3.5083526046754017,5.955127298500681,5.18518064092483,-9.043708663196059,-1.2427667383757812,-1.7464228585051036,-2.4358721382730786
2.3490548234691264,7.000142326728425,-6.293786288228755,-5.228290306795752,4.416395108037063,5.478563200920394,-10.028378373228955,1.0780068827334262,3.0540435205704712,-2.884167211845205
2.946555393904638,6.734880246329381,-5.66230159227472,-5.735704188148418,2.377892168416174,4.262628375403025,-2.551383579979516,-1.0604096779640322,-0.08791925106965802,-2.5174300026900367
2.969874978942243,2.5957016048332173,0.18851553558492906,-4.7914987384385315,3.1146076065182475,3.265939593256875,-5.465390548933672,3.549969615928337,3.090394905282388,-8.703923226833606
2.2580977740623407,-0.2375784856184791,-6.735730712059427,-3.455926675618089,0.3362999620940787,1.5798789080624702,-1.6549351729526742,2.100467361298407,3.338881940891304,-3.969151556328384
1.220967928765429,1.9143038320020045,-3.0649595424204925,-4.398873238389508,1.7050898454088523,1.7765977466810916,-5.005890937831354,2.1154598092574863,4.248911792655752,-5.450647127402894
1.498261722875967,2.214130473507712,-1.484542790905619,-2.852168646816055,3.4992539257992363,3.6984031403653077,-7.868005298747674,0.5337099508666636,0.7871393036727661,0.6379156038475339
1.099868338463223,1.4896859131802338,7.242774531324686,-1.4016019912289284,4.149720812629495,3.3599293468069122,-2.011030585562631,2.6181400238066175,3.3939457149283334,-6.41890386675444
0.11263228113588553,-2.359785644173968,5.1138820145395325,0.09489258476679828,-3.519721238614489,-0.5369228006123317,5.729283196564525,1.4126005028158832,3.794519911892178,-5.247897239378105
3.2882452772129085,4.642589258158586,-6.258165983994514,-6.451517216259451,3.654133897840065,4.122130144999827,-8.273833147848487,2.958195028110408,2.9491979003453426,-4.76916414331737
1.5811282501840425,6.895030173906043,-5.17901669991415,-4.7847659687929,3.88349071268192,2.4799873951146534,-5.274216208212282,-1.3711177098882192,-0.46250287615093316,3.0173587644026414
3.3360278194950865,2.3560689173405085,4.46637362747923,-3.7944014115596363,4.4291745070754365,2.0552472719296824,-7.4786338081493495,3.3945258801562495,4.596267880222894,-7.768447110156285
0.8766282089172241,4.690186069862779,0.6669515594059598,-0.14068167233861908,3.2344227119655216,1.7917000588627165,-1.4352385689987903,1.7081686784408896,-0.5254145050193503,-1.70729711120227
3.1560782554987394,6.309020699930417,-8.388987546915638,-5.106316779167801,4.664487603800394,3.161219553155463,-8.187962996734214,-1.0951148852285981,-2.092857465125122,-0.7665207758651005
2.3794149460809435,5.178425384248379,4.926364374700395,0.10900584930072758,4.668493941683956,5.12069729930236,-9.989410525625114,2.4611499280474454,2.9762377365373665,-6.408850298548273
-0.6808265433288687,-2.409740130013396,2.5929620055575517,0.5419246663194857,-0.6208970591359692,0.7841796853723666,1.4003505577176907,1.389550105019326,0.9766366501943643,0.726808266366381
-0.5855329325511438,2.1996119634691924,-3.6070234846033955,-1.4972860151789689,0.9993035418923117,0.746532478195171,-0.7320066278192036,-1.9837056926239494,1.38607893182396,-2.196631253176895
-0.4522922106527252,0.24017880822896615,0.9711117903130527,0.40169104091895114,1.4015809557061083,-1.8484369373876477,-1.271699434178799,1.2174865150451808,2.87704893252026,-5.042559962618243
3.418874995168242,2.129694380785496,-8.578929409993105,-6.729742674228163,1.4472558779965725,1.8985031464653919,-2.2509963701142266,2.629384876403276,0.3674751602484654,-1.6990675288055521
0.8567973213414688,2.7363635576378176,-1.5599603259776673,-0.44138318304927204,1.4253961540520665,1.6335045008736977,-6.047169947703275,-0.39704191679274914,0.7667847965011098,-0.522174741852057
1.6647792251031102,5.4460952973408725,-5.315400622882631,-6.341655862435012,5.028181551045242,3.259090570165391,-7.232660260321961,4.0914128489715615,3.34363949905769,-7.292501546352668
1.8523501461635883,5.532201897698833,0.35946764735488124,-2.723996546231354,2.389190688345747,3.936336684217278,-7.0477563465832525,1.0444286061032728,2.9948389896233865,0.5260416581589475
-0.38409939280460104,2.371441377121201,-2.0000067398112744,-1.6264993555418092,1.0390196041216813,0.3052385228263305,-0.9692340058509852,1.0085647332350707,1.7102545636256092,-2.4315477525749785
0.2306950630560589,1.2606866841031932,4.341497337605686,-0.857727271207333,1.6952226183363832,0.8981790275323958,-1.8861818832768893,2.8065246410592293,3.755594446203718,-7.0826498433624145
1.7421069543575025,2.5981560833318347,-1.1133321467742392,-3.5287773943031673,1.2617299015481185,1.7604839155668137,1.0951908354194466,4.575000197906387,0.9841116661183409,-2.525444931733326
0.7756947307846436,0.7969708715072321,-0.6046311802608022,-4.98818235723484,-0.29956808936532603,1.1609028485237762,-3.144484041563595,0.7079403889852912,1.6410851694281134,-2.3892826317223492
1.348143244759536,2.1884006209117643,1.5609232490927314,-1.296822625139314,2.2265962742490415,3.1531780741323514,-2.570918727289625,1.408924941431434,0.761351499730908,0.5431735290151034
2.0628541351663414,7.067802280855453,-1.1783590039600864,-3.883409502077916,8.05085179117632,5.47578434937469,-10.708837593330266,0.7611253731938938,1.2171598503164962,-2.243702481018617
0.535607770680665,-0.41375580752865965,-3.0589598927957153,-2.8616482961189464,-1.244616287160318,-0.31471827900790816,-3.912446644502454,0.7242423210539988,0.35751523041631067,-2.6099262894276944
-0.14078569630694437,-2.293436278968243,8.113630035850878,0.809897092321671,-1.7305375743369464,-1.5640025319687727,-1.1082238264167101,3.6113506513832747,1.6584111432035626,-2.9959141939997465
0.4943184746871334,-3.627182541997643,1.3510517137781184,-0.1438532822696278,0.3927651254711315,-1.1951839831210251,6.6419016500008174,1.3815949233523772,0.14394910581923337,0.10003686121980594
2.7714167933565235,3.180989227589179,-11.586741251384607,-6.601506407573511,5.492478938938954,4.161215799868238,-10.151336446437911,-0.06973113176543597,0.5423753609457624,1.4313297998274417
-0.14305762670811384,1.0650057084838271,7.574062265720145,3.4772917965696495,-2.3254227547592694,1.0150296674974857,2.4688449123460474,-1.0829976814015871,-0.5328271097575898,-1.8377630497585682
3.281447564748098,9.152103580561425,-5.249909317573762,-4.941166895642151,7.862343399522581,6.631049287882553,-15.131687696893934,-0.16777836996491557,-0.5765996695909447,-1.202525486090238
-0.17485494113702793,-0.4500339949914876,-1.9231767156353354,-0.5914843902010909,-2.1901006411067794,-0.6388274250368609,2.671878753743485,-2.273436394379799,-0.9948693658887073,1.6035175489526254
0.2103174592695396,0.28064558240294063,1.3608990475256286,2.0886770352013584,-2.0890539627203446,-0.22220025815681954,1.5680450141332498,2.037515859930007,0.16160223867472004,-1.8952101871728644
2.6792597418547723,7.858291814513523,-4.431044518635166,-2.8987822800191045,4.148603959079769,3.3435761362069605,-5.257362886403429,0.052412039483882955,0.7201076472458915,-0.5182952303891883
1.5143824037450173,0.8763757949520687,-4.467238223499943,-4.50936746655043,3.3170698657855326,1.7982777272383503,-5.725031664152768,2.505427510315883,5.061765590007591,-8.33149969228282
1.0668928234594408,2.139992939250751,11.138978301511546,2.8373748008937905,1.331074548103278,2.0025586140873872,-3.165696803122661,3.773178217419923,1.4918916080810016,-5.411481919293663
0.7799418037217472,-1.3047063162510601,-0.5409593338628351,-1.8726975478144197,1.4655641687295982,0.036299379831861114,-1.3123744407975912,2.2046836985386484,1.1137962542757893,-5.790603663867687
-0.3811399455527864,-0.07145112056361715,5.115952804715471,2.7398828995979345,0.5756453590479147,-2.16348025662562,2.818354981844293,2.3318733346875606,3.1302759606317383,-3.830035015983647
-0.3531290435905895,0.16894158657985295,-0.9149634287791883,-0.8062678919458212,-0.4710667196985844,-0.653729921245109,-3.8267910038051673,-0.8526072020771086,-1.9421604331461677,0.9126495357543623
2.3791727223337023,7.631365841003336,-5.996215641016862,-6.284385113682179,4.081724161046598,4.039875199830931,-11.739081225168135,2.5823976165152427,1.3172054866684182,-4.690993052665461
1.442302299893932,2.3227201953443335,-1.2738301809236035,-3.8937879582319272,4.181587482032906,2.216259889010502,-5.925638268785171,2.4831637342144877,1.7557787758447516,-1.5568293220817018
0.9596884911237098,0.9349729867520366,1.8512858942028343,-1.0319956724323278,4.062870112992595,2.990615920381729,-6.643189671387445,0.8734229716953458,-0.13574876254340407,1.628781733493265
-0.05383065576149615,-2.2190826548553377,-5.953854150729302,-0.8411704845467471,0.11449222384872071,0.7764002126547334,1.3788224058812533,1.4414719792242527,-1.2852406650527763,1.3010046124114856
1.1607861034487437,-1.3850322441683403,-1.1012199455700886,-0.4767208984887235,-3.8965598359651925,0.022919419920793604,3.3405769294414003,-0.8172359282762423,-2.5245026445978285,3.62411238689749
1.0065090784226944,0.652138307743915,2.1470972419280514,1.2621720864850636,0.3881541295679215,0.24111480246620984,0.6168518161247067,-2.094456881225212,0.26784908564264626,-0.34956791855853814
-0.9500418606318872,-4.6605304716674905,-5.235645799863381,-0.19653255731091532,-3.7847511256694926,-2.6806358167899282,6.0799723574742845,-0.6147872853595864,0.3224261165865895,-2.5578320097675875
0.344679045242438,2.296629106431558,-0.2684183153146543,0.027999503759089772,2.2535622839872764,-0.2514625702760016,-5.164098985892878,-0.021634040442189,-1.1934931934338975,0.22558467392339
2.5241393721762337,2.5516218534742605,-5.515304548817698,-4.44130984701267,2.613133034966351,1.3099344506349346,-6.270399068929009,2.0286948918963157,2.0226320350763345,-2.6407633826849297
3.149811481890694,5.261203195464848,-10.68638228644633,-4.760368589123749,4.8370255647561535,2.9483970051298676,-10.359399256838746,-1.9151317144661602,-2.581824207564359,3.38135976317409
1.198015429623846,3.4906497224911988,0.7483709928843165,0.43252277555843355,5.193044663130396,2.0108343036384166,-9.765543700011214,4.725563245715905,4.100445043105908,-3.9689740169226626
0.5697319129760536,0.3113684068287531,-3.204999054531765,-4.502316502976753,1.5950684917225257,-1.0886858218106277,1.233829495402501,1.4619399536671045,1.6874653942513442,-5.742662961851206
0.5873224980763503,-3.2662434836807153,5.919100855737188,-0.8898174079744816,-2.0769361049319235,-2.2782940564733623,2.927934323936275,1.4628831215940956,2.207509784785308,-4.185579056831292
3.3412071682420033,9.134011963037024,-12.237571113125991,-7.671500308855672,3.92349753021684,4.361288830728805,-9.581977915838845,1.1524281550561153,2.204676906828577,-1.2197029545938733
2.641842309935188,3.260948373136201,-6.866040617291378,-4.672669853134749,3.976765673536832,4.727152557238796,-7.527974944888134,4.1237533616304605,1.8381019239118783,-3.879267956234501
0.8317770141983318,-0.16843031767264316,9.796348416370375,1.2264436053802918,-0.3335610941594668,-0.6269137959912023,-1.1466636467549256,2.135712103313164,2.8940731899299976,-8.359050166039227
-0.15857400926067822,2.2488020664967583,-2.8527679403473574,0.6744575403304769,1.3792357863873659,0.712293256746257,-1.9065353379251295,0.19497191922350599,1.0492616708249651,-0.0886436555503445
0.24678075719430348,1.6307966476848472,-1.8827657651358995,-1.446709497057298,0.5087696780200391,1.8261330246204768,-1.6701460678420712,-0.13447609938529181,2.9797730905281705,-2.4013037330702915
-0.6279454881944341,0.5931978844683177,2.374776440212511,0.26176467706290224,-2.178500576170213,0.7150484865292001,-0.4160635971664496,2.04685234671408,0.6832974819316845,-4.446876836011662
2.474044255622997,7.051527774964092,-4.32306031413091,-0.7626845174535982,5.9606154036506025,6.556916116267725,-6.421392265892046,1.475343771694714,1.302363443278829,-6.502627562507966
0.542359673722806,-4.741351671730493,-0.8792337986455221,0.8768983318926018,-1.6625271188320552,-1.8146481613336984,2.2092210770733045,-0.0346387078391624,0.3877287200510004,-0.25145661022037896
3.21331677006492,5.5904789094592955,-9.072192349044569,-6.702931594617165,6.119636821075198,5.395682809033425,-8.922772021672088,2.9720303923322717,3.667774022718094,-4.12695662986017
1.8768622640161077,4.030239933317181,0.010543273159553022,0.8841614792602416,0.5219909502820984,2.2792529488094875,-1.6556851128509926,0.7096523394777694,1.511670548223139,-2.7441767155834182
3.2864016748383627,6.588530740008169,0.8847497827728903,-3.8155510391451206,5.338614199985917,3.8069140597524433,-8.388458395875125,1.0393955569454572,4.3097493198974695,-4.798680548283567
2.4865988017810006,5.566128777106607,-0.19321550452149427,-3.7376235565774913,6.026424788965075,2.7471373835219897,-7.140878770037623,1.2767670161613276,5.433862931716,-1.8525636472310476
0.9829293112637236,0.8162442972513687,2.940199575804118,-0.8249005375277995,0.24137274605139275,-0.01064613397500025,-3.240624024529893,1.2442412220073684,2.2782354986187516,-1.1511389637617908
1.7754382723748314,-0.8027172436528601,-3.0136667487313638,-2.4041810885312924,-0.2721276927508838,-2.0003879652112455,-1.8028381090251504,-0.7231662291158456,1.0829961151988943,1.331254028446148
1.7605697950248218,1.9029607038882788,2.7670439827331768,-1.595858390834374,2.2076224192328655,4.4093300725529545,-5.2449507002994995,2.482174374292456,3.0577021134624327,-2.76484298742333
2.489459066469964,0.6200885424941643,-1.0087465735820524,-4.75503778511001,0.3026383145715211,0.03090679826530529,-0.9707868923303273,3.5801382490230673,3.901013912039144,-3.5842842163721267
1.5624761673553604,2.9710663457711477,-2.373695252991845,-4.243493536072769,0.39879528501056244,2.2677908588935383,-5.426388555065872,0.2815885612019262,1.8235026460634494,-4.262398332234075
0.29951465079924167,-3.8715185780263948,-0.5582649485519608,-2.6218342931958167,-0.36531810732909475,-1.8849122866822579,3.4557307434104665,2.0289774737995976,3.115067398918658,-4.920515353762242
-0.2708410054529886,2.3617520618040686,-0.14883304157684574,-4.590693847341858,0.5111517962084928,1.2620490894581877,-3.516019070972845,2.805951964494582,0.7157114161755225,-5.743516605616316
-0.8337812545344363,-2.220832302752711,12.072466954870293,2.700665713100601,0.855861242282457,-1.53282396006254,-0.3489827546021363,0.35838639141498385,5.4240673917289675,-5.7698470623547475
0.8973927400701582,3.8341297086868282,-4.969707406590217,-3.78711822460872,-1.5334775359029815,0.38739760708078713,-2.1225259217522985,1.455354033623511,-0.2818731301542667,-2.743862039716927
-0.4331368881571346,-1.4731831628015637,0.027648681719673718,-0.9330738580402962,-1.7298930959859713,-1.4498873449639798,0.7669758252013179,0.7287524432853996,2.5981124518490026,-3.660442908936017
3.3020212112428515,3.075093672756931,-3.476502121002934,-6.055886454897744,4.170174850531619,-0.3164445078112701,-5.393416934392212,1.4048346196948676,4.804519464012248,-5.870209584041894
1.6584652941783098,2.8789678947915744,-3.139262222982115,-5.550166433837628,2.891741005747046,1.3034640271819338,-5.979431257818597,4.849036265638482,4.652687420551911,-2.2337298491026853
2.3538802866075748,0.5707338908757184,-7.479752194601711,-3.941001756283909,-1.2688766289042261,1.037672904380888,2.7302471044869177,-0.9013001144034712,-0.822228914458292,2.0466319986748016
1.1880923112339192,1.1803533473753667,0.9606428691874216,-1.1645713441607681,1.0450016389851229,2.465326277763552,-0.28464563029484363,-0.533432919945398,2.178849822190953,-2.084999242570238
0.5643921167796075,6.1765101474591235,-0.5743314358006975,0.8059971990374505,2.8425283438154105,3.067429537951497,-7.719591821944726,0.1486718592540769,-0.39215259224854104,-4.624149886240406
-0.6202794239083225,3.1758246342433067,4.154626705547835,0.08828758304606497,1.1867352815979755,0.4919765921560433,-1.9861396614255906,2.152475574001447,1.4731034462084471,-7.038925949312203
-0.5371421584399103,-3.92652947417928,10.59764483546645,1.06852861149684,-4.068688490529803,-1.0990100177282698,3.781396439717091,1.943021289142414,3.4773975931725674,-2.6294060889365016
1.7450013064531782,3.0349199763873895,-6.849311259696684,-5.066047433668037,1.9117852522877752,2.447901895950832,-5.343322471112054,2.2199762456146526,1.788679125369085,-2.1271070148989017
2.6084505142519925,6.971473523564599,-4.447019125021231,-4.09433417680247,3.7068398553196618,4.482177967816039,-8.294243672711469,3.268805397133555,3.441961107799325,-5.283625477117001
0.8037298859516349,1.095370659325255,-1.4046596841849257,-0.8482426615335358,1.8851532657881391,-0.13130268601874567,-1.5975658551846106,1.99623634145333,1.4205916680731683,-7.692409440875014
-0.5620334736639288,-1.8706108113088267,16.433976867514044,4.731707088697652,-3.215163064752116,-0.23446681455029994,3.206525252198823,4.946147362213678,3.0695203506720983,-6.126827754667593
-0.770205068689036,-6.7455558241843905,8.573523326836575,0.9363140090674755,-2.744856659010049,-1.2398209769736237,2.709003017943013,3.470917744996603,4.333782113722463,-2.6195767091370596
3.2779648446405227,7.464153705573154,-2.9329912246324152,-6.203671234198782,5.238954238171115,4.373088469750801,-7.185344403459995,3.2327270544388576,3.2752439706621463,-0.5339062816332393
1.5813740584542466,2.7807710140777546,-0.3834346921349212,-4.752640734446245,2.6247242574426473,-0.24875281982403585,-1.365920575114234,2.791942700265523,1.9997739771285514,-6.82250619968819
0.31981340537258207,0.28580962237978386,0.5424223735893958,0.9380603949568141,-1.0679292797620878,1.42862070702438,6.162449957112214,0.4515842929847095,1.221818678827704,-2.912505861871172
0.2862705175148408,2.0129563249307103,-10.06138580643563,-4.580173258054384,1.9201916466427182,1.0341598028865615,0.5590639252530526,0.6066741071605282,-0.9323451484927004,-0.6949447849909505
2.9601231676195625,4.9516582668807345,-8.875631169573566,-4.828033851041489,3.543594736733216,2.8277805553710436,-7.873520421527597,1.4707574783396786,-1.730889299481443,0.052740393303961616
0.9335830909935383,1.0191035606987735,-2.3213583542092073,-0.5184169529582395,1.855678545926836,1.990443337260903,-1.4427144304385486,-0.23371352413945168,-0.6312032288863934,-2.2051180618673927
0.10109886804686008,-0.6854179001597928,-3.732928743018132,-2.069098951207621,0.7971590426430495,1.9779210363374702,-2.5391983809884695,1.4289831355196347,3.043869980579887,-5.787968683185459
1.6651102236231488,2.4059189869524547,-1.667155063719128,-2.0850465870257415,4.81535197548777,1.4527482503279165,-4.7701725307844125,0.0755972191692399,-2.0058204753953763,-0.8207383206725001
1.3574418535384618,0.9073333453423191,2.43589970377344,-2.585302753509822,1.7804199181630413,2.69597376836631,-1.0843200748372104,3.2830814105121764,2.3170928066499497,-5.094482632710767
-0.1720810613942918,5.855270070408747,10.062665220002021,3.9132918513841037,2.1758107120867516,2.7512726205034577,-2.810031198285997,0.5470864877291,3.0222802346312103,-2.6583404375431816
2.1509557195378752,4.105881728109572,-12.367253311375737,-4.969295543968897,3.0648264558669855,1.9938103985004543,-5.970446063757859,-0.833631422203882,0.023707672871114013,0.6238991005174725
1.0105547736561782,0.6518733278498451,0.2274184987377309,1.2571137930637974,-0.23449665724700175,-0.3835019142375746,2.499726517158999,0.06381617852257182,-0.1579928347819772,0.6296592845819605
0.5118102086894516,-1.8942694947700505,5.967639188305725,-2.22168663306292,-2.3827883914687384,1.243819582420783,-0.8971570813588945,3.465384958375811,4.986940820408443,-5.678972130003406
0.7674859436647776,2.5803844221045407,-5.748989098118701,-3.2388738818545253,3.9286589935474865,0.2884856746271187,-2.4525965964964613,0.4838158926948719,0.26695099438765035,-0.6499785213390907
1.092527277844137,-1.5547758142012127,-5.30016739885313,-5.479809446227003,-0.10132332123028497,0.29351711126246954,2.383145949121131,2.247300479454677,0.310161737482946,-1.6944528434060173
3.151145464830809,1.8625814433613577,3.745802841399061,-2.1001602179650813,0.26478225248017045,0.807821295225513,1.526292884489631,2.6481681667334334,1.216857462348758,-9.094000873911206
2.0692585392906024,1.6647977799469886,-5.062430336820885,-1.312512965479783,3.9563180289257125,4.861241800815545,-7.862857406147104,0.9750329517023244,0.49444981616613204,-4.081676495658725
0.05945486223891239,-1.9439323514868385,4.699990489939093,-0.7875656159629638,-1.7353872056246518,-2.873955874194273,6.395692896372891,1.3822922758379428,0.04647776892185721,-1.987545152752738
1.4683905175938476,3.560732778695254,-8.420840886297139,-6.703520280619449,4.345011815355789,2.3958190346906933,-3.3015964655887675,2.5469643743220423,3.3322621674892443,-5.018804317767275
-0.6767383139627599,0.9709623116017245,-3.620246543258451,-1.3552121158412667,0.08920066462968841,0.001817697147609501,1.6068961728894398,1.2498986369655736,1.667915716208873,-2.2359198885769906
0.6028382012674449,1.2846619198107265,1.365464234266935,-1.0968712673222374,-0.4759835676334263,0.5212223242700965,-1.014783147736177,-0.9705732894406025,0.4723141699332186,3.3560733249856405
0.8314108148747896,4.120175772634032,-1.4795552807557026,-2.724782411628668,2.499277737269996,1.546889127935662,-0.6423129325536566,0.32306201081176256,-0.3537107432172494,-0.6855931140840453
2.7292784939967976,4.2531171855834495,-5.48325051746715,-3.8354161079663522,5.0313717317506885,4.790685507771312,-8.710684528418799,2.049858228817108,1.9008536984921554,-3.795023860343991
1.9134645035582012,4.57594206762485,-0.6310297861915699,-3.071006995343299,3.6543946934290923,4.61087327787102,-1.8029143830080374,2.282770454721722,2.1571517130330067,-3.7225227385685153
1.2688912201240417,6.264707095254035,-6.991231638389334,-3.8977292205337135,3.7072277354893175,2.510037260516342,-7.959725488325055,0.40576976048753743,2.2553529378609944,-2.2212899976468705
2.3902942774312925,6.842363000891966,-7.77586821298342,-2.7561870479824133,3.613744135918103,5.015901427857693,-7.768557315908163,0.2750638963841122,1.5175473859120256,-5.0501300286293755
-0.19191944588814203,0.9552548551368428,2.693966854490088,-2.8032168125219976,1.1646291466099195,0.856263138540334,-2.309359523581946,1.7113935068006276,3.526277296784637,-6.935888828031803
-0.8646992153571449,-7.472716280435276,1.9511830121393134,0.19443481034250726,-4.050807612221395,-4.824415624138544,7.243771481778153,2.698846569920245,1.9652991844011114,-2.6902132669566026
0.8373183812681722,1.0102753507514886,2.0841784961579277,0.6589145907289418,0.982367659771344,2.0383129667774433,-4.776637691770215,1.329548979224807,2.06380154277608,-4.595467681061412
2.9082321450781916,6.119424592316046,-6.303027320332269,-3.434595729919395,4.878627989536793,4.458379572838503,-6.907409445212715,2.40499451434763,3.4972948121124663,-3.7003795170500715
2.5913754963838898,2.3694427079758045,-12.802590271304133,-5.383483490606875,2.6936531491862827,3.175250984587449,-2.39508674174947,-0.16763534429268712,-1.933675530741551,-0.4401320132830462
3.2212699880123337,7.145152603941301,-2.5202604228163454,-5.100937699631502,7.168265384666916,5.69731628460406,-13.534041305259374,1.9850328118087233,0.6490531974194386,-4.3857496087533825
2.3977706875653912,6.260049208328954,-6.046691946172417,-3.6532393106531824,1.9413779198227916,3.2365859744538867,-3.5940183227333242,-0.06397832360035749,0.8861746868207497,-4.64275591347584
2.144597869935071,1.8234225468298926,-6.388092655887316,-2.6140473916037323,3.642995621970944,3.5547507948405603,-0.11827429163686326,0.52325197218939,-0.5302734808611416,-2.175620266866373
1.6998746870115022,5.3803691733252075,5.669741667012776,-2.3290734369850252,4.5789956396482125,1.8357208134797016,-6.5224684461589915,3.604650654243391,3.3144276153399184,-5.399585241477173
0.17414139225594183,0.31392399416279715,-0.7887025638063999,0.6617992110387504,2.564970514475983,1.8078647951869589,-3.7343078620245094,0.6990448709217926,1.1528056243448133,-2.0843085241086206
1.6184190772613483,1.5032549810731666,-7.919034297359614,-4.0340631351297445,1.412350764637397,2.5166235067038416,-2.9888737551441333,-0.16846488634113765,0.6517763552314538,-0.7983023158168101
-0.15264286000325045,-1.0822546533319568,-3.2996146371952007,-4.114878282572725,0.24727420996720278,-0.6676603868275921,0.08067619321161125,-0.564255173475791,-0.8322519699441155,2.5991017777513186
0.3168168397867064,-0.3783289482281661,-0.396691312951178,-3.7399888573916993,3.0744804835389004,2.080766838682816,-0.09005165565407872,3.2268875815073126,3.5890035675247045,-6.921011286353945
0.40430555457894046,-0.611072905165021,3.300590566247584,-0.6337038904096667,-0.3065719759347592,-1.209488067283994,0.13986351149905674,1.9184612371512793,4.211048066378026,-5.640897761646715
-0.8591222429494605,1.8149678042272468,5.516000292132739,2.3876324376239544,0.0888409896927084,2.7200505212625385,-5.502052015466341,2.8995215347602046,2.2442164321803952,-4.365357932972572
0.690809349248698,4.0673799709661935,-7.906920946838756,-4.973860905871726,2.7019782525649676,3.9268443301643723,-3.7091029220187504,1.8455383523012863,-0.9839127347917305,0.8912706145888939
-0.7981461522625789,0.7468683178155441,6.188917975929979,3.129854652188415,0.6028523876297496,-0.9280023774127453,2.642994975259653,2.307435694101681,4.38022250741089,-5.553056532770759
1.1305899808107336,3.895059690566954,-1.4940874432826234,0.04966043296121205,1.8194299537184797,2.089355753882133,-2.4731011112874324,0.8369099893851546,0.722827345993318,0.43687663201010507
0.37807392357374203,5.622822151043129,7.568054509687386,0.08537846001651316,3.4946230184479323,1.2805797759192874,-5.841205918492899,4.5915598174065995,4.603986066702729,-3.6694657293980546
3.2920714039874213,6.368139914486823,-2.286465506995518,-3.2089342597231405,5.963747180917567,3.2364452174636353,-7.662338574277175,-0.707937173577986,0.5974643761486756,-0.9560202697219998
-0.04123383521004631,4.524885369248023,-1.0013648920698732,0.6106267811042949,-0.8425155522975483,2.6553994101164538,0.2040024840697416,1.1913447423271697,0.2809104768776557,-0.16808105596570827
1.531368201332982,3.911008177101835,-9.742231962079911,-3.672622684177168,2.658607674801549,1.5548809001009851,-2.359950125589547,0.053297837245580126,-0.9708727926498243,5.742772060491217
1.4918159570491474,2.4018664805450487,-2.9589656759937446,-0.13877273469696857,3.501455426304643,1.3846631730704158,-6.545090825145122,-0.876581803894345,-0.687837275156743,-1.603847519510558
2.467301997825665,6.8315588245159935,-2.1091273813971556,-3.792531413729215,5.439532496497487,2.883535141006942,-7.019409471879244,3.0254250413633668,2.667193188435435,-3.87200375165459
1.4484581913500247,-0.02474670506899904,-1.0705720992810026,-1.9531495620720154,2.184376903049913,-0.09859362508960384,-3.1369145774999216,3.132203597545425,2.842856577735754,-6.101837129731358
-0.3992268839658548,-2.1673917209837357,-4.638878142141878,-2.6761922153656243,-3.60512704883815,-1.2108622885889833,3.413796376135529,-1.645525828750949,-1.6795510983117263,-0.30615818418534774
0.4488847563131273,-3.6105296397072064,2.4540224831307715,-0.21410252773736593,-3.191657010257061,-3.61050551091762,5.774870932482188,4.165902276922379,1.78773878039687,-10.383311933987521
0.8419556318160624,3.972337942515373,-1.6870087592666851,-1.472754590026901,1.0681815468282456,0.29256605591176443,-0.7120987472169175,0.8073561983947287,2.4113351010309856,-1.8280388472021065
-0.2178890641303345,-0.21716273473550865,5.557666090279794,3.1716589020279353,0.6230103360911093,-1.7432435090936447,2.8567181463911027,0.09451882557755167,0.7580730317551068,-0.6407570353039281
2.7923588337068406,2.7014851614203463,-5.59633716057223,-2.9809470286271016,5.408360482697471,1.0551564210656759,-5.386219374790089,1.7060361035548435,0.4894387720789485,0.6938580847266418
0.6344493583574877,3.538846505199594,-6.957407011684198,-4.004437076265296,2.8566821505239157,1.6215120796458895,-2.578593536554261,2.387511917296943,2.372211228863295,-0.9225870755593193
0.14867350686200065,-0.3985996216679929,-5.746145195704516,-1.5162433531516422,-0.43526988515191123,0.43483247974173944,2.9996764928780393,0.02116564445938529,-0.2127255398856074,0.5561254795536185
0.148885640290078,0.9467909223769299,6.049868890500731,1.7279726212555422,-3.295092578311828,-0.6392400839119811,0.812480005220666,2.344580218474168,0.7335217584200747,-2.3187641820953715
