x1,x2,x3,x4,x5,y1,y2,y3,y4,y5
0.9848148359451565,-5.861164139704634,0.018208509408390694,3.304773201270362,2.03921589928722,2.7894184343698294,5.052866265996914,2.7283684934117627,8.502423780086119,13.851893625748081
3.210088206472089,0.834821532408665,2.5896680956346727,3.2743975703350907,10.338058492754303,0.6068998085948518,-0.34647741568124907,-1.7167505341910778,-2.870855738304559,-5.161939376362898
0.4917104458108288,-0.6323737917556493,0.6395122790002886,-0.6982071082654078,-1.3978830690895336,0.9061781539566298,1.3129813897293365,-0.04668330708941773,-1.196751713771571,1.093931253110926
0.5570629799330382,0.30774054278942564,-0.08815593444213399,2.932117117520766,3.17654216966599,3.860426858163928,1.6362953590763372,0.22957016405333008,8.42976134232733,12.23541526090051
-0.7008085839465148,0.5197604532887065,0.3377040122814542,0.697946947930574,1.0605873043215823,-1.1448759824166779,-2.9424210505435267,-0.2512201393570839,2.220897902384409,1.4194731431866465
2.2882106160633673,-0.06482456407476297,2.595583287958643,0.18915938934604082,0.9271715306707183,0.23884845453852588,1.2479073555944773,1.3273823513021121,2.1839812852339455,6.170886836962458
1.9116021020723797,-4.062060136621856,-0.10077971274674002,3.0030482297591226,2.093470271851565,3.3443299083353395,5.3443211325759075,1.7887327656889729,7.419562593548381,10.595366227424723
0.18412309788357328,0.8702119348827041,0.6256990722363552,1.4023514318995778,3.5943775982897677,-0.49620047793386446,-0.6378799753110759,-0.5599801792285557,3.7751058495727623,5.976862606341299
-0.08244783286660073,-4.638678487623914,0.471502487844583,0.22640630887229807,-2.5329020153816915,1.3349213515868503,2.692259810056084,1.1928037294424967,1.7242966013442076,4.591678299539905
1.4257260653162378,-1.0642260044324914,2.492507489561537,-0.5334763249443681,-1.4830739468948184,1.5303290816260848,0.7926353119833961,-0.1733281190667037,3.557430220101815,2.7848832140215607
0.6144831752012483,-5.39309934057276,-0.29176828537237387,1.8418037654520822,3.8449021929482656,3.4387307785036043,4.445831017313093,1.0401393757786217,1.9507623499388262,3.9791682899965264
3.215547490680449,-3.5472902985553354,2.599360175641878,3.3957630797566525,7.25170463833067,-0.3155608529724394,-0.9397628412460635,0.7761321650545374,2.1377237548706254,4.718691032886534
1.1082423953847647,1.5606003236172812,-0.6797831677677818,0.3253650234399317,0.9628800078449097,-0.23252319347096018,0.30820569729288033,0.8376489513487078,-2.8347322863244697,-2.5834104335332375
1.1416767929317562,3.1577497674671173,1.1022832618483547,2.618418134805306,8.338315264099581,-0.6559631480904948,0.9444155453503509,0.6062493936765855,0.08384887815262676,-2.213070303815361
1.241441244615598,-3.003406873324873,1.3642848607521245,-0.28932325479278465,-3.75356029954766,-0.35783751594969093,1.038018953936044,-1.0632620833790165,4.179921373737972,9.681958311777443
0.7241530763935398,-7.967021970633814,-0.8298211254615602,3.0341340454360264,6.624739470905795,3.791794062373393,3.911265018019427,2.1581996685085696,4.411994787577186,6.146689348597882
1.0636924544159196,0.8325076819534023,0.2966472396346357,-0.4698757619143574,-0.3896503156339143,0.5390747734038005,-1.6966101164236143,0.1586266076664906,3.009620123135968,3.423325996851765
2.945545502515327,-2.3274132592995294,0.8762452416910526,0.38422780734164896,-1.9405033987725777,2.481107512004746,3.9517799389133894,1.4283603327793668,2.122294312205416,2.407563954452579
0.145940763798579,0.380491937718084,-0.1971976823884055,-0.1053713548651829,0.2621582468786055,1.0668626048252814,-0.4859273192811382,-0.03180007501648824,-2.98528966981874,-1.8215057166201751
0.3765725259718673,-8.999978186923036,-0.3361015745779925,0.9633288739961028,1.9030259958648257,2.7130029846607253,2.566341313915038,2.9389452574936827,8.277609120119108,13.151221687572216
2.04156013893801,-6.373499479609975,2.96424560467318,0.12225922527506383,-3.2318420045782768,3.2481969245100206,5.657885237037869,1.3884120912063578,8.78479940262369,15.62346664126446
1.877618127527588,-0.8030812971221726,2.5689257067644116,1.2166650609279408,-0.6170529748367959,0.3056306149621725,-0.3054073383924609,0.3035431662596707,6.595281326113028,9.849192107556187
1.8822175267072891,0.05652550871972284,1.7222005710604773,0.6989466561836355,3.325795508804449,0.9365112395830304,2.9071720523628484,1.0905169165432604,1.7042806831090707,3.34609647320891
1.9204438172487137,-2.910506390208073,-0.20832274184431654,1.5635340907360198,3.160289483345775,2.5613278359176714,1.995036554539059,0.9671334521489756,1.4247009343170827,5.203404389675141
0.7507876418826602,-2.3760328434018185,1.2915033851304012,-0.19311594622434836,-3.1934231815342695,1.4233968046105763,1.6618736104412104,0.983654291207323,2.947807482820311,8.58306465276988
1.151325639772332,-2.4278009546826778,1.2733973371907268,1.3875241660952495,2.8199781434639544,-0.09124521311874534,2.2214770425941537,0.7557320604947364,-0.23791359386166647,-1.1823700591088953
1.1369221975180719,-4.002615224757087,0.33735899725583096,-0.5067399474891988,-2.6957354251089845,3.7923593333647974,4.812429263133021,1.7110967618078798,9.081826927102677,11.719966730916255
1.4719750408046797,-2.6995238054526975,-0.62369912029067,1.9529855354467576,2.2963653921949256,1.6873959554218072,3.638479649849747,-0.31573810213571035,5.475185108218714,8.635812347289804
0.16257283152137525,-0.23601208466288082,0.2132358392076193,0.9928268677648058,0.5081152515149066,0.3702160606617098,0.4075838371040954,1.1296638796273715,-0.7966563096882435,-2.0053180227953717
0.5984129346088529,-6.166882306531769,-0.7077627938280899,2.9726709294121356,3.2373564381005338,0.2809355543427603,1.5774845861740132,1.3069725986133924,-0.4826374412831227,2.702368235003264
1.040491670574676,-2.1831755434710627,-0.2003589798896764,0.6510727959589468,-3.2225753663638566,0.36870822029969275,0.767793069162742,0.47945219415598467,3.8704298253673546,5.4354759013219445
0.8838909336047212,-1.7255032329800557,1.583138420585671,2.6526888067790204,3.0515289899331446,2.8775205921987217,2.598782483373048,2.461246426610357,10.528060679441767,17.42983644096326
1.6967420065247865,-3.104603158997748,-0.41031646621080436,2.741904092060431,2.471020477668226,3.6257587703768053,4.657258374773128,1.289691148365455,7.663723619857238,13.34600463137354
-0.23932311555098174,0.8583559424434473,-0.09679250683000369,-0.16029642832563717,0.725323603005543,-1.3615524338641118,-2.5850859830656208,-0.753391928137251,-2.0567076020438675,-2.2020510504993736
2.6462951400693764,-6.256367733564837,1.583516374892892,0.8088793627978619,-1.1473356982281848,5.080880882322642,5.164143089285944,1.2333795407193116,6.076347300068947,6.276354665192158
3.4362178717765524,1.424651597583063,3.978405096023376,0.7417056825901691,3.559334002518214,0.35045801255892384,0.6254677697945943,-0.6279192545964798,-0.5668723135012047,-5.453937743871658
-0.5714254545357067,-4.780694764114505,-1.6266797836423335,2.6009131076148098,1.8850313062050734,5.630628181638091,4.5294544096693965,2.387914230560962,3.745193901959283,7.283573968021224
0.7668102269998383,-5.7324685901514805,0.8562588592901912,1.5540778135404265,1.75064907760841,2.320163449957067,3.8934169533927765,2.910849953656048,5.866802844101951,6.265822516913529
-0.3745319173113978,-1.5342674396883969,-1.781436293524181,1.9535431504546334,3.153382931262134,-0.6388127998447688,1.5063498358609926,-0.598470623373294,-4.442904503791544,-7.06960478226152
0.32637482077150537,-5.623994554640463,-0.5420558706488194,-0.48252571065409344,-3.911204954481772,3.154522113640566,5.365787658107231,2.527747650415062,7.31690241091402,9.529109509864778
0.22516638586515314,-6.474185554723144,0.32402831483032823,0.039481319512212565,-1.0973067068925357,3.9168272017982124,4.795626604117615,0.8699727675824293,3.2133898012691406,2.046633304130092
2.2551670871783336,1.9596326923112732,1.6429520905301636,3.240640326396802,4.024728855396195,-0.5933824272148129,-1.4537105058689328,-0.02380822398658165,-1.6647404312820204,-3.261842130433506
-0.7590286864194372,0.5928261511717987,-1.3078557002586582,1.0385966974309144,2.1743728659795836,2.0379709372699644,-0.6467764818375418,-0.27748933946163556,5.895950565590046,4.883838812033588
1.7173936819116693,-4.569522261632076,-1.023386358283043,2.925799223623683,2.8585099445603768,2.782277631885016,4.052082457568064,2.2576710674681353,3.2858017018590813,4.664391053001964
2.063971382829543,-6.427817213983962,1.221533779372927,0.5260278067157103,-5.642873480873574,2.942806452678459,3.699564692589106,1.403622509143374,9.326829365614866,15.179901213004163
1.8579252857181445,-7.010100653045674,2.7074977081266143,1.3167437459023508,-3.1401473171356495,2.9004472179578555,3.7368550215913685,1.337058793676145,6.420731698728463,9.57286246144864
-0.7657483494257751,-3.60806717340615,-0.7446509914257107,3.2805342424167927,1.0110467270654475,2.1791842480809542,-0.23999446918648656,1.6058163766005158,0.9396576707827815,4.1037823458159455
1.0601098361315349,-3.844215536243115,-1.0314834636095649,2.9276358456908818,1.1052306346473664,2.1860586354742977,3.4625325215728577,1.6714113057666122,9.232199934406676,14.528875501696714
0.6806879730186117,3.239411207552146,1.1662781000445932,-0.48864081254585756,-0.9654024368200524,1.4123051847540167,1.7296541197598387,-0.21348332879931847,5.797213969466678,9.413426934270873
-0.9387266348758199,-1.9513581654665504,-1.056795857121645,-0.9384250711710976,-0.2853455449768223,-0.9562802354738544,0.24212106352774443,-0.289406378807907,1.4845080131453694,-2.7381461084073995
-0.17267446164813638,-0.5025847760102523,-1.3798353106804961,1.4168721959631476,0.5297063534716853,0.7528959980525533,-2.0533871471597247,-0.12188202254118993,0.040428415179960875,0.17059710696736746
1.4662054468968906,-3.69631626925956,2.3228651350101135,3.39752199747788,6.016490556875973,1.2404713196236608,1.5296939033406523,-0.08112540913979745,7.172953515682875,10.228079857081271
1.8651763167468665,-5.052272212510026,1.1298773380948295,-0.01291534587591514,-3.271317207802672,2.0313470288893116,4.3031330637725205,2.368035075512343,8.181516089078892,12.565495286959386
-0.2049028792662877,-4.168525504231291,-0.48246533081617626,2.5785567109292624,5.071827937907425,3.230845354680532,4.564187059131189,1.931382782222133,6.3309386895435855,9.07216931976912
-0.6934457878271586,0.3347163323787157,-1.7904979793801667,1.0724916660196069,2.360386551466536,-0.3643480480372314,-3.497293368058468,-0.4404545517540027,-5.076949677485776,-3.0508272638343685
-0.38531230579918074,-3.4699545725071914,-2.1497802278618434,0.26669435099077643,-0.005914566723425718,2.786078163075717,3.524735805648419,3.0803452680282892,5.166277430225193,7.725752571426852
-0.26557728008927584,-1.790725591977081,0.010914613177706513,1.1777387027377157,0.711508418619111,-1.1512937416240943,-0.5328851900989697,-1.2546307403307202,3.0221674867569575,0.7824353053032788
-0.6315120870529698,-6.017983035558564,0.9609973169252172,0.1538790676859243,-3.4153899256887925,1.0679499069515401,2.9961950076869304,-0.07620622070331672,1.417835941385509,-0.34189678984292515
1.1104118141324766,-5.979516448739422,0.482450614625932,-0.7511760719581906,-3.9227082729630123,2.6327239903341724,5.89110811624251,1.562906912909202,5.278598177651383,9.259161727134904
0.9742230876676896,-3.2215461216838843,-0.33564641109762844,1.5467598690517916,3.7573257532552446,-0.9629099425992969,1.8383991124939343,0.5448859076226661,-2.9092242514819797,-5.659232888319612
2.625061477146054,-4.276927990859214,1.6004616097338955,-0.25340896959096293,0.5685136311162986,1.6631255303950239,1.5471297401688362,1.0845395116540661,4.6750982003444905,7.6999763745706655
0.22406994202330321,3.052394847137896,-0.44519564749425355,2.635841196376807,6.57121411430657,-0.8671511709975205,-2.903865351133043,0.4022290475230379,1.819855959731946,-1.8182184036286742
1.8194368017656801,-4.985715796466299,1.8619393196305611,-0.5863220213119471,-6.0337709051295025,3.1779021493902353,5.0821441118129655,2.2189402826370768,3.566862077652106,8.071047354160083
0.0622937170774045,-2.8627902282906925,-0.27226137253540156,2.236927537986484,4.593825389362342,0.8319050312864167,-1.4002384288952126,-0.7111614073484317,2.261629288556695,0.40987079495195583
2.0093911599865018,0.49655655169721163,0.7361401270813996,0.8888868600871211,-0.6953015434354634,1.3243945573861846,0.20562421089101085,0.7190559362740656,-0.16666926762190704,-2.2787291923362387
2.642872812485582,5.154928467355716,2.881861151313007,1.9723285670525428,2.54383963793093,0.9784871789673318,1.2083941441993673,0.5719193064511264,-4.383729350454393,-7.33257986013061
1.16267183575001,-0.5150359796149008,-0.21724125346411433,3.384946194326851,5.767094215142752,-0.06510764106365706,-0.24167602278639178,-0.8165541889270387,0.6304646571110422,-1.0406117403660458
-0.5208916328133453,-4.20301708041482,-1.3980953061957115,3.154978926538023,2.1124764324597183,4.06700112407139,5.331678961098066,1.000947082708363,6.889766733178997,5.385564890819117
0.10643022570852856,-2.2690380771050176,0.5062391135580423,0.2243423926721282,2.8869000749730667,0.6287266946940941,-1.0348780349117355,1.502735062930202,2.529116779263286,2.5012535885557456
1.1410365692125155,2.159943271362579,1.8273853489319767,2.6635136922675313,3.957726520717295,-1.1002316085606396,-0.7836021942542215,-1.1866150259439825,-0.19088116523702642,0.5666007074960957
0.3137921894604796,-4.161992907298835,-0.005459713503553232,-0.8666398989521011,-2.2793806914318377,3.504779076213958,6.66579370223667,1.195828182757187,4.7769953394984,5.428524851296956
-0.5804716077769334,-5.76784033220586,-2.1212345211345274,0.7828659887407259,1.1004027918170904,3.1611940456340526,5.033191751939215,1.7410228340885983,3.686626239640732,7.1741064313311345
0.9393493033215197,-3.551277365148205,-0.40159915359719234,-0.8623101020165733,-4.650365590462583,3.260614486239464,4.179872391837501,1.0618228457196033,4.540793178215024,6.83957915754086
2.522265783332761,-1.1852892769957528,3.438456219865762,2.2823616000042253,4.034448992032391,1.749205519062451,0.7468738449900314,0.986609073924684,0.19596495042868112,-0.20109657303069994
2.8270817910298898,2.838573101453752,4.649923509194426,-0.5465220042004673,0.45007916037579576,-1.5331282351666493,-0.6607782021837746,-1.690611832833191,2.831668278734792,2.618672290572735
2.2579894202317887,-0.2944985935089879,2.405945309850504,0.12009615673708374,-0.8496615119553351,1.455006434469582,-0.6529225586335353,0.44866435843669905,4.628337889806608,6.239991540812635
1.9504039208792112,-2.6659011855318204,0.6467821098959706,0.994370755024778,1.6232039229392683,-0.7092700600376276,-0.20496282379983516,-0.8023984094426011,3.7187537014479504,4.546971011676144
1.49435984993262,-2.735338072581569,0.42582438860719823,-0.19899551546867122,-2.8031414059289146,1.4303658861507709,0.053071239600180044,0.8258320217290439,3.629528029961848,7.376630159236986
-0.8639207955312975,4.043365294557943,-0.6343366615702237,1.7727073091704888,3.290242573756088,-0.010658589525484041,-2.7102511030811938,-0.20249506231401523,0.9429790872391909,0.7150607765335846
0.553538382797846,-1.7428568746801718,0.6538019610836117,1.7642962227959642,6.107243856125442,-1.3381715659065694,-0.24555362599616357,0.24397049017305622,-5.961150545402247,-12.030757854243834
0.47680321671578874,-0.7498642068091478,1.9534628552684188,-0.042365475377089234,1.0918987566568013,-0.2648473033716712,-1.6039412559078323,0.11665344267756271,1.6742050152038241,4.133438178729239
0.6429929584535237,-3.328759236005962,0.20164852888542184,1.0377227824010409,0.5553599239817304,0.8424415510537134,1.0721959640521153,-1.108679964955256,2.397944474129739,4.810483279910376
-0.8111218744696271,2.982341902942449,0.6222228106997891,1.5436686497966412,1.588508654833616,-0.8526427270396629,-2.798829057985478,-0.7634434518719808,-0.09113247774918548,-0.807168280553955
-0.31797562071958396,-0.09331310247775366,-0.6875348199387613,0.7484052115962394,2.0918514226402016,-2.433038182182494,1.5180521537415044,0.2510771023722888,-0.9909917666167503,-3.1389431028511403
1.6829082341842168,1.0625931287946253,1.590681263338624,2.3295605323986384,4.719561925750426,-1.7135084916184766,2.4367453691947403,0.47897768714356137,2.9114590597090073,3.1814633645330357
-0.21714719579732278,1.401312239308656,0.29711826077577486,-0.41858120236386376,1.6459690770833713,-1.5974351508287008,-1.4666914155106479,0.0972025472407402,1.64337160967506,5.440921945984692
0.5987982154700005,1.7141019712077186,-1.4941351551119246,2.190979094593274,3.7974076156528955,0.16020611694552334,2.88228603626734,0.5852632390792737,5.9393519476964425,10.486941563783631
1.381010974940165,-5.437196375278944,0.733558477352682,0.13736669074298447,-2.518519680694437,1.8389667218221184,3.1859098541527997,1.0036478606047456,7.347718559571908,11.989588302934822
-4.731552343839596e-05,-5.7059566054281365,-0.8058639162910719,1.3822257838954068,1.491344129457643,2.3021153159948455,5.329626102867479,1.6485303906224786,5.187300847633425,3.5915425446953146
0.8913424728652486,-0.7600403978698286,-0.5184294565553161,0.32995491484035555,-2.788149831835297,-0.23964896738577063,0.9058558192066074,0.28948971234252585,-3.710701407471512,-5.749199366271062
3.2230922217762794,0.17190915661730619,3.4017132994830845,2.4152061300050045,3.69268584859913,-1.059348303404735,1.1274596914706538,-0.667348849447401,2.2077759574891176,6.1706712338251135
0.6474593844499394,-3.006858624163288,0.37969001594706153,-0.7962506901405816,-1.9081693785852427,3.1404274282989872,3.984146781128674,1.2486762298488723,2.060543464760533,4.237303609883813
2.9947674649514933,-0.6393925957593508,2.647541496427859,1.2260221074518998,3.1856717440414535,2.4260913939952338,-0.9006040815850428,0.11155427194439949,-1.6754913325858336,-2.6839952422512607
3.303841075710567,-0.29039370138250997,2.2072263484286716,0.4556414096042871,0.8360140912168883,2.897119349435516,3.3350078291994336,0.43774308851722754,2.992426081168216,2.642013441141035
-0.47154914451409935,-2.1712742086575325,-0.15986423101944958,2.2735576889113083,5.344608078757327,0.49017347712552384,2.013699809507152,0.09736775818397403,1.0236572536478377,1.9766776982434826
2.0846580021684167,-3.2400211101578016,1.1432377440035204,1.3690033883002704,1.1238552894257452,-0.09423705642330138,1.7243873066810296,0.5804437699939295,-1.436582343547218,-2.3024001079910925
2.6413586038676367,-7.552851886788241,1.3705465589691683,0.9135119636141178,0.9504281452927761,3.0554537605703893,6.0871165411671555,1.982963652509196,6.0080952623012935,6.8766042003239995
0.38825984487847953,2.284715996024392,1.468556578786599,2.994423697873373,6.303177513974895,0.16702333713755124,-0.8077233356006407,-0.26116140638967056,0.8131769334790555,-0.14986628343349054
-0.2496338167794161,-2.4297513382099654,0.7511106308472306,0.01703340112624785,2.096252371501784,2.1874963883097034,4.11142148406674,1.1159920746035819,2.9064178154600606,2.160172267773573
1.4394408805557437,0.31472111405477493,1.8386046784820806,2.918413372546351,3.6098622763825956,-1.7807348596542596,-1.2912475151845237,-1.3862691606551132,-3.225701584331225,-5.795753148489664
-0.4720545480468389,-4.857808016457329,-0.613884752499448,3.0201302273866855,3.9758365426278814,0.26965173817302457,0.8632279706461423,-0.40547889924389385,8.436676664784637,10.053822223799791
2.3837704464790592,-6.659307917677633,1.1749429700977645,1.3820311454122778,0.8147997440735812,2.032442935985776,5.8708697858174395,2.1909625985485417,5.720958500044188,9.025323407571234
3.042218750943099,-5.729181375880095,2.3973739686440636,0.7339998521266469,2.3046911024203602,2.8625067538738933,3.809083312854727,1.1527756268648306,-0.32851315181131424,-3.051543832568015
-0.24045684893651031,-2.1034130524293047,-0.43515503033295794,0.7910913885644482,0.46512344763849756,0.17536964318785664,1.146346010350774,0.9300726339065346,3.0485891750238427,5.756464809841993
-0.2149904645095292,-1.1702584806301295,0.07305347182320665,3.1357786245710964,4.278922845786259,1.843458889419044,0.7039940603580669,0.3594278761358955,1.2557742640763911,3.2726967426610054
0.20957049988700116,-1.429348482267415,-0.16927490600221246,0.6845989328564461,1.1732508318383132,0.3703216718530252,-1.4847413625235393,-0.10579731314520552,2.0271978678955707,8.298076410715524
3.1018397576528445,-2.423956838748008,0.712428164757615,2.702181296867116,4.515722311445226,1.367584585200943,1.3884936871138212,0.7517844535047371,6.487335567034387,5.007884536809272
-0.067668784692548,-0.43091552521310267,0.8861384418344566,2.073725758833805,1.1295960997296928,1.249911732758059,3.2089700833998003,0.7250423298171268,0.42763821877226593,0.2696251149702851
-0.44585684611728393,-3.5060543153394206,-1.5423224644426234,-0.10963774773753376,0.2112192369471353,2.1801910645932496,2.2408344188917497,1.9587587349465552,5.986828276453298,8.882676746649505
1.1463827385321226,-6.061172684574747,-1.3688962954494728,2.7747236253971126,4.223521163020106,4.230250465029627,5.98366010279536,2.735773462215808,-1.2880774029270707,-0.6320483074162193
1.0144403472916514,-4.62014563465973,0.9905196718019743,0.28885399259930034,-3.672277946710082,2.5451354101397303,3.8051707016226874,1.6920915024516496,2.1376831198007546,2.7372782676318264
0.3316109980986821,-6.172224351503286,-0.7792274983981469,0.5448831720105751,-1.141499281782221,1.8990330812240497,2.472358940753521,2.707395814980992,3.047644255537541,6.294869574254994
1.563826543233556,2.0810884948714623,0.7358506733200374,2.181732617286842,-0.17014837481625392,-1.7187578235506134,-0.2951307199285488,-0.1515604808757936,-4.2081715957603825,-6.836896015130709
0.8914247296524054,1.2311696563770602,-0.06698349577466736,3.165004259851538,4.306919478597205,0.10176252581768863,-0.10474084513759033,0.7738146673755024,5.105002141608816,5.1863910366057375
1.2697198458272982,-4.6885143491190275,0.8290924470259928,-0.4916826585738716,-0.8673072509825801,2.1357110907020527,2.73996460362179,1.9832969523934085,4.192442241456392,7.861767519122654
0.059664360683498785,-3.359318147843091,-0.563386058186414,3.328012267255615,2.0526106796324712,0.43173718410287454,3.2938933166601134,-0.13124298845412039,3.2597910062399174,7.315563019152221
0.027343507104071962,-0.6420095813766449,-2.8104197880078914,-0.7832975146541232,-4.72827031488508,-1.3523120929999153,0.9307147208059412,0.5852972002602267,-1.104491363903354,0.026530727203099236
2.961183304330051,-0.5365178775167695,3.022723308284005,2.6868274325830726,4.97879574226276,0.5516953429239181,0.4331487278564565,1.0397933165009021,-4.117389139756638,-6.612574403232212
-0.8004266671884619,-0.6117433859094117,-1.753559226142195,0.030602357204576602,-1.4465682283388455,2.737082279266719,1.3700641761620715,1.0839789547067284,3.175805031503841,9.903845777706787
1.074950309398841,-2.3636423751329767,2.7587769629986862,-0.5916809570820405,-2.202245118718842,0.7118512419498637,0.013385348654467713,0.660580013799468,-2.1368935187387286,-3.708393762966633
2.175590499200453,-2.8416072754154045,0.6512574471491446,0.7193045710705355,3.070860834078345,-0.06506974871779725,1.7393600536556824,0.19142554020659067,1.693756110577476,0.3981489757002372
1.40142190784307,0.47070325230047017,2.2397102336645403,0.7875436298716187,1.2141520741002612,0.49143985289042325,-2.738923739113044,-0.04871322295912085,2.4617057764253465,-0.13494054604389646
0.47335097092334033,-3.756955638516685,-0.26901609947455407,2.9546273257484525,2.1735126401352,3.1489095675106995,5.377122220804336,1.4519959945829717,2.807531229615809,6.814041967478112
2.4492031431896364,-0.515169798935831,0.37057083936935936,0.7139881920397779,0.9478483118159634,-0.6144791671679,-0.33336929633069184,0.007467676292237424,0.2948211819004093,-0.2398330883143086
2.3248211406594392,-4.438729313278472,2.608669818981561,-0.5058716537329604,-2.6891662278851687,2.0204013876986893,2.386036105278456,1.0422481840960207,3.152912143651777,6.316382565171315
3.3686781473101,-2.6445026910495386,3.742236891553215,1.1869312813446955,0.795932144358838,-0.17980912956785566,5.604936272798425,0.5901611890512981,-0.5492756128592415,1.26561855433023
2.8665797009062968,-0.2854515933778659,3.6263227077391016,2.587086958610787,5.364819772399322,-1.8420103467957238,-2.5222408798433498,1.1623895606842938,-2.0803834492030395,-4.077881804151243
1.7130213576263214,-6.100841328068632,0.7179306572031925,3.077548587079195,6.2691925569331985,2.897131528111184,1.514109143989197,1.249900592267464,-0.7732769880353907,-0.4876246883185389
2.0387704241223377,1.2835998256468106,4.1612242883203745,3.309171112133784,6.691134756487535,2.3170807969036957,2.3424300196238965,0.2737377768746322,-0.0025029275353202762,-0.20011639649527582
-0.09224021449270448,-1.5871366033196332,-1.8101278436795103,1.850433718887118,4.240172540791296,-1.6924684155958802,3.3472077872394075,0.31495408930494345,-1.259759526214063,-2.8449460551298404
2.7614592188878566,-3.6190697012040918,2.632805562823913,1.777762726675657,-1.537751926088771,2.5539846860651885,3.9342702082476504,2.5585078758363653,4.206530963079439,9.091189862839988
2.4607507326067606,-0.42867740666037907,1.3798777107772637,-0.826876780778294,-1.0872473927322193,3.1339312376776443,0.7107410782457472,0.8745617450217988,-0.5451662778368667,-0.8735576417171006
2.082440887926821,1.8433892486553554,2.097676333656176,-0.3074741824148348,-1.983633962862784,1.7712247643859775,0.2901373456338886,0.4265156001001986,5.8435827373761935,6.411099055571669
0.3991513698836635,-9.542716808693918,0.06359023878180281,-0.4289150876319814,-0.17371177570730834,1.097908193585307,3.1912473522428275,1.7038188552202929,4.945793085693146,8.811472346477393
0.5116789055203028,-4.413415729712046,-1.3802951728149686,2.6014288771813776,2.995496413388622,2.604715192906544,4.89099293389809,0.7915965268465783,2.0221571371963316,4.231599869991578
1.7774786882148073,-6.176623532600782,1.465799800734372,2.2999748269047235,0.033479621684482375,1.8540577887040537,4.942682763681203,2.1173700110689087,3.896151616415005,6.642533640482781
0.007343784576872903,-4.728067007194532,-1.880471309882408,0.3318443481816813,-2.028060072596931,1.8291569636843774,4.190680904009094,1.5594329309003123,-1.5994059712592976,-2.302335548354936
1.0633503572479954,0.6021915397017017,1.7913497923802444,2.893273944889687,1.1816705918996355,-0.1968933462202903,-0.9019743086909967,-0.9886811901917457,2.0237650200875197,3.656647265039455
2.1411445319708458,-5.34459872255826,-0.400655146311054,2.687423927555519,4.051963249319475,1.7173099390105708,3.261153638259747,1.945810841296657,1.718994829914863,3.310481191691276
-0.0007752130442523208,0.5500900521089193,0.5387833867782557,-0.970991322203685,-2.078975120731586,1.4523068470740508,-1.6785015242729744,0.4906575047434029,3.8585680247972913,9.73185008723611
1.4053960293844256,2.6705046848788476,1.1475662606984633,-0.9900167606406157,-2.3430358232122135,-1.370102169572678,-0.3169924221063479,0.08577166447729383,-4.798428482423665,-8.293987030884029
0.2011051244621409,-5.787519409851365,0.2203515344190607,2.4495463889097793,-0.39345637706374603,1.4932218106584136,3.0247265893720914,1.8203794131976931,0.9581349485272166,-1.0500332740633946
0.6062618452740025,-4.491026386028624,0.3226586753118595,0.013590691482093575,-1.7035494177506916,2.076409519941191,3.225977028908071,0.4445511960621721,-1.145160742346087,0.1330994623628414
1.000967680070728,-1.0886786651306917,-0.3365899849996451,2.8801803482956085,3.836745322184846,0.6983087153689813,-0.6212205376738896,0.3442433972767807,0.5560954131441402,-0.6239189259602402
0.562721938959871,-5.575892680842192,0.2697638396058107,3.362450654797283,6.801388582516339,1.6606446974607492,1.982732707846042,1.3671270894417091,1.5660211954837417,2.558503634677426
2.6730168390722047,-6.050971088172067,1.4671221327932775,-0.29414132589736763,-3.845447229106512,2.462235237986093,2.0887982295590324,1.5383261888146469,8.272664754661463,12.731156665387186
2.8783496484444684,-1.1411475897277872,1.3399795123641403,1.3758893457088957,3.515713164500948,-0.8350850817256354,4.019862181393139,-0.34353365602445934,1.7863055822236182,5.35557002145937
2.618419578455625,0.3081382039013048,2.7958832010578267,0.34412926178594416,3.3954071922939053,-1.286565938007403,2.3352800560726665,-1.2533645864858831,-2.854320260392561,-4.421530488362644
0.23008305719744881,3.179008968862839,1.4398525782081246,1.6985765641757276,5.820853389066253,-1.6631447300436877,-2.456641406886998,-1.453477177527446,-3.6098608595948787,-3.1464048588176103
0.7884341550001197,-6.013563477498715,-0.44340009697397,2.725967317034362,0.7580207041899913,2.7761614208525236,5.224603128096813,1.5685798338778543,1.692151806866554,6.800831669728671
3.3560753596674644,-0.37154903753379226,4.761267491476439,1.8573236758692304,5.940371918312092,1.0481729394615802,-2.1360212966484378,0.6394257624724322,4.545124356462079,8.44905999221012
2.031383562230827,0.4458823521893066,1.1286879209095015,1.697286773129583,2.645250593070566,0.15129471738434652,-1.1629890286581175,-0.38885646653990086,-1.3422250963709152,-1.4350198172202082
1.9340689747016184,2.0492198090704323,1.8131316132895416,0.3419075361440156,1.2202222072299866,1.3853797134744368,-1.3994341482679142,-0.08328444255192125,-0.7871878555228389,-0.14897048498138415
0.5883750992671437,-1.6386815850717753,0.2234708717453534,-0.08162752781460525,-1.0665952331176096,-0.9854871232442171,2.768646517071187,0.6647248301949293,0.5441588119521482,2.15062273803037
-0.7539993245784782,-1.3285184863228647,-1.3686068910540918,1.9300701504335573,1.5501562936430022,2.965700066724467,2.1997426477401953,-0.17700865195141902,0.12676512041416654,-2.881124690186466
2.949418232422755,-8.399255591415011,1.076732032799018,2.984451852147838,3.1852969229223023,3.301024819520002,3.9474972947627327,0.6633057099767934,5.8436015916963155,9.889075546972634
2.34549851940079,-5.226009679934845,-0.446089041236706,0.9182602215935622,-3.529386090627974,3.3329826100495437,3.6391300315753567,2.4934562075130926,8.60598354620255,17.66043642106978
0.7362968191242314,-0.9917197698037822,-1.2704711628356629,0.9288352915058136,0.7492285574557599,0.3513182883461351,-2.346698745711227,1.3529365682496668,-1.7976399678428536,-2.2080771194302686
0.19823951711110355,-4.318163259950399,-1.5532386236212066,1.0099863057520397,1.0718867247658248,0.37298200706381013,3.91538743435645,0.8815406277358885,2.7532816563178035,0.6163101482498833
-0.2877566522567835,-0.17631439097860938,-0.5597492837207831,2.4114701290395475,2.162681722244396,2.304562072622326,3.4632776356931485,0.7193150024003699,2.7740467708352963,0.5505746831070147
-0.04807823353231222,-6.570773129808331,-1.9240141907641037,-0.18589669556090493,-1.1403113942178382,-0.23842633510032796,2.5243534037040876,1.4830698914046982,-1.7454261253065675,-4.58520362250378
2.8194519019420805,-0.13354093531893335,3.507694723596251,-0.401564933063304,-0.13918344425045798,0.05067252480861839,-0.9430612654811957,0.0052957290399797035,-0.29883890126902335,4.953203937006463
-0.4745011048672354,-4.726264427334638,-0.8523428417572769,0.22034460191623317,-2.512828961455355,3.1230188701999992,3.7331429886747296,1.7254930159315496,5.772889005204308,12.563113937164468
2.1562262697739483,-1.3666393014408242,2.577169075080719,-0.6098394234460562,-1.3152998270789649,3.6810771784336636,2.9183755315243634,0.9879140071193326,6.4579425502296255,11.90705724126006
1.3626056454522684,2.316248015759509,-0.4149084458264025,3.1916015252229295,3.8547651037253456,-2.6108215011849,-3.544548204514004,-1.3937321250819146,-2.851894319722566,-0.2539645631992899
1.9852538072127408,-7.027453408048503,1.2189673719303866,2.0424449613086892,2.3893542248969513,4.573226822428337,4.395222422101816,1.6163811438637639,5.537518171735423,7.255750902733613
2.988591165489116,-3.230944603318208,3.563103180652333,2.3859655529808252,-3.464684736872588,1.2813723381184312,1.657719348153905,0.844751355535287,2.5595351956683614,1.6782245249657581
-0.8116466114540084,-3.453975119199426,-0.011441072849480594,2.6900471913407986,6.320681599732039,3.153801800850128,7.4032671461245965,2.006510451006845,3.576001808378151,6.14371367071247
1.549799682048628,2.774405854692481,0.6597974042627787,-0.8805700221164772,-3.229684117805757,-0.5432714846443847,-0.9487933651118942,0.5412976687641284,2.241527604971125,1.9351325633487446
1.9873587328616473,-0.6472515080504186,2.3133856847922085,-0.12804428294669035,-0.7705590366785521,3.5155999622257488,3.692585587133392,0.3115129734970356,3.5477011480636214,2.6661569659043267
0.3352396089526013,-3.0415922535170763,-1.301831039912999,1.6088842825949876,3.524864139897805,1.4389333545014358,1.6936586289331617,0.5533505373319285,3.903299968590693,5.260341673407344
-0.08471466491824742,-2.595944663846774,-0.602755065513064,-0.9884780141424916,-10.196635672454482,1.2812360954130224,5.401573195468856,1.34589652853304,4.30490788308541,5.380098612814138
2.095287052590014,-1.7196414499328836,1.260486972987927,-0.6124085887354023,0.660980578882093,0.6117190200444473,-0.3652039764184947,0.22292846489393586,0.5284683954354568,-0.9790054396260938
3.1158427457313724,-0.27653322766110916,3.191054092645126,-0.8500387033773903,-1.8800872197694143,-1.3903367289234598,-1.1307554165074245,0.006621313745273155,0.8599954149864687,1.2690691451752985
1.6720005599188967,-3.8650166546867326,1.913425215104127,2.4379427794057222,2.7563843391393563,-0.038225594640480365,2.257024855197174,1.227489723955097,4.3874315506910975,5.495641669620057
0.638159047968718,-5.795889317137892,-0.5025155991436434,0.9227552375086048,-0.7172422329234585,3.3066514566032845,4.240418818710039,2.965415664385321,3.623188240076937,9.060392020161707
3.2084211449503908,-0.27675169380035664,3.018594568653719,2.5028494605868192,4.904631818129522,0.1708103877404769,2.5017973558167577,1.064421911840448,1.1604804124410324,0.5868667729561605
-0.12609498972776256,-3.2916889415885136,0.9623200035845113,3.225970803912211,2.9999299186940123,1.025262889625126,4.055228342013034,0.43957066246542975,5.277562057818675,6.54052959292365
-0.41399139240180416,-1.309844423124286,-0.1081396815611671,0.9221597286300516,0.8195136934942902,-0.3529786984912229,1.0598322446528927,0.9877915742101436,0.786045323023943,5.2134972281383085
-0.6320962552812581,-7.6396671768642275,-1.9099797066379498,2.47370777014337,2.488532566854513,4.632952772286909,4.203674735119138,1.7907305361614947,1.709818171356679,0.9978855381508688
2.335446682012031,3.536124973443083,1.0100549917171344,2.2058890735013046,3.26158809489318,1.3120928576637598,1.6776537134581837,-0.14734407205366648,1.1691768508199338,0.5442557360921514
-0.39465260563625015,2.891090116204118,-1.2669471188677073,1.3413547491438003,1.5717880453516238,0.16262459400060847,-2.5359495934357907,-0.7289377058192184,-0.773742014868182,1.559067559516315
1.8783804023885855,-0.17031501486331965,2.824370735379354,0.6183508988413933,4.126097790667132,-0.5898494259317852,0.46251944808398765,-0.20065698353507477,-4.716493976325984,-9.303376975046445
-0.7668794005372227,3.592418506177825,-1.6579736723468619,1.7902255615119098,5.747875781376299,-1.5035340290010053,-1.4933605864717607,-0.4061378500727295,-0.6375575280862709,-0.24785956887257113
3.3643561592855757,-5.506220583982978,3.185679984640185,2.938752777510278,2.4530772461015236,1.2537288037486705,2.4586422647575343,0.709234680386979,1.518767105067509,2.4701873169509603
2.7771826787470073,0.6269438029551156,2.7626172957138464,1.7915612499950808,0.9789440994485367,1.2854315054145637,1.1017960657689905,0.2899942339874476,-5.5515777397260155,-11.379133130585595
0.5439543119912535,-4.606594522254021,0.5422142867866647,1.797634735377204,-1.590586307343457,4.014688767351101,5.795913304379123,0.8560812508077095,5.165161103277827,6.46020963490234
-0.4730831628311777,-1.8374387802989811,-0.6058755935859288,1.3764889891818628,-1.6422612620705839,1.2001215448808948,2.490159683217783,1.6104955095107842,1.4570747153518964,5.600244804324649
3.0632514869965917,-5.992866639450188,0.9537173194079145,1.6022441836186672,1.9211487215341947,4.068482115457211,3.6270977030658895,2.6466254620753804,3.5729374364820856,7.89134096400112
1.398752353940747,-6.74266574722369,0.27411503673289095,-0.21787377084017312,-0.18188541487191023,2.9647507851557378,3.7511014530622915,1.509933994891652,3.310931105484941,4.379732326865742
0.6473800557056688,-1.0149242906006182,-0.2619959876019057,1.3717890406233306,2.5995264918098138,0.912405033668503,3.529665316687937,1.5255385192564708,1.0496911835587979,2.684905098991326
3.1256566388883984,0.5572258929747055,3.996089830654805,1.1663555064530167,3.875753273526339,0.3777639532311825,-0.13145954022020911,-0.48105293981161484,0.13826084576893405,0.28090892400447864
1.1013492769393438,-5.547309574045058,-2.2443208482171673,1.2583775357482274,-1.4406394748590268,2.872009104288785,2.1862487535215736,2.182832699513612,5.5610519526104625,7.858243963447349
1.6760572959472877,-4.821200879967873,1.3562671384183431,1.1072652254138378,4.006812829763698,1.688621139247897,3.03204015234867,0.34550301589669513,5.274978313807697,6.557427833357597
-0.2597783110692544,-1.4692138048434833,-0.01328732293547713,0.9358777665176781,3.583674847428767,0.27517196470269817,1.1455087684413132,-0.3535500991036348,-2.860575947161589,-3.20059694649014
2.189989261858686,-3.753830529128904,0.22326297334410483,0.005499992848369439,-4.493073328825923,1.1359352606591813,2.824495602057601,1.5453062542844127,8.267463359844873,11.803694901751774
2.4890886908492607,-2.3634904202636084,1.236219092679659,2.601892091868825,3.897731786783602,2.667204227720835,4.657773825006783,0.8622175607900855,4.990772143242965,8.957711268658038
-0.32187914125211403,-1.1878213777221538,-1.3384180727762707,2.269314246806336,5.27403792165089,-0.681399815675054,-1.1326932425242082,-0.5115439777804619,-1.822995087773493,-3.1003769910373475
-0.8534324216284902,1.697669370410019,-1.7702868861742873,2.253360338056364,3.8493361352329343,1.0462077466465547,0.5501523096268676,0.2425687394580422,1.3144306268830201,1.2242768317488264
0.5881650389005244,-6.382118198513071,0.1066820692387418,2.286155920313195,2.8937469030848715,1.5567731332788322,3.4804323851943297,2.0219860130858933,8.742886307472949,13.673421691401868
-0.7980759399286206,0.6222943594611804,1.4547683422890856,0.563536811536548,2.174732447627249,-2.519774198053264,-1.0040884850161411,-0.559065922930655,-1.5599939552617472,-0.9125828598550231
3.2447507364855523,0.8537611532317159,2.486144731805351,1.7902918942722579,4.68246828385463,0.4661939732340785,0.5156595560684217,0.7429686254988462,2.1895754810361225,1.3695526093187245
-0.821125484758548,-0.6280175538912954,-1.4904360036772732,1.7979612671689074,2.171272189811758,1.2078448302909301,1.3731372260723154,0.15540980998579224,-1.8496742462355409,-0.2205138950943751
3.130124621391695,-1.0239611817790297,2.225271147385833,0.83770947192641,3.819024514694448,-1.1578277687621197,0.13334715205525025,-0.056315902186643806,1.1515634963634789,0.9161473252539769
-0.6319566519872613,-2.841148297757221,-0.42885999727004037,-0.05889062459404926,-2.9251652846241063,1.639089235455747,5.129158244864418,0.9622236210120441,4.9532061596813834,4.806129179156812
2.132009001946799,5.106413459180071,0.49484976048820806,1.9202890680023197,5.23624531805345,0.6463539344178487,-2.0957579555692245,0.3680270698648794,-0.5335611778181955,-1.7558285734942125
0.09460631795856211,0.8951197300446907,0.0005987485358205369,2.6277986036534466,8.1224458363272,-1.695873827039077,0.18414452089451236,0.04796494515455155,-0.5269480866629394,-0.15293945831547173
2.7087252059289133,-6.095214186768479,1.117257725143677,2.03681130123741,-0.1352919108307582,2.4034338937773505,4.550813983801741,0.21762222387801963,5.253808046992167,10.28208918079004
0.01677781690497393,-3.2148055744037567,-2.2031023277724864,2.323503155949738,0.01734409436284201,2.3281299157447175,1.5715960350496474,0.8775226090316137,2.5343271251860777,4.570398587734741
-0.06821858408455084,-5.232184734729644,0.4378224636891521,1.4734928900584228,-0.20267717145008257,-0.6053432190714076,3.012801536340385,0.8352853244308914,6.775445462512226,7.713864369890632
0.038588501425447896,-4.075741677655248,-1.3178539026869796,-0.9362182698877566,-3.9448194489260704,0.49300120418025295,3.3900702227277204,0.9364295081582359,4.798511122745793,9.860587792118437
2.1744003846451774,-0.66235225020261,1.5059239805610474,1.4183752992620486,1.2241945539357424,0.09836940811160921,-0.27262276668710633,0.6162228629983383,2.0097220492988037,1.6451427760989354
3.0825143864642115,2.7309958276356507,1.3349658526325094,0.9524824514029067,2.2334176193288346,-0.7258840105578926,-3.1710798247734244,-0.8277344573249877,-2.3491863554097936,-3.90908667669258
1.4889757763497764,-5.189211849519327,1.0556332265282007,-0.47638856281962416,-0.9590300024922032,1.5057217394836266,3.8808786872071686,0.7194472691621744,0.5446050811203362,4.653683737491512
2.948235389023706,1.5862055225997913,2.9656274784944054,2.0585362717940003,6.144445399133268,0.7045994764088521,0.36850343911464245,-0.5489580974613985,3.1095428086079613,3.3506024822461264
-0.40558619971305654,-0.6209382111212244,-1.0715633672575575,0.4675393680103075,2.0363038499466626,0.5995871124375858,0.814473183338287,0.9885261747054763,-0.3730350007147508,0.30618880925393316
-0.3482356845505107,-5.588823639953674,-2.113758002788261,2.777477746317063,0.23596929340117612,1.9311857323707435,6.207696001875157,1.4861666565262943,1.3958386839162353,0.303265660120229
2.2439602127435774,2.297183858560922,2.012962417494799,0.3079486765136741,1.3469397486215824,-0.3722109790875389,-0.6172019519495322,0.30896396498901707,-0.6226275986767627,4.181156494019308
0.7476933727705544,1.5342599989593406,0.7192635714990946,0.46796707386781833,-2.7269009964327737,0.8091920605975684,-2.01749044166351,-0.030438393826088775,3.0875498918545192,1.7762497872185194
1.8782060905394005,-3.6590926113731035,0.9957046812938812,3.0228676020866168,5.890754063598961,2.554947348922928,1.488696686665269,-0.11098770098554908,4.372357269975286,4.425114132451451
2.7138394776064447,3.245383049605639,2.64302030960813,-0.2746422607462713,0.923141355689187,-1.2270710105046123,-1.5103189335498501,0.019983576489855992,-4.736654469870212,-3.764409596039767
2.079918738572597,-6.651842478198837,1.620474238239333,-0.7265469385939969,-3.685570117791218,3.6158311653823496,4.8235603314324855,1.646151347679819,3.364486339300436,3.504694515867348
3.0653402916463044,-1.2442849184626796,1.688800841120779,0.7902348860755346,1.8048182326882651,-0.7422865675800056,-0.33656392351498776,0.22021387242507354,3.866771720552313,8.830928549632794
3.218970957787878,-1.5136421485494407,1.1602564415266605,2.6595112611932907,3.3072216888714974,1.7550399486231634,1.114604823684982,0.15096261135531822,2.0079895498685127,5.104887546439022
1.9256928020885713,-1.8749997980468893,0.7093758517265849,2.326864850388567,4.0317112846220216,1.6547111126427154,4.078790398927642,2.2156574513030556,1.6128037924784424,5.679789401761005
1.4242990521783043,0.47213143843296734,1.9331907852978896,2.3447869645460693,3.517214065733499,-0.7878106338263597,-0.8127701879538674,-1.9034573691513197,6.192568454396155,4.882791739874955
1.5419435179047452,-0.9099179763036702,1.6427597494483657,3.4178923381537647,6.5934421035133015,1.496465709034953,2.5177068978003847,-0.8009645376538282,0.5891163377762973,-0.4627356447078813
2.034565046137383,-3.756126594079907,3.05770395648923,2.7654757012496094,2.136752953445844,-0.7920384678047185,2.3869235846271697,0.7884877635604937,5.844186798654974,9.458984099546493
3.2953950515464943,-3.9040263115955485,3.056183404211432,1.8567026797203767,6.796488341782241,2.113198991451688,2.4225019047727794,0.9792651221227128,2.2784155649475037,-0.7152135085330203
3.4530631958042672,0.8841563409523323,2.657214775499349,2.5510012800473105,8.707810474850138,-1.0193181317454787,-2.179580067634348,-0.1980753556299549,-8.20870174476312,-10.849663200959412
-0.6127243462359094,4.640766474493374,-0.4465891872582982,3.0532294730744445,6.103401825628743,-0.24230833955531683,-3.493809355553476,-0.92342027257651,-0.010380953517248992,2.9238739016348814
0.8530199398336638,-5.245737447528604,-1.2400956867478454,0.8127784166643202,-2.911566592525313,1.1200593933933147,3.7138062004682317,1.1582407214002262,4.934486296062636,4.353785812080291
2.1499251894068157,-0.21050978944554657,2.8129308080863047,1.166212786996946,3.8207568527120728,2.6612125805755205,3.0222771065282448,0.7077741867997075,0.8647595875468828,4.871388988735102
2.6237870259560467,-1.3892386229139198,1.622532324131802,2.955331473367974,4.7871377653062295,0.2640279270578384,1.0504601619718925,0.6410930418379968,3.9588755841442387,4.866704758869241
0.3066308325145366,-1.3600996654343143,-1.8457792554041856,2.8627368944527336,4.155139631834441,3.587695738786354,3.1505655190466415,0.7366361693876788,4.756468297341056,6.160393526042434
-0.512100034661807,-4.539584374884782,0.2639909414412104,1.773180606557986,-0.60231174949317,2.4557431392746834,2.512625585094256,1.4020284986631533,1.8203860541431913,3.5702042455288527
-0.4364091343506691,-3.24958414182566,-0.19319950732602237,1.1615490445389742,3.5381082245059456,0.9235336516480113,1.694894726740494,0.5874537362224074,0.0122530290115761,-1.805989096798213
1.6973098302414291,-4.997175503288044,0.2772339307859959,3.3386337422521875,3.3558193677066868,2.395220015128939,1.9812625221227496,1.1898589491607718,2.1316924544099223,6.107609232366138
-0.7595677250995233,6.036207649561964,-2.4588826808594892,-0.26297099010872704,0.30909254576006734,-0.1104243947489636,3.9352448149098715,0.4357149672425715,3.867375597518258,6.18048574326693
2.7729721661081594,-1.9721667488070669,1.3881096204445131,-0.43735063547136355,-2.4326416733620233,1.0784789225079965,3.2172656038728413,1.553989008591018,-1.8830872025186154,-1.6297177456482685
0.8461212927363799,-3.5911969680576625,-0.7578993858989215,0.3378551291412557,-0.803520913349239,0.9098243234598544,-0.4757229120596799,1.0115981885439842,-0.8308674609205624,-1.1815012666191624
3.2863827786929765,-0.4864112775863432,4.170477363686082,2.122655660687049,1.5699529357044182,-0.8496668592790383,1.6530293430136735,-0.4726128676761402,1.1849828846829449,1.8230683141699482
1.4986178024589987,-4.464426187165178,0.21056228612934402,0.9261579076621484,2.9436598293353966,1.7205455995747787,3.2544567524013392,1.5137361387155193,3.683111684261111,3.0740855570426038
0.5854162189098273,3.338255492351156,-0.2435135826763419,2.2710225445868457,6.968759486929259,-0.4735184968997675,1.6358662325342392,-0.10094840516794117,-4.674490321662447,-6.4630488760193945
0.0033683534773292223,1.1252726244705882,-0.29594450342203804,-0.3489921380742823,-0.8926629199886231,0.13674716508842422,-2.507086569248412,-0.9955677427291508,-3.0442212419479846,-4.099394995019084
-0.5650973668831475,-4.797089592351387,-2.151419237202238,-0.5597275530605323,-4.589152428475865,3.7508125684147497,2.44398462143171,1.9603151543594892,5.548942015918034,5.643225903442219
2.7249850110566927,-2.32160043082238,2.0373304162142616,-0.6819740600304582,1.6725966313341774,-1.190639104473894,1.890340700199492,0.4919802412159497,1.7014263173408288,2.909010839789658
0.9705667160267826,-0.6640004263687845,2.724535501429458,2.1963676100954403,1.0647832985004053,1.2091285058649837,-2.6972611580129615,-0.3067419554037219,3.5710305487812866,3.4367894649003503
1.297827141051425,-4.357255082162182,-0.3699271721231151,2.533814445938443,5.191332244286633,4.826099884814912,4.4190398257757115,2.2587501752006607,5.786995916543005,10.838766252008112
1.2605158195063,-2.3952518454248923,-0.7902900724978967,0.17504873141654875,-1.1357643351353555,0.994602451191307,2.083152285763436,1.129517393483412,0.3939205545453617,3.804207545754565
-0.8631049606051314,-0.4254664851306357,0.031807547472212816,-0.48778503395724004,2.3257536907940817,1.2978748933254378,1.806338509912551,0.46834502097891295,0.5886879599345556,3.4684618620688004
2.1712439236455796,-2.068930200007423,1.7360775136587434,3.441808345693593,6.323041202620777,1.7239694685817266,3.1066231767317753,1.7310327254168985,1.963638849334726,3.9702232218836704
0.5320945325378146,-5.81802298240357,-0.2982122765619115,1.3989758711994882,2.8935943081313957,2.098400492917851,1.8012205649032453,2.092828202844723,-0.016156893236644265,1.3852272023855194
1.1600055386242651,-0.05256312444144927,0.49461181943911864,2.177199420819515,3.8731834129621525,0.04560320082711622,1.7790550429161525,0.6787070414568908,-0.8388515619120431,-0.32577414098959084
1.5480804809018953,-4.7252996770788185,0.4688382107943583,2.764442993111753,2.460592538035694,2.4235268743641223,3.7277570022182855,2.168497969221158,5.046436433340117,5.563745528786793
0.9306949595284533,0.7203094968947629,1.366832749351928,2.938145020382856,5.6940720907875,1.0166532115091051,0.026416741099014616,1.3397249397996034,-0.6628429200592811,-0.4838038745166495
0.6450198747086398,3.7985207262906515,0.4800769030538808,2.7154062896092737,5.294386745114025,-0.14065101831615018,-0.6819288017532655,0.35723641924299726,-6.107779799784906,-8.645471338228049
2.5781941306994804,-6.334123748537051,2.135830808879156,0.48554974869980505,1.1056396828272206,2.0960876524397336,1.7810058814587713,1.3924750328290267,6.662590398582081,6.7028802399603995
0.1792075681910057,-7.056557772284177,1.5044799815640055,2.6062654582879246,3.584377042973434,1.4197130853654079,1.8393724516486236,0.9886491574324456,1.6510531135029307,1.420507462516551
2.3294988459056785,-2.093144261352083,1.5592529773542552,-0.8259775826893048,-2.347372170627322,1.3349257522022853,1.2394276830287239,1.6315125840165843,-0.5101837088220824,4.689191603955785
-0.5513846902709552,-2.737457266237669,-1.420987803786269,-0.3580506636520947,-1.763222599812837,0.18605173355441598,1.1601564296381466,-0.21836328386577614,-3.982139355737268,-7.336111868318129
-0.9249282768654467,-7.74533944838914,-0.20064455326450523,-0.07907734276574085,-1.4432746275575443,1.151939816264557,3.4644114429451562,1.9176537188328433,5.232444313245784,12.90292591436308
0.10558129931420512,-5.995850768539358,-0.3426541135513233,1.5127840244823858,3.754872687306311,3.405949411129233,4.041104524393816,1.4764938799542946,0.6599614631919128,2.6181998900286927
2.4390400622506467,1.1002411576632756,2.039245282358787,1.7305394345917815,5.684461935056259,-0.3742732789638842,-0.8455204482538523,-0.6214938608453896,-4.969838088314162,-11.353065095410084
0.19501596617806438,1.9040019891757998,0.023316743752704608,2.22213092012239,5.107160812669504,1.8154170594955321,2.084314116420906,2.0951765401599114,0.17048468737422046,-1.519315556439243
0.21710869549828216,0.34201716490398343,-0.25407098830498986,0.870478471489901,-1.1816845575075725,-0.5733190204495038,-1.3226627505948418,0.21629137886441843,-2.740098433388934,0.605555763687426
0.5466616140449585,-2.316714086406626,-0.6463727847012358,-0.7407375820083385,-2.3623165167354414,3.0699656018492543,2.6159327851317293,0.7092174495094897,-0.5306434995324093,1.7797101841069305
0.6446000945107653,-8.796573911961605,-0.3250675425493821,0.5026492350732166,-2.7217772206794453,3.381598816218692,5.241829226626972,1.0828153629622523,6.6476529929358765,10.956677005834235
2.3873968388188396,-3.7182421777314825,2.6340066278656504,0.8100370158555428,1.2016493637663588,1.5426266754134372,1.3253348648499148,0.4887567734519132,4.388013569571413,6.028685342604122
1.4017634222416402,3.444458504544495,2.143847007841617,2.4668645992783653,4.459599434506078,0.0917313855154831,-0.5336969754823275,0.6562057279707559,4.441791285729038,3.7100396229433543
2.1973146975150843,1.8690097625769089,2.2364761583618655,2.350398525361984,1.4755466179272567,-0.9223133393442251,0.04213621908463579,-0.9232034789542843,1.9793880018988077,1.5349967787578096
1.512947559904259,-4.007032127900263,1.4069958163297405,0.09382690422813433,3.191964080154141,-0.14676254589990603,-2.1719666424904314,-0.04602261315074289,0.956907524844532,2.0553167504986822
2.9032715302138565,-2.7492963017593675,2.431192711696988,0.33115055946545424,-0.9465787428100845,-1.001388209050575,-1.6722736103286504,-1.404456900472832,-2.06409759802807,-1.7273908680909458
1.9351318023293875,-4.974183563468873,2.012157576831692,0.9003421330751102,-1.138908434734109,1.7243539837292878,0.8627557282483082,0.5072770971212088,3.062118513376854,3.82981114899451
-0.6333918309157478,-1.5401861675858792,-0.8699968441663901,-0.12069033856737243,-1.3447169237586718,-0.6784502984053165,0.09459477598510531,0.640798701637478,1.455743169391744,1.392718322310167
-0.32176354544968677,-2.6092406790405316,-0.6633844011001316,1.626102630677369,4.460638519803844,-0.2074158076903162,0.9365276813272029,-0.012254657238376545,2.8267591699367935,8.895159120125545
2.7995496033297163,-2.449183186899819,0.9926332943268342,2.6095478497307263,6.606295051104134,1.7423814787383627,-0.3274020403343676,-0.2971835640938819,-2.4665817728429023,-8.36541391751018
1.1776808650137922,-2.8235198858160153,-0.4849660730462565,1.3193658405447488,2.4684654304982305,1.3143940959207792,1.038170831179065,1.1745490697887484,-0.1387520421111738,-2.37849579916186
0.3856333580708047,-5.726459059499687,-0.33825928452026116,1.2053755374208475,0.401125247950445,4.123193761780163,4.9688906102209645,1.2047538146791275,5.587036128742305,10.119996555443848
-0.7066767323475427,-1.1228251775545914,-0.9871036822096857,2.294291134943399,7.372071782376344,0.25069632341922343,-1.2404378737013186,0.5092436700710129,2.0461964005506483,1.1295823055399756
0.10740600255938904,-3.8065295900217446,0.2964183330187281,-0.6977477117985051,-3.101784572970372,1.002074473932949,3.8104900576261858,3.328796978380471,3.995488111836845,5.487695846965174
1.939368404910327,-2.3427154601936873,1.9379584509590853,3.3316692696741947,3.3904890896119912,0.21790147411507632,-1.9144781199234775,-0.5269458957477673,-0.2716911209829943,-4.884969539014352
1.8113006383708186,0.14149750610382916,1.9136049613520534,0.9395153971339765,0.8394547593992429,-1.0580648337370868,-0.18422220818675794,-0.7442365313555682,0.6893998291319927,0.09719297122499237
0.16701333364932514,-0.8256116658785417,0.5052086692954497,0.22346775331160518,-1.6926694146899817,1.485553903466731,1.7731966337103158,-0.3465144323777807,-0.7220471708334546,-3.436774686870608
1.951062343300213,-2.302230837387911,1.4770134967966049,0.7752566439161819,3.460441542197409,-0.06869818150460993,1.3561717656769499,0.0696783671281522,-1.615231289723524,1.4045804216102393
2.9842714803850816,-3.262828537479254,3.5230081569808984,-0.5727008572534162,-4.667691551005413,2.537003602369265,3.840404891516744,0.812915350001602,3.8495117693803955,4.457480761950097
-0.09827005173816661,-1.7416567480352518,-0.46902611224628143,0.7821385664585858,-0.31492112270412354,2.0346316991580635,2.824965841204066,0.35303725484653664,0.6102730185618828,1.8620480937029473
0.5049730523188314,-3.3451636772675744,-0.6092952134199275,0.5690570596145934,-1.767257063897886,2.531472888939458,4.187069778857521,1.5916064865652826,2.2203304211800465,4.623201746725823
1.0347092461602112,-3.8563058432342054,-0.6163660698233575,2.895199385559173,-1.0028580094926682,3.011267548527809,3.628025514917431,1.1555433188897626,6.42839935901039,13.783873734903255
-0.4704214055084708,1.9904476006774723,-0.6849799426624879,0.3751609948989507,-0.588791927437252,2.009010283389178,1.03749524077902,-0.03215516549419256,-0.2871555776465451,0.0819375191175866
-0.07714662430663588,-1.3428173886859227,-1.0682922299791788,2.66586096921747,3.3547418086137912,0.2305404505189973,-0.10014284793789725,-0.6778555611714329,-0.28117529950103426,-1.8527169068375466
0.8924459796312096,-0.9254558341800524,0.27064604084856225,3.1849894573993023,0.9234291320931853,1.0411975176701314,1.8819710530046092,1.1863152142844469,2.7977047385457983,7.024977803701073
2.5677630142662893,-1.2424193271882336,1.2517845313506226,3.291732998744589,5.86085983450646,0.25500614944043687,0.3225211544835898,-0.5483471530681112,4.264616503856649,4.644693571161984
1.0132729308496309,1.2450518752146404,-0.021153384792594442,2.5000431174763693,4.850802008552188,-0.6823518743594517,1.6039640023233828,0.20325860255363534,-2.0222967520681983,-4.893737878332872
0.7318728257879075,-1.552010520966868,0.2623498089207885,0.6987990638502617,-1.7857515860684443,1.730028526395887,0.30323136796251904,-1.4799057757006622,0.665856641921549,0.6631300343939716
-0.088404982538,2.4602082067878897,0.7144100069187833,2.3393141469496386,5.032456438620124,0.753410613830106,0.7994365107657723,-0.4903597264483353,-0.8848071746769164,1.4954362176682308
0.3302920149231383,1.2240341488457642,-0.5954763970060325,-0.2097676560526599,0.15109866734455202,-2.192697556521768,-0.4558240205720928,-0.8797673016466183,1.5696497102658233,0.21623517573396098
0.21804205390924825,-1.939721251930097,-0.556383108106104,2.470964309757271,-0.4487116981114201,0.8208300383841465,1.5265418886969968,1.0489522372979394,5.200145353228741,6.259272961721399
3.2711642614590595,0.2738260540026156,2.0244031006167478,1.6599961926520228,0.8053169650649628,2.4383683825809714,3.7062242052746166,0.7458700470628732,3.0824363780064434,5.552048895996621
1.4997650941594238,2.217701402611409,2.16240774366934,3.0879847327966363,6.849216703090382,-0.4921258234887693,1.2623271416912552,0.09490897981220216,1.4255398565789368,4.277686141497689
-0.9724295878869077,-3.3614079111312654,-0.4108050670275877,-0.10024048372943517,-2.031970640143269,1.163718660042469,1.2568121472905027,0.9773511818452361,1.9636545985463723,-0.4360627222301406
-0.33057521784995125,-4.514391651146554,-1.205964813912801,-0.41138093777620555,-0.26012183577451453,2.9814285820008894,1.3836478166502715,1.0894804703497911,4.9936779133378,4.110790143897381
2.5863225348314187,0.7512712135788941,1.7622704888891056,2.7695582262325535,0.7540520499531422,-0.08856162063096673,0.8992954699927161,1.1694535148224887,2.5665640078339216,4.67436515700356
0.21796723897127612,-1.7037153310396367,-1.149773451739485,-0.3544711145057361,-0.6022388381253637,2.371966413640723,2.268259346404895,0.7744474800898338,4.761986814972322,6.250323803211432
0.973153978425104,1.2798217147288888,0.39595118246063843,-0.18520986238636594,0.9476867102583504,0.38487014390541796,-1.5110465438788827,0.108316695593034,2.833331899862805,7.705964189925575
3.0323920144496723,-3.0646778817141977,1.0887360036258174,0.06772654566515546,-0.49703146631754347,3.2464544629259433,1.8190250514237014,1.0347097045453448,7.525523833912632,10.196227573142153
-0.869366146465495,0.8823149111563092,-0.7004424083643519,2.964577238836996,5.441760728161074,-1.0475553793231231,0.22591354979619824,-0.48818331200915066,-0.28558620307819016,-1.4289894185933785
-0.2792900820197256,-6.006958433835902,-2.423007720727986,2.7466559299669444,5.080506375394906,3.1367332230475915,2.5715437244542376,2.491615021112865,1.9100389896412415,3.277831080135677
-0.34946236995709345,-4.683293247627178,-0.22263687691188933,3.203942612370211,3.5868709083088355,1.1553741766166894,4.511685987040763,0.36873859771152484,2.459713566563343,1.0236730678067998
2.8716124680234643,-0.9424609434807165,1.0312674201268461,2.994554975289636,1.8161792857921353,2.6667500504438952,4.035298038051083,1.2307967832336113,-0.6087494155066463,-0.4845356439819331
-0.1208201391526903,-3.283943736193113,-1.2790178482495678,-0.6394332045295628,-2.5558638736471977,2.5652952048804303,6.440522107719749,0.9875628617029594,1.9306511745599928,3.4780230481587977
3.390344190078462,-0.7765304170687444,3.013064036027351,0.15922925182167957,1.0792627402665385,0.9501671614907042,2.2951578101230194,1.160209400442576,-1.0942306282680228,0.806245968969944
0.8642048594554068,1.575726850197609,1.3711923098968646,1.6002481351508155,1.5395280579445902,-0.25720023499287037,-0.017215076293998065,-0.20112034223017305,-0.46205301329301307,-1.6445552205749123
2.545090355503402,1.7545234414614654,2.048474247876823,-0.06712581676111617,0.13812278027289138,-0.9307381476298902,0.2964249753626281,1.0872572855946334,3.761760600727857,4.8938953628151
-0.9139915628638994,2.1883008985115886,-1.5092976240661808,-0.9411285913175143,-3.6344679744643633,-0.05833870907268057,-0.5070381872073373,-0.4124181512906852,1.9559230070068412,4.578582962415557
2.388288250870861,0.7943051282125682,3.5203887559112435,3.390951180826417,7.653298295482106,-1.2041768156086654,0.3356243111379856,-0.8100754946779347,-4.304682148199165,-9.045429501828709
1.7108589053068721,-1.497323190378418,1.8185075229561039,0.24820230808352028,0.4330336978172812,-1.5761716838423716,2.172727313961032,0.40974488150497884,5.217820250664017,9.870758357952724
-0.07968025036878523,1.0060723284105153,0.10187906435390642,-0.41097162050181557,-0.4235397362824368,2.131326279433834,0.8538302015135669,-0.12230424295080558,-3.7675667702643265,-2.4694809590203914
1.1880660910299636,2.306859173936383,2.5233648658795826,0.04400768252138776,1.0598252739044358,0.5662941988886551,-2.784632248524646,-0.8507145112195295,-3.8579194976268365,-4.533221321936139
-0.30990782804397143,-2.977731355494359,-0.012096512302386508,0.7739683234225612,0.1707129898129338,1.2338436730500166,2.4436540024142546,0.9621279626992812,8.207180094712879,13.204242214264884
3.3253966449544343,-0.9064078525582782,0.825323660218458,2.9480437158306567,7.811969176796264,-2.4960872944135737,-3.034602632472577,-0.22093082935463812,1.5037289947499937,6.2460092517267825
2.58074827451908,-5.429250101942819,1.8059475799406768,0.7483403287048884,0.2677440703809766,1.2717694896417961,5.062070172380376,1.2790407412254199,-0.7327924754296785,-4.168552720723186
1.2611581852579246,1.2725658072910806,1.952260652450118,1.670469587034947,3.8161313764789346,0.5533702078992957,-0.6756742890824688,-0.5897628805032518,0.33282704320415,-3.3512820093278393
0.23019860938415104,1.5206587857667175,0.8286059215902475,3.244222997858838,4.604780038028977,-2.717974409769066,0.10507861708241643,-0.4010608481832335,5.929180169571509,10.167097869116077
-0.43371164434774656,-5.15882282666003,-1.5170724752787188,2.5151131383076355,3.559645491375454,2.0167925889542615,2.7287748634202447,3.2795381032603292,5.38020083145916,8.464628342204296
1.4212844763577435,-4.047422990446818,1.5720938920284633,1.0317229827389087,-1.7145445667044474,1.3636759545430546,2.8040700767979216,0.8036832332426885,1.7625570103587243,4.6667822552061695
2.9889748019494218,-4.122573440591095,3.1467305117343085,2.078735599746978,1.2148052620426693,1.2122995045804323,3.4997889578108565,1.9307115182046815,-0.6901297154591084,-1.0213790088872137
2.5798007056614805,2.7537852980956354,2.6689187706276005,0.4367542910310127,0.691630901493932,-1.5369187821300265,-2.685865380513035,0.09194362740249559,2.941914804048669,7.707944384515753
-0.1557278934786307,-3.3554974787766128,0.23439905537880404,2.625349436423381,5.263154538935572,0.6714487740566712,-1.1481833485777946,1.2014892475978378,-0.39189559950146813,0.5800898149454188
1.4828125611024339,-1.7537174055079539,-0.13552995237746718,0.5311059800245708,-1.2128730345057357,3.403683563910274,1.525449071846097,0.8786979931837084,-1.0697842310809575,-1.4810469940394293
2.418754763958472,-1.2811456432309243,2.0068466975173926,2.594959929328691,0.6603334549008619,3.7164879617755413,2.5612880533425555,2.3148368291191836,0.9249114219999524,-1.1814110507450892
1.4596724269059842,3.3593671581154467,1.0556287196199816,3.0716233718279087,6.743454835578776,-0.11311257863582758,-3.31682454302735,0.14513462834374222,2.495655549948095,-0.4063521127217815
0.7706952094053474,-2.535636229492092,0.8970924928933254,1.992668082434741,-0.5921102044397253,1.629000693508254,0.4963886573973541,1.0917104834519828,2.442233097054304,4.319628536698336
1.622966762814011,-1.5275142984382526,0.3660558673980225,0.5507382703362587,-2.9285459673553746,2.929510387453121,3.870294084389285,2.2435832302624403,-0.9558352479598365,3.8302223511224702
1.1926389988350228,2.723083859826657,1.0464974682572228,-0.8561235390150362,-0.4460858556814763,-1.0093803817318177,-3.2609803835493127,-0.21842533404269593,3.0002893795000007,5.47924009511726
0.1779042894929781,0.2644316758129358,0.8692470313969494,0.9835286087067108,4.031786211585901,-1.0389313770460202,-1.1964412075555861,-0.5980925996624795,3.69470227210018,3.792897593896061
-0.2608089931258275,0.775739365586957,-1.421227378918757,0.5447507351517447,-3.301154432450649,0.8871313939457592,-1.2680164232091191,0.4239280891953306,1.469376295383378,-0.18521232472281568
2.2387158820372504,-3.4168368449029436,0.7411216280534202,2.368434373808528,1.60029986256474,1.3488316630028179,-0.4309989718920013,0.6931306662460623,2.358578846839493,3.64787375280367
1.3468231425348423,-4.850065368119538,1.4647391517417592,2.090277057315888,6.33255868189009,1.3991447250270121,0.8123899258078774,1.3688049597139667,-3.4039402376573604,-8.041672160785275
-0.6386282273585409,-4.10634866705013,0.11151155639902235,1.552771326350178,4.884853424796753,3.180940441809173,2.5836902715350303,2.189966805526918,0.7223294074271669,5.2325369111447
1.5998603562130929,-8.184784138604977,0.7524553880272711,1.0951260264829585,-4.647493878383644,1.4855306000759396,4.291392817587268,1.41933841064105,8.210579225791179,13.213229559330996
0.9047033471464241,-2.7395597485176184,-0.11007175733968777,3.326354663020691,5.598152475217454,1.7659794041763117,3.2874105177274164,1.579409877895061,-0.11424742647622066,-3.049942854922934
-0.7217839682520437,1.6878349130927472,0.21044718025588524,3.3276397153559376,5.948057196898786,1.0607246286436014,-1.9756257803332438,-0.2631078037067738,-1.8652553062840544,-3.1688453425927747
1.4555504987758692,4.512997484099525,2.2199824171498093,0.5078596497500705,0.7407217087329595,-0.8900117483243604,-2.6816761414923462,0.06724046805906567,0.6131501820494223,4.40629728968802
2.4228017522356042,-4.508534797519129,2.988222966780115,1.1429515271075164,4.900591325531604,3.047717213085961,3.216292396174505,1.7004837224530553,2.5207923018560736,5.094013092887833
-0.4899923146134243,2.2722757027958513,0.3284183803260816,2.702870368204216,5.457925656264695,-0.4537502162825542,-0.6098189798076117,0.9187912874330366,-4.143657971340417,-2.322148010405626
-0.01772268051204884,-7.300882217675747,-0.3393052308420298,0.21770024799497056,-4.022507021766944,2.968543813260096,3.7533944261118743,0.3568256583809515,5.268902294713731,8.23619157198986
1.9064018609594795,2.506948634233801,1.021674452560476,0.05254615101614135,1.1890697696527877,-1.9299137570002012,0.6400568433845965,0.1678603031529749,1.1489896350836897,1.3091631310115746
0.8311517140428863,-1.4330024875372342,1.0556119326166058,2.3790970833528204,7.500867657592584,-0.532489455468701,3.517474086750227,0.30466724746945467,4.081144260318751,6.679610059868522
1.0982148080110048,-0.5842161664617753,0.8970679814522697,-0.36563273797263085,-0.9276277429564838,-0.7860249417878918,-0.1140376756090328,-0.5369376944677785,-1.2433707817003845,1.5469675242352297
3.395730233529851,-8.31117760004135,2.8908784598985635,2.5377424128865353,2.7099261256898908,3.5100585607862684,4.589113329722674,1.6901927166479263,2.513223871579724,1.3622324766514429
3.454090469644214,-8.82289132353593,1.2339999956129155,2.5862300176710216,3.489212243841015,4.052111550622574,2.262470847873546,2.326904773253572,5.14516237901562,4.3365899215839026
2.31861730147745,-5.071069634559821,3.520794893823253,3.0495216516805996,1.3005303986538967,1.183808650956502,4.2419329232890455,2.172348329073478,6.155031833910005,11.213247598627856
3.197875386612991,-7.767487751495067,2.3493668073015996,0.8735828190100425,-0.08273706721339824,3.330441677728538,6.179452145860259,2.355576357073643,7.610361922609989,12.380084012357486
1.780459634917158,-6.49325673408434,3.1100394763498285,0.3254475658164646,1.5388364051220593,0.058045270753009914,3.741749334257316,1.2040097103768543,-2.9514897141183565,0.031474851309788505
0.17066642482413297,-0.14452006359874806,-1.6083039012043736,1.555570893483837,1.4508473810897815,-0.15142791346598083,-0.6487150232542397,-0.4464498551476055,-3.8251913089458425,-9.216282023422796
0.17277049570667624,0.008561270307332718,-0.6964485629673132,2.6417889571568285,3.216607801375532,0.9181865741946065,1.6864854351842462,0.5263702463178682,0.6897899649279252,0.9598775024170572
2.3330495511493465,2.719533286035575,2.44186626270462,-0.713210330300853,1.0065464071977592,0.027556107184060097,0.6394943119941447,-0.5357616971050809,1.5528152883568647,2.6584082010955257
0.008840631408409294,-0.39108894122029536,0.014970900044571966,1.6597219359942796,2.4240674725674602,2.1620976238381457,-0.6575057031246906,0.871397826771431,1.5948387646613535,-0.28860662867048226
2.403217229739299,-5.624599917025206,-0.31243277306768363,0.1758702877038556,-3.820631427687079,2.423453270301314,3.5992276589904795,2.1890540105077743,5.394220203025214,9.475437165503426
1.679771169863142,0.7195684840620301,0.2751901053450069,0.7474953959862574,2.034071059115574,0.5264423519200081,-1.1867673041576001,-0.3926270321119455,0.8709987709233973,-0.13736575081039315
0.5823713163476623,-1.5936149457300002,0.20725607869327772,-0.3485010605586757,-2.1058735988227304,4.20158366463975,7.779718817206352,1.6442684293658743,1.426731370139235,2.604717814553162
0.42051978597974204,-1.2878676965047597,-1.7822933123856664,0.7922559817377632,-0.21648317626404634,2.688784412949925,0.8339567025265682,-0.09834133321888508,0.818450035215042,-0.7181688594500248
0.19554637192606616,-4.696651610545861,0.2865338876691167,2.6863009972658975,3.030624668794179,1.3649696433580685,2.484815241348137,1.1728238279124357,1.2838758793587044,3.0918032895188934
-0.5303771188376145,2.8154746544021325,-0.1537807932170468,-0.48207721160812533,-5.261173306005651,-0.2592954685589882,-0.6281713121413622,-0.8550990482254861,0.7092644324159703,-0.35517638270899365
2.2163861382389234,-6.00173272825885,1.289869747023292,3.1886780362764595,2.263446092543926,3.967769201272715,3.207449055348392,1.7169812870129377,5.834562484825988,9.505764397119385
1.0303480555494575,-2.2246719512426747,-0.4502249140309499,1.3328337146444955,4.527105347571471,-2.802146055259456,0.579580287870518,-0.651953575459712,2.373179509396777,1.4076019899629866
2.441096792584634,0.9715083822798365,3.569542299391683,-0.5798662783012714,-3.5015222343012935,0.2797235434247489,-0.6027889102457109,-1.6382366577247653,-2.0135114985719884,-0.6811819300559376
2.469540243971093,-3.525008535460271,1.7481084169481926,1.9999304214821079,1.3826922223976483,4.199901687827224,4.813778355219438,1.62473718197878,6.31273678618489,9.092892081623388
3.147415773572148,-0.46726896300992893,2.131685796580581,0.8128542449367009,4.395543533910894,0.4083685896733943,-0.9629898423858186,0.2590030725214648,1.9827888552857433,6.654797024527256
1.7363393780642276,2.585814469479493,1.651269767466966,2.9809119952450587,7.841010748712372,-1.5252271287774586,-4.065871306751453,0.22205139294157566,-4.518895710202199,-7.011724959493434
1.3893699550675778,-5.271998194259751,0.2058730071970717,0.9784655775390072,0.3521502471217368,2.778133521015697,3.5634661274246087,2.233203234152951,3.069889419894974,3.7096251553363535
2.3453019989758084,-1.5602512863779712,1.6958102500890495,0.31424599994959324,0.4252032776958601,1.0068877397565625,-0.6599731936940381,0.2273020219578485,1.8223748149287884,1.5151174028010448
-0.7419939251382809,-5.798898314306054,-1.4918313749906646,2.97628425383784,2.5663423690855933,3.697051327857142,3.47668454617279,1.5197745351697043,1.1174329701223633,1.30066741873168
1.7709526778686802,-6.807193129246294,1.612481313139242,1.4290781686530094,-0.8095464421760783,3.3529502186181954,3.3337189808057475,1.828498743576458,7.810187014081329,7.9022364267178595
0.7917720663803127,-1.683784212388057,2.39114219899564,1.446644898101383,0.3815648794778368,1.577644731667694,2.606309085651935,0.46836374023541627,3.3122133874492152,10.403167047184494
2.029991757348989,-9.065433794379954,-0.3296232345316431,-0.150292560797465,-1.7099892975004674,4.165453154526379,3.501082350649256,2.3875066605588664,4.85624185291177,10.070905515462222
1.0349301015863306,-3.3711510942750555,1.7698771842721346,2.2246554343237754,7.601257437636991,1.8525494424608306,4.249948077059503,2.0863178375220532,0.019327055650241398,5.57323747101279
3.222101854590232,-5.356391741793248,1.0949506923713463,2.2163277715045733,0.6522702015234416,1.7113854264221602,3.844424621213604,2.2521568602901856,6.113528401158066,10.522534242389872
2.2859388220176733,0.4903792061230689,2.648272304064387,-0.28139400039859586,-0.986803180182856,0.32777703223583887,-0.8185572216994894,-0.26986050360407104,-0.5086582307848699,-1.0490047866495031
0.374338068182404,-2.4040582127564916,-0.5999033987201193,1.0733067418864182,2.1201587039764482,0.21200836212821694,-0.9070395622037871,0.5329414501105665,-4.037907039415633,-2.6285753329219315
1.9250653419934505,-3.6204256845032305,2.600348300091303,1.3765654138737777,4.32558114101462,0.3220141195253685,0.8384521243567583,1.2313193408333851,0.8600389088861168,1.9411224278269856
2.067928157320553,-1.791552019286387,1.597061908589815,3.1109790675239832,4.459765803945559,1.941083029741041,1.083980609550907,0.9138376933645206,2.54164900727162,7.196288663225526
1.9534822913170222,-4.308833134806897,0.9593244658961969,-0.5949285148936085,-5.574643680482515,2.0286208320981673,1.87198868829923,2.4869858628158514,2.62327728956904,4.904191511730037
0.013175924733953348,-0.16624826232272794,-2.2172810022709566,2.807397853540324,2.0995595580125137,2.03238450442004,4.237225148473958,1.6308668280101062,-1.3119929603490585,1.4229942257292556
3.3508813244945825,-1.0841413034615222,3.312273877269366,2.8874732186456873,0.1342460157464429,2.6513293502066584,3.269377709465578,1.653551565391557,4.542138744856314,5.283983039202652
-0.6602325909480007,-4.325513895606866,-2.181636321592143,-0.38723453562144894,-4.355888982117165,-0.2087417613032423,0.1407623797644068,0.13070730214885068,4.766891818583023,9.696409133080138
0.7892319694442067,-2.400702760723731,2.358362936312694,1.9826692470539746,7.221399195376454,1.2621704308907506,-1.0529100913014324,0.82300548204243,-1.1086500287846752,-3.9841939327677083
1.0202146461489123,-5.225371024092598,1.0574245403800426,2.7052960874833443,2.6913354201206765,2.0263847833982274,0.386216223905147,1.06998922882719,5.410898534643319,9.190221432587615
1.7148911563722522,0.19404034336975448,0.006075938118966798,0.8537278886358257,3.277894583710766,-0.6751314646348447,-1.5338336052146604,-0.0029166900917937453,0.38554331458377494,-0.9005892631205913
1.022449731546939,-4.131072654342678,0.9240408618988581,1.0837914026766575,1.5989339481486564,3.0183479730498526,3.5831637073592164,1.6899659053724245,3.5840763602243992,4.686270116444558
1.188131671905008,-8.454672142436866,0.022566057592430494,0.973780568761125,-0.360290357376863,3.655833357640261,2.206121776967966,0.8421986703225616,5.940231542514374,9.854122017812115
-0.2723146907775813,-2.3598653551108297,-0.11095673725143648,1.457655358631245,4.489057944172366,0.28571569453319035,2.1590833563040026,1.204876262926976,0.33350759260745455,-0.806917609751342
1.613874920644224,-3.2314162816156116,0.15177556806900228,1.1284527865380212,-2.2020606991156724,0.650261116127603,2.2646606314577165,0.8299656478934816,-0.37620047292045905,-1.0559435086672406
0.9383090770868925,0.19106360229010833,1.7056863187559417,3.361892073449237,4.667419736038098,-0.4927572100465522,0.5505078051169868,-0.6914572081939635,-3.14935865994763,-2.7475076625679895
2.3943575537376045,-3.220839069187618,0.7237750638825218,1.5387476482432967,0.4841163656014271,0.42412663933481065,2.2996413310376873,1.6576432970178863,5.830955144416919,7.714386174769607
3.028012381613536,0.8844908845333418,2.342353089806445,-0.8312059059896206,-0.9279496657610928,-0.5942838076603496,-0.06310754251081398,-0.5437548727728421,0.1318645181900172,1.8974523536014989
3.076835055564291,0.2655364988143978,2.134506049190716,2.8212928975302565,0.9120786205677094,-1.010189356347324,-2.5124321862708454,-0.9379253257070156,-6.943641539822036,-7.5727513253332255
-0.4479713687083401,-4.8034291239947535,-2.0339457285768394,0.0013729327234965893,-2.2526188673376497,2.574532441754754,2.55015801088662,2.0635364669131495,6.838859941348659,10.343529493664889
1.841007482272912,-0.14040056357608427,0.5969813430901466,-0.15518311334278134,1.9166875674531842,1.1684480312526724,-0.7024631143468002,0.5242566357268814,-0.6509853143359966,-0.21434090880642748
1.2096790573296605,-2.9938848569111567,-0.6097335065870504,0.04260995558995151,1.4067556011742721,2.9259731089135492,3.506987311272313,0.6076601631650954,1.2813906819844512,-0.3453661651112681
0.28327966901061297,0.18484251870063298,-0.6980884333815086,-0.36258479332022475,-0.930502808335457,0.5542525362842456,2.437614729169204,1.0454466891723506,6.081363632593941,7.57310683366619
-0.33869227751104636,-7.366168506420195,-1.3981122592629145,3.3344014125923778,4.989808079759188,4.83671763274501,3.3612079722712394,1.9281582852926111,7.725004086373246,16.721929637515455
3.2519692188435023,-3.5386101253788786,3.605235422274248,1.5504199753196484,2.1828693636097465,2.7651649763732054,2.364315869462206,1.390099186694486,4.918346630893305,8.719872478589162
2.725637891633328,-4.1948005470162695,1.7107329602757582,-0.12762252853389033,-0.8131710388807212,2.304980742205581,3.9406814299763218,1.465384742251033,3.204887469135585,2.3811859634190626
-0.7619503525779883,-3.885704398535507,-1.1538327562227317,-0.15274984593587182,-1.9499315554740542,3.1940797880548857,3.4681164744664827,0.6649268849486262,3.0847587160622463,4.148780847621637
2.4809165632290195,-8.516389161413564,0.49623841429317217,-0.3859270319362478,2.560074849738392,4.276031763465035,6.65886305019085,2.455748981004865,2.4719447362699865,1.4623905732028788
3.2941291706336386,-3.9575323758843384,3.7024009454736087,-0.6468262884504667,-3.941365217992416,1.4896654221123402,3.9753322715860615,0.5879133401714992,4.718885524924131,7.641417807591082
0.7953843062024615,-3.282329252551069,0.04925693065609127,2.9101782298729915,4.247996514864509,3.029026915979882,3.687864493945353,1.2299532649804814,4.363896808075767,4.748065092521383
3.145442032495586,-6.380261736224059,2.80374052545502,0.6630691489038707,-1.5030805451215326,2.4236881187782506,1.168165869804422,1.8564458131667543,2.5022259166618603,4.647884807484705
-0.29267811934022003,-1.1669742385916342,-0.25355750709436803,0.4692016108298185,-2.906912862033402,2.654748831172416,1.2132922148766765,0.8771656104566737,2.2911740132452745,4.65246008492488
-0.006391782840652227,-8.450036322128952,-0.30049920348093656,-0.18128192696955692,-3.233968948245289,1.6174589028465545,5.104887863327612,1.770246040268722,1.699836812005838,6.232316353454951
2.5775025057806062,-0.20551757078423108,2.584295231341888,1.322810688353091,-0.8791833580605051,2.2327709882264903,2.5976748885138767,2.3425227983927583,4.7918527488083305,4.8680865010269
3.3058567260981295,-1.3698572838543162,2.4369935709503125,0.7737514705994952,0.11286707800204826,2.2931169347778084,-2.0580059219483013,1.0245384331453995,1.193671978153429,6.13810865424342
2.666240414477929,-4.342583228877352,3.2453649144642864,-0.6747030555297848,-4.323250332282775,0.7048965860437086,3.3689883852586404,0.927226385643437,1.6896722589805147,0.9564438092854602
-0.5175636635127092,0.9711340801267986,-0.5789339377372538,1.6004037922885828,2.4803097977217172,-1.6240947971654376,-2.585987343814467,1.250746832746482,3.8889032821232385,9.102417608955687
3.350155910328218,-1.4722916459637847,3.1313006903751077,1.40460940313988,1.0377538809074096,2.962120594666387,3.694073313303432,1.9471401545022349,0.8024085646784497,3.283146842530379
0.07236638266038908,-4.323310174525037,-1.067716311765992,1.4954366368488063,-0.01354933439771977,2.7860749539043423,4.75028992918886,0.7162247369414982,0.49662851105519795,2.367747141456036
2.0568854485982913,1.6191163000752644,1.5961321724500295,-0.3160134156128237,-0.6869017209544953,-0.09987346273389613,-1.3690553058590196,-0.5777719453130375,-2.0718260808990494,-2.888487899328207
2.5387309410724708,-7.348453341768223,0.4181705791134245,1.6632594700504613,-3.6536151275308524,2.5608149074118463,4.499531416039607,1.7668596901284723,6.615745151517615,9.12875215303809
3.3256793095597876,-7.610815073138852,1.650730416542098,2.699479252594388,2.2204333978552753,4.235641849444245,3.7149947098434186,1.2461315472932613,2.5749087859925712,4.630233609964187
3.415268517254548,-0.252958563150294,1.3052667580020618,0.8079952420116083,2.8928995628234695,2.8568572345440173,4.283052424185883,2.9693688661341486,6.4580621870399,9.053928336606113
-0.7171571855638719,-3.9771660618835267,-1.0701421572643084,0.08415506135296824,-3.6925321009128926,1.947320474194671,3.037275263513497,3.5362587417990756,7.467093199181186,12.84848871346664
2.8220805730994543,-8.61915960045894,0.49758867238527316,0.10105207412533868,-4.532187723201822,2.7291927339868542,4.492509509023229,2.0339146931258187,2.6509538524675644,2.3135620188245856
0.09484870700909287,-0.8066558058514948,0.36995677872590155,2.6376966153073784,6.579889941050985,2.5048255170265437,3.9039166494288016,0.31115447020774056,-0.2853717741075573,1.337058074990847
2.5245182353251834,-4.284697290642484,2.1807086831591382,2.2169421689292337,2.4346470664225768,0.7431692322424461,4.426121369234572,1.4909432832857046,1.7990026631874425,5.401383721643788
0.0015542248547664173,2.7486592765344304,-1.0673863763628222,0.09120693262362933,-2.3990889102500548,-0.01714378015996676,0.4078279174122151,0.12329321381202124,1.9146386315706796,2.251909991551538
0.46076242573772563,-4.273701621229764,-0.7545899877105745,1.5223976675481472,1.5411168634933148,3.0759470766760995,3.194937053265927,2.0494973702850086,6.433384199336794,9.115612024320747
3.1936656533830456,-5.041702373689936,1.023884709287839,-0.39006605558660856,-3.9442101141103487,1.3967866725815465,2.347019876746677,0.7403781513905534,3.9669187358107463,5.2347007716757705
-0.48845863301594716,1.1515383245995554,0.6572266673252709,2.006438211654814,5.2946432787507405,-1.2676185416647185,-2.864742413507742,-0.4550455770690398,-3.7065863643391257,-3.1860894320218156
0.3939467428298564,-2.2877398700733877,0.585833177525863,-0.37593643952241906,-3.4253264807145305,1.297770610149488,0.6125694985373117,0.6877409372374143,2.735912010689965,2.064950562201337
-0.7449188895048293,-1.4010034845905661,-1.3070871184170325,-0.032154663237973224,1.008238881139338,0.36380704878122927,0.41369674293659486,0.4342370988900095,-0.6042472271289838,1.3586632729771584
2.1332928504402147,-0.8641935940928246,1.8438778865619434,2.2306396482823203,3.5684930064854514,0.22658926980060068,3.6433112438464947,1.3542125265833607,0.6233915505307284,0.33160300260528774
2.1831383093587875,-1.0189653296029475,2.514595885877265,0.43154506885222843,1.3993224323762028,2.39329973171812,-0.17310478905342738,0.8138241991309593,1.7156304278829484,1.8485175010665755
1.0040055701764055,-4.18319539466701,0.1077042404910969,2.53542342105162,0.5754510624980376,1.7097562740256103,1.8304242532988706,1.7240822115115497,3.575803954079886,7.6922228791433165
1.346828375646333,-4.240776612907185,0.2836360990699881,0.26679005093724073,1.291051700811967,2.3546183047746383,3.8764720226111953,-0.037712350453029515,-0.6118238758075516,-2.115831884200108
2.3269563017042376,-2.205307489376897,0.8550348371154465,0.40170314090664405,-3.0591046342725585,0.8831260389447502,2.5088767946539545,0.33895785394057276,7.025022570675302,11.378473945431912
1.5855304362417932,-5.241629525172129,0.4384791439978648,0.4873430787639168,-0.6720661039767204,1.9596609458276781,3.896893340872934,1.376632315714548,4.845398256317969,7.8318644893989555
-0.4908456783973857,0.6188090439545676,-0.26630019036964747,2.85823360078226,3.512468327698905,0.4378118196168115,-1.5325710092329814,-0.7365222301973936,-1.7807931307302969,-2.497627191637349
1.550362836643652,2.0809214135638174,1.0594935490676054,-0.3349384610949102,-3.718583710693717,-0.5313539343637348,-0.925869011239732,0.2281733154472476,-1.3765394640775734,1.0585725369458643
-0.9079328761116896,-6.658216177854395,-0.4376366586266916,-0.7995075247370128,-2.820046626255845,3.4139983975453885,4.862304223387172,0.5509308246251665,5.173475553448832,9.316098166123979
0.3729618204105678,1.258225212516365,0.6628425831140259,1.3353427072533104,3.390686010828672,-0.02217491736176269,2.4193037349629267,0.13306338872098455,0.13615121096091842,-2.363320621061746
-0.7097500678429809,-2.06938070837814,-1.8723441214662486,1.3203521069713076,-0.7331594332875258,5.2092273654944234,1.0672592356977548,1.9907258971951474,3.7815461671691804,10.101651029279493
0.9596433896992635,0.6158312164489219,1.4631710762481127,1.5390716223022736,1.0933199158919413,-0.47722311781162574,0.08657574804706372,0.07820929627935388,3.9878450398359355,3.3965097880011457
1.2557491514426102,-7.666742974919397,0.6679210942651621,1.3145098847060956,-1.2113275405623463,2.3783445984198277,1.714161638609689,1.7425037434168797,5.71875720884432,11.228867793326351
3.126450198719011,0.1516577268963773,0.2501763552689011,1.7528587723340472,1.4099491643428697,-1.5037278140380232,1.3185341825201577,0.5673099999907809,-5.111775863725384,-7.63494653518786
2.8915526219117065,-0.620088073443428,1.5969410921759497,-0.7353643779730283,1.7683651975124566,1.445527733880271,2.8811934624554025,0.03189132123700771,-0.7937451858508834,-4.516041234836494
0.642535034875175,-4.6901344951785005,0.9779963709480424,3.4191089886633135,9.30432261292277,2.082675046684874,2.7087729286290214,1.2379222321052417,-2.3488773845591497,-4.224214873753275
-0.5672075667619153,-3.0208153016787653,-0.38740945549452366,-0.5908451227915724,-4.294096751550464,4.56835542585865,3.3710717129524155,2.5795095084471207,4.109066549692387,8.953387084357297
1.3879424734652037,-1.1728051931271222,0.8227037995842321,1.561079403693784,5.817987977669946,0.36951935314249595,3.085943258366688,2.1332885109651247,-0.2570429204020349,1.353588951678416
3.4455099939038956,-4.6662757878010055,2.3538007935324154,-0.2892612717338734,-1.6995449111724752,2.955451967731785,3.601433675661965,1.3516053339595433,4.193710295725992,3.791373759578849
2.3784374227816625,0.2779416210147473,1.5447586374084894,-0.4970157137064226,-0.44565330797889147,-0.31327249454611195,0.1815075680353288,-2.3274642239974304,-1.8248257003091446,-3.6979830202489694
1.5576755559245363,-2.4082492715719406,-0.19615618961665726,1.7384444527963212,3.424378387409881,0.6509725589188685,2.289149377246349,-0.28892191118231403,1.307605092846433,3.4959913394557716
0.6632126272097203,-4.176990639864956,-1.6288296587245097,1.452142394329159,3.0234366487697613,-0.6508188259956726,2.493304241560516,0.7452241049446374,-1.9945124192513988,-2.1602035185905706
2.079265185318511,1.4081909816446447,0.7696781429009116,2.407867249535525,0.11629610356743103,-0.49853915514143576,2.446356882910196,0.8653979906044906,1.6518461030713927,2.9729834536877484
3.3475096669243207,-5.226494143018073,1.053670553302184,0.014970507727505966,-1.2424549462478454,2.663715463306777,2.5904973974605308,1.7787653274606057,6.706486544423836,13.353994985865373
0.7902143482545545,-4.725152896849279,-1.7048545489323463,-0.10739169227002121,-5.548109263429141,0.41681955336108745,2.4757289563922438,1.8802614313296238,4.371830978789759,5.376015449818228
-0.260051405381281,-4.982177421238899,-0.7197963413818526,2.8015949704544045,3.982721480608766,3.4620199411219805,3.509307603908695,0.8188239511295227,6.0460114876427165,8.759374926509736
2.7683457579400637,-5.987129885831672,1.504102548189106,3.271464347570843,3.3353283743169793,2.2957925232381484,2.279829786822253,2.3448083535386623,4.236087618116477,4.647439832832223
3.016876777630938,-3.563169975372645,2.068142899293098,2.7248110253431395,0.603968494914342,2.612490423652462,1.1257269123368618,2.6494785895937123,0.8865694644671782,-0.09333771906412447
-0.8664774783978854,-4.635922228983958,-1.3030000368319274,-0.3371091961046224,-2.8553458490250074,2.2740634878415165,3.806725712881337,0.10052277723023344,6.026829288099958,11.065012803355462
0.20915090380230095,-0.519599380809721,0.8896066952071074,2.779932516387913,5.405348300602657,-0.7854316955947962,2.36444822016117,-0.26365783177445057,2.3740365212441272,4.168140357663912
2.179963202156625,0.9522814547502467,3.352591366853527,2.7695268991433815,4.884005443924303,0.9934759444634559,1.8083759362611744,1.0346851201052996,-0.4762693013023139,-2.0850080616386735
0.7936275700180795,-2.9774970342811593,0.4124849979515046,2.4620665493516776,2.10102640120518,2.3767656955265286,1.5378748767172183,0.630168403714248,0.8142949135623823,-0.9292950591924224
3.3774323219349807,-4.4116549407086065,2.2645283576280226,-0.957756944114989,-4.557330744949453,4.211265888947869,1.3291839869903088,2.2549120310060444,0.4140649971670056,-0.15471764971538038
1.3957852891746692,-6.318345681844839,0.03834918689396194,-0.23696979373306926,-1.137116355900502,4.312754524342645,4.9838555199532735,2.0338202611023255,5.2794896388340815,4.660623443757861
0.7376269665726205,-2.324779849572439,0.9725274007738096,1.1134494617467134,-0.8990670448566951,1.79999946182038,1.4612014813074976,0.435490202909141,2.07646625905913,5.434562412960456
0.20653823951779682,-4.939869207221325,-0.42003469429184886,-0.457651410021498,-4.663052412087165,2.504925108888985,2.6200041034287604,0.546679988517413,3.201679603783874,6.167169226861541
1.2614009278769664,-2.513880052134472,0.9352738642683531,2.254628321199883,4.218903883257611,0.055114036676715106,3.024350133792043,0.8263253377367253,0.5339893264990205,1.2680240838094796
0.3821625697142148,-8.053473970460466,-0.40567660808461437,1.4940918697831682,0.9630787814977442,4.054099552109879,5.461800358739972,1.744008591794792,8.88414793011307,13.938110096352192
0.7833191378501723,1.97467911492019,1.1314007149811984,-0.9633827914418633,-2.169469857156121,-0.9192407299006977,1.9937999371471984,-1.0130524951935778,3.882201079268649,7.698750809149309
-0.9921724734976991,-2.0473713107980513,-3.1574791063160497,1.6826004442455615,0.23647880424346546,1.1333767855238297,3.532541408849718,0.6984448792820535,3.1894173405672355,2.570096442026264
2.9626450905829635,-1.690295557085093,2.864494613608836,2.6039107734012052,4.310389759138377,-0.4840200184780817,-2.0272377554017735,-1.2404202460594156,2.813927371410979,8.776051388899958
0.09674562438954015,-2.5506853823096503,-0.9851773156862553,-0.8061504000688733,-1.2248463971225876,0.7422556839217479,0.9413946126332827,0.9172758912082497,2.9840703715810966,1.4989456619545074
-0.6357715845274301,-2.479991785938417,-1.3985139420890862,2.2678881818774865,1.676225005017702,1.6134975721409013,1.1461556273087867,1.7406138651761809,3.9484072501069116,3.9383642352704022
0.5415782692831907,-5.357397034351681,1.0676592911536318,-0.29437314215202204,-0.4662293484828528,2.0899236928703564,4.299580954075164,0.44029758661132035,6.334700101686584,10.116019972474442
1.1914363314738217,-1.308589414893471,1.8978545387697816,-0.1483441123886593,-0.10835011905509495,1.4683340689122404,0.6991404946895386,0.9920323465087795,4.004098576281894,9.271781977239595
3.284322383665855,-2.2060343041527157,3.1565975631940324,2.670762852828948,4.227740157866227,-1.2075885584116743,-0.15542593580733477,0.042058010592864806,0.2575763973115009,-1.9594171166984826
0.2052968367415946,-2.157468417622824,-0.2829372903575967,-0.9454352763876114,-3.0764224559312763,1.49008718179262,1.4298248385709718,1.7278381782198429,3.891534888237208,4.221318374582796
2.6526541877385874,-0.8990797729513142,2.4961599095540903,0.6556569018884992,0.9244388079544803,1.2194326755775253,0.8918023620005036,0.8883733028862265,9.172399692192904,10.244010843747947
2.028000602034847,-6.613995954281675,1.4217193318087313,-0.82813899560416,-4.734598957502756,3.3383809632491377,5.245479049770782,1.346304064333721,4.035182228873688,4.797106937786841
0.7501580058101778,-1.8021705436642164,-0.026339543379700014,1.9023382203346033,3.536679026380653,0.7707053148074452,2.4992288367058886,1.3944276804546931,-0.780313042022335,-2.454765141276991
1.8143489009255611,-1.8826060815790329,1.6438796214785336,-0.6108490242146203,-3.350373418704729,1.5372263404295452,-1.0634322101003684,0.8654670675139329,5.37321423983512,4.95672518557635
2.49125998021876,-0.5409433742771118,1.6947005043619814,0.5462317710457298,3.3497733467618085,0.35647979243257133,-0.3710433810226467,-0.559880355941122,-0.9445304862509567,2.6752300466175103
1.9353899438617894,-6.4609126207376955,2.341188370478796,3.1219086604457083,4.343851434786089,0.6941261188573329,3.1309841190164374,2.0422481816788283,3.814355391009706,9.157530239074875
-0.9215803371954412,-1.4673471333399917,-1.0190792738684995,1.4243371996983707,1.595732477873523,0.729815137461469,0.3384119633921629,-0.17072795117279202,4.731762463890709,7.669453026845501
1.3397926796220356,-2.9513466365988528,1.85909250785506,1.564166897313068,4.156238834648115,-0.20810887229971095,0.4209116108035388,-0.05998480284603256,0.008964591779605846,-3.33194496286957
-0.847148702923189,1.4747162674179657,0.6908664606322781,0.6046383268015119,3.7468372953551223,-0.8849471994449203,0.21198925127235335,-0.1231439567093914,-1.8430513096855416,-4.102687240787747
1.402879323671998,-5.518542243405434,1.124164669231035,-0.30747796991810294,-0.9469173489816949,3.5614371075663334,0.3187128565257699,1.66663429240763,8.078484502521976,16.835737152899057
2.8211047480556632,-3.002205150400849,3.0748423054742378,0.8656037386998392,0.4069129810901353,1.0038393710222657,3.287052822622162,0.4552533299863786,4.351787667457307,5.417582572708046
2.88295983115196,0.442633122942913,2.9799347258230218,3.140940246445533,10.85344897443876,-2.2197967055461567,-0.28078476271821873,-0.8644378974953926,-6.027744367815166,-12.77945763292237
-0.7082701268364158,-0.8981170025754374,-1.8471946264936112,0.5874585811584734,-0.676714054777193,1.0437721065893615,3.6462375109035494,0.8200686919279204,-1.2269668898514752,2.3278090078006937
2.3825123988920556,-7.465258814331441,0.8684857084186648,-0.8886733608055352,-3.760177201065635,1.5418890666060736,3.4162762260090873,2.2377701644791506,4.845266428317301,7.44625484892571
2.062321928001098,4.627639513962681,0.531776841649708,1.3755627757191915,3.813801033918472,-0.11766610667708144,1.1182502249118542,0.12677994521551844,-2.503049665369282,-0.0394459584413006
-0.5149036243285698,-6.101097463492287,-0.6002321589898957,2.247040164627521,-0.09043229344407644,2.494691990286123,4.636642380475085,1.5465525291711695,6.737284644532899,15.973707219856044
0.9713260325831286,-4.639967937803988,0.5810199980289471,2.056884372453001,4.873618184388974,-0.968456044564,0.5747008453368413,1.0266189945525785,-0.3102211441505853,1.6735622455590522
1.000033175448209,-7.622862673829612,-0.33545932265380507,-0.7981712410810954,-5.707510112827681,3.3531882140002285,3.0711533713169854,0.2554876007226608,0.07344955169189804,2.6522516826455926
2.623236782527895,-3.024470395237079,2.230979145909093,3.348459989580534,5.257914581773874,0.8018019549503257,0.3558253729477532,-0.0493557552523083,-1.2150538678095948,-0.059573412890303594
2.9328707144270734,-4.489191395460899,2.5467232049449935,0.25056407862186925,0.5677649627277961,1.4811476593992194,3.795785096310984,1.2453313406006088,-0.5199512165711819,-1.3520542450524127
-0.7508819972472003,2.652976014073785,-0.5437773705829272,0.6369922453611256,0.9973721396238445,1.0296640611892738,0.5154966132111813,0.8621323878969367,6.9855315588349765,3.5240324309842554
