x1,x2,x3,x4,x5,y1,y2,y3,y4,y5
-3.485266263778582,0.8136755374912088,2.811572267391361,2.8753051224179944,-1.6006466711252934,-0.8340899015008884,0.43015036934802375,-1.924566747889529,-0.9898941821465508,0.13118561302097975
1.1184122278504691,0.12517899941188773,1.1479051140768015,-0.336186136518103,1.5476668973032586,0.6558838752723765,-1.676441106929969,1.340087251234002,-0.7477117808024507,-0.6250483839782638
-0.9579451740124284,0.7995813512697089,1.8847824527405446,2.0096334223584735,1.5587627589258515,0.3067746703342012,-1.3718063187081302,0.018605099523980817,2.9361661511669315,4.308869086476084
3.524136605197743,-0.43317029749300806,0.9191493805607573,0.14416563078209152,0.34330759441476943,0.4775869985229074,0.3223997849166446,1.0568634436390303,-0.6396853381925237,-0.11510266414833509
2.2682020762020403,-0.3787367041191519,-0.010319021788100957,0.8098016150439378,-1.01374395659421,-0.3717014057993813,0.7569603665451207,-0.37657899804003486,-0.7406001255528039,0.13458115606851964
-3.215531944459152,1.4316109382271165,3.3893466990965635,2.8938431913843217,1.8279292725146272,-1.7308128413396253,0.5773886484008547,-3.147339040702203,1.3518422618353283,2.8737167919167694
-4.339445702210695,-0.6933507117223451,2.5409768442842595,2.5222056594520916,1.0487467664611099,-1.1481878356613264,0.8252638974346549,-2.675407652588736,1.4217917698358964,0.9063085203956285
-2.0350862686179196,-0.4782287883793191,0.6404602702546884,1.4257735252983532,-1.2965080140806222,0.7540925310969424,-2.714350615713932,-1.785159610144249,2.2311841296997796,0.36233938586308334
2.648688050906151,0.3526484468249645,0.8868549929626175,0.13549123944417832,1.1987000998478294,0.538017070187883,-1.526497635983224,1.1701700992546902,0.43647465077903436,0.6632085079962594
-3.8342154990978004,0.6859980579754505,3.436950883928369,2.0200604027587463,-1.099196295206751,-1.3184487964790028,-0.24454480038368542,-0.6556124875228013,2.205729400882079,1.5403785369171084
-1.231451561003217,0.5369396953067859,-0.4854317540946653,-0.7092509487616245,1.2919779252587407,-0.20053053696279477,1.2906558674810034,-0.7903617781888463,0.036278066727605605,0.8158673563111067
-0.41738494076064125,0.4859927722242609,-0.4489821376827523,-0.2806884228650372,0.7325896426401982,-1.7686661930962868,-1.661375291303947,0.5373660599272105,2.873389026612981,-0.7155015415643233
-10.65985437059831,1.4074187608461877,2.8118208863972516,3.3363896938309954,1.4674676742784325,2.365942298103079,-0.799441541288955,-2.5246534392588735,5.120479139947228,5.187299397206721
-2.8148044762021205,0.2159812515235128,1.3667555732891934,1.712633725956592,1.7708564458439535,0.9428157671359463,-2.245189577695616,0.5194205905752216,0.4253310926877592,-0.5271523045598937
-5.26752194621757,1.7161268893873955,3.135642986341181,1.9989092259862757,1.8920134861703288,-0.9707217803121635,0.43284275111767556,-1.399092165693034,2.392219863804282,1.2351452873497584
3.4601635662024117,-0.27404852259525553,-0.7687886975212576,0.416103966717626,-1.337208435182782,0.6261214136161732,-1.1467599510097948,-0.6068238992402908,-1.4530027744250638,-1.012388573097793
-0.9961980317564062,-0.7026446049607868,3.060117883566872,1.4518437361367553,-1.026441634573683,2.27414243856195,-1.9267951835790589,1.0256076649976078,-1.081539882273658,0.6777251550964669
5.028294021901556,0.24721224756469645,-0.6053991020957276,-1.9076467714655843,0.3499122149416917,0.3754521720585907,-2.7121962731241918,1.049277104518099,-1.3855337956002363,-0.9642764075442981
-3.080187490752268,-0.025310212455726684,1.7110752928746398,0.38105327805952705,-1.3703959774078323,0.7764747974519816,1.2424052909348517,-1.0229033507000371,-2.0386346775348425,3.3904413226746697
1.5964338543757794,0.8856113401799824,2.2388719200991014,2.0740106261325595,1.5545463967448572,-0.9565922094935625,0.03355978228721265,-0.7960541922880179,0.22964595241697225,1.0767274421563549
5.749479732826306,0.14266613152932367,0.7679024866433641,0.8706428883579889,0.4225322428973975,-0.1616609354587753,-0.34175005411664283,-0.08475528409162661,-1.6733211423211922,-0.1410451301699718
-3.0628531294469554,-0.6601934946239599,0.691992639280891,0.15154619891164933,-0.6678093212938937,0.7293086340530677,-0.07075404449146319,-0.7897988957813494,0.3345114007869804,-1.0718073831557924
1.385735499652914,0.5642614369080985,1.5783532470349582,1.2929135661701205,0.4687513384795803,-0.6799690090656831,0.6916632589364656,-1.2401032765158906,2.462291764998998,1.3704794491765289
-0.6610742728937594,-0.492777440807697,0.22053352556466788,0.30651894534441765,-1.9374091401050406,-0.3442316080517746,-0.3522390179510454,0.8311784466604465,-0.13771813231962396,1.2909755384851118
-2.3008779937252273,1.1730850793143761,1.793342368581826,1.8318301857251793,2.581708977119337,0.4299615049878386,0.6020386293881608,-3.16397311585544,1.8446850715232463,0.82858196423604
-1.6578824432921389,0.4918545709509291,3.084514428372433,2.9410030392001194,0.023261423852976255,-0.4820408477157844,0.09024460774816719,0.5003918556421034,0.5617052493433824,2.925855793637244
-3.61054310575948,0.5432339440143243,0.4104027743112333,0.08802341027761335,0.2843072544311892,1.1505074034861518,-2.207704286052882,-0.18939271826559223,0.616705460663731,-0.2371169334832914
4.734789703677018,-0.17529692104672528,-0.8487544437715205,-1.989906320405889,0.09543227096049108,1.2461893119141931,-0.6850305466962294,1.4665714950698872,0.9888963972687713,-1.053267641446114
-6.971825316457568,-0.27445553501088826,2.87638397187572,2.4516327209424102,-0.6806529411718159,-0.3842442385409074,-0.8550851306824215,-1.6551497533160915,0.48878574370314426,1.172862946884681
4.406208151225365,-0.2728062664788278,-0.06998886582625141,-0.30333547207644135,-0.20785880374552854,1.356081145267174,-0.0539328967261198,-0.9452751222134481,-2.763962030552076,-1.9290770417382084
-1.1919996132564774,1.3414342799313508,-0.5516192424948816,0.7037922815021816,2.4622857635131346,-2.0545212802372657,4.1657763248210555,-2.346916498959011,1.437138604128459,1.747828576805594
-1.2641621534694643,0.15385154825871153,1.3536984663429203,1.972198062812367,0.5527392987268814,-1.7391636050125967,1.303969953822882,-1.1720271867128562,1.970254003139318,0.9829703000209153
-5.046324748402498,1.1669251966265504,2.284559410521152,2.3505362102888134,0.3575465277441469,-2.5407166074740353,1.8340378668119806,-2.3976160238415747,3.1913352342863726,0.1628954276287514
3.2636495894934994,-0.82863683092513,-0.18285651971041228,-1.5741826255311702,-2.7845068244253866,-0.06449034526819508,0.41718263716618004,1.3385866421690835,-2.9218302530229536,-0.388485275511813
0.8253453793402356,0.007723527665862623,2.13769162162207,2.4141589228615286,-0.27839639674886435,-0.1309448885338792,1.4430798362143464,-1.7484017948862063,2.0616081584532586,2.6133142736208623
2.8708303447491406,-0.4628941809899192,0.906198385950248,1.3660090674037482,-1.065269517219476,0.00640942675382844,1.664646745277749,1.0931945168890618,0.5245772661543872,-0.9245739790904746
1.3530902336477095,-1.3213778679773138,-0.7037551337905354,-1.908933777474213,-2.6522088296448456,0.4595146727379451,-0.14516594538228544,-0.41760287889319603,0.7168803463425604,-0.9003641847208611
-1.1962684838109656,1.1904427956137,1.5930806814528697,1.9441518175307981,1.4091096493093642,-1.0183907433142358,1.1619526113097072,-1.8289506522078507,0.8793608578701987,-0.19148873381798714
-2.8762571575068696,0.2914246217510417,0.7931981894132616,0.5191962665701644,-0.7875122184855274,1.2274088171395583,1.380275770870935,-1.4098852147279635,0.16648133358092676,1.0046189359996651
0.019577101290809636,1.00407494162543,1.1069594518246721,1.690279801333005,0.622397541950737,-2.979660990164768,0.40394540503131915,-1.6479115657445693,3.6218485918590746,4.234497050432497
0.7451049791240079,-0.2909210955030296,0.13702474299941114,0.15665577996124472,-0.2320546251220446,0.840384872437306,-1.2485606632938857,0.802149265922499,1.1069590896422998,-0.8247587937749951
-3.3753851602877964,0.5132418359654822,-0.1970730598452528,-0.5490815557377984,0.30147470041790075,0.6696652498774821,-1.2095522112485355,1.0078160125044215,0.32903139962323386,-1.2444136494866564
-2.8487030951582493,1.055666266704166,2.5459857898049605,1.9154736129094212,0.878956227886595,-1.534369078627458,3.4234957471551444,-2.6472967512395624,1.927078837235354,-0.2533714993787666
3.6383986232402328,-0.5829458936756242,0.03061300092915764,-0.48322027099533466,-0.8524101748340346,-0.09862618183214861,0.9530920606978336,0.6845046431614972,-1.3506115932840626,-2.657133843596341
-0.709620172885675,-0.871185482816319,-0.840705997128375,0.13152999981738586,-2.1038102374290952,-0.5948442784171595,0.641430933808342,0.749727565413264,0.21645879745674668,-1.4301584463169876
-4.938702629270164,0.5855431467712072,2.4747738630432137,1.5201553999500839,-0.375898090943629,0.7031726511121845,0.33878166789776376,0.27282996316791785,2.335795127204941,-0.13488309673520832
0.6337744480208337,-0.525676542432107,0.2659870238223421,0.9094927362143844,1.715760507777368,-1.7069686923766132,0.19215854268829471,-0.0783854435411534,0.354167712776935,1.2171146004237712
-4.361208056079689,0.5980425896403905,2.2504271531638507,2.1665172609847962,0.31775002322081786,-0.7697356988042506,0.9599739507163134,-0.00867510202811439,2.4213549850384872,-0.9228635874652723
-0.0010628067338978283,0.2019194102057901,0.6933327623207992,-0.8082205665238358,-1.6993530647752684,1.006201413852544,-1.0649196763550832,2.333204891774073,-1.820899634115848,-1.3767949360527665
0.20458764823220046,0.25594238936802916,2.084902035248532,1.3988707323793803,1.182320072915858,0.6593501067373808,-2.8341355938583983,-0.14682090263011627,1.6855570003317706,-0.13214220290396528
-5.49911596002725,0.6005330726472001,3.0663555328706176,3.1356408255054697,1.7272851606861475,-1.7635241383852396,0.18699265268099832,-0.7740852877033488,2.681234872295935,1.8090180101050795
-6.241401598979098,0.22777141774891424,1.8672970027447202,2.299508860967398,0.3324192135226824,-0.13306653242980127,2.7735351644902244,-1.071507852846405,-1.0876662304109816,1.0594219345356166
-2.0364683313463545,0.5841979214386824,2.0106143966912677,2.1738707590679143,0.9371427065038698,0.40650960769143807,0.4070187972858977,-0.17249353079691532,1.9258781182241946,1.43774717767096
-3.8749728636898544,0.31197943135698414,3.2951332960232183,2.7122846026616156,1.1182464636376261,-0.3863311967884486,-1.066755001808473,-2.137029116969619,0.6048257650567168,0.06805911564057313
-2.804430282285366,0.47702669737313597,0.9629169247653087,1.1084096360958948,0.2794258213880509,-0.4867454082285998,1.071224972588144,-1.0641792059594135,2.7178640884898626,0.44370566273464124
-5.271436347102154,0.5045362031537093,1.2782881669942352,1.9862108853403635,2.025150509692547,-0.17025967018022875,1.411988283799521,-0.13570427287233744,2.1532934796895815,0.47985593013597816
0.18747019933828754,-0.28253266000350613,0.10924199244321464,1.2202648841877033,1.0959887394826684,-1.2087464040311553,1.5790632910656752,-0.8486487467326502,1.787622430015509,-0.89382698604052
-2.753811692283205,1.2808269019963472,-0.0681228479241951,1.2140490177357448,1.3980554877820444,-0.9167714951747896,0.6637847788392373,-1.6630764380780612,0.38884298339900353,1.9980744578712724
-2.8336569610225526,0.24406167992347244,-0.52560407812679,0.4728818665752248,1.7359216000997424,-0.48783657771160716,1.1946264590511775,-0.5175672973474142,-0.17025897947232074,2.156492173977653
-2.910580265488904,-0.4190993505048516,-0.7094655071481256,-0.6400086055891995,-0.349736588890816,2.1508325771582424,-1.4655803020859601,1.0828793535553218,-1.2382736710160422,-0.9936895836395713
-4.850941002294732,0.49849451224449753,1.208968305400803,3.4636420951484213,0.2596807728443393,-1.1786498142315083,2.254510276430517,0.5640253666810962,-0.29703292162914635,1.9633472253175357
-0.4455206246255437,-0.2095277723485188,-0.6130028132012153,0.37989545646842704,-1.7518639810688748,1.4520520879637568,-0.29133842122533543,-1.462705904925164,0.5757214499406482,-1.4047626302476595
-1.8573729836848991,0.17683661846809873,2.8067137642144586,2.1227400636915448,-0.48834875890073987,-1.6897107497963022,0.6730850784328943,-1.8672127045595084,1.4501339317801631,3.2241210317746063
-2.605161909433293,1.2047414217793262,2.9393191407640673,3.814054358264197,2.1474749176673957,3.2463791918686913,-1.3129381927749755,-1.9931135261578863,-0.32142425564327715,3.394353320669193
3.8219289443167326,-1.2602586435209306,-0.5865341318901796,-0.4733429751987481,-0.004051565354806368,1.1178436737598418,-1.4439212505764476,1.1458633559582696,0.8387182022528792,-0.6572211855679053
-3.577753455305045,0.13436203098097255,2.578115767758694,2.2111345162136917,-0.11116702378975357,0.7558578752534525,-1.4490389911728543,-0.9448867175200306,0.9614683063669516,-0.8510428925569714
-1.5621436713787789,-0.4764835813511203,1.3661091904461569,1.0831468495513272,-0.5665052225747339,1.4204823823160215,-0.6708916133189041,-0.22262184183427752,0.6035324743349868,-1.6884446576736616
1.6239857354418814,-0.8441843350094859,-0.3153053821893096,-1.462331806512216,0.14626908326953797,1.5909305653474082,0.7916884430480542,0.05418157117867539,-2.931230561656319,-0.5880662127237595
2.8982222805439366,0.3452906747712018,-0.830485883267455,-1.4765387151414993,2.226716921618367,-0.6353674310054785,-0.6454381070764258,1.5269891430458677,-5.502358172501692,-0.35711724059091265
-0.8367959774292371,-0.3435234023309884,2.6552279434743555,2.7693988737908715,-2.783619955764766,0.31009188766058104,0.1846852578471755,-0.6865522499286041,-0.2600818006347662,0.8913724718653707
2.3824152048421894,0.6373586146085838,1.1954351236168606,0.8492126308512674,0.2558282320232225,0.7481865129987815,-1.248542874709133,2.0366510942900136,-3.057136467012435,-1.3297614966153843
-1.3367622796855287,0.40140566524701954,0.2812263840180944,1.4085194288085576,-0.016129624429508677,-0.6664847599750934,2.255309814619418,-0.026634115516928153,-0.6939088674422383,-0.9697035777600271
3.438758511426656,0.10122199455926527,0.3924739286492147,0.08837379154592502,-0.06486146131722388,-0.34704514810006354,0.3067191515721813,3.184182419767525,-0.5680761202208382,-2.2567464761203575
-1.5025392104490813,0.7649743925488136,1.9057663558482432,0.6284231988733996,0.9181965031035874,0.4405925978253394,0.2508143955107789,-0.31527612563716667,2.3665097076986306,3.006765859308652
-0.26930380870226195,-0.24488377955710763,-0.16474296374711717,0.15501513290005559,-0.7905697451113785,-0.8704767278419874,-1.347419756560907,-0.9436078751979214,3.333265287111965,-0.6857459733329673
3.5463176730925983,-0.8587282550615025,1.103709031148754,-0.56736359099202,-1.3471657740942853,0.00789377213533704,-1.6990010429194564,-1.1679085949395,0.14332986338855336,-0.6132352359561126
-1.9236874346390858,0.3015102150427143,0.4732803959348717,1.3913872982191964,1.9240814141167102,-0.9624544448225956,-0.0006278026415062389,-3.4977017436705995,1.4387523289169715,3.810461873652867
-6.522870028272662,0.879378430942745,3.4191833874006745,2.744895032593292,1.468752279954148,1.0243606199492241,2.1746585239410274,-2.8327367992901245,-0.7045269767883078,0.16855422933933248
-1.7759681872057387,0.17509147412461584,2.038174356673938,0.8792371903759633,1.9241613622000782,-0.4635429307141929,0.5123594276576148,-1.105157234198945,-0.17042271661041664,0.8558154185312009
-4.1433898993643,0.267668349575701,-0.5256339858193295,1.0330237957284105,1.1303617919567956,0.7706231333946917,3.618300796430078,-0.4463259416301239,1.3489222130510305,-1.7329810921873732
2.2126794830728955,-0.7381954427227018,-0.41033052245183144,0.05471466585363729,-1.3603939385826689,0.2452880049704158,-0.2296947536648952,0.16602863568549892,1.0328117687647709,-0.6214725906760687
-5.24393694685052,1.5505732208251661,3.183221986558472,3.8377185236071094,3.272703861842563,0.3304926563284011,2.461020598398891,-2.6670247836388503,3.800579690546629,5.213922864625278
-1.7409833783252062,0.5776453348566821,1.4852882341766445,0.8483938094354135,1.0545342414742664,-0.3556932781703047,-0.2628589363870182,1.1039489161573417,0.53919899287378,0.11298349526304673
0.7111007133728137,0.1669111530991333,1.8098212042916222,2.602999114465121,-0.23769499587842932,0.17533629443479615,1.2389335330973263,0.19357884788508678,-0.7277190643515786,0.4303495764131676
-1.1974532603801011,0.37196068077938754,2.9477743904768237,2.693313428388519,1.0959014747786882,0.7919216090448362,1.4144754869628524,-0.18276644387923602,1.4594983427885349,2.1387508175475
-2.5281402265380857,0.2145655116365152,-0.1452955378099653,-0.052769637037782216,0.3002813809440071,0.17082839444678427,-0.5901392992101434,-1.1581844180576721,-3.1726991435784324,-0.42786553245294695
0.5459513752703861,-0.6612632063569891,2.403332293110471,0.046165472067918684,-1.824850717716039,-1.489162699298929,-1.2363748842405342,0.5152488700454054,-2.3195741412350595,-1.6230224829165993
-5.661914469448899,0.795286018254277,1.7892189691424099,1.90724559122681,0.12854441887061757,-0.49771765081262687,0.8024066168182207,-0.1919521788151879,0.7317967884651959,2.938897234615251
2.8472624231810313,0.3446044592087264,0.1441120399721445,0.4286886140983525,0.8945025190194853,0.13398584798349228,1.7036927582897645,-0.19547275554071453,1.1825492821644077,2.0405977397676485
-4.4248840842347255,0.38843914727352835,2.834930410556445,2.808082454998579,0.6413701169982947,0.1788980417072903,2.6576640701967724,-2.575558460398503,4.25187914869035,1.376290346089307
-3.4999015600326526,0.9646934221084085,-0.05085104764473469,1.740731592659175,-1.1485051006774443,-0.11753280134531645,0.8506713487945602,-1.6261592983816213,1.4354453931037527,2.6218070184855278
-0.11570840937036689,0.1796901448705307,3.0028685647742375,2.340980336328919,0.32465883850700505,0.5124983601016243,-0.2688926381132343,-1.2807366267623985,1.712505630225676,0.788443577759931
-1.9797132000337199,-0.04735047850652429,2.4433578459864203,2.7517093400843327,-1.4450930459822997,2.211820777792073,-0.19268822641524888,-2.4247170987078634,2.6635635563617592,0.4443402377288029
-0.343969147174177,0.776123343092376,-0.1774377948350767,0.8521007616050913,0.1741126918776645,-0.9187995384680216,1.795545164000891,-1.617071119585077,1.1445160352912183,0.8464226771943838
-0.6987020638684346,1.2852264802428317,2.6107696148804815,0.42590786656319485,0.3688667871566867,-1.2986375508022987,-0.4921304046204804,0.5452379179818166,3.077492377072413,0.7957015828230874
2.7501392015167596,-0.9703068123273411,-0.7651138161613569,-1.8627009475325378,-2.2662432115252376,1.0080745952739392,-0.7557328846846563,2.69117654389455,-3.2295135531606913,-3.3156554406888685
-2.297649836991451,0.44660144996907364,-0.15875843192695227,-1.0353223820668669,-0.619422452237305,-0.9949757684722261,0.7010148235364638,-0.2436350582199009,-1.4867140248940565,0.05052904399888203
-2.1522484105890354,0.8615202451638667,-0.6728981286081803,0.11493551292955614,0.6216573618228178,1.0201292738994427,0.8823254620337293,0.0065022754908521385,-0.5216200270947188,-1.5764572015753895
3.3045377110775025,-0.2246292578294294,2.835759658125493,0.9602452476301266,0.30819933323980825,-1.2309737978067112,1.0876472640934878,-1.338525494958116,1.7482429178093983,0.06567792924972672
3.6640209604035423,-1.0775823738277206,-0.6716663778167815,-0.678942565137297,-1.0851207111243286,1.3063797240105295,-1.1669264952481015,1.4000033995041772,-2.1837039981774877,-0.6334076470121788
5.9625742806973605,-0.545140733209023,-0.816288024106947,-1.4196029194446107,-0.5595132177374027,3.196153785713206,0.7038466238584979,1.4728534766012016,-2.244318623137075,-1.5910451771134837
-2.389276899620976,0.42457528975326037,0.14297369731728304,-0.915798829349038,0.20829254352769555,0.38074888699800835,-1.337957723000741,0.13423636923759416,1.4929438278063734,-2.1743916132550196
-2.337384214900759,-0.16986943706325527,3.3285303355814353,2.4650319089865445,0.5882149780472434,-0.8521396950259053,-1.5322675330364213,-1.9401602609128272,2.236148676175802,1.3924531723965377
0.4221324509667575,0.4176981001642428,2.4358766259352715,1.221348553814798,0.8619181188052003,-0.9638665472188465,1.0879322843671353,-0.45331261039024295,-1.7003957217652677,0.2801345827507699
-0.554550508133593,-0.05291783831192563,1.524716534279675,1.0445325376642534,0.9103545594523869,-0.45525498872846115,0.3001944264596541,0.6107908000258899,-1.5193178930702904,1.2893016936052293
1.271322438515775,1.0153746473623948,-0.7429439925721437,-1.3124534422790672,2.8062743579734564,-0.5337431098137577,-1.5294528475590976,-0.05133561490295194,-0.9205674672564896,1.1853126982953255
2.325469266156177,0.06118825950976436,0.24476228953022527,0.5668623121646066,1.0062606545399058,-0.23014534334178693,-1.927629153052205,-0.9909315641531978,-1.591778443555751,0.3430004455364166
-1.5687094450083372,-0.5688048453191725,2.0940596737300363,1.0059598018880371,-1.138522673937978,-1.845632217875595,0.16051433250065011,-0.34436376278479763,2.683358019541775,0.5507462368464379
-0.7691639780404275,0.0008192334790905368,1.59158531552269,1.73059265808378,-0.5244606100836531,-0.11755370951071598,0.4532329878157579,0.25923840843129686,2.698721834718619,0.9589201827160286
-0.8752087090179824,-0.03368027715117875,-0.9483703920674909,-1.7927105542227204,-0.5241592128766699,-1.0799780188683659,-0.537673544988853,0.5075350136780592,-0.5561826142076961,-0.3115826240655822
-2.7136192789527995,-0.19612888991215935,-0.9721619382544053,0.2412748855811181,0.2912958580618032,0.4299798024475456,1.6736814408503025,-1.6244923375572395,2.7889486242805743,-1.5465355304933532
0.24676070303631414,0.7878267582995312,2.416395373131279,2.0601853613339545,0.6155083806348228,-0.10979014093861017,1.8935322892079998,-1.6497095559847965,-0.05959408207721538,0.904462621298199
-3.1677988528752175,0.5295228619489932,0.5082314301634185,0.5054864499553606,1.1119069740215366,-0.3665142834927066,-0.90631591917496,0.8594542047165752,1.2063330578255265,0.759317416288271
-0.05037160908857107,0.03848610289359795,-0.06939315802969692,0.8420176263265238,-1.607468297737662,-0.14605592138548645,0.8594083179682336,1.6775464846258978,0.07753214426303699,-1.3991119338484874
-2.735086152084796,1.0584865936922987,2.01603039957885,2.045129288163926,1.4097893932899088,-1.1784930670788045,-1.4478574886439375,-1.51899964250748,1.0730197388972489,0.32429646002898677
-2.1559935313467213,0.27798079598775827,2.1683019320991153,0.5511117617762251,2.124536922027266,1.8983007241045389,-0.865378326280459,0.1637876458626077,-0.30393325933901555,-0.8524781533019432
0.47699805672769036,0.438142771600632,0.6342738464122315,0.3767932008528754,-0.4511328974991191,0.9149832215956277,-0.6701202609080705,1.8763429158667129,2.8111536970451336,0.62801140897795
-1.2611203154725767,0.190316433291904,1.341841727127262,0.16088647188314306,-0.9955425911067249,1.6470551247109753,1.380009538958467,-0.1223857742890512,0.536769782764212,2.0651414597176903
-0.5952150533167005,-0.4050166472114836,-0.2658767557528603,-0.017739175862121436,-2.7745109511097126,0.3459396691287101,-0.5150643566524856,-1.5452727467451726,1.2715312451446235,-0.8946914958349669
3.2787650926642535,-0.5652931366801057,1.2609263179839094,-0.3203130396458626,1.0274613463107864,0.7247323668702519,-0.6236955330775246,-0.07623573931464522,-1.0230195591539666,-1.9482602045562079
-0.7815321006122543,1.102235137692814,1.718024472824745,2.293642588334168,1.7772209585354306,-0.15897484090647507,-1.0479135333091678,1.0584104525440643,1.7247762161257671,2.1982400592702724
2.325031635520937,0.24479641697371682,-0.08905821056840002,-0.8238278534929094,-0.9784803173414145,1.5308962730177336,0.5805214620142224,0.486071463577159,-1.1146919417564372,1.6377868182157425
-2.2682455620402235,-0.03356102743831843,0.8680738234677123,2.456340740060218,-1.7709455351818497,0.5018090504349362,2.1445107593448145,-1.0603361284313668,1.8270162118506015,2.4732979556282806
-3.615533878025807,0.9480423188730916,2.8048295864541273,2.4599296246140727,1.1512839072166532,-1.7075219501996228,-0.7796990839345901,-0.762150669305391,2.364131401653236,1.8509987820153133
4.124275406704741,0.2793201088464497,0.5809143076460688,-0.5386808603401245,1.2164659143810301,-0.31913902110058906,0.5665690814654119,-0.5147962227048212,-1.070925240741172,-1.6039429247024843
-2.547138680697396,0.3305023686601171,2.7035214215550467,2.786735550803727,-0.8488085981220024,1.1888683941568017,-0.2627282019606134,-1.2152704112838315,3.7990178261870877,0.07683034168230014
-1.2712050867439493,1.0500078502968004,1.1262544236329943,0.5902308571835381,0.7587116150605039,-0.728413125630786,2.1697915453719077,0.21064008284573965,-0.85371784460927,-0.9542212543432935
1.1260438595203162,0.6526648999092072,0.18927325397797534,0.776120847086506,1.4136196958863712,0.3694194121153171,2.9092946530736397,-2.1584345020131135,0.22532655137233182,2.9503410765084612
1.8624084381776664,-1.0328062927301096,0.5137601154350138,-1.1090215277120687,-1.791758598560777,-0.6697220426325593,-1.726580793287847,1.366699315390227,-0.6930450297495913,-0.40168681569723946
1.1126969147485049,-0.8834148162539555,0.06562063125933637,-0.5286154939220982,-1.7872902367882062,-1.0970352141753836,1.538607892757089,0.5791274843863471,-0.3254933263084479,-1.5587914453278777
-6.12568798569828,1.400159999253795,2.6276015058149227,4.394968403404022,3.271566747009476,0.7930206099915723,-0.40995388892033474,-1.5023221542751406,3.8246698863447555,1.751147700795487
2.824904175142701,-0.03969824145563308,2.660066297981202,1.8748456649431762,0.18094643128808446,0.4841877103649078,-0.34105695285274595,0.3206674689198916,1.1352676507606791,-0.2873058375568292
-3.142629005643499,1.3793209931084074,2.153819040532641,0.7782995214505752,0.9695429960581543,0.42675904472887793,2.5802303662818797,-1.8346374982161069,1.206713729084339,2.865205317602523
-3.324212238828709,0.5374216013450979,2.576344712076888,3.311145572596354,0.861017003523145,0.8731371339495346,1.9461211419387159,-2.141858776854902,2.9082608703947406,2.5296241399727237
0.7892700474800574,-0.7018258959488071,1.6645610779419902,1.9802421148212253,0.16951007731224604,-0.9746092228788177,1.6592265211973432,-1.4033540144093024,0.6477763241015477,0.9922714830380465
-1.581588754756635,1.1536944856340865,2.118640656689147,2.1487418814237125,2.111036062952374,-0.18228970937782107,2.774656780742677,0.36748695423708955,-0.37914383015108183,1.1056114663749697
7.014984383674266,-0.15914997419971294,1.1483646122101234,0.26834314124360054,0.05961214216506784,0.03711329106268443,-0.5163744382658269,1.7442932250196899,-1.6782861205937287,-1.1319339583784114
0.515311621491199,-0.0007116619134058116,-0.07367199840724592,0.24268967842990083,-1.0639807524390676,-0.8247223094190571,0.19229538470774304,-0.058426352338833115,-0.9590238770984667,-1.8821990308732321
-0.38909166007390944,0.11524637625296445,-0.5065753924821874,-1.1917499954430064,1.226096042340654,-0.28421489761410434,1.9598359828863547,-0.8774795248817516,1.7083006745454374,0.16676608344180724
1.0170005541803033,-0.13187895813383665,1.8269580247870874,1.0439465082203292,-0.19606956861679747,-1.9664979217770497,0.5283928584202457,-0.3683386349563732,2.1403930720572806,-0.7544491824205646
-0.8936764437384901,0.28505775703088304,2.934056742436856,0.7198751716138361,1.168782557317734,-0.5417014913017236,2.6911619998825014,0.18208640004945648,-0.655501260708994,1.2092355065239582
-2.3152503897093033,0.10984214178179351,0.9179454329207621,2.776152162575686,-0.40500672339006366,-1.4385772185718093,-0.14667506116229964,-0.4967022784451859,0.8523882898160211,2.4557541622721835
-4.993608342341966,1.5996526350239506,2.8814071787506688,2.317068533083617,1.3440899163204192,-0.43887205846171085,0.9144431425611168,-2.2271799938107533,1.0960827379820617,2.4660752274518543
-3.222120329267568,1.4124663009649288,3.3169176581218958,3.6933546661263827,0.4165458789150403,-1.5675053601289655,-1.2976582368617373,-0.33524266004310355,4.9774263617093055,0.8036409596996329
-3.808679973474744,1.1285234158008544,2.2474642586015725,2.3780279008677696,1.2131757216015273,-0.4299453953388599,0.1066923501978385,0.29128946138316647,1.4048311270323968,2.334069670290446
-1.6362131126772668,-0.16960455647502512,-0.9322229711262806,-1.7213118086645762,0.13737309716727403,0.5433369088122041,-0.4373668198223687,1.2015360215125641,-1.7952008513194468,0.4037157532982116
-6.333462038641747,0.8726602182178126,1.3660243047317522,1.616757810737154,1.4321303007720285,-1.365732046711097,3.388246752410533,-0.04675925852806029,4.3874386204818,1.9566875027447959
-0.48290711215369037,1.2330311148319002,2.4050780223611805,2.3172577533874312,0.3819245177142951,-0.8395059676556056,1.014587637833699,-2.645452764231358,-0.8142831227403963,2.7525988064985767
-6.5254000721607435,0.35794881724618305,2.5956308063980496,3.4940969569292317,-0.7854507838966065,0.2771452335110428,-0.3298187118718238,-1.3281273187124163,2.2973680050067977,2.108967386913466
-2.3506603739142786,1.0961135803107263,1.8924002236040032,3.4392154726556727,3.4251768987477615,1.2390957706751455,0.9856586205070352,-2.1834544385087704,1.3354224299227957,1.5982274248196053
1.509899177982985,-0.4291171602457873,0.9166273254964588,-0.08743122069503052,-0.8387718000868708,0.9211284559756697,-1.9315038090844827,0.01988697603184464,0.5622690794102341,1.5312349043454487
-2.94115569607751,0.09511613320062152,2.393938261780362,2.0104941706440207,-0.16193839231595095,-1.4443965228970477,-0.16487399281992776,-1.448156506363612,1.619433828409797,2.624683903548377
-3.0235492426285653,0.056675177965782385,2.5519089582069068,1.090284609108426,1.9276972439576694,-1.453516267954791,2.2573431175894205,-2.609448193735115,1.4029151423701547,0.8198736655934618
-0.5360509976190964,-0.7184621717168728,1.4669074004887288,0.6109132744357846,-1.442390869446703,-0.15349739609170804,-0.1588004493057471,1.3736766586507507,2.3613538575835284,0.8265570830198044
-1.2112580979635024,0.16315507739042248,0.7695644853192412,0.8658432877826037,0.34927807374538716,0.025709383016926046,0.9090994117209986,0.23116981898324063,0.1557995401987676,1.3736927076031105
-3.6587676585743423,-0.13674796002984757,2.6649740311960644,2.509863074128369,0.11789895704459681,0.2128606027190897,1.1737279973019477,-1.8921145366716385,2.4472727431132695,3.515774899958184
4.013599644114636,-0.311505628927221,0.38061164449709106,-0.33261790296118127,-0.6834707183235901,-0.0008517042742868242,2.095830534095138,0.42794483968475316,2.1474336395483964,0.3337724946879512
-3.255959148231174,-0.31656999888708315,0.14434622027746125,0.7503619253477666,0.2995667015301942,0.04344361249557993,0.9920350992708246,-0.7696840272531926,-0.3651727860694278,0.6813194627115434
-2.7269901073260434,-0.01713501989003986,1.6344083350798595,1.48074838938158,-0.32703927523555526,-1.2532659655298501,-0.2397587133806841,0.0905412995496172,1.409876258323834,-0.18040963907121604
-1.6219099940706112,0.6690082311383967,1.2195792934959253,2.8902343320071577,-0.14335468940723295,-0.8368174652065209,1.5227284476273486,-2.8773692491885363,1.1882347473817623,1.1493108389452475
-1.961247508561669,0.5659529291449872,0.13939785037624652,0.5959867980388842,0.37210417631791176,-0.8897489935248359,-0.8663270317972974,0.5187393841320503,1.6809224988706584,-0.1200431328790161
3.5676419537106687,-0.3981539015773282,0.3255405089061263,-0.45833749221908304,-1.0230010362773942,-0.8088072406430172,-0.8392184659626243,0.8735305372472479,-0.5610194716185204,-1.2294864533309209
-2.55748691144168,0.6035614227425494,1.998934197837011,2.719991117966777,1.101672563575021,-1.4735649915025497,1.4610843791048138,-1.6023236291968432,1.7951065997852584,0.16318791429078264
-1.7916653638544129,0.3768673773618226,2.2427029097141293,1.2588975658702934,-0.16404846301081802,-0.14564675702297042,-0.34113968866621813,-1.1921723779935807,1.8460110205125213,1.5012960278447276
0.7181750756325306,-0.5367165761516003,2.0331099186601445,1.3613610574182688,1.458204356184695,-0.3063841967019071,0.5949581877444512,-0.5137348070067147,2.6552195352456263,1.2930284795550038
-2.58224768614748,0.34686114008829594,1.7108806809972514,1.6326097568196458,0.6070688852836783,-0.5721793407040793,-0.24283554826285558,-1.2829631206705163,-2.137541212352236,-0.14924797818730298
-6.86551106045639,0.9640743811540343,-0.055185650296607935,0.3992114794306651,1.2451974134554227,-0.20215520879353008,1.2244601738622127,1.043449321484435,0.19420326193223753,0.805331203292622
-1.385541088267739,0.4625651544547987,0.9913814145880853,1.6198952235277972,-1.681606005596327,-0.3921059222044535,-0.805395236787837,0.38050378844359295,-0.10042924641982379,-0.22307539707818771
-3.8529175502461253,0.8608291397459004,1.0933685408044487,2.198746963227439,1.9196053312139656,0.9347468271658452,0.04309950550442365,1.1527590033960264,-0.4683196349850865,-1.4694760589779041
1.8372377957072072,0.3618317584400642,1.2434283386380662,1.5405625018711948,0.27550927992722346,0.049215758603359805,-0.2499380540009049,-1.9440283497126094,3.9037674631050314,0.9239141910015557
1.2358901664159543,-0.46717366842791425,-0.1761018721359271,1.3759624877832948,0.43996473186195845,-0.3649912674921245,-0.9495460850176068,0.10633910779409014,0.7841493076378252,-0.5431752003030762
-7.429958440397896,1.263198692332786,2.8641780919301407,2.6121012820425884,2.8846827327379927,-3.0264293420366837,-0.4393202345081676,-1.7776784154489043,0.811392761447051,0.17977662008063813
-0.22582308057055234,1.3615641349819299,3.3428747566599037,4.145748178002827,-0.7003548581860743,-1.3170995541052863,0.5047871143439584,-0.7129503581600412,3.313127303128153,1.6571175101531772
-2.034865963647559,0.7743675797566042,3.252540335616959,2.024462184650071,-0.9410917168153906,1.3873932461276433,-1.1991433399253395,-0.48824228067047526,-0.011409193340272126,0.3987546013833908
-3.0717050744984746,-0.27796725461427607,2.752127030789066,1.8005302422326384,0.010672183208501784,0.3625907179588337,0.46877650675574295,-1.3575371271390329,1.1872790316378727,2.71067858258951
2.6598206562573266,0.07836224955307086,-0.10558865398496009,-0.5409283427189969,-1.7892442053169406,-0.9518087161346511,-2.6752042984079933,2.0460667431051496,-0.37212753820112726,-0.4562102085509367
-2.2233229110930393,0.7348521160534809,3.0738359945765596,1.8774925817846833,1.1680985988857548,-1.749279196777878,-0.3818012324811422,-2.026657992241039,4.071372816276159,2.6152567764825023
-1.469840935793257,0.5698502473234368,0.4464223202139639,0.5073778634249897,-0.08839448415271382,-0.4369391333453967,0.563807716139617,-1.6348425101570907,3.542960036935896,1.025111735328908
-0.41583564647018034,0.4541006176638132,0.8381761137945254,2.5734029470706665,1.7424225185750142,0.11019061232005628,0.6496313535289188,-1.1768383454419653,-0.18710138863056164,1.629546281480122
-4.885419661425822,0.9332238337406173,3.024278759953675,1.1032718731396935,2.2395436371592616,1.0246144505700567,0.49654412462724284,-1.346333131016476,2.345116288158277,2.444788595948028
-0.17422123883002502,-1.3529999050698216,-0.7368405361826198,-0.22384808947697804,0.29404848678296946,-0.5678767415341787,0.3511403346374714,-0.4411828038259954,-2.7877181243584612,0.40326812567966025
-4.762856120378991,0.2419441060454213,3.1278232063538987,3.1072923615554706,0.5726155157964161,0.4794735945509955,-1.3767676774278252,-0.4214389410616184,2.765410510360934,0.5397031843355939
-1.0043610071030864,0.39226033628848234,1.1065632653463449,0.8761053704750777,0.27629776289723407,0.12015222165629746,-2.0117852290589977,-0.6702921036082138,0.47312342552699294,-0.1924222566065225
-1.0760945450235064,0.23496008501812599,1.859820983611082,2.209344903396007,-1.449482478878107,-0.4183922970641111,-1.9543407249429523,-0.1680768189752811,-0.23506463463957328,2.7132363749469675
-3.348293010799863,0.3391180951052694,3.350768697550441,2.928710038306791,3.9830620428607832,-0.6375375274895059,2.5469871289729134,-2.0559594942810158,-0.26105025737035725,2.1990723652196964
-3.543206740086116,0.25073614597868615,-0.401073889877386,0.26965824397303745,1.5570003290429284,0.4709110412422443,1.1708699474496658,-1.3058515762628973,-0.06246894901002986,2.344909207718985
-1.8525147018770567,-0.524571026187019,2.824680442750052,0.9310221482870251,-1.1998142414666655,-1.463594169066218,2.989677037862221,-1.034866674064627,1.7792281980809979,1.6200708069142307
1.5107854950952957,0.07710200410988836,1.3574766635738653,-0.033267547000222455,0.4751518606010625,-1.6950331963112526,0.21745841827216086,-1.8317176033274674,0.2557378306129434,1.7293653775527844
-4.749042408198356,0.07567722101401825,2.711859285138941,1.4689502845273457,0.20501761706375438,-0.27530932204517744,-0.4258008311496136,-2.616547195417988,-0.10572101554743722,0.3891312687851098
-1.4312227764213958,0.4734700726493116,0.013209489188142243,0.07423294774966029,0.06656823910923097,1.1086758671805603,0.3351084759081427,1.6519734229809322,-0.2573345701575365,0.04795160116154799
-0.5439181657425091,0.15378199995489925,0.2719702982725092,0.37668778084524696,-0.23494284845346858,1.3804433579816355,-0.32240797737855137,-2.331396838348736,-0.24500670321627455,3.10938353716926
-0.9187321911813591,-0.23683276186285535,3.380602022988481,2.6357674489839087,2.405982416423554,0.6154506006187556,0.8162392649933032,-2.1196531901454736,1.2037448809529623,-0.6813671476174439
-0.9309359240493359,1.0458540476832305,1.6256756195699813,2.640579662717441,1.4335391603016314,-2.643694238360167,3.8395150651603234,-0.2788635099097454,2.6654779802660222,1.6512079392089565
0.024011049745649736,-0.3661486594890526,1.2129760964797929,1.5272592724238627,-2.1953457289578466,-1.5893666692353057,0.4118269258212771,0.8931040981019349,-1.0105092725222167,0.4472900555655437
-7.715196747351425,-0.09820632710884866,2.2626187173498318,1.947798368139366,1.1663107081606572,-1.5479273356248051,-0.6661016079263137,-0.951356016503397,1.0075142272111601,3.7403979193591925
-5.278007354727684,0.3283120014759224,1.8997479749625317,2.294465676832982,-0.021720235231985137,-0.9994063404862124,-1.7221581467404423,-0.563272586006567,1.9171333791544953,1.6042383415812238
-1.6191175374136706,0.515764888708719,3.1097407589530013,2.4707134813743483,1.0235436368628057,-1.0774699632541507,-0.10283950003755156,-1.470108418093874,2.907436393152373,1.0321043167924422
4.6015319508289165,-0.5530340441286025,-0.10782832796639663,-0.813301497141076,-1.2745505967106647,-0.3882018782782089,-0.15414462444813584,0.44026573028296195,-1.1888215065539929,-0.5529411051903115
1.4443169853604512,0.41235679748402404,1.5526246443548657,1.0392833007672884,0.8482532346589741,-0.17777159987953184,-1.1474930732123947,-0.34537034063092464,1.2213669618680743,0.21704415042801894
-1.8562046262773688,1.2124212234229192,1.6237558250880872,2.4614173154262433,-0.020234485570057345,-2.1602445489473503,0.9448869688650411,-1.1126068398256534,-0.7095337161699168,2.0547263429936793
-2.036268427615365,0.8949163620971083,2.46547249238951,3.521064729795854,0.4610955605875147,-0.878765606211805,2.0972508870472444,-0.4236398315620713,0.2934413948780063,2.3236668530549323
-0.04269224673838502,0.7109547932846544,0.009625871181355716,1.1660521225308758,0.8822736054122815,1.6085137820712734,-2.329662360327405,-0.15506880825112473,0.2005901651449207,0.05260669571516961
-0.3128746181690762,-0.41995160212544147,0.8411541745767819,0.34835962205885806,-0.9722509095242123,1.275634174871022,-0.5184196599862853,-1.133329175211605,-0.9647868909572217,-0.22864400472676696
0.2642932158842864,-0.08829303045700533,-0.5759522260405632,-1.3280382776126212,-0.1564006239678176,-1.3931294399257812,1.6863706271192302,0.16630715621521447,-2.268763407171626,-0.5960885581472165
2.0355805011849974,-0.31109323839415925,-0.07679092432166512,-0.7737787733173709,-0.7655737545485444,0.41939395113818684,0.7732604781826034,-1.73162676361581,-1.2126698980811215,0.019604242152384533
5.325294237496627,0.47259271068288555,0.5878393193777338,0.9473530207448619,0.08225387291500962,-0.385015506442382,-0.07389768674829679,1.1929216639275708,-0.07139493891105772,1.9650453788758986
-0.463934657185143,-0.35304511709355446,3.1305627813081154,2.109902163868167,-2.0373605530903642,0.0812129118022056,-1.579107145576761,-1.0330203071482362,3.5811548986487134,2.2984703621759324
-3.2993726106791463,0.9364659088957541,0.8700646560691825,1.4586333341514268,1.8938067118573738,0.8316438516662227,1.1198818159457378,-0.9136270715105648,0.4555758598117823,2.04197436773918
-1.9040655700468048,1.299154024603506,3.223115754424791,1.9825954204084748,0.15599131782572614,-0.6425719104250163,0.392261107638122,-3.303597788117916,2.4066236727359134,2.0113681142835627
-2.787572328295028,-0.20142463155088425,0.03673869155271947,-0.26024570701258976,1.586615872732001,0.0690770753864387,0.1912904434782056,1.5167903071315934,2.637996583738414,0.8544765985097147
-3.602543566693063,1.6091165522252378,1.917146752472092,3.525791114496814,1.3325175011549233,-1.5300506972957395,0.6892297021256748,-1.8120712857566597,3.341560611616252,3.3759828003254557
2.1261417665512785,0.15456353147035953,1.9496300252046868,2.032211161460069,0.92134669611511,-0.02300357726545338,0.25256235260017373,-0.7560618882602322,0.5498087680583346,1.0421745981346147
-5.1456996482235615,0.4073602285334233,2.412642123697638,2.7375442934602194,-1.1224519949695038,-0.019631474185355102,-1.2955234203439345,-2.492636478127388,1.6825019232588296,2.161094506988321
2.737844646331924,-0.3707568593781399,0.27503891248130286,0.9258694695553402,0.36260356732511884,-1.4930334891604424,-1.6477932068056274,0.20235570848287898,-2.9420279675052767,-1.995843134566663
-0.8835353363786813,-0.060184599090923635,2.950860801674461,2.643831101303917,-0.4682314108883683,0.7549506308320173,-1.2796072806252288,0.2440909612425659,0.3762754182361831,2.5769750907389266
-4.129518919812597,0.4945293855948615,3.463949931303768,3.744150058013958,-0.8905810504794648,-0.22894636341405228,1.785403147135029,-0.8491913059751339,2.7339853072256837,0.11871680215923248
3.779576248869188,1.1631729074366592,0.9113705473851275,1.7286383263762362,-0.0431266587659441,-1.0752081639503663,-1.3593316684503878,-0.1274684382499492,1.9612125592674154,-0.58224753130988
-3.8762789397660677,0.21992120637961132,0.6692336976002387,1.670104770398835,-2.5644082525574743,-0.9766762089670541,2.317150576828284,-1.0053617653655906,-0.6514864441404726,3.042904783073164
-0.7043681388195843,-0.03384616979372492,-0.31904127197911936,-1.7980709745472967,0.9001165726042935,2.2648136213686874,1.1593810148042567,-0.9304841066630274,-1.4504430999251223,-1.5333323378904151
-2.282056127025891,0.9153104150034832,2.666983691809021,1.9500080121776424,1.358020434540434,-0.7402865983691613,1.2966742453721476,-0.5281781197878149,0.6290609583642464,-0.7337639706450338
-2.331727629558921,1.091825927261678,2.9521089366823183,3.0911640588721165,1.5826007921902348,1.1356089764857245,0.6444968290265161,-2.2034574920255996,2.653869267512594,1.6081663669331743
-3.5617683100029387,-0.43315952966242466,1.5766905951845431,2.737875531748804,-0.537514966014746,0.5874574689908789,-2.0792703568346917,0.5531347683962219,1.4849942754777654,2.0696706532715488
1.034270223614151,1.453803316791318,2.5150143383138537,2.9999670739810704,1.1557771731420072,-0.3459872036719141,1.7997741634833053,-1.6760500079523277,2.5278748105932904,2.8826478639691517
-1.3451654738043592,0.4645565774968431,3.385098739473378,2.6244875769194236,-0.6056074222719393,-0.4940893529865058,0.9086844820367042,-1.9387944945416045,0.9424939410387025,1.9242453665977448
-0.3301346243154893,0.6558084789446302,0.29165891455446125,0.6085983774312775,0.3121424477041841,0.3219864446542472,1.27000986317915,0.2942017699630225,-0.07737010862737,0.490304673954973
2.3204207598431923,0.037242925380039794,0.11454240994278941,-0.18177355113133212,0.632472822752314,1.9202926420100752,-2.1927330663477136,1.3310869387409134,-2.4019590998570117,-0.07062884617242009
1.3695854278178798,0.7313825920479077,0.10761838195024342,0.04258840074661713,1.3868242490212703,1.3827557956072802,-0.06639788117844946,-0.6018183455567886,1.96334929525142,2.1061549809428164
-2.1133178114091518,0.7661889685499554,2.647397984911643,2.505520637497779,0.383172410874704,-1.5917613884535997,-0.0900603658613825,-1.0333813295223062,1.355984966029145,3.1402456219234414
-2.926681405638101,-0.5065782914126252,0.8105867949876875,0.10891705854175394,-0.596333215616575,1.2640125416784938,0.02359065939156689,0.4751239919452124,2.2239226685282216,-0.6497381366320563
-2.443945721966324,0.14243369755805887,-0.4216492393593363,-0.7847954838499864,1.0431607801991476,-1.3921832214783643,-0.7375767961059312,0.3266389043653356,0.5855041657060451,1.4763374259785318
-7.6359134517276415,1.3286380116483945,2.9160555836785114,3.2701210401685774,0.5506246352059065,0.6740859659684721,1.2920781232557321,-1.956830226835604,1.8230014083401762,2.1795211076934775
-1.7935170152045865,0.783963161584866,1.5444053762617798,1.1049409688073148,1.0530056522376756,-1.0541035684479587,1.4093925898741444,-0.5998522830686535,1.2999495308929967,-0.04616780287723094
2.0900718548657786,0.4943922286380122,1.0166478979657732,0.9032217170098802,1.2415845270987373,0.17876404526425865,1.726443932914401,-1.8006090532673253,2.6436073554989394,2.3639079111749677
-2.5980579875134575,0.5334948061580058,3.2858129727503194,2.2084723961912243,-0.2926102713829564,-0.5280918677556742,-0.8530889380764044,-1.5241753155685085,0.7858670438659567,1.8494505780744126
-3.1008129031067324,0.09796714182268595,2.5392926868854326,1.5862291907127202,-0.5932620828935974,1.0480708333560877,0.1658685920181611,-0.7768712645794333,2.6045881250635166,1.3207533149324013
-2.8041623448664743,-0.22246009611095377,1.144441047586084,0.7113342581773708,-0.6532316497630913,-0.33983745833249324,0.4699288621143192,-2.9967826475500208,1.4917305700782955,-2.5442596870492613
0.4339572970175238,0.3546362852452447,0.3731205822105408,-0.2361990121296792,-0.5686107339560446,0.7822419585605509,-1.109841141444324,-1.4046882897489972,-0.3872059746087838,1.7101603987741003
-0.7788992410223701,0.9632716408391069,3.0961987103843134,2.6816503895421984,1.169450420788933,-0.24844063726325044,-0.056382765546613395,-1.6385719325104593,1.544362104474271,1.353464222522384
-0.810802909694803,0.2699743068537731,1.2970325397082698,0.42684706730945815,-1.4438392422788673,-1.0146136538866874,-0.11063798474965938,-1.129387434666882,0.27381124111095256,0.17577253921905767
-1.7011272229444314,0.4012330427094903,2.100625172629484,1.1857448971763154,-0.1745896734664511,-0.030686867760079894,2.9891291058434604,0.22305134740661836,-1.035726785416492,3.238357557973097
-3.155513948231581,1.0194734382494752,2.9089547887623537,1.9151526974729183,1.3363632178316538,1.3735442572587568,-1.9069674394661762,-2.2205855675392723,1.0955927393605842,1.2240712180774
-5.887688933310819,0.7248623145635006,1.9527898734954774,2.715330150851114,1.0343597028723097,0.24618344181364604,0.6492106707253129,-2.182027420131664,2.363053777458595,0.9884793168566396
-4.545973706064633,0.3065767509829811,2.351662759463083,1.327651804561331,0.018908337785055764,0.07593582337009369,-1.1168646281942458,-1.5917943004528348,1.2399031675504204,0.014227816555630884
-3.919645791905766,-0.3098510384409248,-0.0515447554564642,-0.3368651435063783,-0.11437338095922783,-0.08880255114319768,-0.6131215265670164,-0.9574184070195535,-1.099873511153992,1.5712489450274418
-2.9134443407946504,-0.22356517874151083,0.5230025809407701,1.513228316203375,0.26769842448607173,2.738682069015219,-3.1822816702673147,0.45370993721148234,-1.9390727432231392,1.962070414376463
-0.7140893869600641,0.6375566977923218,-0.8059845931988778,0.8505475119967298,-0.12635686352363693,0.05491285269124441,1.523986512277789,-1.8408017652927253,2.0683220836184355,2.348815539959691
-2.3316766832087388,0.3287609256300493,1.0629830272476282,0.9908159833348876,0.7536612882322797,-0.719379898768113,1.551722863966514,-0.14231128364851653,-2.4919789466247777,1.7098480072730475
1.1768411150540863,-0.42404524897159557,0.2424270418332246,-0.5621603771617486,0.34883055702610966,-0.18872437920060803,-1.0658472091785587,-0.3099522618515829,-1.698937759719296,-1.2143499142253336
-0.7827175121707376,0.8905872523254488,2.316258325707399,1.823394273720649,1.7792573846338375,-0.8923582480081382,2.5596075495214587,-0.9992960761081693,3.2987341662248713,2.006594416642224
-1.0578771596666854,0.39271037686970733,0.3955241599539898,0.6130697210186274,0.7365112576609368,-0.27249074375295596,1.6285028312750989,0.8765995205100927,1.9416046947629084,1.2971647226078657
0.37347310559401803,-0.6716156630095123,-0.31996636006819346,-1.7473438114803228,-1.8869395646949392,0.9950524081477027,-1.8826852682494108,0.27967176033253827,1.487635373865577,0.15160159157923891
-4.311695739087854,0.7589766937943125,1.849920365910497,1.1495052381342374,0.6962288631442252,-0.27590621589255904,0.8339883208868174,-3.392308971025146,1.3641339517900424,1.1848859910016583
-1.78631633707672,1.0690435405756153,1.6783593687585996,1.0967937894376527,2.038189867318043,0.4496554697843631,0.6913938490934822,-1.7084098853670089,0.7634607942666305,0.6516174438474126
-3.6034897152390837,-0.05712814721552238,3.4084991609739523,1.725505705052768,2.543494730773522,1.57965644876746,-0.7600402776067527,1.226694637600613,-1.2392266418030187,-1.7116719502138729
0.8790151324700787,-0.23666765730720662,0.2214915932811754,0.25329677785764704,-0.601703026204631,1.0314897730630952,-2.5490028157350597,-0.6676201613853106,0.7757369062068913,-0.05387672812289349
0.12877952700334694,0.22678888848242168,1.4303793269151108,1.055309599386377,-2.1188519203469123,0.9849154446314312,1.6256915003173256,-0.10271241676666477,-0.40948481853752006,-2.1748304471522313
-2.6346458425050523,0.3420242424665143,-0.3820923351427715,-0.6064000888354468,1.1448368275371563,-0.27390951826321724,2.661054587944813,-0.7268737186806966,-0.8705445712987434,0.13769188710025157
-0.2302207503107426,-0.2668489898113609,-0.6133987368609076,-0.864008490378615,-0.3956458440754928,-0.28143764827592144,-2.234444705082296,1.2119659365791964,-1.24766244694556,0.36558899979656523
-1.6415907290787486,0.6663983279924368,0.0741374362209124,-0.22254475493463355,0.8853420156376051,-1.7778322410381666,0.6671074307530264,-0.44043435231381434,2.427264330149655,0.8098728433238646
-1.5273595379267015,0.24413022036203175,2.7504921333383803,3.140302623436663,-1.0061948714343436,0.7514447080511137,0.43215501847989035,-0.010301020671440675,1.0511604072512015,0.1477617615721448
-2.485417364492639,0.1849223155383594,3.0113571744152603,1.636612533043883,0.7691651992431062,0.6041262931611426,0.8781594607128526,-1.7979755265598096,3.9284968762851435,1.8428915291279917
0.23031891131796278,0.5218893574780032,1.647090594028315,1.6360282371658315,1.178978686838969,-0.6728864290430862,0.5750467447220236,-0.13766938062684553,1.7850562473126192,1.3351502669497404
-2.5167616034278852,0.834335798166874,2.68422812641461,2.753328925238941,2.4753508373978046,-0.2586411858955064,-0.3265514269388166,0.2156199399758738,4.981058391557402,2.1651626947336644
-2.5986592008106455,0.3365754915816112,0.9572944991538204,1.0192662077356907,-0.7168858129384287,-2.3917269555845793,0.20792989788468078,-2.1523732516249408,1.2853033141434995,-0.3322689488303984
-2.062638796581992,1.252421634222072,3.3486515786745734,3.2564094247163835,1.3860934167203176,0.4609731367597232,0.23333387941542166,-1.3506969382113485,1.9462949322040801,2.883231641981973
-0.8214461998377491,0.3642084479882024,2.246779942156589,1.4723290750812073,0.19264690334390594,-1.8969682487275077,1.0322393456954626,-0.44971129446355973,-0.14855327730433848,-0.010099797917086515
1.4327134877345546,0.5564143850020563,1.9743939504849934,2.5113019859100323,1.3824170790845138,-1.6333319281887795,3.5435779374192644,1.1410818433985441,0.8930677773944931,1.578063420675117
2.6871833660127495,-0.6056853404013159,2.204545046163728,0.010442433636323536,0.6269651091886146,-0.0928457699412018,-3.119675956900983,-0.5889679365677881,-0.18501471472012282,1.7698910744840495
-1.1199955346752357,0.23700698976103002,1.293396586830064,0.274766028718124,0.7076263433308035,-1.6576972482467014,-0.37774540124008854,-0.46126820776196487,-0.3634997259666566,0.7946334258658151
-0.5486097562504277,-0.4786305405457592,-0.8601220632374345,-1.590913558130371,-0.04759889063192191,1.0649697513687577,-2.3534410844142513,-0.4990869916090396,-3.9901461785766736,0.40477360021785386
1.4329130999579918,-1.402712483877693,0.5908574022226767,-1.6007327650810121,-0.8992014521485111,0.9977172342482026,-1.609201938537508,1.1472662402979417,-3.1578952106445364,-0.7227624679406209
0.13190534474544605,1.0833961919453998,1.8550352008247684,2.0077776596233736,1.1779783937987538,-0.9629784277753952,1.3330486391605696,-1.4021159063252593,-0.779021377971511,-1.5890598574729329
-2.259304144631669,0.28347357522853645,0.9549773681202782,0.7830242931574767,-0.3015600360103992,-2.2356954548620402,1.3429870933422612,-0.4000678531855235,1.6686952548868714,1.4923511974593129
-4.486188095964207,0.6458999409925459,1.6377694917248786,2.850717410684724,2.2362551929447845,-0.07063528187369011,1.1674625963724405,-1.7328324062479323,1.589341435464598,0.5190114799455663
-6.325854765045817,0.7718541018366586,3.1747897412657906,4.107227038868882,-0.8782688811316989,-2.5101109461419053,0.9691493496834548,-2.0642329671195787,0.6819682925217015,2.0516729402920606
-1.0795926259339097,0.0426823403164319,2.6313982844609463,1.306267954662012,1.9654930731690048,-2.366975753222187,0.8718203088070882,-1.3030775209509906,1.575585258331137,1.3934679166951873
0.1961039769452584,0.8185904111107171,-0.5084859544527247,0.6443245686023298,0.9918082528857028,1.5181632621290404,0.5397766457246975,-1.2771057714807088,3.2626614386020876,0.5788809361452758
-1.6190640179444176,0.9249115282596636,2.375417439608042,2.7105846796699464,0.9494596463032438,0.9136065533711009,1.4389143843447765,-2.1838152619359104,1.1380897573633684,0.3138815536298333
-2.6102651593094772,0.48493957421925915,0.1687065278076163,0.8353740891897181,0.33897335081826163,-0.44371122308955924,-0.1995895977311082,-0.5468805937409519,-2.1329291711328686,1.9785791960447572
-3.033700429111783,0.19641830607903518,0.5363446323577648,-0.9730776691364467,0.5935873217960519,0.5892070617929502,0.535638126038755,0.17894568701618266,-1.6314057710071437,-1.045960111846271
-6.288855263336437,1.2922369923233248,2.264674907344157,3.718387607083827,1.6730855686919182,-0.5640556817436968,-0.42104544947218314,0.8087048821248235,3.343167030207005,1.4491297930879559
-5.908120318339537,0.8257920525213087,3.332355396473515,3.21099514060562,1.4517393469473996,-2.7876933289420602,0.8758367326012413,-2.3211239497119305,2.647270085730177,2.508940443446887
-1.242251241212142,0.22714780315736513,-0.08799987190537539,0.527645254069684,-0.04003675639482147,-0.23521819757066742,-0.42241761233532743,0.1268520978186618,1.0872889116251645,0.06622898399391107
0.9372454928033391,0.463385293965498,-0.17059274180855588,-0.5192005966864026,1.251132849992392,1.420430123385356,-0.21751788222515162,0.36151438474001374,0.9559032663243473,-1.5876973350671257
-0.8365968088168647,0.15929301130848125,1.9983812909759298,0.22243765356569523,0.532791850382313,0.78690829754181,2.2703753097416093,0.4933144099119513,-0.08537231425887959,-0.6402673681991895
-5.404034071839633,0.2935308447425037,1.6683489983698996,-0.11326484034103831,0.1069742006650046,0.6755849920955235,0.0761473325326159,-0.1678324446065218,3.884318769857959,1.7028415474980467
-2.3233479547769496,0.45680386843149656,-0.3313753951441669,-0.2633663300628856,0.9557944944479879,-0.7800230798299019,-1.574886303718222,-0.06695504458470791,0.735009657461641,0.9047436231763841
-2.297261032457609,0.6939630280626637,1.4009293168147243,0.5157136097749347,2.0652521716296657,-0.3515973000445366,1.4485212054649799,-0.8339302400401635,0.30253369746340036,3.7143927631938083
0.5468033197904684,-0.5127449355155637,-0.5246344591389991,-1.226342872050861,1.1908500642917283,1.8354118544922107,-1.4181546435283938,-0.3899804054169519,1.849513059893119,0.15851832240175132
0.5859556892873035,-1.1606483369421006,1.38941884348323,0.7328222239878234,-1.1177286065085348,1.6217733395455867,-0.48293179749305465,1.0524098664375048,-1.5818622435821166,-0.2829198853612811
3.4302882385175755,-0.6907381394162696,-0.8834038923484961,-1.652670966387397,-0.2847316752281131,-1.0431205953412257,-0.20206259979738464,-0.9766601681075332,-0.6458568786913506,0.5908649632349103
-6.198706262037454,0.36548662289744943,2.550166323695062,1.5535241258821277,-0.06354771580330866,-0.7624124019198824,-1.0915626760744634,-1.4886398336364757,1.956168599011853,0.11144753979112669
-10.375562069182479,2.1695497396575893,2.9707234145552106,3.460503540167183,1.2187227898825752,-3.6319860152030676,1.3692814647031808,-1.8555554472989968,2.0686147013441896,0.5290288901685807
-2.5345518916775798,0.688359487518566,1.3154192358498893,1.9378687932814929,-1.6522545940816702,-0.4633049665525632,1.5620961205168244,-1.698944438601501,0.47702638477980897,1.226373195433848
0.6269006377207321,0.7745703812734515,0.3398231208986413,1.2531731806654738,0.9166202880905769,-1.6795226668565681,1.1663770641380242,-1.140876063221499,2.6066350526232354,0.7916200285067737
-3.6542800382343503,0.6953497005520073,1.7978776084213632,0.9160319625401873,0.07899322350636484,-0.3330054696774597,0.9871035403569375,-0.6795654782263607,0.6916896946377681,0.8352188909984711
-2.905677420677982,1.2853037493470678,2.2043735888309604,3.7190664328217626,0.26408673971095825,-1.1001675397888127,2.719286649867495,-1.3162661826741076,-0.9092912223905758,2.284727173361492
-1.0248949827188116,0.4426872937160644,0.4410247931311835,1.511505096952307,-0.05028546440326429,-0.3994086604714869,0.2568798522268909,0.1805170090569015,0.9001523795751386,0.05792779300856063
1.7604999961216048,0.2060153906733288,0.48665699901895354,-0.7606785150239702,1.5491011193562696,-1.3092970723200632,-2.520171708543017,0.43316825642782225,-1.37357746551512,-0.4702443935671258
-0.7360879803180774,0.20763485420322342,3.0376437820694955,3.017098520960512,0.8581058299820706,-0.01316409574924382,-0.28011176036728797,-1.3846858968371285,1.0226111666002033,2.602632490414373
1.0453952107150801,-0.6602453886068688,1.3711762370193918,0.678393651315211,0.9142801868267907,-0.9468115672454154,-0.874841829762263,1.2945259113055425,0.3529166660146185,-1.337292971719177
-3.590978501498232,0.21942619781045328,2.2371243961900813,3.0660471641583644,1.7060176518755867,-1.2193330822797621,0.38485073212019305,-0.355063123711844,2.292521086339973,0.28830000821394486
-4.267428748542068,1.3441190182501104,0.03483047191412658,0.6321939013401864,1.6412865446513183,-1.2281341791688039,0.20544439456206057,-0.3474572844787519,-0.41961953019088094,0.17432070575246464
-3.8154413061292485,0.89346272616334,0.6961302939235081,0.7948340806176766,2.0177996795778785,0.5954191553131198,-0.03820892747294728,1.4014366369844327,0.38982215555601113,-0.24221182608663855
4.120012592336553,-0.17316794533737367,-0.6904694004208995,-0.8566583615662737,0.317206789260984,2.5975952699830542,-1.5896125540605237,1.5223676521099634,-0.03053422071490283,-3.8862863420748206
-5.710587795351678,0.7738874502191774,2.3866764193138303,2.458685195561577,-0.6813019022773767,1.5925216921727812,1.8519579448236785,-1.4563749825907695,-0.014084626092748118,1.5331086907380373
-5.566529713396055,0.9728967166766056,1.2135969673835474,1.3041540747329465,1.2019451313968406,-1.7868629802215958,2.10681457872795,-0.33333500066367483,2.629013539678235,1.8790757837943504
-1.713844217199156,0.1910623006830391,2.7006116454756115,1.5815621870307672,-0.840226203472032,-2.0241669683364205,-0.4089865069483972,0.10899266502698512,1.6513387300325753,1.0803713641121222
2.729994291562505,-0.2953771734536239,-0.162265542963972,-1.6903944307529222,0.49688565980436233,-0.4506177127474865,1.2245484325110023,0.9712682441814642,-1.1782523029995404,-3.480589552093276
-3.3033822945373696,0.23068477625497064,2.9986480645662255,2.542101161244593,-0.8898129252446332,-1.8301926073640415,0.2029480178859538,0.19302674485637195,1.2275035065945932,1.7002627823223009
-3.752479450405415,0.43838879068104997,-0.544494689501638,0.7393814404878337,0.31495180275355283,1.2986266992307989,-0.2873620760015679,1.2429086914892546,-0.2765833214587532,-0.14835669049866787
1.1357553199992827,-0.15861176773292823,-0.7023882951104936,-0.6661747732375634,-0.13380291683678364,-0.4507149113324361,0.10826335914841358,0.9837625182906186,-0.7756712048163759,2.0597174104826363
-4.55079547067664,1.3098511819067922,2.5660643495527817,3.2824093171433897,-0.07914011619413627,-1.7628551121366893,-0.2365057458801548,-2.588677776224336,4.822329678171917,1.9307708203314493
-3.0840184723295088,-0.004694696761437505,-0.3271582937901317,0.8335685437950122,1.225410706580894,0.19313461540014076,1.0854556724687832,-0.9355109052571036,2.1456599309599955,2.672549276284494
-4.478512414763046,0.28137416801102866,-0.539793133642472,0.4292020598221498,-1.2828756002057706,1.2359000452498565,-0.761941105776468,0.4420645709234483,-1.1998063251572535,-0.6157458353722344
-2.7596247662742943,-0.0075443461760455605,2.562363350196331,4.108098038107017,1.6972698800298103,0.4791155646169444,-0.3191396306113429,-1.5794578845486051,3.630669734279091,4.064440022861788
0.5541419972552981,-0.8238397536559318,2.5248944757601928,2.6320929511332793,2.2179794736658436,0.8909453420769587,-1.3536989584785646,-0.03655047682634571,-3.566237741533585,-0.9358691445183602
0.03056241495864576,-0.6081718191096219,0.55140921799701,-0.9038197246420812,-0.6898971132191803,-1.1901672018165126,-0.09900608003959135,1.131509171580906,-0.9987005390200797,-0.6355415573461644
-2.4179794568776964,1.3060951949473574,3.413611908746592,2.0922270392034856,1.1809391828383151,0.7305968621827074,1.3867549321747512,-0.6620422682487799,0.6255338750222366,-0.8416563260951144
-3.991283376677713,1.0289865050846294,2.4719972703635458,4.365741963871514,1.2965670562153688,-0.9483408396142943,-0.10063545664954082,-2.496849789249427,2.2488641824230378,3.3809465932785265
0.41215314308496037,-0.32250600402137314,-0.3776957296952047,0.08647222935295563,0.3860889444618759,-0.21383782760879966,1.7718314980526506,1.7932402137476906,1.4790130116313547,-1.5712918883954163
-0.3293099950755262,1.1299896033076238,-0.4376813069963077,-0.28584852781641223,0.43036169219472364,-2.366069665862902,-0.7136071027971741,-0.31877642576753695,1.9034008820699237,1.792322353356369
2.090608780061191,-0.5819332869271377,1.1871017134243216,0.9740257944317542,0.3532734768669881,-0.4564395098934552,0.9258211738724603,-0.9987228640327587,-0.2607331600696537,1.1152414210476056
-0.9914288168973951,0.254934826459598,1.2675277757234396,1.1087811947926864,-0.6445994415217109,-1.03382293797771,-0.6736188488252935,-0.707655684266142,0.2126649055917357,-0.9748684329968768
-3.5400255641813314,0.27250981024670484,-0.4534111989656152,0.632803861588438,-0.20387351695333772,-0.2667826114483281,-0.29293541131746437,0.32490188392762553,-0.5825434050981722,1.312766195764283
-3.278883984800849,-0.056945536079970493,0.27621938463440454,0.9123149142712869,0.4749828381210363,-0.5446897169244647,-0.995115893707483,-0.11910298368361176,1.1288171603797503,-2.110467511550354
-3.4692704673369033,0.3967138881544814,1.6857217571693792,0.7550455648995651,0.17684774581336862,-0.07304082136156753,-0.6354500362309935,-1.9826139216574292,-0.13939699839380482,-0.6595060189751093
4.683817309448644,-0.3894887267532339,-0.20857523511695586,-0.6415570598552616,1.4817414090973473,-0.5161366634484004,0.09028670787791983,0.7896886482788475,-0.9900964036799894,-1.1502996860646484
2.5174870595511467,-0.6996876497921599,0.044876911285623544,-0.8812952782421302,0.16851325307828938,2.3698366452754223,0.3894561342850976,0.4234917633364554,-0.04251870214053358,0.5366182432484458
-4.620362539342935,0.3588225967052158,0.8144682497451354,1.2741971703156827,0.36177824841642314,0.7638256812416635,1.6147421540149758,1.459584848081363,1.7876621604703498,-1.795799316978413
-0.6630252745621007,0.9016688020656809,0.2804802356474716,0.1027529205195,2.5359066153954193,0.44714653204186267,-1.4968456045193137,0.6676205787811695,-1.4533787154525781,-1.6886227921363448
-5.926838646845723,1.0351324138391962,1.8333739788123795,2.207776884515095,1.177541410043803,-1.6741036290808957,1.9620369560008568,-2.2581600799507098,0.29108550089016977,2.4443344466889054
1.9103015493465378,-0.7532545693966263,-0.5536352051962032,-2.115353866817339,-2.294895297221111,-0.011128567185577753,-1.2143815188755809,0.31648061995405974,0.21347169298857685,-2.0008642527204947
0.44516551683263633,0.04194615112426535,2.786911302116956,2.3213288602318203,1.8190925777415907,1.4635644506868493,1.5869169206069558,1.2700789899546108,1.2437015731901784,0.02959964153694042
0.2532249002931241,-0.1468527434331364,0.05155310318747075,0.9157397271650393,-1.0697849189291198,-0.8630504366171281,1.4019508671482512,-2.864250319323747,0.12982446933826508,0.26042309631742305
-0.7273890824011078,0.1837314910727572,0.16356516758298034,0.11257582144308982,0.2296797252674447,-1.8816241594405585,0.7148832922884286,-0.49095815121198627,-0.210065057547616,1.20576569453824
3.10657456832491,-0.706754256640113,0.42013527405731477,-0.9229574261801652,-1.5138097115372453,1.1070846583737148,0.6239323339524292,-0.5369052662752333,-2.503340233616874,-3.1886427233461045
-6.316124859205195,1.1740095789326155,3.4157723055943183,1.8678745619371213,-0.2723921688376784,-1.2583519508903342,1.1746350769218483,-0.7511246349353415,-1.9861431720063871,-0.15641055236631077
-0.24970039906264768,0.6079337418196767,2.5342259162816285,2.608771835513369,2.508500969263092,3.6064666356879895,0.23290159577352484,-0.9084777381687082,3.1581836886532724,0.4286894948692538
1.1454953826127685,-0.19499927754197,-0.5447307417909406,0.4225730290719342,2.375664895075895,0.8644152979024667,1.3009317197534265,-0.8417939197968882,0.6195686223248938,0.5067364841422706
-4.458049592374613,0.2878177080570995,1.9809507523458887,2.312107887448474,1.6117292443367506,0.017525920359891256,0.06740214245993313,-1.8116730104259835,3.7159094780416364,2.0490258926608065
-0.9656860955896576,0.30117145056525096,1.489362179379694,1.904503293005829,-0.3525954435602888,0.20245057730887628,2.063641996906063,-1.328677284907797,3.1067717822021548,-0.44992975903479643
-5.600202166892897,0.46595328742455894,0.8354265224378008,0.30904984082774833,-0.5128984187755813,-1.0823333269301274,0.5986994840595672,-0.45421074318497706,0.8106470172687172,0.020562665776939788
-0.035572100412036824,-0.42439040164655567,0.32017153075892835,-0.9945901266993508,-0.8733216802545206,-0.7600771563799783,-0.3989142991238711,-0.996929943369337,2.1490657544337712,0.958707664616656
6.708908142371753,-0.18763108447305052,0.0949608768056378,-0.42518014791076425,-0.22133781058411578,0.5431079716836504,-1.3418827303013174,-0.45820521935161823,-0.5976904726358072,0.34441079009243336
0.1254209029865402,0.059364755142517024,2.045415380813565,1.0045290518963932,-0.41147778515446676,-0.5831837894530477,-0.3363446366793123,1.1001462329087819,-2.0351008197554203,1.1993993390573692
3.2157526455103382,-0.7549082450540845,0.14174944590720684,-0.750568165936412,-0.23797669876084485,-1.8932233235467721,-1.6548921391690823,-0.015998859633597817,-1.5312567690073606,-0.49467128740197785
-2.0137224556320175,0.3528285434707324,2.4117496593917873,2.7273488251721707,1.4254796574794064,0.7935916794579339,0.35100034498769145,-2.591532939888543,2.707653336938514,1.836836303503546
3.7146076859128465,-0.2166201406916266,-0.3910008069511648,-0.7928647086793518,0.12455697859940823,-0.4461947469250416,0.33355920949033346,0.14427986291257378,-2.0016177945272546,-2.9311717349611834
0.9614280204836034,0.44319990273103704,0.3414692237000587,1.7872721092063955,0.3374701503359545,-2.3681462991961304,-1.2245165688055577,-1.4383997795673191,-0.5171243699392012,0.5764927460890074
1.6795169718292953,0.1750317086677468,1.723803400875235,1.408231735726537,-0.18473884079963124,-1.2751265068856874,1.530488654951287,-2.5163876269129357,4.5850891369693,1.3044067178061025
-3.767782520081805,0.7732583935511624,0.4350982415683633,0.24334167951158017,1.4170990494261306,0.8141667848580021,-0.06765606499343929,0.4184158881757819,1.748258573714733,-0.9727071890945758
-2.642632269916275,0.9284748463365035,2.961375346752724,3.0479443314238113,-1.7515155990935964,-0.22735903320732165,1.5821268148428285,-1.2283030884011885,1.7034500414419689,-0.2561479847948434
-2.296349650418515,1.3450473070208482,3.355115469875166,3.294916403847733,2.209173640207734,-0.629844323942021,0.35729597813622377,-0.605342172981959,2.5215364312042827,2.24355846871327
0.400960995705306,0.9598914401566478,0.8482018813186323,0.620362480352777,0.7761337221356951,-0.4156047798980802,0.07383868699743698,-1.4485810412382698,0.5080745743959068,1.7867730188556836
-4.115734021575056,1.1397216063930269,3.298742110336094,1.8560890806538506,0.18459867785597672,1.102070474598526,-2.558238600127618,-0.49461571415284367,1.7121047542302434,-0.14476564372043893
-4.7439960454365995,1.069960852547799,1.3615519849761828,2.199979203710773,1.7359489382896836,-0.32229282569048323,-0.5954674168388144,-1.3899419893812544,1.5499738412193806,0.6539969785094899
3.469186410461053,-0.7126499333215535,-0.013395300008006594,-1.0708186757247742,-2.632922033996042,-0.8598486101802755,1.2004199886616427,0.1717269264027529,-1.1715240592138867,-1.5557856715777028
-4.114838460436418,0.7824427730874812,1.2913676136160777,0.9376523224496119,1.4451372380305907,-0.9336684917162925,-0.6528364539333046,-2.007295526832956,1.6554070884744743,0.3455352144768942
-7.9443967593274145,0.7950180012573588,2.9319399417688405,1.9147851304387413,0.1282537153363596,-2.3389806586257462,-2.0968020384737454,-1.3010002852920706,-0.5774243930450954,2.0096400050073755
1.347384610078582,-0.6090083230940124,-0.9496135551740835,-1.590831227653465,-0.8241185918269686,0.8189285756989491,-1.9422916964054922,1.7393974092846929,0.7175798941452628,-1.4625974909429427
-1.9431471209986992,0.3940256305461275,2.3143580235780887,1.0189929512782463,0.37316860620633513,-2.3724269857938656,-0.6959476226261707,-2.412504094829634,1.2199141750374685,0.993284415600451
2.062744972738621,-0.5336126894525668,0.48880735129349584,-0.036661175176499305,-0.9997365530064928,1.115711967979474,-1.7267185489300465,0.5429692342079318,1.1860881059880357,1.6586290750689356
1.2882611394067287,0.2060981185044175,1.2876768068961124,0.5570035524521447,0.9266434722237324,-0.5351643223455028,-2.481263753170904,-0.5094253708184598,3.9502189215251198,0.9373719045643566
4.78859877854421,-1.42163204667542,0.597037743842717,0.13518274087201027,-1.0782891332421518,0.30181282897309336,0.881907136323986,-0.05172293089209318,0.20704211738536052,-2.0065431020761473
-3.827730791036549,-0.5790787254637313,1.4759527444334255,0.5721589122643,0.0411289059590873,0.04335888387023859,-0.7563216770208975,1.2078272973355304,0.21473788643625094,1.2308406790273787
0.08203690753178185,-0.6033418613032183,-0.3536086431412345,-0.4525095404798033,-1.1653581667523698,-0.8473887988141455,-0.14304507788732335,-0.6242124062496948,1.005396623775361,0.44563490960705576
1.9041499700680713,-0.13129911320460513,0.1924698977047914,0.39849371116651805,-1.1299760530667082,0.17627435246380962,0.07676986707124424,1.0349523422953708,0.44383132830479316,0.8703772803335664
-4.9481273262269445,-0.22686009318199518,0.9246211727868441,2.1830366510339143,-0.4276934842577609,-0.9630560471053609,0.4045674492061728,-0.9273570727090379,0.00654194031459008,0.10837585221630712
-1.6282245663453014,0.6163271287730053,0.9032105083611564,0.7613209984428214,1.4795959715631435,-0.019088738639315816,-0.02692615210764242,-0.7133161894622687,1.626247804415647,-1.6020125023615228
-6.959558414958465,0.5104761591352348,2.6432690479407746,1.9445196856170255,-0.30823942312179226,1.3087573530012726,-0.6583240138728625,0.3330752863020039,2.5839671838872125,0.11109344898592717
-4.5317927958236535,1.5294419784105204,2.88054428356743,3.4799457495134827,3.1598059906936076,-0.4661535217316676,0.8659732405021376,-2.7755279814697356,3.039834981869295,3.031431157661809
0.8720830287399536,0.769609020917598,0.3441710680606773,-0.3101010100806792,1.0896596398781768,-1.5028624251062839,0.16269596403131534,-0.1833733354415662,-1.1588597902806494,0.2783806005409856
-6.998856088331784,0.5863910962079287,3.0093278635766962,1.8440616716921754,2.568122171511887,-0.7380272361043567,-1.9544759146145927,-1.673829628467522,0.4649005786428188,2.6558544060556346
0.9581220132786259,-0.1465852113115699,1.2931923516344015,0.8246516794764897,-2.2445551177314216,0.34701378624736956,0.5362758523565261,-0.12903861173692255,1.423164930336795,-0.756933861511079
4.908323575931382,0.03000904811836004,0.06992259576757531,-0.715395304585738,0.2843638145160201,-0.2834237597088891,0.9570266628393014,1.8599218729155593,-0.32027283117503397,-0.46847516104088704
-4.379259496316467,1.2467590233113193,2.7350410741177362,2.425149043914182,0.7503227532614484,-1.0512275414104444,0.9200239994456421,-1.9932172222786102,1.773167175842054,3.0646937764902518
-4.390010200897841,1.232980455035169,0.6400294083349143,1.0641176701487929,-0.056572363206949555,-2.166088024071581,1.4695715551359114,-0.5272797759363087,-1.7020909950477359,1.854327566619909
-3.150147245379147,1.021947922066314,-0.8638388942761077,-0.09024250128987236,2.1167415559360423,-1.3334943422923247,1.0283060190263773,-1.226171762010667,-0.32267010600367957,-0.49640213031261105
2.3825771699810194,-0.12947607904959094,-0.9937629259969298,-0.4869429999997338,0.45749634797271904,-0.5524535531209154,0.900055850628831,-1.1127448264125648,0.011136518947069594,0.9281270315260106
0.8775092506148943,0.18972515663931397,0.7457882921396524,0.6191773819652505,-1.238552006546663,1.3654460167468596,-1.2130389672809245,1.6110803850884454,-3.4779942989741155,-0.9915797143575827
3.5239425142400114,0.6782117907810469,-0.9655442310724804,-0.28348535550518705,0.38707355351948874,0.5512422927373497,-0.6813561759067411,-0.825593418032035,-3.7580732120049167,-1.1547862367574155
-5.233279376200618,-0.6361168181731991,0.9356600915058935,1.3213796859426197,-1.2630491249483038,0.1419015722109699,0.7765768749680629,-0.6666166745830688,1.197899937845966,2.3725122501525435
3.6417548384901393,-0.5626338452790862,-0.4544680397132803,-1.484440728291818,-0.3746870705378256,-0.287443386395577,-1.1702444264787208,-0.33733889903634484,1.5796565022211788,-0.018817276069736925
-1.7792184857448872,0.6269657193400354,2.492592880254378,1.2313230878796368,-0.017523011064999854,-0.6279319435131795,1.3350820815978914,-0.4265569259397529,-0.7106622221582442,2.734155654946989
4.034854128210715,-1.6798453230382946,-0.16272466899243787,-1.899349218462832,-0.3426764720504241,2.648555637131861,-2.15116429204509,1.3406465941869734,-2.40238235396684,-0.7490282840361568
1.239985288175108,-0.5451228960842833,-0.05429624521833265,-1.3796277403638189,-2.249380468575511,0.1836077607452188,1.4693253229250707,0.7043007891599946,1.7978923548899524,-0.04065714367487866
7.95597359028794,-0.7132011039435535,0.01668000214494958,-1.4683713298211476,-0.6415140742641169,-1.5284918787589787,0.8940747680715312,1.6819192267953516,-3.187276188008023,-1.4970716763061953
-0.9245803310023344,0.6475720332407812,2.7605976124632305,3.0818343239014645,0.7073965205265013,-0.09235948388509767,1.274024831813551,-1.1617171160817465,1.4261109743105633,1.027717067328308
-2.166173350340323,0.6912808684422123,2.843605387743104,2.4133735404241228,0.49494376796546485,0.45101729911806177,-0.14359384467969624,-0.6824219620616188,0.17668096807736616,1.072418117292233
-2.674396444307505,0.7937706688827381,3.134321212406877,2.7303665036082423,0.16014375415384843,-1.0721176316922327,2.1398223265856995,-1.2415800984901453,2.0932237903285302,1.5648271687609765
-1.8345441986077253,1.332317385076568,3.230859728236492,3.105043143571909,3.3566030520188743,-1.2524311819863145,-1.5002341571886069,-2.4917406583570885,1.9243343012984098,1.4911866073914697
2.8646054907013703,-0.08938847955677749,0.09302547744696432,-1.0254348085671867,-1.0875093641448594,-0.6404810843806185,0.11114432157741362,0.8595205817124588,0.09361884027624631,-2.6943520196278583
-4.151948933121953,1.2487386270020109,2.91816266241593,3.1767176390393383,1.957764155105477,0.08494522180252093,0.8541673851903792,-2.2608061470585126,1.5565443476774279,4.533541246306106
-3.8535583786058782,1.0150070078712212,2.914708679574861,4.552134488202244,0.6134098435650083,-1.547270799397691,-0.7017251589231336,-2.3157826865342623,0.6863321696488087,1.398718811992778
2.784827174090421,0.3138876834570108,0.12257000678750041,0.3479651943661862,-0.4655891604640914,-2.169670016431954,3.600495412075849,-0.8621710844516653,1.1697759405893629,-0.783888627856092
0.23083729161632335,-0.5258949060506122,0.6280070457807831,-0.3283154463307442,-1.4418484339250903,0.1387013189793192,-0.7468407223585029,-0.682404080741493,0.042674262320026364,0.939382844907079
-4.355172917883339,0.26372170515257304,-0.32997318079063265,1.4929273926147435,-1.5205213956105719,-2.041641330383043,0.9113591342182933,-1.4786239912340786,0.5837628765381305,1.302024087403632
1.2817379706036578,-0.4787009849658145,1.6952564357974462,0.4180139218871348,-2.273838370549372,-1.282751689892089,-0.8189465108130249,2.035457156855742,-3.448659257279573,-0.34771527657810475
-2.571953650950558,-0.1654453050051041,-0.5910329042704288,-2.741439094721402,-0.23209175435281632,-0.47624223822993633,0.05955090719676651,1.5682457498099331,-2.0757189148529003,-2.211226544859311
4.071856867097524,-0.9579715756393461,0.1852741685925514,0.02189229060768672,0.6760000544634105,1.6942547642455397,-0.09352149506605414,-0.3574854483096064,-1.5894939182125933,-1.6440092553239933
1.7475230918346218,0.6324724832844436,1.3888800883521033,-0.11290364175319555,1.0138988616636735,-0.4308352391588455,-0.37600334424895354,-1.765650887449138,-0.7581092816288255,0.6188537379098774
0.5053930609601504,0.47838640088881335,0.6714011441360579,1.7271317261198906,1.0983404524873235,-0.7426610861564529,0.12036697285270087,0.41014277364497553,1.5881126263222307,0.567727589085871
-2.134879337973992,-0.7469411656469046,1.0173703547679342,2.024527855102085,-2.9300353307910827,-1.2222660328399626,0.6907960857332287,-1.2388946089293367,0.7422239201385602,-0.6628939183570108
3.807681524053982,0.23703514907927786,-0.11031556440972823,-0.144297452512384,1.9154671941151642,-1.297168711856078,0.5374297681526232,-1.3774824309888563,1.0400408362932814,0.23129744643116437
-3.5528429960095065,0.5572355989525464,2.292434494214177,2.8240084049441103,-1.4224617495751113,-0.6803437839340919,-1.254865345137511,-1.9645855739387323,-0.2383166657566426,1.8420094414498538
3.5170041291687144,0.33129333863668436,-0.182875905406648,-0.30980792556611275,-0.4710805695668657,0.33569740185776,-0.22794422759659014,0.16828162262695484,0.39418600958701233,0.5470763365740479
-3.021238522393539,0.17079794424135736,0.4252198798511677,2.5210388626450215,-0.48394663455230374,-1.2180790419957206,0.8215705655988221,-1.6150862303045153,-0.11563657606133627,2.0766069390951256
1.930230503762822,-0.09218904510787564,0.051838776366075257,-0.2910003504866768,0.4459071322376269,0.8589241404961546,-0.8497103426705014,0.7140180327206069,-1.26879780976774,-0.16399769810931258
-1.0362336870845785,-0.03537023489348204,0.6947724641557065,1.2372774255171157,-2.3023854554812235,-0.4028960201648979,0.2449883974190717,1.241979150204537,-0.24946286734336942,-0.7490427756116402
-6.6049684938063855,1.0783335198513986,2.9710603293867397,3.5005330078713817,1.2420393490265227,0.8698489712306672,1.5826653092022378,-2.8995678135552785,3.9408571078233403,2.806409846120145
-0.463804687027886,1.068002832972711,1.1612672660884016,1.8643290090099354,-0.5118900719269264,0.08520737451828408,2.896115981216705,2.067464043386939,2.6160050889152218,-0.5498240287093528
4.518341274864327,-0.6180126996200443,-0.7809874034479178,-0.3085479325140562,0.2519486219023722,1.2530020004666111,1.2146650193109525,-0.5786086028895608,-2.2821037641361785,-1.5171449007517548
-3.8284829274068537,0.46155515016183507,3.1021780703943573,4.718587170494445,0.6636666539474786,0.9309967656808799,1.0565285914979852,-2.015379555019453,2.777424092966622,0.9423869054977778
-2.4079202636848804,1.1802211278283907,0.5039278995597105,-0.7965394116114062,2.501681530089925,0.650331424589242,0.551968632796944,-0.48356109150091103,3.0033878856917604,1.0645562639346478
-3.093327373268089,0.9567738504094281,-0.010704811952622295,0.8796519881363286,1.4230312772215679,0.4369229377045796,0.51614676670071,-1.1949885205582225,2.351701767842222,0.5323885779484617
-4.028222388227521,1.6119534761377472,1.701958174360879,1.6314819459141123,2.933374027969351,-0.42269024077590583,0.16587719502443343,-1.7459087854616042,3.2630459538790446,0.8099968828444992
-4.272438410352828,0.1296371049215995,3.090532342474707,2.7077676180263106,0.015585724737081273,1.0929014913449746,0.2249131705168572,-2.3519393699972317,3.0548618560641536,0.7364832088925654
-1.6430610054408201,0.3583004069040121,3.4097906227928654,2.336928190717008,0.15162419044430062,-0.7128451241234189,0.04933654055724354,-1.2761569118022733,1.7114187897430633,2.18484863287739
0.09127547094064473,-0.4000131663817972,-0.1576212717929648,0.26284287665818196,0.93747644969423,0.12974497742939695,0.9185536518951033,-1.0924717050000854,-0.5838224481433875,1.4051537853803726
-0.8821387009897961,0.19191178801945621,3.0988747720340006,3.3205605346717557,1.990372035779533,0.9156987731287188,-3.8413762436126246,-1.2111583140907216,2.086897661565377,3.1639930714275213
-0.6142775895200407,0.3358668872016191,-0.5252673398679164,-0.27021629646592915,-0.4654436145337033,-0.9647413986717499,-1.6160629919594915,0.06837527075571226,0.5673799198505332,2.6295232110932867
-2.330286173795636,-0.3928321732974239,0.6952534601930338,1.2603556315345548,-0.8785921358979942,0.18135320976528865,0.67838611344487,-2.182428108635767,0.5316348980197659,2.222406345689707
-2.2341802695012487,1.0871528792927994,-0.14293720752079397,-0.0674025551837606,2.4698927701420272,0.1876210433234924,1.4098716997324352,0.27682536232569277,0.21916990856290217,0.012868711703273675
1.0692233195279586,-0.0708245188270343,-0.1668561513777571,-0.585777143739798,-0.8598137762645331,-1.7966545376402268,-0.7377132230971614,0.24457692766651368,2.1679698359464816,0.07816798693021146
-3.0920607063875707,1.419184959992583,2.9889842176403243,2.683333248129349,2.0369525243311473,-0.5625430919195371,1.5192250138900387,-2.468550605635558,2.9023426303813205,0.9237870423580957
-1.6366933380880653,-0.08298145429886443,0.11362556064756646,0.3035386709805919,0.044716101462799376,-0.6053755800337025,-2.2233194397047913,-1.919523580187524,0.18304477344913922,0.964940469569988
-1.854093512775223,-0.36324900127661,0.8510174680774678,1.152869087946316,0.6150774358313449,-1.4464178360953197,1.190803108398428,-0.5016811700949135,1.645148173678128,-0.41462915732174355
-1.746309446352353,0.6064997581677046,1.7887549162277838,1.579321348044244,1.691775340493896,0.498409193695841,-2.4688828739925786,-1.843121714145023,1.2039152191542815,1.246953824114596
4.322261563732361,-0.038699244072774225,-0.8774209462124593,-1.0421964823557315,-1.247385031672963,-1.1548393003472763,-2.315020874330295,1.3200745749248872,0.8515627671818508,-0.3293714063038026
0.8837052555954863,0.16073300704818935,3.1465356115972822,0.4614810705840922,-1.7223485373637937,0.8311323664951455,0.39612533434450886,0.48767448401961727,0.36468909315402437,0.7172285922208997
-4.711769461345736,0.6762402682705481,0.7212434529922696,-0.8610905614441304,1.6699648505514149,1.38287833078149,2.2489881193829415,-2.5049325401367044,1.4730457949449784,0.3373962216986697
1.1828017558496036,0.7191723107939343,-0.9429603335608862,-1.5698152065440794,-0.037105823559934574,0.5239175649356269,0.9195172825997553,1.234221436623701,-1.7599706737116572,0.3410958779864338
-3.7357029820313654,1.2044482450035465,3.0801116867671707,3.9189208558547737,2.0195204565126708,0.032920405680018805,-1.8641672844107644,-0.2343077515661265,2.3203557832311987,3.9371417303984493
2.8061372008235925,-0.9427431000335835,1.1206374858374462,-0.013307343231286541,-1.871373517371187,0.06561606087164265,0.01843777604433808,-0.48050699926597523,1.4633505594376683,-0.5837737960780337
-1.6039346193647361,0.3369730553923685,-0.40357457510284755,0.5130074695331733,1.0249245606520043,-1.5023799396029998,1.321978797638779,-0.7254883783885213,-0.9703033261204644,-1.2593595741575132
-1.904744156242293,-0.09928273615618805,0.2028419130723338,-0.31306491889553884,0.4697713228891413,0.1224308031490251,-2.0287605338039354,0.0030481396464303034,-2.048252736677623,0.6086830544744993
-4.714035167648644,1.028475825258778,-0.6493070217214651,0.8905673175532275,2.5884238242134536,-1.31634489333903,1.2922649291602815,-2.0087985480409634,1.4932452606517372,1.3336006650662358
2.2758081566621726,-0.7681724105523928,-0.5587650696017018,-0.5529943931507696,-0.8567824043022496,1.9087516142380347,-2.662847526680596,-0.46541099346696596,0.8127840785817589,-1.5014317367496324
0.8438892582882057,0.6284048409305012,0.6061593409933261,1.6582613466345588,1.261009209633587,-0.0813383221697811,1.6974929713670768,-1.1710594677228983,-0.21298682472198152,-0.4729373676582082
-6.16066953641449,1.2384679742288403,3.0709837360974435,3.3238535482572638,2.3955900362007343,1.1788568308422867,-1.9461545629648636,-1.2714984586188502,2.98083691088349,0.10875374121364402
-1.5018344244824886,0.5572518202509732,3.2971914628544923,1.620311631552079,1.4259656376742063,0.3490486710823998,-1.1747942522017376,-0.278737677711704,3.5310880252517984,2.564512772425167
-4.002613188898941,0.599770481773224,1.0954492671123157,0.12222482258490872,0.6372899805018296,0.42646070153154586,0.6101374814616768,-2.341012107999373,1.748151527648629,1.3205530586328345
2.265984572015681,-0.20834441790517144,-0.07758570635506601,1.0184219346066004,0.425123681740855,-2.2097865177251714,3.018199884295378,-1.4109388700702428,-0.7820558118627172,2.0419866390933312
-3.2602464735793304,1.0367721413952196,1.6125571399401504,0.20197488618085144,2.7133611258061454,-1.9947603133632357,0.29001349003703225,-0.5669253845039884,2.0096796618083346,0.11933634092322656
-0.06665086449630021,1.0603832917651679,-0.38058629518321463,1.1054064438538973,-0.17192200505964927,1.8648718713872663,-0.6734659669603638,-2.110391177179329,0.39001823262915325,3.926947033226641
-2.507756027648513,0.6142537453904287,0.735890320632405,0.9038512165337832,1.0089750425345074,-0.3636085529496822,0.13416961175461112,-1.3047839043596774,1.5101282690390267,-0.3487739300555122
-3.0148480088149485,1.0946389486263668,3.4383606578312547,3.8919253604106565,1.3496956654681729,1.2484152169210037,1.2401312085321372,-1.7618716461138135,2.8316881846205226,2.804768401303826
0.41421052745678794,-0.04869571267852199,1.314117879074523,2.241215050858506,0.5578474445737573,-2.053302410087104,0.18511130839969617,-0.25780331722454225,1.6988056777300575,0.3649981986997185
-0.08701634955331974,0.31299302773449283,0.1504824949064636,1.0552115385518541,-0.23879120025291348,-0.05010946301643643,-0.0347092186230164,-0.6146360527552179,0.14078232491311363,0.5605838243950092
2.5990163732421925,0.09268959362847683,1.5894836051928345,0.13734351193792346,-1.6706698828829194,-0.15147234562537665,-1.6150027058981509,0.15745451864856536,-3.2282173508825576,-0.15143335071344394
4.918632888082782,-0.24217480495439622,-0.16220860268952464,-0.9738839283935273,-0.5298517275847675,1.4267420637214154,-1.703039962132645,1.0369387118209785,-1.9349319269805534,-0.8453294038679735
-2.9152290464305564,0.8980936313194496,2.138545839063598,2.9045197459261534,-1.1272869948448652,1.1424117900998292,0.03066031077019439,-3.9036379190965267,3.133872097100836,3.977075263883917
-0.90191903641077,-0.05985650100937851,1.3398536513726897,-0.19926954363647317,0.7505172671972714,0.36497608560354194,-2.7383630003197337,-1.0439481903344359,-0.36978403127998405,1.5248930238538154
-0.3029353869902283,-0.9015189279618423,0.5003986354380732,-0.8386827776013337,-1.7087581425866454,2.955556609995531,-2.4587882957977456,1.83490585342919,-0.692934304930552,-1.1733046778777334
1.6052027291135182,1.1689282290376546,3.2619666114676775,1.6475663241198364,1.0606366344287683,-0.7537407834285552,-1.138449915470523,1.9756059888395237,0.9344191359301145,3.5978296329591197
3.3405341926339305,-0.7214383376165562,-0.938226924114613,-0.059866289576298436,-0.7596975583159025,0.045836055996999345,-2.0547190873417907,0.04751253678813255,-2.1711608841793257,-1.7635015506752016
1.2006257889191467,-0.2557454282801203,1.2926381771517024,1.2030530038112985,-1.5741038908810907,0.2476100921377206,0.16047982989137205,-0.47145840492058594,1.2568986444504902,-0.7558512310413091
-2.76029262643032,0.17659334448289063,3.106650835190127,3.6297842435921446,1.0506632670908893,1.2564107155555027,0.1211397296360448,-2.180950544260119,1.5519485115743374,2.044289389168722
2.748526325039633,0.10093612283535064,-0.5329802217049115,-0.6893549940591464,0.1030110831629255,0.17582891448372526,-1.0071021877934554,-0.987688283653394,-0.9800405499248412,0.9663992830260815
-0.3241209083454024,0.3744047456613752,0.8833089045975999,0.7254566472281933,-0.18753989444692626,0.35859161542071655,-2.08542359967761,0.9958898018266409,0.7089678359974114,-0.6889658595143138
-2.287530921838358,-0.14631160394332682,-0.330184724251106,0.9464240506757218,1.8649142664086362,-0.5408634664521825,-0.9371263587854932,1.2194368696280034,-1.1868158066304886,-0.882084673823343
0.5789730699770306,-0.27533982458925865,0.318382330268671,0.23867400306186207,-0.4511607081998344,-0.1120636574331319,-1.0727990468871715,-2.2350084791896245,0.7971125543140614,-0.5943194650592655
-0.5605708838330136,0.019492739262968916,2.6598858554152462,-0.17286529532528946,-0.7768875014451748,0.4107405629037184,1.4322419884054014,1.5538532175104787,-0.23107011862294147,1.7680466942189033
0.1286149871336089,0.22656250918906964,1.8976943359175378,2.0314930690197692,0.7555784644667998,-0.18343834868643033,-0.3330627291198192,-1.7594129832325454,1.2066525477096375,0.19001065020810284
0.2783655997619837,0.03926338155281443,1.9719682701432042,2.712516776386834,0.39949204655831194,-0.05177349556112254,2.1645165620531523,-0.49760664333306515,3.357646621719766,3.9685460710612213
-0.7810628987231856,0.22568077125765504,2.743798236453477,0.05867136512166111,-0.6140836401735772,0.33818604307353467,-0.4167814466747822,-1.1508735496548528,1.184668091304262,-2.033691979399629
0.048022163566903454,0.46977443406523356,-0.3943464521103015,-0.2680171065277524,0.1369837681404344,-1.0410538744934956,-1.1630921021714957,0.23469028318126417,-1.575814061789015,-1.2262010671107308
0.2644765742322564,-0.7906798258152087,1.4753007041504618,1.4564993779603792,0.606481923763512,0.2836047003812022,-1.2343005690046875,0.05651392479947642,-2.226822748385414,-0.8474282999382635
1.1838734654780567,1.3926401882655597,0.6828509644779597,1.8174407656889013,1.5007080503080936,0.36211423256907604,0.2036487408480413,-0.6893415694412535,2.044756086139039,-0.17281774058356367
-5.566698411848252,2.016785452386439,2.735639203749039,4.4144816115042005,2.80337897515653,-0.19843068337995295,-0.2182586134137388,-4.791259780632542,2.665376688225393,3.4392453203272275
-3.300371353500002,0.9000780327690793,-0.49339800684384116,-0.1356648179923545,-1.2254001209923688,0.9812370234696488,-1.3872035767918927,0.41552989085134573,-1.2082681159228263,0.066764493275817
-3.690018976298415,1.0907912046409265,3.4222349401950805,4.709762606036678,1.7113227253281897,0.6529830485729409,1.467304604284108,-2.397612628988775,3.1873502139156518,1.5855986511136366
-2.4778914867625144,-0.06014112222678217,-0.6530488490907149,0.08574165031597812,0.18865833331818188,0.7030813899572855,-1.7592749052470171,0.20863263210018024,1.858652188639525,-0.14669344951746177
-5.969106853375162,0.14220394582639992,-0.4488859874276556,1.0043530633787228,-1.5592871745043684,0.8084599894896496,1.60481008418953,-0.3034283966629766,2.736276083565459,0.00807771053674432
-3.026267540278751,-0.7897770828145507,0.07724456205305064,-0.3793222505248091,0.9550508382456476,1.3043251940864358,0.15244194244529724,-0.22882411127686733,1.60160050291145,0.4074384220587723
-4.67514475435736,0.672086365563585,3.009764041207248,2.3332480254521726,-0.7051331275373898,-1.8971964733822486,2.1341070953464047,-1.8076974742822296,-0.3295908203604682,1.7617836763492851
0.45956084620995413,0.39967929064473984,0.5894398072885734,0.2398797171828319,0.26422545903399836,-2.3274277867266124,1.293944665574226,-0.47635518336615146,-0.8847616696836751,-0.8822723682668728
-3.899294762415234,-0.024132486307567168,2.807932549617212,1.4417558402698702,-1.8247432275586382,-1.1502961851508007,-0.20949314747554082,-0.9162075891016151,-1.4336617570785346,0.6629275506900131
-3.360937533723555,1.1591336298544794,1.8404139851676686,2.2851019956630796,2.824216467718648,-2.1306964915757782,0.30188427201906237,-1.7659187820121356,4.175902274499832,0.9425761679726191
-3.3531599985977967,-1.1079877966555667,-0.11016336662397508,-0.13063933231643288,-1.0080467790631524,0.6517025775112237,0.6996099026399513,-0.829572890438433,1.923318518152171,-0.334713899225327
-3.32437680923177,1.015209333532269,2.4313823286768423,1.4575439676023003,1.2976135006931742,-0.0676779840489311,-1.1165421104558637,-1.279821833568594,1.1948647641557977,1.8992087445598664
-1.3091295733094346,0.8077261149475211,0.0986534994329944,-0.43157030862435675,-0.9024118315606398,-0.8972021829980183,3.4689287681662018,0.3151872966930273,1.621701319986452,1.030470861158898
-3.153892427555855,1.3341508083418914,1.3673494631592815,2.563007629159581,-0.04158952650932982,0.014615619009655552,-0.4080453841742163,-2.5711198027194007,2.425573028140394,2.1889351859297137
-0.4147829959860327,-0.9268295114402072,-0.7461594096810528,-2.7293507999039552,-1.2321646981879202,-0.2490794214892223,-0.5964296396484637,1.5729100025793263,-2.7151817380190777,-3.58986132642057
-1.5169775579804272,0.2813904863989459,1.58114893001812,1.2927374566312755,1.12727751637677,-0.67735999807723,1.4910800312285544,1.349780407490833,0.7132187602751292,0.030585313659285455
-0.5247351843971578,0.36957337464985207,3.185865025706497,3.203264435402884,-1.2775586117493885,0.8962709255398464,-1.3006976035341375,-2.6720093653304464,0.8829544294373874,1.2367263346237045
-0.260580483765112,0.5948178052710675,2.1274564254740604,0.49906632353337327,2.4192496598812436,1.615584719789271,0.03049430979543586,0.33203204993732227,0.3126776748329532,1.6083384499679656
-1.9707903307034065,0.033372802429547564,3.234226742961736,3.36202079471149,0.3534716682089572,0.3463584320624174,-0.2242024968179755,-1.6055667849969137,3.5451991055057683,2.1273637997895936
-2.2110982394417222,0.2881015278934874,1.5548446750225753,1.6426064680886518,1.3385464790830508,-1.6473768006087905,1.5880620306536493,-1.1622899525359363,1.480898430125753,1.2888870402458634
-0.9894730597964762,0.20279205510897116,-0.16914306129466683,0.6513818404280499,0.0647670178327463,-0.40675115112886434,3.190266453994341,-0.5665558091568019,0.7258209057749287,0.32681947348063006
-1.6636334831288864,0.7859952414817701,1.5009391289959524,0.8272909070140863,0.655087766955719,-0.8714962988017928,2.5049022024219636,0.8872564173809279,0.17607243656100702,0.9915508236436402
1.2638751741436276,-1.0133846483746753,0.6061230591013267,0.5386803184262248,-0.7035739744116567,0.4893596619326628,-0.911576578027746,0.9127677135761604,-1.5588542144460025,-0.09155227767623975
-0.9459138810036467,-0.03129518729115343,-0.41311817432578035,-0.4404564093424061,0.07277474565150985,0.01620913829358534,0.1283338493215097,-0.4457078847653416,-0.2772474969143509,-0.6707811083572702
-4.399863451662563,1.4271001636804204,3.2219412419210967,3.440346841053253,3.619324000223214,-0.566222568916052,-1.6875894067238357,-2.122356271956944,3.5172091269696493,2.9954561297834776
-0.10566021899205728,1.0960706192289116,-0.5639981409768917,-1.1750396125773104,0.8826194676639567,-0.11638075873302023,1.500235231651099,2.2677961698178373,-1.2931854228313167,-0.17819682072402204
-7.200471384459978,0.8544766145237243,1.2837682139961437,0.37351732043195257,1.321492101443752,0.2973908030899519,1.443819531133449,-0.866003097760726,-0.09334085472420564,3.042632021869795
-4.960276549743399,1.316561182780403,1.3030123166856122,1.0284466623283914,0.9933648632891281,0.08730182373499198,-1.0078286271080623,-1.5432806374668788,0.9781918243548474,1.2932605190950295
0.4209089226713781,0.5536564490692852,0.2973262284793905,0.5805059767337563,1.9343611761262085,-0.2507801904300454,-0.19590691418870274,-1.741647590051907,-1.7897439037531244,1.6978117212041635
-2.9197075964147654,1.1632029394936299,2.9291996044316893,1.8127356579173632,1.7465439129434623,0.5823447256417864,1.1196271709431391,-2.1083973910326415,0.048171432669817674,1.1548137274782246
