x1,x2,x3,x4,x5,y1,y2,y3,y4,y5
0.32567489939057775,-0.17057501101432282,0.8811972495120528,-0.15764827600719067,-0.5265981925721481,2.3590278965185725,4.8235195767195185,-2.018547171525872,8.910131533212432,7.087808417592588
1.8836355171149686,1.1007972811144953,1.5818909895343278,0.21390060460267205,0.10653341669146676,-0.5257086979947294,1.3753602518961852,-1.1397559917854108,-0.4011323094062611,-1.7869556800181607
1.7438645693869907,3.4375737772108623,1.022332882352365,2.4175251899333343,0.5409373197562379,0.2379363843586777,3.390369259351096,-0.5501716112751498,1.867017331338976,2.3729660682786906
6.681635616879246,-0.7412835227516765,2.999898640116454,6.191884852857372,-5.9819481176692015,2.42491335894432,3.9419686837888985,-2.39096728403617,12.893391779131571,8.65576927608971
4.764145773023213,1.3224032406285473,2.615792795805639,4.409614411173947,-2.4361503539634906,2.9192467472773522,2.91317221478372,-1.9994797570651652,6.687848499101124,5.277069172465091
5.4661600086425395,3.035210252360769,2.4874704816168953,4.271786829304025,-3.128531947296365,3.675407668984721,1.9633120206168457,-2.0074661731077965,7.523878723105466,4.819045108449943
5.384286580792192,1.457066878422292,2.4056403438076774,1.7856866044647959,-3.257522941380292,0.9892857329223341,1.9021976139142092,-1.8570724019888065,4.8269360729956965,6.045624935909996
-1.029802732330791,-0.5894712254786023,1.6936420196592703,-0.15832271989014088,-0.49440700008266314,0.7767683078501546,2.4982210856628173,-0.2590605750094315,7.139216485828822,5.459892333828691
6.462998908570505,2.7352393547412697,2.167506022195818,3.935384478666653,-3.848013735640828,-0.9998822098024812,1.6620024459439848,-0.9412733462962593,4.799259104519478,3.204075171294658
6.562177282710061,2.5799797666974738,1.957906825812791,3.905372724221473,-1.0536454430641742,0.03912241748674661,-0.8247326042777092,0.19761711059740134,4.232747714464089,2.3687529770801357
-0.7643920412145366,2.077086589262478,0.01891013818060472,-1.497503212653143,0.9022163759233983,0.20888456764607635,-0.7798260325237247,-0.548140342531302,-2.624078839810402,-2.2580148152515718
0.5393634876760609,1.0325467142625557,1.537569951639183,0.5881277349045673,-3.5087482576007316,0.47328501404691103,-1.5113288712309523,0.8181084351406085,-1.6675101997047301,-0.30092890573225706
6.389263713657925,2.1991607310321335,3.1483825030834653,4.823575969748603,-2.0925839395230748,3.279096045591886,3.383757781224426,-1.1346614660355925,10.061540706649433,7.5005921753067515
2.7921475021091027,-0.0208565404262826,3.463204325546151,2.913628814475123,-4.189212877410137,0.819671093488544,2.95411021207786,-1.4530901256420239,6.822179967444406,5.3070778644137695
3.5741953167448774,-0.5819140208024922,1.875009849949317,2.0383364800402304,-3.8522907352961173,0.3153100900075714,0.8981572748226164,-2.2925511667052887,6.3188668428246455,2.911833621096717
-1.8979390579715605,1.6192455974053659,-0.37062799856556883,0.3201546813479939,0.6464533483030198,-0.23710218744208333,3.53317409482478,-0.7179795134085476,3.0271143520605523,1.5545541801297604
0.2999695073476259,0.47374553556722687,-0.1531016732092143,-2.2692184122795296,0.6015387421909331,2.0896343192439653,1.992068779878553,-1.9957664845172463,3.1795669642473485,4.770923824121326
2.8872639655118753,-0.13957742892068914,1.7242608603441814,0.0569720577308826,-1.6085154998404427,1.1530710467339196,3.45576952842625,-1.7652968155978008,6.161679969637072,5.701653844696309
-0.5383291273555793,2.3047867879361297,2.3306389816232818,0.3465236784199408,-0.03294674494183303,0.1553101656432938,2.5848030821455126,-1.0282211464181392,5.590596070346005,0.1307073837127144
-2.0352154316950024,2.7787853387479213,-0.2345636424220907,-3.092018223107596,1.6492769759263641,4.366975541508395,2.9984645949566118,-1.9075058911443175,1.8553880532269877,3.7157762615860377
1.505908339828381,1.4638586919768404,1.8939507856603037,3.7516263381633337,-1.6494878761571092,1.05492073651007,1.1280439225709509,-0.8846074240338709,9.338865599788123,7.6424585409871675
2.843841382724245,1.3209934248896822,-0.33938117533644396,-0.33116496523514133,1.801733515443477,1.2807100817688668,0.26698903397753954,-1.6246898748991734,1.2107729573066526,1.7862655796250988
-2.766265384659195,2.2560538678478212,-0.23521690089096192,0.4881189545507435,1.491325264190996,0.6008597716203009,-1.8610558495820357,1.2977038407076262,-5.75034776633698,-2.2493599382585536
4.125221893386829,1.9904950809292683,2.1129913893783585,3.280443505058545,-4.274334813928144,-0.9857814935782576,1.04690880058573,-0.5348221988628041,3.074961489208644,4.423409367206088
2.2520564406353714,2.907506112309862,1.1643634488658403,0.8718423719595779,1.1641632003591922,2.8412497304127995,2.949022274486579,0.15849819665895232,0.8533458607379473,0.5741997143257983
-0.8541642201004808,0.4331353157521156,0.2893076733823221,-0.013456748545245922,2.863559587839326,-1.2290078239941793,2.4840940927338098,-0.3022703117888888,0.9104573529239381,2.761586691429623
-2.32592691033013,1.2876743621948967,-0.672424887268228,-2.8105832368385593,2.4213759677492095,1.277164701346705,3.541151285030619,-2.334184088537638,0.9945610835836431,3.245107010453572
4.764040169990955,0.5972996803748869,2.6868208527345496,3.651401584220847,-4.049421471092586,3.044873572856754,3.5707264906260177,-2.6129401273118087,9.86212173618038,6.247141050408061
4.963735229855787,-0.6336722354615802,2.9900341931309398,4.6106030207930075,-4.367267461445441,-1.8219604131869416,-1.8965395147529132,-0.15604921737465496,5.155738997856754,3.7844228082276365
5.5379642408429515,-0.15760075025946907,1.1062060027584915,3.1595292027882462,-2.429570208369639,5.682097361569275,2.992209960469094,-1.1344272322875724,6.39357943223906,5.27655148404969
-2.393278328083118,-0.6747011109952037,1.0521239751687301,-0.501380690933729,0.14394169756869848,4.4457367462476505,1.2351380880434921,-1.8642371024423203,7.643626420214664,4.049537869833708
-5.109634170309106,1.0867049161724838,-0.8132703182969403,-3.882687009819433,3.85716941367383,-0.2895337158654607,-0.5647329394635994,0.35982893757156537,-6.88115726698691,-4.811780057170132
1.6412293201730634,1.1872222974890838,2.156978988348252,0.8757525927687732,-1.3715097913074756,2.029298438103097,-0.44038806560893934,-0.68521607684328,-0.3393645919685253,1.2818941480782329
0.3053361748344101,1.916745396521641,0.7863146643024157,1.53895902425391,0.2938495673552737,-0.4193836937976596,1.4877941067939318,-1.4508599932717465,9.381738830264919,5.452466609629962
4.926304822873754,3.100658072962754,1.554419576874095,3.2979295113781224,-1.6679296736509108,-0.04619135572112709,1.091683794297862,-1.059767074814295,4.336495941918468,3.0870094249426776
9.445376604758774,-0.9019379493491196,2.585816067562434,4.7298533987337965,-5.401336949685083,1.8793020204719149,5.290369510188509,-1.8758672372877228,12.339300198559863,7.404361212774781
4.643076565421164,-0.010680663183009087,2.0669613243557468,3.3473925420786825,-1.293879550242684,0.2189037960694904,-1.7301719232375046,-0.5948741894791447,6.146233033537587,4.627603346856029
5.50209563078168,0.9447259188078518,3.0023959474334365,4.5262324255706385,-4.975631388888114,2.324844934782028,3.1428375925690117,-1.867606186229225,7.301445277590739,6.63671285033792
3.165746888431999,0.6649604732161754,0.5388435267432878,2.717329231675185,-1.5222486432628226,1.619637002849095,-0.4530410781035107,-1.475415199616724,3.864995285587516,0.3349731271795866
-1.146140507524872,2.781985376105032,-0.5690286000347019,-0.10093266221342376,2.6014729877057126,-1.2311577666218692,-0.30409313985568376,-0.789239693334555,0.18204173615959085,0.9761711193182641
2.5409415233289976,-0.779796573323526,3.0806961239727464,1.3159760216920655,-2.8560692291618435,2.9784557446783424,1.3438158815938746,-3.640215307685937,7.878065835297139,6.032520668212765
3.0420178874931936,0.3775792043908788,1.5441958467528911,3.6088908601531378,-1.2967166424771122,-0.5718423277515673,-0.9485284706942065,-0.24192733808799494,3.5158802439187298,2.3645528546873145
3.015599121416392,2.015255968908712,2.3450103880071573,3.098000577351884,-2.1783863326586466,0.00048250714166797604,2.6982926517761574,0.21716039581390545,4.690599407581541,3.395011398316694
-2.1437873994204435,3.10956694143049,-0.42850801154018947,-1.5095986285595995,2.6758475284831738,1.0377933142510458,1.1413532242834676,-2.243278177389879,4.5392464667483825,3.541144833893034
-2.8440454439968637,-0.9408427905419584,-0.9928734253901044,-3.4646974860914073,1.891050384303437,1.3120689420265212,-2.0848068439750764,-0.2375041969804765,-8.037061932313682,-3.9147838956440135
-2.4865528405072905,-0.6407488015037064,0.34326369042259675,-1.6475862625118007,2.598309160727576,-0.5281372324440488,-0.8831522730826029,-0.23452864421976144,0.46209119545082245,-2.2327674138388893
-0.6965316141640462,1.5366306748323426,-0.06272878154168826,2.1865116665479065,1.4209653865253546,2.5678130211022334,5.398008451349201,-1.7097653515874454,4.359615493595226,3.8430565494039275
1.503896404359588,-0.6779721074745091,1.2872151112864176,2.352122848048358,-2.3467710085347897,0.03967600493536605,1.2283839431265953,-2.0129841896584346,6.677057693224019,4.823961211405738
-3.7851118179110848,1.9676066468981799,-0.2697897838144908,-0.7542031499285867,2.145147831691144,-1.161557078539261,1.1656741920730636,-0.6239064274514322,-4.343420078723293,-3.6080487136515043
4.17920156528851,0.09414065752939194,2.806027216204995,2.3183517184628966,-2.007348463599506,-0.6129763967274873,-0.27295880222917396,0.39837644527301,6.250159545742959,4.751300268593855
0.007178338542856358,0.6507041696910083,1.0671980229045563,1.0447663139681618,0.2509602671199237,2.201916991534574,3.370709107743102,-1.6735981588812996,7.7663724402527095,3.813948675831851
5.015746332481517,2.9449250065855943,0.9774106243637304,4.173521367238656,-2.302034167196264,1.5103316421037707,3.1848755223980945,-2.0032272490435674,8.418765323033659,4.289290277994812
0.24153957075131197,3.3952367694176466,1.6713156286844817,1.5199032858637895,-0.48993714349281303,0.45304782385804343,1.231431349802902,-0.35311199162771545,0.8496830492803535,0.8282943156423703
6.168213278874726,0.6675748394334624,0.8113196527055537,2.3334687451705265,-2.2321249685354667,0.03451534810779222,1.0369593171866032,0.8037037641945881,8.794845954487373,4.573889376937462
-2.0817524039374846,3.019172111505773,0.3793335033452785,-0.6655226027214952,1.4516520020181833,-1.4688748397218045,1.1397696551050311,0.5559031044770903,-0.06862746598562897,-0.4251921884113953
6.259188260495371,0.8928331061495591,3.0487156101844795,2.1833732643777144,-2.8055398608306663,-0.27319455040296226,-1.2041121549509897,0.11933142939306314,1.9392015985746665,1.1107132126777275
0.1480173976835531,1.4521005082036522,-0.10140911664625729,2.0709573522264817,0.9551675400600049,2.5956203944720815,1.6835662433923517,-1.44212554684098,8.082334358340287,7.972081390554033
3.321928107900174,2.5473563372378356,1.4429083466367558,2.3253951435995486,-0.18199497934960407,2.681156178586062,1.084082806482021,-1.5066346448445147,9.656430229261314,7.7633612072005995
2.8711560015209314,3.0023460731172227,1.323547415392461,1.9197134895119783,-1.1295090239164594,0.9721504581073042,1.4784117065431306,0.12742979095466153,1.9039462366491653,1.9901804488949164
3.9191503830102024,2.4168717308516214,1.8508874484836277,3.3736734940038886,-0.0945505462598677,-0.24031860473965597,-2.604816996586855,0.8117286804554701,5.281312805833489,0.486257636180277
4.059273683539859,0.2003697906801285,2.295140907521832,3.7982525508945297,-1.8030387799810499,3.629503742277739,3.5035027676860127,-3.4525885435813026,9.921120744390372,9.504791496938465
-0.5120641371957485,2.514157679328189,0.8574311804510926,-0.8226248819958235,1.346212948109611,1.714360020321181,3.3909136115579748,-2.5981615138905885,5.660487616942762,4.268718867399746
3.132357673074779,1.1226868467660536,0.23489530075930554,0.26495282798522557,-0.2501895195233693,4.498537263266211,4.602525377649406,-2.364311420156527,8.622530706121923,7.695494573219481
3.9629332099967876,2.62859055758015,2.239713989003547,1.9192806910554914,-3.0477613974838125,-1.5348822457787181,-0.0033243129919115245,-0.7769323960894726,2.873452387229542,2.014867009825805
3.8649738557165936,0.7370701490081581,2.4734671755549775,3.921996304274619,-2.5305359182886775,-1.351123773706683,0.010032960318650868,0.6454778185532849,3.4613756038833334,1.7308817975988393
3.3678575430717057,3.3252570892801563,1.2232316988816407,3.0247228125410146,0.22338968974718076,2.8600635772508074,4.584320690897351,-2.5679895717805317,6.1410111433674155,6.812034296100096
3.1105192738944574,-0.5104012800610108,2.3731956773360903,-0.6588668521960053,-1.872857029224503,-1.1669721595290354,-0.6496005313752966,0.5690565293228111,2.387795914717662,1.9878416385467277
0.29829367883652974,2.1136366351985245,0.32496242852984714,0.2061939399152061,1.9925459087104074,3.2069779283353723,2.8748512225513907,-3.300815545579466,11.629887124589947,8.337742022285783
2.4843452183474986,1.5734609944648952,2.7128824645468788,2.2520028947035677,-2.7919689529695293,1.29967319071521,3.234504091397927,-2.150720063168698,10.002131139717374,9.008100303861147
-0.6929618854169562,1.9858340962350498,0.5500242258333563,0.5291393654731318,-0.4305546698782079,3.557879800480042,0.9393037108098515,-0.7209397386808744,1.3362196018885193,2.1310836598214973
-2.8253815970344736,1.8178049150014273,0.6028509722950335,-0.5940263869807347,-0.7163438768633703,1.8700201498064288,-0.054546043961233456,0.014541820493619845,-1.8938612605512304,-1.8586884493622824
5.852375897494138,2.9970568157488904,2.672079569728978,2.1858217045493284,-1.872639810222812,4.4050050728724495,4.66303051418062,-2.645925478386451,5.735246872696969,5.416446686735459
6.020180651947431,1.0064507458088459,1.1577687341906167,2.273946952769925,-2.739942817899613,0.5188259848944767,1.2831037519785238,-0.4083026394392657,10.095276816177604,5.7461244913597564
4.01084648462795,-0.471760641554018,3.0844886619674297,3.8254292510145076,-5.008415434445984,1.5041149688498199,2.2459183806583436,-1.3628064372995443,9.31647534964105,8.262468331981317
3.3660095189225157,2.823385485239897,-0.14110995074500332,1.3857721169547137,-1.3912106539942148,2.8572558138398727,4.4100958095718745,-2.758454219098273,12.716785835078186,9.805509901786179
4.881077690095099,0.1563488520199139,1.4217129304524856,4.793188416123437,-6.293223112444916,3.1471303551328864,2.6259041855597993,-0.4257628610936027,10.114122495041407,5.7616874868101675
1.1731543531171016,1.891137842260318,2.2380959078554645,1.1373719849446606,1.0387454382685983,1.6214790150645952,1.3362445750943552,-0.6822040939557347,5.282607242306845,1.4511579275333912
1.2319911265920236,1.5462783882299496,-0.49658353869584027,-0.5559425563233261,0.9319830613014318,1.203905764436692,-0.4163702935382811,-1.5662476130281102,-0.3443245712219439,1.7413970445154445
0.7951348861885849,0.8117742153110588,0.8344357313892694,0.42996738406591495,-0.25380546629102096,1.5146195622533696,2.6205446435020026,-0.5035416623835888,3.2299486595601525,2.8287280557050423
4.940320965925945,1.8730937598621802,2.9830047208637134,3.0245188642483893,-3.487836801996496,2.366816398206187,2.27574851939105,-1.1842099193190743,10.50189277452384,6.998329614641888
7.234856123715667,1.6767687104829232,3.007201731361409,4.1513977930298855,-2.7542689561335303,-1.1241980344028064,0.37419252656455726,0.9223553585937375,3.4519031648926535,2.5164116597798936
3.8849875986117475,3.2884718480259227,0.43700062132623696,3.0717447946594563,0.0838408608115444,-1.3289436630312421,-1.4804286168228054,-0.8379020219715424,-1.4899691899214575,-1.8973695024744148
1.1353060908271917,1.1540912490281068,2.636199614455602,3.2389945116206116,-0.8984284943081728,2.221420536506985,1.1020486136519447,0.049950645490425875,10.34491834775626,6.7129004260821485
1.4360381328702578,0.5665356407689504,1.1132721624738204,1.6311213805053886,-0.04851504730312828,2.333835968551324,4.400313951068559,-1.2885802943067601,0.01915214109100216,2.4248920357997474
9.67662339607221,1.9492735171489173,3.2349101029070173,5.746540037555131,-4.766482750917723,1.0847544531486002,-1.4485101442456483,0.5939933017662486,8.611741249496621,5.265544515148286
0.6405104024921358,-0.273869325304297,-0.6877076487882052,1.6671475327526126,-1.2301712965549387,-1.1576458145695077,0.25662961487242403,-0.36597540890477476,3.7918154424133332,2.373820291826046
3.009155120820051,3.120989758927064,0.8389014379723585,1.1378510172821346,1.5906864938939858,-0.2978291416932902,0.018047243651516113,0.08225785913132556,-0.28090771367407674,-1.1780647482584305
4.49349992154191,-0.36142596270494265,3.2528600974594797,2.853125500148334,-2.6945709062390364,3.7276496629279077,4.207327374659745,-3.1823396970869826,10.67725393116762,7.67540327345863
3.88704857844402,2.236041341964722,-0.46493410428849036,2.2244433293619625,0.1979891721683582,-0.08921023509412063,2.093273179022878,-0.3807127869395125,4.300748148001842,4.775878688536613
1.144098859650409,2.345008965952427,0.16135695692220442,-2.139660789315947,2.617462674418654,-0.056206385609114506,-2.338348439323206,-0.053440021165237245,-0.4372271973783284,-2.7365105395601943
5.561933646958677,1.4760242298736994,1.569875100722836,1.2490745997215549,-2.606358602233668,4.756243305661538,4.194385049249458,-1.8107981625839835,10.78529748765645,8.669604246655252
0.21528955097540917,0.3421624268913066,0.27157689289559594,0.41139481966856234,-0.9963545454194602,-0.8335712624047149,-1.873410902173434,-0.9650417309942004,4.380998089817452,2.381842815634894
4.723663241763229,3.2260230424153447,0.6903672824192866,3.301123535343847,-1.8779189732855666,2.6915134835357937,6.745233603903627,-1.9589435534678512,10.439346934654418,7.48240934717294
-3.207965629218966,3.061639878497595,-0.7704963224894543,-3.1465350795927955,2.143700393885863,1.8018560529491299,3.1942348817111226,-1.1192243347849409,-0.028284416937474077,2.8486286936718854
3.4090102372912363,0.49965520892084836,1.8418562060044517,3.0210285672720136,-1.3465476846641529,1.8930184106479264,0.28426383070597033,-0.6842823409241451,10.82801850819882,8.558231814747767
-0.8754637290772032,-0.738896315649795,0.5555204394286013,0.11557856861260168,-0.5347268056602018,-2.0586996177628625,-1.68988264662994,0.003667691841100111,-0.17307098449520242,1.5846015959681707
3.141816586659654,2.51017584198211,1.1291517176729813,1.6630560270602934,0.2140540787132712,0.714634466513407,1.4949340376722156,-0.4710827455201207,7.376880280119405,6.165999605771269
5.423084257788732,0.2817600410675982,2.1814417810887083,4.07805149527245,-2.8419040581081387,-0.7497599964257934,-2.4587595327753844,-0.1869607044986673,2.0577656317132744,0.6212861553564653
3.1388966191213994,3.141781794523454,-0.3584636437102281,-0.10625995133277745,2.7710964068827506,-0.9249599475885537,0.2720160493714345,-1.0051126742740648,2.654346827360532,0.3240715020728281
-3.4925920778306923,1.2074873395564052,-0.200398984687574,-1.0506345098057415,1.9243849207417865,1.6785253177331387,4.080228076436903,-2.6481053573996816,4.510841136224863,5.737106861589709
3.0225365501705728,0.6229414795346853,1.4901799702424112,2.526062330113258,-2.023118088704653,-0.687769915128868,-2.332449282027919,0.06703351714255064,1.470142598864138,1.4558304932599617
1.917797203088853,2.1253000081657123,2.2361487897589005,1.8816625765843404,-1.3627571991114356,-0.6639366720681732,-0.1652618834092067,-0.5128402744565009,-1.4348184103344712,0.0033426527795823446
-5.368908179983492,1.5297041097426067,-0.9156319173608339,-2.87532451951999,3.8544594753583548,0.18940082926506882,-0.29169302055607743,-0.36928339021615086,-1.1261395669727756,-0.6418724491526318
-5.2490171122883975,2.338175237890341,-0.5160465537507523,-3.762441284020442,4.790485204599756,1.3340570465449364,1.918471439532771,0.46134104201200715,-4.034686780188512,-2.6311736463866024
4.161474080847388,2.8718322234949927,1.4021100901396428,2.175772102985272,-2.261000520512619,-0.5366816678013439,0.44865156926688304,0.08319261255546508,6.20454226989145,4.436926297417071
-4.538933996263297,0.48209457018495505,-0.021151603302310362,-0.7761483385941645,1.3400285147671982,3.191065410303476,3.1246074355508444,-2.3760207938657496,4.6437762142697245,3.037812077015442
-3.2718913190347414,2.0824237181545846,1.179328276552213,-0.31357814523624394,1.2506555910163264,0.4841721324267809,0.4955062548941606,-0.01588823263697962,-6.064125378324816,-1.0524789828736882
5.711557498194641,-0.2442295903238424,3.355429720637008,3.6275234685070328,-4.814095191369504,4.480210551864017,3.181707810463268,-3.02998622132659,12.945367922579855,8.204901519257897
-3.701895983869198,2.984808512796538,-0.6413609061687733,-1.9280617242569238,3.1934868080895655,3.9079784309822325,5.352066870797155,-2.302995783548035,3.0275229095493317,3.216476699485134
-1.2667070957986801,-0.07249477569630802,0.08119568588701731,-1.8003334038205105,1.8366269380416718,0.960829729328412,0.20651418287274015,-0.9745271649786545,-0.9609477788370064,-0.9942357307479357
1.0505130479364166,1.8222014832440547,-0.7041949795908407,0.029376128302488622,0.9069472493356184,-1.2347515908282314,0.6440253334824445,-0.8181988369986547,1.8588898601671697,2.2508901657458775
6.037443783449514,2.097796497233805,2.581281362990785,4.444155550616309,-3.850163060801505,-0.8191504134760219,1.326192861761489,1.147591954400307,6.403648935815857,6.067974523194703
5.089230223978259,-0.5677099325690189,2.919820087738145,3.3098781908245956,-5.959015382325176,3.5836612037217073,0.7341292202377352,-3.3084318155147674,11.12625769063553,9.534403913020057
-2.696199501232264,3.0181293471225406,-0.22605408360506773,-1.3131723801851263,1.4194274412809116,0.5300782974606573,1.2502139545181692,-0.09304189106159638,3.8438594127650285,1.402918401765287
5.774261609295194,0.015602443654837428,3.017101381626042,4.866154883333392,-4.918777444545169,1.8881368919784063,2.870294231500218,-1.7793879840025437,4.2900461846868145,1.4983518023105
-0.4028134882738993,-0.5857322127368141,1.2356370031710817,-0.44680857424134873,0.5880382965223282,1.1959004696392783,3.390659999046023,-1.138308145380851,8.172057549510296,6.969290711572972
1.5746221839142072,3.2881605474922324,2.0664357944459697,2.809823136726931,-0.01331356144519269,2.092013823898863,1.1135822599077396,-0.9032847869768001,4.639664544087671,4.821495888412129
2.1920296428355446,2.0870553020197575,0.21351698698251975,0.8771947107622148,0.10425566965584743,-0.34674247490520055,0.2944383797642548,1.2824631788921361,3.297516815952477,3.175243883392838
3.515948616342131,1.4584539394653744,2.6027029326037456,2.6174168599839667,-0.8470590004597601,2.454782409898628,5.219326283584382,-2.5676744810583774,12.894223071937333,8.82946280736155
4.10537995238542,-0.5297493177741154,2.7010645476439312,3.522201058785681,-4.017987753360561,5.372839702431842,3.344217370073979,-2.645205704268914,5.575106431258707,4.299752933295345
2.44748298079405,2.0375825051901817,2.2556864159389574,3.1579563847924375,-2.2127923057944345,1.0840165604490102,1.1187318954617795,-1.6157241266145923,5.6969951821691796,3.4028444636505277
-6.241307068908043,3.3687947547409163,-0.7320317606044529,-4.116053364952196,5.001307827614037,1.5634368630565538,4.258360246817762,-1.9315414324254454,-1.940309910169466,0.2745594742934383
-0.2694874571564202,0.3051570032158011,0.916043047713361,-0.30175436578024917,-0.5651237329672061,0.5321194242709665,-0.8838977587000476,0.5783600814571971,-1.8746424010100198,-0.6871359761206626
5.459346365234506,2.131505925970512,1.350593822650879,2.1893962785139327,0.26382128153281537,-0.07310990535049189,0.723150168658504,0.2553066818044145,-0.2605406443924654,0.7385143792102262
4.665659005148774,-0.6083254413461423,1.2090140551921502,2.907081535243761,-1.8901938647701715,-2.351699274917113,1.2074286327872317,0.42923027190295904,-0.04398115701209715,-0.771124258562542
3.32501994472389,-0.4196483107150569,0.37777734844831734,0.6272834810177113,-0.9619591985623012,2.19980746339213,3.4803412670819123,-1.5122244760373036,5.578077850305341,2.2717369745206644
2.543723253977908,1.4274543302309626,3.4414561222583773,3.0049925921427962,-2.4500959001257177,-0.6311256550782356,-1.0889087342661081,-1.0129115586872062,-0.37226486086776234,1.4072586076481488
-0.12480583514427883,2.001577515646533,-0.2913736539404165,-0.9725558119603862,2.459357494214676,3.8215611704287067,4.635921794871067,-1.9287576028719913,1.883577520444745,2.45600773984959
-0.8682752533082086,3.05387221742396,0.5360231586429487,0.066240371182785,0.7533389897893602,-2.2841565210090558,-1.1576213367203347,0.962175615731127,-2.385251503136474,-1.48005711275259
4.046003336676253,2.137580945356664,2.9745392094367253,1.8967159302418082,-1.2913574341117537,4.215295134298945,4.0357514171374556,-2.8022213187770775,6.419523935069706,4.812244896981391
3.253242238773135,1.222908729906782,2.2332462327414784,0.7655592071875806,0.023070774317425213,-0.07112201557122666,0.13290324348938862,0.3572078408705263,-2.657848271203843,-2.7428181454192906
4.210153305621848,-0.24661473338690842,2.5259402032590965,2.9153022427749105,-2.145349968709706,2.879370123244377,1.8751178761040235,-1.5068958109266306,5.3188069462633045,2.2669442968925333
6.8426085615964665,1.777165845795103,3.1146815550072127,3.8874695504990164,-3.0517806585947067,-1.7193669923059567,-1.6782963370157953,0.6620170037199044,1.7788257730544328,-0.1605919228006334
-2.0294385778659385,2.172053791894831,0.6517094533210306,-2.037536358707748,0.5160814485769321,2.4287739023656876,3.93058139833312,-1.3848681065987343,1.7684370606518756,1.8261524788065384
3.987687031171461,1.10467108119032,2.211317220280217,4.857889172867386,-3.0734172617249835,3.0788744524238227,4.540195722344165,-2.5216170868407706,5.6497368341679834,8.10018597086664
0.6085542456000216,2.783661783834908,2.746443944953134,0.9040359940848605,-0.15629926957441498,-0.20301610063682718,-0.16707443794711443,-0.4468740547334887,3.7944335242395737,2.9407023040442484
7.523168070230326,0.67328769775576,1.8049054778890912,4.206305810850714,-4.625281888549048,-0.060628952504426015,-1.03078929080421,-0.5338321156391505,3.3074000360061246,2.9864924639361554
-0.7178157295970563,0.993417149847089,1.6363150431165767,0.38735490467926204,-1.5246871400131337,1.5320285342172026,2.32333113102453,-1.5016631746350853,5.659184174623212,2.979016829304906
2.829937289679228,0.09427765107562425,3.014726178857747,1.5893759438320718,-3.6617043741952604,-0.026976157627214725,0.528898685439198,-1.2137448188778837,5.45689771030222,6.191303730183545
-4.476924687872058,-0.405029761083754,0.06049918816503097,-3.119608873633744,1.1984711704155464,0.08478779371065903,-0.6650481604956787,-0.22781710408977127,-2.577075634139178,-0.38127984883884025
0.9521358284873542,0.7426883027116225,-0.3412011612856922,0.18848588781283232,-1.266163104606919,-1.0567507172547315,2.7001643174524035,0.6248595910421442,-0.3138385675355493,-0.3456998846634298
2.20208933514125,2.8515968557047446,2.5512714233201708,2.6901692780170223,0.10232833559668442,0.7847554845292046,-1.442819924579592,0.4674790981263021,5.372301994493485,3.1079879319874246
0.8032209943339081,1.6373963063601042,1.1008555617623008,1.1668976879250768,0.309062405169851,1.7691493338017077,3.417407910900224,-1.9773051342689985,7.365738897723617,8.394417629623767
-2.4875493536508433,2.397119655709926,-0.938513761560019,-1.4881738100441364,1.8236601497176819,-1.1608781595114421,1.0179717966921429,0.8254562128733868,-5.243002633972323,-3.1014993509130333
1.227129244224453,2.104784810682317,0.023428464104544355,0.486501895801308,0.3798797469893318,1.1724403889630512,0.8755380602836846,-1.014994117090783,0.13443667897717815,0.8511211436301502
4.140258370415555,1.284435698295439,1.8883600055464047,1.72976447373303,-0.48069066759982926,1.409498571751927,0.18842553827061806,-0.7911696444434417,3.0697755958298316,2.6511152082889398
-0.34937485564696236,0.41736406280196525,0.7404546739467468,0.8154619372914315,-0.21480771593756792,2.528795370823585,1.8623014592175922,-1.8882855410596235,5.8513288005015625,3.2791195876986157
6.588234508142568,0.01386359791850067,2.8413048660340534,5.71669166671872,-3.6274610558377463,0.8163686143384101,0.519769843061739,0.10857126094338318,6.223605044536464,5.214518551985946
-1.9433371141354756,1.802270442190169,-0.42176735447788305,-2.306808379940793,0.830521051366351,-0.2150233537315458,0.8788825289121673,-0.08326014632299558,-2.5872859455550308,-3.0480511932341194
6.568193678661464,0.08451492764999258,3.0672248886955424,3.49271547881018,-4.678285718123241,-0.11574711224399671,-2.1566170444993333,-0.5705324854840611,0.013036081263694932,-2.1548098865407184
3.9643693446603447,1.4139718084187076,1.992826605274323,0.8653817921504061,-0.616645913275,2.3322843026734765,1.604709673551016,0.6235047504186053,7.712061138904762,3.287196040625182
2.533394383787799,-0.1649211388230789,0.23891324555213567,0.33313513386640753,0.4442229042752569,2.4483884849033473,1.266183038519915,-0.7506004633588088,6.9599339946027055,5.146488023158945
-0.7300924224983788,2.848995924401713,0.5218220975313628,-0.08676792762148772,-0.17719730696152602,0.8673422027855687,0.9672574349307288,-1.2582769157189257,-1.059053772971278,0.9484445365964725
4.474975300180942,1.3574300831563648,2.1069741200037893,2.5375906693589485,-0.5979936604721834,2.1683573707865436,0.6558141609387014,-1.646098656868542,3.141978632567296,2.649662842440849
1.8130151093002305,0.8255606478388375,3.3456746213254753,1.4441698673984102,-2.260689059423432,-0.34531847575581354,2.2231897999655805,-1.2089654422864629,3.2162319324148942,2.0460940939506003
2.130694467297717,1.1144331044559146,2.769734004070214,1.4821962453771342,-0.746588880256448,0.16846989702354098,0.867836061176067,-0.9699398599957372,5.799007124311242,4.956234234947906
2.4823666484229956,0.3426007189974638,1.2909095263470878,1.440335686815961,-3.030902542418065,0.7443140984639408,1.9418403253394956,-0.46336252561417857,5.713000236641637,0.9193601075719766
5.82077310237415,-0.30128616806585007,3.416254052005451,4.8668500422207766,-5.575097028596685,2.5608297901687256,1.0966037263772668,-1.4234076463202725,11.132721145332539,10.650663585380777
2.07651433040309,-0.6763485794247454,1.2712430826069778,2.6164896106030078,-2.815077560912588,-0.773019144905278,-0.8078401412340147,0.5830368780438486,3.5693033113812307,0.821300271559313
1.8826799122316413,3.397027129321425,-0.9593639609866481,1.3140182671945684,-0.6017832789966573,-0.20790843822778024,-0.24219171766190153,0.6179642588221202,4.772364499007421,2.425409856153895
9.333194485047704,0.21663094475743527,3.2701625672021795,5.218962803237209,-5.159963423194192,-0.21654329628456365,-1.411910499925635,-1.01591553753886,3.170791049583125,4.097982909285127
5.432535683946826,0.1468017481052759,1.7055837353299648,3.4709325561401445,-2.0063355046549383,3.2651195949072345,1.721079002003796,-2.408859220814639,8.547179438891302,5.783308066335539
-2.468386099019471,0.39560300709791885,-0.6540063985836784,-1.4425787660383642,0.5740705554259078,2.685080009301539,0.5140406261018506,-0.5059011580515959,0.6437981562615773,1.2047643206085143
0.8546479609249545,3.182602626939305,-0.7116735838931526,-1.1112569542970505,1.8364183120629032,3.8695946505113836,2.708774315150985,-2.7369123647147306,4.014261508724664,2.262925840649428
3.30355787255357,2.0945220217767004,1.2011077512924553,2.298336841390925,-2.7993807805098854,-0.2818309994246169,-1.0562586897045196,-0.08776771807017317,-0.16387679840169422,0.19914704639762548
3.3295632591450812,3.069768664217942,1.4343406110697563,2.184630182084194,-1.0828048641890846,2.073781572764483,2.8804726821928526,-2.260244945628417,12.435207720726599,6.867550273217818
-0.6692984398561473,2.047690134826855,0.8280814161739687,-1.0928085577611368,1.5481942895980336,2.2787337156536642,1.6504301547853604,-0.40181194435354955,4.226305001202592,4.31880456078892
-4.134367825690074,2.3323328027785832,-0.331370905553094,-1.8018714496627464,3.4701908323722392,0.5849473508514411,0.24072295570115973,-0.10263942618732941,-1.5511733932915144,-0.14397357184758475
-0.9095177836774995,1.9337499266939377,-0.31161289564763994,-1.9369851228434,1.3946716710493454,2.3438590771697614,2.784257056233429,-1.1305040533679795,3.3591502540142812,1.726330655738563
-1.466385796989119,2.5282110578740076,-0.7591252592556583,-1.1129030791937806,2.092795181196621,-0.6056486851661891,3.412214375322187,-0.7709809490859798,3.580987942690914,3.9430425300860557
5.823014244281207,1.2274965177839627,2.6236734829812267,2.6901343362512073,-3.839382127178226,1.2102626035582684,1.0807672026664306,-0.9475984075613517,2.381995261523261,4.238731352699412
1.838555445044569,1.3837773741609438,-0.3179663603836381,1.576307220025166,0.24662362389471323,0.32014311329313017,-1.6618330193122566,2.6494448302072637,-1.333200273080935,1.7650704710218694
0.7931143542332921,1.9132136428478548,-0.7866817044985535,-0.9104017728132947,2.4064820627840113,-1.398191647026353,0.232715390940945,-0.34052415323709173,-4.1304100255481355,-1.0632754299047398
2.761806659396506,3.012938387902463,2.783012983461185,2.0104042353371003,-2.0097284573189924,3.081528451628126,3.655914677235881,-3.0308276435206785,5.9231093113805,5.409727568218513
-0.10747731897636927,0.7823802743579935,-0.7081958099566084,0.3515883124864786,-0.255656170922022,0.8024125378238653,-1.5356440232449227,-0.4797034285784879,-1.1401489585996005,0.22175149085557266
-6.205651408427396,-0.1499897263945541,-0.03039837818372837,-2.778180008133585,1.9148591235979744,2.395242157391249,3.6754179927389092,-2.04498147016807,0.4482760497329559,0.7169427372754347
0.6556709754871485,-0.8206412456872145,0.6055502891973759,1.4264102706111463,-0.9710179414398452,1.175535250616029,0.8215379250932147,-1.1004243342575433,4.143350952674178,1.7204674015434882
2.41547004211018,2.322409151159933,2.9362328422838795,2.686839582410047,-2.981362318452706,3.030289800096156,3.903303780370237,-1.0080508702025948,8.89866903050216,5.942547374086646
5.315549404382687,1.170814962862936,2.9471283673566315,2.7883834549060236,-3.2926101134183248,2.4224921816450884,1.8510413231704077,-0.8010317233573147,7.464640152517028,5.031484254615375
-1.4114672610581802,1.4879239953535772,-0.541686921859152,-0.5465325462513858,0.3037816581632255,3.857393416965844,2.3061766353812785,-1.9304976761242425,3.1198553152675266,5.17286072773437
1.2112861988055743,2.479930400762902,2.10795252822484,-0.4003447438849741,-0.31576034273190823,0.10572946766256464,-1.297121440215565,-0.1277260080446233,-0.4862783113302255,-0.5008012398634438
5.101419337060941,3.0248222625599483,2.1302911824514243,1.5824208399490916,-2.6425011042511795,-0.3913138275735031,0.40103280845539757,-1.6612128218851332,10.14630501283881,5.553854087288524
-0.71916433298536,1.0207643243745155,-0.8336048995163357,-0.5052370721506161,2.89968464520969,2.5248353160233314,4.3790391503485395,-1.6035948131878386,3.5386424911242065,3.090599971397752
-0.594894829093765,3.298538732863939,0.19875829453035365,-1.1047131591526076,0.8618230049958366,1.0622849565660746,-0.9098283986952741,-0.4418382972756053,1.171597131893384,0.3989857291110208
3.3446219034923814,-0.34282099671412447,0.6193084988465578,1.4188997299829347,-1.663988523385427,2.8459255153318015,1.2041767656269717,-0.647429188049908,6.254045942306009,2.805336168976781
2.070432835777998,-0.9063298107292771,1.0881656076290827,1.376221762628217,-0.026813086662345303,1.091338650919301,2.239556006548478,-0.14376348873291356,4.143079056439647,2.574179773054485
5.590622290007047,-0.9146888514210904,2.2078860307059136,4.003942352865009,-2.433679727382528,2.7773062939633206,3.2612350199077413,-2.7893560391312113,13.415134057580742,8.952086328222679
5.536898649747097,0.2757642678707477,2.5116487394396962,1.9599527130107237,-2.6843493666763907,2.6110103831446834,2.932812131962717,-2.028865583213095,2.7782124222946023,4.813609200493664
1.4326905103579022,1.7852972438362973,-0.8113254529443549,-0.808755058383748,1.5548377471213182,-0.1522555700941161,-0.2929302712064562,-0.1546759337246749,-1.2283443822563818,-2.2898682100595367
0.5781555649396296,2.8330268875512012,-0.3573527709274156,0.6822157995170822,-0.41702717709707393,1.6678666662755413,1.3058693625644582,-0.9372090346959637,-2.5853280089073754,1.4391986636656586
7.318250427733109,0.8405435352698021,2.3478372129543814,4.772969778138359,-3.8050976843009363,-1.0842976011949377,1.5305975865392176,-1.318639361487293,7.626067513726031,7.10903668832956
0.485733210736189,0.8871475479247031,-0.5668633637651963,-0.8009178328070079,2.107671150211674,1.795641644771256,1.080206482549622,-1.7040611874999045,6.991435920277504,7.953299417210699
6.7023299695199,1.4817046257672826,2.0864057996032255,4.118669317191014,-3.595354019238197,0.7073133870804282,1.7585014690023024,0.5929437388490707,4.892067411415448,5.0528832934645616
0.6349879753239372,-0.6873637591465465,1.8528779695679463,-1.1025791306740225,-2.2049384949035646,3.1542514693100703,2.779220816426188,-2.797906302841674,5.128741572770299,2.898876063851513
9.836009097123258,-0.8127151970468287,3.408169043711127,6.62328919244566,-6.101569697444236,0.35261060375330366,-2.2882128133329633,0.8145542658815803,4.1378922516616985,5.1437122258060635
-3.0275917687862464,1.5765782843920584,0.12582956439777693,-1.641731205042063,0.7070579239534506,-0.6400207913774578,0.6575233331776206,0.46117301842137143,-1.2327225786412737,-2.7089536789399062
8.542599990162381,-0.1278085016853744,2.835402716357603,2.135062778830882,-3.317161024329937,3.4156511282618722,6.069514789794015,-2.0463829447288666,10.789153933385368,11.900797043717656
8.422956214373814,1.2568504769268527,3.345105122052199,5.349912355110514,-4.3172918014760375,3.586291308636012,4.404107183000828,-2.6469426039381068,10.5361150186854,9.110161800735053
3.250282790471095,2.672221244395509,2.9201091964291264,3.231166084586382,-0.7812605061897306,0.8019019949486541,0.3359546961109435,-0.11072183484931021,8.157837443534806,6.435868115721735
-1.537344839603349,-0.5384815512708869,0.5913170338676641,-1.6518476968673859,0.3246687851032882,2.567182431548587,3.8229879857213613,-1.45492527809183,4.833872495132143,4.8689404938586325
2.2160480794842496,3.3032626942283763,2.1618908685987743,1.7163817131578245,-2.7509374000631017,2.7750484629858434,2.1980830470725836,-1.0204514721705398,9.645663295273653,4.901663444888168
0.8907442964446259,-0.1415127336414952,0.2400477533856702,0.8154256355377563,-2.1471587799052956,1.8190621294581901,3.6764457452675603,-2.666046345589738,7.132068541228346,4.649753651846224
6.803453253489853,2.630888103823355,2.1867668849912487,2.4891971734226477,-2.045701379293103,1.1849484120705138,2.431952401893279,-0.7613091234745466,7.332064147785402,4.998805596355945
-2.3769036235440923,2.6448599126553853,-0.5380274029461942,-1.2927602377808531,2.9827593263028174,-0.34486601428246155,1.2000878184508872,-0.6029149758718383,3.1569625765038634,1.3744800203081113
0.5021239455651861,2.458785816192384,-0.5158390159508789,0.587426966420196,0.6042667607086214,3.2547731017869754,4.559579324796344,-1.4224082866394885,6.675867985644305,3.0083003622695346
3.6797657666609016,-0.15707899000291325,0.8951412958674574,1.717251793142667,-2.722857039745039,2.2013801658645833,3.3266409763132176,-0.9038670031825288,4.780867017655334,2.8211281917497124
0.27963617254345063,1.0949072525455548,0.7966024089694987,0.005158762458285801,0.21173677903248514,0.43742764233581505,0.8469383438172783,0.24724953492179283,5.031021574357262,1.376066761584405
0.8594688684865365,1.172844599296694,-0.9997861735977612,1.8486149784114576,1.4584686543319838,0.03465938255781126,0.17936569027541885,0.07526698568134826,-0.19330493896364587,0.9774972703800039
-3.0815023378567794,3.160670359794069,-0.5027084781129878,-2.4370641811921745,2.756389202722759,0.7559410725676514,2.4870326674773513,-1.307929556837286,-3.386576259671404,-3.2980804071342167
1.162829005164286,3.1597495689813666,-0.8518709536349302,0.860079614860773,3.01209669008325,-0.028671078652606596,-0.9110048283332118,1.7241984919558673,-0.3832879162110352,1.8466126737509119
2.040250599122692,0.48315091428024304,2.6703571233554775,0.9742249100463367,-1.4435123624953892,3.412733058061291,1.0489910095951924,-0.5451304704639921,9.204051007018954,6.640885370739976
0.6761643854936765,0.20973276497840665,-0.2628471946245392,1.5134607884700768,-1.3731131584089347,1.4905510156352442,-0.060675770681671286,-0.17254252902786502,5.936274159302688,2.89050184987976
5.599149815220412,0.8459704106809143,2.847305207574081,3.707241274954209,-4.560732312713329,4.490224986892714,4.233453931103264,-2.1359522017030765,10.275319876501069,6.5832411353990015
-2.2047618685878114,0.8550190577404375,-0.499444041056725,-1.677275646873022,3.072384844842484,-0.10810465943324432,0.5607224180554673,0.14889071102473683,-1.0326445109059785,0.4737722415780361
3.1749748558850515,-0.5862755001176154,3.134207514505162,2.218073653932772,-3.591195169200378,3.224712755013139,3.6572258602692496,-2.504146142459478,9.262514968436902,5.121268464475542
0.08231717548858275,0.6046456951762793,-0.8618253621669612,-0.11307772188779071,1.8891903636600162,-0.8807193255486823,-1.104769013919886,0.8433004702310567,-2.2999449561822707,-2.1311391949570444
1.3433870925508813,0.7447295190761176,2.0608468436628056,1.387776053766582,-1.1464906779356672,-1.263018349961861,-0.0037656155305438093,0.4673215183801517,4.606781850920916,1.6373811171716266
2.811482530696805,-0.0760111070752858,0.9966283784001888,1.1841379345986969,-2.648333387607729,0.5422488934570493,2.1313409334608435,-0.22984815976246195,1.5267029930572897,2.1254243303784364
5.213787092959667,3.035852158635212,1.8436057545061333,4.036544487548132,-0.4880490456471349,1.6999493858597385,3.6527445335989186,-1.1059216951042592,7.973043537148701,7.12789873307295
-0.8209348359328715,0.8741549723162299,-0.8365915571372577,-0.5127247316431769,2.2530718619360712,2.195180860440269,2.237160729528304,-1.452307620360265,4.336864148523713,3.604131718222554
-2.8762951153940275,2.900937611355616,1.3917893347022914,-2.1882147537164416,1.0977422079700478,2.5746696699999005,5.640984754867872,-3.400944500728787,5.224393599434344,2.0147273853092753
4.378631965137903,3.0421421414224055,1.9110924659228656,2.2065408250215373,-1.893302453533739,1.188523172877954,2.0158951367048035,-1.430040316583156,3.9081248801323194,1.5231794219724355
0.22494187711834646,1.0800874484945573,1.6937475681658274,1.890405690179983,0.617544245546797,-0.5266980596652668,-2.378541080649066,-0.7919628831763378,3.677605834148952,2.5958821335222417
8.015406971458303,0.12230414897122399,2.9733702357326215,5.310910846918783,-4.473034930513457,4.161365793156886,1.273339377284748,-3.3189189193602076,12.765513758885113,8.167099753998384
-0.3465254809571422,2.1597629308862216,1.4261377697352966,-0.725405377697103,-0.31773680858720693,2.050382634530264,3.1624634293901814,-1.2520712611975744,5.700048922762309,6.063167105084871
1.1995893916182783,0.43326540626969035,-0.42775056584419247,-0.6355711568229757,0.06518487639918646,1.5995162000761876,3.8041244394437497,-0.8391308999254897,3.4771291982936896,1.964850978344198
-1.5975750926473935,1.0204279842580197,0.5796391911025376,-1.5398692740268811,-0.30243580664243486,-0.12846216129953758,1.6138564527899477,0.22491936083258512,2.323310911024077,-0.5860824148952155
-0.16070554168849324,0.7037363912449943,3.0037363608783654,1.326919011012057,-2.5193814671056822,0.45458155898767694,-0.9023642770083313,-0.4365683066081084,-1.6067500729484077,0.8564760955654062
0.4150446995440641,2.105382040270725,0.267740857514039,1.207180672656712,2.379762404380751,2.2247142615202633,1.626772329809327,-1.1245219629682568,9.508744705470715,3.6565489295882667
2.2575979975112945,0.24064722789254667,2.195976405281737,2.075614184550704,-1.934766919972025,1.1113993038385503,-1.731817499951027,-1.5723634081186795,2.109198737017058,0.8474464840153044
8.049663150918946,-0.5508371119682842,2.7548258796480987,2.7855160500269545,-4.8651467282845475,-1.336856257489884,0.9335788149173444,0.05326716951563143,5.5926054801714535,3.8896563721864057
8.687973231907472,2.841070426956677,2.6630909106857685,4.905065519077088,-3.1850226114173728,3.2705848712953713,4.270880870506181,-1.5357491967308066,7.315007272932949,5.9288836908401485
4.508131337176112,0.6607438772502623,2.198642440770131,1.519665556066216,-1.585290866373618,-0.8339579592636717,1.6611240639889842,0.1112359652671464,6.233248081772983,6.049647623810047
6.341966596158746,3.3413262711138607,2.4195561682270945,4.347741738141802,-3.756467612259571,1.6981780469036036,0.2583971411739145,-1.5697891111900324,14.945201912556895,8.24452799181444
-0.8947221827498661,-0.9108308137696842,1.6364843905184832,-2.2389242127904208,0.4911568122427177,1.6399107295858333,-0.26089568906499944,-0.7362586251321314,-2.9330389452470476,-1.8860010930778288
4.304175180392167,1.4210039546927615,1.6975928668164104,2.1507145242132872,0.4571027631778122,2.6683338437690405,2.6978965131596935,-1.940444213852191,9.78498661741775,6.311057755583397
3.2105325611672773,1.5591136705909596,1.5598563363988602,1.750360555198824,-2.0865621415135474,2.8474192649197416,-0.49621663285579687,-1.3945499599427915,5.2769585576416,6.681464936414875
-5.288336941919915,-0.7372868265349632,-0.5662345372229751,-1.954605229692829,-0.06445855816634816,1.7724728601789999,2.688721695432977,-1.21974700569538,-2.5319679275063915,-2.4493539057450446
-1.072433828919786,0.05917348731975447,-0.24167643592025523,0.07341667316715586,-0.49576660191551764,0.7100537615278535,-0.399156566385643,-0.36843455916562323,0.8653010680044289,0.5261835400799939
5.257675031665891,0.5428911257004418,1.5640229915765707,3.6290299199421456,-2.7403939725151254,0.8254634633696921,-0.3789615467921121,-0.5650652927683967,7.205092915132754,3.8997655639834496
7.698557430362279,-0.6605356448737462,2.1234160061445215,3.852906946453443,-5.289383333258762,-0.41949066115777267,3.2000839104745475,-0.8638483579030486,5.356040340920268,6.750191236640919
-0.0331342031660122,2.4579366247154524,1.6453433622364666,-0.09616301558476267,1.1346220498017647,-1.4469839821108061,-1.9800712726152705,-0.42595470926822093,-1.8137310914403177,3.1257310420382964
1.5058078226660034,-0.9699789478482713,2.5771250719970746,0.3445141306913864,-1.9291831177186591,3.0162817447011623,2.517060774255842,-2.3621046660955303,8.441388887605925,6.119745738439935
-0.1230360266134601,-0.09253931064256882,-0.015786659620104837,0.461269584904927,0.1489644622228381,1.8737772059400337,2.090145731107287,-1.2404601627464331,3.0340425995660274,3.2117173144172866
-0.0013121384472051865,-0.018573748680570046,-0.5739530131188874,2.3529189966029396,-0.18998705702064017,0.6187112717806038,-1.9882823045610254,-0.7464812385486147,1.486529979940034,0.17374891711547447
5.304157096968815,-0.6630486391774886,2.5734194945248574,3.569571514866704,-2.6885561257737716,2.1440205150753213,4.74596047009176,-1.4509394098871105,9.336342644539457,4.412663680723835
0.34701167343846756,0.06080387642144691,2.363457642401286,1.9891540938665722,-1.8032952678904235,2.981358271400884,-0.9530706770604073,0.8150725801517549,-0.531756565219492,0.03163141198073574
1.9203834683374315,1.9794372827358688,-0.07393179614284673,2.792424873971638,-0.16318804468650183,-0.6216943800842676,-0.5387514528762435,1.0228211053125231,-0.2086628410236142,-0.33557701031321296
4.09217226405784,2.9694608836868404,3.1703691762771014,2.2128539392158477,0.464417001420929,2.6594591326602406,2.3129192928336497,-2.0017726435997494,15.460845485076838,9.886212770639718
0.8315283293498424,3.2664392405062124,1.3237069472213037,1.3667430226226964,0.2840588161268688,2.9573264207160816,1.9769384314972558,-1.716439342327799,1.0272517790484001,3.289905658074917
7.581648455516254,1.3181795601473811,2.380383084375231,4.6129940222296195,-3.76870646736968,1.3175155812868653,2.7898288722611455,1.1525620920936759,8.385455611409538,7.736286600775859
6.587000022398673,3.0253323842068873,2.2965150905393132,4.7366773511740465,-3.2617425005311746,1.4902232299126323,-0.6217928692506532,0.30144229384006394,8.814063566089049,7.137533299485587
-4.240999482773927,1.1636414581923322,0.20813862140141692,-4.84130495207376,2.3495091708430866,2.336469108236116,-0.876850639440587,-1.5280854730563354,-0.17794462536579125,-1.8463691151681159
1.5682632168421144,1.1563750893987184,0.2523198915629983,0.8373849495815239,0.19739701323257663,-0.994807599441056,1.9046986082985566,0.7815512945782294,-1.683291072481523,-2.711967176905913
0.46613176244769,3.4509154746200172,0.28652979255500766,0.38851446579086374,2.873359836415468,0.5469443645201569,2.457189430642758,-0.5657781008054031,2.7869522154198463,3.1001162390694654
1.8116045645320196,1.6405558424348778,3.3048942324099544,1.432281014282307,-2.0403900019344396,1.5899646442381765,-2.088091541468085,0.527987255304018,-2.8656832478533962,-2.120313512020835
5.022632502046082,0.7893248131048092,2.6029716928003905,2.5934772783792526,-4.00646359547236,0.12130584926546861,-1.6990559010104473,0.9642079606540741,2.4716697702839996,1.368625173945241
2.886266395861463,2.0412500841340693,2.0969011682737233,1.8636547610490177,-0.1067133666596074,0.00881328739602083,-0.8863801886352063,-0.4043395675977122,-1.317355970355515,-0.09131346772718585
9.290167670439267,2.835221873230694,2.391881101576991,5.3553921314669175,-5.762359058037604,3.375641214892762,4.21140003586892,-1.7339059924717266,13.559255812767784,8.16945128724502
-0.033608987036779156,-0.4073317352130241,-0.08011327709814797,-2.1945933830037654,2.493622720240468,0.6976167534364119,3.893570867116387,-1.6688470908696644,0.76936857769401,2.24420588343461
2.560176256883687,-0.7113530680627387,-0.384862643774581,-0.2617295063628609,0.24434076787223635,0.9726395073078367,-2.5250760350521158,-0.1546947256798226,-1.489774791057392,2.6594373797899142
2.355919565669237,0.6242295553053541,-0.24436044105146426,0.3089110808216938,0.5523705334581186,1.8203283099441445,1.2721321212283743,-0.2527923323105944,-0.17870655432004923,-1.7840033121706764
1.4079956981191717,0.3770484705863373,2.115748400780437,0.24066144793131078,-2.8174516476807843,2.3986302478365453,0.5590787519124051,1.2142019298898028,7.540769085447699,3.0872604100494687
2.2610580766176285,2.8734379530773575,0.6098264554384811,1.299095150659336,0.5163661991179873,-0.4874455763972747,-0.870469462548523,1.463622996060826,2.4653348110445785,-0.5894067693024689
2.6710251599864523,0.668197653915515,2.3456240590723927,1.8740467301074952,-1.771625956166921,0.7325193936209045,0.9002950516432927,0.3612226611810881,-1.5113708055454527,0.1244817152489257
3.681071876272467,1.400683151078102,1.416413472245929,4.506100344348305,-3.123193241716467,3.1863796209438204,3.0717353038509927,-2.6315938271418484,14.567392512891725,9.444292167763685
-1.7956969797137161,2.2778082632784313,0.6832642754819509,-0.02941592506026706,-0.09531523376983689,2.9117003097372405,5.128390437850544,-1.3733225589296405,7.119906067581711,1.316547114112138
3.171198828688466,3.0747162389086515,3.075942906553225,3.5781606323821213,-2.698910656258894,2.0416846669846236,1.0776307079968428,-1.4384879539232553,13.12393809159423,8.138990452942398
1.8235226101354318,-0.3483648198106243,0.9733363305240064,0.9166828600870321,-1.0088731808208946,0.5337839934708438,-0.6538904994206195,-0.10410413287921501,2.5721721288406454,2.611156604413041
0.4657411237423116,-0.13335810125168923,0.4455593120304131,1.8180791797804297,-2.007520798994757,1.8904901354077008,2.2603728331055475,-1.7539744472633703,4.846434581679581,3.1915843687276575
4.6234404646657286,2.0048571352498814,2.893249627080234,1.433467762388933,-1.9117563093040457,0.06156323703328054,-0.3383443545252778,1.2881853567575543,0.2381123709059345,-2.0363394182431884
3.4768934604450523,1.805261534464576,1.5623989572708754,1.1829762240786568,-1.3886554736403995,-1.24834802279618,-2.3039646488074177,0.522082539174835,-0.7670520075936338,-0.7054426887431031
2.353819286377583,1.1996404936158633,1.3736957124673883,1.7123339693133321,-0.3535393105676452,1.1687001674313784,0.22209100122726766,-0.8728638203628344,2.2831136817159816,6.009834088627744
1.5012038574067033,1.8919767654547122,3.0423417121579233,2.0664661058356297,-3.3336562239264502,2.3574545923511483,2.6717842020431823,-0.5939951700485198,8.034905281406969,6.367985122499517
-0.20609411280391232,0.010018140023354771,2.1277336233653044,0.45609408596893986,-1.8138033874732609,2.0415402933685556,2.13913162940973,-1.2699013657695182,2.4767277820467095,3.709338883543007
1.8033246171709771,0.31565023052798336,0.05881467315085698,0.6847819827611008,-1.8861621728310498,-0.7306690130903244,-0.1428920103072391,-0.009309687336601405,1.5023230693126073,0.5582405761365989
13.5479292069803,3.007039114501917,2.0751946041514766,5.478607443772102,-3.3167425908653745,2.0681830691144345,1.9634143221022722,-1.7043497474676566,13.998708717385945,11.008870223850693
3.6211628193148693,2.5083999249018487,1.3139389766450265,1.423586461328487,-1.6599635867776352,-0.1305316688362823,2.140519128119944,-0.29835315374489574,3.3376289859991175,0.21505130327953292
0.32067109499079965,-0.8685079241096455,1.8177233762961151,-0.8414545210742854,-1.5796300459624655,3.0010448975356137,3.199755194430761,-2.9762289209432473,2.1574849090959143,2.819867965764508
3.597938423909666,0.2367180897805743,2.033200959560408,1.362818987761272,-2.579486525209594,-2.4748172974724314,-1.3387427424485288,0.5785900518773294,-0.4310176970932935,0.6032557596921329
7.067037096105082,2.242214625363437,2.7014630922037166,3.267979135375056,-4.44900506277931,-0.04818552161544798,0.646995193810747,-2.106940362395829,5.409773090598579,3.8040865507505726
6.093317018003896,0.19652629183539005,3.1143356441355,5.2753794453320655,-3.354368824037483,-1.292543855086439,-0.29964584076166484,0.14260581641257533,1.173642352843741,2.5275033310645676
0.3238401069594983,0.41705576056108296,3.07366707057595,1.029639965070498,-1.6310926050188435,2.021529834868608,-0.23838739917291724,0.026377263990161447,6.51402571607689,1.7699383533524928
2.6613529955614452,-0.8867407922096401,1.473756881015568,2.4773439477844903,-3.701749973392161,1.6522024244877975,1.042254513551723,-1.4563284318937328,0.5709649390297407,2.618081312744845
4.483835744443756,0.6507532858871456,1.1659340610647453,2.4748438818629754,-2.4271704536338374,1.489375259195105,3.166396557647433,-2.535143341956055,6.609479766526452,6.3749716063988515
4.067168215894732,1.4081708782976827,2.768846928946129,3.824154080520915,-2.5323899402533794,4.275100797247218,2.531981928441077,-3.1234257667175633,6.612816379597163,6.130719074571248
7.647258701190397,2.7046572546302396,2.2274525219554437,5.25239068611717,-2.757325113788576,1.310038874903702,2.503865463162849,-1.7329707138065227,15.156574134633583,9.098542968660151
3.5331393673108376,0.6527331454014971,3.245587104699439,1.683278469020653,-3.5389200851756226,3.0978768116427786,4.647146196006733,-1.9615237472374767,11.322469545309417,8.18239969367185
4.615599794984203,0.7735581577253721,2.9566183818003986,3.2953164304650957,-3.168698698519801,4.530015576582393,6.0048486391882,-2.114279748954055,14.418647843705617,8.540987968501035
2.2189840294496523,2.850673420756819,-0.1296019220560619,3.2140291591339776,-0.5208036337163443,0.8792951378239016,0.07279250203767777,-0.8512321473475837,4.4244814064887485,2.6623010638129623
0.10488488066449957,0.3458272102876332,-0.7910585523871672,0.6635440839413632,1.8255053674707833,-1.7912933823414077,-1.9500747349924186,1.504876025548138,0.9584381288969875,0.006979586073219524
6.475256021881617,0.5737576877985815,3.1427423188885104,3.911732049134342,-5.16044131184663,-0.3279858225743624,0.7277741662372972,0.8591515677520397,9.703151386645505,4.624612528758336
1.8436607899641757,-0.7156923204262733,0.5110466769044881,0.5021901262005125,-2.6258792090587155,-0.16660819899420398,-5.553213396207052,0.8345623015036503,0.23206389447676123,0.5249890175509335
2.8144742456816982,-0.07828891489785494,1.1790682214810202,0.24709412751990967,-0.32934125179923135,3.008333135632401,1.2450463167925245,0.0341492722636854,7.94321949111834,4.756451262192578
2.236381756010381,2.270311565434551,2.3037105989848397,2.317252996266325,-0.5867788656196229,-0.11292322913568786,1.1068913808253122,-0.35427013692251036,3.3052690049902123,2.9094866446205616
-3.194474492033828,2.583966708109325,0.6007859321590723,-1.615502343416553,1.8260958603530402,4.534494574495907,5.361224465057832,-2.063625822283651,2.341983874126406,-1.156570472820127
0.7294602300171509,1.9835391706286032,1.208030179427248,-0.6949426229534957,0.27713868043370393,2.1080451953697734,1.8108532755965325,-0.8004866319885182,0.3567092918078044,2.1306906944603243
-4.301580067196716,3.326105089225445,0.37233868823787786,-1.8368550555064227,1.857793740031436,1.3770001214590668,1.3094550799185363,0.6975711129172044,-4.912002811331696,-4.115074967200014
-0.6926397380867167,-0.940685437949336,1.5526529512440326,-1.7481679874260643,-1.1496280909890193,1.0843056960666737,-0.46422589723964847,1.1289970061414374,-2.0256151451008946,-0.12900808500104932
1.1291889425429231,0.806130554937385,2.3748917737139297,2.5250064859478334,-2.818395230313244,0.4344865307122229,0.2375386660444646,-0.2551094288860467,4.73994598790866,1.5207928008441047
0.5417394348951575,3.0735693443578356,2.219835791698094,-1.2231488933280088,1.6895330489732507,0.8976785842045272,1.4494568273320738,-1.6555737372816404,8.782736142853224,5.930954370122728
4.201260632148374,1.2640763317562729,2.346212221090668,4.328319608778765,-3.079264404878882,2.501150523704074,4.942638850833422,-1.5696948015150571,14.289201133799025,11.127476873161426
-2.541905934987344,1.921947829598667,-0.6497719393943429,-0.5693596157463386,0.5376232294270925,0.6277290962125026,1.005648792927629,-0.23032612018624166,-3.667703670713651,-1.3264121358157843
3.830532647716445,1.0912633074973184,2.202464831930391,2.674968172608707,-5.063582407978028,-1.5526065594382972,0.5714025917734143,0.8191091243785904,1.1497393075119868,1.4363082144935544
-4.219242135347449,1.6151609091035941,-0.7039349915842709,-1.9239732622625287,3.4662307584233774,2.8475618717373163,-0.6107943962315873,-1.3866309708728017,5.584852926339757,4.436771250971814
9.225404310313595,3.416104049657048,3.1912033613810973,6.551800076478855,-4.465715199567328,-0.7218320200924035,-2.2161729549742035,0.5197351677469279,4.553660280726293,5.098196291835785
1.3677535199286708,2.2520975298777812,-0.4790243789608163,-0.3841540048874325,-1.0308368715882223,-0.48442833503407945,0.3088461793717491,-0.6210961000814402,-0.09197884165578318,1.7692765167088116
1.602573713412692,-0.29557668124392944,1.9667310395826725,1.597287082857336,-0.09777715847000512,0.24931037528389366,-0.15298748484487298,0.6108007625736407,1.5895466040995647,2.9428791106085543
-1.348359770538845,2.61487908128654,-0.10767710689955401,-0.46239620873273735,1.1237719233300716,3.857367072392582,1.5554629476006503,-0.2978634997557144,3.7108313356931255,3.4456523890735964
0.2566266315793238,0.9461468292671285,0.9476891426234719,-0.41159377283404225,-1.6368200638993577,-0.5649156653137639,1.0128883100038948,-1.2027367953482901,5.566109016806465,1.3040684110743557
4.507102706118796,0.6906118452174019,2.7744104873284816,2.6302498748797385,-2.2386337423991804,2.4498816890343385,0.9431994018010411,0.8283921312434402,4.525233141266971,1.5271665527295377
4.0186458336315,2.4054668184437995,1.9369403792131354,3.270642982306612,-1.598588243554086,-0.8589050074733033,1.5500247879093567,-0.5817274590445802,14.464932284061502,9.177258238744734
2.5947550728388444,3.1453519135943946,0.4693279769376151,1.8865056892034897,0.3430082790200777,0.6124795459660951,2.994075270604579,-1.2449806394005294,7.21558741660132,4.748233534750083
0.14983890556566345,1.643042812849894,0.6969937898547858,1.0848131733497748,-1.4310902251752537,0.04075223198511173,0.3566196418606639,-0.21104288641112884,0.026756105610015957,-0.004860284687281835
3.500073246083223,2.9004712631965583,1.7795479632617246,3.9126985076320038,-1.4902414330547935,3.3279391641203895,4.539176053957003,-2.8762380492366515,9.724628869078508,9.369361663273786
7.2256948080492345,0.6657929489851229,2.2637717283071734,4.394421472927994,-3.289251645465578,0.624528821158617,2.302203525295264,0.48788663292611856,3.5343764270062046,5.625368418225473
2.205212372227458,1.221602740821567,2.6334410260308676,1.2932695394301075,-1.8559719430325918,5.223545463016322,7.359341492897579,-2.6789325882135557,11.648384508488078,6.738405266114189
7.212302458397382,2.395421862938737,2.032968634110155,4.8963114099331415,-3.9914842830890267,3.125020876403507,3.3055102679590878,-1.7410667983106787,11.231699834892384,9.570767193156488
-0.290915516681277,2.808854606732382,-0.6557948723977696,-1.1026764411242878,2.9366935313620584,3.1368807989823395,3.399226754848378,-2.394982026394038,7.29234844027719,3.757483252260418
4.82161721884738,0.7436343674175072,1.2019523139872406,3.5863739168647477,-3.0025115464759087,0.4541346547577627,-1.68291759830822,0.4507699179278967,4.741325541102439,3.849337021220004
2.6267010439548693,0.34973745519036825,2.4348025447974675,2.0728790769512058,-2.578807264006149,2.088463901463877,-1.286735330393141,0.6701181783142472,3.951077905994003,1.8608701508545455
-0.22307067999059588,0.8052291319880915,1.2146131095157857,-1.326533574054065,-0.7303752975988098,-0.8334720810905814,1.2884233814554311,0.014219421045104652,-0.5006465672483122,-0.5789477013538009
4.065913918853084,3.112105010995788,3.2790089405344895,3.0976868501869954,-1.7553302133532185,2.735138712698434,4.527513477253913,-2.0468966121913668,5.638789639566143,4.142090155104729
2.4905857231600708,0.6800741096017671,0.6839013227470363,-0.9671111960942317,0.15215488198067484,0.16009010094804854,0.1598461501366727,-0.9784623118310304,5.653760702975347,4.665193341322407
-0.7551570108358542,-0.7000335249108944,-0.9400666753114402,0.5592754965407574,-0.7641088098139203,2.0553608877904153,2.9704744285730413,-0.9891694842650238,3.3988761459033032,3.6518274332449545
-5.342011512777036,-0.9986574711904123,-0.7634118576935532,-3.7800837622037977,2.8294778683127655,1.6761812877982374,3.5785319247869953,-1.2443315784267714,-1.45111047441288,-0.48982887433667077
4.024894415119287,3.1727218080966457,3.110507616735193,2.4343757636587826,-2.925477309001344,-0.8757945895223527,-1.9009433330097363,-0.13165771413595034,4.626111939149613,2.989590597331272
8.859032196670483,2.693264669550417,1.9138215630675135,4.333715572365035,-1.7994660276620136,1.6145535056533526,4.690625974130317,-2.786157703894597,8.417306944099924,8.316132348978837
-6.181181376175712,1.637077717665755,-0.14136345437293274,-3.390316493826068,2.401774940036837,2.508967477981268,-0.4457754046005105,-0.7168393873979999,-5.934666106867671,-3.217957751502789
2.1121801198863435,1.276748464618283,1.9195206935217728,1.784715652101673,-3.1710508541461806,1.6039364381263839,-0.09861782616132449,0.1597371173022152,3.0945338836293184,2.7115621476490697
-0.6766548642138135,-0.8158802591938297,0.7252395261795175,1.5242603397304613,-2.027492826158054,-0.30493453418455285,2.391302591057239,0.4365924930199677,4.278320512342302,4.865842011559046
-3.58643599054469,1.5240234664615588,-0.7911376563945958,-2.9048763026311533,3.8010242541970785,1.6474498920130847,0.7843288961827873,0.07546112060425449,-5.003808726330625,-4.55313727960542
5.2372959401509975,0.6371434429310754,1.8903393760731548,3.534685623540412,-3.0654864298477627,1.903155958833039,0.6357275707993444,-0.21350879017846858,8.46288919082388,4.702362916429487
7.972359919289423,2.0917438218633304,2.5548156015183667,4.941559913901877,-3.64017009471986,2.1713301729204844,4.507788483204745,-1.361090115345494,6.246541334708105,6.382712302606366
-1.0837013248038023,0.7610456818222353,-0.8578816307361454,-0.6516960716895149,2.3691494816768714,1.6918144319413568,2.8456716049352813,-2.297186819805416,3.953804184659937,2.51176056326712
-2.128887861086115,2.1992333902603116,-0.5256097689407717,-0.6570882963522426,2.358329492032788,-3.16086072152685,0.6613255284069762,-0.37532146835048347,-1.8909266155926003,-2.7769710810076074
-5.776467586007884,-0.6693149736565932,-0.7385119396768233,-0.7413800469779795,1.5248403961635542,0.053674076928244774,-1.1482332502205692,-1.1941220295436783,-1.531310282209542,-1.1731018348761173
-1.1054480503007964,3.1421037149034703,1.2669167347840204,0.6145431657662133,-0.5598856687775804,3.38210055814188,2.618552398824087,-1.0644607341888273,-1.096898148656175,0.8599765025912796
0.036448344403103856,0.1738744220727051,-0.732470089741458,-1.5856610897691803,0.6521241877758153,-0.07584845982345167,-2.6866930241107676,-0.4127158000842733,1.4853014948464116,-0.5203683562811079
7.213174475014533,1.343465113393492,2.7716001223567415,5.451706348218635,-6.544350593309508,2.262970414863181,2.114159015063439,0.0026961905484565625,6.160835562245371,5.579485209868223
2.62120458063881,2.6486267716104903,2.3062044788467433,1.702020932833938,-2.136512078786377,1.2708123335449053,2.079659062306257,-2.133845596965504,4.371203834584269,4.2267585963385885
-0.19944554199189765,3.057329939107711,-0.7798660647235663,0.256265662176641,0.5847780431788653,2.937525690697097,2.5864964924159795,-1.9113563277989403,5.280834010570561,2.738655415809931
3.3949984822958665,-0.24141617831953388,1.0734851864783228,0.7566971820197161,-1.8451308532084978,3.5374494024765455,3.9056387788130147,-1.8619428828966857,5.419269656122623,4.452510590231432
-2.3774331719726938,1.017307995978729,-0.02152712515562827,-3.0674137689112424,2.305118282508845,-1.5623930778259298,-2.638196339185604,0.18543481842597878,-3.32313971394424,-2.6402677626947373
-0.01388049256348389,0.255064230915629,-0.8967741191953145,-0.029501745145509878,-0.48265040958619754,-0.8008678003842479,1.257663398927401,0.8951808264475387,-0.8149557433385997,-0.5509035958031501
3.8316538102822,-0.11550357069671102,1.1913498452795444,2.160274287737512,-2.049949214007713,2.8659608150014613,3.318346649424467,-3.0086042928094425,12.046078218240458,7.965030884462592
10.835319452037345,-0.875126273997435,3.3423638299864615,5.071007000351537,-6.977268392556525,0.27453380931399396,-1.226745767342601,-0.10518517554498805,5.150458737023786,4.425327093875763
6.649721138656283,2.008087328593273,3.3974436461826087,4.001236254915875,-2.565187989321466,1.390862004986909,1.787506225133572,-0.6228345570179626,4.167542573808822,3.0628764148429233
-3.4060621731688756,1.5975778794740565,-0.7692729684424434,-2.172119057296934,2.49117160598141,1.0928905133181281,1.6076565051415612,1.116108456797859,-7.525957848086627,-5.7242643407789515
0.07596985470658543,2.4083673661626444,-0.1920464615434998,0.19109890531013352,-0.0314030354005006,1.7145599619594118,6.4359983127985085,-2.9820188094097735,8.321049113156896,6.4194774989429195
-0.02148752892069321,1.4835191552821052,-0.440811133981048,-0.16886663061563778,1.7121614222774229,0.3617030827685229,1.0879322536189802,0.23582095867657502,-1.8552668246097572,-2.3961519915304352
3.1894576191956348,1.0747489409361157,2.06822749298161,3.387418760779078,-1.8066046202979877,2.7449829711692826,3.3816106335424174,-0.5924193311714564,5.200484415800162,3.7176892666750665
3.7114446026466816,2.2015773483180747,0.3676366235708015,4.10193177655229,-0.6347000548154506,4.087447406229069,2.1872708871336792,-2.367201396189335,5.708452167829604,4.475717396775677
4.9547089534281925,1.2641760787565115,2.2932821667129573,4.011438935550938,-2.940889589724006,1.2315639938349143,1.5090728511855478,-1.6116405059272814,10.227643522590165,7.8438261631550645
2.292544052707518,0.2423883100098001,0.16729566301170573,1.3306213505588347,0.19102395047326695,-0.23712736687460068,-0.3018882857655265,0.3549501772099851,-0.12304139604405473,1.5249679678337742
1.851196861724078,-0.6971956864916391,1.5329793053797305,1.56219574351918,-1.9544864959324475,-0.7804787607651467,1.9771517648018588,1.463456641989041,-0.018803717854102064,-0.0968734628289184
4.435163700673639,1.2244881905986715,1.1173693235303572,2.4252817656160595,-1.8132736638328881,0.6797892453573163,0.7368410701731444,0.4936562344096467,2.3885933975576634,0.903213512669614
0.8183831591002786,2.642891418271769,-0.813745952915019,0.0619878300836598,0.870777588608525,0.9360581700230008,2.7886404401382148,-1.235425202714765,-0.06881649905497067,1.251886785537749
-4.445544505190117,-0.5506961753022025,-0.8750630438423492,-1.2987976379101918,1.9905628789203296,2.755693923474114,0.6215119319631339,-1.4107981418274127,-0.7300519993106731,0.496709113210019
8.384276384680138,3.2862578592978604,3.3103589415305743,5.1189026635878525,-2.103140203494682,2.381538377085469,0.948852249874135,-1.36151724853493,9.563915176626894,7.224434575243293
1.6382229133160648,-0.669704759143948,2.9981803815241657,2.410391253152277,-1.9581472227894432,2.2689382037032084,2.31972252930547,-3.3445318206373065,5.332034705411687,4.359317332129997
2.975110617882837,2.6680756640236782,0.9929716341521115,3.898369254339412,0.35593066838700205,0.8855046727198489,0.6335189641874515,-0.11269331881150037,1.9903694704928792,2.7003231375238324
6.228154496072974,1.0314322698006548,2.1363102300151584,4.83821842377264,-0.914981997489828,1.460747427572948,-0.5070584096062843,-0.019536157427667213,4.402912504677688,-0.13716322645206702
-0.4208868156331251,3.1281270603187536,0.5789222445386486,0.9985015227058072,1.956858874563315,1.685974039865688,1.1738705015360664,-1.280090462245738,3.3188714961326067,2.954500954416699
-3.3988670485887718,3.3785304992947944,1.7806864955358348,-0.5265198015449208,1.470071223815241,0.9158447158854259,2.21337947680093,-0.7638197236016764,2.9296486887392397,1.2417556971986514
-3.78848281755044,2.1506685539590604,0.8443756439430448,-1.2098100027895116,0.6245689235162613,3.7039476578598935,2.9845608391943594,-2.1840262261834127,4.3303706831939905,3.106597527225159
1.7949371504617047,-0.7411930900880814,2.182017503239632,1.592793830011679,-1.7919748137772151,1.3629074959218581,2.601647709189368,-1.8825808593653235,0.45357622706940437,2.279114681684607
-1.875070600711126,3.007762553103282,-0.7335497560387563,-1.6239162968338767,2.33596564035793,0.9530230243961137,0.8715004593684293,0.21684267539540175,-3.2701581052352022,-3.8674005566822904
6.213936853651325,-0.656149371112805,3.0292519730368213,3.567502702630429,-4.382042244956983,1.1874419983907538,1.8594640021234545,-0.6717505556777391,5.989887637146893,4.523125704041028
-0.39930278924434065,0.2751755109432821,1.4704634115122879,-2.3018840969157464,0.23850463776392147,2.3181861154279266,-1.6257819101001028,0.2547990683476107,-0.08953785657726221,-2.133025904972644
4.0833291279150234,-0.1897926324824445,1.8678913297774895,3.2056299793349736,-1.4634483248168841,0.18988097142784016,-1.947856513043199,-0.28497400620651847,4.096881569070454,-1.2818250171237193
3.2030442743830183,0.468114609716219,2.0479339969578985,2.9380765633274755,-1.7468278732770404,3.4994815227331615,3.988418537428747,-2.4980138452974057,7.600256941479065,3.392832171758851
1.823337058083563,1.3953544075126856,2.6019312317979155,1.7061644085303862,0.14635470972057152,1.3622160853465664,-1.367529817340827,0.6323743156706741,3.607819176907288,-0.5978975953442843
0.34224990361740937,1.7254262123543964,0.09585283394797672,-1.1895734360402033,2.0307661117949625,2.993599699313821,2.792632027240769,-0.37483412025296314,2.8680016659133667,-0.7288585124539371
5.3113402595578325,-0.6944977185801247,2.675826164803888,3.5534362976149305,-3.6320524883503196,-0.08803668476480514,0.7553570077398734,-0.565863817253992,5.289163687138339,6.146178098702071
-1.3098669931608022,1.5239567387653854,0.5214134798961076,-1.536705898914557,-0.3149998231815667,1.0772714555299552,0.600449405477103,-0.7433316564997715,2.9560748459490744,3.5630241995274172
4.9208243432912875,0.04978551788539254,-0.3250182804877485,2.792637760766847,-1.7617892479689443,1.134643596346658,1.0136728553540586,-1.4155672901921295,5.8766933650077,5.420756452995664
6.984875778998337,3.380666756931448,2.2645902723946776,4.4821456185140525,-3.312634126234755,1.4522346438834517,0.1235388381333638,-0.12074997972403222,8.189826636603815,6.67314248930658
1.71803868611545,-0.37217321540080306,-0.7763333549181334,0.5316421188918656,-1.4789415262491086,2.972338659982679,3.771459744962407,-2.1652235525675283,6.745442298053568,4.215407504287498
3.3633668233524157,2.905842199305233,0.4642866918253723,0.9512475028867393,1.8299011949733093,2.208203882077215,0.05659432620586314,-0.6203305088777257,4.462180990869013,3.6431339797162323
0.6120074550326537,-0.2745247878290331,0.0466940761952217,1.968953048622725,-0.7208136443809752,-1.010078495943432,-0.6803752729672924,1.152122891470094,2.6055643583305512,2.8062823842683717
2.9692683248041933,-0.1305307806394641,-0.37174752619421303,0.9049218325288066,-1.9097822833801523,2.67712532357945,3.066982283897309,-1.9227169728804725,10.503852346462374,4.500991203141385
5.153208273117204,1.5320947397486413,0.856463446316839,0.9430403238356991,-1.7589622088508983,1.275019801321592,-0.2438942423710951,-0.0995464643447025,2.172983541768035,0.4693199017023255
-0.5991869497019198,3.346878270205944,0.17352034342936462,0.20168136562007982,-0.499650150271699,3.877082147511131,3.034313321881116,-2.5072481908475885,12.644560628274998,7.29732522902417
1.2284426559691304,0.3597814769173884,0.758694479131711,1.9137650508690063,-1.4900590304789847,0.8952233778436206,2.618138943959623,-0.8966077861203701,4.24122436442397,-0.7414225512548381
2.7165749330537294,0.9133944180320086,2.1053376501851697,1.3988049692180662,-0.7134667120167998,-1.100364096193167,-1.3478376631312585,0.11556093712493132,-1.3211891427831082,-0.4563755715356326
8.081922818444214,2.158559248253752,2.0389663162277527,4.334619427061087,-2.923508431881113,1.22398393707552,-0.44074781257313106,-0.6483839159454868,8.247632649421108,5.361710449808217
0.5264458554768647,0.1909059698486788,0.9259456213303774,-0.030111252973066438,0.25914592278631843,0.5293559857479224,-1.2305315207087384,1.2586498595332973,0.936204916472973,-3.55044106593639
-2.477529134252543,1.0308179182539656,-0.5245878831393603,0.10858795043496607,1.2704806607111314,1.2685749143634524,1.7195008118504536,-1.0747947061505878,0.5313039172194083,2.6736119865864496
6.181094886311209,2.031573602999555,2.009297249713675,3.783499963679372,-1.4644016373752953,2.037808036723586,3.659090189028802,-0.9396800643786763,5.894985466429755,3.610658585959066
-3.184571970467666,1.212037518077632,0.12148307823329763,1.2001738667297082,0.2378840117204382,3.322228254735562,-0.45122332553387245,-0.20070727693120835,-2.488713998839186,-0.8218439170605756
-0.7065614081836806,-0.8464830917564556,1.4261679200837216,1.4314822823576372,-2.252169240583178,3.987863774345693,4.103834974475369,-2.1219424985247914,6.0143671468716615,5.2992544272982345
2.352156336913949,2.008014568699543,2.074651448258547,2.3355836110416472,-0.5887075444385317,1.6621424599395835,0.8899011506326577,-2.1577763454516274,8.074394963747825,6.301783110541399
-3.468677371441776,2.256015715246558,-0.744000676339293,-1.7971248251207455,3.001298693267734,1.2195472469475672,3.9551006313744286,-1.8031696853681736,3.7022046823007204,3.0755755195373844
-9.425720654929794,0.5522668832879032,-0.7742001466502263,-4.727640828568949,4.794558588915769,-1.0759326004334302,-0.4090420588667544,-0.48682021223410726,-7.226837054068646,-8.337348605741344
4.934747442186877,3.199987114108211,2.692974960594581,2.051983411955721,-2.7558612114718435,2.4501941352206424,2.066411593878434,-2.148085402307675,9.890616102428051,6.514790125396097
-2.2948708830570617,-0.475838745566161,-0.23164709851937204,0.08866177147819895,0.9338263095529151,3.4907098972813273,1.5893115697131284,-1.2615040435237368,-1.1596796231996773,0.7740147651156961
11.857391340736223,-0.9277721228482836,3.3571058553440647,5.513316046142395,-5.244448018058281,0.8111617106142108,0.26497764651319256,0.41719919702184277,10.404820488407893,9.322645518815955
-4.507270664339092,-0.692027018382053,-0.9595512225461815,-1.9406811877668717,0.5245500686574514,3.3661959323419652,4.882365386242905,-3.710209038620646,2.876464838561906,3.3765282256499347
-5.572885122553092,1.196490514308893,-0.5138897023715934,-4.284875828184874,2.625102120074603,1.3235729104402432,3.0238083547512433,-1.5922651598175905,-3.193735611945325,-3.6778725898625866
6.040636946932977,3.3431239227132323,2.9999367929387595,5.275355572589925,-2.777542490632372,1.494163532424328,0.6468737969818307,0.26670466846556945,4.405622947394162,5.167237517516969
4.181803226132795,-0.5748405688318097,2.3116035114369127,1.9439317096397533,-2.0937478740161373,1.3521330439752703,2.295355013672737,-1.1128016685879543,-0.15130404239143447,-0.9114596039167131
1.981707973812558,2.7517838908038232,0.1548052111203746,-0.9734754425846183,1.2834166858743954,1.9875684726091034,2.39174265414659,-3.328666877043563,6.108836212636499,3.1712661273499476
-0.5328230524045553,3.063115381767208,1.2795475221384618,0.23106454543261234,0.2587412497083825,0.14026024739718634,0.4310703594105118,-0.9796871584680176,4.834539197482732,2.0729620763746097
1.3416530145245644,0.6769255827164802,0.8129466970440167,1.219400753243721,-1.9313670579919875,1.3649147457610182,0.278208464596231,0.7075246424839897,2.4505056755281545,0.9646531104832445
3.8886954500949216,3.031196013360316,1.9097611383536544,3.4156547767777363,-2.2682884018081997,-0.9222644325376239,-0.4574395576817712,-1.5092573663564706,4.4769469619056625,1.8869968806854134
7.1656113167680795,3.3997902418694057,-0.14338803692320257,3.3017202628512066,0.164709028857561,-0.7722216350967701,3.167234923203161,-0.06380017713715419,5.741794357720819,6.012148395118879
4.864063458346543,1.8644135325301936,2.5668398348660273,3.026600199785411,-4.226864238676096,0.7251595254061274,0.20800158468430024,-1.1986480664001524,5.190732244880564,5.365702302623204
9.769699340531075,0.36415847132125556,2.233959127072264,5.51695899209281,-3.1550737004801572,-1.079393099795792,-1.6985520805019942,0.8446044454210591,3.633748734063586,6.131236641215554
2.090959048485825,-0.31930234287392767,3.2451763852544646,2.5819810377005927,-3.1383177757731735,0.9029394894744216,0.19602218942541602,-0.24612138464235317,3.7426578212324326,2.210984549650741
4.763790362920065,-0.0316736631091834,1.8117519845472136,2.8720582938755173,-2.814912174981464,-0.21815769268546942,-2.48159292668183,-0.3329866446509209,5.268516867820472,2.373436259280552
2.7293889441436328,0.9700745564069897,1.2332370553808878,2.106291846118504,-0.7736973010032142,1.140526064386001,-1.9328669175150266,-0.20018573937705245,-1.1658243250056128,-1.5753090545182509
-0.2666412312424899,-0.40183305204949715,0.2558792579161091,1.2406854338611615,-0.8405972587852804,3.55710707403299,4.695402203221212,-2.723121028359195,9.370602739242914,5.824746688368777
-1.6163368435932635,1.835128410229367,-0.857657852003868,-0.6494150115099869,1.7071803106450103,2.2355123328536055,1.909941084675035,-2.84558623018191,6.075278299257164,4.08600837659583
5.940166303687386,2.234413120304654,3.2149714885939566,4.065766288257563,-3.271311903755319,4.3244634300844105,6.672732660663136,-2.498541845491772,11.009811801177285,10.323500747106712
0.21460880091674456,2.7895066139254547,1.5727761578666168,-0.510823861270264,-0.1857502220880669,2.7190947926470677,4.666570736542357,-1.9949134875513057,6.759060157923163,6.102105863524507
4.566775131679108,1.1593841300586374,2.5747414162400832,2.6073508010861444,-1.3509133279704246,1.1480268343878355,1.7810076352278212,-1.8341819787914737,0.9295518968902712,2.927028252689956
-0.6908082751043393,0.6917772848364352,-0.5547290059911529,-1.986531966493104,0.9172182251890217,-0.6809917603120796,0.3362126282948482,-1.9305344809784257,-6.005426726533823,-2.338366337764455
4.206658579671885,0.033888648956781786,2.7942607627441185,2.690037092052459,-3.4494833158707943,1.6583843580288637,-0.3459266263634071,-1.6381193091322723,6.508793412978886,3.822950788345046
7.450366289521026,0.857482438061141,3.196097018846504,5.867225360336618,-4.976327507417505,4.192675403851708,3.5054720941617705,-2.59165070218242,14.982603757598262,10.189850061409963
0.24958397044633623,1.4193275081905852,-0.35210532708036735,-2.063820226284604,-0.10363449136306092,-0.3259604609275248,0.1627695739074257,-1.2810393622473955,-5.637823535436854,-2.0647580502474137
-0.9411328777583783,0.8809598810858565,-0.5782259288832189,-1.4921905432640705,1.3108479969413769,3.317074433239593,3.4424120318431872,-2.6166313212551966,5.89905814275479,1.538514616491947
4.5233146544234355,0.9908529171290803,3.4253590251706676,3.5751557102049945,-3.2237981049647026,2.078364184898207,-0.10217618139026508,0.8263051761099949,7.899813825733453,4.794867473149886
-2.1777435386046937,1.2134219706362162,-0.03905608814707895,-0.22565918763239365,2.169673738766426,1.768319697255086,1.5385615641011667,-0.7906471050936471,0.39616385331511106,-0.4692173086268094
-2.1638688493033205,3.337201452802362,-0.7744665217858487,-0.03993381306150138,2.3456453886678412,0.3300771043587618,0.671032013578011,0.12965496849756988,4.6780761152199295,0.650049326631807
4.564565837332925,3.1224872629819433,2.393752147006257,5.120316838627702,-3.223786610875671,0.3200344727373308,0.29728496158137363,0.5619870168189359,8.551293400921645,5.245744707247747
7.209895935442289,0.926048721678306,2.7788545221220873,5.920589618187117,-3.0542968502971055,-1.2076565889567208,-2.317491852194038,-0.7594836195658278,7.408490725426271,4.005516091267546
0.3207596715768721,-0.6100612301611357,0.16301325222355656,1.1195772378955684,1.2158278939522333,2.829441859803647,2.0706882343068354,-2.9973100032751074,2.231033857305504,3.1269492947298376
8.418561528594116,-0.7324247858837896,2.2731018133880503,3.4405017722345366,-5.227160636838812,-0.3303471123310049,0.3835389520687418,-0.22020616352061612,0.5376720635663261,1.8518524714290345
0.24140871786160709,-0.7943656181835652,-0.815701531204526,-1.8249398149243623,1.4676849694814784,2.435344359087433,2.7729697366439976,-0.850281349854885,1.6057914622877774,1.8671695367978112
-3.714534752475092,0.11380547359064974,-0.07644898937449751,-2.8598017613528226,1.31949631486084,2.012794589808115,4.123339432639874,-1.3659899315509378,2.4625316770981387,0.4011453241228815
-2.357934437231697,-0.8270927038913016,1.8394172864602765,0.34582949104528615,-1.6699077009806533,2.3535753917916447,3.6417398195509616,-2.4682479213034725,7.8069183978343375,6.581838092627466
0.8178692545651812,-0.7544283706888824,2.5389546267668543,1.369215129160977,-0.6985690390164128,0.17494479396276685,-0.4865049425452716,0.8839475394393773,-3.374902646404968,-1.7837249485725917
-0.7528702971928569,-0.315931883437231,0.3545243982351729,-0.6974886775144088,-0.3641616257389899,-0.6122343924162569,-1.033957840682038,0.303510924707425,-1.5508525588375293,0.36231865141750175
-0.32005066409876004,3.1865706673714094,1.0584385394441247,0.4651699968423916,2.574992450403484,-1.188888182376247,-2.224455622138161,-0.6698773225873221,-3.6175957687404328,-2.598760872704467
4.539873685867139,0.9722443032413315,3.2592561377663847,4.115238763280805,-3.4512206373005188,1.8806715804444576,3.1161947780184285,-3.8540321236299464,10.42643719144084,7.932143034608913
0.013214634830632937,0.07632855318142329,1.2142046846016048,1.6342929458370765,-3.102481771264279,-0.4228105706076175,1.5417911576173182,0.47855830920979814,7.180203321485943,4.625076098303789
-1.9782258814947338,3.2537011084267613,0.4992348539876441,-1.771126568194414,0.7738615831389386,1.962627870537621,1.4395164604426054,-1.8226751756759543,2.1656233383038543,1.2073632659521198
-3.7081854940979486,2.8263004614052045,0.28633555984806014,-1.8983529334133713,2.456741187969457,1.9547737107320347,3.0078673408946024,-1.1668401652756468,2.1666361371103284,1.939540192100076
2.000712163630102,0.6549456559904057,0.39605829094869804,1.7030113961065123,-2.1854086978684504,3.169431401492021,4.953128743827597,-1.7960061301476888,7.6902506327851965,4.927733431899375
6.971858897943165,0.7455039516104744,2.9481711295218074,4.784901123316325,-3.2102678910483893,2.4444316681487894,1.9558150222826913,-2.16935955357706,12.658516282381786,9.060127382498074
3.90710143347235,2.75514430326003,1.538035225895901,2.0695071827802023,-1.5231345684507815,-1.05663531654171,-0.4832464009926232,0.6245872492072795,5.025068234577335,1.6174412363877322
7.467096609574848,3.315971407263457,2.145078735252065,5.306797661077351,-2.811985087361997,3.386721872626949,2.5236890159574945,-1.0158633521388285,11.270867678943558,8.122578056587768
-1.1278096042616517,-0.32942872631701814,0.08774917311282415,-2.470189200198012,0.33383583272869316,-0.6996082082846549,-0.15050002003180837,0.7289442209026759,0.7923470838601505,-2.164117063822042
-2.198716820693986,3.354897661489309,0.05184187717654165,-1.5296364497171002,3.37995480889994,1.7316469861817692,2.2696292130369793,-1.9499756531517054,4.994055851732264,2.848752303147602
9.036958227291159,1.6436431633891133,2.580732910587864,4.797458930021864,-4.401545453827268,1.9464956647181209,0.04170504286438033,-0.554326396401543,10.794928905200507,5.912559823424374
5.9462700511797175,0.46138065210463974,2.24882166216154,4.558450485718971,-2.9251960453270502,2.159180830382282,0.4774165379741057,-0.7993189054107446,3.2764357619704647,2.764777794462937
2.365961014046384,-0.6027161143545088,0.2443108997727479,0.4094012142950934,-0.12522045990346933,2.0840692439279698,-0.7834824685348682,0.65432092041595,3.242532410455355,3.5876094099355056
0.7682894245372738,-0.6414923298120607,-0.2867653691263611,1.0836268893799792,-1.267049549924128,0.29706684376826586,-0.4171290201587101,0.43252661370082784,3.1639854416873705,1.3699764634369456
-3.0403278968678977,2.8813736925083298,-0.5394353469850118,-1.1297490652167137,2.428612379944435,-1.4196508585865386,-2.2568806324950104,1.1603350555097125,-6.137705041807093,-3.5736335291248764
2.772217844185361,0.008854170362557756,2.1751085692313623,2.6451472911314355,-3.6476839201525513,0.7511068934607975,1.4524844334283318,0.09710983215682856,4.08959469667789,1.79215323105164
5.2896421116897265,-0.5935846576149271,3.4162831499028012,4.3573673167769025,-5.1173300492146625,2.9504085189135845,3.0883764208597984,-1.0221079094857537,5.194716773552192,2.2596059277547464
1.3826305158149834,-0.13990440701870155,-0.34266822843188416,2.2436222902256135,1.4948748885423657,-1.1273783974421643,0.5492102943113947,0.8415669650449069,2.4501940624007545,3.072719116097611
-0.7372277505181084,-0.041389757055106724,0.825682327863994,-2.040669759305429,-0.9339726067028609,-0.7273293027442665,0.8071449301917758,-0.10458345682051794,-0.988675229385567,-1.0251491521227751
4.148581754649551,1.0307933120872748,2.7438071601499003,0.7148879543237902,-2.2938853997733153,0.3143876490633526,-1.325523577127694,0.4842343415675124,2.8625496483159325,1.7235369648471992
1.7601532335723808,3.4012333450106667,-0.921238837037032,0.530931735230507,0.30826527526284064,1.4676465866378345,0.9464736700019891,-2.706176552325984,7.719855034714966,4.27682084344345
5.81915351621536,-0.13983231782690453,2.0796061463230995,2.416138857506449,-1.857596091765466,2.022325314989126,3.108821421383913,-2.009651124370956,13.082236689046812,9.234389486565822
8.011808597201288,2.1130661458521836,2.0294713486626184,4.613821612501736,-3.1304173182704993,2.2783226143674775,3.477103106656583,-1.311722580029671,9.318303958869159,9.10798798409084
2.4879371844152547,2.4833384044593343,2.3569518065524586,3.554328032159521,-2.0199164422083085,-0.007684734550004554,-0.22588016268543404,0.9222809864886489,-0.08168641873553195,0.879618155362802
6.193663668182827,1.8878238958300906,3.292673497281122,3.393484460946381,-2.953923847598295,-0.36652101955860106,1.0376620456874226,-0.9903733482438447,3.270103397909148,1.4121469150516894
5.6263977594206365,1.3657030246232984,1.1031163757846625,3.825188075367049,-2.946302534626717,2.0287581160004375,3.3191785906951474,-0.38021753971035305,9.6550124242784,5.145834928165699
-0.9027006253897925,0.29511891047649774,-0.2822715778616177,-1.0932607077570773,-0.10797561180430387,2.331487463110448,2.2445484160400415,-0.7002031752294415,1.0115953939771574,1.451539150057184
3.4972805083716416,1.2886835289479763,2.912631676138988,1.4295336987011977,-1.9724451696467178,0.10767946432462927,2.384189307541911,-0.9322616049507354,7.957187296355478,9.11947701399626
-3.993328218640085,2.354566174407397,-0.32413967633409546,-2.287404933218715,2.1940480634800767,2.562529202596757,0.9988293627864852,-1.5531335328379174,2.344519455232458,1.9158761845132068
0.23841585217143188,3.26865901945936,2.4822180111853136,0.6947253945351158,-0.28984486685513655,-0.5787610248583352,-1.352480573912913,0.27770409806502805,-3.0082363195271253,-2.2408538315499507
-1.4078446192373189,0.5968701936684211,-0.7989646238200712,-3.222604010190085,2.286165416020295,2.837801611981798,1.9684516439265785,-1.528677707568267,3.7212943073034688,1.988474536533159
-2.40083711860116,0.43737345653110515,0.2356304820673336,-3.86520996335056,1.2265483538376536,-1.452255685592065,-2.639505836534426,0.7196929082548545,-5.429721566591327,-3.959356802270957
-1.3324856204793334,0.3875047093012438,0.5102779278604266,-0.5458076281334234,-0.5942743690633576,-0.04982233424824256,-0.16410361685727207,-0.036178469668793165,-2.5649828317807506,-1.4467084556867431
2.0566935879358406,-0.45660061936499585,3.1036359495265486,1.6110399064681031,-3.3973207049048666,0.3273128627109656,-1.9619539774256602,-0.4434293209732462,-1.3443298003964108,-1.6232674285577564
3.5759342012692725,2.493106783206268,1.7622737791430603,2.7353747978544054,-2.168150068151875,-0.19286792349712234,-1.5053212847146458,0.47046352968601063,3.246144971856944,0.822915947226375
7.984965219997279,-0.2975274021132641,2.9645315690126512,3.937234056449756,-4.528734026019665,1.9090452394081758,2.876383835975668,-3.553623536716335,12.288662970657118,8.781655316797272
-0.6010676644504028,3.166714158252031,1.0874017375873302,-0.47682941955815095,0.6323619273763061,-1.4011084232052915,-0.5847309447960211,0.2509516649366342,0.33733630295987016,0.5972130370389066
-2.504631085428693,1.109370333759367,-0.8895245625131722,-2.0426892973137196,3.015827016798685,2.1090622094020652,5.510125166010296,-3.367556016919258,1.8033707318264245,1.1529805555032349
6.747549099783905,0.7088835540327567,2.7000107240673175,4.17600226655225,-3.333567960527028,-0.2030960401731564,-2.2175058020953493,-0.13943979130418138,6.150541911594091,4.389833869823802
3.57773312226103,1.0387448643212838,0.8345198010459218,2.283911590957874,-2.578428546222565,3.5514016041737717,3.318513269751571,-1.3641578763360769,12.977037107479969,10.062705190853858
1.2019593632917651,2.305986103080651,0.7658364641888324,1.5511091476036525,-1.278017994770647,0.48507740514067677,1.2473114964976528,-0.40945115539841687,4.973720963814792,1.39453755218202
3.7323976466007256,2.1982405103409235,3.3205912571491636,2.1041495093341345,-0.7135879086891588,2.6099739759974536,0.7977184454346896,-0.9612798278493758,4.409091121279477,3.5221392607068425
4.798560559925276,-0.6507321526560472,2.258812271360473,3.8042359851783476,-2.155862846774793,0.13873916885168203,-1.9489685966217682,0.4224837603223771,2.427185359743606,2.0417164444908837
-0.3519568614348574,-0.07726959126360078,0.05801744613031712,-0.02420927858173457,0.13204915530697187,1.5135007051911797,2.6224593428299405,-0.5983162332060674,0.8055313305298838,1.6025089922297446
6.664800317265142,1.0669786362272524,2.752661016993748,3.7265543539456663,-2.367517481124632,2.2919919845186216,0.2712802567564004,-1.7923363385090114,6.540876036224096,5.203979369398182
4.344881434439395,-0.9247542264794238,1.7206401792027948,1.6326748625782095,-3.6047610789755518,3.105369477006813,4.101144353254551,-0.6423138643167451,13.223782503078166,8.40253074938341
-4.29793444817683,3.1988625236439905,-0.5787664658925742,-4.073198751600136,3.248813924091472,1.473860378555803,-0.015183324359183615,-0.8359940251507059,4.04560188536262,1.2059176972910919
-4.720386508333244,1.645903084243057,-0.4812622356272632,-3.2988110293068713,3.9176640721128724,1.3919562752031254,-2.8326450774198917,0.5104003196738036,-6.328865801586371,-4.77304742889147
4.170744005065059,3.3898783901483798,1.697965007971153,1.8965463201199768,-0.07567154625532346,1.017541719709514,1.972644369765809,-1.5200730949743761,6.9521801366218865,3.8707528536080793
0.36374428462723035,1.295778834086514,2.4648206647497,-0.4787167722395996,-0.7534016012612639,2.070020493863841,1.9522098703844968,0.24057035373357932,4.318468240321119,2.000472462797739
6.3710105417330904,2.152589733964122,-0.032921305664858735,3.481795251189651,-1.415614767596479,1.2702809483715083,4.333994239745513,-0.24011320411255002,5.168627284622134,3.5235691888075418
3.8497265042079563,-0.0516193656144156,2.661264538840386,2.9633386299197673,-4.475155352482562,3.4884156582740755,1.4115420255975952,-1.649960791183806,11.880743901314442,9.194448282198358
0.8877142114502259,1.9100736836099874,1.733643807548742,0.7754246817527707,-0.44219498258091683,-0.7685452939412655,-1.216912862645716,0.3340587630480108,-2.5090978525426513,-1.37427901031096
-1.908393700082608,2.3557180153595065,0.12474116430939008,-0.06514441004337736,0.5291643112807606,0.6605565747200575,1.1251042442791503,0.004384169639567795,3.421616121256946,1.1781896402427148
8.648577365713514,0.46092158864806865,3.2057206182204228,5.843480102126574,-6.662646506725672,0.5099066940587424,-0.7584520056311158,0.3164241343855362,9.87850814952364,8.935659549619977
3.3990221533889677,-0.28053889690949907,2.033035559761383,1.5799640603726406,-4.003819570461789,-1.0930619968835775,-1.5467522288496445,0.30623264399991595,5.472709735371474,3.629103482773502
8.330453915138653,0.11813104114675888,3.0734135779289344,5.310977107529187,-3.0486128186196995,-1.3740711760217983,0.18184677453670497,1.9323421915712247,1.2005474110469256,4.5805094409381635
0.36112179612426243,-0.9226455244329244,0.7072580278090339,-2.278661542744798,-1.6043948863322421,-0.4394501244118189,-1.4527943286132126,0.6516556307942647,-5.413774529213788,-1.2321644808132093
5.57611987297395,0.8752518999594852,1.279902189506807,3.448644346688346,-3.108599748827844,1.7030227980885484,2.115662336353663,-2.053915790934006,7.4091623011271865,5.217758906956585
1.5311690107051623,-0.7070649349866969,0.07572009350941689,2.6554719387983483,-1.1858158919893569,0.14760233189429595,-1.1657551943931104,0.8593297026495407,-1.842539146845823,-2.276364138694073
7.151408223809141,1.766142113231905,3.2244028789734527,3.432222917885581,-3.791447310065668,-0.45590125461166775,0.11189968963766585,0.8454880133051085,6.073388208695091,1.1571272002407245
3.69894275746718,0.8223305494186344,1.068746892323257,2.2633945385797554,-2.086334158984819,1.877083686127791,1.2676206264693266,-0.3158589118779979,2.5624582754752803,1.5297973859406322
5.6861717934257525,-0.6047662759318195,1.5587996537368003,2.256928312676342,-3.367519292441381,0.8862853728313614,0.7610382381606099,-2.1606059720831428,4.569279027181251,3.076771034770626
1.1531609910090046,0.07906765510944513,2.147130132629356,1.924979540331283,-2.685196238574387,3.311667706248655,4.561838200744843,-1.5908159712572534,10.62147609733836,6.633418630903511
5.497382459277206,0.9564162093706039,3.1812794799201614,3.5111182628845574,-3.5771163451627257,1.736848620279111,3.309305216196816,-1.3707154345971693,8.303825965300458,5.94018394281828
