x1,x2,x3,x4,x5,y1,y2,y3,y4
1.8611192046551586,-1.089412117472024,-0.8850224486465189,2.8063875652386043,-5.661709520866655,-0.1707102323182763,1.619918306143005,1.3918273512404031,-3.5379134412805637
0.5898007185434948,-1.3884563908737435,-0.6497368584794326,4.593021011458333,-1.393106071676506,1.5203704682219596,2.12086258129091,-1.3796019664101078,0.37379258502311424
0.4021819946507632,0.21474553384715397,3.0119362804615673,-0.015258168304871993,1.6679212290670722,-1.8222656675585638,-0.46017397721098335,-0.7400261672624446,0.5981560043251398
0.6223580281566954,1.9563168600899306,2.795809314346216,-4.770668822091205,-0.057614611597121224,-1.7538460441590744,-0.6622727960267448,0.864620701511696,0.06485504805766233
2.215751839756977,2.350054349461586,1.276365022999928,-6.380670761885465,-3.7302201303200153,-0.6910484922185849,-0.5610573751625122,1.0753422398516865,-0.94786509985341
1.3374513755638207,0.8693777154969908,2.474532123099685,-1.2394186842374784,-0.608230773161405,-1.2012033258475336,-1.119093415627499,0.8361920712520252,-2.217373444911345
-0.19680176182531595,2.2548749062040923,2.8778483211117836,-7.655312125103835,1.7463442054186504,-2.8529161966782146,-1.9314708791509694,-2.0625304708548895,0.9464742222928925
-0.5757832185071403,1.675125272608929,2.9588541085545175,-6.536127989231253,1.9407375815436745,-2.4187321819782897,-2.173704988777203,1.2854299267136178,-1.918721706155402
2.8296179066114404,-0.4946380095461532,-0.7732803743659771,1.4253955305275334,-2.696940076499465,0.24470106159647942,0.5718802058366591,1.0701841836612926,0.023221216412455375
-0.7774033851350287,2.9185791188107846,3.206731851655947,-10.159752543400257,0.32192948369825736,-5.487025818616636,-3.0301969313840704,0.026694660135639703,-1.838929876736841
1.2417725911947692,0.3606410107975736,-0.027748667708666908,-1.5462223490860287,-0.3583055956201688,-2.569820101256308,-0.2016279192116614,3.108852654994216,-0.5838691872554945
1.3092230526254842,-0.14690671159457397,1.524137540270543,-2.6638333914968126,-2.4892272375219395,-3.0944699503771216,-1.2460747406475763,1.2307662661095995,-3.7948878857554194
-0.5571468757825713,-1.259014188860363,-0.6861912665958534,3.8601010885756937,-1.9184261380349106,2.2242905235498824,1.130593013477366,5.100079515228701,-5.5922587527906735
3.3025213591857643,-0.8092301764076323,0.06436372310309979,0.5280261284875418,-3.8571157973752523,-1.867872456359343,0.2768440501758343,0.40132726593336965,-1.0306788407741434
-0.8638730821767706,-0.9078118028504616,-0.004528718559714706,2.8326098483642923,-1.7101138539914982,0.7032441362084069,0.28953197499935707,2.1096269062596185,-3.3155168822050802
2.4536356151987553,0.486707250335529,1.3287111554806277,-0.1100004169106419,-1.3401424927934942,-0.20658768593463536,0.25322360953618767,-2.0380347029369683,-0.5611716787117118
2.156775766529487,0.5025955339294159,2.5517572510653497,-0.4820431013881046,-0.8178066468870037,-2.1102024310077825,-1.7504433123675578,-0.3082038416680395,1.1918919013689073
-0.3466901825742533,-0.08033914409994104,-0.77054818751948,1.5157609804775394,-1.362180557181627,1.0897655207068224,0.7417554460652301,1.3327455539224735,-2.811337147955519
2.4157710354340107,1.9584229003254328,2.26457910709188,-6.183746353429746,2.9019360862065677,-2.7869722839300772,0.0585446626314627,-1.1703006633740016,2.070785838772257
1.2165282262814676,2.1794722787601954,1.0487423573271255,-7.0061892373053185,-1.5222741627450564,-1.8704582951501103,-1.5447931310242964,2.867100397966461,-4.399514619205613
-0.6211566962867884,1.9452247820314754,1.0912568144977834,-5.83528999837971,-1.811041434762747,-1.855294704455483,0.2822108423134045,2.817952653398132,-4.862000271223919
3.443226052904402,0.8370528287896052,1.6230965016384062,-2.7905002578823823,-4.064900198454327,-2.4552133712393887,-1.0781110499555058,1.8209879846386794,-6.299716849418755
1.230475949328392,1.1786117483162368,2.3337914349125657,-5.218773671884161,-2.7661308271213523,-2.7792256310941363,-1.0460186823627546,0.5915143157883654,-3.5160083445297503
1.5275949065539547,-0.44989108132058186,-0.32342151123862806,0.5854961912517532,-3.0653299374403744,1.2599680351379652,1.15021233406431,4.142771206091875,-4.818839619565045
2.646248380304569,1.909769328484603,2.801202296634088,-5.127992554193178,-1.781306991853713,-2.651133661069153,-1.4969266666224355,0.8566495672771022,-4.163149655843403
1.9460800529068507,-0.779254032552155,-0.8711486519786604,1.5955766949967893,-1.173378916613555,2.6640411119956138,-0.18030418251300806,0.15411368983202256,0.51279315063271
0.39201948230076566,1.569932904047052,0.2030583654846243,-4.076192874041281,-4.084880930626811,-0.5725837379691855,0.6692306128899854,1.2555115514283104,-7.61956411318543
2.793212809704746,0.0031942853935730585,-0.1318037661489555,-1.1969034991220175,-3.2034898128968603,-1.8088239541063682,-0.5867334495660966,-0.10951922149627458,0.11689993629992741
-0.27627807557263906,1.2092958160340253,2.867523310128184,-6.465671081201644,3.3900812132927682,-2.5615658162410853,-2.474378283845592,-1.7765156402766513,3.9973411299694384
2.2836486496363113,3.5147764441354576,3.0100178661087007,-11.151901768116264,-1.059297792485519,-4.042575682622668,-3.208996984387722,3.007130176406555,-4.827302210677162
2.0815839414413637,2.790253194802261,3.462370798551346,-8.296905893536822,-2.2219729299384428,-2.478640935780355,-1.900301031604965,-1.1100776343780325,-3.6895691385644174
2.3630703249282936,0.43175682015682004,1.6393408717197304,-2.199814595108638,-4.298966708816145,-2.1270142627934967,-1.0104276754404502,1.8348106246987084,-6.5939051921568455
-0.21020319839378865,1.5679826740176181,1.5552298271612028,-2.933939804200193,-3.2203116737201247,-2.564191958854469,-0.7884271528986018,3.0929350862378193,-5.021236652193825
0.1997955462195069,3.279601336484645,3.1186780016409967,-8.687047890793574,0.8851654735218324,-4.232410794647835,-1.282318849241678,-2.354387380646947,1.3977664011818476
0.9372129573868422,0.005840227824647085,-0.7934409119443018,0.7502834544440307,-0.5539990074317022,0.19941981771105566,0.430847592264504,1.5343976448743968,1.3709046786530907
1.7316645301480413,0.9452219076687584,1.6817213033617984,-1.9764811923377872,-2.7822258904267274,-2.0792625004895724,-1.3409748796723604,1.2802881757780673,-0.8959904705892561
-0.028908975521970914,2.041018561854698,2.550962278382701,-5.204201078258021,0.1707168120659015,-2.2472688766038416,-1.721798291805788,-1.1919669058832587,0.579959716252299
2.7142930661698146,1.1807477081416011,1.7721984864136417,-3.8822664713414716,-4.545583068482549,-2.347745495440265,-1.1194132207247067,2.5975384741918948,-5.903909745857631
0.48271352326482897,-0.25142335312475106,-0.06281301291298358,1.538664897676393,-2.101715580736985,0.5698354923964437,1.088150524172982,-0.790102870798393,1.124058426380789
3.1822891722315827,1.3785789601849792,1.2450589361844568,-4.731414917471463,-2.9081103971141795,0.26379663134554293,0.39843848157631523,-2.5777386602583965,1.8581866759561274
1.8766004677324792,2.1313870185240313,0.35692921961488233,-6.852567079667044,-1.1455469365455775,-1.0674861231376587,-0.4101644728120513,1.7282640432157157,-5.988204150648933
1.6793858572775076,1.0044482606038068,1.5943259940264944,-2.0503981506752242,-1.5859190567281498,1.2204015511706106,-0.8651754524422848,4.052111498917627,-5.461753561321173
0.1404858394005959,-0.11812613322409742,2.5828470026963006,1.2870277312581428,-3.752324732656958,-2.320859438482409,-1.2423268537202066,2.2858757160488437,-1.9344162570288068
0.713991183946129,2.5919933957192596,3.3723057699855596,-8.0274990196558,1.5222742463908718,-2.6019586658713454,-0.740792245459282,-0.4566842745735154,1.7023346123183438
-0.6624873978303306,-1.6244424595038747,-0.6986104006468756,4.670564755695759,-0.2939094901067453,1.449045946855248,0.10931039901072152,0.5004461210065584,0.8737925032978936
-0.042890217774810724,2.5101470637402628,1.6712802101736495,-6.314785054907559,-2.4381897351296624,-2.3964498868964728,-2.5653234390489734,2.4150477028912416,-2.695881266023853
0.6955362873268294,-3.2026810315883116,0.4224559080732797,9.692070310804938,-4.691833851993528,3.473185657300043,2.3827233271035295,1.2652116900108332,-6.106123307840386
-0.4597218015084523,0.7680932978249607,3.1597656117354154,-4.2793917088285625,-0.3991747571865347,-4.142049494066932,-1.4447600841473962,-0.9882450504138176,-0.33744800012897963
2.066674873993601,1.2331581679944537,0.7301116781057828,-5.175898863227668,-2.206570358143864,-2.1169535477712,-0.6241938361055838,-1.8752471761750178,0.5892965089604422
2.184860085087478,0.13403795072767807,0.5917054163240327,1.1474456744847654,-2.077243183188415,-0.5661594586942911,0.20590177634733897,0.4034280140784494,2.4982274589998674
2.650294812760469,0.3557029957259797,-0.06338807151005221,0.5994881352915383,-4.392605276795026,0.03853850135577919,0.2699888113874323,-0.7644617929780965,1.3242773648196673
2.402466596095948,1.0867168444180006,2.1518469692897773,-5.168963410051642,-1.8190033303981001,-4.142692301228192,-1.4684887606184687,0.3160535650923195,1.1212718754357225
3.196806791920401,-0.7481396805726745,-0.9584439348863233,2.269816765812811,-5.069846959929649,-0.08618896378386243,1.7195984676495046,4.262534405216706,-9.221355161512262
1.600585210566562,0.6040317633584088,-0.24489187832331594,-0.1635451401914773,-2.3565482751097107,1.3293656782289232,1.42162348655718,-0.5417529001853507,-1.5589776324888232
3.4540777298907503,2.700803857141922,2.89597766714762,-7.761414239639622,1.4623046042047116,-2.7617312779485417,-1.2612539044101447,-2.6970284180537307,1.4878537622869612
2.4697169398840852,-0.6942024063466915,-0.19825491955179342,1.6697716276312016,-0.5251277337718598,-1.558385963618808,0.6853660817705284,-1.8652451792229179,1.4464049659062939
-0.6852376313939947,1.151696351362691,2.2997251711553246,-3.5689280452904772,-0.7083878880038208,-2.018175020346438,-1.5113799014814315,1.4971415348816752,-5.154758040135693
2.8639666582585277,-0.0022033897452462137,-0.8500000876178853,-1.4251481332614782,-2.3878889142085207,0.340350602442752,1.0779699042877637,1.1245158383821197,-1.6046663232079577
2.0478435799738923,0.9903702619739035,-0.08600625748452984,-3.266891920983,1.097995721085072,-0.31441633334219676,-0.30533974218016846,-1.3954691191324873,3.0235264429621114
-0.45653807729788487,1.5677642597268866,2.7574037433798524,-2.799439822621465,1.5877714983762223,-2.9939995604784384,-1.4132268527399823,0.5672583486598266,-4.005536390162391
0.046826522877607024,0.029971189764585907,0.1512296747115156,0.24947055624777825,0.0676317591375003,0.9327334138001517,1.2039198794101835,3.8844886418751345,-7.622448978531507
1.0047585894823041,-0.1397574828578049,0.005318113488277376,0.28330617579495454,-0.07678036390474463,1.189168048768284,0.05909681884082702,-0.3872163537116542,-0.20397330772480254
1.540922599384169,2.0225989778233244,2.884807951880067,-6.505834363430094,-4.498121844446193,-3.5622742699603895,-2.0952894992818805,4.932662069470435,-5.525329571516243
1.040140075814361,0.5354275622545607,1.5719932750971717,-2.0861534970952413,1.3566569137378397,-1.855162660925746,-1.3467498619372558,-1.0727914136811585,-0.4139643614533004
-0.8033261200084693,-0.7252444101275392,0.6043322903643988,1.3973603557055378,-0.6741689885396158,2.802576551750798,0.7473516919260468,2.2209841886526807,2.5707048813703723
-0.8614997480088236,-0.7956827108217187,-0.39173056346473123,2.9061774798706774,-1.8104256016960303,1.4926157318911975,1.2285640173509487,0.8107487580840437,-3.6461893109548247
1.544320116329906,1.6719787831093926,3.312456916179282,-4.79974097795759,1.2447811408721061,-1.225528889880411,-0.5997827790273745,1.7144980737085782,-0.2007736068233041
0.068996286489728,3.558629373829439,3.14978622702579,-10.741101423987915,1.6917647890669747,-5.821813847055014,-2.376070324370055,-0.7129225052041512,2.7776544317629615
1.767177525134088,1.7120086285009861,3.437477918004112,-4.4347597411904776,-4.674753523805405,-4.2532333212993105,-1.6723946307248052,1.031376411765851,-4.271058945914462
-0.593196384715855,2.732214807314433,2.622200007964271,-8.53110580816714,-0.6995973428966946,-0.720712758817315,-1.2362208034127573,1.7835186869754553,-6.188016873655542
3.0211700933074015,-0.7236977482820008,-0.8467573097245467,1.8111249486537928,-3.3946188918176996,-0.128666932965108,0.5706071445947617,0.6048542364678269,1.0355980709902541
3.23537632162156,0.8275368455234455,1.2856512025427613,-2.2197122423481424,-4.961717625218951,-1.7019636697720057,-1.2971104075336053,1.232828017396133,0.6114752281895853
1.3356400865784548,-0.12497135786093717,-0.7921769368214588,1.2114867869216164,-3.247452755735787,-0.6967066757850929,-0.6573775910481601,0.18582167662974958,-1.1639725904856582
-0.25085280044944447,0.4647215414669298,-0.8761234557987074,-0.9864156138916184,-0.6915634266538084,0.8260677941706418,-0.16169743956969385,2.059830107530466,-6.88929454412562
1.450516777148113,-0.6573298678638857,1.1353019774488091,2.3873296757804545,-1.3658987547643602,1.326321364200002,0.061490587921315266,1.6573231700946156,-4.470697963224874
1.8682566547553239,1.9313213718405224,2.8791685875537527,-5.903999647987369,-2.36333937981869,-3.4473108898732345,-2.4486690092050347,-1.6668945998378408,3.580200994315015
-0.6797637801855976,-0.1889897521344939,-0.6276895134873661,1.8412132565492325,3.3755448268823516,0.7741199390355009,-0.459383950166804,-0.10019774683510985,3.546997049047306
1.5695613357444453,1.560351663553596,2.0232912906228924,-4.927405226330156,-1.2303287544273345,-3.137458653389612,-1.768593000667978,3.163528611510201,-2.9527141513034327
0.4764617053168936,1.921764133691797,3.104278303789406,-5.272316500963876,-0.19531649500638792,-3.4484391603586637,-1.6307508631430445,2.167773073015142,-5.853059045950382
1.3116454529945547,1.0945493635231356,1.88093119898986,-2.6030934835042476,-1.194987632535967,-1.616458583763712,-1.0854383433163735,0.14056799332283498,0.95058961232692
0.04847697900628223,-0.13029061895448843,1.8242547982374413,0.7557984992082336,0.10337578110907852,-0.2567954238686584,-0.10744889063356339,0.7872867185501558,-3.1121083040397703
1.973839874808962,1.1868018488408858,0.911130800431101,-7.492157813168832,-2.298980700119464,-2.597259381001353,-2.227337196974592,0.25661231769676907,0.9271786766351839
0.1463128846113626,0.8304993754511546,1.5202299032396267,-3.1994592469443424,-0.5985250993187299,-1.9713269669339917,-1.237304097472513,0.4288685340737939,0.07010029349887387
2.780342489279827,0.5044940926780768,-0.25178870906438955,0.7073463483139785,-4.168438057802538,1.8885387080563358,0.9034230537894022,0.35786424656756943,0.7459194898667675
-0.5056255217087408,2.7584239002794,3.2095659003602535,-7.289782723095008,-0.6784616628893998,-3.5391902823050874,-1.3444139765890264,2.309031444140791,-7.471732742167469
-0.21353767193126794,1.411119131422409,2.615173710685973,-4.3694169387231545,1.6553613566286236,-1.5429579360605667,-1.0782893738477135,-0.4099962329296516,2.4408284386726087
2.4635158068082554,1.6213098581943295,3.422212124193745,-4.54383467469245,-4.264460153863098,-0.40428995360493913,-1.324849901404616,4.098760562715239,-2.9862163617376662
1.6149076419458224,3.0817690484249187,3.2922491030110645,-8.764867312380282,-2.9713245529062675,-2.4314556534637406,-1.1297488010635492,3.6539948652599405,-6.447474991497155
1.1486359129222437,2.0687103559224345,-0.22307413076333538,-5.46540292145987,-3.5256974795696405,0.1670161083445676,-0.30649016300386606,1.619805914007326,-5.49220451372635
3.3034893750476133,-0.1581284192177367,2.22543829092257,0.3300942731849606,-1.0156881679182101,0.06493668910771455,-0.15906671880864884,-0.6848067838800761,2.849308373575645
-0.8351900080051278,0.3471101435034567,0.35669026183193164,-0.8512169480377463,1.0884993591722973,-0.6342929952429774,-0.8708521320203082,-0.6172423548746879,-0.14564085198769788
-0.7928103272280742,2.394153991379763,2.1225047816376126,-6.8747989622807335,-1.2971702938183427,-2.3424276437128086,-0.6843530950157386,2.9704205670014634,-7.919882112422167
0.03094009813791021,-1.3396573882701988,-0.42030076366612357,5.057427697273287,-0.9706435524414018,3.138747853966237,1.506968828629549,3.533127887757727,-3.4267374240934894
2.861065136884742,1.2124720852235893,2.6169960260036316,-3.6290014663997923,-2.852243359625458,-0.9276526670865619,-1.6303899670029962,0.18744245074277666,-2.422340263299521
-0.5139361367341433,0.32390697736564933,0.0027116488326970334,-1.7868857533843392,-1.8615386483633238,-0.15561148793835056,0.14510576600617,2.6890001091424915,-1.6257061299092055
2.286312473537984,0.3244403338485205,0.32446580903345823,-0.791920187376999,-1.8433839539961867,-0.24848421462808434,-0.20203954615318484,1.5069099029045465,-0.7050468881312495
0.8174229429400184,2.5785666442764743,3.0460838103070405,-9.647050658542174,0.6660971572740413,-5.349011172879672,-1.7352632363626561,1.1844052795007902,-1.417037909611008
2.719174535413345,0.5033530119637215,0.5128798512166204,-1.3213845214630324,-1.660897957887543,-1.9654421588800934,-0.09757730890210557,0.48945498534672294,-0.8233232381031147
2.2179473258812497,1.1984690787611214,1.9589092923990217,-3.649818440920911,-5.173577749403446,-0.9546745460767494,-0.7214586615680989,4.318203978883631,-2.220157243605269
1.505172313196696,3.217566452232429,3.19131181673296,-9.398599302293306,-3.652184217512219,-3.461242432231706,-1.1048246924981284,2.692151123153242,-5.051385804495111
2.8758434507127135,0.26082938696713437,-0.4836429175315443,-0.9420842870246048,-3.1136416651869743,1.7607188426264264,0.5088534150983975,1.1415567114836698,-5.065212905707755
2.342922385576878,1.9440780125113952,2.3448240370167204,-4.1707940236819905,-1.5597906599794125,-3.661665837709676,-1.2033263304153385,-0.24489673326609263,-0.28708437899410394
0.04519716706609289,2.8877646002526727,2.321961474472455,-7.195435030345449,-2.110112078469097,-3.9833149545704036,-0.9212226616657384,2.9671629868657297,-5.436180248658154
1.2311071308048596,-1.0781896156647213,-0.07699830746898528,3.4235169521180233,-5.6303869100305945,0.08038852137932272,0.9880633521726875,3.429408220405638,-8.762365856469847
3.3573104711686357,-2.8350671408001586,-0.6245639532765943,9.14872439353803,-6.167021361249088,3.3494910491019865,2.0043874634782406,-0.09041570713934644,0.17044071355016846
2.229542369504856,0.36361509157773175,-0.3435809126590176,-1.9424499331157228,-3.5834791607791816,0.5427047736467974,-0.1963768338917288,0.0010148500256470516,-1.8531173205107379
0.7063137224434994,0.8482173094431497,0.8838774726936163,-1.7716581554672322,-2.7798399368713165,-0.1197425827609927,-0.6877274135376998,5.105344040417353,-9.79352125998138
-0.11670408184098302,0.9213954146541645,-0.16391118907414304,-2.3051632946409932,-0.9879783782904534,-0.5048681591315977,-0.43374040377912215,2.6008281016469357,-8.274209225735856
2.7986887010842882,1.54018893517405,1.8493415087889997,-4.875459765084918,-3.665079931652927,-1.705449654583084,-1.0645278199714596,1.7684371917880286,-3.857932888216319
2.122908620632838,-0.051345821101356943,-0.1779850000101053,0.3142926672748701,-2.2276291498022016,-1.2175712288344522,-0.5930246777744664,1.5303100994946153,-2.18915885699981
1.8624974544895916,0.044020178978985476,1.387571814086754,0.5397761101087258,-4.115047618319669,1.8191923230004787,-0.34579685213819467,2.5549339848338746,-4.058078457903835
-0.07694510889657336,1.3146728323898909,2.7963393022446383,-4.238755495081695,-2.068724092078482,-1.8723898041142553,-1.280638799780517,1.8730165122012106,-5.849782649553677
-0.5801631304320284,0.6546837633905054,1.5148151303866402,-2.4227724210056945,-2.7339915851822743,-0.09066438822109102,-1.064646120750852,2.9108186358226535,-5.969850361693271
3.2975767509688234,1.8377116828172735,2.4202671793245,-4.33478404752787,-2.5942575790456037,-0.17534075367422686,-0.7326577815233967,0.5859156163099187,-1.3115869860181724
-0.7029554347199078,4.223245256813369,3.370067424394021,-11.327252834354272,2.8700265995164376,-6.190961763501211,-1.6103064809038266,0.9614587178197596,-3.359776975612934
-0.8146130395613689,-0.10214097854936077,0.4745401932824731,0.8538983839968506,-0.2425348024949907,-0.22808663603231213,0.5533693757955445,0.827966092883622,-0.32485611601505626
-0.5365526081672356,-0.71256998961045,-0.8110765931659218,2.0221316410835315,-1.92621589514492,2.1949261625548964,1.0438384058100383,2.5408271259348765,-2.87874497288397
1.6032887370955873,1.3162736355578089,0.49770407322030574,-4.3257714414015185,-2.2054455948305165,-2.384587575550143,0.1192248361279584,1.4838346152480604,-3.0246815733341115
0.3943027374679937,1.368584389714106,1.8480227436491772,-3.556449336379081,-2.063862737916062,0.07022724766319555,0.06949186353424185,-1.2211182939606564,-1.235714675556789
1.9911810238909755,3.5857437108614945,2.5106482203152902,-11.215104485927261,1.5414256685977341,-4.888264032006614,-2.699458237660995,-2.059365633105001,1.4338943411361555
-0.9782163562676812,0.3527956561617434,1.4341057504121033,-1.8069579765041017,0.8266699922573132,1.0431469138012623,-0.33896972695117256,0.3233529588810172,2.1488110405900476
0.6700925133526796,1.2927426733013119,1.9150481058590332,-3.4357694411712325,0.8545398170011201,-4.197862321864721,-1.6317457274170897,-2.7750859779239145,-0.04958740735478986
2.1820148714029717,1.2627650071874503,1.4861289035999792,-2.7450128563419165,-1.3590799403721974,-1.358701027384547,-0.04964374405243904,0.9119994851715693,-3.2669045511993406
2.0535441778140875,-1.1798836875870453,-0.660953640394832,2.105673166833449,-0.8591892481984292,3.3985037086356336,0.9038884451783448,-1.6526606226489138,1.7822692414796886
1.859153694623099,-0.3505294017462774,2.0906190680893313,-0.0623036247622362,-1.6306673145340138,-1.9709641771656357,-0.6015238726508332,2.8796560535063693,-3.2704797616435344
3.26178793635502,1.7251398337904729,2.8226097565345913,-5.679063293791333,-5.446225713795513,-3.222333798786161,-1.7373325364991181,2.1127386174475244,-4.403259779673294
1.5012181782801401,2.759937232054454,2.879737816199211,-8.83385707899656,-1.9385886758396216,-5.303263415047744,-1.4523280517726056,2.743496411533502,1.3144647517161143
1.4267808059636313,0.2936787823081796,1.1294136985800685,-1.3605510404118615,-5.028922803589218,-0.8943016705534906,-0.05044470038685041,3.272358592881618,-5.740018165742927
3.4156825514356823,-1.682072270808836,-0.8361982257513323,5.013611119348369,-4.871225813372689,1.278029622091994,0.5010504596500822,4.298326744497113,-3.4687364896126316
1.63024196061385,0.023223702228393102,0.43144152964645777,0.8025189684777821,-1.3831838749928096,-1.284071331227775,1.7170543637386253,-1.6737097045865763,0.3745980002442012
1.3760931256732558,-1.1005465591420276,-0.5368464683445489,1.9014176406981924,0.026972129042282855,0.943423404222569,0.9944625076491849,-1.9487382216425682,-1.5647336899744801
3.280020689787638,0.3757512163604331,0.19134448510008095,-0.3479305622724761,-3.3657680341730187,0.8175625209103767,0.9242722748812133,2.3711796785702384,-8.713220541071822
-0.06317662085707532,0.5983083234186162,0.1282567875556453,-1.917383828491042,-0.9895849613076215,0.5650661030366492,0.32972082791277973,1.090974290608915,0.29823586098840127
2.0186426008084495,0.8137452926660051,-0.8702809503565637,-1.4686542068350001,0.7037916205135204,0.3295446610803918,-0.5575334215014157,1.1303220881861962,-0.1885109402844007
2.7085868215558415,2.494635859884657,1.3745281513483922,-8.033974470620773,-5.044407958102558,-2.2087316141818514,-0.46742913219378907,3.1618250843210824,-7.727922239690828
2.8556242870977346,-0.43599701329687846,1.2883850821552456,0.2641407193079108,-3.807563118274029,-0.2117398524558825,0.1789879262868443,0.8760366129703706,-1.217293016719922
2.2189272431187983,2.3234482476947207,2.3628580814030187,-5.825001338526259,-0.3263091650028591,-1.247577250332721,-1.2342162350392683,-0.24404433791706548,0.7271984938766318
-0.08437313024384197,2.3842954837484402,2.453198523412619,-6.394379830169827,0.4173299409360791,-3.368030945795712,-1.2997241097594978,2.205193204505838,-2.664713025894174
0.5574335584458436,0.9004239782616649,-0.524130168683526,-2.75999241529241,-2.127981561749709,-0.7630728462919696,-0.3522364256649937,3.1844093452959332,-2.787548182968363
0.17547692783366253,-1.277990954093429,-0.37921023445637514,2.510752744760085,-1.1889865267397888,1.5089813544903077,-0.17498046375644247,-1.7281015811063312,3.78612059771839
1.6355337384057398,0.5981220896572782,1.1211275161364638,-1.0484866586241666,-3.3479317777941917,0.3386293126014831,-0.8448874491030545,1.2068064263430476,-9.782185680196621
0.6868280861562244,0.8618852576327847,1.3396039020241854,-2.432573619596878,-0.14631187988206948,-1.5248530760949812,-0.4966683524316905,-0.023469135900201867,-0.07500610488961174
1.1963577124676257,2.2831208227468918,2.9407479723543712,-8.5035815898797,-0.4101381147386054,-4.488646955815588,-2.4780720106423213,2.1660726061191493,0.6005974351145561
-0.8668769433292645,-0.038756568328938354,1.7189020955178838,0.6492191254815995,2.553971099391589,1.4445141918245492,-0.4181478665622549,-2.4501751200529833,-0.23094580016202765
-0.45060514968310406,1.756494781736623,2.3348277754166333,-4.733551708892284,1.8406401354841,-1.9524371198897685,-0.7448571166776191,1.7831389935862156,-3.606333875419831
0.0919930457994742,-0.011727058526304271,-0.5509699597466824,0.16250243219217742,1.3344507497525617,1.9502304029853108,0.9287834948200928,-0.15106238615836404,-0.419680865716307
-0.6017650938263144,3.6848587614843145,2.6374003875821166,-11.213309824239127,2.055245935841103,-5.206903101138118,-2.93174166584168,-0.45781122275472597,-1.7043187814665626
-0.1386499407304368,0.12838065810673577,-0.7965146444889025,-0.5138641091876914,-0.3077271758686799,0.1566791077011236,-1.2656581471300752,2.1750389363315934,-5.6513938202512435
1.6207458895177433,2.1796996716354258,2.571819660721927,-5.933892583664634,-3.3105957276798974,-4.56298377726471,-0.6289375370699424,2.8127604388148906,-2.568081566314289
2.422032613712485,-0.6278703208502993,1.033400049188931,2.3959312164352364,-4.062950508862825,-0.666780920447313,-0.02693698658158798,0.6491451339297041,0.7456492632040262
0.5135584380169125,1.3278504971493708,2.3053379590703686,-3.487821678011166,-4.032443783063533,-1.4027239406199943,-1.8477089683496961,2.1721389110347653,-5.723737377117406
0.19727251839070092,1.6070745758464633,2.995163694313911,-5.799623516112413,-1.0322978354045307,-3.902611962638102,-1.6705561189092553,0.45886325982328446,-0.18165772940844574
3.41298333365879,1.5922859248250236,2.289229305440324,-4.41374969648979,-2.5717054709265983,-4.942099155746948,-2.206459106293336,-1.8232406732071964,-0.7784592839798175
2.7891831359796866,1.8107416148267013,1.3822926131433948,-4.594691829735006,-2.615343842717727,-1.9483538088130936,-1.2788886925306058,2.6444073214632047,-3.277688463052395
1.2685864374082105,1.7817893977045594,-0.167254893158983,-4.836536766222625,-3.5945347827395993,-0.08701308238321392,0.42553004607585726,2.8587099764304282,-3.666458051318901
3.1662943141455173,0.8085184134181331,0.37272916187769334,-2.6757543190773188,-6.553045493584246,-0.8024508372088293,0.21324404204504624,2.7952221036150444,-6.284112376495996
2.295449696268434,0.5101068327125482,-0.036564544363622775,-1.1523429547018047,-1.7865667255054025,0.09646297823501582,0.13232545379743282,-0.014295516086873017,-0.7262953653934076
1.1200209378705215,-0.015257571118534142,1.0479610660058243,-0.2964568574596492,-0.6694105609901908,-0.8037148142390838,-1.0421576842140794,1.7437448754831975,-3.1538648424689657
1.2218647606558095,2.0703714249058054,1.657125295773323,-5.41389915080403,0.3473384097984731,-1.3230335858165405,-1.335116431775801,1.7954811753690452,-4.40468172907838
0.938575132619575,1.5002767576097593,2.672497837378847,-4.77438640716208,-0.8278655887458326,-1.7356834592341126,-1.5067773563846723,3.458602363347414,-7.407047082143579
2.6547508244433593,1.657108412447221,3.1318047966407976,-4.815668601221968,-2.893111939393761,-4.3073317310802235,-1.086057692845675,2.267695073357325,-1.8797804331646057
2.830438566089286,1.400331297245705,2.965599139454921,-5.196777654757598,-2.7594486609750044,-3.7270356947147585,-2.416486508697406,0.4509178883250654,-2.425482985481071
1.3005617881829523,1.6503626425160296,0.9672332980101994,-5.91707883989205,-0.9769500946658516,-1.8353466109246308,-1.1575083488936986,1.841592103736152,3.8762484246342623
-0.8921408949828405,3.002979242301123,3.3024109418342666,-9.188158400685081,-0.902422626620786,-3.791847096535454,-1.3390720998253043,2.4379019516811518,-4.532190584273185
2.5065029289180565,3.6156724017755475,2.9902930941795236,-11.707113327060016,-1.92928936929508,-2.968671267417013,-1.5393832213677061,0.7224006481905444,1.0569655285899051
0.012264300591140698,-0.5263958010578977,-0.9879207715338233,0.9461879380517303,0.8267510132988685,-0.855142701957256,0.3389636365221846,-3.0350745987394188,-0.39921357467642715
1.682117054243483,1.8862168951418599,3.33666706480974,-4.811371776774015,-3.0292882102942533,-3.9364937749422135,-1.6051330364104797,1.2233526740454426,3.193309850316429
1.931237607573908,-0.4162031630819496,0.9454953865725322,1.493908542742374,-2.816829446101819,-1.8894712483970482,-0.4034215826133334,1.4787066775384925,-5.165655784325889
-0.9751919764346507,0.48864013288497127,0.8367045790030179,-0.16960774533636502,3.7293988189937375,-0.4466558672976916,-1.2439052542453122,0.002124170137159931,2.8850020597064776
0.22326307074467944,1.372243147903907,2.063297965050012,-4.057112082385232,-0.5757615775107838,-3.579636236247412,-1.3444996135939808,2.568619195903971,-3.394929571235141
2.436405877071923,2.5196898225472086,2.0748756543975544,-8.053718475554117,-1.304864212329673,-2.0599435956515766,-0.7226876025457621,-1.1341267655408356,2.722989616464691
-0.556417232596085,0.41032599750505344,0.7397614762982547,0.43835598880613325,-4.975291526790919,0.8657173184067763,-0.5058345206152701,2.5908994100591696,-7.9259011953020675
0.9466835796804631,3.1764751891972236,2.7365248831057074,-8.455369934696112,-1.1965865717301896,-2.9872877433582308,-1.9031921997604875,1.5865557268005386,-2.1961129112278472
0.09487528597261963,3.716026490600334,1.950670768910944,-10.148075954361955,-2.468324916072787,-4.403162415276221,-1.609358678265808,3.158637726300224,-7.086384303592993
2.2196286165738766,-0.494790143044538,0.4003076320865746,2.209712910661913,-4.356959103368151,-0.5541605400215652,0.331170405285573,0.14971309539020183,0.4965162747802394
2.202349864127432,-0.5930319762186235,-0.6702327146508014,0.22566507624366924,-3.4307194760366726,3.151721712044176,0.9814548321510088,2.4540576173965363,-3.9442313493478283
2.2936630236536004,2.5366608061548264,3.2920440635303034,-7.8123294458837576,-3.2420568918977253,-4.962955074271769,-1.3567312820077422,0.10323929717470193,-0.8009265532287593
1.1680326867456556,-0.5126883692735482,-0.2708046395298995,0.28095108992518486,0.7642466534832238,0.12991760689385978,-0.4641858223472697,-0.017183559700738316,-5.381054146681148
2.6236318761221424,2.5997537065185328,2.752299012405857,-7.403484933203871,-4.028498756289606,-2.7445580625794843,-2.558789949118076,1.372654260413986,-1.5728461089759782
2.539447596337499,-0.41236017161349614,-0.6539223003347782,2.486393875108139,-2.3208751616786727,2.0616437341224367,0.6386609768715884,1.1205218047495982,-1.8926054521589915
3.0988484788860102,-0.4529620495289466,-0.47984117563351447,1.3505122263723943,-4.136263908971169,-1.0922049115183567,-0.8338336003435792,2.6428538631022978,-3.3964365555269613
0.5843197060371499,-1.2105831433309646,1.9810185959366624,3.5344814703167255,1.037297218791984,-1.3136114102331495,-0.7966416596872642,-0.9928904636096507,-1.4244753368815244
0.4037846442303401,0.9170967165753849,-0.6821596741484524,-1.7727635749476394,2.034099413658093,0.6565830722015984,-0.7273227651365476,-2.5465825523931698,1.6539341424021918
2.3282358312579046,-0.7265422263105105,1.0874048702569485,2.165138406833552,-6.969067255762677,-0.7027236358764827,0.29176442477472847,1.4755709940017305,-1.4383248102075146
1.3784936264952874,0.24701155277811462,3.087564158298198,-0.5167926355370029,-2.0727863724506332,-0.8046977834155637,-0.9164783477348316,-0.1593232251930473,-2.969378249955686
2.634625173920171,2.7632575494860174,3.11798312103051,-8.336305657614492,-0.3456828858031019,-2.1729965519259498,-2.84668182775352,0.47962313234459397,-5.3380897424130165
-0.5925427150831342,0.34729825358157274,-0.919630178052563,-0.4851024952830439,1.3768114105838012,-0.22096610967099856,0.3154117282243882,1.4364981346868992,-1.667843101642322
-0.3533781944268828,-0.36137733265394273,-0.05880794711500548,0.6841819427322388,-3.152398193344802,-1.2566023378726596,-0.1253917326908842,3.2548618404624676,-2.8952576609503224
0.25735475114956996,2.7395515916718236,2.9755026093378896,-7.6907632375245445,-0.9213330880806555,-3.70330017888448,-2.7893493704596657,3.0415463068711253,-7.294967591164248
-0.8259841793513232,1.94889958878647,3.1886149737965495,-6.167924263998818,0.8554126039217653,-2.5234390670221307,-1.6248418418063535,4.149158898279517,-3.705922669296068
0.21661158893597565,-0.4108536751237394,-0.4911487581576143,0.6409554316452051,-0.6574970855335716,0.33490177832510737,-0.22615203833949793,-0.07588211735561667,-2.4031715026960057
3.413570544698538,3.866354091066335,3.013836819049291,-12.805496018654539,-3.7722540057946166,-5.39286179378186,-1.6284929361091582,0.9543866186070366,-4.444190046211209
0.17148799170064,0.015204635116861981,2.9088806017171787,0.867898325154499,-3.6107684292349713,-1.4712179019757745,-1.1181212821310196,4.445672295023113,-9.526338773954448
0.95006719054277,1.3527752135301978,3.162840316173324,-5.354741615016763,-3.735190784750304,-2.2820816915709545,-0.43029423591549343,4.131241036916405,-7.799284823017383
0.0631560950638197,0.630041269849101,0.4975707209832727,-2.507954025206254,-3.50068958828067,-1.0253471822670057,-1.691725351456511,2.0141340277337925,-6.751764741881866
-0.5434237425767647,1.7203197594979522,2.7651818665404506,-4.6300416865484495,1.8293901413963702,-4.62782682957071,-1.9659436636850258,1.5523721048254444,-0.15701581030204986
1.9824046564173328,0.060993108929119716,2.448231181994554,-1.4144529884082715,-3.5649614634049094,-1.0436713829127444,-1.8124358425365814,3.477670319622004,-5.776073226316007
1.813248529015024,-0.5340732497200443,-0.41991239744334186,1.0342891328399573,-2.123232000691034,-0.056680518512484124,0.21331330292793158,2.875886985133663,-2.349320542685353
-0.14071447678924598,2.391760045442188,2.599642271387775,-7.552769867538722,-1.4441556880780384,-2.8177284448909896,-1.4367714863334375,3.4107665247999153,-3.7333178184746156
2.34139120018367,-1.2480577086345535,0.19137657222918114,3.0502118209789004,-0.7841704615721122,0.8753203497815991,0.6716329078446933,-1.001581068050494,3.556623431178607
2.359628185343573,3.1704831311903545,3.388934901917545,-8.487261897745437,-2.947381008416266,-3.8333031030285416,-3.096632122308703,2.276379960242574,-2.4629143822917112
1.6487566655629453,0.6119884639394957,0.45295350518209054,-0.6102940178839767,-0.6382903603812284,-0.8336526711920197,0.47574371562769024,-0.3265966934922645,0.8684837052011256
1.8303436852945643,0.7823112111321578,-0.6776573055236501,-1.2939643421932052,-5.438164552905504,1.1488795131035445,0.7304602147765923,0.5012100977328685,-3.6930626249387277
1.1574806093469983,1.0146725350190624,1.5195991989023119,-2.8686695876593142,-5.580508157983356,-2.3393181417530897,-0.6235361589014616,1.0881286969143997,-5.792627222542545
0.6372306795394849,0.18695763928798123,0.9504078743564086,-0.14558858766333013,-0.6874324501220668,-1.6967743064980125,-1.133257710984566,2.1493172567820564,-2.428706759169051
-0.04036841280404879,1.062084640957509,2.00725720385137,-3.3859676209068943,-0.6182480769509471,-2.6178078105218585,-1.8129017656855673,0.8268961873100565,-5.6708722798057245
1.8004865237627747,2.769485004973401,2.9709595947956102,-8.944699985874838,-0.1756366558889959,-2.3625126360590314,-0.2551844256510782,-1.5592216791562543,3.354711365505894
2.1191680957850605,-0.6741311232283382,-0.9592808453538751,0.29177885054108155,-1.4425920313977407,3.479954055911056,0.7459048161425131,0.47819741579336583,-0.6754740975920706
0.11099242765936079,-0.8296859046278304,-0.5432484907132904,2.499496806748639,-2.729459467592286,-1.7409544106886963,-0.16993237202266703,1.8146041408241735,-4.436260379364924
2.602299626539193,1.5817214317433508,0.8655472756352367,-4.444107840921069,-7.474242799536718,-1.2805291409399773,-1.1207142280985072,2.7410191166007474,-7.3528022403921405
2.8775641822329536,2.7175177719873154,1.813225159535846,-8.347416475301495,-3.1038491651810083,-2.743371438272651,-1.3145302456910957,2.2617153122925315,-3.7025293230861753
2.7640513828984776,0.09611620100020529,1.053742212652946,-0.7893495721313624,-3.0622009270972486,-2.1585724140279092,-0.2523080465090219,0.7563547492850239,-2.6726313945851885
2.141026955814634,4.464725333250702,2.8518077927504066,-12.645049043398696,-2.723043404665836,-4.2822436534239365,-2.930597525715374,2.931623567236592,-4.580410564354177
1.5838022497258981,1.066025127547356,-0.3031880289323795,-3.4953345366736146,-3.0337411099743217,0.8047172605715873,0.25016546919258575,-1.7453697772636558,1.2194411701884742
-0.012594590655589877,3.0866853442802666,2.1452620568129106,-8.859152730461883,-0.512596360624713,-4.623584803766853,-2.239459969836149,3.5426245222879675,-3.5791181704679964
1.8340731073717578,2.4955640132227934,2.4268451606979133,-6.933362213402232,2.1035856816275103,-5.067598782162568,-1.4024922697645656,-1.8446289681107049,0.4505308211078747
2.6956082448936267,0.5830435501616664,1.6702911242762268,-2.7305229415359555,-4.106239845633658,-1.1813494212763522,-1.3030610223786168,1.8042959115163977,-1.132040134709389
3.328973378420984,0.49282445787837914,1.7924027567887606,-3.3829434346212914,-4.640139219219052,-3.119872148512507,-1.1022345974325272,2.5646402897129237,-0.5391841215392805
0.43978233621785967,0.8937047683703764,-0.31544322725018703,-2.0000153135993424,-1.871106596644312,-3.601250656314451,-1.6615328199482506,2.3147652794702576,-6.251079906273276
1.8017152276125303,1.4208468146662732,2.544116436884064,-3.9258737920985975,-4.7630158141334755,-1.1775838134122103,0.014523870869568304,1.347758043090878,-0.7865554262948314
2.29076627884846,2.611231676429983,2.8555882063970217,-6.861381460809573,-5.26282820587201,-1.7426508698208751,-1.7460389315801934,1.451608286118283,-1.6552765531240958
-0.44337802371179125,2.2498872750009933,1.7566328937687636,-7.079922241277152,2.8577231373510497,-4.203222326114005,-1.9548239219146721,0.7100417526971652,-1.2285471686588434
3.0148298996933045,2.3791226436004718,2.129537381736366,-4.695780790486792,-5.699211195934895,-3.15371782174417,-1.4184256679697143,3.368729832979197,-5.1296046296048035
1.4559598030113778,0.5392911071558272,2.6039426611438112,-1.0178097374422634,-3.037314932345647,-0.5422177831570187,-1.044328047665758,0.8998089598783925,-3.6994167604429937
2.8503732798598787,0.7132566681523829,2.6665946070385793,-3.7372785249819263,-5.0871825061039875,-3.3864115101097023,-1.1801460641671313,1.4911651830920707,-4.254109841188702
2.374583745786361,3.3581633095717978,2.4227268663012897,-8.540478033620747,0.37604047329945306,-2.7787587451104256,-1.729115322432805,-0.23497913365314996,3.523780339795145
0.6067873324817394,2.5961276785014937,2.4148271614530903,-8.100274027358251,3.496727443946614,-4.595483691448142,-2.593613470893688,-0.0449605407674083,-1.078001822380017
-0.7447174963230065,1.6832886146137516,3.3412714352716106,-5.72703873907902,-1.1583320196740432,-1.8990991286434282,-1.9259492843917079,2.3191202955253925,-4.954719562849848
-0.3873664003707885,-0.25058355772291147,-0.22658894061244417,0.5422267167894944,0.19887343813187247,1.511245225656758,0.4635553855126367,0.7434659902544623,2.193453035356726
-0.5777853023590026,0.7869074234224586,2.0851146514147048,-2.6359283676795866,-0.3142020191976045,-0.34991066730669407,-0.4904357930684094,2.4441474506876277,-3.736360090247138
-0.3238697244014933,1.9029674867202204,2.214415982642339,-4.651169786203847,1.5506066227576476,-1.151049217449449,-1.1893579174069888,0.3087518307408659,-3.2192421785301266
2.265188493355249,-1.0409377847599932,-0.6218410312590541,2.939985094145078,-3.3289533061444825,1.19791324465077,0.42951269900543554,0.24533542679507958,1.03239261589111
2.235884203701539,-0.4309718989707389,-0.9306363050253544,2.087144711255665,-1.92642878903946,2.388931905537325,1.4204426587221262,-0.34525774801675285,5.0942259464570006
2.1880808613321476,3.55097199940132,3.1588995163576152,-10.796446944295417,-0.5251800668582183,-4.817964543360648,-3.0209587874094077,0.6376365405661936,1.6691964070848182
1.0979133929586857,-0.21218391542481577,0.03147839813791298,0.7452124643683071,0.013896934823352969,1.3132623558799619,0.011639480166159257,1.4139726803773844,0.6019957507278626
-0.3955744969659838,0.378522925676364,-0.8845466333152463,-1.0110841499108125,-0.7375130695961832,-0.18867003085278156,0.7959434269232409,1.0848751456080206,-0.6567651860858488
1.3437115070022916,1.580727205434555,2.2345707905394474,-6.561414362990774,-1.0068972987919889,-4.010408370808793,-0.5754825257875812,1.9450309064366362,-4.013862987421749
2.9582170932836176,0.7214472249305774,1.9832664046724244,-1.950464324122455,-2.4012943364362824,-0.8988087636883897,-0.897315549012814,-2.078883717525809,-1.6890507882600196
-0.11485104820910608,-1.461619061434145,-0.14971333437125878,2.274536174484491,-1.8082461439032342,2.12903844641449,0.09696374212526523,-0.2041884643947196,-0.1667070582837256
3.045395934277111,-1.5174238797709838,-0.30693859931193035,4.443050803339045,-1.919058256371033,-0.5529755252769482,1.1841599901904902,-1.3449226819988003,5.4446217227405915
3.3374180582022097,0.3914743022670173,2.196887061192744,-1.9394954425094648,-4.556045644417347,0.7856917496140509,0.397481057687882,0.1764797976615205,-1.164967476486081
1.2644267030360705,2.367705124275337,2.664496619826745,-7.444138291402554,-0.2757207588441879,-3.0966517377857685,-1.5990916943182778,-1.0446764717250399,-2.9646257062844104
1.8028906819151818,2.292309646743198,2.777765118951754,-7.074025250399786,-0.5054843969846501,-3.541374838952647,-2.1676757678634657,1.3549779308621115,-5.7381109025141965
2.3358701751404145,-0.3778975293949077,1.7453308556662042,-0.8008488800125112,-1.9739346552781059,-1.6081810367617768,-0.6424947676598952,3.778926918186258,-6.307589469136187
2.7448412336423997,-0.1754621517455551,0.07335708595340784,1.2020854564522567,-5.275290958646431,-0.5263166423288266,0.17456466840235443,3.5198757569930623,-5.8843096945622415
-0.545635626119924,0.2911914845551467,0.5898996112171431,-1.6846184639194075,-2.0855004821643095,-1.3893417613623726,-1.6420506621583693,0.15096102975889802,-3.0384257681480267
0.562668909457243,-1.5573273852472393,-0.595696455178885,4.391848000845774,-2.4992265510280665,-0.09251468008554165,0.7827658233611744,0.1495491951531211,-5.220884604809245
1.0444845404025047,1.7205019900131675,-0.028686240422965192,-4.115963747102233,-1.5038721812248652,-2.4615369283305943,-0.5650662798584799,2.8642168895319764,-3.4314419785990733
-0.455838788593961,-0.8795278881617373,-0.30736895347719984,1.0179313854085503,0.13985559197468786,0.577934374466433,-0.10417827931593847,1.526335964998626,-2.90092244897028
1.359453875418815,0.18031692444293937,0.55202386695465,-1.3687680548746728,-3.085564996594347,0.5157707230336604,-1.0958096309566665,1.6186953843550718,-6.52441070075958
3.316946106827327,1.196105123474643,2.913046078652128,-3.636570724508682,-5.194295648768739,-3.16495872498528,-1.2739382491174727,3.644617242870842,-4.043904410547785
-0.5868121798977706,0.5344218791750219,0.6133489484990051,-1.0270466309494888,-0.8177356704935437,-0.5764422682128926,-0.694986612260656,1.609057783713307,-0.15602848610902706
1.3394159693285035,-0.48949927883903677,-0.23305728954886207,2.2173215260107204,-4.695556707968135,1.594968984922183,1.0785777408409805,2.6471100867574817,-2.382445893690296
-0.5539811291373107,3.284798823599529,2.451825954218532,-9.1409125415074,-1.3232644309477144,-5.330887247606343,-2.0621605253062234,2.6731086620644704,-4.285561092825452
2.6250411398518936,0.657337788528859,0.4442198822749246,-2.3503633181271444,-7.177002047523155,-1.217657790117285,-1.022645088485932,3.6786280715930744,-7.715182848968107
3.289975699039859,2.955392420187033,3.358830654648525,-6.3733846322988015,-3.9126132973025483,-3.1964560663198194,-1.600860519972375,1.565602414507165,-1.4952385610428676
0.6397594991847944,0.5005729989653566,1.604999330368317,-0.29345190132961063,-4.2974465098297205,-1.7726851505662662,0.1835810414761922,2.714205545439632,-2.7849822806706013
2.976592365697697,1.6489517908619977,2.6655825765246917,-5.50830661476145,-4.693849715370258,-2.0438941676376525,-1.175097454515208,2.412901253373304,-3.7791030296957753
-0.2710491911468411,0.3364472673968923,1.3720030665169762,-0.33269691369166543,-3.9296364403066573,-0.3086414588720971,0.04808607081723509,3.4788982244752464,-8.351241321015152
-0.9741914740384168,0.4258072839008742,2.0674147980034134,-0.27757181141479625,-0.421380372036134,-1.2466107431598539,0.20342102038060814,4.610123549374755,-4.752200603945264
0.4424130620437694,0.24359776913112674,-0.26232177153605685,-0.9248922473583338,-2.271007188755049,-1.71968142726034,0.38591446208865,-0.38849807612249765,0.41563341819875554
-0.5443600466030988,0.8005907472682428,2.930496157331671,-1.504225876168325,0.47696965083076814,-0.9773051176355636,-1.278829262728338,0.028454275045727978,-2.9472099723936194
-0.22556192427805133,0.8899481781362162,1.0027330533673071,-0.08143682470742478,-2.1824927784573953,-0.6136919444581376,0.4407616809914245,2.6777418685589187,-1.8181352137886218
2.549294403287479,1.5022597301682719,1.0305065902043098,-3.4198069627764873,-1.6997244209295792,1.179125692423401,-1.4727554086557062,-0.9388248749117988,-1.5850994183358724
3.2170967689710546,0.3999768973873592,-0.33838885583793776,0.08266039472617376,-3.2085995230564643,-0.6291356797914991,0.39299183747171834,1.5586644113855352,-3.11947422164806
0.3007190472826162,0.44832241838988557,1.4325303259883202,-2.467176559618644,-3.2240315654926763,-0.7503548884681035,-0.3061594555972211,0.6728826872783448,-4.770594728095344
1.4843504086795956,1.6384576038305332,3.131551614097491,-4.535165525537908,-0.7777155134628936,-0.7744189893341162,-1.846369308510784,-0.6302557534444009,-0.5595555592055019
0.5209805541409043,-1.9543773504751494,-0.7328994451530785,4.5578039166736355,-2.8163853291225127,3.1135962622961486,0.3716822572730957,2.895672988255912,-5.403633743832366
0.27030539647762897,0.3456657372860518,1.5758667637662804,-2.0336473469544214,-4.310105214745605,-3.32941841459441,0.12260682395871864,2.45661869816829,-1.5558986013983456
3.251179775650183,-0.01148026919854178,1.8643959820158984,-0.8038561779935016,-6.601183448519145,-0.885236400073705,-0.23557811887959096,2.877385268816213,-3.154697808204537
0.928726178115513,-0.47379725538846973,-0.2588374827350799,1.1860831318594836,-1.6539672922671849,-0.3200497722515037,0.30572501577614836,1.444635639723997,-3.0959648814369776
1.6167371116135958,2.3571558559797423,2.5982779512913647,-7.21827408570751,-0.34413024050244245,-3.518397304759477,-2.3221203795662197,-0.7875881327931662,3.228545577174463
-0.7297368165237965,1.6867265376975538,0.6873358805072209,-5.380495296953224,-2.491884219044605,-0.8033708882835444,-0.7361060572438064,0.40152542408201963,-6.067490601564568
-0.8465316098065879,0.56363416927212,2.079949006784513,-2.3819327382214834,-2.2356233065649973,-0.6810557994428103,0.11329966122965182,-1.1022203916941264,-6.985112225403683
0.437283821891562,2.596868253833585,2.773216206794722,-7.913215382928538,-0.545562678531333,-3.7986610334170714,-2.257431133979918,0.566321638934074,-3.1909847990174294
0.37169757835184947,1.0562175198551182,-0.0534444352153276,-2.989479204473319,-1.0758758685742158,-0.4888815665790271,-0.11200445889012677,2.580762396939348,0.431479636599307
-0.3901099071102494,-0.5670748512506874,0.5250823145553043,2.5713872674457736,2.2543883635696895,-0.5435904576413584,0.86948077277939,1.0789096202593824,-2.108594966503459
1.0888043428872214,1.3302277839621455,-0.07409834005400573,-3.7686964140302313,-5.129407683566121,-0.33940485623721006,-0.20987599212543984,2.7966589868151392,-6.265880223401853
1.9555266134386748,3.06720950417812,1.7259961598040823,-9.24594670557891,1.4061593227701485,-1.9200926391686834,-1.0040688897987178,0.7953246283819893,0.23688530169867877
2.996862024443406,0.9236717663728548,0.49211529836032875,-2.4977559873457746,-2.896628576596623,-1.3107713902748264,-0.2779502176556547,2.1426124403692315,-2.7047680366415374
2.290223156416523,2.0320213640871883,1.6853705554450427,-6.422094354714156,-2.14159553119282,-0.8599241740869981,-0.5601303312223936,-0.865194344845341,-2.5331802945082416
-0.05344363517225437,0.26167883985100054,-0.36566616695560394,-1.3836202907755097,-0.36766677892693556,-0.9512308454487316,-0.3397135532931215,-2.036180129634625,0.38710790312218524
-0.15234266526031726,1.2991065809997167,2.0604966817563204,-3.2485379710768827,1.3178244771529575,-2.9150526316087166,-0.8090671001692619,0.8450397768007198,-0.43066776992905803
2.397414187079785,0.703558056082202,-0.16811848085739056,-1.9534219308819538,-3.5113170223524417,-2.089464573870467,-0.38063765189818,2.3814995567344286,-5.062493877016469
2.773349868868479,1.0665722194767413,0.6235661835368425,-3.130887419939949,-0.8817876712011073,-2.9327424798941593,-1.4342705493875954,1.4938282841956723,-3.840103297004249
1.033206101994944,0.007081717680005074,0.06983570216030865,0.851456503261187,-4.577982936228909,0.8596424056852591,0.6576403834696418,1.8356561270155036,-5.130405194121508
2.4113956803653633,2.6474531946161886,3.2366210112467266,-8.881481151735418,1.0639006721862734,-1.3181670685135671,-1.6762688693607035,0.4398180227946652,-2.1522449140164324
2.496257839293844,2.4993674499866505,1.921139947201992,-6.917528073375974,-4.187131332982631,-3.5989521830246964,-1.0117051428677317,-0.4764377242897688,-3.0263268271591537
-0.16732012937158391,-0.3068736191286839,2.2644050433547553,0.40738397980110574,0.37936724844947,0.2611527843482275,-0.040896898189903164,-0.005129407268790409,1.1905484626249756
1.4027674331650712,0.6756758056630506,1.6777751690037919,-3.7292271364172853,-0.01759508962304719,-1.417418759367194,-1.2004130344802366,1.8531488564827694,-2.606747189883813
0.1820489858469314,1.4273586665861815,1.3931450607475906,-4.269328883494336,-2.4162933260639754,-3.460655668864364,-1.2055257567065583,2.551205541523655,-7.88450068969518
3.4001446100365023,1.9584042906304773,1.9011631318740285,-5.658263993308677,-3.837405651787914,-2.67067869906352,-0.9201978301075812,4.31943344646008,1.2229602637720713
3.236691706881542,-0.0977323556906612,0.8895767362619396,-0.2868452546790677,-3.541501247781011,1.5292722086077277,0.47410936173838053,2.4575307754586735,-1.982652518075325
-0.03363682533090506,0.2196286937291696,0.810188429970333,-0.6946998430149504,-1.7375196644639512,0.09285775546196118,0.039361340260696896,0.5005994875990116,-8.544405919484284
0.5885679209853751,1.937729422078478,3.3898695556885485,-5.756381659235545,-1.1761464761823734,-3.6869397801724544,-1.7023489727369667,1.736150910460492,-3.152714511987391
-0.21480422593063442,0.3941614213764168,-0.16932309602265416,0.5346884054918875,1.2258616972270393,-0.05397506876532465,-1.127937102255726,-1.0993684403927495,0.020062024086898986
1.3115304838448156,0.045152406839776414,-0.13712662651952912,0.4721900159761621,-2.1607071289869935,1.155067719779753,0.6848982900476576,1.8848783596698468,-2.7809661855857413
1.5404573719712533,-0.17423883304415427,1.071613121442259,1.3466606577981814,-1.7788904069575358,2.006143713874301,0.405955813310565,3.373831947359087,-2.869728606401557
-0.5123826700977091,1.7618349907158433,-0.11710827421169578,-4.8009715520349,1.9999062478760163,-1.1929605531914511,0.07769022722639997,-0.5926553009179087,-2.1983432981796502
-0.4009279392211319,-0.23960553814404628,1.942579614037545,0.6652169927606196,-0.7433200519149339,0.4875412126587928,-0.32857700245577043,2.6940386747016905,-7.9844589190486195
-0.501039069712536,1.3289478261550907,2.0538049940417658,-3.403540158379597,-1.387605717830522,-0.6082623266192385,0.48971012339578024,3.508961598664699,-1.796753131573948
0.7918741162920759,-0.7537120522164669,-0.2981946449034566,3.4577055676654767,-2.897794167060792,4.223639924831696,0.8157275079192657,-0.8435712759142482,-3.856561084213064
-0.9929122167209775,0.5115590989290858,2.515495253386562,-2.865265401645369,0.15154845459158417,-2.1338666947617364,-1.5280534604404203,-0.4734621800070208,-0.04779471586472566
-0.46623820918527525,1.6207983390055614,3.316191926978526,-5.751585099927761,0.5841120958194955,-4.289850846935463,-2.3951784094659545,-1.326974630878365,-1.4060889000259404
1.871666427901348,0.23147159610242776,0.14883483560653454,-0.784100987782035,-5.942853554419311,1.281167316638371,0.44993154025204857,1.6577313755714282,-4.370686033756978
-0.1237487824969048,0.7809412374044913,0.39801753768696324,-2.5528414068357748,0.9516028767475014,-0.1505928049686689,-0.23217030473336428,1.3347839274599933,-0.6822002061707175
2.4873572415242395,1.537512384100897,2.6954336560117755,-5.43691057480857,-3.737944731858062,-2.534531840715516,-1.1649684771523647,1.8118608263241658,-4.6659783925272995
0.22100446954277908,0.06619555621956458,1.7166859675502404,-0.920621907904891,1.1223616623337571,-2.4206753487718293,-0.5909453858922019,0.536857041357886,-0.3847604916080692
3.2411753442109754,-0.9562141319056436,1.3476097758271557,1.9497040810429775,-2.041600159796613,-0.36199219942147465,-1.4526719234379197,0.7448616372179051,-1.6817472132733633
1.8413689692558077,-1.431160106836131,-0.33666515164889355,4.328867327604479,-2.187182587564523,1.0152473948106948,0.33143794520905534,-0.29852176966819505,0.7722557678987205
0.7678601863206749,1.647838929223166,2.3704813480568636,-4.041367457942946,-2.7500872200380595,-3.4678940111176657,-1.1248412288397562,4.725724237667206,-7.45952376719176
-0.48187319391411143,-0.9789565489488193,-0.47697870385246677,3.6454298564160896,-1.6346204600209813,-0.29803663082299336,-0.18095055365223428,2.3950877227427316,-5.207324689212363
1.3738020666156894,1.137809468856071,2.514930946413767,-3.353706542878511,-2.683146897728006,-0.9682621082617422,-1.21054669269205,1.0074228659755822,-5.621471846057112
0.7383554641391035,-1.4034360848234178,-0.1276715691341469,6.3667966794526,0.10320222894992331,2.3714558993475228,0.20986909849270205,0.07720959095899471,3.1487357205907336
0.9887242132198466,0.23499929044819293,1.2878211603765806,-1.4552120671315771,-0.1448559033422064,0.19637982436300416,-0.9447133596538027,0.19373989377085993,-2.1024816349988282
-0.5245583083954832,-0.2808938223304033,-0.6041833701412227,0.5403424210255685,-4.589526466314268,1.2057352896962927,0.06819823921582453,3.2152841396731535,-2.0609258540538598
0.9485051533338791,3.340238300656739,3.2081245475955207,-9.763959194053525,-0.7332563904589018,-1.864493155323779,-1.5999927195315493,-0.5434278550349546,3.1904071754438244
2.8152377823212946,-1.4945301226148284,0.44370249740659506,3.628103624652836,-5.770042094187449,0.2029523539806764,0.0015763001886550567,2.41130485067652,-2.2770660621513077
0.2696169695205861,1.2884081581558182,2.3757519668692506,-4.330650781245102,-0.39669361005242476,-3.0339112903028616,-1.0313982343807901,2.1194001753181073,-4.17714357234194
2.963889287111838,1.984956222982299,1.6420220914308925,-8.27613299955838,-1.613029377941575,-3.7822585215916646,-2.1410468868728643,0.02571286170471543,0.502979011336738
0.8962861127044741,1.010790073586568,0.1153807809185956,-2.1927063646795193,-5.1996054866512305,-0.017342149225434117,0.5730838295914483,2.5795472074206485,-3.88288889300918
3.009002503798702,1.2388802499359697,-0.6698709000686746,-3.8260790017644335,-6.169692720916007,0.4365425077926093,-0.43066800639351094,2.4965619414967306,0.5021753928608098
0.3321157208505645,0.33116055160798863,-0.5908433139681682,-0.014306511942685356,-2.905252026049526,1.8488425705194138,0.46549794186909593,0.5134034270544283,-0.8095852237756078
-0.9130494069149087,1.1771338485065224,0.11406391606510602,-0.7757451104977808,0.24036701474857125,0.7183515981985917,1.2580309541675136,-0.11198270592899706,-3.575433635969175
0.6238747077428368,2.6978254557850216,3.178215320374794,-8.846349324594152,1.2056512251508176,-1.9811338209896951,-0.3727042819619431,-0.0029185115075159307,0.8282301073861513
1.1721022839415198,2.61114752590092,2.6911126815583057,-8.057051365432892,-3.1169772174860597,-3.8897024238970035,-1.4293980370679764,6.002087967771598,-1.8805906526705694
3.2351097677264704,1.9448163168597132,3.004199211414706,-7.2761304485553815,-3.18701867663224,-1.8828540901859396,-1.0892552900986234,2.1182462213698154,-3.541983147271871
-0.8148944136326852,2.5434010876514264,1.2518986971650015,-7.823289631975122,3.5915282610637647,-4.491773735108947,-2.201963364034519,-2.1079283100410877,-1.007746280481597
-0.2613084871174325,-0.6388680238012496,-0.24107924163821448,2.2504219640338077,0.6053250531343259,0.35087408756810967,-0.17099414112519512,0.01967706310763654,-0.7505742327919956
1.1245984805704863,1.2881431095644584,1.769829317732893,-5.198003064571268,0.7564298466265866,-2.4548958788035127,-0.5178354477254433,-0.9388024065662058,-2.0797125741526243
-0.8942838404912874,1.360308729073656,1.5047173652708783,-4.015234700115706,2.7316588481886614,-0.9176919331416072,-0.5686938566018237,-1.1635750863431957,-1.6608224821698316
1.5262485375813473,1.250700969816353,2.551308504908283,-3.7401419573950623,-4.438899774934405,-1.2932065331881162,-0.21332312056607386,4.373780545879715,-7.620136557596019
1.3344363254682796,-0.0691958584913821,-0.8924306901025886,0.751079958896203,-2.707855234277651,-0.052324643406416856,0.5471709603795722,0.028883582902474503,-1.5838181321782332
-0.5784022124325466,-0.08043220754602325,1.556771950459071,-0.3931351714433501,-3.4322990053824585,-1.7230448233546714,-0.7920241094756297,1.7386070565194196,-1.622350912814069
1.2058177497111373,-0.2872324067802453,-0.27859400988748695,0.40315097001057965,-3.7619526705962727,-1.2676906553345635,-0.17695293735309695,4.659320684156636,-8.616228449616415
2.1972044179433112,1.6596883598057794,1.5216875660326412,-5.151413643471391,-2.576785408205555,-2.8604838906366243,-0.6224933207223267,2.248509901112221,-1.5312709511546547
1.3172843375051868,-1.0132330973930845,1.002794126429401,1.3734732864394514,0.5174921959698167,1.866148583682992,1.0598171166183805,-1.651504246847591,2.9221893263426932
1.9327014454891964,0.7930612302744953,2.041863833236274,-2.191380570928166,1.058058545110806,-2.1377223648066903,-0.5941198145168832,-0.6569867926063344,1.108605672850132
3.0537765360105142,0.8877836112667428,1.7603533847367374,-3.4504770351358705,-4.977796055439276,-2.5428660061972073,-0.7116192609673482,2.6451145295757446,-3.023929895111904
-0.5872760855339103,-2.8741435297786335,-0.7730436785012277,7.7224212307297595,-0.14667763185935212,0.9075687341102707,1.4070334398263045,1.682044749836277,-3.4938335068429285
2.7548066847990906,2.545979803725881,2.1322674744418957,-6.8904105891928085,-3.6341661241566996,-2.779668519256169,-2.2000473733023003,1.0403343477142655,-5.723629516767658
-0.7690005473159034,-0.460827728374181,0.2544263968665983,-0.4098953568996937,2.0116813721504543,-2.5655470479595497,-1.6768425150862838,2.744046253306207,-0.913314288450133
2.591889075691237,1.453429048564317,1.518941004472591,-3.8886041327243963,-2.7441256093078144,-4.226637741670308,-1.8177728939698832,0.3726464620166916,-2.6893820045152363
0.7267111971928837,3.1775287835799686,3.4032437895694807,-9.557100138598067,-3.9105837553655527,-2.5365620019936532,-1.7777627733072157,1.5215937700405673,-3.7683671150207316
-0.39377436567496094,0.6578615310522421,2.225064069943216,-2.4320924281015617,0.8462529633162446,-2.8729460529928725,-0.9455302050282697,-0.8899259228368909,1.1449150889263287
2.782254720765433,-0.5705739093306419,-0.7257902447276611,3.0198223965354996,-4.599910811723602,-0.591866532029097,0.4324919617981999,1.0757448844829818,-2.2591765849429484
1.4630908730850618,1.9649563617404295,1.843185687065516,-5.025856578708585,-3.855819919823255,-3.947146972161483,-1.247334267097624,2.682688402356245,-7.548192061349491
2.3631729036754625,1.5767811788681152,2.107129679468691,-5.782066851900778,-0.6625957023281277,-0.5022455779072383,-0.7622006945030215,-0.2905315376488061,4.310967543152087
2.780099449161932,0.18804529781474913,-0.2662203821545919,-1.0945231668139965,-0.6663245453155953,-0.24820251637056678,-0.18037769686340202,1.9534853219913286,-3.1671338480467064
1.4281426798238965,0.45916242540144037,2.6558564644126337,-2.400035005402754,-2.1116823746201385,-4.086054112650805,-1.7872734417988028,0.2752003341460927,-4.308020951384223
0.3546012232671025,1.724410908301172,1.3718183709231049,-4.977484439020377,-2.9512221507725185,-3.2170042725881975,-2.392855848314571,2.4999132304742138,-5.784121479594011
1.7383802404890139,4.005819583916122,2.793893258727891,-12.86082598490312,-3.307396165626744,-5.055028358384918,-2.2655624034786572,2.9860094831207817,-5.694012258212148
2.065676108197796,2.5452711008839692,1.7330472382841706,-6.994338258907861,-4.3069818452441995,-3.0477480609540044,-1.275968414110404,3.510958369499428,-3.9636761097805313
2.1332338984445807,2.111922390178238,3.14849455444275,-5.740661619905415,-5.189853887577952,-4.192969608997044,-1.9240165723070692,3.475486352849771,-5.520142608245163
-0.9847805536946613,-1.3707440501042156,0.17875837696234465,2.5202295494329623,-1.2825825535353435,-0.9121858954120539,0.7458055738870205,3.7379899139869104,-2.955536879123739
2.225265751876227,1.2934395475052867,3.0476139312611714,-4.211052672266099,-0.21916339119593498,-1.9875486343450361,-1.3248921798976088,1.0706746019833897,-0.41164357857299116
2.9236065183496684,-0.33256826453722943,0.6519707591274342,0.7795066479366483,-5.440831873242999,1.2114164516282027,-0.15453835254612747,4.2936736150470125,-6.004974618959786
1.5085649016384095,-0.16931444766469,0.8589462910910659,0.6799915587747554,-4.819845363517751,0.5674694454215617,-0.6605011428119741,1.843220532610263,-2.940354666702793
2.1475730922273275,-0.08979289692750947,1.062041323174522,0.28459222242344157,-2.836422822535484,0.6922477637799612,0.4483252021906817,2.3621881148427377,-0.24514636008853113
1.2962357738793089,0.6421373153816694,-0.7965147878702322,0.6679518222173221,-2.068173891543682,1.4607999962094993,-0.5986412843548308,0.7796038561047987,-0.1874531708757224
0.4887690981280497,0.7048293707505631,0.8153459472101436,-2.4987141559356907,-1.9931082018767867,-2.365200428897984,-2.5320329989831554,3.8365879009661867,-5.788800013981975
-0.02430175422325065,0.5727108356752101,0.40406663574964563,-1.7685733266205945,0.6970675235178709,-0.8987864195385405,0.11914127418453048,-0.4379063000211698,-0.4258408991799589
3.379401318623543,2.6763248330413383,2.3000429650266914,-6.850276341073371,-0.9785070099390958,-4.490624477921628,-1.130644867392607,0.2846504809419984,-0.19000289785706273
0.999406320587418,1.830956119504952,0.24324632536281765,-5.509940128960061,-3.504148292530222,-2.2393386290700548,-1.8002276531156314,2.538859237188645,-4.909095653384355
0.9600955769024846,1.6967281317188982,1.7609448545166173,-7.6525365241250745,1.364340120830013,-3.8161156714800226,-0.8784465830143141,1.0812618193927523,-3.7038489318177756
0.8373282848011863,-0.798021904978853,0.17507010073770557,2.22680536300513,-4.255024938401494,-0.7150447751242858,0.2787084205098212,0.39935859172322763,-4.277110539667205
1.9559907835796362,2.6280933449452015,2.9432702642628903,-7.506077633807192,-2.0967319803644173,-2.616966769021662,-0.49784938336167944,0.6661404059503564,-2.884492610456878
1.8582754364918,2.7748720332764427,2.999547919601671,-8.28046487279449,-0.19453704939270075,-3.4853685308118685,-2.0819622085766585,-2.84062508741234,3.0703406214500784
1.2964282154917122,1.8958208235881664,3.2402782217747985,-7.114432211448648,-1.3231646448259966,-2.2482915066463,-1.5162026439695782,1.5666505560841302,-8.73293365276184
0.23834920765236745,1.5872885790288813,0.5270717127405271,-5.207357130601484,-0.5689640075240758,-4.079593305787914,-1.207236027656995,-1.3507549730301345,-1.6492515658182578
3.022231178623687,0.5363640801811097,2.01667044127709,-2.0953924216892132,-0.2793295385371209,-2.277581087420787,-1.6969840157867475,1.2348559883209949,-1.5324937068728526
1.8414289740606522,2.45504498539501,2.974389625018552,-8.683868592442566,-1.4289197857377445,-3.489211845599185,-2.3552367192390773,0.6491089574472327,-2.40798437536516
1.7724558435617253,1.3296130309912324,1.0393850195131131,-4.228543228035844,-3.2796279987876416,-1.562127563765921,-1.4881022675786684,0.5092829658693081,-1.3761370526078514
0.28046510173074823,0.37765866545020976,-0.08192998245717031,-1.835352394525876,3.143838541518666,-0.7262193724317483,-0.035677178296579654,-1.5941149503875274,1.5848301512689598
1.5746328642089447,3.6169846695675285,1.5933783403436816,-9.378669029334974,-5.037109144542777,-3.2548129266110033,-1.889617464587148,4.170726441840541,-5.675235953619503
0.909650578202547,2.278226710552597,3.185104740641747,-6.83384678203069,2.3338268470842825,-4.619298467965545,-1.7253361273139363,-1.605093606073471,7.874856567290997
2.8026596527752647,-0.2793035707453197,-0.2818247006484276,1.2261914399465637,-5.366968969400851,0.14999532666279047,0.44847537119370906,0.45975881051776,-1.7651170074956997
1.3407824752820368,1.8972797861075985,3.0452385979457173,-6.218313651956273,-2.9079167707340154,-0.964485978337992,-0.9463469294033338,2.7258531983052663,-5.650009686044471
1.4962739790547355,1.6963732052461866,1.7218472425107891,-5.465720284797471,1.4823378267088994,-1.6664125497098357,-1.6815534866241186,-0.36617286255186177,-0.5378194201826803
-0.955107752158805,-0.5238919477754321,0.403502204278962,-0.07005626668046468,1.9625706096199633,-3.303645619800384,-1.1966444473422164,-0.4058947510389937,-0.4506616462081737
1.1516520881441599,2.028178864704853,2.094419723995124,-5.973445452749106,-0.7208068121930713,-1.5786206011287223,-1.229997833166424,1.6390219861971993,0.2638755320114739
3.1468489892886176,-0.35297003087597584,2.6692772688365642,-0.6019886648744962,-4.536009457729987,0.24066088006941172,-0.9863441762228361,1.9600472203480004,-5.433293963996613
1.6001377935353513,2.8716945715401136,2.965575681366585,-8.869289154384871,2.2508722208622003,-4.86046132152388,-1.5587582739778918,0.43267543702342415,-1.8397606095448304
3.0589192261954823,2.8403447816681195,3.4292577713152204,-8.799120061400727,-2.200808764979355,-5.3130396072256145,-2.7979022872299053,0.11476178824402078,-2.2126286660872645
3.3967003346110936,0.6258664053762834,0.639569816806278,-3.1422123690463604,-5.966140196479915,-2.68552998467812,-0.5707547171559968,3.745454289409843,-7.782370488936761
2.757279102736354,3.3880275240226423,3.262472896634293,-9.519428915164099,-0.4238988221052107,-3.728412907122923,-2.224825907368575,0.34558467828278894,-1.3710053694228774
-0.6903129973736465,0.5251116483660803,1.6259494548880604,-0.6999971164008808,0.5261218971431074,-1.6103119809364723,-0.5903442063183111,-2.320055422606421,3.4393138924520072
1.9697718788618115,1.1239785309304529,3.192918359401328,-6.120170186790074,-5.397280285846879,-2.123909339862068,-0.9453941158746103,2.1016778041224615,-3.9575031953176665
0.4381232749153383,1.2731692649387198,1.6827892008554417,-4.152210970009276,0.4674056949724551,-2.5467782009721462,-1.8505962266274596,0.7107831854930292,-2.9767391059786714
1.7043928705107225,0.9421870657288943,0.606988240805888,-3.1734054528824136,-2.966147705128279,0.5940426050603718,0.15149194439594063,0.5638347609114869,3.9053676048414006
2.987884382552476,1.0944897194248728,0.5011704178089809,-3.052676578070592,-0.06184742947730604,-1.396668682132587,-0.010449593931660901,0.7924499877119463,3.9566884827592426
2.701854566775016,-0.0629636494666821,1.967527869074154,-0.042046434345143595,-5.609447940200052,0.33755230591418117,0.7585252847330421,3.3418011465386477,-7.117308655367588
0.3527466171016618,1.4206495866601678,3.1780195740310333,-4.747573549204225,2.9783047881453344,-2.6666794270590652,-1.7837558339193642,-0.04166518913574574,-2.5755108292009856
0.8229366741650521,-1.2039854983965612,-0.7703058754888561,3.161736260173554,-4.691394671266553,0.8236229121832237,1.3089561176832891,2.64892765357709,-3.5638048665352735
2.3498546228081416,-0.1782884429994784,-0.39349255306977704,0.8838702600023163,-3.722939497052411,0.10699365605325334,0.11572459364573363,0.668216326239788,-1.4389604356821828
2.079614380009568,2.708294822705393,3.4073765995987353,-8.119619481943465,-1.6421878279866604,-4.322552662821274,-1.8571074347017593,0.8270038428973906,-0.9355764752617837
2.3861576549671253,5.014495931735461,3.4103262388322193,-13.058707445312232,-2.620753017059489,-5.167329536641483,-2.4019518870478773,3.844470965188718,-3.9716425368242017
0.5589698581650242,0.09782363238461306,0.5674561777089242,-0.034994732523311756,1.3100285080537892,-2.5519938719321287,-0.3016606201334438,-0.8173000609099672,-0.6903952786655394
1.4517003327501992,1.3830946852259707,1.748452276920967,-3.2962760390378625,-4.242900331046652,-2.487926652812758,-0.9280821239844094,3.430732974025992,-3.794257311121003
0.9990802069419955,1.7951850765171298,1.393869261016211,-5.569868938576252,-4.4166834861263835,0.017982435550557674,0.29319479481216165,2.6230060835114584,-4.489453247105698
0.23132346025911277,0.16399061498358491,1.6600358253937255,-1.3463072130212255,-1.5500970815331634,-1.3552225365945112,-0.2910809603021308,0.8563899469592503,-1.7035321622152328
1.7690375374805547,3.4007467997688248,3.318042293096611,-11.40953649127468,1.3994999895297773,-3.5042734589820395,-1.6979762622976318,-0.5691145011512739,0.8033794111436877
1.834025813119585,-0.5469205946345119,-0.8051344806381558,2.8914766600331703,-3.3538343923409095,2.995072078787234,0.2876065887458815,1.967060293943311,-3.730395531486979
0.569481190256262,1.121300594083703,2.5059811519324846,-3.9064153928733765,-5.593275786682614,-2.0513451377939544,-1.457262101857335,3.438684187311834,-6.348033237020881
3.0851326141241797,1.5103350736497283,2.7004211439986663,-4.512233407809824,-3.0151447170131096,-1.247706171724191,0.09425749548222163,-0.9903621018005917,-2.4203520940227006
1.8074202962775563,0.28077706489559856,0.8949048435651006,-1.186242047212291,-2.740917590804499,0.4328198984321485,0.005282770843722708,0.10672840648747273,-3.9337205514399853
0.03850331759066106,1.0645241835191115,1.7774804341720816,-2.7726381167391336,0.4135910341856812,-1.7189802068251003,-0.5147006254342247,1.9132859943554454,-3.056275812183471
2.773399855811431,0.08229850726896998,2.292693588090927,-1.2860306055570787,-6.0415668131241995,0.04111951734603181,-0.576793662475441,4.052475004600124,-5.289275830028866
2.0941431736252354,-0.7785849456642826,-0.9224131312239277,1.479364278813498,-5.5645628533050315,0.16937103232309458,-0.12877638306963235,3.2856149971826354,-4.731996247879609
2.061503614031597,0.3711236186393562,1.318872712427802,-2.055765634332387,-3.385400374874676,-2.3663839178632653,-1.2261501405295987,1.331853868182597,-2.1338557800994122
0.8218975766637373,-0.5733751751931672,-0.8866999542002956,2.900430045794674,-3.7885279074456184,2.664542848736309,1.0018788959926899,2.8609363222246467,-5.842961189211765
2.002318345208617,2.0437611651223757,3.0819452345173746,-5.992036070464596,-0.10144440112602354,-2.9612928714847055,-1.8057102304249564,-1.1794996598785268,0.3713279833365668
-0.4111820273572845,-0.2697886762896459,-0.9568327077160468,0.6507927130824951,1.159041061487016,-0.08661687102972113,0.08442248091686166,-0.49263293591920976,-0.07181531890944798
-0.9076254953242198,-0.40650216411036416,1.0874141492639642,0.19564983717449444,0.40757484876670913,0.2996515371393126,-1.1591680323033007,1.5741793500572774,-0.5212271445329666
2.4224122224415527,0.0035278748149086482,1.7137127535052596,-1.6260149602508203,-4.375342641978053,-1.3998973862729966,-0.26695429413467864,4.011000074938639,-4.134560787326812
2.0761734060166037,-0.5783476336295986,-0.04034352336215363,1.4312805957102068,-1.0633838149857824,1.8824372253131885,0.7052633275745523,0.15653937630478867,-1.288668107980694
0.12186938438977335,0.7250942734817624,2.1263107375012282,-1.873930783220157,1.5429999365118887,-2.867543817704871,-0.5261836947089436,-0.09442953515991392,4.591842676447331
0.8494407987136152,2.101841593022018,2.3915966582901387,-6.750217861697274,-0.6585096362144598,-2.5477194081587817,-0.9353560159308512,2.6891396391477334,-6.142652692462772
-0.6655999296724895,0.35504488743346324,1.3603178539204839,-1.0951719964236173,1.8328533853259101,-0.17829108398859886,-0.05414841061633552,-0.3462473980191787,2.0636830289714387
1.8064147075671166,1.7804661447893262,1.0040865101960348,-5.40669170804793,-3.8064128214940895,-1.0859073481094086,-1.2499693520046886,0.27361530324226907,4.647772631042067
3.1768829340958007,0.30211266222887256,2.2277274597789636,-0.401742770520786,-2.445227046166439,-2.240002324218484,0.00995190301238724,1.8000617121009441,-1.499201418093267
0.26447248462712003,1.65922464531296,2.8775525776100936,-5.437815210319389,-0.6881324320724453,-2.122980348344705,-0.510329175047375,-0.5714530966377283,-0.4623109438064834
2.8024744996949695,0.2158784395786905,-0.09590840740278783,-0.6405071986819011,-4.306552456680566,-0.982643256523255,0.08204453770893876,0.7825574482929518,1.5177748029629115
2.7292708274440876,1.7088265148191342,1.9884409253847801,-4.380981883756411,-0.535083805056495,-1.073461067091193,-0.155184536121095,-0.7393327743806127,1.030423079374188
3.251088965212336,1.6626889581519484,1.5390355568944094,-3.2843819325796217,-2.5380549852644334,-1.1811042514249253,-1.5389208935947936,1.522602356793988,1.5370331311988936
-0.453385480997327,2.7477693065808797,2.8755824272835264,-6.23925371521965,4.264342544020244,-3.7865911674001382,-2.221099333513577,-0.15318715576450392,2.5092788724506425
-0.20383760525757522,1.5661381290935645,3.385711142441205,-4.878733973563991,0.8045851575165693,-5.273265100060188,-2.652224103049512,2.859243278104419,-6.224894839766695
2.8983366128703723,0.4655899526068454,0.33619259556352166,-2.022488734911666,-7.316195235158185,-0.8147015656432788,-0.4050052722400404,1.898131378757066,-5.186410362002833
1.49860972510406,0.22486169324902103,0.175278204067989,-0.07924306482537044,0.21972169376348305,2.604128051287635,0.6998665516035377,-0.7144254588018429,-0.49966646848363155
2.6892665533870295,3.349718957771699,3.0749782955945815,-9.258925728964778,-2.623237831548451,-4.749476517472279,-1.8287116251089013,2.8960132720473255,-4.27156000456461
3.4065529904619387,2.2696668783578238,2.114399064203203,-5.522749672930665,-1.4097689215552223,-2.4212713483986588,-1.544841298648373,-0.1767274143681813,-1.1777753783731564
3.2258526716198546,1.0613601293607304,-0.25639897691997005,-2.6140414409896158,-2.164858725185759,-1.2350352613254165,-1.0013504852829462,-0.9886323585353918,-5.747368004157252
2.277532165092897,1.912259833739703,3.364298908557166,-5.358318995550359,-4.339523193112087,-1.9995912384287213,0.22813895649088012,0.5618947515007782,-2.0311182969667483
-0.7741873130915923,-0.7523467024772399,-0.04085067869572734,1.9815826349772463,2.2344096090865246,-1.2286084436494558,-0.43808486610647634,0.577126480357925,-1.294544370843916
1.733145389728143,-0.6908695281999911,-0.21884952532926127,2.602604724906688,-2.979695060253343,0.33769493835278286,1.432910282932378,3.5870882554099577,-7.43271118233064
2.9202246943952557,1.791925225842537,2.8510881861248776,-5.933981804862471,0.20662378199308784,-3.3288299904361227,-1.4489741332612127,-0.7161402157733794,-0.8201774967715652
-0.7565514769985289,0.2751071140059935,1.2789722558514365,0.14145931878163628,-1.500224699484484,-1.488710765925578,0.8094681376304808,0.5470719419145362,-3.03992408640709
-0.9565041217893056,0.09923933887197173,0.6793725591904554,-0.11296785788168524,-0.8859749469809929,-1.0434946239420104,-0.6232767961852806,1.574252295190631,-1.0852684872319451
-0.4011994695921003,-1.1653908525913026,0.7268439897166505,3.8223827570617845,-0.24268824256217703,-0.482202280067945,-0.19661098786381853,0.6159597337368639,-0.7927590566597404
0.37557943375433256,1.3633291867230812,2.8078901631694837,-2.9599710763609086,-0.6537928519598672,0.01780498904562333,-1.2441292959515404,-0.7763960071542639,1.6108297380647085
0.11675836516235982,-0.7222143216252386,-0.30490396184630597,2.4347591939680697,-0.8144304845083014,-0.5027599278782743,0.18291555795435235,0.7516291749173761,-1.2024076064500864
0.016478199286180217,-0.4953966108481537,1.3250619257676441,0.873700622428728,1.6231256384751034,2.41476224224286,0.6808102583179978,1.5173298504708885,2.390638644243627
2.2947652418292366,1.0814698192902596,1.3983958335461621,-3.5835056103853002,-2.121611743770643,-1.163701083428996,-0.8271867190394646,1.668098466490826,-1.0486607286225411
3.3773389084682135,0.011441624149285155,2.1435395464880993,-1.8045413159747663,-4.64036025971528,-0.14171502999984004,-0.8004997955934468,3.6122853545130273,-4.470518029959589
0.9361325888945125,2.2654878711021587,1.0788563895468664,-6.577897093621191,2.074424390743653,-1.74217441525517,-0.1256849028889331,2.3597146145486256,-0.7376101765709091
2.1148000517009398,1.0389536911072879,1.5376382712061294,-3.565232854750692,-2.758776493911967,-0.357738507357966,-0.9430230919341994,2.4597707008565846,-2.612077563321356
1.1875890984287056,2.4907148308805573,3.0046743177639543,-7.203544612471369,0.4566944166884094,-5.306488433480837,-2.480964430744135,0.2696792874459307,1.5815449674074404
-0.0689056871085495,2.0822227013677006,2.08053620521918,-6.646826285302583,-1.3847311322702585,-0.9030894224154877,-1.061238814173681,1.0980590986674894,2.8592375494776374
0.6161385676188815,-0.1336543428434776,0.6957075760367801,0.3220717365250108,0.6027111704479752,0.6700936527604346,-0.014966366020430487,0.8523151798906234,-0.09448614775610542
1.1119906549747145,0.7855627364080996,0.3834546540799699,-2.758171161595043,-3.9320081346125475,1.2886333783522599,-0.536388308123392,4.4195048487391775,-9.287046344611436
0.9468556520439597,0.5104348586598744,-0.17133115765019935,-2.829690497287429,-3.0326099456724367,-0.8704870113822849,-0.7176392267410373,2.3805039071854455,-2.125025131075546
1.2560908108145368,2.332364148232197,2.0456088959819416,-6.891281804928924,-2.683471346429384,-4.355965812443532,-1.5134019553836557,2.349223043507764,-4.793009189317748
-0.8918295211628305,1.596002291086114,2.729327458579769,-4.617967624299332,2.790118745037222,-0.9226755274516636,-0.3181901869191384,-0.938645817099363,2.332744884041963
-0.20896793667758196,1.0435741851795914,1.5165760236709596,-3.698187648879177,5.4089072442437045,-2.3379957357630667,-0.7142800037563077,0.5298179082849703,0.08720975218984639
0.6699504410289507,0.9581650035851752,2.479426506318009,-1.9954119340156031,-3.478016661554691,1.315359994073352,-1.1510164417261675,1.2440652940424899,-3.7988807843826073
2.7865911718951364,0.08464053843917621,1.2583265908253898,-1.5613325079851426,-2.584453007982904,-0.013146641798097436,-0.4916660358066933,2.101456911549522,-2.6277191751438234
0.21712992156133937,0.2045684910172807,1.7464062797940927,-0.7139651654020404,-5.729591856541122,-1.1790168613994985,-0.537742760620372,2.0246046119459846,-9.4225090154682
-0.7220454283386221,2.912635285513694,2.025570294523959,-9.29497987014669,-0.3772355488073069,-3.44131503496362,-1.7125972531610385,3.3775644852046116,-5.79025601867013
3.267413513451764,1.5600541136249404,2.659237577101049,-5.583192982785844,-2.2107704126428933,-1.3395752985889238,-2.09572783880897,1.6116363955667963,-4.960042856990652
0.5532026107032637,1.005563473638366,2.096549544163295,-1.681360781498029,-3.043078459748594,-2.741910526081611,-0.9193276577418816,1.7444817578379337,-3.375569649196461
0.5233372141590789,1.9663983260332973,2.0498532027689556,-5.070182978166003,2.9476891209043674,-2.3514440657127325,-1.8100732520773277,-0.10741825389406956,-2.1732115536674463
2.590881226182678,1.3595811417523438,0.7898097249341116,-5.065054618740029,-1.52852152781039,-1.3974838524726358,-0.44381566373332104,-1.9899762534087144,0.19441586204620281
-0.7684156884521497,0.8418257401626247,2.289618694075668,-2.727974611460123,-0.6189083012430396,-1.0324203139334207,-0.8629849596859169,0.8321981339508602,-3.9431261854824915
1.140090576829301,0.45925767724477795,1.8737736784419963,-2.47521120380353,-4.273047404889874,-1.3664008440759405,0.38299224784722485,3.4619499464717074,-5.000899635938726
3.2071528359532726,-0.04191791083427262,1.2522185454929016,-0.8976419091737392,-2.1204362806220383,-0.2669095639347784,0.40597799259973066,1.8102547823608495,-8.777975477452488
1.1512246843337435,0.3013977734182151,0.19962680205777072,-0.2671588692096535,-0.18361571469008137,-1.108678232376088,-0.732678067014326,-1.6401229297967412,-0.39594301837616563
2.1253246396338423,-0.28877480414682327,-0.01953637023910615,1.1726752813434764,-5.628863444748853,1.7341821787256826,-0.2011994886868117,1.8039569687035064,-1.6546145360978002
-0.7166451318359878,0.5507033947078339,2.5397793860108173,-2.691361244861124,2.0863672875706345,-0.6188733868618228,-0.9518509318329936,-0.8142652375084963,1.9699699339670347
1.9904624130485948,2.185255539280137,2.7479424207436742,-6.351858899880816,-2.2959124204482713,-4.577743396688019,-0.7666772796201713,4.829295154959158,-6.9784825985597045
0.01787351312881924,-0.044527651501978883,2.8197357241811343,-1.1939972410634296,1.0719499779746486,-2.2545289668099557,-0.7252577637231333,-1.1400516213141336,-3.587568771685613
3.248577004322499,1.0769473436426442,0.5740488825454815,-3.392712334835705,-4.3253192000764145,0.5074088782042343,-1.107213272422862,1.5626019481471853,-1.492590436754508
0.011090673308657317,0.7752305979719938,1.909090189350958,-3.475566494315068,1.1940920498179148,-1.8032166989674328,-0.7465800351534908,-0.6761672117402442,-0.6047248025541938
2.0504302973290667,0.30557518684951723,-0.3591816928094448,-0.5408638760803476,-3.273526368686934,0.5741809386474871,0.26653444406746407,1.0803664781074482,-3.785261452973159
-0.9666373660148417,2.1987844690224456,2.2978399232130484,-6.687096091066566,-1.3860445608226737,-3.0618454539917237,-1.6982191050608113,2.476730706123595,-5.776156763266727
1.9267839665932223,0.7136500723104373,-0.18373980952787028,-1.0637829184749192,-2.9238639851324724,0.30120412898465615,-0.11618320870445527,0.6486786399529074,3.8772132631463734
0.7993758210606061,1.5143521401199829,3.168909734211649,-4.393809607472287,-1.1864666781879194,-2.7455029317346358,-1.345928866300734,1.57360413177987,-6.394099049818928
2.329970748170959,0.6781879140879241,0.9498710089237552,-2.6548175940519445,-2.984930700353057,-2.1802036392867077,-1.1829351362284497,-0.9471530289865517,-2.050409294703246
0.950909844835998,-0.04168347507733576,1.008394297649032,0.6152285358239352,0.1588083972628931,-0.21816291683062475,-0.4799095338889037,0.7441241861219301,0.5518205378127651
0.7402525783911411,1.3915704414124859,2.70864262772227,-4.039840137216496,-1.4363712665469803,-2.119077207172104,-1.434335023231894,0.6318288495437037,1.2741312252728023
1.742834665404823,0.3357758707041924,0.6566939532393146,-2.749636092066795,-0.5770164969329208,0.027047457194840696,-0.5098224107307651,-0.05886123470072291,-0.11646138387578042
0.37149286509817836,1.108149160299697,1.4654841192795947,-2.8301809640328566,2.5580767865554392,-1.1901457328590057,-1.6312263446652222,0.7441022668781244,0.8127723439148394
-0.6033831396637694,0.635011392853571,0.42380190030657006,-2.030755619906443,1.4093626594909772,2.381015184400759,-0.204173085308594,-1.1421218824377692,-1.7297582233637174
0.08033623602520934,3.133569990220196,2.8815205129876684,-8.411243511237087,-0.8108159210632033,-6.3143412650394986,-1.5812393395471729,2.023864682040145,-3.784478813610773
-0.570072678626828,0.012134490193671271,-0.7436930449227902,0.13247914527117163,0.007617952578268916,1.0197272007233407,0.1918848796136749,1.0865004197361692,-3.538936542115075
2.1146179798050477,2.31771818270326,2.3284439753274007,-5.10576708128535,-2.3925357620169785,-1.6977252258716438,-1.939170471569864,3.351105937440245,-2.170456030197666
0.5019959881517624,0.5560810146361501,0.553458663247516,-0.44711516045724237,-2.8427464138245786,-1.8132262204072123,0.1598386376367653,1.4741173426234533,-3.5936398857691536
1.2749723339478498,0.11326726264964107,0.6409438694438345,-1.6968831993813647,0.9734273658653876,0.17910333505400455,0.2686936485110879,0.36967136164701786,-3.623673868869316
3.4231785409661386,0.9753186451393966,1.166247716271585,-2.488039564064882,-3.6543568559436226,-0.18108288587524057,0.9875401456020673,1.3943571292602925,0.45833983802148404
3.0101250764805805,-0.6869167158677878,-0.6193205895750187,1.7919717730017626,-1.330387736454898,0.327758508664435,0.9365105801249511,-0.6284943271173644,0.43242274274710607
2.4327591240986823,0.18843696452599995,1.2800143140845628,-1.502983651618995,-3.8244250497837915,-0.20428008459957236,-0.7865253572947063,0.6780855056751255,-3.6200113626035737
0.43286068429853986,-0.2945348265723607,0.6085236287254834,-1.5450595335800283,0.019307258511742753,0.3280894180815086,-1.3218951766378335,0.7228105550418558,-4.848338493363366
3.005650407708079,2.063068419083736,2.4821827507173366,-7.47121414459586,-2.833701582089729,-2.1754658820910446,-2.1600534100979245,0.3665396685531952,-0.37350382744151106
0.4115873297639583,-0.4377220127188143,1.1815037370941885,2.035731020377979,2.286716300317324,-1.3716212302044277,-0.05580988373043274,-0.8209015467553198,0.942585239480748
2.283964723579096,1.883952035566364,2.2044272414336166,-2.8344528464817036,-4.471160941782606,0.21740828747640917,-0.831119901875903,3.674502966113563,-4.326568082139311
2.873841714342586,0.8735930736139322,0.9235442853392795,-3.068149210748059,-2.5176772819985773,-1.6348114667288685,-1.191062270245299,-0.13947288235164623,-0.989706124100235
1.6928986673326665,0.1247088765670358,-0.904607509393765,-0.07093518245204791,2.0779747800052126,-0.19632705742069656,-0.7446840615154487,-1.6191323005413976,1.359920645090409
3.241085658225999,3.0179068671928597,2.5324857247790775,-10.981183014989385,-1.3728094820247763,-4.936763899467799,-1.759076332178033,-2.5175159395784137,0.8188623354706708
2.2963486863244635,0.7760438871178604,0.750080496845539,-2.9379405344615694,-2.768251792713749,-0.7760519507284426,-1.2151867469643918,2.1242156117045488,-4.05785824366224
2.5205741588879738,0.571310101989335,-0.07466965645407198,-2.0453331248544857,-2.942129369213057,-0.30478000493546,0.7987028998863864,2.7935735910251034,-3.926830616258397
3.000751885145103,1.3795851527084078,2.2069334943302117,-5.66017111029049,-1.9501953800761873,-3.206973822871644,-2.7667022164050348,2.6419226175942225,0.027625252603903375
