lhs,op,rhs,est
eta1,~,eta2,2.0537283349629845
eta1,~,x4,0.3479932081297222
x1,~,eta2,-0.8380321545272765
x1,~,x2,0.6438159726073911
x1,~,x5,1.9539353793027816
x5,~,x3,2.061623773766464
eta1,=~,y2,0.2643563076212737
eta1,=~,y3,0.5330691904864735
eta2,=~,y5,-0.4531779192536487
eta2,=~,y6,-0.43988410619979545
