lhs,op,rhs,est
x5,~,eta2,0.5063047992420633
x5,~,x1,1.3582869982260641
eta1,~,x5,2.151103503021499
x3,~,eta1,-1.8354845897819825
x4,~,x3,1.976624447389761
x1,~,x2,0.41650904336908107
eta1,=~,y2,0.3822583207506876
eta1,=~,y3,-0.34410368013853804
eta2,=~,y5,-0.9409851242212911
eta2,=~,y6,2.0148850322353855
