lhs,op,rhs,est
x5,~,eta2,0.3899768084837092
x3,~,x4,0.7109820161274709
x3,~,x5,-1.396499639947096
x1,~,x3,2.002794256995111
eta1,~,x3,-0.8508465080280208
x2,~,x5,-1.3243552716070093
eta1,=~,y2,-2.067599968844461
eta2,=~,y4,1.1782207267279494
