lhs,op,rhs,est
x3,~,eta2,-0.7921804426591553
x3,~,x4,-0.2504340592105454
x5,~,x3,1.5212412776048183
eta1,~,x1,-1.577258860304602
eta2,~,eta1,-1.388506084399997
x2,~,eta1,0.8774236590384159
eta1,=~,y2,1.320845553192282
eta1,=~,y3,1.7494563105161252
eta2,=~,y5,-1.544982939735935
eta2,=~,y6,1.381583979506586
