lhs,op,rhs,est
x5,~,x1,1.677706558079008
x4,~,eta2,-1.7003348980240545
x4,~,x5,-1.5365321398704517
x3,~,x2,-1.8144879140810473
x3,~,x4,2.1984512823337994
eta1,~,x3,1.062962073494781
eta1,=~,y2,-0.9164250721955267
eta1,=~,y3,-1.6253506955182087
eta2,=~,y5,-0.2319201292419981
