lhs,op,rhs,est
x2,~,eta1,-1.3340035019016425
x2,~,x1,-0.6508730160475735
x2,~,x4,1.6539116702963477
eta2,~,x2,2.173445664952774
x5,~,x2,-0.9318261785688217
x3,~,x1,2.0206976457954866
eta1,=~,y2,-0.27395746458033643
eta1,=~,y3,0.5349935147186908
eta2,=~,y5,1.3936235332316251
