lhs,op,rhs,est
x2,~,x3,-2.1795511408973796
x2,~,x4,-0.7248286020865178
x5,~,x2,1.5620356419911148
x1,~,eta1,-1.1067557628180162
x1,~,eta2,0.37089094646418147
x1,~,x3,-2.1062738695463747
eta1,=~,y2,0.9075831171480951
eta1,=~,y3,0.2821515246173889
eta2,=~,y5,0.6371222009714559
