"lhs","op","rhs","est"
"x5","~","x1",-0.33301931406268
"x5","~","x4",0.775741644416756
"x2","~","x5",0.954513038219386
"x3","~","x5",-0.916233970023197
"x8","~","x4",-0.911268360898837
"x10","~","x8",-0.475546505078983
"x9","~","x8",-0.288134547149516
"x7","~","x5",-0.150458111671181
"x7","~","x6",-1.06392532222434
"x1","~","x7",0.057245982742998
"x5","~~","x5",0.693948328273564
"x2","~~","x2",1.27583744279321
"x3","~~","x3",0.963163548015077
"x8","~~","x8",0.818722480899065
"x10","~~","x10",0.213789811328156
"x9","~~","x9",0.0665385126293028
"x7","~~","x7",1.10613576951187
"x1","~~","x1",0.583705601642244
"x2","~~","x3",-0.0536070406414859
"x2","~~","x10",-0.0105698121402568
"x2","~~","x9",-0.00962010718746195
"x3","~~","x10",-0.0119021405962637
"x3","~~","x9",-0.00595688148403351
"x10","~~","x9",0.00388336266691536
"x4","~~","x4",1.41151426328776
"x4","~~","x6",-0.0185867455653489
"x6","~~","x6",1.53519267437124
