"lhs","op","rhs","est"
"x5","~","x3",-0.744329142531278
"x5","~","x9",-0.764366207782608
"x1","~","x10",0.610029039155072
"x1","~","x5",-0.172936128117244
"x7","~","x1",-0.0212416257494794
"x3","~","x7",1.13029178014788
"x6","~","x9",-0.829922941229186
"x2","~","x6",0.988040243475006
"x8","~","x7",0.735127097503054
"x4","~","x9",0.510246013676859
"x5","~~","x5",1.30137161204858
"x1","~~","x1",0.559844851358385
"x7","~~","x7",0.043831442905914
"x3","~~","x3",0.949824169761078
"x6","~~","x6",0.591491429342894
"x2","~~","x2",1.01463471691804
"x8","~~","x8",0.899303371233579
"x4","~~","x4",0.281927795823378
"x2","~~","x8",0.0179255898288828
"x2","~~","x4",-0.0333613335801785
"x8","~~","x4",0.0286093979136364
"x9","~~","x9",1.29310012484613
"x9","~~","x10",0.159614634746167
"x10","~~","x10",1.61589492555299
