"lhs","op","rhs","est"
"x8","~","x7",0.392537412892337
"x9","~","x4",-0.266968013430741
"x9","~","x8",0.278121328774985
"x2","~","x10",0.118001379210348
"x2","~","x9",0.058440861554578
"x5","~","x1",0.495197586265412
"x5","~","x2",-0.0162464278920354
"x10","~","x3",-0.667753318342052
"x10","~","x5",0.396411899410029
"x6","~","x8",0.936008157751116
"x8","~~","x8",0.168356051783401
"x9","~~","x9",0.151889792424355
"x2","~~","x2",0.0852897242022091
"x5","~~","x5",1.70543362848045
"x10","~~","x10",0.902992329474668
"x6","~~","x6",0.824579679143259
"x7","~~","x7",1.66249992549137
"x7","~~","x4",0.0802693384292465
"x7","~~","x1",0.0344884469969963
"x7","~~","x3",0.0357709931580811
"x4","~~","x4",1.57431043699221
"x4","~~","x1",0.030713827653297
"x4","~~","x3",0.125760777359869
"x1","~~","x1",1.61033353859122
"x1","~~","x3",0.11741804141841
"x3","~~","x3",1.50357502229934
