"lhs","op","rhs","est"
"x1","~","x8",0.192962919783125
"x4","~","x1",0.490874672161321
"x4","~","x10",-0.330424067938443
"x4","~","x5",-0.145994258068357
"x2","~","x4",0.130153698954479
"x3","~","x2",-0.780471117103768
"x9","~","x4",0.476352013222295
"x6","~","x1",0.608464488266755
"x5","~","x2",-0.154867625258005
"x5","~","x7",-0.940831916248061
"x1","~~","x1",0.0395041355696157
"x4","~~","x4",0.316357827033539
"x2","~~","x2",0.0793928137323845
"x3","~~","x3",0.703499153356582
"x9","~~","x9",0.648750846921376
"x6","~~","x6",0.288480473896495
"x5","~~","x5",0.982918442202201
"x3","~~","x9",-0.0193184929871293
"x3","~~","x6",-0.0312022547068899
"x9","~~","x6",0.00904672084194282
"x8","~~","x8",1.64074245329324
"x8","~~","x10",-0.0331640595908514
"x8","~~","x7",-0.02381161295454
"x10","~~","x10",1.56004655636034
"x10","~~","x7",0.0935659378279364
"x7","~~","x7",1.72208967631751
