"lhs","op","rhs","est"
"x4","~","x10",0.359635172874136
"x4","~","x5",0.0606894411693282
"x4","~","x9",0.643913219681884
"x3","~","x4",0.00222127114738425
"x1","~","x2",-0.241120677845319
"x1","~","x3",0.644865713448901
"x1","~","x6",-0.229365808614806
"x1","~","x7",-0.479347343575914
"x8","~","x5",1.01056868519013
"x10","~","x3",0.914373471763924
"x4","~~","x4",0.5784617214411
"x3","~~","x3",0.0594089737874325
"x1","~~","x1",0.892774443527455
"x8","~~","x8",1.04017012881732
"x10","~~","x10",0.546396553273196
"x1","~~","x8",0.0441058181534985
"x5","~~","x5",1.80461946144198
"x5","~~","x9",-0.00984489316643309
"x5","~~","x2",0.0822997300043615
"x5","~~","x6",-0.0443860450966802
"x5","~~","x7",0.0594177830224185
"x9","~~","x9",1.64303431415316
"x9","~~","x2",-0.0249604822826648
"x9","~~","x6",0.0827002776966598
"x9","~~","x7",-0.0552543769906917
"x2","~~","x2",1.52137111025534
"x2","~~","x6",-0.0340139218476772
"x2","~~","x7",-0.00748730662772515
"x6","~~","x6",1.65475848527416
"x6","~~","x7",0.0209462498233075
"x7","~~","x7",1.58266213112819
