"lhs","op","rhs","est"
"x7","~","x3",-0.253872234307312
"x7","~","x9",-0.193454332042457
"x2","~","x7",0.135809063589371
"x9","~","x4",0.54985771472446
"x9","~","x6",0.88136976198281
"x1","~","x9",0.188791303856708
"x5","~","x3",-0.505517201727808
"x8","~","x10",-0.130686461610826
"x8","~","x9",-0.466825343272355
"x7","~~","x7",0.143576958602222
"x2","~~","x2",0.0778081006527282
"x9","~~","x9",1.07721410416642
"x1","~~","x1",0.0659551835012363
"x5","~~","x5",0.2782382143391
"x8","~~","x8",0.368876636149502
"x2","~~","x1",0.00218155709133001
"x2","~~","x5",0.00389883001482355
"x2","~~","x8",-0.0121773518210737
"x1","~~","x5",-0.00792868514955738
"x1","~~","x8",0.00439694782627287
"x5","~~","x8",-0.00160638833602827
"x3","~~","x3",1.68651591965059
"x3","~~","x4",0.0838797631515143
"x3","~~","x6",0.0562232120882065
"x3","~~","x10",0.0293259355280674
"x4","~~","x4",1.10985770491362
"x4","~~","x6",0.478563684659812
"x4","~~","x10",-0.0906518848775491
"x6","~~","x6",1.43281643595072
"x6","~~","x10",-0.043902969082623
"x10","~~","x10",1.61025980346976
