"lhs","op","rhs","est"
"x10","~","x1",-0.679259694882317
"x10","~","x4",-0.97471198807007
"x6","~","x4",0.113376823043833
"x6","~","x5",-0.192863768426211
"x6","~","x7",-0.817801774133501
"x6","~","x8",0.371460791229326
"x5","~","x9",0.37617317723779
"x2","~","x3",0.716390158001294
"x2","~","x9",0.180744737208252
"x10","~~","x10",1.3685468423039
"x6","~~","x6",0.869705233411139
"x5","~~","x5",0.137261992880207
"x2","~~","x2",0.524342173849699
"x10","~~","x6",0.025870402591123
"x10","~~","x2",-0.0228724054974658
"x6","~~","x2",0.0342392378157982
"x1","~~","x1",1.76335387778477
"x1","~~","x4",-0.0391052401265757
"x1","~~","x7",0.0439185719300859
"x1","~~","x8",0.331104628131648
"x1","~~","x9",0.0480706727226952
"x1","~~","x3",0.0464663262189133
"x4","~~","x4",1.67701671368798
"x4","~~","x7",-0.0498055466267457
"x4","~~","x8",-0.102154739480846
"x4","~~","x9",-0.0314781228350858
"x4","~~","x3",-0.0347334515940274
"x7","~~","x7",1.6215551666438
"x7","~~","x8",0.0181988138603578
"x7","~~","x9",0.042239030624183
"x7","~~","x3",0.0128054658670297
"x8","~~","x8",1.58500021417675
"x8","~~","x9",0.0148554138469586
"x8","~~","x3",0.0013278848486156
"x9","~~","x9",1.68074795678541
"x9","~~","x3",0.0428090550214111
"x3","~~","x3",1.70626022025834
