"lhs","op","rhs","est"
"x10","~","x3",-0.157120033888551
"x10","~","x8",-0.287964226415905
"x7","~","x10",-0.0189533530999745
"x7","~","x4",-0.746893968995852
"x7","~","x5",0.958644244090771
"x9","~","x7",-0.0562012239600338
"x4","~","x6",0.398212978791128
"x1","~","x10",0.211321484669306
"x8","~","x1",0.321057270641985
"x2","~","x3",-0.384395059869366
"x10","~~","x10",0.0529564643054143
"x7","~~","x7",1.69788051407782
"x9","~~","x9",0.681775054284511
"x4","~~","x4",0.142230931789541
"x1","~~","x1",0.0666105189176435
"x8","~~","x8",0.0433289237693075
"x2","~~","x2",0.136562828230888
"x9","~~","x2",0.018243506959176
"x3","~~","x3",1.71564650339246
"x3","~~","x5",0.0286630726053381
"x3","~~","x6",-0.0571380958376165
"x5","~~","x5",1.59022690845196
"x5","~~","x6",-0.168320818257658
"x6","~~","x6",1.63098573020267
