"lhs","op","rhs","est"
"x3","~","x2",0.0207669057959817
"x3","~","x8",-0.902452865607624
"x4","~","x3",-0.26340024813218
"x4","~","x5",-0.567582898885
"x4","~","x9",-0.748906855919129
"x6","~","x4",0.0242797458778367
"x10","~","x3",-0.161318305876994
"x10","~","x7",0.171348842626006
"x2","~","x10",-0.550880714600159
"x1","~","x3",0.179742353657182
"x3","~~","x3",0.79821644845164
"x4","~~","x4",0.973561306537945
"x6","~~","x6",0.0337382362142925
"x10","~~","x10",0.0541293265204309
"x2","~~","x2",0.345004556226202
"x1","~~","x1",0.0388006546452217
"x6","~~","x1",-0.000718897868147037
"x8","~~","x8",1.49492976018124
"x8","~~","x5",-0.0334303077237813
"x8","~~","x9",-0.180322176465823
"x8","~~","x7",-0.0742718445923799
"x5","~~","x5",1.48713257916371
"x5","~~","x9",-0.116408839230626
"x5","~~","x7",0.0872381226252027
"x9","~~","x9",1.57417268865486
"x9","~~","x7",0.0713020784532926
"x7","~~","x7",1.63765666857975
