eta1 =~ y1 + y14 + y2
eta2 =~ y4 + y5 + y6
eta3 =~ y4 + y8
eta4 =~ y10 + y11 + y9
eta5 =~ y12 + y13
eta6 =~ y14 + y15
eta7 =~ y16 + y17 + y18
eta8 =~ y19 + y20
x10 ~ x5 + x6
eta4 ~ eta3 + x10 + x3
eta1 ~ eta4 + eta6 + x8
eta5 ~ eta1
x8 ~ x9
eta3 ~ x1
x2 ~ x9
x7 ~ x9
eta2 ~ x5
eta7 ~ eta1
eta6 ~ eta7
x4 ~ x1
eta8 ~ x3
