lhs,op,rhs,est
x8,~,x1,-0.2725109020262162
x8,~,x3,-0.41721405517895677
x8,~,x5,-0.6076593547504907
x6,~,x8,0.9614258143697562
eta6,~,x6,0.33483537873705815
x10,~,eta6,-0.7948906031004129
eta3,~,x5,-0.6769520207893671
x7,~,eta5,-0.49954183313335543
x7,~,eta8,0.7959487793178712
x7,~,x1,0.35468533770395055
x3,~,x6,0.9573586931507865
eta7,~,x3,0.5369516521323345
x9,~,eta7,0.32384686606628243
eta4,~,x1,-1.0086635722873363
eta4,~,x2,-0.6277970457948128
x4,~,x6,-0.5575143939293762
eta1,~,x2,0.6223335539594473
eta2,~,x6,0.2600917404660831
eta1,=~,y2,0.4113724076753115
eta1,=~,y3,-1.0279737623930736
eta2,=~,y5,-0.9632690401405403
eta2,=~,y6,0.24940785696029488
eta3,=~,y8,-0.7837845878480804
eta4,=~,y11,1.0545926767615046
eta4,=~,y9,-0.8751673833885064
eta5,=~,y13,0.608381301019864
eta5,=~,y14,0.6668781406854651
eta6,=~,y16,-0.6957891602905567
eta7,=~,y18,0.9529223546310528
eta7,=~,y19,-0.9580377062747935
eta8,=~,y21,0.6193568567581125
