lhs,op,rhs,est
x10,~,eta5,-0.10498572259069143
x10,~,eta7,0.4739124239815185
x10,~,x5,0.13357082834303868
x10,~,x9,0.6632952755320386
eta8,~,x10,0.9313704147117302
eta8,~,x8,0.25757750998770046
x4,~,eta6,-0.31344812979053666
x4,~,x7,0.14239885204846717
eta2,~,x4,-0.3983831026148292
x9,~,eta2,-0.4859125929463621
x5,~,x3,-0.6456928005316119
x2,~,x10,-0.3695069744169869
eta3,~,eta2,0.1039101312010579
eta6,~,eta3,0.6621731606343908
x6,~,eta3,0.11452149332624861
eta1,~,x8,0.6761703946718877
eta4,~,eta7,-0.5162125219761127
eta5,~,x1,0.5588748206336296
eta1,=~,y2,0.29784958641813364
eta1,=~,y3,-0.8865791065456982
eta2,=~,y5,0.5995844999198862
eta3,=~,y7,-1.051138624332156
eta4,=~,y8,-0.49549723091534603
eta4,=~,y9,0.3195511385031715
eta5,=~,y12,-0.7831736677814818
eta6,=~,y15,0.18397743590465673
eta6,=~,y5,0.36040471896238696
eta7,=~,y17,0.24848364746067927
eta8,=~,y19,0.6485593297672301
