lhs,op,rhs,est
eta3,~,x4,-0.11494110827124998
x9,~,eta1,0.7515497331070202
x9,~,eta3,-0.6534104413508164
x9,~,x1,0.867798086644179
x9,~,x3,-0.17358755066988593
eta4,~,x2,0.3688036016598086
eta4,~,x6,-1.0592638688827996
eta4,~,x9,0.6102376451754172
eta5,~,eta6,0.37616795429723837
eta5,~,x6,1.0329358329811904
eta7,~,eta5,-0.7583984683106408
eta6,~,eta7,-0.9143552811477038
x2,~,x5,0.21693589922399772
x8,~,eta8,-0.6530721035887608
x8,~,x5,-0.588376076431045
x7,~,eta1,0.4131516682978632
eta2,~,eta5,-0.5155369468551967
x10,~,x2,0.5450855110997278
eta1,=~,y2,0.7299872728092782
eta1,=~,y3,-0.5491645351817206
eta2,=~,y5,0.9674200453140037
eta3,=~,y6,0.5362483165005598
eta3,=~,y8,-0.37448579466844995
eta4,=~,y11,-0.3982181598227309
eta4,=~,y9,-0.5174727345265524
eta5,=~,y12,-0.315266877420504
eta6,=~,y15,-0.9747223451794157
eta7,=~,y17,0.3879267721823387
eta8,=~,y19,0.4109698667749209
eta8,=~,y20,0.23864169546869288
