lhs,op,rhs,est
eta8,~,eta1,0.39635593657108004
eta8,~,eta6,0.6211107417110636
eta8,~,x5,-0.5765885786843971
x8,~,eta8,0.3984505990428304
x8,~,x10,0.9498904863370955
x8,~,x9,0.6042121688092441
eta1,~,eta2,0.6726410994261565
eta1,~,eta4,0.8418226023628325
x3,~,eta8,-0.9720650999884629
eta3,~,x10,0.6946992694016111
x2,~,eta6,-0.42073758619612445
x2,~,x1,-0.4728744198190514
eta7,~,x2,-0.532542498034388
x4,~,x5,-0.33889591457618995
eta2,~,x6,0.24447357100557154
eta2,~,x7,0.6994743587126413
x7,~,eta1,0.3651273851377725
eta5,~,eta2,0.2512762614996335
eta1,=~,y2,-0.2517658872749972
eta1,=~,y3,-0.2552503583570887
eta2,=~,y5,0.17750624626923586
eta3,=~,y7,0.22588944425628946
eta3,=~,y8,0.8332341649984848
eta4,=~,y11,-0.14383614278552412
eta4,=~,y9,-0.1594901188456837
eta5,=~,y14,0.6539115954191351
eta5,=~,y15,-1.0755785910243516
eta6,=~,y16,-0.27667397957099443
eta7,=~,y18,-0.5934281748222637
eta7,=~,y19,-0.7642686662800532
eta8,=~,y21,-0.617243970756048
eta8,=~,y22,0.2044534145558313
