lhs,op,rhs,est
eta1,~,x8,-0.29447174517088737
eta7,~,eta1,0.8168850525951343
eta4,~,eta3,0.8093663643970744
eta4,~,eta7,-0.18122315671198377
eta4,~,eta8,-0.7168726549128049
eta4,~,x9,0.759094205351859
x3,~,eta4,0.43920551008999886
x7,~,x3,-0.45643127382222654
eta8,~,x6,0.2590170108288831
x2,~,eta8,-0.3561272487506669
x4,~,x5,1.013884207752686
x4,~,x9,-0.7660413698624393
eta2,~,x4,-0.9000096611215045
x5,~,eta2,-0.23520937628120306
x1,~,eta7,0.6987457349692361
x1,~,x10,-0.9365563753333275
eta5,~,x1,-0.2381763530700858
eta6,~,eta7,-1.053801528772678
eta1,=~,y2,-0.31516847053601765
eta2,=~,y3,0.12757140846284112
eta2,=~,y5,-0.19282416225999652
eta3,=~,y7,-0.6378434738220217
eta4,=~,y9,0.2794158037743812
eta5,=~,y11,-0.9263267542418148
eta5,=~,y12,0.9410823655328703
eta6,=~,y14,-1.033779683985633
eta7,=~,y16,-0.9545053963278252
eta7,=~,y17,-0.44827330653822406
eta8,=~,y19,-0.739184780608178
