lhs,op,rhs,est
eta6,~,x5,-0.10064246529011645
eta6,~,x7,0.49719344320917547
x4,~,eta6,0.9567806233223349
x6,~,eta4,-0.9379452013488482
x6,~,eta6,-0.527693966963195
x2,~,x6,-1.059020637927166
x7,~,x2,0.4664710530538079
x1,~,eta1,0.325138793225225
x1,~,eta3,-1.0946734067425845
x1,~,eta6,0.6300385614809574
x9,~,eta8,0.1025548543348954
x9,~,x3,1.075157431594352
eta3,~,eta5,-0.42621453504849194
eta3,~,x9,-0.9667090621323661
eta2,~,eta6,-0.446319259076822
eta2,~,eta7,-0.10569813944717589
eta5,~,x8,0.29207878002624127
x10,~,eta4,-0.34864468356711836
eta1,=~,y2,-0.3470843178142705
eta2,=~,y3,0.6511393155881929
eta3,=~,y6,0.6761435095084025
eta3,=~,y7,1.0468197940546846
eta4,=~,y8,-1.0048383582682416
eta4,=~,y9,0.4228527422910009
eta5,=~,y12,0.7586504703634805
eta6,=~,y14,-0.8717781206215978
eta6,=~,y15,0.2143861889715234
eta7,=~,y17,-0.15433762818106184
eta8,=~,y19,-1.051443997943424
