lhs,op,rhs,est
eta5,~,x1,-0.5642430318370651
eta5,~,x9,0.11636969296404447
eta6,~,eta5,-0.8327415258063491
x5,~,eta1,-0.677491925841037
x5,~,x1,-0.12254270638237319
x5,~,x7,0.25677690947550413
x6,~,eta7,0.19918910663399989
x6,~,x5,0.5645262020110389
x10,~,eta4,-0.7909823766215178
x10,~,x1,-0.20703931171111184
x10,~,x4,-0.8894747334537513
eta3,~,x5,0.6763525307001059
x3,~,eta8,0.2546654069586147
x3,~,x5,0.35101823695716905
x7,~,x3,-0.946130548766805
x8,~,eta5,-0.33579627086674735
eta2,~,x8,-1.077034800571784
x2,~,x1,-0.6229016224829097
eta1,=~,y3,0.484112876059129
eta1,=~,y4,0.6685000238447159
eta2,=~,y5,-0.4520021510368376
eta3,=~,y7,1.0811333917112984
eta3,=~,y8,0.5194631213586031
eta4,=~,y11,0.5851587084717776
eta4,=~,y9,0.317074398838303
eta5,=~,y13,-0.2516087755184324
eta5,=~,y14,-0.8044683842724857
eta6,=~,y16,-0.594124076685415
eta6,=~,y17,0.11473898096094186
eta7,=~,y19,-0.4804036135023937
eta8,=~,y4,0.3302148539792308
