lhs,op,rhs,est
eta1,~,x4,0.9881679959223869
eta1,~,x10,0.6853029850530209
eta1,~,x6,0.8681221716397938
eta2,~,x1,-0.6010929460564917
x1,~,x5,-0.23235971696782337
x1,~,x6,0.48889588768152775
x4,~,x2,-0.30040516379827903
x7,~,x6,0.48416442545612737
x8,~,x5,0.5696686763022626
x9,~,x10,-0.740807079403969
x9,~,x3,0.41110019388957814
eta1,=~,y2,0.4813665759529621
eta2,=~,y4,0.20948359098641592
eta1,~~,eta1,1.091028190388162
eta1,~~,eta2,-0.04877603869360924
eta1,~~,x7,-0.0010413827713068758
eta1,~~,x8,0.0035710992213389184
eta1,~~,x9,-0.06008129965541491
eta2,~~,eta2,0.878849455200295
eta2,~~,x7,-0.02801734573240363
eta2,~~,x8,0.005268465736973199
eta2,~~,x9,0.016576165653239446
x1,~~,x1,0.26977910278090256
x4,~~,x4,0.074996565474812
x7,~~,x7,0.24146663786572367
x7,~~,x8,0.02777162990132692
x7,~~,x9,0.007369340477649245
x8,~~,x8,0.4413006566251098
x8,~~,x9,0.03234757506564215
x9,~~,x9,0.83953044963847
y1,~~,y1,2.950891080743264
y2,~~,y2,0.8029326335262311
y3,~~,y3,0.5395166752406704
y4,~~,y4,0.10159460909024301
