lhs,op,rhs,est
eta1,~,x2,0.44076181119346514
eta2,~,x6,-0.6166802452454889
x1,~,x4,-0.4766085707842116
x2,~,x9,-0.9145269992391778
x3,~,x9,0.43393109182456835
x3,~,x4,-0.16944626106952249
x5,~,x2,-0.7727958103471291
x6,~,x10,-0.8234562239644967
x7,~,eta1,0.6078190433443175
x8,~,x10,0.6849877193962018
x9,~,x6,1.0876221196160256
eta1,=~,y2,-0.7221888223468478
eta2,=~,y4,-0.78003435621228
eta2,=~,y5,-0.3452429489778242
eta1,~~,eta1,0.20300136650851017
eta2,~~,eta2,0.47899807464555677
eta2,~~,x1,0.00188462202647749
eta2,~~,x3,-0.03118839915849794
eta2,~~,x5,-0.0077751891740609974
eta2,~~,x7,0.004901715117892577
eta2,~~,x8,-0.04673712770908545
x1,~~,x1,0.22695120155271195
x1,~~,x3,-0.004814243144001525
x1,~~,x5,0.01748478557773388
x1,~~,x7,-0.015556981661119533
x1,~~,x8,-0.007934303156201802
x2,~~,x2,0.9352513461540605
x3,~~,x3,0.21337385218068264
x3,~~,x5,0.004964814374852121
x3,~~,x7,0.010739565535683367
x3,~~,x8,0.02396455861575097
x5,~~,x5,0.6055399748826187
x5,~~,x7,0.013435047911377245
x5,~~,x8,0.03448899990207947
x6,~~,x6,0.5541981348292375
x7,~~,x7,0.4724360453833357
x7,~~,x8,0.02666711530774635
x8,~~,x8,0.4388425212231407
x9,~~,x9,1.008681781996534
y1,~~,y1,0.9500521595487429
y2,~~,y2,0.5683950102996354
y3,~~,y3,0.9053616198443598
y4,~~,y4,0.7717865003937585
y5,~~,y5,0.11415470013921425
