lhs,op,rhs,est
eta1,~,x7,0.25419007262733
eta2,~,x9,-0.8148001857127791
x1,~,x3,0.9970695161402763
x10,~,x9,0.09859799925446647
x10,~,x2,-0.8893193702630601
x4,~,x6,0.3456527692508893
x6,~,x1,-0.9016541212607115
x6,~,x9,-0.4569788797350552
x7,~,x10,0.5365362986018629
x8,~,x6,-1.0783432311566685
x9,~,x5,-0.4932949760516907
eta1,=~,y2,0.5957524712936747
eta2,=~,y4,0.4269890938806489
eta1,~~,eta1,0.16287689182637502
eta1,~~,eta2,0.03638071841710238
eta1,~~,x4,-0.028496087580151812
eta1,~~,x8,0.08448419092065335
eta2,~~,eta2,0.8755003297222663
eta2,~~,x4,-0.014927314477772827
eta2,~~,x8,-0.059301278685882496
x1,~~,x1,1.1365454737647915
x10,~~,x10,0.825482662274693
x4,~~,x4,0.22138973590869893
x4,~~,x8,-0.01638620102364175
x6,~~,x6,0.9441281663521879
x7,~~,x7,0.6154194236759036
x8,~~,x8,1.9154915463180409
x9,~~,x9,0.23022024874826047
y1,~~,y1,2.0661260832104476
y2,~~,y2,0.4059626899344965
y3,~~,y3,0.8624933204577115
y4,~~,y4,0.1857094499573705
