lhs,op,rhs,est
eta1,~,eta2,-0.19202349982091355
eta1,~,x2,-0.6473376502085887
eta2,~,x8,0.7830565288802117
x1,~,eta2,0.4548330637597754
x10,~,eta2,-0.32428530282872525
x10,~,x7,0.15816476132914564
x3,~,x7,0.5772518063141404
x4,~,eta2,0.7685391665834256
x4,~,x6,-0.43103148283484427
x5,~,x8,1.0570380851587686
x9,~,x8,-0.23949040530254279
eta1,=~,y2,-0.1871713056801259
eta1,=~,y3,0.7533156285027041
eta2,=~,y5,-0.24890597982143986
eta2,=~,y6,1.03424993455642
eta1,~~,eta1,0.5623002241870423
eta1,~~,x1,-0.031491072675276004
eta1,~~,x10,0.0317513862676993
eta1,~~,x3,0.0752006627827236
eta1,~~,x4,0.03933094353702873
eta1,~~,x5,-0.004091715867927851
eta1,~~,x9,-0.026677611639337403
eta2,~~,eta2,0.6700261694946483
x1,~~,x1,0.18805910670505255
x1,~~,x10,-0.0010370523365208688
x1,~~,x3,0.002468052515998683
x1,~~,x4,-0.00869609993927963
x1,~~,x5,-0.009302379650204567
x1,~~,x9,0.0015553981573487665
x10,~~,x10,0.10862616419490066
x10,~~,x3,0.003820025089060474
x10,~~,x4,0.019964795058474594
x10,~~,x5,-0.002975038212096481
x10,~~,x9,0.004144316490916941
x3,~~,x3,0.3067863995411985
x3,~~,x4,-0.0069234166995699896
x3,~~,x5,0.020833199446792704
x3,~~,x9,4.889151319976171e-05
x4,~~,x4,0.6881315140214546
x4,~~,x5,-0.07214999490248931
x4,~~,x9,-0.002181014391531671
x5,~~,x5,1.1468508859122395
x5,~~,x9,0.014263685701004884
x9,~~,x9,0.060688939068990894
y1,~~,y1,1.9212095039717336
y2,~~,y2,0.07169799290345587
y3,~~,y3,0.6457483965270905
y4,~~,y4,0.8599658721239437
y5,~~,y5,0.045624230298784464
y6,~~,y6,1.0920439714231427
