lhs,op,rhs,est
x1,~,eta2,0.8480634222217805
x2,~,x9,-0.258420968951083
x3,~,x8,0.5213894676120139
x3,~,x10,0.29879671641260025
x3,~,x9,0.5065592942625929
x4,~,eta1,-0.3274388628882877
x4,~,x6,0.9415333120020523
x5,~,x1,0.49926103113336673
x6,~,x1,-0.4370256238241487
x6,~,x9,0.12651707087644173
x8,~,x7,-0.7895328103685272
eta1,=~,y2,0.25411829176011835
eta1,=~,y3,-0.17346729921882206
eta2,=~,y5,0.2575819482067171
eta2,=~,y6,0.2426367205355335
eta1,~~,eta1,1.468846735065805
eta1,~~,eta2,0.09064231399917001
eta2,~~,eta2,1.6910740621292464
x1,~~,x1,0.8244643851674935
x2,~~,x2,0.06307594339502848
x2,~~,x3,-0.0058356940455292425
x2,~~,x4,-0.014232391462902765
x2,~~,x5,-0.0014685156235200922
x3,~~,x3,0.7520275508976512
x3,~~,x4,0.06408319996770698
x3,~~,x5,-0.03233302423168714
x4,~~,x4,1.1226452085468401
x4,~~,x5,-0.020326893665341284
x5,~~,x5,0.24314957959015007
x6,~~,x6,0.18817512403410708
x8,~~,x8,0.6390131662779082
y1,~~,y1,0.8647189874452178
y2,~~,y2,0.06326777897335639
y3,~~,y3,0.03657873797579123
y4,~~,y4,0.888320643861178
y5,~~,y5,0.06913231064236804
y6,~~,y6,0.05774823530068293
