lhs,op,rhs,est
eta1,~,eta2,0.1569113184532044
eta2,~,x9,0.7340462574614446
x1,~,x7,0.6343008492471462
x1,~,x8,0.34960853656523855
x10,~,x6,0.6360952514051313
x2,~,eta2,-0.3544748163551462
x3,~,x7,-0.41653669411023886
x4,~,x10,0.33163776448949495
x5,~,x10,-0.9291869761871522
x6,~,eta2,0.7895974078715975
x7,~,x6,0.38535825650880917
eta1,=~,y2,-1.0883407196792405
eta1,=~,y3,-0.40741913907362554
eta2,=~,y5,0.9622795213498477
eta1,~~,eta1,0.0311274934724853
eta1,~~,x1,0.0005060129810827333
eta1,~~,x2,-0.0039221406140688645
eta1,~~,x3,-0.011416939770270744
eta1,~~,x4,-0.01182318151352132
eta1,~~,x5,-0.007421466068878704
eta2,~~,eta2,0.5076366307689879
x1,~~,x1,0.5235920945872218
x1,~~,x2,-0.00250063037612358
x1,~~,x3,-0.006925778870549111
x1,~~,x4,0.002116111148399845
x1,~~,x5,-0.006564546230892209
x10,~~,x10,0.3886095146233436
x2,~~,x2,0.1457476664316181
x2,~~,x3,-0.0072808752065380965
x2,~~,x4,-0.010872567746043648
x2,~~,x5,0.00557606090387509
x3,~~,x3,0.13993484146656152
x3,~~,x4,6.178018525861947e-06
x3,~~,x5,-0.008150073402971669
x4,~~,x4,0.12699629892037986
x4,~~,x5,-0.015841806309299208
x5,~~,x5,0.7488701764282432
x6,~~,x6,0.7167939344804501
x7,~~,x7,0.13981925166728626
y1,~~,y1,0.9989983748004406
y2,~~,y2,0.5558379172690943
y3,~~,y3,0.07131637021492869
y4,~~,y4,0.8785069033978169
y5,~~,y5,0.8842171184324776
