lhs,op,rhs,est
eta1,~,x7,0.37103064781811645
eta2,~,x6,-0.7075478521574589
eta2,~,x9,0.5885199998138886
x10,~,x6,-0.39206239889377564
x2,~,x1,0.27033032854576444
x3,~,x8,0.9093889695536773
x4,~,x10,-0.5784287102330202
x5,~,x6,-0.9021065009745218
x6,~,x3,-0.23688856932967464
x7,~,x2,-0.38879602875105634
x7,~,x6,-0.5943533489459158
eta1,=~,y2,1.1362077382320663
eta1,=~,y3,-1.0895281023551457
eta2,=~,y5,0.5700369859747748
eta1,~~,eta1,0.2181655113001718
eta1,~~,eta2,-0.03796491568303955
eta1,~~,x4,0.027802966814671284
eta1,~~,x5,0.014304434031398881
eta2,~~,eta2,0.778708097430616
eta2,~~,x4,-0.042452634729091436
eta2,~~,x5,-0.05509246665656978
x10,~~,x10,0.09613460169186658
x2,~~,x2,0.06445417011316111
x3,~~,x3,0.9151007220391906
x4,~~,x4,0.3994804155700836
x4,~~,x5,-0.008793977570119144
x5,~~,x5,0.89480726982371
x6,~~,x6,0.06189587111974159
x7,~~,x7,0.5884502743563935
y1,~~,y1,1.1490640664664418
y2,~~,y2,0.6008986856962546
y3,~~,y3,1.1795224624155447
y4,~~,y4,1.7089430920078605
y5,~~,y5,0.7733825715705848
