lhs,op,rhs,est
eta1,~,x3,0.02502992781745508
x1,~,eta2,0.5577931957892328
x1,~,x9,0.08655730255644546
x10,~,x2,0.5362611823410435
x2,~,x5,-0.47696290545967157
x3,~,eta2,0.09779223376969991
x3,~,x4,-0.27493086811013867
x3,~,x6,0.26924753320673595
x5,~,x3,-0.9091025981039651
x7,~,x2,0.9447365224164386
x8,~,x4,-0.4285472630548903
eta1,=~,y2,-0.06567549003667522
eta2,=~,y4,-0.2901968015159814
eta2,=~,y5,0.1757358606149668
eta1,~~,eta1,0.45549675276316015
eta1,~~,x1,0.059251880925599076
eta1,~~,x10,-0.09932758375858224
eta1,~~,x7,-0.018341360352407764
eta1,~~,x8,-0.008999342735994615
eta2,~~,eta2,1.5648986007538024
x1,~~,x1,0.29477648875428086
x1,~~,x10,-0.005906838394184111
x1,~~,x7,0.044017783411780184
x1,~~,x8,-0.02085884656918577
x10,~~,x10,0.8416842762585238
x10,~~,x7,-0.053676140117578354
x10,~~,x8,0.034748052938521796
x2,~~,x2,0.7067626063340371
x3,~~,x3,0.17050458680209257
x5,~~,x5,2.9186986500228387
x7,~~,x7,2.2971046009968528
x7,~~,x8,-0.026104140954903463
x8,~~,x8,0.180084308724741
y1,~~,y1,0.6314954242383508
y2,~~,y2,0.12234606431760064
y3,~~,y3,1.1922639374597244
y4,~~,y4,0.06159355253672921
y5,~~,y5,0.02720112709748299
