lhs,op,rhs,est
eta1,~,x7,0.014414850020331826
x1,~,x3,-0.4979756545391703
x10,~,eta1,0.54556729793025
x10,~,eta2,-0.7802335733122926
x4,~,x2,-0.7826083482032707
x4,~,x6,-0.2411768018292424
x5,~,x3,0.38286002188005896
x7,~,x3,0.9354938429402775
x7,~,x6,0.08629767509746927
x8,~,x2,0.9584336340846169
x9,~,x10,-1.1173158383519974
eta1,=~,y2,-1.7412558885379668
eta1,=~,y3,-0.5947955736749114
eta2,=~,y5,-0.5876818539529164
eta2,=~,y6,0.4380736741619377
eta1,~~,eta1,0.06924872660678495
eta2,~~,eta2,1.5859443800961555
x1,~~,x1,0.23765718982376724
x1,~~,x4,0.0026411039481981204
x1,~~,x5,0.00023253919592094261
x1,~~,x8,0.0038858259656623768
x1,~~,x9,-0.02870872738528139
x10,~~,x10,0.8067660229314972
x4,~~,x4,0.7334831375838241
x4,~~,x5,0.016692279732035756
x4,~~,x8,-0.03801029833891085
x4,~~,x9,0.055720326664444236
x5,~~,x5,0.13328436617495698
x5,~~,x8,-0.003327574001084017
x5,~~,x9,-0.02808763863285577
x7,~~,x7,0.8928614968012947
x8,~~,x8,0.7462135062576506
x8,~~,x9,-0.09992257561577453
x9,~~,x9,2.3069372358911657
y1,~~,y1,0.9871865800119555
y2,~~,y2,0.7160985198933768
y3,~~,y3,0.4417628880632154
y4,~~,y4,0.7717716011599394
y5,~~,y5,0.28086843951636703
y6,~~,y6,0.20318430637113288
