lhs,op,rhs,est
eta1,~,x2,0.4633630060177108
eta1,~,x4,0.47448068299418467
eta2,~,x2,-0.8760698350890851
x1,~,x5,-0.15088508638589235
x10,~,eta2,0.189275176059627
x3,~,x8,0.22037511477762758
x5,~,eta1,-0.1558718047581506
x5,~,x7,-0.5368111847460423
x8,~,x5,-0.2455165491675182
x8,~,x6,-0.1337619102987846
x9,~,x2,0.7851829768722589
eta1,=~,y2,0.17427201176776755
eta2,=~,y4,-0.172166241935264
eta1,~~,eta1,0.6411529230253931
eta2,~~,eta2,0.7088367986840267
x1,~~,x1,0.04877384683971309
x1,~~,x10,-0.001929166720324782
x1,~~,x3,0.007356618783826453
x1,~~,x9,-0.0026319969257017346
x10,~~,x10,0.03309202022094635
x10,~~,x3,0.0011948165202129205
x10,~~,x9,-0.004450368144170623
x3,~~,x3,0.15064684004641352
x3,~~,x9,-0.025704850269547764
x5,~~,x5,0.4140571532763293
x8,~~,x8,0.14059647679508802
x9,~~,x9,0.5162462032624915
y1,~~,y1,1.8392230630639521
y2,~~,y2,0.06961379833375572
y3,~~,y3,1.0697077539437243
y4,~~,y4,0.030131001141957388
