lhs,op,rhs,est
x6,~,eta2,0.19670992182396624
x6,~,x1,-0.11765417980833605
x10,~,x6,-0.7530503660714154
x10,~,x8,0.6297291501099609
eta3,~,x10,0.32848202787595715
x4,~,eta1,-0.6936905507743292
x4,~,x3,0.8753921126243499
x4,~,x6,0.2734480111227536
eta4,~,eta1,0.3249927991785739
x7,~,x3,-0.4472666324197408
x5,~,x3,-1.0140913829121434
x2,~,eta1,0.16636029938795363
x9,~,x3,0.6729979434485539
eta1,=~,y2,-0.4384736097545165
eta2,=~,y4,-0.3886591719498484
eta2,=~,y5,-0.6605318529884954
eta3,=~,y7,-0.6021858521519133
eta4,=~,y7,-0.19265453128363222
eta4,=~,y8,0.5793389017342274
