lhs,op,rhs,est
eta4,~,x10,-0.507488806602325
x3,~,eta3,-0.5999852302681745
x3,~,eta4,0.5221957082496335
x3,~,x1,0.9911151760642714
x3,~,x5,-0.8434382857475136
eta1,~,x3,0.719506480208175
x2,~,eta1,0.33072733506914953
x2,~,x8,1.0567999761326543
x6,~,eta4,-0.3859249215027723
x6,~,x4,1.0823092288572236
x7,~,eta4,-0.8794710807280834
x9,~,x10,0.3410118147398194
eta2,~,eta3,0.7755396885464318
eta1,=~,y3,-0.8275805381605852
eta2,=~,y4,-0.36792002061625384
eta2,=~,y5,0.3373434526361877
eta3,=~,y7,0.9238159034317174
eta3,=~,y8,0.8230235423125926
eta4,=~,y11,-0.990770703612024
eta4,=~,y9,-0.3591106309467301
