lhs,op,rhs,est
eta2,~,x7,-0.1087290343398432
x4,~,eta2,-0.3576178890508713
x4,~,x1,-0.31409845628107347
eta3,~,x4,-0.12049960927919687
x6,~,eta3,-0.12605679610562234
eta1,~,x6,0.8858224612714809
x5,~,x3,-0.531407173435893
x5,~,x4,0.21949334926303687
x5,~,x9,-0.391472971776157
x2,~,x5,-0.7258622839073936
x1,~,x8,-0.826192757323968
x10,~,x1,-0.8953979988060553
eta4,~,x6,0.5701403867810299
eta1,=~,y2,-0.947222058229135
eta1,=~,y3,-0.5922347966792788
eta2,=~,y5,-1.0104731170668324
eta3,=~,y7,0.6109935742549406
eta3,=~,y8,-0.8918284789454343
eta4,=~,y11,0.19752979693506156
eta4,=~,y9,-0.5523319688067206
