lhs,op,rhs,est
x3,~,eta2,-0.24975571262700222
eta3,~,x3,1.0953256210330504
x2,~,eta2,0.6178185188142511
x6,~,x1,-0.361454305324349
x6,~,x2,-0.8967806934656556
x4,~,eta2,0.37177502705746385
eta4,~,x4,0.23470727706324432
x9,~,x1,-0.29574518430495644
eta1,~,x9,-0.43096392153914737
x7,~,x4,0.28663778088758507
x8,~,x7,1.010021964390415
x10,~,x4,-0.7858908035577509
x10,~,x5,-0.880537770952703
eta1,=~,y2,0.27384279894076785
eta2,=~,y4,0.2138793880482837
eta3,=~,y6,-0.2936224241931029
eta4,=~,y8,0.2432411812447208
eta4,=~,y9,-1.0519467336823063
