lhs,op,rhs,est
x10,~,x3,0.1320599964450319
eta2,~,x10,-0.9455022009739468
eta4,~,eta1,-0.8059091315951362
eta4,~,eta2,0.22850194027693418
x7,~,x3,-0.5554669409683981
x5,~,x3,-0.17493257129226464
x4,~,x5,0.382838994127028
x4,~,x9,-0.49328640684291886
x6,~,eta1,-0.5970788144458901
x8,~,x5,0.5149015766812752
x2,~,x5,0.16947891308521582
eta3,~,x3,0.28309219802711766
x1,~,x9,0.9442602425300565
eta1,=~,y2,-0.3740716796418074
eta1,=~,y3,0.8747807496503306
eta2,=~,y5,0.11798567169567248
eta3,=~,y7,-0.1384158123327244
eta4,=~,y8,-1.0752088468280339
eta4,=~,y9,0.2652105676739904
