lhs,op,rhs,est
x8,~,x9,0.7453082264668273
x2,~,x1,-0.5230117515270638
x2,~,x8,-0.13751415122895072
x10,~,x2,0.10491727058790247
x10,~,x7,0.9034505961257857
eta4,~,x10,-0.4990097416245209
x5,~,x3,0.17145431155382446
x5,~,x8,-0.598331056339058
eta2,~,x4,-0.44110368101455083
eta2,~,x5,0.7871927977596491
eta1,~,eta2,-0.8274642032899012
x4,~,eta3,0.6763106038639557
x4,~,x6,-0.4265390996339516
eta1,=~,y2,-0.5599884184178453
eta1,=~,y3,-0.5040100882538594
eta2,=~,y5,-0.6023556903114843
eta2,=~,y6,-0.9329333583814112
eta3,=~,y8,-0.11669781360759263
eta3,=~,y9,-0.2710824052398875
eta4,=~,y11,0.1276730957645115
eta4,=~,y2,0.1319314605708458
