lhs,op,rhs,est
eta2,~,eta3,-0.9255680719763386
eta2,~,x10,0.7685155066017021
eta2,~,x5,0.955982278477801
eta2,~,x9,0.5134605321837463
x7,~,eta2,0.5728704624513844
x6,~,eta2,0.5930390708495943
x8,~,eta2,-0.4397351439578131
x8,~,eta4,1.0674598954212777
x1,~,x10,0.696928333315793
x4,~,x10,-0.8415002093923366
x2,~,eta3,-0.13490965048275627
x3,~,x2,-0.20977675884808325
eta1,~,eta3,0.4833838053670387
eta1,=~,y2,-0.395870566814561
eta2,=~,y4,0.9424601924195951
eta2,=~,y5,-0.9547439170555294
eta3,=~,y7,-1.0621164560235925
eta3,=~,y8,0.21143089657225078
eta4,=~,y11,0.3682882177941949
eta4,=~,y9,-1.0411170734179187
