lhs,op,rhs,est
eta2,~,eta3,0.2171952795930476
eta2,~,eta4,-0.29430627508282065
eta2,~,x1,-0.1589914306319142
eta2,~,x3,0.3067981221703717
x4,~,eta2,0.660925623100584
x7,~,x1,1.0625210732590904
x2,~,x6,0.6961526920300113
x2,~,x7,0.584163721706649
eta1,~,x2,-0.7139290791538585
x9,~,x1,0.20970904198166082
x8,~,x7,0.6272663745724643
x10,~,x8,-0.7620202619745878
x5,~,x10,0.21512567276178107
eta1,=~,y2,-0.6919096290821356
eta2,=~,y4,0.1967899728430012
eta2,=~,y5,-0.8811678246859
eta3,=~,y7,0.6468459458083468
eta3,=~,y8,0.3573649559272889
eta4,=~,y11,-0.36393073037261303
eta4,=~,y9,-0.5096564076990667
