lhs,op,rhs,est
eta1,~,x4,0.29491805544132793
x1,~,eta1,1.068513205858732
x1,~,x7,-0.6392533752602775
eta2,~,eta1,0.4424288944664547
eta2,~,eta4,0.7258724463957721
eta2,~,x10,-0.6556841323373879
x10,~,x9,-0.6459957817683311
eta4,~,x5,-0.1298801336637127
eta3,~,x4,-0.2805228579082435
x2,~,x3,0.5193100824493542
x2,~,x7,-0.343221577917966
x8,~,x2,-0.6011314092179261
x6,~,eta4,-0.5773732002594398
eta1,=~,y2,-0.8641083135176144
eta1,=~,y3,-0.9215326060946105
eta2,=~,y4,0.8038490048872127
eta2,=~,y6,0.7099138641481744
eta3,=~,y8,0.22654378368705788
eta3,=~,y9,-0.25109249414409646
eta4,=~,y11,0.5885516375772852
eta4,=~,y12,-0.9411234958924083
