lhs,op,rhs,est
x7,~,x2,0.21221956117877613
x10,~,eta3,0.9604661336394474
x10,~,x5,0.24461752796838734
x10,~,x7,0.9021985082196065
x9,~,x10,-0.8150504772302536
eta3,~,x4,-0.21765326258973827
x3,~,x8,-0.5290691961887547
x5,~,x3,-0.33118194355080627
x1,~,eta1,-0.5583710612315659
x1,~,eta3,-0.2153890032865759
x6,~,x1,-0.40816029407460974
eta1,~,eta4,0.29328965701204657
eta2,~,x8,0.33205359115166494
eta1,=~,y2,0.5684554248543882
eta2,=~,y4,0.37690648965612816
eta2,=~,y5,0.2655720834437189
eta3,=~,y7,-0.8132700223684566
eta4,=~,y9,1.0643890782327794
