"lhs","op","rhs","est"
"eta1","=~","y2",1.13659284396357
"eta1","=~","y3",0.711532678243625
"eta2","=~","y5",0.809841061529698
"x1","~","eta1",0.67107995331915
"x1","~","x3",-1.05904783126527
"x1","~","x5",-0.13128077326342
"x2","~","eta2",0.583963129023252
"x2","~","x4",-1.71998949133263
"x2","~","x5",-1.13918562393747
"y1","~~","y1",0.746692737230529
"y2","~~","y2",1.51561962548078
"y3","~~","y3",0.630992740129915
"y4","~~","y4",1.04036202500501
"y5","~~","y5",0.640688408973779
"x1","~~","x1",1.4930514478374
"x2","~~","x2",3.34960826913652
"eta1","~~","eta1",1.88784715189326
"eta2","~~","eta2",1.759367771548
"eta1","~~","eta2",0.0297615196053466
"x1","~~","x2",-0.0179414414541264
"x3","~~","x3",1.72818509177656
"x3","~~","x5",0.0506744279224891
"x3","~~","x4",-0.0380251518848632
"x5","~~","x5",1.57233969114443
"x5","~~","x4",-0.0771610225405992
"x4","~~","x4",1.70707935534276
