"lhs","op","rhs","est"
"eta1","=~","y2",0.862691845444138
"eta1","=~","y3",-0.449848630484438
"eta2","=~","y5",1.00357511647319
"eta2","=~","y6",1.54447784273698
"x2","~","x1",0.641183004002557
"x2","~","x4",0.405342791435809
"x2","~","x5",0.73506519781964
"x1","~","eta2",0.96802784644516
"x3","~","eta2",0.954097913964994
"eta1","~","eta2",-0.58374111560795
"y1","~~","y1",1.04464851423786
"y2","~~","y2",0.71510076327686
"y3","~~","y3",0.251730468128457
"y4","~~","y4",0.937273046082218
"y5","~~","y5",0.788980402437575
"y6","~~","y6",2.09145234940149
"x2","~~","x2",0.814195965846813
"x1","~~","x1",0.985494540607333
"x3","~~","x3",1.23070761247273
"eta1","~~","eta1",0.301045914048601
"eta2","~~","eta2",1.74508615728451
"eta1","~~","x2",0.0658656332389164
"eta1","~~","x3",0.0154970116370668
"x2","~~","x3",0.00546707710137841
"x4","~~","x4",1.74027459954287
"x4","~~","x5",0.0405896631820719
"x5","~~","x5",1.73294506614683
