"lhs","op","rhs","est"
"eta1","=~","y2",-1.42552047774359
"eta2","=~","y4",0.266986940310201
"eta2","=~","y5",2.37416327216249
"x1","~","x3",-0.175490338270663
"x2","~","x1",0.236243657410436
"x4","~","x1",-0.771822186927209
"x5","~","x4",0.966569223639544
"eta1","~","x5",0.903519817888202
"eta2","~","x1",0.742707904583108
"y1","~~","y1",1.20394654276364
"y2","~~","y2",1.86461886400015
"y3","~~","y3",1.24341252042558
"y4","~~","y4",0.0793047313550675
"y5","~~","y5",1.04985380098793
"x1","~~","x1",0.0388753072494027
"x2","~~","x2",0.0574921889817297
"x4","~~","x4",0.767354729675102
"x5","~~","x5",0.842522682696771
"eta1","~~","eta1",0.722431950206126
"eta2","~~","eta2",0.409512168362598
"eta1","~~","eta2",0.0199562145684409
"eta1","~~","x2",-0.00470044448629825
"eta2","~~","x2",-0.00459729248834625
"x3","~~","x3",1.71131343178591
