"lhs","op","rhs","est"
"eta1","=~","y2",-0.85467392977992
"eta1","=~","y3",-0.755631299323941
"eta2","=~","y5",-0.361923497028729
"eta1","~","x2",-0.63436017418676
"x4","~","eta1",0.627030730917969
"x3","~","x4",-1.3062272206987
"x5","~","x1",-0.907236467437805
"x5","~","x3",1.40190633454313
"eta2","~","x3",-0.535163371857494
"y1","~~","y1",0.922536375475226
"y2","~~","y2",0.789489110838935
"y3","~~","y3",0.704079376043944
"y4","~~","y4",1.16605426371094
"y5","~~","y5",0.12080545963485
"x4","~~","x4",0.450524471398712
"x3","~~","x3",1.90024283460117
"x5","~~","x5",3.76584520904405
"eta1","~~","eta1",0.417539796608669
"eta2","~~","eta2",0.191748383610939
"eta2","~~","x5",0.0767458843437892
"x2","~~","x2",1.69252902352273
"x2","~~","x1",0.127256416557657
"x1","~~","x1",1.68160671723883
