"lhs","op","rhs","est"
"eta1","=~","y2",0.45394267266232
"eta1","=~","y3",0.589120265240113
"eta2","=~","y5",0.911251094407254
"eta2","=~","y6",0.718966576151899
"eta2","~","x2",1.25084706144546
"eta2","~","x3",0.280156051788949
"eta2","~","x5",0.451590143611624
"x4","~","eta1",0.087563980226469
"x4","~","eta2",-0.93326012716138
"eta1","~","x1",-0.472897562173208
"y1","~~","y1",0.922017414208461
"y2","~~","y2",0.207862876071373
"y3","~~","y3",0.457787532142431
"y4","~~","y4",3.06882312964922
"y5","~~","y5",3.2416393304244
"y6","~~","y6",1.99093158563035
"x4","~~","x4",4.4554661075641
"eta1","~~","eta1",0.177267866554779
"eta2","~~","eta2",1.73987107272909
"x2","~~","x2",1.59516237292774
"x2","~~","x3",-0.0924243719458552
"x2","~~","x5",-0.03831939392513
"x2","~~","x1",0.0664692810662237
"x3","~~","x3",1.67046014085147
"x3","~~","x5",0.0213764921370844
"x3","~~","x1",-0.0531981001479758
"x5","~~","x5",1.5581566588647
"x5","~~","x1",-0.0269833990043055
"x1","~~","x1",1.68881774683162
