lhs,op,rhs,est
eta2,~,x6,0.03593132443777281
x10,~,x9,0.5540831102913769
x2,~,eta1,-0.3603447902880129
x2,~,x9,0.9068060461175907
x2,~,x8,-0.10588409444104553
x4,~,x2,0.026952632455671158
x4,~,x3,0.9279971317367383
x4,~,x7,0.20405082205077463
x5,~,x6,-0.2562226149141091
x6,~,x8,-0.20252086483211668
x9,~,x1,0.5891502603648715
eta1,=~,y2,0.7903306212046547
eta1,=~,y3,-0.7892058127286425
eta2,=~,y5,2.130640619217729
eta1,~~,eta1,1.7252160835299142
eta2,~~,eta2,0.0031372692045163234
eta2,~~,x10,0.006933665825687484
eta2,~~,x4,-0.036001426889577075
eta2,~~,x5,0.00022874892732173112
x10,~~,x10,0.22489104298612203
x10,~~,x4,0.01592785281422595
x10,~~,x5,0.005240883304210662
x2,~~,x2,0.9553092982659811
x4,~~,x4,1.0471862427031853
x4,~~,x5,0.012642246700495642
x5,~~,x5,0.06332323433292128
x6,~~,x6,0.03710228681678941
x9,~~,x9,0.4174328382017608
y1,~~,y1,0.8940844489585044
y2,~~,y2,0.5972503157818839
y3,~~,y3,0.6683183704860329
y4,~~,y4,1.1055653811456239
y5,~~,y5,0.6047192328969896
