lhs,op,rhs,est
eta2,~,eta1,-0.7486572428921273
x10,~,x9,-0.2396435219273272
x10,~,x4,-0.631414895037747
x2,~,x9,0.34499133798569176
x3,~,x9,-0.8088998733530471
x5,~,x2,-0.9363700989117221
x6,~,x9,0.5036205052181681
x7,~,x5,-0.46371506796661655
x8,~,eta1,0.46398393998723786
x9,~,x8,-0.8509701592488822
x9,~,x1,0.1679154363921428
eta1,=~,y2,0.4559926145028098
eta1,=~,y3,-0.27187820777417204
eta2,=~,y5,0.4397568539077992
eta1,~~,eta1,1.571656785797419
eta2,~~,eta2,0.5705961545479136
eta2,~~,x10,-0.019800822144762354
eta2,~~,x3,-0.050492373521544
eta2,~~,x6,0.027122802353830376
eta2,~~,x7,0.028474363744710587
x10,~~,x10,0.37190845438793807
x10,~~,x3,0.010565723623622693
x10,~~,x6,-0.005707106860620485
x10,~~,x7,-0.02697696160440869
x2,~~,x2,0.1668473407209496
x3,~~,x3,0.5912328512147892
x3,~~,x6,-0.008396536227973794
x3,~~,x7,-0.0011767552760360562
x5,~~,x5,1.0964671377695756
x6,~~,x6,0.3396460949139825
x6,~~,x7,0.024471810958638113
x7,~~,x7,0.2240574713692145
x8,~~,x8,0.24979183536010416
x9,~~,x9,0.6465687165206147
y1,~~,y1,1.1139640273492712
y2,~~,y2,0.13674201787688983
y3,~~,y3,0.05222283283485855
y4,~~,y4,0.978781986207808
y5,~~,y5,0.19361163743011944
