lhs,op,rhs,est
eta2,~,eta1,-0.09389129661932796
eta2,~,x2,-0.6916605132087585
x1,~,x7,-0.48637946161524753
x3,~,x1,0.4862381424198619
x5,~,eta1,0.19855194220981248
x6,~,x10,-0.6725636032346776
x6,~,x2,-0.8048417115874004
x6,~,x4,0.26206265946050644
x7,~,eta2,0.40133332091328333
x8,~,x7,-0.4166727216751481
x9,~,eta1,0.856923851257436
eta1,=~,y2,-0.9681530952341506
eta1,=~,y3,-0.5522952410497776
eta2,=~,y5,-0.12817192166886116
eta2,=~,y6,-0.5310202549905251
eta1,~~,eta1,1.3421010337904522
eta2,~~,eta2,0.7806211271954681
x1,~~,x1,0.18867516295771497
x3,~~,x3,0.23576018947600075
x3,~~,x5,0.009288308833616568
x3,~~,x6,-0.0416006262497977
x3,~~,x8,0.003842411307842578
x3,~~,x9,-7.251808091924617e-05
x5,~~,x5,0.03277633174189668
x5,~~,x6,0.03156285585417874
x5,~~,x8,-0.007581330978647762
x5,~~,x9,-0.00049247283634441
x6,~~,x6,1.288464383589433
x6,~~,x8,-0.013657954288236324
x6,~~,x9,0.17293773266902662
x7,~~,x7,0.18416643186569415
x8,~~,x8,0.17484194809809328
x8,~~,x9,-0.05590609207643677
x9,~~,x9,0.5831753923767958
y1,~~,y1,1.2392872062679603
y2,~~,y2,0.6534181501259934
y3,~~,y3,0.31685523924188697
y4,~~,y4,1.6694709999402144
y5,~~,y5,0.03247852054956194
y6,~~,y6,0.5757859934566033
