lhs,op,rhs,est
eta1,~,x8,-0.38809513753038494
eta2,~,x8,0.3143935893699035
x2,~,x1,0.749311215501912
x2,~,x10,-0.7152241590602008
x2,~,x8,1.080332973801016
x5,~,x3,-0.248223715364703
x6,~,x4,0.19389686304286133
x6,~,x8,0.20144621964196885
x7,~,x8,0.7195741607031313
x9,~,x3,1.0124623863880928
x9,~,x8,-0.6899833609233844
eta1,=~,y2,0.5432565379323444
eta1,=~,y3,-1.1997974454443419
eta2,=~,y5,-0.8959565138289878
eta2,=~,y6,-0.18805615002691878
eta1,~~,eta1,0.2143481250499494
eta1,~~,eta2,-0.06253726447528875
eta1,~~,x2,-0.07884140476074751
eta1,~~,x5,0.004896398549582779
eta1,~~,x6,-0.0031319139262313573
eta1,~~,x7,0.013677130606009967
eta1,~~,x9,0.0008800013258378268
eta2,~~,eta2,0.135089381373973
eta2,~~,x2,-0.014055229610809369
eta2,~~,x5,0.0030601206178650507
eta2,~~,x6,-0.015580329835265284
eta2,~~,x7,0.02645195283792932
eta2,~~,x9,-0.05180702918024071
x2,~~,x2,2.219955664172101
x2,~~,x5,0.00407918304380979
x2,~~,x6,-0.031324977396387434
x2,~~,x7,-0.04113441044897186
x2,~~,x9,-0.06637337791179786
x5,~~,x5,0.06735042482722736
x5,~~,x6,0.010419182248839922
x5,~~,x7,0.028228890033724127
x5,~~,x9,-0.008957534734419893
x6,~~,x6,0.06940075727323511
x6,~~,x7,-0.0037689362810526443
x6,~~,x9,-0.02439581713337954
x7,~~,x7,0.5735998403999801
x7,~~,x9,-0.08867857828751936
x9,~~,x9,1.432842241335433
y1,~~,y1,0.9478336989248941
y2,~~,y2,0.24115260698906404
y3,~~,y3,1.2656387951973205
y4,~~,y4,0.9868498309902036
y5,~~,y5,0.7021177050570621
y6,~~,y6,0.03455767962937402
