lhs,op,rhs,est
eta1,~,eta2,0.5005878173966942
eta1,~,x5,0.9484171919413126
eta1,~,x3,0.9214329810451208
eta1,~,x9,-0.04445595268627265
x10,~,eta1,-0.09518738127809377
x10,~,x8,-0.3458649810223573
x4,~,x10,0.28507673297935643
x4,~,x6,-0.9100863463469631
x4,~,x1,0.09259438854937344
x5,~,x7,-0.6030348879124984
x6,~,x2,-0.6546261475943584
eta1,=~,y2,-0.9166943799969056
eta1,=~,y3,-0.19778014441056982
eta2,=~,y5,-0.9425405076624968
eta2,=~,y6,-0.5477047906448218
eta1,~~,eta1,2.282391245077079
eta2,~~,eta2,1.5661116670567177
x10,~~,x10,0.2677766420294065
x4,~~,x4,1.0987327338590547
x5,~~,x5,0.42229852783388566
x6,~~,x6,0.48382490859148136
y1,~~,y1,3.6127352544889293
y2,~~,y2,2.9498549640769927
y3,~~,y3,0.13000076707408953
y4,~~,y4,0.890292249505686
y5,~~,y5,0.7460750715216415
y6,~~,y6,0.33919544824840464
