lhs,op,rhs,est
eta2,~,x8,0.759302936294157
x1,~,x2,-1.0863857220759612
x1,~,x5,0.10082118791484251
x2,~,x9,-0.811009704548953
x3,~,x2,0.4810614772255176
x3,~,x4,0.0785012884944313
x3,~,x10,0.7269743280173021
x4,~,x8,-0.21398233283086193
x6,~,x3,-0.23045391629926654
x8,~,eta1,-0.997618849682664
x9,~,x7,0.855614115491811
eta1,=~,y2,-0.6443805889544435
eta2,=~,y4,-0.19852064778624648
eta1,~~,eta1,1.5889709528716536
eta2,~~,eta2,0.7385756431745168
eta2,~~,x1,-0.06716625659772822
eta2,~~,x6,0.09918448639802763
x1,~~,x1,0.9923799429721241
x1,~~,x6,0.03279394570861435
x2,~~,x2,0.5027573923770218
x3,~~,x3,0.7997404275356043
x4,~~,x4,0.048571007353539856
x6,~~,x6,0.14471773495259369
x8,~~,x8,1.422450055626135
x9,~~,x9,0.6828207983936347
y1,~~,y1,0.8649212546899527
y2,~~,y2,0.4438519503297418
y3,~~,y3,1.0291674795380001
y4,~~,y4,0.036475877157002
