lhs,op,rhs,est
eta1,~,x6,1.052878752811464
eta1,~,x3,0.6499966463755208
eta1,~,x4,0.5346164101692008
eta1,~,x9,0.17968357971653073
eta2,~,x4,1.078482921015972
x1,~,x2,0.09515351737561727
x10,~,x4,-0.4975508811025668
x2,~,eta1,-0.00688979063076404
x5,~,x4,0.12805986375636028
x6,~,x7,0.5006964003689681
x7,~,x8,0.8502890497450724
eta1,=~,y2,0.5638804169417232
eta2,=~,y4,0.5108263623405789
eta2,=~,y5,0.2715441408747988
eta1,~~,eta1,2.4596578480104445
eta2,~~,eta2,1.128338354829453
eta2,~~,x1,0.014623500338661577
eta2,~~,x10,-0.046224839561705
eta2,~~,x5,0.006727257850439645
x1,~~,x1,0.10489131234465328
x1,~~,x10,-0.0015083843315299948
x1,~~,x5,0.001095424305500724
x10,~~,x10,0.312924427927067
x10,~~,x5,-0.0032947164909107205
x2,~~,x2,0.041077503913679
x5,~~,x5,0.014169575099569391
x6,~~,x6,0.20519588707799888
x7,~~,x7,0.6844947847413848
y1,~~,y1,3.4890703655267727
y2,~~,y2,1.9388649733959855
y3,~~,y3,1.2073942858285203
y4,~~,y4,0.2087305190836986
y5,~~,y5,0.05537109380224761
