lhs,op,rhs,est
eta1,~,x5,0.3849663098456698
eta2,~,x5,1.1096736686318673
x1,~,x10,0.5369180400288575
x10,~,x2,1.147055360366232
x3,~,x6,0.4597947734203223
x4,~,x6,-0.5995733114820712
x4,~,x9,-0.14235042200750256
x6,~,x10,-1.094983189207451
x6,~,x5,0.7383111717381879
x7,~,x3,-1.0369389908528814
x8,~,x10,-0.6661537986215157
eta1,=~,y2,0.8070545760143416
eta1,=~,y3,-0.5738722291159776
eta2,=~,y5,0.7207342597184331
eta1,~~,eta1,0.2068535113980921
eta1,~~,eta2,-0.03810608668294517
eta1,~~,x1,0.0233853546029937
eta1,~~,x4,0.3217835623400952
eta1,~~,x7,0.23877068673135332
eta1,~~,x8,-0.02146714377201749
eta2,~~,eta2,0.8348492259138646
eta2,~~,x1,-0.018359147833589096
eta2,~~,x4,0.65702191567682
eta2,~~,x7,0.4407484698006991
eta2,~~,x8,-0.08579518557355068
x1,~~,x1,0.3310677481086318
x1,~~,x4,0.2596318965356765
x1,~~,x7,0.3320671023581135
x1,~~,x8,-0.0671755575654042
x10,~~,x10,1.1186511278761138
x3,~~,x3,0.7757902880816315
x4,~~,x4,1.2297481126498455
x4,~~,x7,0.48930056050603904
x4,~~,x8,-0.3662595134019197
x6,~~,x6,1.4765976800366278
x7,~~,x7,1.1920397185971487
x7,~~,x8,-0.32197780775744306
x8,~~,x8,0.606074532515351
y1,~~,y1,0.8496417454853289
y2,~~,y2,0.6960091584699128
y3,~~,y3,0.20538310478361912
y4,~~,y4,1.019576543720678
y5,~~,y5,0.5324496835667031
