lhs,op,rhs,est
eta1,~,x6,-0.9863257394078871
eta2,~,x10,1.1105897028859633
x1,~,x4,0.3169207774185368
x1,~,x8,0.8197049177841265
x10,~,x9,-0.38842957871813677
x2,~,x4,0.7060464344034043
x3,~,x4,0.7694753191724488
x4,~,eta2,-0.36701652006153135
x5,~,x6,-0.4810405254527593
x5,~,x7,0.4197965203575679
x6,~,eta2,0.32809151232583394
eta1,=~,y2,-0.3129496413581188
eta1,=~,y3,-0.5456369500793802
eta2,=~,y5,0.7984280385882779
eta1,~~,eta1,0.6653331376523609
eta1,~~,x1,-0.0070618524707181
eta1,~~,x2,-0.02550411000528093
eta1,~~,x3,-0.07192424707321898
eta1,~~,x5,0.0454492831743453
eta2,~~,eta2,1.1170105126880556
x1,~~,x1,0.8366529769000149
x1,~~,x2,-0.029977630687662248
x1,~~,x3,0.0734799946126862
x1,~~,x5,-0.05132489457236773
x10,~~,x10,0.15199869300989619
x2,~~,x2,0.473317172612831
x2,~~,x3,0.02173024464198478
x2,~~,x5,-0.033842115602177515
x3,~~,x3,0.4928258720882888
x3,~~,x5,-0.04713939508155919
x4,~~,x4,0.15406790379095112
x5,~~,x5,0.37565618328286776
x6,~~,x6,0.07955832357942913
y1,~~,y1,0.9114671891294542
y2,~~,y2,0.10513581032295469
y3,~~,y3,0.3839834475091416
y4,~~,y4,0.8668579263823197
y5,~~,y5,0.7076025381433705
