lhs,op,rhs,est
eta1,~,eta2,-0.46777892016709166
eta1,~,x1,-0.9552645992440425
eta1,~,x10,0.26058295948883686
x1,~,x2,-0.944609307590547
x10,~,x3,-0.90105162957042
x4,~,x10,-0.7307047406241165
x5,~,x2,0.23968865430644154
x7,~,x1,0.555218896427483
x7,~,x6,1.0648407253368337
x8,~,eta1,0.16200093087148393
x9,~,x1,0.416875594357555
eta1,=~,y2,0.4036845531746126
eta1,=~,y3,0.6462613791793671
eta2,=~,y5,-0.6072382073321095
eta2,=~,y6,-0.9320624272374851
eta1,~~,eta1,1.4597824319867228
eta2,~~,eta2,1.5469133877718715
x1,~~,x1,0.8753251229958854
x10,~~,x10,0.8499574981484939
x4,~~,x4,0.40920313023403243
x4,~~,x5,-0.0029024572007283022
x4,~~,x7,-0.009290976412680096
x4,~~,x8,-0.02754976905851265
x4,~~,x9,0.04472514195022144
x5,~~,x5,0.04785257856618201
x5,~~,x7,0.016191214927035492
x5,~~,x8,0.007096339048186496
x5,~~,x9,-0.007052728510242265
x7,~~,x7,1.372389624716828
x7,~~,x8,-0.02528370566007224
x7,~~,x9,0.027995882983951323
x8,~~,x8,0.06845996226515863
x8,~~,x9,-0.001487636561408239
x9,~~,x9,0.18864008991199704
y1,~~,y1,2.8342505068174204
y2,~~,y2,0.6745270848795218
y3,~~,y3,1.6556712982260768
y4,~~,y4,1.1607065182413323
y5,~~,y5,0.35350113334605254
y6,~~,y6,0.5679950588267559
