lhs,op,rhs,est
eta1,~,x1,-0.6473074345127444
x1,~,x2,0.314704546535106
x1,~,x10,-0.2082335899179192
x1,~,x7,0.3155909918142052
x2,~,x3,-0.890690439112781
x4,~,eta2,0.38081724343119794
x4,~,x6,-0.9060485430463995
x6,~,x9,0.8820143287754674
x6,~,x7,-0.13460109535598963
x8,~,x1,0.5935304654194549
x9,~,x5,0.459795322633857
eta1,=~,y2,-0.6250522135813458
eta2,=~,y4,0.611695322545475
eta1,~~,eta1,1.180896892778438
eta1,~~,x4,0.115934432608103
eta1,~~,x8,-0.039136502536879836
eta2,~~,eta2,1.5134822536233354
x1,~~,x1,0.2994366509385301
x2,~~,x2,0.8346456175149498
x4,~~,x4,1.8521692515530812
x4,~~,x8,-0.06372259010419115
x6,~~,x6,1.0109783658995015
x8,~~,x8,1.386594819335751
x9,~~,x9,0.2581997367360554
y1,~~,y1,2.769052600465816
y2,~~,y2,1.8845992618641079
y3,~~,y3,1.2750009279976122
y4,~~,y4,0.23835606111484473
