lhs,op,rhs,est
eta1,~,x8,0.2107549208984549
eta1,~,x2,0.07322921112558463
eta2,~,x5,-0.729980436375673
eta2,~,x3,0.805914017129398
x10,~,x6,0.49989416513727203
x5,~,eta1,0.9298303274937776
x7,~,eta1,-0.7791585209988268
x7,~,x10,-0.4519426106154753
x8,~,x1,-0.9237511797116568
x9,~,x7,-0.07511771736001355
x9,~,x4,-0.9825289222665431
eta1,=~,y2,-0.744807284505
eta1,=~,y3,1.1446101007810383
eta2,=~,y5,0.16061088540746754
eta1,~~,eta1,0.05327007513291768
eta2,~~,eta2,0.982179521958949
eta2,~~,x9,0.19480234779762515
x10,~~,x10,0.26996426567196435
x5,~~,x5,0.5607686412234391
x7,~~,x7,0.4673453188738257
x8,~~,x8,0.8641824181352555
x9,~~,x9,0.949036985400025
y1,~~,y1,1.8142394594443696
y2,~~,y2,0.6477145578210419
y3,~~,y3,1.612498120518976
y4,~~,y4,1.9430044578462347
y5,~~,y5,0.056577505525749375
