lhs,op,rhs,est
eta2,~,x1,0.5444597038866751
x1,~,eta1,-0.6966360632885935
x1,~,x10,-0.10199989320219874
x1,~,x2,0.14634407004633318
x10,~,x5,-0.8889080096527073
x3,~,eta1,-0.9179143689106619
x4,~,x9,-0.18717776613123416
x6,~,eta1,0.44386358509657997
x7,~,x1,1.0822858352532925
x8,~,x7,0.39125722347184716
x9,~,x1,0.7264117696313027
eta1,=~,y2,-0.9045959025219906
eta2,=~,y4,-0.17737448318243992
eta2,=~,y5,0.6733283977557922
eta1,~~,eta1,1.5931303972830644
eta2,~~,eta2,0.44207665465963436
eta2,~~,x3,0.05179470105864942
eta2,~~,x4,0.004676127024564234
eta2,~~,x6,-0.0010638007555136004
eta2,~~,x8,-0.015140130139649615
x1,~~,x1,0.3593114050827978
x10,~~,x10,0.7505444070045367
x3,~~,x3,0.8935134412541189
x3,~~,x4,0.0003450648922869821
x3,~~,x6,-0.07917158512853306
x3,~~,x8,0.01721151018122417
x4,~~,x4,0.07151477202537523
x4,~~,x6,-0.009840520131490829
x4,~~,x8,-0.005555784935830379
x6,~~,x6,0.24428925972464136
x6,~~,x8,-0.022739139962807364
x7,~~,x7,2.2920321216585062
x8,~~,x8,0.22065170145883994
x9,~~,x9,1.5727461750328597
y1,~~,y1,1.0497318759515473
y2,~~,y2,0.6621043972478982
y3,~~,y3,0.8781285713812356
y4,~~,y4,0.03603666872224385
y5,~~,y5,0.575478807233527
