"lhs","op","rhs","est"
"eta1","=~","y2",0.696763304393224
"eta1","=~","y3",0.718164679940198
"x2","~","x1",-0.902163679698157
"x2","~","x4",-0.200309666767712
"x2","~","x9",-0.927637374109911
"x7","~","x2",-0.0599938381124685
"x1","~","x5",0.727321958911206
"x1","~","x7",-3.00372192395911
"eta1","~","x2",0.258562810645327
"x5","~","x3",0.811907151173799
"x5","~","x8",-0.0955030418888148
"x6","~","x2",0.364087847581704
"x4","~","x10",1.00712292218234
"y1","~~","y1",1.01878281027356
"y2","~~","y2",0.396628001524812
"y3","~~","y3",0.569725353284286
"x2","~~","x2",1.95441027974023
"x7","~~","x7",0.0364559126074636
"x1","~~","x1",1.63086431064721
"x5","~~","x5",0.602831140925823
"x6","~~","x6",1.78605743771704
"x4","~~","x4",1.04764660794073
"eta1","~~","eta1",1.20225888576795
"eta1","~~","x6",0.799586608013757
