"lhs","op","rhs","est"
"eta1","=~","y2",-0.391319023998964
"eta1","=~","y3",-0.539638859305433
"x1","~","x8",0.352109446423207
"x1","~","x9",0.792509833373293
"x6","~","x1",0.163442826909826
"x6","~","x2",-0.163105771235383
"x6","~","x7",-0.264984334989885
"x5","~","x6",0.680519213492947
"x4","~","x5",-0.412918638159727
"x2","~","eta1",0.320363674933764
"x2","~","x3",0.356462982579754
"x3","~","x6",0.821768553227584
"x10","~","x2",-0.127761327654781
"y1","~~","y1",1.16852107219893
"y2","~~","y2",0.181493465028551
"y3","~~","y3",0.207515229476096
"x1","~~","x1",0.663348355457225
"x6","~~","x6",1.26170645888702
"x5","~~","x5",1.40466740563436
"x4","~~","x4",0.3239412946182
"x2","~~","x2",0.441917981936034
"x3","~~","x3",1.76626830419508
"x10","~~","x10",0.2927067760574
"eta1","~~","eta1",1.53721096006496
"x4","~~","x10",-0.0220338864612202
