"lhs","op","rhs","est"
"eta1","=~","y2",0.122175645571188
"eta1","=~","y3",0.246131966827922
"x4","~","x5",-0.339349654187823
"x4","~","x9",0.998219051989086
"x3","~","x4",-0.205304737710126
"x7","~","x3",0.648216573194446
"x5","~","eta1",-0.20933993799269
"x5","~","x2",0.837399210265931
"x5","~","x3",-0.336109260925104
"x6","~","x5",-0.206439777989039
"x6","~","x8",-0.314364688596196
"x1","~","x2",-0.22689975300524
"x10","~","x5",0.730815831386195
"y1","~~","y1",0.997509388445034
"y2","~~","y2",0.0164688866106549
"y3","~~","y3",0.0562359802223839
"x4","~~","x4",1.03934700666238
"x3","~~","x3",0.080422189644719
"x7","~~","x7",0.969200022975307
"x5","~~","x5",0.694372519024617
"x6","~~","x6",0.150752582873098
"x1","~~","x1",0.0547297484566712
"x10","~~","x10",1.1659199206232
"eta1","~~","eta1",1.85141587872661
"x7","~~","x6",0.00844976696053606
"x7","~~","x1",0.0130353492640376
"x7","~~","x10",-0.00535835146864378
"x6","~~","x1",0.00427014079928873
"x6","~~","x10",-0.0286638537884417
"x1","~~","x10",0.00388954406732181
