"lhs","op","rhs","est"
"eta1","=~","y2",0.111378121240398
"eta1","=~","y3",-1.06773119656204
"x9","~","eta1",0.964142760611618
"x9","~","x1",-1.13111719149464
"x4","~","eta1",0.430152686855659
"x4","~","x3",0.582707126718885
"x7","~","x4",-0.466870758724101
"x7","~","x8",1.0635853261701
"x5","~","x7",0.40380247786097
"x8","~","x5",-0.828607054195928
"x1","~","x2",-0.573837514847718
"x10","~","x7",0.218023031546805
"x6","~","x2",1.10044691954798
"y1","~~","y1",1.01156096573725
"y2","~~","y2",0.0103276370222764
"y3","~~","y3",0.92100325933016
"x9","~~","x9",1.96153857927525
"x4","~~","x4",0.59719887485156
"x7","~~","x7",1.40879093081222
"x5","~~","x5",1.02607681817671
"x8","~~","x8",0.735845643441543
"x1","~~","x1",0.291695861765049
"x10","~~","x10",1.62237899908397
"x6","~~","x6",1.36343218678109
"eta1","~~","eta1",1.46028502770202
"x9","~~","x10",0.101681513328386
"x9","~~","x6",0.0132516073989368
"x10","~~","x6",0.0335504493430324
