"lhs","op","rhs","est"
"eta1","=~","y2",-0.165648116080639
"x2","~","x1",-1.02105351438323
"x2","~","x6",-0.296008554634886
"x4","~","x2",0.50145965398889
"x4","~","x9",1.06569620791428
"eta1","~","x4",0.219979069316081
"x8","~","eta1",-0.975775907605954
"x9","~","x8",0.405292961065169
"x10","~","eta1",0.451355905362985
"x5","~","x8",0.147671281292544
"x7","~","x1",-0.252594609454834
"x3","~","eta1",0.570301584419208
"y1","~~","y1",0.922532409881547
"y2","~~","y2",0.0654650718948215
"x2","~~","x2",1.11639856659055
"x4","~~","x4",1.01805801846868
"x8","~~","x8",1.03242885751819
"x9","~~","x9",0.136209812789195
"x10","~~","x10",0.499298100844745
"x5","~~","x5",0.0224154915363341
"x7","~~","x7",0.0640496935802767
"x3","~~","x3",0.472948118996729
"eta1","~~","eta1",0.274026928532275
"x10","~~","x5",-0.00208269573034842
"x10","~~","x7",-0.00282796280020392
"x10","~~","x3",0.0661705196944163
"x5","~~","x7",-5.41057480922557e-05
"x5","~~","x3",0.00190399338137558
"x7","~~","x3",-0.0115521795200723
