"lhs","op","rhs","est"
"eta1","=~","y2",-0.532575859386143
"x5","~","x1",0.606995195296274
"x5","~","x3",-0.706604212192425
"x5","~","x8",-0.806134164137114
"x9","~","x5",0.0682256049054396
"x4","~","eta1",0.875233855776495
"x4","~","x1",1.01564646583794
"x7","~","x10",0.316160580313796
"x7","~","x4",0.0936986916578176
"x6","~","x1",0.243676959814671
"x2","~","x1",0.129114025557141
"y1","~~","y1",1.17272004953701
"y2","~~","y2",0.221530491740386
"x5","~~","x5",1.36984666113667
"x9","~~","x9",0.136026316870447
"x4","~~","x4",1.47163494230664
"x7","~~","x7",0.134683827295987
"x6","~~","x6",0.0602933642258908
"x2","~~","x2",0.0158535257648678
"eta1","~~","eta1",1.31369029752643
"x9","~~","x7",0.0097537483716581
"x9","~~","x6",-0.00101394982317898
"x9","~~","x2",-0.000376816127454225
"x7","~~","x6",-0.00633110851164406
"x7","~~","x2",0.00152039084786298
"x6","~~","x2",0.000298381189297081
