"lhs","op","rhs","est"
"eta1","=~","y2",-1.20581693894261
"x2","~","x10",-0.628339183880462
"x2","~","x9",-0.24453053569024
"x4","~","x2",-0.378724109110156
"x7","~","x4",0.715549833993785
"x8","~","x3",0.347695732559956
"x8","~","x4",0.331035447238736
"x6","~","x2",0.312523570150575
"x9","~","x1",0.972463288056796
"x9","~","x4",0.543529244025997
"x5","~","x9",0.194476058409832
"eta1","~","x2",0.347274958534876
"y1","~~","y1",1.12199491143084
"y2","~~","y2",0.965100073830047
"x2","~~","x2",0.499397517384818
"x4","~~","x4",0.251807824260185
"x7","~~","x7",0.530289836991421
"x8","~~","x8",0.226659523578978
"x6","~~","x6",0.276768775986548
"x9","~~","x9",1.52729084356222
"x5","~~","x5",0.644505609490452
"eta1","~~","eta1",0.301464240469315
"eta1","~~","x7",-0.0206515041442947
"eta1","~~","x8",-0.0233281543905892
"eta1","~~","x6",0.0336851786312205
"eta1","~~","x5",-0.0483907409950134
"x7","~~","x8",0.00373475532994855
"x7","~~","x6",-0.0260323686875383
"x7","~~","x5",-0.00723642210124618
"x8","~~","x6",0.00703028377568755
"x8","~~","x5",-0.0135868029266854
"x6","~~","x5",-0.0392308373762202
