"lhs","op","rhs","est"
"eta1","=~","y2",1.07128071169285
"x10","~","x3",0.753076186213445
"x10","~","x6",-0.506613216890604
"x5","~","x10",-0.232803973983768
"x7","~","x5",0.102002853204964
"x6","~","x2",0.412607960773964
"x6","~","x7",0.329164595023574
"eta1","~","x7",0.535971215756068
"x4","~","eta1",0.388805656180583
"x8","~","x5",-0.46742061679419
"x9","~","x5",-0.518103171165956
"x1","~","x9",-0.501363407025733
"y1","~~","y1",1.00974200150437
"y2","~~","y2",0.408850328200834
"x10","~~","x10",0.852599727319461
"x5","~~","x5",0.140244120935068
"x7","~~","x7",0.0112850272796835
"x6","~~","x6",0.468016576304612
"x4","~~","x4",0.433984451860382
"x8","~~","x8",0.223411310807377
"x9","~~","x9",0.286660008434717
"x1","~~","x1",0.262619272429957
"eta1","~~","eta1",0.184331468037251
"x4","~~","x8",0.000888990952158783
"x4","~~","x1",0.0126273550018805
"x8","~~","x1",-0.00775211977929278
