"lhs","op","rhs","est"
"eta1","=~","y2",0.581894348362817
"eta1","=~","y3",-1.19368001225862
"x3","~","x4",0.241125851125591
"x3","~","x7",-0.652656350564128
"eta1","~","x3",-0.00630904280557182
"x6","~","x4",0.701254071065191
"x6","~","x9",-0.744625900098045
"x8","~","x3",-0.034754405214915
"x7","~","x2",1.05098043213411
"x7","~","x8",-0.272156395812266
"x10","~","x1",-0.307450834594893
"x10","~","x4",-0.87079538199765
"x10","~","x5",-0.669852611878983
"y1","~~","y1",1.05825350772114
"y2","~~","y2",0.154993030883085
"y3","~~","y3",0.316652811083127
"x3","~~","x3",0.898441504861041
"x6","~~","x6",0.991573390845799
"x8","~~","x8",0.819135957178473
"x7","~~","x7",1.12808862090721
"x10","~~","x10",1.30617554092146
"eta1","~~","eta1",0.0237016789938695
"eta1","~~","x6",0.00638294222633589
"eta1","~~","x10",-0.0146295254094704
"x6","~~","x10",0.0401329422262995
