"lhs","op","rhs","est"
"eta1","=~","y2",-0.96362965704075
"eta1","=~","y3",0.336111908004206
"x6","~","x2",0.558636105003818
"x6","~","x7",0.160875068066896
"eta1","~","x6",1.04450677205735
"x9","~","x6",-0.13459686995087
"x9","~","x8",-0.316448722800287
"x2","~","x10",0.212228594057687
"x2","~","x9",0.886905222656629
"x4","~","x5",-0.335110062301161
"x4","~","x7",-0.134084993736404
"x3","~","x4",-0.715508736707613
"x1","~","x2",0.178061895807321
"y1","~~","y1",1.66719281539951
"y2","~~","y2",1.91066119284508
"y3","~~","y3",0.207520851996386
"x6","~~","x6",0.417116521798867
"x9","~~","x9",0.135104699029916
"x2","~~","x2",0.899541271410809
"x4","~~","x4",0.141860379182785
"x3","~~","x3",0.68008118765579
"x1","~~","x1",0.0646654094389261
"eta1","~~","eta1",2.20800524090911
"eta1","~~","x3",0.0632389041542428
"eta1","~~","x1",-0.00991875070794671
"x3","~~","x1",0.0104662634889616
