"lhs","op","rhs","est"
"eta1","=~","y2",-0.238002234596635
"x6","~","eta1",0.541611436766787
"x6","~","x2",0.197520690956739
"x6","~","x8",-0.912460937467825
"x10","~","x4",-0.714346867368256
"x10","~","x6",0.107267285630918
"x10","~","x9",0.503138339650225
"x2","~","x10",-0.51715652581005
"x2","~","x5",-0.171726580882904
"x1","~","x10",-0.423990291723348
"x5","~","x3",-0.615473395918384
"x7","~","x8",0.482688447564704
"y1","~~","y1",1.216407051892
"y2","~~","y2",0.0419880754177143
"x6","~~","x6",1.3306315983384
"x10","~~","x10",1.92395707184379
"x2","~~","x2",1.80474120955662
"x1","~~","x1",1.38758196584272
"x5","~~","x5",0.376807047253605
"x7","~~","x7",0.238365928989399
"eta1","~~","eta1",1.48954614694301
"x1","~~","x7",0.0084363219971301
