"lhs","op","rhs","est"
"eta1","=~","y2",-1.22317827448487
"eta1","=~","y3",0.157749765506357
"eta2","=~","y5",1.3885191926431
"eta2","=~","y6",-0.830648336499237
"x5","~","eta2",1.04903943961907
"x5","~","x2",-1.3072370404312
"x3","~","x2",0.48254564064766
"x1","~","eta1",-0.2688606264958
"x1","~","x3",-1.39408187043724
"eta2","~","x4",0.667080575311023
"y1","~~","y1",1.02513857073203
"y2","~~","y2",1.39142346739137
"y3","~~","y3",0.0251579784811308
"y4","~~","y4",0.955407941452293
"y5","~~","y5",2.42399209540426
"y6","~~","y6",0.856445648285712
"x5","~~","x5",3.18176689474962
"x3","~~","x3",0.204471743131794
"x1","~~","x1",1.86324590869156
"eta1","~~","eta1",1.75251463026291
"eta2","~~","eta2",0.424452226146089
"x5","~~","x1",-0.0485157043072533
"x2","~~","x2",1.67893632716832
"x2","~~","x4",-0.0677699157724254
"x4","~~","x4",1.64051133011004
