"lhs","op","rhs","est"
"eta1","=~","y2",0.243207118649143
"eta2","=~","y4",0.157830000155319
"eta2","=~","y5",-1.31636209887721
"x5","~","x4",-0.305359538726499
"eta2","~","x5",-0.391890257615926
"x3","~","eta2",-0.819517463844491
"x2","~","x5",1.02070966706722
"eta1","~","x1",-0.733474659136916
"eta1","~","x2",1.05608208084647
"y1","~~","y1",2.09160988371694
"y2","~~","y2",0.0826647026377055
"y3","~~","y3",1.09734787599653
"y4","~~","y4",0.0334778567600322
"y5","~~","y5",0.950986623856252
"x5","~~","x5",0.0948611060368555
"x3","~~","x3",0.467207208781774
"x2","~~","x2",1.15343342663334
"eta1","~~","eta1",1.51830295185335
"eta2","~~","eta2",0.208186683316215
"eta1","~~","x3",0.0702391590254177
"x4","~~","x4",1.70911570301372
"x4","~~","x1",-0.0373199798819498
"x1","~~","x1",1.64282068587924
