lhs,op,rhs,est
x2,~,x9,-0.11847221609962764
x3,~,x10,-0.45270908877157384
x4,~,x10,-0.6647521172819456
x5,~,x2,-0.942925067539757
x5,~,x3,-0.7344061734890689
x5,~,x1,0.6131510741512136
x7,~,eta1,0.15551096960506214
x8,~,x7,0.16704611431947605
x8,~,x1,0.5126688027527198
x8,~,x6,-0.9124404237388298
eta1,=~,y2,0.8068747393475633
eta1,=~,y3,-0.43664273844090234
eta1,~~,eta1,1.6035629034913867
x2,~~,x2,0.011599147583102303
x3,~~,x3,0.20267007857343688
x4,~~,x4,0.36235726936935525
x4,~~,x5,0.03438657907457833
x4,~~,x8,0.0708177080928984
x5,~~,x5,1.739256166933263
x5,~~,x8,-0.02617736601033086
x7,~~,x7,0.02415662714378644
x8,~~,x8,1.0492513457035344
y1,~~,y1,1.0397201814949892
y2,~~,y2,0.6655143690974094
y3,~~,y3,0.18038289902081192
