lhs,op,rhs,est
eta1,~,x2,-0.5369142938884365
eta1,~,x5,-0.040247152384811705
x1,~,x3,-0.29727984056284346
x10,~,x9,1.2496647713509592
x2,~,x1,-0.5458666388834476
x2,~,x7,-0.35124711233927614
x4,~,eta1,0.6163508702247652
x5,~,x9,1.0525878694731643
x6,~,x3,0.7998929514870475
x8,~,eta1,-0.20430753456504433
x9,~,eta1,-0.051586755997381134
eta1,=~,y2,0.0854934327043119
eta1,=~,y3,0.20659662918967311
eta1,~~,eta1,0.864228578930437
x1,~~,x1,0.07937207656675858
x10,~~,x10,1.0880877584280246
x10,~~,x4,-0.029967432276532542
x10,~~,x6,0.03864951540155999
x10,~~,x8,-0.0020097282679965678
x2,~~,x2,0.3755249556111993
x4,~~,x4,0.7204470575984813
x4,~~,x6,0.004786176955273583
x4,~~,x8,0.01266655637386084
x5,~~,x5,0.42991455687090296
x6,~~,x6,0.6840646243996555
x6,~~,x8,0.016388259235886805
x8,~~,x8,0.16753521530280827
x9,~~,x9,0.010633721226400796
y1,~~,y1,2.1715396363661985
y2,~~,y2,0.023837757311967866
y3,~~,y3,0.17384926980878615
