lhs,op,rhs,est
x1,~,x8,0.23489802007487068
x10,~,eta1,0.3605306632529191
x10,~,x9,0.5165782888806344
x2,~,x1,0.5708178870657185
x3,~,x9,-0.9185208651991715
x4,~,x10,-0.1570660504599794
x4,~,x7,0.2685034077618302
x6,~,x1,-1.0909974622412284
x6,~,x7,-0.7515198238741728
x9,~,x5,-0.725310984415525
eta1,=~,y2,-0.6425536694518892
eta1,=~,y3,-0.3381800958258984
eta1,~~,eta1,1.2679840786086782
x1,~~,x1,0.06231690154727923
x10,~~,x10,0.4745811500358502
x2,~~,x2,0.40199557789021706
x2,~~,x3,-0.036065030368527616
x2,~~,x4,-0.006747035300343514
x2,~~,x6,-0.05188257891643248
x3,~~,x3,0.797640305192566
x3,~~,x4,-0.014246988769057816
x3,~~,x6,0.035878323324416365
x4,~~,x4,0.29432022886971126
x4,~~,x6,0.04327746424163872
x6,~~,x6,1.6787360554032686
x9,~~,x9,0.5233311436610577
y1,~~,y1,0.8699101789103538
y2,~~,y2,0.29133906167459916
y3,~~,y3,0.12728104741664792
