lhs,op,rhs,est
eta1,~,x5,-0.8429513357428203
x10,~,x7,-0.11204733870516129
x2,~,x10,0.7453900459354915
x3,~,eta1,-0.24424916229822347
x4,~,x7,-0.6885485699966211
x4,~,x1,0.40955171398464246
x6,~,x8,-0.0035932844183848727
x6,~,x9,-0.9463238350953272
x7,~,x8,0.00025895706005566095
x8,~,eta1,-0.12280341096842284
x8,~,x4,-0.47837494088147825
eta1,=~,y2,-0.3430545953675926
eta1,=~,y3,-0.41220409806210584
eta1,~~,eta1,0.489180597849031
x10,~~,x10,0.011522187292324165
x2,~~,x2,0.5319688556417322
x2,~~,x3,-0.008397902415919182
x2,~~,x6,0.025593293129806977
x3,~~,x3,0.06621309511231475
x3,~~,x6,0.011560041893707873
x4,~~,x4,0.9183048023644854
x6,~~,x6,1.0851780520650343
x7,~~,x7,0.07290871697011357
x8,~~,x8,0.41047950468077393
y1,~~,y1,0.8940378499254763
y2,~~,y2,0.11911962010087716
y3,~~,y3,0.15492255809416772
