lhs,op,rhs,est
x1,~,x2,-0.028246769819451185
x2,~,x4,0.9034064985436921
x2,~,x3,0.39528124793035085
x2,~,x5,-0.5104168504169088
x2,~,x8,-0.9062558693525207
x4,~,x10,0.9431000850937084
x7,~,eta1,0.5173730276096362
x7,~,x2,0.033381736817287594
x7,~,x6,0.6672747266907876
x9,~,x6,-0.4646208405572413
eta1,=~,y2,1.0367644791493091
eta1,~~,eta1,1.3877903621818708
x1,~~,x1,0.32805321225247125
x1,~~,x7,0.07031378537376835
x1,~~,x9,-0.010492367515366353
x2,~~,x2,2.240965659873744
x4,~~,x4,0.8761563010277662
x7,~~,x7,0.8236933816333211
x7,~~,x9,-0.025615510247050215
x9,~~,x9,0.20686499414080928
y1,~~,y1,1.0409990172965173
y2,~~,y2,0.798463279493019
