lhs,op,rhs,est
eta1,~,x3,-0.04692957397546189
x10,~,x7,0.5406597533423603
x2,~,x3,0.44368828005393646
x3,~,x1,-0.5593885126802761
x3,~,x5,0.9733342936649508
x3,~,x9,0.5795528123010286
x4,~,x3,0.18626185586134564
x6,~,x3,0.13035480215198916
x6,~,x7,-0.5161774405581594
x6,~,x8,-0.5947362004832863
eta1,=~,y2,-0.047718070275768965
eta1,~~,eta1,1.00766687403786
eta1,~~,x10,-0.03347261055390229
eta1,~~,x2,-0.02936251622897907
eta1,~~,x4,0.02864335699198351
eta1,~~,x6,-0.04312577144593172
x10,~~,x10,0.29127587699923463
x10,~~,x2,-0.03294133160656647
x10,~~,x4,0.04272165105067789
x10,~~,x6,0.03184903438552244
x2,~~,x2,1.9022142703523015
x2,~~,x4,-0.08925378179308972
x2,~~,x6,-0.030994388717745566
x3,~~,x3,1.5738557192571865
x4,~~,x4,0.4813911094320345
x4,~~,x6,-0.049340239219798555
x6,~~,x6,1.208063244799792
y1,~~,y1,6.312898005179456e-17
y2,~~,y2,0.403409438338286
