lhs,op,rhs,est
eta1,~,x3,-0.8289943223079494
x1,~,x6,-0.9788555375916336
x2,~,x7,-0.7092067651759376
x3,~,x7,-0.05422404706993327
x3,~,x6,0.463043930351784
x4,~,x6,0.41032495835808264
x5,~,eta1,0.9422201553989754
x7,~,x9,-0.10455006728300124
x7,~,x8,-0.49082027091861274
x9,~,x3,0.3665765220627261
x9,~,x10,0.8132838503686679
eta1,=~,y2,-0.2094715346934329
eta1,=~,y3,0.26182043432344315
eta1,~~,eta1,1.6132777152482594
x1,~~,x1,0.9332024179438078
x1,~~,x2,-0.06618605744599379
x1,~~,x4,0.0013039893966923313
x1,~~,x5,0.0554146573520912
x2,~~,x2,1.2211247143144446
x2,~~,x4,0.002606519521623533
x2,~~,x5,0.1379350566875611
x3,~~,x3,0.559678170802987
x4,~~,x4,0.19298138670178278
x4,~~,x5,0.07116245653237994
x5,~~,x5,1.79094440593546
x7,~~,x7,0.2630460610598428
x9,~~,x9,0.8496470660845139
y1,~~,y1,1.9712883650427766
y2,~~,y2,0.08782813857920833
y3,~~,y3,0.11323241109797336
