lhs,op,rhs,est
x1,~,x6,-0.7195205400118774
x1,~,x10,-0.7521509867528572
x2,~,x1,-0.2798136082794892
x3,~,x4,0.11080191824170112
x5,~,eta1,-0.35774783602401916
x6,~,x2,-0.8824439487485204
x6,~,x4,-0.5349047470823065
x8,~,x10,0.27592910326481923
x8,~,x7,-1.0117270157119787
x9,~,x1,-0.4829410722891647
x9,~,x5,0.4023777705777068
eta1,=~,y2,-0.1283042349431833
eta1,~~,eta1,1.4234169536115504
x1,~~,x1,1.426714824126588
x2,~~,x2,0.41862683121904676
x3,~~,x3,0.012343201401035338
x3,~~,x8,0.0028558268106532877
x3,~~,x9,-0.00027579879650658693
x5,~~,x5,0.08292248703207392
x6,~~,x6,0.9285056817702195
x8,~~,x8,1.092549254060665
x8,~~,x9,-0.06943556588566764
x9,~~,x9,1.0308857796523785
y1,~~,y1,1.1032534429085197
y2,~~,y2,0.01370564673644454
