lhs,op,rhs,est
eta1,~,x6,-0.3547929897476387
eta1,~,x1,1.2851908146078135
x2,~,x5,1.0457935313315239
x3,~,eta1,-0.22125604435795498
x3,~,x10,-0.15287195828193068
x3,~,x9,0.8690586407305959
x6,~,x8,-0.039603899734912185
x6,~,x4,-0.17050362505963876
x7,~,x4,0.7525374686608807
x8,~,eta1,-0.24396547916952654
x8,~,x2,0.7956246705889806
eta1,=~,y2,0.6181495683581382
eta1,=~,y3,0.11426126627871075
eta1,~~,eta1,2.5526326784122135
x2,~~,x2,0.9415604035148488
x3,~~,x3,1.0999351434679858
x3,~~,x7,-0.06475598541169005
x6,~~,x6,0.0596930580816299
x7,~~,x7,0.5245065892178334
x8,~~,x8,0.8524425544687523
y1,~~,y1,3.33763753937203
y2,~~,y2,1.9999609855091227
y3,~~,y3,0.09313064836278238
