lhs,op,rhs,est
x1,~,eta1,0.24734820006126404
x10,~,x3,-0.6496899121016361
x2,~,x8,-0.7103301008242411
x2,~,x5,0.6736397538213077
x3,~,x4,-0.5700436177500291
x3,~,x9,-1.0379836065369252
x4,~,x10,-0.28977073435170325
x6,~,x10,0.12538690462407553
x8,~,x1,-0.681913326390322
x8,~,x6,-0.5159740498773379
x9,~,x7,0.114160178388157
eta1,=~,y2,0.456434610823871
eta1,~~,eta1,1.635789071892762
x1,~~,x1,0.04277895907798246
x10,~~,x10,0.62472394365456
x2,~~,x2,1.0065703634710519
x3,~~,x3,0.9833998694985197
x4,~~,x4,0.06807607756070966
x6,~~,x6,0.016912727555909148
x8,~~,x8,0.39850659803613125
x9,~~,x9,0.011468726452438733
y1,~~,y1,1.1916869021754752
y2,~~,y2,0.17475076492890726
