lhs,op,rhs,est
x10,~,x5,-0.41675350787751003
x2,~,x9,0.355974126955152
x2,~,x4,-0.8075184486957692
x3,~,eta1,-0.4501722142795273
x3,~,x8,0.11637406162254782
x6,~,x10,-0.011517205119355228
x6,~,x8,-0.772227457848641
x8,~,x9,0.628155998601215
x9,~,x1,0.26629904794509635
x9,~,x7,0.7849135316585574
eta1,=~,y2,-0.7094615782346665
eta1,~~,eta1,1.5581250456213307
x10,~~,x10,0.16965667416908017
x2,~~,x2,0.9222936140956498
x2,~~,x3,0.04740815833835817
x2,~~,x6,0.0029191032629556427
x3,~~,x3,0.12996943590857649
x3,~~,x6,-0.024881097753178344
x6,~~,x6,0.9675633320769268
x8,~~,x8,0.7648250092095038
x9,~~,x9,0.6485169353379348
y1,~~,y1,1.2365886366406547
y2,~~,y2,0.5829189100650062
