lhs,op,rhs,est
x10,~,eta1,-1.0770445632601815
x10,~,x3,0.8021521391822315
x4,~,x3,-0.18134080008830644
x5,~,x6,-0.07972454187220146
x5,~,x2,-0.7737181161170398
x6,~,x8,0.4077019079572635
x7,~,x10,-0.796584287315288
x8,~,x1,-0.3119719409736117
x9,~,x10,0.2716110979111545
x9,~,x8,0.7772796832889965
eta1,=~,y2,-0.6713888985545313
eta1,~~,eta1,1.5582846815898683
x10,~~,x10,1.652183060413204
x4,~~,x4,0.028675915772175625
x4,~~,x5,-0.011805229293025913
x4,~~,x7,0.011529681816641909
x4,~~,x9,0.05279991477501992
x5,~~,x5,0.629938345539864
x5,~~,x7,-0.28386836838555646
x5,~~,x9,0.022614614154825814
x6,~~,x6,0.21584770074497808
x7,~~,x7,1.247251011496875
x7,~~,x9,0.027677001644131446
x8,~~,x8,0.10586737943104507
x9,~~,x9,0.9479141396319283
y1,~~,y1,0.9773770093527842
y2,~~,y2,0.3939671038577642
