lhs,op,rhs,est
eta1,~,x3,0.45417329144568835
x1,~,x9,-0.49322571744336674
x1,~,x5,-0.41155294833879086
x10,~,x1,0.24011634668815643
x10,~,x6,-0.45253484060534954
x2,~,x5,1.111966045140439
x3,~,x4,-0.4380865204016672
x4,~,x5,-0.48846719655375564
x8,~,x10,-0.24968360974910309
x9,~,x7,0.9746725627066912
eta1,=~,y2,0.8217580658221564
eta1,=~,y3,-0.6725899291493156
eta1,~~,eta1,0.23202868166561866
eta1,~~,x2,-0.06922205087374245
eta1,~~,x8,0.014169430896075082
x1,~~,x1,0.3415643288755956
x10,~~,x10,0.30452988751357535
x2,~~,x2,1.2059311932235128
x2,~~,x8,0.010028353703464183
x3,~~,x3,0.20749960540088208
x4,~~,x4,0.23745637503356365
x8,~~,x8,0.19117142297189085
x9,~~,x9,0.8513215479708163
y1,~~,y1,0.9878314423266723
y2,~~,y2,0.4854488268977966
y3,~~,y3,0.6193917029210355
