lhs,op,rhs,est
eta1,~,x3,-0.9830108481561507
x1,~,x6,-0.41167615177035566
x1,~,x9,-1.081591929655091
x10,~,x2,-0.4334044263192495
x10,~,x4,-1.0519272820210466
x2,~,x3,-0.2932943153103043
x5,~,eta1,-0.253605948470071
x7,~,x8,0.6945510969686373
x8,~,x10,-0.034179926699765335
x8,~,x6,-0.45986047811567526
eta1,=~,y2,0.6465147363759919
eta1,=~,y3,-0.3704653488194865
eta1,~~,eta1,1.018307813481348
x1,~~,x1,1.2529966306474059
x1,~~,x5,-0.003748136282842631
x1,~~,x7,0.21251724327819324
x10,~~,x10,1.2999542849815398
x2,~~,x2,0.0955393708447429
x5,~~,x5,0.07404453558905011
x5,~~,x7,0.011690511681817598
x7,~~,x7,1.4273156594103773
x8,~~,x8,0.2695465596008166
y1,~~,y1,0.9309354888408982
y2,~~,y2,0.46141128245060276
y3,~~,y3,0.14708979260942998
