lhs,op,rhs,est
eta1,~,x2,0.32626387671932316
x1,~,x10,-0.23727557774884706
x1,~,x6,-0.19217639537571857
x1,~,x8,0.24042202713905225
x2,~,x6,0.6873560262829724
x3,~,x9,-0.35757758739411216
x4,~,x6,-0.9471826619193936
x5,~,x4,-0.8204669825208035
x7,~,x9,-0.29278997124183725
x9,~,x6,-1.062959650549454
eta1,=~,y2,-0.7538637542569973
eta1,~~,eta1,0.1815667525941529
eta1,~~,x1,-0.017230100879011646
eta1,~~,x3,-0.014492167592553841
eta1,~~,x5,-0.06810414820233723
eta1,~~,x7,-0.019495239468969996
x1,~~,x1,0.15609419917217074
x1,~~,x3,0.021620426268299412
x1,~~,x5,-0.006261859989478206
x1,~~,x7,-0.0033732765103531514
x2,~~,x2,0.5576507445433352
x3,~~,x3,0.11474871104278901
x3,~~,x5,0.03104239747519057
x3,~~,x7,0.004618239717367647
x4,~~,x4,0.8633855368730025
x5,~~,x5,0.6809889328510772
x5,~~,x7,0.0019138454701877676
x7,~~,x7,0.0892747054639484
x9,~~,x9,1.0021973534355781
y1,~~,y1,0.9193908874869795
y2,~~,y2,0.37531012402915226
