lhs,op,rhs,est
eta1,~,x1,-0.23008818053863955
x1,~,x4,-1.063817576977609
x1,~,x10,-0.7538965807356158
x2,~,x9,0.5561428927572839
x3,~,x7,0.48853323316722175
x4,~,x8,0.4560189346756504
x5,~,x7,0.439617818504473
x6,~,x5,0.26212930331010215
x9,~,x1,0.2007444214377545
x9,~,x5,0.4491128518856619
eta1,=~,y2,-0.8913123667335718
eta1,=~,y3,0.601454546904345
eta1,~~,eta1,0.6831631012851431
eta1,~~,x2,-0.10577182690258374
eta1,~~,x3,-0.021259426560861282
eta1,~~,x6,0.0011909562220291272
x1,~~,x1,1.1822914519988634
x2,~~,x2,0.675418265324971
x2,~~,x3,0.02919002666326815
x2,~~,x6,-0.0014828721936140145
x3,~~,x3,0.23293476985088768
x3,~~,x6,0.0029576256231456845
x4,~~,x4,0.23221678200678675
x5,~~,x5,0.13648123350119942
x6,~~,x6,0.05588083310993541
x9,~~,x9,0.8459400956389668
y1,~~,y1,1.0015943698168386
y2,~~,y2,0.6494663572042854
y3,~~,y3,0.23328666869869985
