lhs,op,rhs,est
eta1,~,x3,-0.7523612443976965
x1,~,x4,-0.31900322561279376
x1,~,x7,0.4166486024650373
x10,~,x4,0.6246845314476736
x2,~,x1,-0.15711668910410953
x2,~,x6,0.2681233684453607
x5,~,x6,-0.3162684492429913
x6,~,eta1,-0.7683768693947598
x6,~,x9,-0.32682933192587754
x8,~,x9,-0.9369467648914481
eta1,=~,y2,-0.5420700071991225
eta1,~~,eta1,0.5828456597645407
x1,~~,x1,0.35136437566484774
x10,~~,x10,0.4246278584611803
x10,~~,x2,0.07471751615217333
x10,~~,x5,0.03909321945907009
x10,~~,x8,0.023378916543303648
x2,~~,x2,0.38194199619495034
x2,~~,x5,0.020590212774875646
x2,~~,x8,-0.11112242544062612
x5,~~,x5,0.19978493637300362
x5,~~,x8,-0.025335872610927717
x6,~~,x6,0.7653896204407146
x8,~~,x8,0.9004073518095935
y1,~~,y1,0.8012809726417752
y2,~~,y2,0.343429933132485
