lhs,op,rhs,est
eta1,~,x5,-0.4252071113370518
eta1,~,x6,-0.1461522628404823
x1,~,eta1,0.09810544025681696
x10,~,x6,-0.5553072966377233
x3,~,x8,0.22532939033994165
x4,~,eta1,0.2901031212812142
x7,~,eta1,0.9057729735359703
x7,~,x2,-0.14126772043463445
x8,~,eta1,0.10202895018406101
x9,~,x10,-0.22388436328360822
eta1,=~,y2,1.084643864010747
eta1,~~,eta1,0.23123002475518464
x1,~~,x1,0.554133024139437
x1,~~,x3,0.011359169758243474
x1,~~,x4,-0.004327539273821393
x1,~~,x7,0.09669953806158685
x1,~~,x9,-0.019234776192809104
x10,~~,x10,0.2985615105436613
x3,~~,x3,0.05167457080195284
x3,~~,x4,0.003643388198420599
x3,~~,x7,-0.0036288627971437135
x3,~~,x9,-0.014043991692664046
x4,~~,x4,0.1427840431688565
x4,~~,x7,-0.021716757197428254
x4,~~,x9,-0.0008116315939355975
x7,~~,x7,0.9844873576094476
x7,~~,x9,-0.0165983217665769
x8,~~,x8,0.7220956199212055
x9,~~,x9,0.05078130461659433
y1,~~,y1,2.039251522101925
y2,~~,y2,1.2828123021831312
