lhs,op,rhs,est
eta2,~,eta1,0.8702207563275064
x1,~,x6,0.5623892682752948
x10,~,x3,-0.1488203011679419
x2,~,x3,-0.4695518103193806
x3,~,x9,-0.07437599835363853
x3,~,x7,0.18677364290146212
x5,~,eta2,0.1360760227572362
x8,~,x4,0.7780118686248243
x9,~,eta2,0.2684671782873077
x9,~,x1,-0.6509706085387614
x9,~,x2,-1.1919495262522246
x9,~,x4,0.46555918326729046
eta1,=~,y2,0.7189647894874098
eta1,=~,y3,-0.8446941013308213
eta2,=~,y5,-0.36309767235970897
eta2,=~,y6,0.8370679811508933
eta1,~~,eta1,1.9113635793409112
eta2,~~,eta2,0.6320299562708658
x1,~~,x1,0.2847012202649236
x10,~~,x10,0.03371946461315097
x10,~~,x5,-0.0007927586579076512
x10,~~,x8,-0.007920622685108526
x2,~~,x2,0.2993348528743235
x3,~~,x3,0.2078906735480128
x5,~~,x5,0.019151823035002343
x5,~~,x8,0.0065044255266032995
x8,~~,x8,0.639632997058517
x9,~~,x9,1.802760034156463
y1,~~,y1,1.0505024204591544
y2,~~,y2,0.5726117127791358
y3,~~,y3,0.7745189300601758
y4,~~,y4,1.0883597333811676
y5,~~,y5,0.1469611796290077
y6,~~,y6,0.7718121611884156
