lhs,op,rhs,est
eta1,~,x9,0.06577547421790088
x1,~,x5,0.36090950065051774
x1,~,x9,0.5116584717346498
x10,~,x7,-0.7603014798402163
x10,~,x3,0.8279594966008725
x10,~,x9,-0.6303244843322495
x2,~,eta2,-0.41747718181133414
x2,~,x9,-0.4172271218984582
x4,~,x1,0.4014269435548934
x6,~,x10,0.28500042318620245
x7,~,x6,-0.6201984739830663
x8,~,x9,0.5101086214965446
eta1,=~,y2,0.302013255686922
eta2,=~,y4,0.5915930081422277
eta1,~~,eta1,0.06109825860099723
eta1,~~,x2,-0.04270798366429429
eta1,~~,x4,0.018608455264900032
eta1,~~,x8,-0.02576170905127897
eta2,~~,eta2,1.787597602115027
x1,~~,x1,0.35732328421476556
x10,~~,x10,2.238061477278963
x2,~~,x2,0.36494130301860367
x2,~~,x4,0.0035316163906103175
x2,~~,x8,0.019404768490358396
x4,~~,x4,0.3350954577129202
x4,~~,x8,-0.0079266722154468
x6,~~,x6,0.7427398362924406
x7,~~,x7,1.8569444994743338
x8,~~,x8,0.2637348352351771
y1,~~,y1,0.8714851331167636
y2,~~,y2,0.09073356170814864
y3,~~,y3,1.0387856620791855
y4,~~,y4,0.3784158036167413
