lhs,op,rhs,est
eta2,~,x1,-0.06363976360499002
x1,~,x10,-1.0584384348914115
x1,~,x3,0.2153237031031864
x10,~,x2,0.4945332130307268
x2,~,x1,-0.0735675494547773
x4,~,x3,0.12520337319848393
x5,~,x7,0.10561394199798461
x5,~,x9,1.0796020489180462
x6,~,x7,0.06622517837990785
x7,~,eta1,-1.0599899387802172
x7,~,x3,-0.4432948479136457
x8,~,x1,0.010297722029332698
eta1,=~,y2,-0.31088304413950735
eta2,=~,y4,-0.016386661272143038
eta2,=~,y5,-0.6672439197288083
eta1,~~,eta1,1.7312530400515966
eta2,~~,eta2,0.029790697117865177
eta2,~~,x4,-0.0004166386746732039
eta2,~~,x5,0.00019224485047863855
eta2,~~,x6,0.02666109655708052
eta2,~~,x8,0.0018168997699258053
x1,~~,x1,1.149780654015279
x10,~~,x10,0.33928558253124125
x2,~~,x2,0.5106027210484132
x4,~~,x4,0.016227700304669027
x4,~~,x5,-0.005997479618822542
x4,~~,x6,-0.0005785131183159144
x4,~~,x8,-9.93600496335053e-05
x5,~~,x5,2.8498057628553357
x5,~~,x6,0.13071451184493413
x5,~~,x8,-0.019486744743285035
x6,~~,x6,0.28830616016536076
x6,~~,x8,-0.01428008718014535
x7,~~,x7,1.0633389986689536
x8,~~,x8,0.030052894239382205
y1,~~,y1,0.9494820947929754
y2,~~,y2,0.07480171998506448
y3,~~,y3,0.9375821539927033
y4,~~,y4,0.11053654718388127
y5,~~,y5,0.7058645462378333
