lhs,op,rhs,est
eta1,~,x10,-0.41262192341727894
eta1,~,x9,0.17041498902466448
eta2,~,x6,0.19371318318830852
eta2,~,x5,-0.6616415769854025
x1,~,eta2,-0.5244161498394774
x10,~,eta2,-0.3015207164053955
x2,~,x4,-0.5642168254455502
x3,~,eta2,-0.6307477278866115
x3,~,x8,-0.7780114242048443
x4,~,eta2,-0.6595572197074896
x6,~,x3,-0.2836339024830725
x7,~,eta2,-0.6006471583709599
eta1,=~,y2,-0.16105805272437757
eta2,=~,y4,-0.739675357012263
eta1,~~,eta1,0.366648322251071
eta1,~~,x1,-0.005998636006004127
eta1,~~,x2,-0.0038343608159730146
eta1,~~,x7,-0.022978623165073455
eta2,~~,eta2,0.46496095364125195
x1,~~,x1,0.26991830403285616
x1,~~,x2,-0.0026480974110229035
x1,~~,x7,-0.01571691678220988
x10,~~,x10,0.08098948108024284
x2,~~,x2,0.29002030066877793
x2,~~,x7,0.008521077273728342
x3,~~,x3,1.163327430284777
x4,~~,x4,0.5072363094609885
x6,~~,x6,1.4532291762305902
x7,~~,x7,0.32051379881674386
y1,~~,y1,1.839423771759695
y2,~~,y2,0.06148083532851518
y3,~~,y3,1.035962214076125
y4,~~,y4,0.9134071367041711
