lhs,op,rhs,est
eta1,~,x4,0.4147292375158475
eta1,~,x1,-0.20409865714649006
eta1,~,x5,-0.47420687899717523
x3,~,x10,0.11864247458997906
x4,~,x8,0.3942757182838319
x7,~,eta1,-0.05881138164647336
x8,~,eta1,0.2429639467639046
x8,~,x10,0.039350761725835084
x8,~,x2,0.8076535878371475
x8,~,x6,-0.9589338181750613
x9,~,eta2,0.5258913363026115
x9,~,x10,0.8842844051615087
eta1,=~,y2,-0.47400760302502326
eta1,=~,y3,0.8717246791623265
eta2,=~,y5,0.17908316779007177
eta1,~~,eta1,0.6319390677696543
eta2,~~,eta2,1.9393529140048638
x3,~~,x3,0.013222993966527008
x3,~~,x7,0.0006017203433178588
x3,~~,x9,0.002314045925393963
x4,~~,x4,1.560839814349331
x7,~~,x7,0.030562371002213116
x7,~~,x9,-0.00011565487315018672
x8,~~,x8,2.10220408618297
x9,~~,x9,1.139763190060243
y1,~~,y1,4.079522721631297
y2,~~,y2,0.5904635124823995
y3,~~,y3,1.646272722959633
y4,~~,y4,0.8933394362245013
y5,~~,y5,0.04331828401179563
