lhs,op,rhs,est
x1,~,x5,1.0038354969974719
x10,~,x1,0.781172355701246
x10,~,x7,0.5204916256691746
x10,~,x2,-0.28401870928401435
x3,~,eta2,0.7324796894261549
x3,~,x10,0.09843715094615908
x4,~,x2,-0.15189670205555802
x6,~,x5,-1.0398076492653416
x7,~,x3,0.08239923058595566
x8,~,eta1,-0.8907125557796409
x8,~,x4,-0.44145618387193736
x9,~,x4,0.43496811865529605
eta1,=~,y2,0.22935980210697243
eta2,=~,y4,-0.6637099421061261
eta2,=~,y5,-0.40714727961327707
eta1,~~,eta1,1.5251753191250954
eta1,~~,eta2,0.05986072361718995
eta2,~~,eta2,1.5214944243466164
x1,~~,x1,0.9688631716804456
x10,~~,x10,0.7651757427359854
x3,~~,x3,0.9476401021379686
x4,~~,x4,0.020077951041006525
x6,~~,x6,0.9619453482268034
x6,~~,x8,0.00686335203604497
x6,~~,x9,-0.03484745493963969
x7,~~,x7,0.10193010693898767
x8,~~,x8,0.8097028366784692
x8,~~,x9,0.03666938454759311
x9,~~,x9,0.31901401349262803
y1,~~,y1,0.9463885314262068
y2,~~,y2,0.053009632089927254
y3,~~,y3,1.0727863341256838
y4,~~,y4,0.3264779519595857
y5,~~,y5,0.1621596612470784
