lhs,op,rhs,est
eta1,~,eta2,0.5385421734817595
x1,~,x5,0.03242373832032389
x10,~,x5,0.008548215222280636
x3,~,x1,0.04758047270525377
x3,~,x4,0.6848985475680798
x5,~,x3,0.23542424156314773
x5,~,x9,-0.8812940615691697
x6,~,x4,0.25923740988616084
x7,~,eta1,0.617587057729387
x7,~,x8,-0.5531453091806787
x7,~,x2,-0.4478960102812365
x8,~,x5,-0.030423425750329816
eta1,=~,y2,-0.7463775881149525
eta2,=~,y4,0.5483928084607177
eta2,=~,y5,-1.001451694186644
eta1,~~,eta1,0.30436470356093903
eta2,~~,eta2,1.5822944634691396
x1,~~,x1,0.07704058330892372
x10,~~,x10,0.013486228275742694
x10,~~,x6,-0.0008751883301415113
x10,~~,x7,0.0041425648018113
x3,~~,x3,0.7997290307338848
x5,~~,x5,0.9385129424908246
x6,~~,x6,0.06489330900139187
x6,~~,x7,0.006555689426930751
x7,~~,x7,1.0283087611867825
x8,~~,x8,0.5308544191426335
y1,~~,y1,1.0884894210649294
y2,~~,y2,0.3690692916390797
y3,~~,y3,1.1385607049763775
y4,~~,y4,0.2969692477510432
y5,~~,y5,1.10378550038359
