lhs,op,rhs,est
x3,~,eta1,0.3017997291179673
x4,~,x3,-0.09228204463209197
x4,~,x6,0.039521626549155586
x5,~,x4,0.12045028040284764
x6,~,x5,0.9862466661053624
x6,~,x10,-0.2245995631066137
x6,~,x2,0.21388503351608518
x7,~,x6,0.15291873441761572
x8,~,x4,0.8874978041745923
x9,~,eta2,0.5882655917181902
x9,~,x4,-0.09426757497711645
x9,~,x1,-1.1013771109825286
eta1,=~,y2,-1.0103798476270984
eta2,=~,y4,0.8660174974883793
eta2,=~,y5,0.4786978069370278
eta1,~~,eta1,1.5114395996922187
eta1,~~,eta2,0.02413239391263889
eta2,~~,eta2,1.369216334986592
x3,~~,x3,0.08195853745373977
x4,~~,x4,0.14327129368211633
x5,~~,x5,0.024034020671238356
x6,~~,x6,0.9441990937343461
x7,~~,x7,1.3898855741156408
x7,~~,x8,0.057131516113320686
x7,~~,x9,0.00880343408881809
x8,~~,x8,1.688840189442352
x8,~~,x9,0.017324234550681043
x9,~~,x9,2.0661899607760987
y1,~~,y1,0.9354655456013743
y2,~~,y2,0.7307636320003343
y3,~~,y3,0.9445864666179036
y4,~~,y4,0.6568808858390621
y5,~~,y5,0.20237954697253535
