lhs,op,rhs,est
eta1,~,x9,0.6304721221221612
eta2,~,x2,-0.6396638983604879
eta2,~,x5,-0.13626443799879268
eta2,~,x1,0.6783343466467535
eta2,~,x6,1.0972079083585973
x2,~,x3,0.2973071828458902
x3,~,x9,-0.44107606193154414
x3,~,x4,-0.4359796652333296
x5,~,x10,-0.17484733660856283
x7,~,x3,0.48629939449036014
x8,~,eta2,-0.05990420669745477
x9,~,eta2,0.12451892412159588
eta1,=~,y2,0.8053011303493646
eta2,=~,y4,1.0054156894297992
eta2,=~,y5,-0.6780534837668724
eta1,~~,eta1,1.4695335827792513
eta1,~~,x7,-0.023259633233764947
eta1,~~,x8,-0.019335432752332873
eta2,~~,eta2,3.4469946466500314
x2,~~,x2,0.2014947809027681
x3,~~,x3,0.43400242439566084
x5,~~,x5,0.03428847618402408
x7,~~,x7,0.567529620710128
x7,~~,x8,0.005063120254458039
x8,~~,x8,0.029590763152281294
x9,~~,x9,0.13344487440707808
y1,~~,y1,1.4120862940090404
y2,~~,y2,1.7933214378111395
y3,~~,y3,3.9668404998352877
y4,~~,y4,4.280167380136383
y5,~~,y5,3.6221609977246847
