lhs,op,rhs,est
eta1,~,x2,-0.891291734523957
eta1,~,x1,-1.1202594430473305
eta2,~,x4,-0.717228317616976
x10,~,x4,0.7265454941807894
x10,~,x8,-0.37000142645724743
x2,~,x4,-0.08707923583465702
x3,~,eta1,0.3763535002484358
x4,~,eta1,0.6590889238851706
x4,~,x5,-0.9993218611565984
x4,~,x7,0.24534810077452374
x6,~,x10,0.9908259112022639
x9,~,x5,0.5266871254330789
eta1,=~,y2,-1.2971072885211903
eta2,=~,y4,0.2669132239220705
eta2,=~,y5,-0.34992740008323403
eta1,~~,eta1,1.00720301920766e-17
eta2,~~,eta2,1.6429276858903559
eta2,~~,x3,-0.020343603066467476
eta2,~~,x6,-0.08931190078716882
eta2,~~,x9,-0.022560925887529622
x10,~~,x10,1.0523261510100597
x2,~~,x2,1.1354533472699337
x3,~~,x3,0.12862148406370896
x3,~~,x6,0.02212543155065935
x3,~~,x9,0.007975797179297386
x4,~~,x4,1.9199619945943776
x6,~~,x6,3.344160354473737
x6,~~,x9,-0.06777685261771962
x9,~~,x9,0.25092807693508573
y1,~~,y1,0.7901493128790725
y2,~~,y2,1.9134549429963879
y3,~~,y3,2.778712989225684
y4,~~,y4,0.19387576427704772
y5,~~,y5,0.3865873811312839
