lhs,op,rhs,est
eta1,~,x2,0.011841444202583021
eta2,~,x3,-0.5796773169242708
eta2,~,x6,-0.5911520903047428
x1,~,x10,0.3568079190388453
x2,~,x3,-0.15515583375827577
x2,~,x9,0.49932778173596026
x3,~,eta1,1.9216969266994588
x3,~,x8,1.1352310531018566
x6,~,x10,0.3720553533581603
x6,~,x4,-0.8840389676078263
x6,~,x5,-0.5926301798561595
x7,~,x4,0.3487503287393385
eta1,=~,y2,0.06792922274500285
eta1,=~,y3,0.44109349563303263
eta2,=~,y5,-0.2613402160101514
eta1,~~,eta1,0.19387227616961528
eta2,~~,eta2,3.5601118344443736
eta2,~~,x1,-0.05286910325588384
eta2,~~,x7,0.19283228190037816
x1,~~,x1,0.11883587584704917
x1,~~,x7,0.00877470014210165
x2,~~,x2,0.26315763922293306
x3,~~,x3,0.8000489791736964
x6,~~,x6,1.0101882369101172
x7,~~,x7,0.17804064540859021
y1,~~,y1,0.9307205001262611
y2,~~,y2,0.010108509217413096
y3,~~,y3,0.9437856963453998
y4,~~,y4,2.604904160538729
y5,~~,y5,0.2884633731208645
