lhs,op,rhs,est
eta1,~,x3,-0.2919453356554013
x1,~,x3,-0.9146002920374044
x10,~,x7,0.06516787109537246
x2,~,x1,-0.8883121135434044
x3,~,x7,0.023113074471150973
x3,~,x9,0.9480636966141581
x4,~,x9,0.8867361353326769
x5,~,x3,0.24346438574221366
x5,~,x8,-0.36743059564494135
x7,~,eta2,0.19108464292009011
x7,~,x5,-1.108159107445303
x8,~,x6,0.09954592465069294
eta1,=~,y2,0.20355217102245657
eta2,=~,y4,-0.5143932190515071
eta1,~~,eta1,0.09334670212334022
eta1,~~,x10,-0.03232859586395143
eta1,~~,x2,-0.0787319940018375
eta1,~~,x4,2.7065045209397846e-05
eta2,~~,eta2,1.6592192139986341
x1,~~,x1,1.6081204751087692
x10,~~,x10,0.40256853790155683
x10,~~,x2,0.03184647841116663
x10,~~,x4,0.019210099409621872
x2,~~,x2,1.6829821200445438
x2,~~,x4,-0.07843896379985588
x3,~~,x3,1.027825162494382
x4,~~,x4,0.6330829560459319
x5,~~,x5,0.158420713755376
x7,~~,x7,3.038894416213352
x8,~~,x8,0.012168859197602275
y1,~~,y1,2.016897985882419
y2,~~,y2,0.14451097048150838
y3,~~,y3,0.9051168731455608
y4,~~,y4,0.41055010493514354
