lhs,op,rhs,est
eta1,~,x3,0.437106302506683
eta2,~,x4,0.9503416143533853
x10,~,x5,-0.5197965423033083
x3,~,x9,0.5874070597247737
x3,~,x1,-0.5889752752453616
x6,~,x9,1.346536866802344
x6,~,x4,0.12248144050076977
x7,~,x6,-0.6413415219894698
x8,~,x6,-0.4314785014105139
x8,~,x2,0.7158208933799156
x8,~,x5,0.24741936249261096
x9,~,x8,0.02610096972658676
eta1,=~,y2,0.1110383156099188
eta1,=~,y3,0.3265413268032242
eta2,=~,y5,-0.3891655995234156
eta1,~~,eta1,0.5377246375442236
eta1,~~,eta2,0.08212642902834419
eta1,~~,x10,0.02448023187363203
eta1,~~,x7,-0.07094656601968888
eta2,~~,eta2,0.9107486127746288
eta2,~~,x10,0.06407673656173447
eta2,~~,x7,0.2174585878663284
x10,~~,x10,0.2393689796968513
x10,~~,x7,0.037066604403188874
x3,~~,x3,0.3575067317460629
x6,~~,x6,0.6930786208020401
x7,~~,x7,0.6987921903939333
x8,~~,x8,0.8774543308298215
x9,~~,x9,0.1980293670140275
y1,~~,y1,2.12567277353014
y2,~~,y2,0.02852154532321555
y3,~~,y3,0.21509192016774611
y4,~~,y4,0.9364564047076962
y5,~~,y5,0.16100150806045932
