lhs,op,rhs,est
eta2,~,x4,1.0798403600429407
x1,~,x3,-0.5148192312932346
x10,~,x3,-0.8708509996938039
x2,~,x8,-0.5523180792191368
x5,~,eta1,-0.30989861224311027
x5,~,eta2,-0.39384674054073276
x5,~,x3,-0.34999199921244367
x6,~,x8,0.13099098811111926
x7,~,x8,-0.345313097192078
x8,~,eta1,0.7731666829258025
x9,~,x8,-1.0191707676094461
eta1,=~,y2,0.31958960808700687
eta2,=~,y4,-0.5906272801061457
eta1,~~,eta1,1.8020488269596344
eta2,~~,eta2,1.0940764129257614
x1,~~,x1,0.2647436619266215
x1,~~,x10,0.012483033708630336
x1,~~,x2,-0.025285882430040763
x1,~~,x5,0.014486668572132102
x1,~~,x6,-0.004529349256347915
x1,~~,x7,-0.01504259487445792
x1,~~,x9,-0.015525336058355864
x10,~~,x10,0.6685444374778596
x10,~~,x2,-0.06803116534029564
x10,~~,x5,-0.07684326080802113
x10,~~,x6,0.008252916540979973
x10,~~,x7,-0.028757959786725153
x10,~~,x9,-0.07396246709005738
x2,~~,x2,0.2809612869963896
x2,~~,x5,-0.04668044177027267
x2,~~,x6,0.007483537268152521
x2,~~,x7,-0.006870469096057563
x2,~~,x9,0.013765403896809539
x5,~~,x5,0.3858513071859283
x5,~~,x6,0.002474339908234956
x5,~~,x7,-0.01555006880821296
x5,~~,x9,-0.027214059375074758
x6,~~,x6,0.013672524507475407
x6,~~,x7,0.001264189947949091
x6,~~,x9,0.0023613663336526083
x7,~~,x7,0.11016518567688947
x7,~~,x9,0.01486705831169635
x8,~~,x8,0.7111956036434783
x9,~~,x9,1.08069741489345
y1,~~,y1,1.0003365955466224
y2,~~,y2,0.1077457369729008
y3,~~,y3,0.8774563496112061
y4,~~,y4,0.4169864830286347
