lhs,op,rhs,est
eta2,~,eta1,-0.16043780134298632
eta2,~,x8,0.2737886630559918
x1,~,x8,-0.45747122583047434
x1,~,x10,0.5739166259015126
x2,~,x4,0.7002330684878593
x2,~,x9,0.09005046874750448
x3,~,x8,0.23603196616156338
x5,~,x2,-0.01818967821669044
x6,~,x1,-0.35663298832282236
x7,~,x9,-0.9654074029088293
x8,~,x6,-1.1046338782284566
x8,~,x9,0.6657651038427903
eta1,=~,y2,-0.3386663779183434
eta2,=~,y4,-0.5822065987685541
eta2,=~,y5,0.9137087616854618
eta1,~~,eta1,2.51011751853525
eta2,~~,eta2,1.2646020949508883
eta2,~~,x3,0.14604684087518735
eta2,~~,x5,-0.0348131594569445
eta2,~~,x7,-0.39579197176420977
x1,~~,x1,1.3486368238479598
x2,~~,x2,0.4698055278093269
x3,~~,x3,0.4383768648913057
x3,~~,x5,-0.030279158770544032
x3,~~,x7,-0.30579999859565965
x5,~~,x5,0.3987756028607982
x5,~~,x7,0.17248400375657802
x6,~~,x6,0.23612681491908843
x7,~~,x7,1.0014097158641087
x8,~~,x8,1.6112597141765186
y1,~~,y1,0.2720828553875755
y2,~~,y2,0.3191959804106195
y3,~~,y3,1.9428821692053702
y4,~~,y4,0.4242633526464675
y5,~~,y5,2.723108618868487
