"lhs","op","rhs","est"
"eta1","=~","y2",0.646322752781322
"eta1","=~","y3",-0.908242929886553
"eta2","=~","y5",-0.942555445158404
"eta3","=~","y7",0.163665676219297
"eta3","=~","y8",0.288578290845344
"eta4","=~","y9",-0.270749581736367
"eta1","~","x3",-0.779636629533594
"x8","~","eta1",-0.478192242928955
"x8","~","x1",-0.206153564617262
"x10","~","eta2",0.216674492689851
"x10","~","x8",-0.823736362894937
"eta3","~","x10",-0.124479673314583
"x2","~","eta3",-0.575747260955967
"eta4","~","eta1",-0.694703855363782
"eta4","~","x6",-0.589189672988262
"x5","~","x8",0.38338390538359
"x9","~","eta2",0.606855747280597
"x4","~","x6",0.15410746256636
"x7","~","eta2",-0.709576906889825
"y1","~~","y1",0.856695859288892
"y2","~~","y2",0.458081288021936
"y3","~~","y3",1.09476152536812
"y10","~~","y10",3.34124296852048
"y5","~~","y5",1.05281442582301
"y6","~~","y6",0.942165118040937
"y7","~~","y7",0.0491316759849504
"y8","~~","y8",0.0953008811639766
"y9","~~","y9",0.160884433717897
"x8","~~","x8",0.296762310813189
"x10","~~","x10",1.3677314402803
"x2","~~","x2",0.355051501072001
"x5","~~","x5",0.297385427862569
"x9","~~","x9",0.430196745651604
"x4","~~","x4",0.0235607323965072
"x7","~~","x7",0.452628359948038
"eta1","~~","eta1",0.743797347564515
"eta2","~~","eta2",1.72650243827519
"eta3","~~","eta3",0.0298458391771588
"eta4","~~","eta4",0.962723149077078
"eta4","~~","x2",-0.026704596407038
"eta4","~~","x5",0.0800683743747868
"eta4","~~","x9",0.0326023595878538
"eta4","~~","x4",0.0135000370220872
"eta4","~~","x7",0.0150270742248631
"x2","~~","x5",0.035724633345794
"x2","~~","x9",-0.00260595267242452
"x2","~~","x4",0.00732440511239553
"x2","~~","x7",-0.00743081577800603
"x5","~~","x9",0.0311563445203132
"x5","~~","x4",-0.00215782577520026
"x5","~~","x7",-0.0317283901001691
"x9","~~","x4",-0.0151726667898309
"x9","~~","x7",-0.0339098764792724
"x4","~~","x7",0.012901396034416
"x3","~~","x3",1.60077053125898
"x3","~~","x1",-0.035404407613893
"x3","~~","x6",0.0234195443174855
"x1","~~","x1",1.69419825777521
"x1","~~","x6",-0.0340100588897154
"x6","~~","x6",1.74027215599883
