"lhs","op","rhs","est"
"eta1","=~","y2",0.90528396104903
"eta1","=~","y3",0.209512003204319
"eta2","=~","y5",0.736970104355299
"eta3","=~","y7",0.913280721680083
"eta4","=~","y5",0.0379233711551264
"eta4","=~","y8",0.0710514577817203
"x8","~","x4",0.373364258288726
"x5","~","x8",-0.367273903622423
"x10","~","eta1",-0.980670141078363
"x10","~","eta2",-0.571947247798511
"x10","~","x4",-0.515950643695737
"eta4","~","x8",0.126724434098799
"x6","~","eta4",-0.309518438046928
"eta1","~","x2",-0.676795820447141
"x9","~","x4",-0.892065551562924
"x3","~","eta4",0.879794877030211
"eta3","~","x3",-1.33977879583757
"x7","~","x4",0.890711854241121
"x1","~","x2",-0.291578040939848
"y1","~~","y1",1.13642592436217
"y2","~~","y2",0.750430155259023
"y3","~~","y3",0.0405630547370519
"y4","~~","y4",1.04307804099551
"y5","~~","y5",0.606623742867414
"y6","~~","y6",0.710672626194656
"y7","~~","y7",1.52758494854387
"y10","~~","y10",0.908823427541242
"y8","~~","y8",0.205568331716478
"x8","~~","x8",0.10990457682155
"x5","~~","x5",0.147362633806759
"x10","~~","x10",1.28213901369702
"x6","~~","x6",0.252932730062214
"x9","~~","x9",0.81261022241626
"x3","~~","x3",0.352881864252019
"x7","~~","x7",0.714789248068954
"x1","~~","x1",0.0898643871143377
"eta1","~~","eta1",0.39696223656116
"eta2","~~","eta2",1.49526547474886
"eta3","~~","eta3",1.40554468869782
"eta4","~~","eta4",0.0980567226061514
"eta3","~~","x5",0.014056049502924
"eta3","~~","x10",0.275224507872199
"eta3","~~","x6",-0.0253920787907539
"eta3","~~","x9",-0.000284560955545994
"eta3","~~","x7",-0.0344093448679825
"eta3","~~","x1",-0.0239553157062162
"x5","~~","x10",0.00959506743203579
"x5","~~","x6",0.0113084347269514
"x5","~~","x9",-0.00458900243082338
"x5","~~","x7",-0.0024607748715977
"x5","~~","x1",0.00902111160678111
"x10","~~","x6",0.0648742631588403
"x10","~~","x9",0.0777812188745233
"x10","~~","x7",0.0774859064270928
"x10","~~","x1",0.0458710949826103
"x6","~~","x9",0.0410269946053484
"x6","~~","x7",-0.0658825286315872
"x6","~~","x1",0.00332145210919029
"x9","~~","x7",-0.025145604483028
"x9","~~","x1",0.00769699286053893
"x7","~~","x1",-0.0183836037672929
"x4","~~","x4",1.60674102803204
"x4","~~","x2",-0.018480373411752
"x2","~~","x2",1.621531753589
