"lhs","op","rhs","est"
"eta1","=~","y2",0.469153144213029
"eta2","=~","y4",-2.62133685559022e-05
"eta3","=~","y5",0.764957154231837
"eta3","=~","y6",-0.827303111988352
"eta4","=~","y8",1.2106076646258
"eta4","=~","y9",-1.13726541660966
"x9","~","eta1",0.477015117753847
"x5","~","x9",0.116474570037199
"x4","~","x5",-1.51832527884987
"x10","~","x2",-0.815303296542764
"x10","~","x4",0.0338897845089568
"x1","~","eta2",-6.90047567215952e-06
"x1","~","x4",1.54051349978903
"eta3","~","x1",0.973702249400531
"eta3","~","x7",0.603422087827277
"eta3","~","x8",0.276105244572067
"x7","~","x6",0.87667797749852
"x3","~","x7",-0.103886619206415
"eta4","~","x6",-0.300049101688633
"y1","~~","y1",1.86962585545417
"y2","~~","y2",2.38833750593259
"y3","~~","y3",-6173.43229398189
"y4","~~","y4",0.0289837815090566
"y5","~~","y5",1.97277265633277
"y6","~~","y6",3.31821273082123
"y10","~~","y10",1.00410688422333
"y8","~~","y8",1.03889510607003
"y9","~~","y9",0.784418461433623
"x9","~~","x9",-0.0378991886473313
"x5","~~","x5",-0.00773813459977762
"x4","~~","x4",0.148675458987551
"x10","~~","x10",0.997199649022049
"x1","~~","x1",0.653358000368749
"x7","~~","x7",0.731851567207038
"x3","~~","x3",0.0117350112007369
"eta1","~~","eta1",0.858047591352307
"eta2","~~","eta2",6175.98182504848
"eta3","~~","eta3",1.68542392841652
"eta4","~~","eta4",0.0901442182938096
"eta1","~~","eta2",-0.142117729558714
"eta3","~~","eta4",-0.0109955341842843
"eta3","~~","x10",-0.00163872847740315
"eta3","~~","x3",0.00029187146464929
"eta4","~~","x10",0.0673844653080316
"eta4","~~","x3",-0.00444120372158233
"x10","~~","x3",-0.0135102919194598
"x2","~~","x2",1.60899938064825
"x2","~~","x8",0.027369027149908
"x2","~~","x6",-0.165859660024637
"x8","~~","x8",1.72119849885841
"x8","~~","x6",-0.0347726743137738
"x6","~~","x6",1.68656082818944
