"lhs","op","rhs","est"
"eta1","=~","y2",0.193291132019362
"eta2","=~","y4",-0.915654831423631
"eta3","=~","y6",0.639517865791676
"eta4","=~","y8",-0.165258037353103
"eta2","~","x4",0.613984311970363
"x2","~","eta2",-0.264079577919097
"x2","~","eta3",0.657531308998353
"x1","~","x2",-0.573576086534284
"x1","~","x5",0.156842462687348
"x1","~","x7",1.03673652914546
"eta4","~","x1",0.178155975396134
"x10","~","eta1",-0.504261035967695
"eta3","~","x10",-1.03356352559117
"x8","~","eta3",0.280612016848355
"x3","~","x9",-0.476575393611764
"x6","~","x3",-0.977771392240212
"x5","~","x6",-0.555307247414053
"y1","~~","y1",0.937318790949079
"y2","~~","y2",0.043519459456663
"y3","~~","y3",0.959542226028056
"y4","~~","y4",0.931760540409936
"y5","~~","y5",0.859722900277306
"y6","~~","y6",0.402164752749412
"y7","~~","y7",3.12649533528557
"y8","~~","y8",0.0994497115533659
"x2","~~","x2",0.555620179833007
"x1","~~","x1",1.71166727052291
"x10","~~","x10",0.357222503532183
"x8","~~","x8",0.0850692700050693
"x3","~~","x3",0.192650120600284
"x6","~~","x6",1.01075260449547
"x5","~~","x5",0.229761666816732
"eta1","~~","eta1",1.78094214523232
"eta2","~~","eta2",0.421542577895215
"eta3","~~","eta3",0.904883545635412
"eta4","~~","eta4",0.22503793885166
"eta4","~~","x8",-0.0030404390090736
"x4","~~","x4",1.67424044096264
"x4","~~","x7",-0.161113173973615
"x4","~~","x9",0.122225571403349
"x7","~~","x7",1.76243455811709
"x7","~~","x9",0.10027655134873
"x9","~~","x9",1.69747562447237
