"lhs","op","rhs","est"
"eta1","=~","y2",-0.299712348929153
"eta2","=~","y4",0.326497273541399
"eta2","=~","y5",-0.961946085404077
"eta3","=~","y7",0.909990167180564
"eta4","=~","y9",-0.420010689782204
"eta2","~","eta4",0.947621236357013
"eta2","~","x10",-0.7568251523172
"eta2","~","x5",0.849747872007814
"x9","~","eta2",-0.38709014636099
"x8","~","x9",0.375217681684204
"eta3","~","eta4",0.27647702526478
"eta3","~","x4",0.872117269357782
"eta1","~","eta3",0.0448994232040817
"eta1","~","x6",0.799877177324465
"x4","~","x7",-0.456873539752939
"x2","~","x4",0.391240238247991
"x3","~","x5",0.120223528915115
"x1","~","x10",0.176708378083149
"y1","~~","y1",2.02329068706876
"y2","~~","y2",0.208995720759858
"y3","~~","y3",3.22220253965065
"y4","~~","y4",0.311638743160018
"y5","~~","y5",2.93857854414487
"y6","~~","y6",2.36987823871336
"y7","~~","y7",0.801531119618714
"y8","~~","y8",0.849240316534938
"y9","~~","y9",0.258818580673861
"x9","~~","x9",1.57717117525063
"x8","~~","x8",0.244028235048364
"x4","~~","x4",0.189119853286568
"x2","~~","x2",0.170115140587743
"x3","~~","x3",0.013802347760376
"x1","~~","x1",0.0332183210257021
"eta1","~~","eta1",0.91428141161491
"eta2","~~","eta2",1.86484661899434
"eta3","~~","eta3",0.555258061474326
"eta4","~~","eta4",1.8621859675888
"eta1","~~","x8",-0.0350109304175212
"eta1","~~","x2",-0.0541991276093042
"eta1","~~","x3",-0.00480198440791113
"eta1","~~","x1",0.0091633117573827
"x8","~~","x2",0.00203242260734905
"x8","~~","x3",0.0296029597070677
"x8","~~","x1",0.0124431284956281
"x2","~~","x3",0.00135871505133946
"x2","~~","x1",0.00103142075385772
"x3","~~","x1",0.00135333702694855
"x10","~~","x10",1.60378277038443
"x10","~~","x5",0.0589137713794947
"x10","~~","x6",-0.109997636934097
"x10","~~","x7",0.172568848562928
"x5","~~","x5",1.60937500829232
"x5","~~","x6",0.0396671241329317
"x5","~~","x7",0.0159945596582161
"x6","~~","x6",1.78045045242295
"x6","~~","x7",0.0502119784653859
"x7","~~","x7",1.70575956574831
