"lhs","op","rhs","est"
"eta1","=~","y3",-0.479525171734738
"eta1","=~","y5",0.298922862539282
"eta2","=~","y5",0.320121539085054
"eta2","=~","y6",-0.356988584366179
"eta3","=~","y8",0.847128761206457
"eta4","=~","y9",0.534699354089562
"eta4","~","eta1",0.367603693812406
"x6","~","eta4",0.947914467287457
"x9","~","x6",-0.921116085929511
"x4","~","x2",-0.376523201349141
"x4","~","x9",-1.06945594653844
"x3","~","x4",0.452980557239774
"x10","~","x3",0.203408133060124
"x10","~","x8",0.127440948152776
"x7","~","eta2",0.840147307823954
"x7","~","x9",0.581004593519085
"x5","~","x9",0.523710686609847
"eta3","~","eta4",0.0452070507289003
"eta3","~","x1",0.255217865561613
"y2","~~","y2",0.859978272836963
"y3","~~","y3",0.24979208958804
"y5","~~","y5",0.206679237790717
"y4","~~","y4",1.09845573378069
"y6","~~","y6",0.183912836447465
"y7","~~","y7",1.82006012182198
"y8","~~","y8",0.916226141935983
"y10","~~","y10",0.9630047895899
"y9","~~","y9",0.348094226756994
"x6","~~","x6",0.97675703142409
"x9","~~","x9",0.684612572310006
"x4","~~","x4",1.45307145512977
"x3","~~","x3",0.516013615779736
"x10","~~","x10",0.0627211473224571
"x7","~~","x7",1.00151113521589
"x5","~~","x5",0.269643918417732
"eta1","~~","eta1",1.77311388950337
"eta2","~~","eta2",1.59493480751649
"eta3","~~","eta3",-0.0249722588121661
"eta4","~~","eta4",0.126797187884484
"eta1","~~","eta2",0.11591555489093
"eta3","~~","x10",0.01587493210836
"eta3","~~","x7",0.022832024983317
"eta3","~~","x5",-0.029097023354143
"x10","~~","x7",0.014977169043859
"x10","~~","x5",-0.00754176971844519
"x7","~~","x5",0.0418837068725818
"x2","~~","x2",1.64853410701774
"x2","~~","x8",-0.0792334002926376
"x2","~~","x1",0.00401638668314568
"x8","~~","x8",1.65034383788649
"x8","~~","x1",0.0297813314901838
"x1","~~","x1",1.71051559234078
