"lhs","op","rhs","est"
"eta1","=~","y2",0.571980872938873
"eta2","=~","y4",-0.190107369781038
"eta2","=~","y5",0.157264655318378
"x3","~","eta2",0.0967083428515107
"x3","~","x2",0.3695040170908
"x1","~","x3",-0.00609707438605747
"x5","~","x1",-0.327686292033208
"eta1","~","x4",-0.102727446457309
"x2","~","eta1",-0.0593347683227266
"y1","~~","y1",0.978367992067291
"y2","~~","y2",0.160989176052136
"y3","~~","y3",0.956825572358789
"y4","~~","y4",0.0381850954034433
"y5","~~","y5",0.0215723317869845
"x3","~~","x3",0.0488118346041379
"x1","~~","x1",0.04741475556734
"x5","~~","x5",0.0909974632368378
"x2","~~","x2",0.0203661239820977
"eta1","~~","eta1",0.00162158611469812
"eta2","~~","eta2",1.63577747730354
