"lhs","op","rhs","est"
"eta1","=~","y2",-0.129868900019908
"eta2","=~","y4",14.7180863655504
"x3","~","eta1",-0.100454475556064
"x4","~","x1",0.222842710052375
"x4","~","x3",0.148400168131563
"x5","~","x4",-0.0419373153311442
"x2","~","x5",0.521635592583088
"eta2","~","x4",0.000197232489150202
"y1","~~","y1",0.841722214276516
"y2","~~","y2",0.0189643129263248
"y3","~~","y3",1.07106591870316
"y4","~~","y4",-0.01294129918607
"x3","~~","x3",0.00955272171229859
"x4","~~","x4",0.0822999961724516
"x5","~~","x5",0.187250210169243
"x2","~~","x2",0.267102781392528
"eta1","~~","eta1",1.62493612206173
"eta2","~~","eta2",7.35340591564531e-05
"eta2","~~","x2",6.7955126188206e-05
