"lhs","op","rhs","est"
"eta1","=~","y2",0.480984728848725
"eta1","=~","y3",-0.0606519440752857
"eta2","=~","y5",-0.0554463276750348
"eta2","~","x2",0.439273888157077
"x4","~","eta2",0.0638675468715989
"x4","~","x1",-0.457916142355389
"eta1","~","x2",-0.408665107743051
"x3","~","eta1",0.49121269963477
"x5","~","eta2",0.290614627179223
"y1","~~","y1",0.986234538301364
"y2","~~","y2",0.213855636920305
"y3","~~","y3",0.00381014681080602
"y4","~~","y4",0.829776328635056
"y5","~~","y5",0.00304771666050373
"x4","~~","x4",0.214723632217452
"x3","~~","x3",0.157268721567132
"x5","~~","x5",0.126185380241523
"eta1","~~","eta1",0.254085266419826
"eta2","~~","eta2",0.186394605656742
"x4","~~","x3",0.00247509626830078
"x4","~~","x5",-0.00453258010511872
"x3","~~","x5",0.00226148568446765
