"lhs","op","rhs","est"
"eta1","=~","y2",0.324084663421281
"eta1","=~","y3",0.259221564602121
"eta2","=~","y5",0.138740056653039
"eta2","=~","y6",0.0936347601332285
"x4","~","eta2",-0.163234975524358
"x4","~","x3",0.372818922752723
"x2","~","x4",0.14659205478393
"x5","~","x2",0.28983555004273
"eta1","~","x5",0.379294373957746
"x1","~","x2",-0.564752769401144
"y1","~~","y1",0.788625192129611
"y2","~~","y2",0.248690367497779
"y3","~~","y3",0.155974211095496
"y4","~~","y4",1.02760858818008
"y5","~~","y5",0.0189548412710421
"y6","~~","y6",0.00746717331996976
"x4","~~","x4",0.175868872479326
"x2","~~","x2",0.0430896782395238
"x5","~~","x5",0.208904527652508
"x1","~~","x1",0.275101678026298
"eta1","~~","eta1",0.29556225045431
"eta2","~~","eta2",1.75007336812817
"eta1","~~","x1",-0.0555267297869072
