"lhs","op","rhs","est"
"eta1","=~","y2",0.353345471859846
"eta1","=~","y3",0.0529890949492168
"eta2","=~","y5",-0.218979888418571
"x3","~","eta1",-0.229291226970441
"x3","~","x2",0.242943719056911
"x5","~","x3",-0.432349198279131
"x1","~","eta1",-0.260140941095433
"eta2","~","x1",0.364938447886812
"x4","~","eta1",0.277410540479968
"y1","~~","y1",1.1429419368987
"y2","~~","y2",0.139589109024833
"y3","~~","y3",0.00317955108016561
"y4","~~","y4",1.02378940707435
"y5","~~","y5",0.029142311430966
"x3","~~","x3",0.127979229461132
"x5","~~","x5",0.451803567688095
"x1","~~","x1",0.0605883085666414
"x4","~~","x4",0.0750854548476725
"eta1","~~","eta1",1.80821966900782
"eta2","~~","eta2",0.156812805156628
"eta2","~~","x5",-0.0351161872286791
"eta2","~~","x4",0.00153773203102729
"x5","~~","x4",0.0138193854232334
