"lhs","op","rhs","est"
"eta1","=~","y2",0.150994102161768
"eta1","=~","y3",-0.229423843417337
"eta2","=~","y5",474.27532219193
"eta2","=~","y6",0.31320295985929
"x4","~","x3",0.100568147119234
"x2","~","x4",-0.181724605773067
"eta2","~","x2",2.95562451827613e-05
"x5","~","x4",-0.42970092777191
"eta1","~","x2",0.0800717360152746
"x1","~","x4",-0.233132202056892
"y1","~~","y1",0.946379938707746
"y2","~~","y2",0.0383489739660473
"y3","~~","y3",0.080540002152751
"y4","~~","y4",0.98458682269698
"y5","~~","y5",3.44166050612145
"y6","~~","y6",0.0507051401968213
"x4","~~","x4",0.00916350741721926
"x2","~~","x2",0.0180681900934883
"x5","~~","x5",0.14486960412262
"x1","~~","x1",0.0681255250841298
"eta1","~~","eta1",0.300082034657765
"eta2","~~","eta2",-1.48109494657862e-05
"eta1","~~","eta2",6.98373742467546e-06
"eta1","~~","x5",-8.8982030967919e-05
"eta1","~~","x1",0.0155214926897191
"eta2","~~","x5",1.15766855521966e-05
"eta2","~~","x1",9.67094885131857e-06
"x5","~~","x1",0.0130280249792847
