"lhs","op","rhs","est"
"eta1","=~","y2",0.250614582872687
"eta1","=~","y3",-0.124236655660173
"eta2","=~","y5",-0.232614307362433
"x4","~","eta1",0.0560934350448652
"x4","~","eta2",-0.131818086171504
"x1","~","x2",-0.3393172013208
"x1","~","x4",-0.0186566130433171
"x3","~","x1",0.0479853985821269
"eta2","~","x5",0.407270479219165
"y1","~~","y1",1.0358743307369
"y2","~~","y2",0.0423980457987623
"y3","~~","y3",0.0120024768805259
"y4","~~","y4",1.1597608271502
"y5","~~","y5",0.0513733626260542
"x4","~~","x4",0.0195836725828733
"x1","~~","x1",0.192259365059205
"x3","~~","x3",0.0558211392210173
"eta1","~~","eta1",1.36894298618485
"eta2","~~","eta2",0.186110369389567
