"lhs","op","rhs","est"
"eta1","=~","y2",-1.03087326663505
"x3","~","x1",-0.220477766343042
"x3","~","x5",-0.545166742587827
"x2","~","x3",-0.250691367301875
"x9","~","x2",-0.824192323320067
"x4","~","x7",-0.718620445459918
"x4","~","x9",0.990137160780952
"x5","~","x6",-0.399645596578508
"eta1","~","x2",0.905724726812724
"x8","~","x7",-0.205030934498986
"x10","~","x2",0.199205425677984
"y1","~~","y1",1.02788102208042
"y2","~~","y2",1.07742676418995
"x3","~~","x3",0.501583857159424
"x2","~~","x2",0.636756423148505
"x9","~~","x9",0.602774002120912
"x4","~~","x4",1.54574369838893
"x5","~~","x5",0.157800237265934
"x8","~~","x8",0.0390165234861413
"x10","~~","x10",0.0487350079607954
"eta1","~~","eta1",0.757054467077344
"eta1","~~","x4",0.0916447532629342
"eta1","~~","x8",-0.0146060189985468
"eta1","~~","x10",0.000496237895333749
"x4","~~","x8",0.0131673268008906
"x4","~~","x10",0.0173257262042502
"x8","~~","x10",-0.0033694805136393
"x1","~~","x1",1.66821856734305
"x1","~~","x7",-0.0447864101157136
"x1","~~","x6",0.0911491595532052
"x7","~~","x7",1.59553697587105
"x7","~~","x6",-0.0255932423114497
"x6","~~","x6",1.77291333008191
