"lhs","op","rhs","est"
"eta1","=~","y2",0.605332849955958
"eta1","=~","y3",-0.514137628621148
"x2","~","x4",-0.0931672326132872
"x2","~","x5",1.09235793128675
"eta1","~","x2",-0.00149175079910596
"eta1","~","x6",-0.631125000632712
"x6","~","x9",-0.154258450333679
"x8","~","x1",0.439729746641319
"x8","~","x4",1.01072270526052
"x7","~","x9",0.232745281266963
"x5","~","x10",0.248650625535069
"x3","~","x10",-0.417917251927522
"y1","~~","y1",2.06524555185804
"y2","~~","y2",2.32110344789399
"y3","~~","y3",0.383306949149506
"x2","~~","x2",1.13632897001282
"x6","~~","x6",0.0231588060773996
"x8","~~","x8",1.32689816461676
"x7","~~","x7",0.0604527097868058
"x5","~~","x5",0.0474605248875451
"x3","~~","x3",0.148252548812513
"eta1","~~","eta1",0.578567382034708
"eta1","~~","x8",-0.142628312080741
"eta1","~~","x7",-0.00836890457682471
"eta1","~~","x3",0.0103303042329639
"x8","~~","x7",0.0138819506002593
"x8","~~","x3",0.00622733059932675
"x7","~~","x3",-0.0126150390750258
"x4","~~","x4",1.62444591319722
"x4","~~","x9",-0.0879685162556543
"x4","~~","x1",-0.120693594656075
"x4","~~","x10",-0.0130689757990951
"x9","~~","x9",1.59979487201991
"x9","~~","x1",0.100901668261656
"x9","~~","x10",0.0929182219295597
"x1","~~","x1",1.66250483142614
"x1","~~","x10",0.0860711071298742
"x10","~~","x10",1.69292714607642
