"lhs","op","rhs","est"
"eta1","=~","y2",-0.208739509361336
"eta1","=~","y3",0.594384960648324
"x6","~","eta1",-0.254721398741481
"x6","~","x10",-0.213622564933291
"x6","~","x4",0.252733290833027
"x6","~","x8",-0.188040656710225
"x2","~","x6",-0.111889215743163
"x5","~","x6",-0.382600501515595
"x7","~","x5",0.805335248036089
"x9","~","x1",-0.448121446765352
"x9","~","x4",0.16601685910233
"x3","~","x9",-0.0499612428527106
"y1","~~","y1",0.726527042463292
"y2","~~","y2",0.0494825717907503
"y3","~~","y3",0.535251667521778
"x6","~~","x6",0.289685622410567
"x2","~~","x2",0.0755033139459382
"x5","~~","x5",1.11654771042181
"x7","~~","x7",1.14028520333897
"x9","~~","x9",0.226903500560734
"x3","~~","x3",0.916249409246031
"eta1","~~","eta1",2.05843233134618
"x2","~~","x7",-0.00952290504333942
"x2","~~","x3",-0.0144844217114469
"x7","~~","x3",0.0139053127837086
"x10","~~","x10",1.71020517970483
"x10","~~","x4",-0.101143986103044
"x10","~~","x8",0.00115876457787014
"x10","~~","x1",-0.0487628715445778
"x4","~~","x4",1.58263601530401
"x4","~~","x8",0.0574245516656992
"x4","~~","x1",-0.0574600357582665
"x8","~~","x8",1.70461891470591
"x8","~~","x1",0.0510185977206088
"x1","~~","x1",1.70789964280216
