"lhs","op","rhs","est"
"eta1","=~","y2",0.112616362205856
"eta1","=~","y3",0.213723859398867
"x2","~","x3",-0.420083332760801
"x2","~","x6",-0.419767133937761
"x8","~","x2",-0.698040839612529
"x9","~","x8",-0.347387201816131
"eta1","~","x3",0.247612141764915
"x4","~","eta1",-1.11490583527379
"x7","~","x3",0.867160230984246
"x5","~","x3",0.704560348474028
"x10","~","x2",0.577723604149131
"x1","~","x8",0.329691973145178
"y1","~~","y1",1.06577012471812
"y2","~~","y2",0.0158007782168913
"y3","~~","y3",0.0588323671154347
"x2","~~","x2",0.432925023697032
"x8","~~","x8",0.924225740785084
"x9","~~","x9",0.236390243018248
"x4","~~","x4",1.01369957855282
"x7","~~","x7",0.879412758854455
"x5","~~","x5",0.406205906753328
"x10","~~","x10",0.85126957895792
"x1","~~","x1",0.297415528086541
"eta1","~~","eta1",0.0351736663260589
"x9","~~","x4",0.0124031192978789
"x9","~~","x7",-0.0491771709326723
"x9","~~","x5",-0.036030562978159
"x9","~~","x10",-0.00456528807490191
"x9","~~","x1",-0.0226362309777011
"x4","~~","x7",-0.0041763469433771
"x4","~~","x5",0.0208934893774766
"x4","~~","x10",-0.0495324884112188
"x4","~~","x1",-0.009072486816253
"x7","~~","x5",-0.027561458856472
"x7","~~","x10",0.097242146376096
"x7","~~","x1",-0.0363195135365139
"x5","~~","x10",0.0652146792117345
"x5","~~","x1",-0.00177429171903438
"x10","~~","x1",-0.0130535420930254
"x3","~~","x3",1.69161597691894
"x3","~~","x6",0.113903908643936
"x6","~~","x6",1.7548876872361
