"lhs","op","rhs","est"
"eta1","=~","y2",-0.164542171192936
"eta1","=~","y3",0.880082827324354
"x2","~","x10",0.409310666464456
"x2","~","x7",0.265910759257472
"x9","~","x2",-0.0919649994300296
"x6","~","x1",0.561206528934916
"x6","~","x9",-0.371952683579057
"x3","~","eta1",-0.517310686892826
"x3","~","x6",0.116900376263943
"x5","~","x3",-0.0614426848871751
"x5","~","x4",0.64567321446928
"x8","~","x3",0.0139468959457299
"y1","~~","y1",0.927957107153183
"y2","~~","y2",0.0282076652925904
"y3","~~","y3",1.26184834172891
"x2","~~","x2",0.222333237839073
"x9","~~","x9",0.0109475449483219
"x6","~~","x6",0.992888924976535
"x3","~~","x3",0.497010560085149
"x5","~~","x5",0.801601441132656
"x8","~~","x8",0.115890483596767
"eta1","~~","eta1",1.8286599818671
"x5","~~","x8",-0.0393232650299535
"x10","~~","x10",1.48717023109132
"x10","~~","x7",-0.102911181868512
"x10","~~","x1",-0.0389181100463489
"x10","~~","x4",0.0624603713275702
"x7","~~","x7",1.68718768298149
"x7","~~","x1",-0.141793734377651
"x7","~~","x4",0.0926512216157521
"x1","~~","x1",1.72412508712526
"x1","~~","x4",0.0524112012679666
"x4","~~","x4",1.68726978673067
