"lhs","op","rhs","est"
"eta1","=~","y2",-0.102846293098587
"eta1","~","x2",-0.232243952878273
"eta1","~","x7",0.2087853036841
"x4","~","eta1",-0.0848062665847414
"x4","~","x1",0.314844757484763
"x10","~","x4",0.0493486611595551
"x9","~","x6",-0.217533863975628
"x9","~","x7",0.717141546859394
"x8","~","x4",-0.0261852829327978
"x5","~","x4",0.223666973055123
"x3","~","x1",-0.519117846244388
"y1","~~","y1",1.6032984642741
"y2","~~","y2",0.0232076520029465
"x4","~~","x4",0.11293914808521
"x10","~~","x10",0.11075070531032
"x9","~~","x9",0.499454188267295
"x8","~~","x8",0.033639967791722
"x5","~~","x5",0.0897150982787153
"x3","~~","x3",0.269907695167333
"eta1","~~","eta1",0.386386237205326
"x10","~~","x9",-0.0218356267524331
"x10","~~","x8",0.00390317993393448
"x10","~~","x5",-0.00248867898354785
"x10","~~","x3",-0.0077937557167167
"x9","~~","x8",-0.00274306153187811
"x9","~~","x5",0.0105954969437198
"x9","~~","x3",0.0241628262019186
"x8","~~","x5",-0.00356639035179123
"x8","~~","x3",0.00815410143249762
"x5","~~","x3",0.00223585472353523
"x2","~~","x2",1.68596851851585
"x2","~~","x7",0.0605243187371252
"x2","~~","x1",-0.0164452782099092
"x2","~~","x6",-0.141669153173737
"x7","~~","x7",1.68439178542044
"x7","~~","x1",-0.0744714392359798
"x7","~~","x6",0.151401083764987
"x1","~~","x1",1.77013535085819
"x1","~~","x6",0.0637437242765492
"x6","~~","x6",1.73515753409671
