"lhs","op","rhs","est"
"eta1","=~","y2",-0.904650442044187
"x9","~","x2",0.726428272508608
"x6","~","x1",0.523370144791503
"x6","~","x9",0.755186798209982
"x4","~","x6",-0.723679769002624
"x1","~","x8",0.133731402110375
"x10","~","x9",0.110740802332166
"x5","~","x10",0.380099306821628
"eta1","~","x6",-0.868650488919891
"x7","~","x9",-0.221179317147088
"x3","~","x8",1.03935338392061
"y1","~~","y1",2.17143322555331
"y2","~~","y2",1.4414206946222
"x9","~~","x9",0.496820919935134
"x6","~~","x6",0.707704488244152
"x4","~~","x4",1.01570903435427
"x1","~~","x1",0.0101441826298901
"x10","~~","x10",0.0130627040389478
"x5","~~","x5",0.265002483417317
"x7","~~","x7",0.0595570565704031
"x3","~~","x3",1.27359242128803
"eta1","~~","eta1",1.21568427658066
"eta1","~~","x4",-0.0417443704102037
"eta1","~~","x5",0.0510035584836645
"eta1","~~","x7",-0.0132536587171053
"eta1","~~","x3",0.149529196975528
"x4","~~","x5",-0.0190827349693632
"x4","~~","x7",0.0149702843139468
"x4","~~","x3",0.0167157967871801
"x5","~~","x7",-0.0081526866888324
"x5","~~","x3",-0.0290298880837876
"x7","~~","x3",-0.00808426248561933
"x2","~~","x2",1.65168804870094
"x2","~~","x8",-0.0951173486987231
"x8","~~","x8",1.70709010542966
