"lhs","op","rhs","est"
"eta1","=~","y2",-0.522428587057439
"x7","~","x10",1.04868547361858
"x9","~","x7",0.207009879380048
"x1","~","x9",-0.204665636181793
"x4","~","x5",-0.776289288224233
"x4","~","x7",0.820455260907269
"x8","~","x4",-0.934341789220394
"eta1","~","x8",-0.741330330021761
"x3","~","x2",-0.161593964538742
"x3","~","x7",0.52965812933314
"x6","~","x2",-0.588315588027656
"y1","~~","y1",2.18517753997883
"y2","~~","y2",0.529318142231894
"x7","~~","x7",0.886017057233717
"x9","~~","x9",0.032621101245045
"x1","~~","x1",0.0403307188020378
"x4","~~","x4",1.31752324467838
"x8","~~","x8",1.61401524792332
"x3","~~","x3",0.30589690236843
"x6","~~","x6",0.280612329236783
"eta1","~~","eta1",1.17256958827553
"eta1","~~","x1",-0.00563102413709864
"eta1","~~","x3",-0.0438759359187463
"eta1","~~","x6",-0.0691761269928032
"x1","~~","x3",0.0109464331487372
"x1","~~","x6",-0.00445654030242093
"x3","~~","x6",0.00426876078850363
"x10","~~","x10",1.78220215735151
"x10","~~","x5",0.0284729138576055
"x10","~~","x2",-0.0266178168548177
"x5","~~","x5",1.48718321690719
"x5","~~","x2",-0.106262503839761
"x2","~~","x2",1.72242549237173
