"lhs","op","rhs","est"
"eta1","=~","y2",-0.522230436506554
"eta1","=~","y3",0.31169371791708
"eta2","=~","y5",0.622210189556717
"eta3","=~","y9",1.30558903424347
"eta4","=~","y8",0.839120459778582
"eta4","=~","y9",0.319563829440104
"eta5","=~","y12",0.409012996928
"eta5","=~","y13",0.296030145626622
"eta6","=~","y15",0.960289937527657
"eta6","=~","y16",-0.541344061041799
"eta7","=~","y18",-0.300003468510907
"eta8","=~","y20",0.805080282103986
"eta4","~","eta1",-1.05178830178505
"eta4","~","eta3",-0.248743458975302
"x7","~","eta4",0.6815805815342
"x7","~","x2",1.04422582594756
"x3","~","eta6",0.308209642723958
"x3","~","x1",0.579534527413034
"x3","~","x7",-0.0683061944201614
"x9","~","eta8",-0.678167894826683
"x9","~","x3",0.0114291234623236
"x9","~","x4",-0.847651355313626
"eta5","~","x6",0.989814111941476
"eta5","~","x9",-0.0241915930658945
"eta7","~","eta5",-0.915447360919062
"x5","~","x3",-0.409315678454591
"x8","~","eta2",0.228412263243284
"x8","~","x5",0.666302432303609
"x10","~","x6",-0.216497929309084
"y1","~~","y1",1.02841147371286
"y2","~~","y2",0.252298425230682
"y3","~~","y3",0.0987328518827898
"y4","~~","y4",0.437047740837134
"y5","~~","y5",0.70151737904535
"y7","~~","y7",2.22998892064264
"y9","~~","y9",-0.235782490599628
"y10","~~","y10",1.8084504650459
"y8","~~","y8",1.26879899940977
"y11","~~","y11",2.14689867300005
"y12","~~","y12",0.329230516061327
"y13","~~","y13",0.184097370128337
"y14","~~","y14",3.43217453393089
"y15","~~","y15",0.847678878014543
"y16","~~","y16",0.361975046941291
"y18","~~","y18",0.158825493627895
"y19","~~","y19",1.01675820277678
"y20","~~","y20",0.714587115783133
"x7","~~","x7",1.43930082227881
"x3","~~","x3",0.599279776784075
"x9","~~","x9",1.55426960165381
"x5","~~","x5",0.909429646697484
"x8","~~","x8",0.898377096569045
"x10","~~","x10",0.0523520576433032
"eta1","~~","eta1",1.61556904909677
"eta2","~~","eta2",2.00983908622677
"eta3","~~","eta3",0.349295693298868
"eta4","~~","eta4",1.2884228770466
"eta5","~~","eta5",1.70265379148412
"eta6","~~","eta6",1.58556303048262
"eta7","~~","eta7",1.34989968168928
"eta8","~~","eta8",1.72286355843815
"eta1","~~","eta2",-0.0136048306160675
"eta1","~~","eta3",0.0637936867116671
"eta1","~~","eta6",-0.0251283818022883
"eta1","~~","eta8",-0.0329905644215595
"eta2","~~","eta3",-0.0126034239133739
"eta2","~~","eta6",-4.04340881683743e-05
"eta2","~~","eta8",-0.0226979147258158
"eta3","~~","eta6",0.000453794136802277
"eta3","~~","eta8",0.0250968593155231
"eta6","~~","eta8",0.0015534135606502
"eta7","~~","x8",-0.0556003712305992
"eta7","~~","x10",0.01110815368319
"x8","~~","x10",-0.011981985771882
