eta1 =~ y2 + y20 + y3
eta2 =~ y4 + y5
eta3 =~ y6 + y7
eta4 =~ y10 + y8 + y9
eta5 =~ y11 + y12 + y13
eta6 =~ y14 + y15
eta7 =~ y16 + y18 + y19
eta8 =~ y19 + y20
x4 ~ x2 + x9
x1 ~ x4
eta8 ~ eta1 + x1 + x10
x6 ~ eta8 + x7
x3 ~ eta4
x7 ~ x3
x10 ~ eta5
x8 ~ x7
eta2 ~ x9
eta6 ~ eta7 + x7
x2 ~ x5
eta3 ~ x2
