lhs,op,rhs,est
x5,~,x9,-0.9229038889184082
x8,~,eta4,0.28351999940027817
x8,~,x2,-0.435355611518556
x8,~,x5,-0.7410684249526394
x6,~,eta3,0.9696305951456856
x6,~,x8,0.11252065197393285
x4,~,x6,0.46556824634707694
x3,~,eta1,-0.5183599968563214
x3,~,x10,-0.2511889326716906
x3,~,x8,-0.1316962658770588
x10,~,eta8,-0.9935460899040113
x10,~,x1,-0.5088574978858316
eta5,~,x6,-0.7063657194047029
x7,~,eta3,-0.18493067847654804
eta7,~,eta3,0.8993120004723838
eta6,~,x10,0.6255081097355311
eta2,~,x2,-0.42940662545922875
eta1,=~,y2,0.5311523158036273
eta1,=~,y3,-0.32676377200917156
eta2,=~,y5,-0.9648498851685656
eta3,=~,y7,-0.22533260396338536
eta4,=~,y9,0.5743381168864921
eta5,=~,y11,-0.5897211600697778
eta6,=~,y13,0.35811268814251207
eta7,=~,y4,1.059052121810183
eta8,=~,y17,-0.8728401236306246
