lhs,op,rhs,est
eta5,~,x10,0.9376486325810912
eta1,~,eta5,0.12466533783630271
eta1,~,x9,0.8343134175982352
eta6,~,eta1,-0.34159264994866406
eta6,~,eta7,0.49862778762903326
eta6,~,x5,-0.8423964462885863
x1,~,eta2,-0.6451807510490608
x1,~,eta6,-1.0343635915699805
eta7,~,eta4,0.675717888769726
eta7,~,x3,-0.7889305088586317
x8,~,x2,-0.27167463291182525
x5,~,x8,0.7064788983185326
x3,~,x4,0.6345633352584497
x7,~,eta3,-0.19079714132933093
x7,~,eta5,-0.3922635707089158
x6,~,eta1,0.934080319188151
eta8,~,x5,-0.28888989614804134
eta1,=~,y2,-0.36824977740971543
eta1,=~,y3,-0.8748727368303163
eta2,=~,y5,-0.274606489903895
eta3,=~,y7,-0.639744071331641
eta4,=~,y8,0.5971820907871637
eta4,=~,y9,0.24072922439595734
eta5,=~,y12,0.7409504848992345
eta5,=~,y13,-0.8423805271401699
eta6,=~,y15,-0.41087410607839003
eta6,=~,y2,-0.7687484612965648
eta7,=~,y18,-0.9039315634432908
eta7,=~,y19,0.6876733077677488
eta8,=~,y21,-0.19063669279103668
