lhs,op,rhs,est
eta6,~,eta5,-0.31781052361978707
eta6,~,x1,0.2881336352255872
eta3,~,eta6,-1.0499785748376185
eta3,~,x2,-0.8489490923493143
x4,~,eta3,-0.16710209869258189
eta4,~,eta3,0.17851616450168545
eta4,~,x3,-0.33951870328861367
eta4,~,x5,-0.21827571301134208
eta4,~,x8,0.34242635454900866
x3,~,eta7,-0.6255063140953554
x3,~,x10,-0.23038227948345721
x3,~,x9,0.15441331404270608
eta2,~,x8,-0.5227257500638807
eta8,~,eta2,0.5950688022053666
x6,~,eta6,0.9137731200207685
x7,~,eta7,-0.5002640876039243
eta1,~,eta5,-0.44964913801522216
eta1,=~,y2,0.850407897211374
eta2,=~,y4,-0.2725502872249555
eta2,=~,y5,0.32762033559390924
eta3,=~,y7,0.8070304129803627
eta4,=~,y8,-0.34826415452086085
eta4,=~,y9,-0.3720511896596052
eta5,=~,y12,0.15424667713480314
eta5,=~,y13,0.7608070596357486
eta6,=~,y15,0.18149910115996998
eta7,=~,y19,0.5183938919076909
eta8,=~,y19,0.46574792809487736
eta8,=~,y20,0.8444913600460646
