lhs,op,rhs,est
x2,~,eta4,-0.7191471950762891
x2,~,x6,-0.6985071500753389
x1,~,x2,0.7008436240445691
x4,~,eta4,-0.3886972020120537
eta2,~,x4,0.24719563991691057
eta1,~,eta2,-0.5238661785148166
x6,~,x10,0.6606740628281266
x5,~,x6,-0.3255880138595968
x9,~,x6,-1.0912393186708211
x3,~,x9,0.8441030052976765
eta8,~,x2,-0.36746737034491206
eta8,~,x7,-0.7240382078017518
x7,~,eta5,-1.0247453076011648
x8,~,eta3,-0.4286856307036075
x8,~,eta6,0.21780983817616664
x8,~,x7,-1.0093822489544084
eta7,~,x9,1.0994662485272924
eta1,=~,y2,0.5846074107006324
eta1,=~,y3,-0.5876145552545123
eta2,=~,y5,-0.17395616708492562
eta3,=~,y7,0.22463736088573177
eta4,=~,y8,-0.6304706482817823
eta4,=~,y9,-0.7115001707711743
eta5,=~,y12,-1.03791687625106
eta5,=~,y13,-0.4443094763100386
eta6,=~,y15,-0.5161764607198432
eta7,=~,y6,0.337873175409901
eta8,=~,y19,0.41561428726800387
