lhs,op,rhs,est
x4,~,eta1,-0.3552626059206925
x4,~,eta4,0.49127320290870785
eta4,~,eta6,0.5400539012934897
eta4,~,eta7,-0.41219158867560646
eta4,~,x3,0.9412097417550966
eta3,~,eta4,-0.9599789080864208
x6,~,eta1,-0.2872626907931306
eta5,~,x6,0.3179664080093718
x5,~,eta7,1.0277207106107693
eta2,~,eta7,0.4546130876938385
eta8,~,eta2,0.41145534115517585
eta8,~,x10,-0.13063379062307767
eta8,~,x8,0.375305899469487
x7,~,x1,-0.2724908898688714
x3,~,x7,-0.35581708111531324
x9,~,x3,-0.16495759656464593
x2,~,x7,1.0513816517023884
eta1,=~,y2,-0.27754918007369733
eta2,=~,y4,0.3156874367333845
eta3,=~,y6,-0.5088272923548887
eta4,=~,y8,1.0475631093618758
eta5,=~,y9,0.30525946915046726
eta6,=~,y12,0.7565978799042972
eta7,=~,y14,-0.8509495687335857
eta8,=~,y16,0.8743120892011779
eta8,=~,y17,0.48284902856231526
