"lhs","op","rhs","est"
"eta1","=~","y2",0.209877218437472
"eta2","=~","y4",-0.57789536640416
"x1","~","eta1",0.233953364392855
"x1","~","x5",0.396049086439079
"x3","~","x2",-0.768689038994984
"x5","~","x3",0.469371404729846
"eta2","~","eta1",0.692262913842239
"eta2","~","x4",-0.197531916556334
"y1","~~","y1",1.11641049863158
"y2","~~","y2",0.0459551683775074
"y3","~~","y3",2.15201412317367
"y4","~~","y4",0.635722942234037
"x1","~~","x1",0.181191220151414
"x3","~~","x3",0.551521799153234
"x5","~~","x5",0.19273685222573
"eta1","~~","eta1",1.73685866305493
"eta2","~~","eta2",0.496683164528972
"eta2","~~","x1",-0.00189812814338531
"x2","~~","x2",1.62359717372626
"x2","~~","x4",-0.0721901125618898
"x4","~~","x4",1.75619366393356
