"lhs","op","rhs","est"
"eta1","=~","y2",-0.803413461537544
"eta1","=~","y3",-0.435110439170426
"eta2","=~","y5",1427.09423683568
"eta2","=~","y6",0.0943906242296862
"x5","~","x2",-0.749571601721983
"eta2","~","x5",3.76735276466825e-05
"eta1","~","eta2",0.106351065608492
"eta1","~","x3",-0.227061661830161
"x1","~","eta1",0.12092837141436
"x4","~","x5",-0.266529416215631
"y1","~~","y1",1.78019293551438
"y2","~~","y2",0.97240409610689
"y3","~~","y3",0.213569062415313
"y4","~~","y4",0.931809233868655
"y5","~~","y5",-43.9680234422194
"y6","~~","y6",0.0679377349527093
"x5","~~","x5",0.519977813156778
"x1","~~","x1",0.0326571734719171
"x4","~~","x4",0.0741910553889243
"eta1","~~","eta1",0.145326846896105
"eta2","~~","eta2",2.16937455003758e-05
"x1","~~","x4",-0.000548312164166826
"x2","~~","x2",1.65156216052803
"x2","~~","x3",0.102734331809952
"x3","~~","x3",1.53220520491017
