"lhs","op","rhs","est"
"eta1","=~","y2",-0.376825260108315
"eta2","=~","y4",0.0945289212909877
"x5","~","x2",-0.827975502559939
"x5","~","x3",0.797932691818578
"x5","~","x4",-0.774277731878776
"eta1","~","x5",-0.0428448535822728
"eta2","~","eta1",0.467773120129105
"x1","~","eta2",-0.635428934547901
"y1","~~","y1",0.911193631080913
"y2","~~","y2",0.150109719026172
"y3","~~","y3",0.997664710548791
"y4","~~","y4",0.0105778216495401
"x5","~~","x5",1.68098836553636
"x1","~~","x1",0.161524855377501
"eta1","~~","eta1",0.0349444896025277
"eta2","~~","eta2",0.137508195147009
"x2","~~","x2",1.55150147972811
"x2","~~","x3",-0.0340295393798435
"x2","~~","x4",-0.0533108576932711
"x3","~~","x3",1.7006842341266
"x3","~~","x4",0.0619923074531791
"x4","~~","x4",1.51019509081218
