"lhs","op","rhs","est"
"eta1","=~","y2",0.794689641826042
"eta2","=~","y4",0.102839447189462
"eta2","=~","y5",0.800683748756327
"eta1","~","x2",0.460686234367499
"eta1","~","x4",-0.374022856166785
"x1","~","eta1",0.332283375109271
"x1","~","eta2",-0.6783709037484
"x5","~","x2",0.269982773187484
"x4","~","x3",-0.508892954056895
"y1","~~","y1",2.09188825800976
"y2","~~","y2",1.05483501881964
"y3","~~","y3",0.904842494150016
"y4","~~","y4",0.0132209248566037
"y5","~~","y5",0.610917450241492
"x1","~~","x1",0.747859698001034
"x5","~~","x5",0.0728173145445176
"x4","~~","x4",0.292133008568218
"eta1","~~","eta1",0.274420011504325
"eta2","~~","eta2",1.70929724765665
"x1","~~","x5",-0.00239338686727615
"x2","~~","x2",1.78071727292932
"x2","~~","x3",-0.0398250295994819
"x3","~~","x3",1.55559844471961
