"lhs","op","rhs","est"
"eta1","=~","y2",0.327757880433717
"eta1","=~","y3",-0.0977889064576477
"eta2","=~","y5",-0.4351279264961
"x5","~","eta2",0.235792968004675
"x5","~","x3",0.550685658568289
"x2","~","x5",0.021527963182912
"x4","~","x2",-0.576448021973148
"x1","~","x5",0.138575035189559
"eta1","~","x1",-0.500930487873532
"y1","~~","y1",1.15247012565176
"y2","~~","y2",0.0721505959549438
"y3","~~","y3",0.00517320196873588
"y4","~~","y4",0.777832890632195
"y5","~~","y5",0.315265194053089
"x5","~~","x5",0.358622545731123
"x2","~~","x2",0.022059282780091
"x4","~~","x4",0.379485297906407
"x1","~~","x1",0.400098724535287
"eta1","~~","eta1",0.321301295170432
"eta2","~~","eta2",1.47166441010604
"eta1","~~","x4",0.0309326467521617
"x3","~~","x3",1.42881830822858
