"lhs","op","rhs","est"
"eta1","=~","y2",0.483279534651235
"eta1","=~","y3",0.095935339731879
"eta2","=~","y5",0.323175940941657
"eta2","~","x5",0.566544455629922
"x4","~","eta2",0.366203691208193
"x2","~","x4",0.673097054551403
"eta1","~","eta2",0.246567041596511
"x1","~","eta1",0.721538959931013
"x3","~","x1",0.21055490065732
"y1","~~","y1",1.03358376514762
"y2","~~","y2",0.212147460925863
"y3","~~","y3",0.017898910130607
"y4","~~","y4",0.803115623040283
"y5","~~","y5",0.143116440722788
"x4","~~","x4",0.156693617824192
"x2","~~","x2",0.465897108533939
"x1","~~","x1",0.529133926970792
"x3","~~","x3",0.0399628667680519
"eta1","~~","eta1",0.0890832682226017
"eta2","~~","eta2",0.364960699965813
"x2","~~","x3",0.00870417666424888
"x5","~~","x5",1.7722967155319
