"lhs","op","rhs","est"
"eta1","=~","y2",-0.123844950079931
"eta1","=~","y3",0.438439413097706
"eta2","=~","y5",0.319378049423618
"eta2","=~","y6",0.622840320091843
"x3","~","x4",-0.795942557789281
"x5","~","x3",-0.229180739377833
"x2","~","x5",-0.38479909917672
"eta1","~","x4",0.557761303347119
"x1","~","x4",-0.426120709075677
"eta2","~","x1",-0.406657711647166
"y1","~~","y1",0.869320924471799
"y2","~~","y2",0.0173759428550661
"y3","~~","y3",0.205812041086914
"y4","~~","y4",0.88590199234838
"y5","~~","y5",0.0986603006773805
"y6","~~","y6",0.458586518469237
"x3","~~","x3",0.613063046058908
"x5","~~","x5",0.0499167515321728
"x2","~~","x2",0.21789156451473
"x1","~~","x1",0.172523332517321
"eta1","~~","eta1",0.328540684174717
"eta2","~~","eta2",0.208078895167421
"eta1","~~","eta2",0.0514532386428607
"eta1","~~","x2",-0.0219946291368308
"eta2","~~","x2",-0.0233682986081939
"x4","~~","x4",1.66395531450482
