"lhs","op","rhs","est"
"eta1","=~","y2",-0.438340362224675
"eta2","=~","y4",0.252579105989695
"x1","~","x5",0.427935901647466
"x3","~","x1",0.870782771752444
"x3","~","x4",0.517888775592021
"eta1","~","x3",0.643120565070555
"x4","~","eta2",-0.773200857990791
"x2","~","x3",-0.549257466924193
"y1","~~","y1",2.02606590636192
"y2","~~","y2",0.145032167371344
"y3","~~","y3",0.980192591848105
"y4","~~","y4",0.07756078057082
"x1","~~","x1",0.186716223884244
"x3","~~","x3",1.01320842197495
"x4","~~","x4",0.612014158909163
"x2","~~","x2",0.610367065774654
"eta1","~~","eta1",0.731003803882258
"eta2","~~","eta2",1.66547367153109
"eta1","~~","x2",0.010844256390224
"x5","~~","x5",1.61090031542696
