"lhs","op","rhs","est"
"eta1","=~","y2",0.130523126045925
"eta2","=~","y4",-0.614719826056256
"x2","~","x3",0.459675364579557
"eta1","~","x3",0.539098360364079
"x4","~","eta1",0.210006072443311
"x5","~","x3",0.598956575780928
"x1","~","eta2",-0.153701752420925
"x1","~","x5",-0.793109612967374
"y1","~~","y1",0.976765847521827
"y2","~~","y2",0.0159966125127535
"y3","~~","y3",0.633019534452714
"y4","~~","y4",0.60897031003627
"x2","~~","x2",0.20019118107512
"x4","~~","x4",0.0443209440186796
"x5","~~","x5",0.415129500404565
"x1","~~","x1",0.520173027930626
"eta1","~~","eta1",0.270561354298381
"eta2","~~","eta2",2.07145294605508
"x2","~~","x4",-0.00175151809649549
"x2","~~","x1",0.00527104491982055
"x4","~~","x1",0.00115794191556697
"x3","~~","x3",1.61744007984607
