"lhs","op","rhs","est"
"eta1","=~","y2",-0.602396664998847
"eta2","=~","y4",0.715311971744585
"eta3","=~","y6",-0.97531132519226
"eta3","=~","y7",0.496573887179651
"eta4","=~","y9",0.319929648744778
"x5","~","eta3",-0.277273650050428
"x5","~","x9",-0.740696003079691
"x10","~","x5",-0.151814143404757
"x10","~","x6",-3.8430936936094
"x3","~","x10",0.354712448676653
"x3","~","x7",0.758216499373268
"x8","~","x3",-0.131206773345295
"x6","~","x8",0.103008168948022
"eta4","~","eta2",-0.207468044625697
"eta4","~","x4",0.115518637320379
"x7","~","eta4",-0.6071674307313
"x1","~","x10",0.504650717513206
"x2","~","eta1",0.126009153522501
"x2","~","x1",-0.76662141888772
"y1","~~","y1",1.44560472093304
"y2","~~","y2",0.116625924622857
"y3","~~","y3",0.824389264053264
"y4","~~","y4",0.744418027419796
"y5","~~","y5",0.979369805996532
"y6","~~","y6",1.01463146634994
"y7","~~","y7",0.195436994131251
"y8","~~","y8",1.92065731662111
"y9","~~","y9",0.0981235741968874
"x5","~~","x5",0.620630558566127
"x10","~~","x10",1.59664634333378
"x3","~~","x3",1.07568177592862
"x8","~~","x8",0.238254993571167
"x6","~~","x6",0.0112586639175014
"x7","~~","x7",0.941794186307902
"x1","~~","x1",0.617524630081272
"x2","~~","x2",0.64981527054116
"eta1","~~","eta1",1.23128880447097
"eta2","~~","eta2",1.978866383838
"eta3","~~","eta3",1.60696123457218
"eta4","~~","eta4",0.0276630766395708
"eta1","~~","eta2",-0.00877238759127467
"eta1","~~","eta3",0.0200004367864375
"eta2","~~","eta3",-0.0750002840990402
