"lhs","op","rhs","est"
"eta1","=~","y2",0.247950532739126
"eta1","=~","y3",-0.914429959098704
"eta2","=~","y4",-0.131332379175822
"eta2","=~","y5",0.148901753421249
"eta3","=~","y8",-0.368297264836954
"eta4","=~","y9",-0.591495730752581
"eta3","~","x3",-0.899239983415296
"x7","~","eta3",0.108481018173542
"x7","~","x4",0.34682868374381
"x8","~","x7",-0.217274807283986
"x8","~","x9",-1.01030389816108
"x1","~","x7",0.370602587064006
"x6","~","x1",0.119822705891804
"x2","~","x6",-0.726857568734674
"eta1","~","x2",-0.463838060591131
"x9","~","eta2",-0.985762946701783
"x5","~","eta4",-0.536519566061878
"x5","~","x9",0.180278205256633
"x10","~","eta3",0.706753644401809
"x4","~","x6",-0.489306401760174
"y1","~~","y1",2.17047892472479
"y2","~~","y2",0.0831745527177022
"y3","~~","y3",1.06467542824352
"y4","~~","y4",0.017751567222172
"y5","~~","y5",0.0230467630916692
"y7","~~","y7",1.03487284518875
"y8","~~","y8",0.127050596490344
"y10","~~","y10",0.848778237381714
"y9","~~","y9",0.30602936203042
"x7","~~","x7",0.100499092995653
"x8","~~","x8",1.46524932273306
"x1","~~","x1",0.818124199098132
"x6","~~","x6",0.0122718995368838
"x2","~~","x2",0.312814152168763
"x9","~~","x9",1.00308016813281
"x5","~~","x5",0.298782733636617
"x10","~~","x10",0.507518913547027
"x4","~~","x4",0.241460950546813
"eta1","~~","eta1",0.217859519305639
"eta2","~~","eta2",1.82970232804589
"eta3","~~","eta3",0.709242413623194
"eta4","~~","eta4",1.96643323012203
"eta2","~~","eta4",0.0812400741005772
"eta1","~~","x8",-0.0608648067015376
"eta1","~~","x5",-0.000803900509052858
"eta1","~~","x10",-0.0220457887374668
"x8","~~","x5",-0.00162667617771405
"x8","~~","x10",-0.0337851238306382
"x5","~~","x10",-0.0041561011571934
