"lhs","op","rhs","est"
"eta1","=~","y2",0.881281576634529
"eta1","=~","y3",0.604038653211634
"eta2","=~","y5",0.185572218507197
"eta2","=~","y6",-0.38663363713136
"eta3","=~","y8",-1.13938320843773
"eta3","=~","y9",-0.870944894741658
"eta4","=~","y5",0.0974689372858686
"x1","~","eta3",-0.759830859897515
"x1","~","x4",0.947848588516807
"eta4","~","x1",-0.712414201071514
"eta4","~","x3",0.156653613334418
"eta4","~","x7",-0.920292981465656
"x9","~","eta1",0.301677870558063
"x9","~","eta4",-0.159163805484814
"x5","~","x9",-0.67196944565375
"x2","~","x1",-0.0777657022444826
"x4","~","x2",-0.0440007040796383
"eta2","~","x10",-0.475255259442922
"eta1","~","eta2",0.682880822623984
"x8","~","x9",0.271851362170618
"x6","~","eta1",-0.563905951672798
"y1","~~","y1",0.884129642287266
"y2","~~","y2",0.884694837395513
"y3","~~","y3",0.487352382515795
"y4","~~","y4",0.879059118920481
"y5","~~","y5",0.0850732891796509
"y6","~~","y6",0.161765039794984
"y7","~~","y7",1.06216619905077
"y8","~~","y8",1.10975285302575
"y9","~~","y9",0.75502280417481
"y11","~~","y11",2.74122336106892
"x1","~~","x1",0.886263532780197
"x9","~~","x9",0.527358441100307
"x5","~~","x5",0.804530730887198
"x2","~~","x2",0.0169300364807941
"x4","~~","x4",0.21674018313128
"x8","~~","x8",0.166509946751264
"x6","~~","x6",0.312748195352922
"eta1","~~","eta1",0.366491114890896
"eta2","~~","eta2",0.246585195703416
"eta3","~~","eta3",1.44902206812675
"eta4","~~","eta4",2.97436286299053
"x5","~~","x8",-0.00385698192390433
"x5","~~","x6",-0.0260287251522778
"x8","~~","x6",-0.000775574559506977
