"lhs","op","rhs","est"
"eta1","=~","y2",0.363788485887449
"eta1","=~","y3",-0.700719258439891
"eta2","=~","y5",0.890221232025411
"eta2","=~","y6",0.251011869519256
"eta3","=~","y8",-14540.3596563519
"eta3","=~","y9",-14022.4960648914
"eta4","=~","y11",-0.192504287457203
"x5","~","x1",-0.65168283333379
"x7","~","eta3",38414.6180369676
"x7","~","x3",-0.768459453118787
"x7","~","x5",-0.6670606728813
"eta1","~","x7",-0.902084267499281
"x9","~","eta1",-0.596782564004561
"eta3","~","x9",-4.91192496623222e-06
"eta2","~","x5",0.724932196959809
"x6","~","eta2",0.303606287516737
"x8","~","eta4",-0.119991585735167
"x8","~","x3",-0.490263689838851
"x4","~","x8",-0.299170499505675
"x2","~","eta2",0.421757225680323
"x10","~","eta2",0.113530874534975
"y1","~~","y1",2.03652855328543
"y2","~~","y2",0.23440250036375
"y3","~~","y3",1.10261923144991
"y4","~~","y4",2.9964036337229
"y5","~~","y5",0.783455015430057
"y6","~~","y6",0.0661187828617519
"y8","~~","y8",0.398449657101875
"y9","~~","y9",0.305118464582342
"y10","~~","y10",1.17659267920273
"y11","~~","y11",0.0261570560960483
"x5","~~","x5",0.393676336074681
"x7","~~","x7",1.33879399028628
"x9","~~","x9",0.753189240208
"x6","~~","x6",0.0970208500513034
"x8","~~","x8",0.278410001709622
"x4","~~","x4",0.165040705928945
"x2","~~","x2",0.216598310633457
"x10","~~","x10",0.018873617417458
"eta1","~~","eta1",1.95590829492785
"eta2","~~","eta2",0.551222812934271
"eta3","~~","eta3",6.50177101413018e-11
"eta4","~~","eta4",1.52375631951024
"x6","~~","x4",-0.0066041977043453
"x6","~~","x2",0.000788912447175268
"x6","~~","x10",0.000989052537189983
"x4","~~","x2",0.00320234375631583
"x4","~~","x10",0.000801523511652722
"x2","~~","x10",-0.0023127335569025
