"lhs","op","rhs","est"
"eta1","=~","y2",1.12962019753438
"eta1","=~","y3",-0.137097837289944
"eta2","=~","y5",-0.859840982496732
"eta2","=~","y6",0.436177103312718
"eta3","=~","y8",0.468977531948773
"eta4","=~","y9",-0.225129668595979
"x3","~","x10",-0.458093033463272
"x3","~","x8",0.211595805525321
"x3","~","x9",0.556973483412397
"eta1","~","x3",-0.0343901811463496
"x4","~","eta1",-0.473509820296683
"x4","~","x5",-0.782850172743892
"x1","~","eta4",-1.26906531748598
"x1","~","x2",0.813235570097571
"x1","~","x4",-0.109931324992659
"eta2","~","x4",0.113353413711282
"x10","~","eta1",0.37999104807278
"eta4","~","x6",-0.390044964422165
"x7","~","eta4",0.554751495132507
"eta3","~","x7",-0.133895230728942
"y1","~~","y1",1.26496671799974
"y2","~~","y2",1.16613295671955
"y3","~~","y3",0.810168479487079
"y4","~~","y4",0.934905797933458
"y5","~~","y5",0.635123294683513
"y6","~~","y6",0.196345706026931
"y8","~~","y8",0.362352918704888
"y10","~~","y10",1.02582200889848
"y9","~~","y9",0.0792667352017588
"x3","~~","x3",0.710711947850151
"x4","~~","x4",0.872326420542183
"x1","~~","x1",2.51008357987655
"x10","~~","x10",0.108948247133939
"x7","~~","x7",0.376090230942461
"eta1","~~","eta1",0.731430699551109
"eta2","~~","eta2",0.513909989074914
"eta3","~~","eta3",0.168086958639818
"eta4","~~","eta4",0.17757444584001
"eta2","~~","eta3",-0.0637135216409175
"eta2","~~","x1",-0.125723777208371
"eta3","~~","x1",0.0332325934985818
