"lhs","op","rhs","est"
"eta1","=~","y2",0.572355054575118
"eta1","=~","y3",0.453304142368625
"eta2","=~","y5",-0.36194779964367
"eta3","=~","y7",-0.947638599111123
"eta4","=~","y8",-0.144397298849947
"eta4","=~","y9",-0.865755179817713
"x1","~","eta2",0.657406346167749
"x1","~","x2",0.506042526080924
"x5","~","x1",0.385734649128573
"x5","~","x10",0.798713984309734
"eta4","~","eta1",0.767676714105945
"eta4","~","x3",-0.205141592719888
"eta4","~","x5",0.782217926979743
"eta4","~","x8",-1.01526608513922
"eta3","~","x10",-0.364598121503108
"x6","~","x4",0.169304935520797
"x6","~","x7",-0.725629875980962
"x3","~","x6",-0.0505017968477318
"x7","~","x3",0.117469039194563
"x9","~","x4",0.478629019716326
"y1","~~","y1",0.700273725708632
"y2","~~","y2",0.350808765355053
"y3","~~","y3",0.189774181856518
"y4","~~","y4",1.02730712147297
"y5","~~","y5",0.1153729415204
"y6","~~","y6",5.26828549056843
"y7","~~","y7",0.541537453370669
"y8","~~","y8",0.12998742254622
"y9","~~","y9",5.5485137906823
"x1","~~","x1",0.489436988062692
"x5","~~","x5",1.32858550242807
"x6","~~","x6",0.445050825793977
"x3","~~","x3",0.0366573751830489
"x7","~~","x7",0.271412437804322
"x9","~~","x9",0.222244180354775
"eta1","~~","eta1",1.76625430513356
"eta2","~~","eta2",1.26705608874603
"eta3","~~","eta3",0.180449418627068
"eta4","~~","eta4",3.09436323278252
"eta1","~~","eta2",-0.069377788357565
"eta3","~~","eta4",-0.00125419811410676
"eta3","~~","x9",0.020625227131105
"eta4","~~","x9",0.0488358634400203
"x2","~~","x2",1.37749014893705
"x2","~~","x10",0.00592163280132638
"x2","~~","x8",0.022692859746639
"x2","~~","x4",-0.0767217058621603
"x10","~~","x10",1.62637488925078
"x10","~~","x8",0.0560868950627013
"x10","~~","x4",0.100739577070888
"x8","~~","x8",1.62341810339326
"x8","~~","x4",-0.0999680158472826
"x4","~~","x4",1.60684101916911
