"lhs","op","rhs","est"
"eta1","=~","y2",-0.660956836105234
"eta1","=~","y3",-0.251449190203121
"eta2","=~","y5",-0.593324331104452
"eta3","=~","y7",0.122313329570637
"eta3","=~","y8",-0.198310166221522
"eta4","=~","y9",-0.176428697782348
"eta2","~","eta3",-0.301122686443423
"eta2","~","x7",-0.45809784315757
"eta1","~","eta2",-0.582295947806945
"x5","~","eta1",-0.395455043663721
"eta4","~","x5",-0.344256481257812
"x1","~","eta2",0.486795261997695
"x10","~","x1",-0.67160097241168
"x10","~","x4",1.04988317729755
"x2","~","x10",0.192516435817845
"x8","~","x2",0.250186472589279
"x6","~","x8",-0.285324625458012
"eta3","~","x6",0.248302133168113
"x3","~","eta2",0.960675223517872
"x9","~","eta1",0.394430813889217
"y1","~~","y1",2.19204381445143
"y2","~~","y2",0.298060263021802
"y3","~~","y3",0.0452947834851581
"y4","~~","y4",1.0150153212885
"y5","~~","y5",0.173005301215636
"y6","~~","y6",0.803843275963749
"y7","~~","y7",0.412965291498124
"y8","~~","y8",0.931395598698382
"y9","~~","y9",0.0184673153149847
"x5","~~","x5",0.110150534605046
"x1","~~","x1",0.291804418313107
"x10","~~","x10",1.18292194999784
"x2","~~","x2",0.691224561204865
"x8","~~","x8",0.0679780447491314
"x6","~~","x6",0.103926124571772
"x3","~~","x3",0.907379859832224
"x9","~~","x9",0.136160088478155
"eta1","~~","eta1",0.487208029196916
"eta2","~~","eta2",0.190770562072011
"eta3","~~","eta3",0.164256821796542
"eta4","~~","eta4",0.0395178417586785
"eta4","~~","x3",-0.0588533719134875
"eta4","~~","x9",0.000739088025261478
"x3","~~","x9",0.0172665298264626
"x7","~~","x7",1.5837432613081
"x7","~~","x4",0.0846566157418208
"x4","~~","x4",1.45355243998704
