"lhs","op","rhs","est"
"eta1","=~","y2",-0.399258377297846
"eta1","=~","y3",-0.501138076858334
"eta2","=~","y5",0.966053086122989
"eta2","=~","y6",0.88303261990708
"eta3","=~","y8",0.369775269146814
"eta3","=~","y9",-0.406343291120292
"eta4","=~","y11",-0.474172401127017
"eta1","~","eta4",1.15995331985354
"eta1","~","x2",1.03620690302671
"eta1","~","x6",-1.03682469700127
"eta2","~","eta1",0.111464474946032
"eta2","~","x3",-1.08383110575778
"x9","~","eta2",-0.030417646969082
"x2","~","eta2",-0.312924275548015
"x2","~","x1",-0.669892768629808
"x10","~","eta1",-0.25560802958188
"x10","~","x4",0.124952499009747
"x5","~","x7",0.744072194669103
"x3","~","x5",0.150305543431289
"x8","~","x1",0.772465837519751
"x4","~","eta3",-0.778082227539691
"y1","~~","y1",4.49593055548767
"y2","~~","y2",1.02870461909121
"y3","~~","y3",1.36444253532442
"y10","~~","y10",2.72197652245052
"y5","~~","y5",1.62595152671249
"y6","~~","y6",1.49503027597934
"y7","~~","y7",0.877755804135695
"y8","~~","y8",0.146726762459517
"y9","~~","y9",0.211631586820768
"y11","~~","y11",0.121332275164218
"x9","~~","x9",0.0120897949513039
"x2","~~","x2",1.0198812598786
"x10","~~","x10",1.02247000948422
"x5","~~","x5",0.625540625541744
"x3","~~","x3",0.0206894415557347
"x8","~~","x8",0.595452923320327
"x4","~~","x4",0.52738386796017
"eta1","~~","eta1",3.76551636592979
"eta2","~~","eta2",1.13185973795768
"eta3","~~","eta3",1.58429809976163
"eta4","~~","eta4",0.805412943606984
"eta3","~~","eta4",-3.82452885779298e-05
"x9","~~","x10",-0.0072689778323565
"x9","~~","x8",0.00422867816346699
"x10","~~","x8",-0.0180985466320345
"x6","~~","x6",1.42711454294823
"x6","~~","x1",0.0577687407050283
"x6","~~","x7",0.106474798446263
"x1","~~","x1",1.43271624839721
"x1","~~","x7",0.0615086686985549
"x7","~~","x7",1.5105393119444
