"lhs","op","rhs","est"
"eta1","=~","y2",0.97591218105905
"eta1","=~","y3",-0.444989368405931
"eta2","=~","y5",-0.541592866705082
"eta2","=~","y6",0.66130972326818
"eta3","=~","y8",-0.30747200560631
"eta4","=~","y11",-0.294861686705268
"eta4","=~","y5",0.32310720177337
"x1","~","x10",0.990426673341519
"x1","~","x9",0.368458564267161
"x2","~","x1",0.152150328511828
"x2","~","x7",0.0669765757032578
"x3","~","x2",0.638579805643942
"x5","~","x4",0.336982609158598
"x5","~","x8",-0.997195951882627
"eta4","~","x5",0.638602765977819
"x7","~","eta2",0.751607169083022
"x7","~","eta4",0.588497484881735
"x4","~","x2",-0.516965205643993
"x6","~","x10",-0.736138662061369
"x9","~","eta3",-0.640670395190782
"eta1","~","x9",-0.935486011968359
"y1","~~","y1",1.02075613146196
"y2","~~","y2",0.848810711668391
"y3","~~","y3",0.163129128750807
"y4","~~","y4",0.958626434119009
"y5","~~","y5",0.388317927776548
"y6","~~","y6",0.3656305327641
"y7","~~","y7",0.973768719983392
"y8","~~","y8",0.0847561629240958
"y10","~~","y10",0.97433317358555
"y11","~~","y11",0.0936360448304002
"x1","~~","x1",1.14394683500081
"x2","~~","x2",0.0564198867848287
"x3","~~","x3",0.52588335489195
"x5","~~","x5",1.17068634747808
"x7","~~","x7",0.628692871874537
"x4","~~","x4",0.799963787652103
"x6","~~","x6",0.526398079984976
"x9","~~","x9",0.551201160261948
"eta1","~~","eta1",0.850512000666615
"eta2","~~","eta2",1.48483476471153
"eta3","~~","eta3",1.70608573708934
"eta4","~~","eta4",0.819497965514928
"eta2","~~","eta3",0.085527140451363
"eta1","~~","x3",0.00610409404540574
"eta1","~~","x6",-0.0344990193313353
"x3","~~","x6",-0.0565465424590987
"x10","~~","x10",1.53174059220689
"x10","~~","x8",0.00731376245737869
"x8","~~","x8",1.31849839194211
