"lhs","op","rhs","est"
"eta1","=~","y2",-0.320781399397395
"eta1","=~","y3",-0.464429633798512
"eta2","=~","y6",-0.615284742061236
"eta2","=~","y8",0.950879499787296
"eta3","=~","y8",-0.691020666199852
"eta3","=~","y9",-0.672670630325429
"eta4","=~","y11",0.171128337836416
"x8","~","x9",-0.748615101097147
"x10","~","x8",-0.507285925706924
"x4","~","x2",-0.0658365653846781
"x4","~","x9",1.09750876148557
"eta3","~","x4",-0.362436950195789
"x2","~","eta3",-0.776838952478844
"x2","~","x1",0.308501814616976
"x1","~","eta4",0.660623874333175
"eta2","~","eta1",0.715222709401321
"eta2","~","x1",-0.29008740400643
"eta2","~","x3",0.220085575776675
"eta2","~","x7",0.269406818210214
"x6","~","x9",0.621223004063002
"x5","~","x8",-0.275589799521443
"y1","~~","y1",0.848716891082874
"y2","~~","y2",0.0846569712901922
"y3","~~","y3",0.225143126925489
"y5","~~","y5",3.32098349781549
"y6","~~","y6",1.22338999119989
"y8","~~","y8",3.98775980718266
"y7","~~","y7",1.85372959307749
"y9","~~","y9",0.568506049970401
"y10","~~","y10",0.84040261902375
"y11","~~","y11",0.032504881675381
"x8","~~","x8",0.439578124120867
"x10","~~","x10",0.261182456973567
"x4","~~","x4",1.7069338371838
"x2","~~","x2",0.701238224502401
"x1","~~","x1",0.428381819806532
"x6","~~","x6",0.361283738721447
"x5","~~","x5",0.0744085433237768
"eta1","~~","eta1",1.66608433975087
"eta2","~~","eta2",0.864036218514649
"eta3","~~","eta3",0.362646276444164
"eta4","~~","eta4",1.35794503976426
"eta1","~~","eta4",-0.13803113353021
"eta2","~~","x10",0.0120201481714806
"eta2","~~","x6",0.0201107887549676
"eta2","~~","x5",0.0289972249312569
"x10","~~","x6",0.019828915097035
"x10","~~","x5",0.0024304252409502
"x6","~~","x5",0.00577259586048682
"x9","~~","x9",1.53692204097677
"x9","~~","x3",-0.00951893362126639
"x9","~~","x7",-0.011020215755587
"x3","~~","x3",1.43269410257492
"x3","~~","x7",0.00678775902402899
"x7","~~","x7",1.6110604732705
