"lhs","op","rhs","est"
"eta1","=~","y2",0.390872573582294
"eta1","=~","y3",-0.673587438676784
"eta2","=~","y5",0.661526945359843
"eta3","=~","y7",0.281606477622485
"eta3","=~","y8",0.272485103761647
"eta4","=~","y2",0.474029767417412
"eta1","~","x4",-0.623015869045466
"x10","~","eta1",-0.757403895914528
"x10","~","eta4",0.574585237076596
"x10","~","x8",-0.909326082161966
"x10","~","x9",0.216666011735929
"eta4","~","eta3",0.543040834997306
"eta4","~","x2",-0.244147649495556
"eta4","~","x6",-0.318431263544411
"x3","~","x8",0.833534802103119
"eta2","~","x6",0.646075427502484
"x9","~","x5",0.232604804140479
"x1","~","x9",-0.716650802846791
"x7","~","x4",-0.967697648972023
"y1","~~","y1",0.955591785684469
"y2","~~","y2",0.662375633122577
"y3","~~","y3",0.465787130842771
"y4","~~","y4",0.86438200484294
"y5","~~","y5",0.322788020781682
"y6","~~","y6",0.624977243288984
"y7","~~","y7",0.0945720707709036
"y8","~~","y8",0.0976795122850044
"y10","~~","y10",2.51715348808195
"x10","~~","x10",2.02980980308207
"x3","~~","x3",0.669964593385329
"x9","~~","x9",0.0535134635118959
"x1","~~","x1",0.786880520318344
"x7","~~","x7",0.889707085204161
"eta1","~~","eta1",0.430810109860612
"eta2","~~","eta2",0.508105456536532
"eta3","~~","eta3",1.56355731885648
"eta4","~~","eta4",0.549247250589519
"eta2","~~","x10",0.107132747620016
"eta2","~~","x3",0.00119419293067598
"eta2","~~","x1",0.0204965851060397
"eta2","~~","x7",-0.0441058866587328
"x10","~~","x3",0.0292697344318318
"x10","~~","x1",0.0151564694510852
"x10","~~","x7",-0.0614707283262576
"x3","~~","x1",-0.0279081225794514
"x3","~~","x7",-0.0003809278829566
"x1","~~","x7",-0.0410658653699593
"x4","~~","x4",1.59821539100504
"x4","~~","x8",0.0291333155923555
"x4","~~","x2",-0.123504831444542
"x4","~~","x6",-0.0556217091137077
"x4","~~","x5",-0.0763214276750365
"x8","~~","x8",1.44550504266929
"x8","~~","x2",-0.0177834119209306
"x8","~~","x6",-0.0479487984432681
"x8","~~","x5",-0.0582240523377201
"x2","~~","x2",1.45731046019745
"x2","~~","x6",0.0474297840131241
"x2","~~","x5",-0.0177434433096378
"x6","~~","x6",1.45847971980331
"x6","~~","x5",-0.123406751494932
"x5","~~","x5",1.66891426064062
