"lhs","op","rhs","est"
"eta1","=~","y2",-0.325035733650991
"eta2","=~","y4",-0.118700015966611
"eta2","=~","y5",-0.710548941947626
"eta3","=~","y7",-0.5327591337254
"eta4","=~","y9",0.997922736833305
"eta1","~","x3",-0.404682999575673
"eta1","~","x4",1.09284165368071
"eta4","~","eta1",0.444964134834831
"eta4","~","x2",0.306184530322405
"eta4","~","x9",-0.658840028781074
"x8","~","eta4",-0.0728303799394634
"x8","~","x10",-0.438035089142468
"x3","~","x1",-0.196412950802761
"x3","~","x7",0.220032223630913
"x3","~","x8",-0.035359428714766
"x2","~","eta3",0.214822313484587
"x6","~","eta3",-763.067761232179
"x10","~","x5",-0.420886927323415
"eta2","~","x9",-0.650284539033564
"y1","~~","y1",2.46803384831651
"y2","~~","y2",0.301133620137766
"y3","~~","y3",1.034816371929
"y4","~~","y4",0.0108148426919726
"y5","~~","y5",0.468188244638391
"y6","~~","y6",1.04997317591324
"y7","~~","y7",0.413188613984042
"y8","~~","y8",3.18474574654165
"y9","~~","y9",2.45831152571202
"x8","~~","x8",0.281145194315239
"x3","~~","x3",0.161043270497325
"x2","~~","x2",0.0971609799441465
"x6","~~","x6",104.027999011817
"x10","~~","x10",0.168106429988307
"eta1","~~","eta1",1.1546833692097
"eta2","~~","eta2",0.368294202135412
"eta3","~~","eta3",-0.000178344533833524
"eta4","~~","eta4",0.930262151904876
"eta2","~~","x6",-0.0142717027666333
"x4","~~","x4",1.41432120427124
"x4","~~","x9",0.061107057199231
"x4","~~","x1",0.0844630852854305
"x4","~~","x7",-0.141558574763659
"x4","~~","x5",-0.0737133760591442
"x9","~~","x9",1.43058766201733
"x9","~~","x1",-0.0757696017821169
"x9","~~","x7",-0.0770700334620432
"x9","~~","x5",0.0490759503039968
"x1","~~","x1",1.60284529468331
"x1","~~","x7",0.129987277726629
"x1","~~","x5",-0.0250717494774464
"x7","~~","x7",1.66230316332834
"x7","~~","x5",-0.00845441221084239
"x5","~~","x5",1.63566242923861
