"lhs","op","rhs","est"
"eta1","=~","y2",0.64720820753422
"eta1","=~","y3",0.745895519106665
"eta2","=~","y6",-0.503155413108546
"eta3","=~","y7",-0.465626618994277
"eta3","=~","y8",0.22366953811352
"eta4","=~","y9",0.597571040978899
"eta3","~","x1",-0.425729858180423
"eta1","~","eta3",0.796143785766208
"eta1","~","x5",-1.23062942470277
"eta1","~","x7",0.616715595793867
"eta1","~","x9",0.774743974707708
"x4","~","eta1",-0.0714474473670378
"x9","~","x10",-0.957170006655397
"x9","~","x4",-0.645979584826083
"x9","~","x8",-0.688852741919814
"x10","~","x6",-1.07186390019345
"eta4","~","x8",-0.151999534705566
"eta2","~","eta4",-0.362852072793302
"x3","~","eta4",-0.869230089834864
"x2","~","x5",0.622571144177165
"y1","~~","y1",4.39218672783571
"y2","~~","y2",2.81235201697059
"y3","~~","y3",4.68077875558371
"y5","~~","y5",1.10123936439924
"y6","~~","y6",1.31154093532754
"y7","~~","y7",0.211982679422582
"y8","~~","y8",0.0488265735381785
"y10","~~","y10",0.920627480506356
"y9","~~","y9",0.232694399439136
"x4","~~","x4",0.621101743309173
"x9","~~","x9",1.91467256576165
"x10","~~","x10",1.14372034363573
"x3","~~","x3",0.900697036286107
"x2","~~","x2",0.462073183538139
"eta1","~~","eta1",3.61983526087452
"eta2","~~","eta2",-0.0168596305123827
"eta3","~~","eta3",0.107744050836307
"eta4","~~","eta4",0.0230338606837195
"eta2","~~","x3",-0.00779408178221077
"eta2","~~","x2",-0.0132960223202858
"x3","~~","x2",-0.0355611492984788
"x1","~~","x1",1.36036769791505
"x1","~~","x5",0.0975462534550274
"x1","~~","x7",-0.0163165848270243
"x1","~~","x8",0.0871412266422263
"x1","~~","x6",0.0580090663971185
"x5","~~","x5",1.43569227569155
"x5","~~","x7",0.0403855917275463
"x5","~~","x8",0.0628732904362569
"x5","~~","x6",-0.00880338853495842
"x7","~~","x7",1.58077871178713
"x7","~~","x8",-0.0378170608724684
"x7","~~","x6",0.0764428033829407
"x8","~~","x8",1.51864579754333
"x8","~~","x6",-0.0189809081719167
"x6","~~","x6",1.67591459505581
