"lhs","op","rhs","est"
"eta1","=~","y2",0.819881014817587
"eta1","=~","y3",0.214031849710823
"eta2","=~","y5",-0.44061354796132
"eta3","=~","y7",0.925176123837676
"eta3","=~","y8",-0.14006023379945
"eta4","=~","y11",-0.927085734684667
"eta4","=~","y9",-0.090622064469595
"x3","~","eta2",-0.387433260002123
"x3","~","x2",0.850013846321367
"x3","~","x7",0.291791586968622
"x8","~","x1",1.18356430279609
"x8","~","x3",-0.025829338209726
"x4","~","x8",0.120709839845789
"x6","~","eta1",0.398856075048658
"x6","~","x4",-0.172188081901681
"eta1","~","x10",0.400013757758936
"x9","~","x3",0.100006559860924
"eta2","~","x4",0.147331412745407
"eta4","~","x7",-0.440176220455089
"eta3","~","eta1",-0.361679713568861
"x5","~","x4",-0.162562974372504
"y1","~~","y1",1.51449009948824
"y2","~~","y2",0.715507100528954
"y3","~~","y3",0.0627539233395147
"y5","~~","y5",0.596346956035626
"y6","~~","y6",0.844784027769284
"y7","~~","y7",0.700453452915193
"y8","~~","y8",0.00929871661965668
"y10","~~","y10",0.750813392319856
"y11","~~","y11",0.96059435328328
"y9","~~","y9",0.0126240840860425
"x3","~~","x3",1.34326821742297
"x8","~~","x8",1.34327914298341
"x4","~~","x4",0.364876746837844
"x6","~~","x6",0.178400916684427
"x9","~~","x9",0.606146848771002
"x5","~~","x5",0.0320848745462456
"eta1","~~","eta1",0.201873081137351
"eta2","~~","eta2",0.197363524829951
"eta3","~~","eta3",0.14974329511322
"eta4","~~","eta4",0.271117891942641
"eta3","~~","eta4",0.0422603247537504
"eta3","~~","x6",-0.0195576350902134
"eta3","~~","x9",-0.019517172252535
"eta3","~~","x5",-0.00168294098314226
"eta4","~~","x6",-0.0117883890019427
"eta4","~~","x9",0.0409127409652707
"eta4","~~","x5",0.00229551333364869
"x6","~~","x9",-0.00742331105813047
"x6","~~","x5",-0.00360875793030975
"x9","~~","x5",0.00238536517584362
"x2","~~","x2",1.46511080972749
"x2","~~","x7",0.0766955716051911
"x2","~~","x1",-0.111067797425351
"x2","~~","x10",0.0963723596040637
"x7","~~","x7",0.640630583479801
"x7","~~","x1",-0.0318584813321764
"x7","~~","x10",-0.0855073486382379
"x1","~~","x1",1.47069489880378
"x1","~~","x10",0.0152296183109168
"x10","~~","x10",1.61475704275398
