"lhs","op","rhs","est"
"eta1","=~","y2",-0.522181641300042
"eta1","=~","y3",-0.842372322486213
"eta2","=~","y5",-0.169388765199734
"eta3","=~","y6",32.3511613412695
"eta4","=~","y8",0.163172607864045
"eta4","=~","y9",0.057490813158564
"x4","~","x9",-0.147619447545576
"x5","~","eta2",0.984305987233034
"x5","~","eta4",0.0711900168447415
"x5","~","x2",-0.113216659100593
"x5","~","x4",-0.522476551113965
"x5","~","x8",0.697131229826295
"x1","~","x8",-0.784168452574024
"x7","~","x1",-0.166192102589981
"eta4","~","eta3",2.78949159304247
"x6","~","x9",-0.65223849812496
"x10","~","eta1",-0.794018317253164
"x10","~","x4",0.590641929842457
"x3","~","x2",-0.612538587804415
"y1","~~","y1",1.01364359635706
"y2","~~","y2",0.302407639938748
"y3","~~","y3",0.782380962969256
"y4","~~","y4",0.983080757016274
"y5","~~","y5",0.0222323362352357
"y10","~~","y10",2.37581732984397
"y6","~~","y6",-2.60489390442511
"y8","~~","y8",0.452145827219663
"y9","~~","y9",0.0728490801204792
"x4","~~","x4",0.0210122345787165
"x5","~~","x5",2.18536483297728
"x1","~~","x1",0.621196013004075
"x7","~~","x7",0.0254741579981045
"x6","~~","x6",0.366593246290216
"x10","~~","x10",0.717073628132819
"x3","~~","x3",0.357060884649433
"eta1","~~","eta1",1.6327928160934
"eta2","~~","eta2",1.52684310565092
"eta3","~~","eta3",0.00254801379099304
"eta4","~~","eta4",1.75908386379477
"eta1","~~","eta2",-0.0965319957266326
"eta1","~~","eta3",0.000894542292846807
"eta2","~~","eta3",-0.000499382666046379
"x5","~~","x7",0.00662357170543824
"x5","~~","x6",0.0144070025727679
"x5","~~","x10",0.0542792808955518
"x5","~~","x3",-0.0346435816892952
"x7","~~","x6",0.000911695642586728
"x7","~~","x10",0.000220131818432742
"x7","~~","x3",0.0014532196557373
"x6","~~","x10",0.00209337284842271
"x6","~~","x3",-0.00285822211460106
"x10","~~","x3",0.014933750275275
"x9","~~","x9",1.58294808463422
"x9","~~","x2",0.0891836006526773
"x9","~~","x8",-0.0341596825907866
"x2","~~","x2",1.6907636576501
"x2","~~","x8",-0.0235419580922381
"x8","~~","x8",1.54160962941789
