"lhs","op","rhs","est"
"eta1","=~","y2",-0.330591630776464
"eta1","=~","y4",0.568769130469518
"eta2","=~","y5",0.642992550889749
"eta3","=~","y7",-1.00740125315615
"eta3","=~","y8",-0.162211528444068
"eta4","=~","y9",0.684837163655707
"eta3","~","eta4",0.259101034197747
"eta3","~","x7",1.17598833745157
"x3","~","eta3",0.0596107930973462
"x5","~","eta4",-0.492735185163037
"x4","~","x5",-0.248068723430956
"eta1","~","eta3",0.0378085870776612
"eta1","~","x10",0.673229494773501
"eta1","~","x2",-0.941541700872981
"eta2","~","eta3",-0.0149992309438826
"eta2","~","x9",0.319671901512186
"x1","~","eta3",0.457663220309679
"x6","~","x7",1.12453768816258
"x8","~","x5",0.679696344930911
"y1","~~","y1",2.91306937865468
"y2","~~","y2",0.267928243742224
"y4","~~","y4",2.87093936538873
"y5","~~","y5",0.709998911824942
"y6","~~","y6",2.0842458144259
"y7","~~","y7",1.99048373594481
"y8","~~","y8",0.0465046539440755
"y10","~~","y10",1.09086368947175
"y9","~~","y9",0.324546689629838
"x3","~~","x3",0.575843919028147
"x5","~~","x5",0.537736317122052
"x4","~~","x4",0.0446773221990927
"x1","~~","x1",0.508063469891893
"x6","~~","x6",1.26044116043127
"x8","~~","x8",0.434688619832007
"eta1","~~","eta1",1.77767172022635
"eta2","~~","eta2",-0.105544004370813
"eta3","~~","eta3",1.40639259804953
"eta4","~~","eta4",0.740537674145768
"eta1","~~","eta2",0.081933952098391
"eta1","~~","x3",0.036056220471029
"eta1","~~","x4",0.010965690960822
"eta1","~~","x1",0.0253284801763827
"eta1","~~","x6",0.0992046422267515
"eta1","~~","x8",0.0985347904652196
"eta2","~~","x3",0.0211836589074916
"eta2","~~","x4",0.0176267563876873
"eta2","~~","x1",0.0367213188934895
"eta2","~~","x6",-0.0023088730659302
"eta2","~~","x8",0.00282895309908681
"x3","~~","x4",0.0215259368768448
"x3","~~","x1",0.0149869367837126
"x3","~~","x6",-0.0950927394406933
"x3","~~","x8",0.0152800033779874
"x4","~~","x1",-0.00589153414186079
"x4","~~","x6",0.0139909931604222
"x4","~~","x8",0.00209284277382528
"x1","~~","x6",-0.0692619210775874
"x1","~~","x8",0.015327102380099
"x6","~~","x8",-0.0426390427797296
"x7","~~","x7",1.65206721700946
"x7","~~","x10",0.0735286026184165
"x7","~~","x2",0.0283956633651398
"x7","~~","x9",0.00289373129294244
"x10","~~","x10",1.63154426421088
"x10","~~","x2",0.112101728733391
"x10","~~","x9",0.0124008179330227
"x2","~~","x2",1.54833239879984
"x2","~~","x9",-0.0490233758608325
"x9","~~","x9",1.5854785186318
