"lhs","op","rhs","est"
"eta1","=~","y2",0.178570943783923
"eta1","=~","y3",0.151219790826005
"eta2","=~","y5",-0.178706400112171
"eta2","=~","y6",0.898440844212255
"eta3","=~","y8",-0.220866368924091
"eta3","=~","y9",0.189172152145408
"eta4","=~","y11",-0.221470927209116
"eta4","=~","y12",0.626328273442928
"x5","~","eta4",0.902083623135028
"x5","~","x4",0.726905392684893
"x5","~","x7",-0.421726499549271
"x5","~","x9",0.456900740905827
"eta3","~","x10",0.102518565591462
"eta3","~","x5",0.0864285304508364
"eta4","~","eta3",0.338044281300787
"eta4","~","x3",-0.0545512727762555
"eta4","~","x6",0.35157055867506
"x10","~","eta2",-0.657569240374283
"eta1","~","eta2",1.11579451322356
"x3","~","x2",-0.267143712436924
"x8","~","x3",-0.682580940969041
"x1","~","eta2",1.06876565838005
"y1","~~","y1",0.619200316499978
"y2","~~","y2",0.82996759418383
"y3","~~","y3",0.0308713291854896
"y5","~~","y5",0.0283601600133826
"y6","~~","y6",0.638747099111396
"y7","~~","y7",1.60335760758262
"y8","~~","y8",0.336828147986224
"y9","~~","y9",0.128711278691568
"y10","~~","y10",2.85632506304682
"y11","~~","y11",0.197317886271112
"y12","~~","y12",1.17810768858659
"x5","~~","x5",2.40939651380793
"x10","~~","x10",0.424207643142243
"x3","~~","x3",0.0781087066839137
"x8","~~","x8",0.444544004406537
"x1","~~","x1",1.25716011261906
"eta1","~~","eta1",1.55486822892526
"eta2","~~","eta2",1.55474475871206
"eta3","~~","eta3",0.493429551153945
"eta4","~~","eta4",1.12057013675788
"eta1","~~","x8",0.000185586521855519
"eta1","~~","x1",0.217856717607904
"x8","~~","x1",0.00508820057478176
"x4","~~","x4",1.6019799466269
"x4","~~","x7",-0.00741003054213097
"x4","~~","x9",0.0245260217495012
"x4","~~","x6",0.00406854197414375
"x4","~~","x2",0.0518139422908794
"x7","~~","x7",1.47054412365563
"x7","~~","x9",-0.0166282200141346
"x7","~~","x6",-0.156890994986608
"x7","~~","x2",-0.0329807116394643
"x9","~~","x9",1.62330864120818
"x9","~~","x6",-0.0186716089891209
"x9","~~","x2",0.0478771302388073
"x6","~~","x6",1.64725828391796
"x6","~~","x2",0.059533889038547
"x2","~~","x2",1.49559313126483
