"lhs","op","rhs","est"
"eta1","=~","y2",0.655379677509758
"eta2","=~","y4",0.972005933656696
"eta2","~","x1",0.964970980254615
"eta2","~","x4",-0.933353687696725
"x5","~","eta1",0.630305757711306
"x1","~","x5",-0.300307284259228
"x2","~","x5",-0.370856430556594
"x3","~","x4",1.023544824831
"y1","~~","y1",0.888302909732497
"y2","~~","y2",0.522650604402927
"y3","~~","y3",1.97813939837362
"y4","~~","y4",1.78266887168321
"x5","~~","x5",0.349335542968084
"x1","~~","x1",0.0773800970368507
"x2","~~","x2",0.119757084185556
"x3","~~","x3",1.15958356363641
"eta1","~~","eta1",1.71962136687059
"eta2","~~","eta2",2.98197973024735
"eta2","~~","x2",-0.0419609838120412
"eta2","~~","x3",0.0269971549569587
"x2","~~","x3",0.0362926578591279
