"lhs","op","rhs","est"
"eta1","=~","y2",-1.12340559313659
"eta2","=~","y4",-0.1620045105523
"eta2","=~","y5",1.08695416533363
"x5","~","x2",-1.35154666057198
"x4","~","eta1",-0.702115834446528
"x4","~","x2",1.3461710123546
"eta2","~","x4",1.09011769067355
"x1","~","x2",0.676448672116934
"x3","~","x2",-0.337947997805212
"y1","~~","y1",0.832388972430449
"y2","~~","y2",1.99807664316153
"y3","~~","y3",0.883051387325691
"y4","~~","y4",0.0293149702222554
"y5","~~","y5",1.0903711499769
"x5","~~","x5",1.73756858770239
"x4","~~","x4",2.15267945630724
"x1","~~","x1",0.473257203940878
"x3","~~","x3",0.112895940004225
"eta1","~~","eta1",1.67758211783986
"eta2","~~","eta2",3.63435832750119
"eta2","~~","x5",-0.0963010448779554
"eta2","~~","x1",-0.0870102642022706
"eta2","~~","x3",-0.00271855181340625
"x5","~~","x1",0.018234399886725
"x5","~~","x3",0.00312758267914648
"x1","~~","x3",0.0017813051927102
