lhs,op,rhs,est
eta2,~,x4,-1.9072257889788806
x2,~,eta1,1.6876695114096214
x3,~,eta1,0.9562730202095505
x3,~,x4,0.8136459285320246
x3,~,x1,-0.7542596137773683
x4,~,x5,-0.9879309099387429
eta1,=~,y2,-0.9619944836143932
eta2,=~,y4,-0.5201830414488445
eta1,~~,eta1,1.545503513673002
eta2,~~,eta2,4.141346584562742
eta2,~~,x2,-0.3407920731260349
eta2,~~,x3,0.2830730314146031
x2,~~,x2,2.5020414800333772
x2,~~,x3,0.15219151240402337
x3,~~,x3,2.0553511048158852
x4,~~,x4,1.0558216977976744
y1,~~,y1,1.0197829838205517
y2,~~,y2,0.937790966764642
y3,~~,y3,0.9685949086561536
y4,~~,y4,0.279261558352713
