lhs,op,rhs,est
eta2,~,eta1,0.6868111174775007
x1,~,x2,1.0299572346202777
x2,~,eta1,1.0606789532225267
x2,~,x3,-1.9038371993645236
x3,~,x4,1.1173265844865765
x5,~,x2,1.1137841651334133
eta1,=~,y2,0.3505059725948936
eta1,=~,y3,-1.9399633144604738
eta2,=~,y5,-0.4347020130355917
eta2,=~,y6,-1.1368821707649053
eta1,~~,eta1,1.6674559341045716
eta2,~~,eta2,0.5007512126190327
eta2,~~,x1,-0.21111490209789333
eta2,~~,x5,0.0951872208851775
x1,~~,x1,5.030692050563469
x1,~~,x5,-0.01472258595998721
x2,~~,x2,4.531507219681311
x3,~~,x3,1.1238922547757235
x5,~~,x5,2.399007598112272
y1,~~,y1,1.1466734941515573
y2,~~,y2,0.10246433717751889
y3,~~,y3,3.4654243803792184
y4,~~,y4,1.0547869312433287
y5,~~,y5,0.17239753094657764
y6,~~,y6,1.2845393961557754
