lhs,op,rhs,est
eta1,~,x3,1.1181665002708914
eta2,~,x1,0.5635662454131634
x1,~,x3,-0.3404869099643921
x2,~,x1,-0.23013045486513642
x2,~,x5,-0.6017534901204752
x4,~,x2,-0.19322197524671242
eta1,=~,y2,0.9658262675991863
eta1,=~,y3,1.575283954125549
eta2,=~,y5,-0.42521128749802894
eta2,=~,y6,0.26209824438034496
eta1,~~,eta1,1.4425979134294349
eta1,~~,eta2,0.02702297989588621
eta1,~~,x4,-0.00775202332369472
eta2,~~,eta2,0.4531955907676872
eta2,~~,x4,0.00257012600499156
x1,~~,x1,0.09336837923566622
x2,~~,x2,0.46421386990502816
x4,~~,x4,0.05045104643900245
y1,~~,y1,1.03978881150442
y2,~~,y2,1.0435267608958294
y3,~~,y3,2.7334489792395438
y4,~~,y4,1.18851817062771
y5,~~,y5,0.09840115868824856
y6,~~,y6,0.03999592400859742
