lhs,op,rhs,est
eta1,~,x1,-1.0514672787205435
eta1,~,x5,1.2638380545862304
eta2,~,x4,-0.6535654911222709
x3,~,x2,1.7341969536202162
x3,~,x5,1.2015956337034135
x4,~,x3,-0.7565333307029045
eta1,=~,y2,0.42375574418880746
eta1,=~,y3,-1.137763362543307
eta2,=~,y5,-0.9893175183853288
eta1,~~,eta1,2.9092372586893545
eta1,~~,eta2,-0.2206842679263725
eta2,~~,eta2,1.1453062567084291
x3,~~,x3,4.970519252558681
x4,~~,x4,1.1106265429308648
y1,~~,y1,2.0422829606913955
y2,~~,y2,0.33540779882359495
y3,~~,y3,2.4470443851093693
y4,~~,y4,1.7727912008746822
y5,~~,y5,1.7610754545830087
