lhs,op,rhs,est
eta1,~,x5,0.8014418076466359
eta2,~,x3,1.7583557434337511
x1,~,x3,-0.8915415340234758
x2,~,eta1,1.2654589074615656
x2,~,eta2,1.619302614351268
x4,~,x2,0.3316803171356246
eta1,=~,y2,-0.891791278807113
eta2,=~,y4,1.4419039950417036
eta2,=~,y5,-2.0076241399324797
eta1,~~,eta1,0.7354246098467976
eta2,~~,eta2,3.314093051991232
x1,~~,x1,0.7854669541176023
x1,~~,x4,-0.008793610231895345
x2,~~,x2,4.35772156770138
x4,~~,x4,0.75894936127413
y1,~~,y1,0.9979355171590744
y2,~~,y2,0.8213242625833788
y3,~~,y3,1.0590003285693133
y4,~~,y4,2.0410879052423385
y5,~~,y5,3.7090982323558013
