lhs,op,rhs,est
eta1,~,x4,-0.09000278051323184
eta1,~,x1,1.755996502999221
eta1,~,x3,-2.119348818293644
x4,~,eta2,0.4724741395828031
x4,~,x2,-1.4536854278553617
x5,~,eta1,-0.01836571759215965
eta1,=~,y2,-0.2770591173878468
eta2,=~,y4,0.5444325532415315
eta1,~~,eta1,7.555842114613003
eta2,~~,eta2,1.9593700403343315
x4,~~,x4,2.4042321812421266
x5,~~,x5,0.8595803225300962
y1,~~,y1,2.8811085908536738
y2,~~,y2,0.2435746042988332
y3,~~,y3,0.7392958734960535
y4,~~,y4,0.39159237355309284
