lhs,op,rhs,est
eta1,~,x5,1.763510091228967
eta2,~,x4,0.5576691085276967
x2,~,eta1,1.6589033014654027
x3,~,x4,-0.547113211064246
x3,~,x1,-0.8318579130965735
x4,~,eta1,-1.368328305267147
eta1,=~,y2,0.8644705793302548
eta2,=~,y4,-0.22741715126053325
eta1,~~,eta1,2.8120547832125893
eta2,~~,eta2,0.25696117395240486
eta2,~~,x2,0.05110239967052784
eta2,~~,x3,-0.022411143193739668
x2,~~,x2,2.6550277249530017
x2,~~,x3,-0.023476311248097
x3,~~,x3,1.0346109965083008
x4,~~,x4,1.8523744033519822
y1,~~,y1,1.0476151561297864
y2,~~,y2,0.8511060611542338
y3,~~,y3,1.0802459543192033
y4,~~,y4,0.05071279321200105
