lhs,op,rhs,est
eta1,~,x2,-1.2635633755327496
x1,~,x2,-1.3739590857750839
x2,~,eta2,1.6021295615605162
x4,~,x3,0.9016201330964448
x5,~,eta1,0.7577757158970309
x5,~,x3,-2.0326281689456542
eta1,=~,y2,1.5760031424943661
eta2,=~,y4,-0.6322445439024437
eta1,~~,eta1,1.481279631104055
eta2,~~,eta2,1.5729486797003929
x1,~~,x1,2.0947972234380634
x1,~~,x4,-0.09599368096578194
x1,~~,x5,0.2532679292798093
x2,~~,x2,2.35007390341016
x4,~~,x4,0.926778640400226
x4,~~,x5,-0.01979216369843541
x5,~~,x5,4.388246157791935
y1,~~,y1,0.9220042792605073
y2,~~,y2,2.9516228279772303
y3,~~,y3,0.9240699246529531
y4,~~,y4,0.3864095212757262
