lhs,op,rhs,est
x2,~,eta1,2.0651762028526623
x2,~,eta2,-0.375475800999258
x3,~,eta2,1.4655560770028617
x4,~,x2,-1.4158476905825574
x5,~,x2,0.030134808733171897
x5,~,x1,0.6616861765114012
eta1,=~,y2,-1.1921187115283416
eta1,=~,y3,-1.6046664446278218
eta2,=~,y5,-1.189860344933553
eta1,~~,eta1,1.673395885029413
eta1,~~,eta2,0.033101501227453964
eta2,~~,eta2,1.767207424482208
x2,~~,x2,5.272826105893868
x3,~~,x3,2.81488959940725
x3,~~,x4,-0.06876716707449358
x3,~~,x5,-0.4433413761211496
x4,~~,x4,3.90942238263666
x4,~~,x5,0.37664560415120146
x5,~~,x5,3.479307606646127
y1,~~,y1,0.936196831885362
y2,~~,y2,1.218400026309742
y3,~~,y3,2.475118968463647
y4,~~,y4,0.9830052506819388
y5,~~,y5,1.5729561873995141
