lhs,op,rhs,est
eta1,~,x3,-1.6746575664066043
x1,~,x2,-1.0254101661981403
x3,~,x1,0.5034324441883599
x4,~,x5,-0.1298405978124009
x5,~,eta2,1.5852370314507538
x5,~,x1,-0.2726648889435785
eta1,=~,y2,2.191084285145797
eta1,=~,y3,-1.0665907387866587
eta2,=~,y5,1.280982047425038
eta1,~~,eta1,3.1763164942187943
eta1,~~,x4,-0.05622862295735365
eta2,~~,eta2,1.6591295398430694
x1,~~,x1,0.9778961368458522
x3,~~,x3,0.21709603012276218
x4,~~,x4,4.863540901916285
x5,~~,x5,3.1543146364307266
y1,~~,y1,0.9610346255374679
y2,~~,y2,4.479525023878557
y3,~~,y3,1.2778358864522052
y4,~~,y4,0.8131410885186788
y5,~~,y5,1.9381524740797464
