"lhs","op","rhs","est"
"eta1","=~","y2",-0.321165100715186
"eta2","=~","y4",0.439354867350169
"eta2","=~","y5",-0.372656159771151
"x3","~","eta2",-0.450290590311346
"x2","~","x3",-0.253925283373576
"x1","~","x2",-0.176961274374343
"eta1","~","x2",-0.908983951824668
"x4","~","eta1",-0.359540308195224
"x5","~","eta1",0.200009680446253
"y1","~~","y1",0.925140984121564
"y2","~~","y2",0.253577516255721
"y3","~~","y3",1.07280805626908
"y4","~~","y4",0.184350923283913
"y5","~~","y5",0.137828075998407
"x3","~~","x3",0.200479001968943
"x2","~~","x2",0.0569367772144176
"x1","~~","x1",0.0323855961779636
"x4","~~","x4",0.229606135119217
"x5","~~","x5",0.0545859762923733
"eta1","~~","eta1",0.331768922795139
"eta2","~~","eta2",1.83299790796374
"x1","~~","x4",0.00529472992939484
"x1","~~","x5",0.0014818468521128
"x4","~~","x5",-0.000955482496923011
