"lhs","op","rhs","est"
"eta1","=~","y2",8.72131807793534e-07
"eta2","=~","y4",-0.44894000684994
"x3","~","eta2",-0.311029884847001
"x2","~","x3",-0.228760238240082
"x5","~","x2",0.185202311387733
"x1","~","x3",-0.130030537264597
"x4","~","eta2",-0.456321466781632
"eta1","~","x3",0.0525622612213234
"y1","~~","y1",-13759.2873284096
"y2","~~","y2",0.0616802388663553
"y3","~~","y3",1.12406843394185
"y4","~~","y4",0.147113062838504
"x3","~~","x3",0.0869333087663565
"x2","~~","x2",0.045341165916916
"x5","~~","x5",0.0358433051234497
"x1","~~","x1",0.0164404919277108
"x4","~~","x4",0.198809774830863
"eta1","~~","eta1",13760.3427364319
"eta2","~~","eta2",1.51088441893614
"eta1","~~","x5",0.0168596685710582
"eta1","~~","x1",-0.00128024209733397
"eta1","~~","x4",-0.00905916908266993
"x5","~~","x1",0.00127823713158648
"x5","~~","x4",-0.0017941080689978
"x1","~~","x4",0.00421893208130319
