"lhs","op","rhs","est"
"eta1","=~","y2",0.453607704964399
"eta2","=~","y4",-0.463980970302551
"x5","~","eta1",-0.108238503178759
"x2","~","x1",-0.372642939507595
"x2","~","x4",0.156178995556031
"x2","~","x5",0.00617587894521317
"eta2","~","x2",0.048009518509482
"eta2","~","x3",-0.465130801345899
"y1","~~","y1",0.906521104726362
"y2","~~","y2",0.197660591511789
"y3","~~","y3",1.91369633695119
"y4","~~","y4",0.484120113556956
"x5","~~","x5",0.00930713146235244
"x2","~~","x2",0.191373866775805
"eta1","~~","eta1",1.4792218232596
"eta2","~~","eta2",0.272329705805006
"x1","~~","x1",1.63532059134324
"x1","~~","x4",0.0257967311348976
"x1","~~","x3",0.0558005974416948
"x4","~~","x4",1.65182169074774
"x4","~~","x3",0.0427647616048127
"x3","~~","x3",1.73369341414068
