"lhs","op","rhs","est"
"eta1","=~","y2",-0.233110089469683
"eta1","=~","y3",-0.0971621721866817
"eta2","=~","y5",0.011705264041162
"eta2","=~","y6",-0.242967873510999
"x5","~","eta1",0.408256901718485
"x5","~","x1",-0.465701612570317
"x5","~","x2",0.316704430545215
"x5","~","x3",-0.491085148848061
"x5","~","x4",-0.304217664536017
"eta2","~","x2",0.0895479602927695
"y1","~~","y1",1.14991891194963
"y2","~~","y2",0.0468873903322729
"y3","~~","y3",0.00648946413846848
"y4","~~","y4",1.02073761025712
"y5","~~","y5",0.0595480511641643
"y6","~~","y6",0.0350665508641453
"x5","~~","x5",0.987502465123583
"eta1","~~","eta1",1.61177997029925
"eta2","~~","eta2",0.0416618630232807
"eta2","~~","x5",0.106964220793106
"x1","~~","x1",1.68981591830837
"x1","~~","x2",0.093291810525671
"x1","~~","x3",-0.0725171831578843
"x1","~~","x4",0.074208288226342
"x2","~~","x2",1.68673956990508
"x2","~~","x3",0.0194103780856837
"x2","~~","x4",0.0460351928797373
"x3","~~","x3",1.7130304470546
"x3","~~","x4",0.0433824628832273
"x4","~~","x4",1.7488747119655
