"lhs","op","rhs","est"
"eta1","=~","y2",0.235357164566625
"eta2","=~","y4",-0.1032342773296
"eta2","=~","y5",0.480354737250913
"x3","~","eta2",0.32539764334731
"x3","~","x1",0.303216744637816
"x1","~","x5",-0.465109951934693
"x4","~","eta2",0.362409630321695
"x4","~","x2",-0.035540516843416
"x2","~","eta1",-0.151497407314557
"y1","~~","y1",1.14465572644602
"y2","~~","y2",0.0640986762731425
"y3","~~","y3",1.02412993488895
"y4","~~","y4",0.00877577618213561
"y5","~~","y5",0.277170262677271
"x3","~~","x3",0.166583499770464
"x1","~~","x1",0.238493443918763
"x4","~~","x4",0.170689911174253
"x2","~~","x2",0.0170977457460952
"eta1","~~","eta1",1.73097016886854
"eta2","~~","eta2",1.71475041961706
"eta1","~~","eta2",0.0160330402915318
"x3","~~","x4",-0.0050684836835101
"x5","~~","x5",1.63623365495019
