"lhs","op","rhs","est"
"eta1","=~","y2",-0.257322380330125
"eta1","=~","y3",-0.076465364543586
"x8","~","x1",0.980907507164487
"x8","~","x6",0.823364747898377
"x5","~","x8",-0.378717316462769
"x10","~","x5",-0.572841041393846
"x4","~","x10",-0.476532147647092
"x2","~","x5",-0.122256755410099
"x3","~","x2",0.528374291271236
"x9","~","x3",-0.804777220509104
"x7","~","x8",0.759920842384792
"eta1","~","x2",-0.265558424846688
"y1","~~","y1",0.713184289990301
"y2","~~","y2",1.02847004272265
"y3","~~","y3",0.404844634527489
"x8","~~","x8",1.60377890193006
"x5","~~","x5",0.596519234126617
"x10","~~","x10",0.361165558519912
"x4","~~","x4",0.253010038738788
"x2","~~","x2",0.0126346899065525
"x3","~~","x3",0.150477651526512
"x9","~~","x9",0.70934361229889
"x7","~~","x7",1.09457711677862
"eta1","~~","eta1",0.332692474296748
"eta1","~~","x4",-0.00795405517426434
"eta1","~~","x9",0.0439685364627593
"eta1","~~","x7",0.0238602119938702
"x4","~~","x9",-0.0316130000825123
"x4","~~","x7",-0.00505202512476431
"x9","~~","x7",0.019017632880776
"x1","~~","x1",1.27603953293555
"x1","~~","x6",0.436762768225269
"x6","~~","x6",1.14928819230141
