"lhs","op","rhs","est"
"eta1","=~","y2",-1.00993940650657
"x3","~","x5",0.764569807907699
"x3","~","x6",0.167454448130069
"x8","~","x10",0.83579273576353
"x8","~","x3",-0.0195787132098362
"x7","~","x6",-0.849710597918087
"x2","~","eta1",-0.194295815928431
"x5","~","x2",-0.930444244548344
"x9","~","x4",-0.128252617281105
"x9","~","x6",0.679489810985641
"x4","~","x1",1.15900169128806
"y1","~~","y1",0.847661888249572
"y2","~~","y2",0.848804322200017
"x3","~~","x3",0.647022421832833
"x8","~~","x8",0.71995041580485
"x7","~~","x7",0.857007743590792
"x2","~~","x2",0.0444718573275353
"x5","~~","x5",0.741304292811389
"x9","~~","x9",0.42843694160462
"x4","~~","x4",1.18918533612759
"eta1","~~","eta1",1.56102093554689
"x8","~~","x7",-0.0154275780697085
"x8","~~","x9",0.0360248125885321
"x7","~~","x9",-0.00118696707029966
"x6","~~","x6",1.46407633232896
"x6","~~","x10",0.0791104360803153
"x6","~~","x1",0.0409765490323532
"x10","~~","x10",1.69057213174089
"x10","~~","x1",-0.0938927164079694
"x1","~~","x1",1.6003295185188
