"lhs","op","rhs","est"
"eta1","=~","y2",-0.134523823957858
"eta1","~","x9",-0.684903229968694
"x1","~","eta1",-0.485727586138757
"x5","~","eta1",-0.463508088459088
"x3","~","x5",0.376699990756513
"x2","~","x10",0.854678702367472
"x2","~","x6",0.168830359931366
"x2","~","x9",-0.368115608318225
"x6","~","x4",0.658993075321974
"x7","~","x5",-0.98380926306293
"x8","~","x5",-0.98929943760676
"y1","~~","y1",0.958778700864551
"y2","~~","y2",0.013834517601409
"x1","~~","x1",0.266142412896376
"x5","~~","x5",0.190034922217022
"x3","~~","x3",0.196169068016952
"x2","~~","x2",0.891657553187739
"x6","~~","x6",0.452115984810245
"x7","~~","x7",0.996296862565096
"x8","~~","x8",0.821453138480065
"eta1","~~","eta1",0.599987208569006
"x1","~~","x3",0.0103632090930482
"x1","~~","x2",0.0303731250349729
"x1","~~","x7",0.0054380044411674
"x1","~~","x8",-0.0289285536660188
"x3","~~","x2",0.00656899297374835
"x3","~~","x7",-0.00495640350562308
"x3","~~","x8",-0.00374306178515167
"x2","~~","x7",0.0290995875353697
"x2","~~","x8",-0.0518277393478408
"x7","~~","x8",-0.0413335476937547
"x9","~~","x9",1.75430176514582
"x9","~~","x10",-0.0161510046533612
"x9","~~","x4",-0.0283228209835208
"x10","~~","x10",1.67740491112168
"x10","~~","x4",-0.0829154707669343
"x4","~~","x4",1.63650497076576
