"lhs","op","rhs","est"
"eta1","=~","y2",-1.07704448298503
"x3","~","eta1",0.361555925829425
"x3","~","x1",-0.373716805109623
"x3","~","x10",0.815855644629868
"x3","~","x9",0.610135321509828
"x2","~","x3",0.712500808640846
"x8","~","eta1",-0.292961622661677
"x7","~","x8",-0.927438409710431
"x4","~","x1",0.119501539989119
"x6","~","eta1",-244.828813496902
"x5","~","eta1",238.570670874851
"y1","~~","y1",0.988862423818349
"y2","~~","y2",1.11720550307775
"x3","~~","x3",1.44116794909166
"x2","~~","x2",2.43750243568259
"x8","~~","x8",0.25298999792797
"x7","~~","x7",0.87705799232217
"x4","~~","x4",0.0116279783765921
"x6","~~","x6",10.3708266710557
"x5","~~","x5",9.83403508800119
"eta1","~~","eta1",-0.000172360403864157
"x2","~~","x7",0.0930134241043369
"x2","~~","x4",0.00506494548753208
"x2","~~","x6",0.00271613982294366
"x2","~~","x5",0.00472377712677989
"x7","~~","x4",-0.00339557874548177
"x7","~~","x6",0.0111856823574493
"x7","~~","x5",-0.000573688973793098
"x4","~~","x6",0.00055626237890935
"x4","~~","x5",-0.000309514309275755
"x6","~~","x5",-10.0782242172543
"x1","~~","x1",1.56797226668549
"x1","~~","x10",-0.0210982314414151
"x1","~~","x9",0.139967039043776
"x10","~~","x10",1.62096634199761
"x10","~~","x9",-0.00837118224713014
"x9","~~","x9",1.60169615304278
