"lhs","op","rhs","est"
"eta1","=~","y2",-0.121560011560265
"x2","~","x1",0.890242630363281
"x2","~","x10",-0.923554481681548
"x2","~","x7",0.736964369515221
"x6","~","x2",-0.177651696726173
"x6","~","x8",0.781833247349078
"x3","~","x6",0.633745657748691
"eta1","~","x8",0.323566488094038
"x5","~","x2",0.114012519800192
"x5","~","x4",-0.0911281538924649
"x9","~","x5",0.252616772953646
"y1","~~","y1",1.01493820084138
"y2","~~","y2",0.0193055005861637
"x2","~~","x2",2.0531702600463
"x6","~~","x6",1.02964234484763
"x3","~~","x3",0.761002838555516
"x5","~~","x5",0.12663670461555
"x9","~~","x9",0.192428746025196
"eta1","~~","eta1",0.0614893805896742
"eta1","~~","x3",0.00220308573300301
"eta1","~~","x9",-0.00480328289555612
"x3","~~","x9",-0.0282207120804275
"x1","~~","x1",1.64474855775727
"x1","~~","x10",0.105543227689369
"x1","~~","x7",0.335306249244034
"x1","~~","x8",0.0464992951901625
"x1","~~","x4",-0.00957298940085975
"x10","~~","x10",1.40515314191788
"x10","~~","x7",-0.339680625306898
"x10","~~","x8",-0.067568172210828
"x10","~~","x4",0.0276190897503969
"x7","~~","x7",1.07943198759833
"x7","~~","x8",0.097304415062707
"x7","~~","x4",-0.00439584272686238
"x8","~~","x8",1.66691069291118
"x8","~~","x4",0.119579403806352
"x4","~~","x4",1.59797936206907
