"lhs","op","rhs","est"
"eta1","=~","y2",0.229705046092421
"eta1","~","x6",0.0612376003258849
"eta1","~","x9",0.619671809566916
"x4","~","eta1",0.0539871504556003
"x4","~","x1",-0.830544329011514
"x4","~","x7",0.198062827725645
"x3","~","x2",0.181886150483638
"x3","~","x4",-0.0201380082300576
"x1","~","x10",-0.775650445056321
"x8","~","x1",0.40044794505524
"x9","~","x5",-0.575531012028015
"y1","~~","y1",1.94886456889005
"y2","~~","y2",0.139014893596653
"x4","~~","x4",0.620395411717342
"x3","~~","x3",0.503237449384522
"x1","~~","x1",0.649311384612525
"x8","~~","x8",0.148201291788568
"x9","~~","x9",0.286735438317853
"eta1","~~","eta1",0.40011891752264
"x3","~~","x8",-0.00626633741426031
"x6","~~","x6",1.67740436854859
"x6","~~","x7",0.107564084350211
"x6","~~","x2",-0.0478284944212302
"x6","~~","x10",-0.0431410410259209
"x6","~~","x5",0.0664257462403495
"x7","~~","x7",1.51511225910021
"x7","~~","x2",0.0715832115465552
"x7","~~","x10",0.0279243199330118
"x7","~~","x5",-0.0730252853281775
"x2","~~","x2",1.62356268129849
"x2","~~","x10",0.0614248286675771
"x2","~~","x5",0.169202861038144
"x10","~~","x10",1.65098132884697
"x10","~~","x5",-0.0420977941828084
"x5","~~","x5",1.68222704115271
