"lhs","op","rhs","est"
"eta1","=~","y2",0.131947298826638
"eta1","=~","y3",0.120908259247532
"x6","~","x8",0.179432777357996
"x5","~","x4",-0.475690582591885
"x5","~","x8",-0.195268260511142
"x9","~","eta1",0.220587653764515
"x9","~","x8",-0.402660171664932
"x1","~","x9",-0.275554920223551
"x3","~","x1",0.598259182270965
"x7","~","x3",1.14349331434005
"x10","~","x8",0.213244333167766
"x2","~","x4",0.25685774752656
"y1","~~","y1",0.826455190243754
"y2","~~","y2",0.0248909357471503
"y3","~~","y3",0.0172923044603811
"x6","~~","x6",0.0356756932925007
"x5","~~","x5",0.249820577791974
"x9","~~","x9",0.207446006105665
"x1","~~","x1",0.180037270469428
"x3","~~","x3",0.400917752543717
"x7","~~","x7",1.08893495914209
"x10","~~","x10",0.0470047199288024
"x2","~~","x2",0.058524315755403
"eta1","~~","eta1",1.76021739780326
"x6","~~","x5",-0.00516479029191579
"x6","~~","x7",0.0240323522347425
"x6","~~","x10",0.00562613895247738
"x6","~~","x2",0.000973288993187508
"x5","~~","x7",0.0260678878658818
"x5","~~","x10",0.00929619740190909
"x5","~~","x2",0.00849045314217758
"x7","~~","x10",0.01176908999874
"x7","~~","x2",-0.0176218402536544
"x10","~~","x2",-0.000759670402879706
"x8","~~","x8",1.51438590654456
"x8","~~","x4",0.0133591037487568
"x4","~~","x4",1.6256996317813
