"lhs","op","rhs","est"
"eta1","=~","y2",-0.477010497185235
"eta1","=~","y3",0.442428303417345
"x1","~","x2",0.714388495372215
"x1","~","x8",0.567478799114489
"x4","~","eta1",-0.201324750005314
"x4","~","x1",-0.180846511477428
"x4","~","x10",0.799388762725858
"x4","~","x9",0.886126343521179
"x7","~","x4",0.251976278056253
"x5","~","x3",-0.507514908258894
"x5","~","x6",-0.199119015055009
"x5","~","x8",0.819507523513744
"y1","~~","y1",0.998540664200639
"y2","~~","y2",0.231313932452955
"y3","~~","y3",0.234208618006891
"x1","~~","x1",0.705725014088794
"x4","~~","x4",1.75466889442771
"x7","~~","x7",0.605829267596563
"x5","~~","x5",0.941723262917828
"eta1","~~","eta1",1.62790390766386
"x7","~~","x5",0.0453106637508744
"x2","~~","x2",1.41974628736695
"x2","~~","x8",-0.0212302188394806
"x2","~~","x10",-0.00442785893529702
"x2","~~","x9",-0.01719753904978
"x2","~~","x3",0.0188629593683828
"x2","~~","x6",0.0967182189145162
"x8","~~","x8",1.61635384227043
"x8","~~","x10",0.142138835908598
"x8","~~","x9",-0.0851632752835171
"x8","~~","x3",-0.0623824861334815
"x8","~~","x6",0.130618620909569
"x10","~~","x10",1.2327455697316
"x10","~~","x9",0.306233573363906
"x10","~~","x3",0.063214545902002
"x10","~~","x6",-0.0106406948860634
"x9","~~","x9",1.30982588303605
"x9","~~","x3",-0.0185391275675181
"x9","~~","x6",-0.0629282848807895
"x3","~~","x3",1.583414651202
"x3","~~","x6",-0.0554963320166077
"x6","~~","x6",1.63324394870558
