"lhs","op","rhs","est"
"eta1","=~","y2",0.310120630087479
"x8","~","x3",-0.81032852779705
"eta1","~","x10",-0.0966904942392063
"eta1","~","x8",-1.15871271320195
"eta1","~","x9",-0.18453631924249
"x2","~","eta1",-0.978791416393527
"x4","~","x2",-0.272066738797561
"x1","~","x8",-0.578117765122606
"x10","~","x6",0.24814083490325
"x5","~","x8",-0.44878017657886
"x7","~","x9",0.43777391069437
"y1","~~","y1",3.09670030497889
"y2","~~","y2",0.255709364599243
"x8","~~","x8",0.683606605849406
"x2","~~","x2",0.76470773291863
"x4","~~","x4",0.0714047602047795
"x1","~~","x1",0.324895810571012
"x10","~~","x10",0.0558858537856887
"x5","~~","x5",0.243191502449169
"x7","~~","x7",0.139931987070581
"eta1","~~","eta1",1.37364593229164
"x4","~~","x1",-0.00136515743307447
"x4","~~","x5",-0.00341576865916673
"x4","~~","x7",0.00856728960932927
"x1","~~","x5",0.00336682829905269
"x1","~~","x7",0.0218422867079179
"x5","~~","x7",-0.00254252155031868
"x3","~~","x3",1.62112793972148
"x3","~~","x9",0.0792736099641922
"x3","~~","x6",0.123026835974175
"x9","~~","x9",1.29976857870577
"x9","~~","x6",0.0805831343564942
"x6","~~","x6",1.56462775669573
