"lhs","op","rhs","est"
"eta1","=~","y2",0.365002126362205
"eta1","=~","y3",-0.337264172406795
"eta2","=~","y5",-1.68784926456092
"eta2","=~","y6",-0.719571252338633
"x4","~","x2",0.743654740271007
"x4","~","x5",-0.683191240059089
"x1","~","x2",0.84792865362509
"eta2","~","x1",-0.79489184868325
"x3","~","eta1",-0.89455689182143
"x3","~","x5",0.257905268104871
"y1","~~","y1",0.950096429089389
"y2","~~","y2",0.158380848122659
"y3","~~","y3",0.11229823419616
"y4","~~","y4",1.06033272623707
"y5","~~","y5",3.12686417422853
"y6","~~","y6",0.627960543901961
"x4","~~","x4",1.08413631396045
"x1","~~","x1",0.829307873805923
"x3","~~","x3",0.721796226836741
"eta1","~~","eta1",1.57333235569286
"eta2","~~","eta2",0.676591399639433
"eta2","~~","x4",-0.011198134291491
"eta2","~~","x3",0.118843818624267
"x4","~~","x3",0.0387947963402172
"x2","~~","x2",1.67962122065421
"x2","~~","x5",0.0195921046735492
"x5","~~","x5",1.64690248498516
