"lhs","op","rhs","est"
"eta1","=~","y2",-1.88578617396743
"eta1","=~","y3",-1.06211193837992
"eta2","=~","y5",-2.46888011334975
"eta2","=~","y6",-0.546186224572322
"x3","~","eta2",1.14160460108016
"x3","~","x1",-0.352136782069816
"x3","~","x2",-1.40213006294077
"eta1","~","x3",-0.0270585671736241
"x5","~","x2",1.580284558234
"x4","~","eta2",-0.580302470890798
"y1","~~","y1",1.05386567624993
"y2","~~","y2",3.60030165091634
"y3","~~","y3",1.1456715055634
"y4","~~","y4",1.12529449593713
"y5","~~","y5",4.32940093161837
"y6","~~","y6",0.279642563651618
"x3","~~","x3",3.78487099033335
"x5","~~","x5",2.43057643318184
"x4","~~","x4",0.264332957618535
"eta1","~~","eta1",2.47860838120552
"eta2","~~","eta2",1.29441428161339
"eta1","~~","x5",-0.391252666880849
"eta1","~~","x4",0.0553556324500668
"x5","~~","x4",-0.143700230415888
"x1","~~","x1",1.68247202562398
"x1","~~","x2",-0.0694848888999959
"x2","~~","x2",1.71041572876379
