"lhs","op","rhs","est"
"eta1","=~","y2",-0.605551304521392
"eta1","=~","y3",-0.975609577401715
"eta2","=~","y5",1.63222616267882
"x4","~","eta1",0.414591618609753
"x5","~","x3",-0.339725598354689
"x5","~","x4",-0.380612943694425
"x1","~","eta1",-0.368415138370046
"x1","~","eta2",-1.71633655426361
"x2","~","x4",1.04411521776068
"y1","~~","y1",0.902894084393658
"y2","~~","y2",0.302581770204082
"y3","~~","y3",1.44485327039002
"y4","~~","y4",1.05059083130489
"y5","~~","y5",2.7057452142377
"x4","~~","x4",0.23763701143128
"x5","~~","x5",0.337372783251581
"x1","~~","x1",2.43290368001287
"x2","~~","x2",1.36756547490731
"eta1","~~","eta1",1.71429874479036
"eta2","~~","eta2",1.58422660160713
"eta1","~~","eta2",0.10391923431512
"x5","~~","x1",-0.0753446043558587
"x5","~~","x2",-0.0268137784450893
"x1","~~","x2",0.105117365203059
"x3","~~","x3",1.59045604170502
