"lhs","op","rhs","est"
"eta1","=~","y2",-1.46377015970051
"eta1","=~","y3",1.19836282071994
"eta2","=~","y5",1.69049756287024
"eta2","=~","y6",1.03748852170389
"x3","~","eta2",1.83984802345717
"x3","~","x2",-0.805318150602858
"eta1","~","x1",-0.334992726469717
"eta1","~","x3",-0.993969835156491
"x4","~","eta1",2.09863030263737
"x2","~","x5",-1.83721013606147
"y1","~~","y1",2.81642851917107
"y2","~~","y2",6.91082329063091
"y3","~~","y3",3.71784380882018
"y4","~~","y4",1.13792910261019
"y5","~~","y5",1.95710994518671
"y6","~~","y6",0.770331271680056
"x3","~~","x3",6.65214450141105
"x4","~~","x4",12.4199144224671
"x2","~~","x2",2.4123135273521
"eta1","~~","eta1",2.02519676524567
"eta2","~~","eta2",1.32557884415568
"x1","~~","x1",1.67378313561002
"x1","~~","x5",-0.0826676959333272
"x5","~~","x5",1.63758060100069
