"lhs","op","rhs","est"
"eta1","=~","y2",-1.58777596899897
"eta1","=~","y3",-1.92682675997141
"eta2","=~","y5",-0.761314594239677
"x4","~","x5",0.321753611233429
"x1","~","x3",1.78185422698313
"x1","~","x4",1.80803771822208
"x2","~","eta1",1.21269219536195
"x2","~","x1",0.31052933530577
"eta2","~","x2",-0.485169717785066
"y1","~~","y1",1.03019520431343
"y2","~~","y2",2.64686678832408
"y3","~~","y3",2.5725525622357
"y4","~~","y4",0.914665485410104
"y5","~~","y5",0.583771266178105
"x4","~~","x4",0.0777492748619669
"x1","~~","x1",5.76747569536858
"x2","~~","x2",7.65668450633771
"eta1","~~","eta1",1.5814866591142
"eta2","~~","eta2",10.5147734390007
"x5","~~","x5",1.74844593005533
"x5","~~","x3",0.119067667994559
"x3","~~","x3",1.66367246494325
