"lhs","op","rhs","est"
"eta1","=~","y2",-1.72472762873677
"eta2","=~","y4",0.386486411161503
"x3","~","eta2",-0.402579359386396
"x4","~","x3",-0.617466652604077
"eta1","~","x4",1.4287488359608
"x1","~","x4",1.55084668427156
"x5","~","x4",-2.15812727812822
"x2","~","x4",-1.15401907180154
"y1","~~","y1",1.19793794664054
"y2","~~","y2",1.86609495479472
"y3","~~","y3",1.00078431937744
"y4","~~","y4",0.151468881070829
"x3","~~","x3",0.138827213439028
"x4","~~","x4",0.271982040828342
"x1","~~","x1",2.05464710216219
"x5","~~","x5",3.07117355217036
"x2","~~","x2",1.76678370056209
"eta1","~~","eta1",1.65216389330777
"eta2","~~","eta2",1.6613763621149
"eta1","~~","x1",-0.0729689513339203
"eta1","~~","x5",0.147117950506355
"eta1","~~","x2",-0.0170229267244203
"x1","~~","x5",0.0287529519942951
"x1","~~","x2",0.0464885126998725
"x5","~~","x2",-0.00842469883138625
