"lhs","op","rhs","est"
"eta1","=~","y2",2.21098005541526
"eta1","=~","y3",-1.0628027378996
"eta2","=~","y5",1.30434310131565
"x1","~","x2",-0.979337978677447
"x3","~","x1",0.510758742030249
"eta1","~","x3",-1.76866749951529
"x5","~","eta2",1.60446601540454
"x5","~","x1",-0.512379544600775
"x4","~","x5",-0.17549889944966
"y1","~~","y1",1.00835761180591
"y2","~~","y2",4.20526537292164
"y3","~~","y3",1.37820882274956
"y4","~~","y4",0.844578724387447
"y5","~~","y5",1.89223156361321
"x1","~~","x1",1.06319841310742
"x3","~~","x3",0.184856386281856
"x5","~~","x5",2.67290394187036
"x4","~~","x4",4.7716930700808
"eta1","~~","eta1",2.97388346040214
"eta2","~~","eta2",1.63280669999088
"eta1","~~","x4",-1.54823987434023
"x2","~~","x2",1.66408694870591
