"lhs","op","rhs","est"
"eta1","=~","y2",-0.685602907542308
"eta2","=~","y4",1.3022000252042
"x2","~","x5",-0.614271423000039
"x3","~","x2",1.7724249653405
"x3","~","x4",-0.494955588960949
"eta1","~","x1",2.2849101324112
"eta1","~","x3",-0.324928758656424
"eta2","~","x2",1.51242688942344
"y1","~~","y1",1.44242083224156
"y2","~~","y2",1.17401660610617
"y3","~~","y3",0.676758330166666
"y4","~~","y4",2.64812750170223
"x2","~~","x2",0.20493978327159
"x3","~~","x3",4.03030965123246
"eta1","~~","eta1",4.99072837665317
"eta2","~~","eta2",2.90646275830074
"eta1","~~","eta2",-0.150848191088129
"x5","~~","x5",1.59237066458057
"x5","~~","x4",-0.124515667733199
"x5","~~","x1",0.0277493676114326
"x4","~~","x4",1.79890109376468
"x4","~~","x1",-0.0579277191601122
"x1","~~","x1",1.66496165551908
