"lhs","op","rhs","est"
"eta1","=~","y2",0.736427212423183
"eta1","=~","y3",0.269178214022958
"eta2","=~","y5",-1.31143983653141
"eta2","=~","y6",1.80972340897179
"x5","~","eta2",0.508650529739386
"x5","~","x3",-0.824742706925382
"eta1","~","x5",-0.362728809573872
"x1","~","eta1",-0.64365126734005
"x1","~","x4",-0.212839280552305
"x2","~","eta2",-1.74012142506184
"y1","~~","y1",1.9135773732203
"y2","~~","y2",1.02506570266323
"y3","~~","y3",0.158798557659673
"y4","~~","y4",1.01400818396873
"y5","~~","y5",2.28878457059092
"y6","~~","y6",2.79766484981226
"x5","~~","x5",1.09025147220833
"x1","~~","x1",1.05507518994455
"x2","~~","x2",2.73475616955555
"eta1","~~","eta1",0.179448658091557
"eta2","~~","eta2",1.58461931881812
"x1","~~","x2",0.105892755586959
"x3","~~","x3",1.61221060024166
"x3","~~","x4",-0.0115634211917118
"x4","~~","x4",1.72249292276454
