"lhs","op","rhs","est"
"eta1","=~","y2",0.563022882727538
"eta2","=~","y4",0.618479110120456
"x4","~","eta2",-1.27458271783473
"x3","~","x4",0.415608254429985
"x5","~","eta2",-1.09299254438804
"x2","~","x5",-1.37667891029976
"eta1","~","eta2",1.6511705647759
"x1","~","eta2",0.629400422847953
"y1","~~","y1",0.856194651981623
"y2","~~","y2",0.336796415829828
"y3","~~","y3",0.967482286889974
"y4","~~","y4",0.425048434888648
"x4","~~","x4",1.91369325434602
"x3","~~","x3",0.172215462697091
"x5","~~","x5",1.46666613678556
"x2","~~","x2",2.38078751807377
"x1","~~","x1",0.537027549259481
"eta1","~~","eta1",2.50617884467251
"eta2","~~","eta2",1.69490958656842
"eta1","~~","x3",0.0129560614520835
"eta1","~~","x2",-0.0803854447442198
"eta1","~~","x1",-0.0633482425956516
"x3","~~","x2",0.0672752681941635
"x3","~~","x1",0.00866049540510299
"x2","~~","x1",0.145230968376912
