x1,x2,x3,x4,x5,y1,y2,y3,y4
1.4505585316949925,-0.4768907405753855,0.7984590963854072,-0.022436981124452547,0.1779282533266105,-0.14857320640324795,0.4487249826283066,0.9096381575220613,0.06263816950820228
1.2061000866111464,0.8095011156158349,0.5407747490751422,0.28164892126855656,0.8801744524658386,0.4900969551190821,-0.37901598665211317,-2.71232107745955,0.19571051581200022
2.472926158807678,1.9711009508795319,1.5976273545209172,0.21262766963029903,1.1307367201540115,1.3073475408013229,-0.07185950800081911,-2.490167228541381,0.11628147455581418
0.9381172798657662,1.5548231633546696,0.47726909395812617,0.12599439691692937,0.990797765028094,0.18649047313728873,1.0930686383727866,2.7434639673866075,0.1284067801363006
0.11147511341468741,-0.11687042403899328,0.3936207061875248,0.18232825070069675,0.6003888179881686,-0.8603914031852777,-0.48835608359074995,-1.1689017110973894,0.04884773855684603
1.8980785990878495,3.2385205013375336,0.8071180590252736,0.374631881968979,1.460352504750814,0.5055713154104726,0.39560634104436077,-1.410339297546403,-0.007934379848171962
1.911794082321105,2.582567693726695,1.3328643081109743,0.2989498960849015,1.8142192265136128,-0.6720282773486472,0.3590970946407826,0.7348464582213192,-0.04690226965203195
-0.24571303182743165,0.2966886533512969,0.14251916560149988,-0.12514587537827823,-0.19806110837306,0.8763852154645643,0.37539465974485275,0.21079045204803992,0.10364871184273139
2.950035601411399,0.9131576184503956,0.3876580249774462,-0.06830462421657164,-0.3073588456789591,-1.2133329905034154,0.7208932462566918,-0.0708648538020209,-0.1799679209662648
0.5797837535349013,0.41277850130120486,0.5564589461367242,0.039050815742154084,0.14428494882132128,0.7182268514096456,-0.2012935985781911,-1.3846999512841043,-0.02628474667784224
0.9061609382044711,-0.18691110339006312,0.6707367361528247,0.022161004454259156,-0.4226178682610924,-1.378118901072673,0.2022138656105076,-1.2594771824168618,0.048934250750684694
1.7237444732162417,3.239323115661107,1.2416573376342583,0.04949262150585808,0.850426137916055,-1.014270305120196,0.21537210854844885,0.09460708589687156,-0.23722430685138002
2.1612304206421626,0.32268460519524345,0.510058119785343,-0.15448003167090685,-0.12715944227033144,0.7484196674190262,0.6195424316490371,0.20846777062868727,-0.07861856591650435
1.0163743275114046,0.8691621719613618,0.26275789466124244,0.23561906536502988,1.02816095671555,0.048136457697752766,-0.2882425269913177,-0.7431882247738821,0.15065215459011722
-0.7418366081626329,1.4299196807059995,-0.25184057378641195,0.14397530060678237,0.9031921850220522,1.0967808811114697,0.03723677812194361,-0.18959026239310084,0.1478756105272993
1.5499350624607642,2.973434405160529,0.46318786964010583,-0.045450074830151975,0.9260685272062281,-0.9057777185528063,-0.00801689573355624,0.2356755275350225,0.12492338120366767
0.14412636992379868,1.359729449389926,0.09062516817892802,0.0790430148244442,0.5199353459671349,1.038956673011957,-0.33549660473352155,2.6230888085868544,0.058313445395382274
0.8573951566583167,2.1527750506238834,0.36106488493383304,0.35367857102996747,0.9731920156174381,-0.4224254444029365,-0.02330108086011223,1.937965609303642,0.027306410059318085
2.300167022757675,1.5901007152507955,1.2003471877491203,0.2016197727691541,0.9358625063199705,-0.132647096514428,0.27525982791673875,0.09814475678741219,0.08491700745270618
3.1537789661877875,-0.5117013950835774,0.9109585003058601,-0.08822307684031172,-0.803652648714075,1.4751032604895387,0.34473261743467815,0.5427879955053942,-0.0002447783056055419
0.7304700976835703,-0.04263990632713188,0.8701187358303502,0.2063249883779144,1.32371447736092,-1.024739179165,0.16201925972906978,-1.4677603705070283,0.11941477540618162
3.3456724036833254,3.409720785000829,1.4880181335235956,0.25911931500430035,2.126746099962502,-0.6342739490098979,0.509088597261251,-2.310100577556823,-0.021753080766118052
1.9917254976953673,3.230212866558145,0.9270102959946843,0.07946022551623778,2.2584552609241872,0.16602653325668204,0.5650158028936828,0.6377749478722884,0.08003548551766007
2.8379254293551908,0.3501743402037285,0.775112893173645,0.07304356440216993,0.7260804815725909,1.5703113975486784,0.2672771673832227,1.013108661197562,-0.011614920202981133
0.5942283760325613,0.17930014671566497,-0.15918439537874532,0.11543045974972531,0.8592538403801722,-0.3547550167383946,0.2447333408664273,-0.3407845875534313,-0.02773306743631752
2.883863862534053,-0.1970216713417411,1.3922898212355532,0.034849343904159995,0.6396880504752598,-1.006263140531781,-0.28339061666411314,0.9053430830234664,-0.11332783910955163
-0.6358547187894095,0.16154648321468978,-0.6027007301110704,0.01375517403818965,0.10760297786901066,-0.05250400825679173,0.27469878871717496,-0.514726493505492,-0.06420390190406358
2.936705264724779,1.072553066535547,0.7726855458447222,0.052510429107922335,-0.4879799945279889,-1.8160386804446573,-0.13148333629625505,0.11694848922984069,-0.10767585070379596
0.5863116484924256,2.5623436621758153,0.5612621572927287,0.030336277861276732,1.3531899533052942,-1.2842081019164227,-0.25263727665899455,1.0171803653360874,-0.012426266604381103
-0.8767021539789249,-0.2377532724990663,-0.09452702139981184,-0.13248722249683367,-0.6034020048434631,0.644322516020016,-0.4570854354694179,-0.3874387285272318,-0.16349335468853254
1.5750299691388001,0.9165099880580359,0.4466509431139871,-0.04693065628793978,0.16460109656415642,-1.6480353124059228,0.46089345553090805,-2.384188614095603,0.11165116003443198
-0.8753673905457966,-0.7008079098797255,-0.7170979647246529,-0.11833711827722838,-1.1122957910840054,1.1992302130875403,-0.5193294671596485,-1.761280767449028,0.19850878870883576
-0.5331599809952046,2.0391610910690345,0.09863526557106009,0.08005864871972071,0.9600847569190837,1.5752607552426796,-0.09415899842975066,0.7136348796981522,0.09215189674133874
3.3467014408889275,-0.5554025032373421,0.8544556297202678,-0.1388666182227889,-0.5069015345965409,0.1372888774271653,-0.3622323815599865,1.11825072666513,0.03776310391878039
-0.6598154420320013,-0.869621665886901,-0.15631746181562106,-0.105320436875676,-0.6951787952288669,0.20324096935352892,0.33722909860140393,1.266253663806196,-0.1252139832931192
0.7876551221541717,-0.11794524446859855,-0.24912074798979877,-0.449315672961117,-0.41532337493669524,1.8168456605849452,0.567253442110319,0.895632024874302,0.03868659410052371
-0.2710287274715609,0.530060041343565,0.44520083438257935,0.2150557881157887,0.6616268871950882,0.40254190382458416,-0.14040108587034625,-1.14724714274544,0.01739949222512568
0.9540745438910201,1.6381708936292156,0.8528282843718038,0.2732169501361542,1.0276609027565287,-0.354705944540562,-0.093711745953598,-0.30364013209417495,-0.16520490613694597
-0.2856125352675827,-0.18194665286230982,-0.2429964624184907,0.20414445007837304,0.5028557214985792,0.18069538477752628,0.14698492198192345,0.9518747483811681,-0.37846626916563597
1.3370730462325295,2.5900587108497675,0.5412038829589967,0.4210906102458262,1.7848529141603522,-0.2954747821724114,-0.23670172166415931,0.6335602896987865,0.015877991704599158
-0.7312392266861085,-0.5873917228300365,0.1108430525943237,0.08340353093419269,-0.7466724550959856,1.4038612369366925,-0.08517433966518542,-0.322407676253781,-0.07045502240239457
1.040379084411759,0.34248717201057954,0.12335632745075065,0.18490489768509036,0.6369735450019622,0.2787497146381933,-0.1713177791446871,2.625428071609837,0.012850659947162446
1.3245091178363801,0.011481429115490327,0.00844376665028751,0.0023830125730501467,0.1231842816603928,0.29805817392486156,0.9423286607391315,1.0183829018235588,0.056778088888883374
-0.07383002803305594,-0.5321415488495723,-0.313340021613152,-0.032775836029526564,-0.5434542737195763,-0.7074669572926647,-0.6463509505924993,0.662267402348691,0.17326602759469348
2.8017538977283416,0.2290118000500796,0.008448935731954349,0.0348161070586263,0.39380368682204864,1.992261735792368,0.31938599829239767,-0.4937056018729539,-0.0646791055420689
0.5817459193097738,0.39754062824570324,-0.4937030024948573,-0.03608046311425158,-0.059056601511960974,0.24433150152779198,0.5662047595223377,1.3852839075032988,0.0715991254528507
-0.959790185672473,1.2030077451343586,-0.7292870006662984,0.09945833635651809,0.025624975842007378,-0.5052644481607651,-0.14447091564058478,1.7956347961087156,0.0812926113186899
-0.4256781127216125,2.71311779823339,-0.4907192782215859,0.10940800394421027,1.484103061970504,-1.1092680621663307,0.23648193951499635,-0.08684913888858226,-0.14975940958382722
-0.1674996870964819,2.084895438096504,0.4685862930605575,0.15478068809745438,0.39279938045508817,0.9806325545357938,-0.6073157225006754,1.8002504603397034,0.2768962882860201
2.5825698181142545,1.87883670226991,0.8574350041968573,0.5195505869601496,1.0130454290976572,0.8729356715464064,-0.37987568879495714,-1.496034561463694,-0.09468110811496468
2.351422210331442,-0.5555431735669452,0.10425813748381396,0.28550242843285706,-0.6287119136544692,-0.9982449008581168,-0.005353405469989074,-0.8569836892293838,0.01737204244259402
-0.4510759718657027,2.1270047230189513,-0.31141364846530245,-0.06381041476060237,1.4011163450528372,-0.935189751925968,0.3267328833744878,0.12813280809011574,-0.08058187164095017
1.926801992814617,1.0210484066593537,1.4812856351793369,-0.07281538407552487,1.5521324811075705,0.35277598008925004,-0.24927825366121825,1.7446453205636905,0.029641264968440342
-0.40665021971835213,2.7714397249592624,-0.18993424664361472,0.12959289470858856,0.7039476503310723,1.1403272852824844,-0.5748522779684432,-1.1314071737599691,0.03762380330510622
2.931021125911919,1.7946126071629673,0.9246740680284807,0.014081125093012499,0.16811061434310326,0.5795454964115664,-0.6690607245377495,0.6489223708840265,-0.03824340950715985
1.1834938997897697,2.485901424640682,0.7141984161359658,0.303983264885545,1.5179643393503053,-0.7387285425766493,-0.038013316129989344,-1.4095405781788966,-0.03989621918873063
0.3287920357641625,3.333754479064118,0.003054188992122703,0.1636192634488343,2.1879111935686986,0.22361369065848985,-0.5963374208121927,-2.500953238922362,0.15776428934380587
0.018365297825586158,1.1699363470148172,0.26040655480658703,-0.16599879865175857,0.0595721762024991,-0.49548484282217353,-0.078601595437628,-0.6194934128113594,-0.08568923430101082
0.7497556071773481,1.2133792319571741,0.21257479953995814,0.08617326769386992,-0.16824968969699397,-0.24559920323277973,-0.9473729778986044,-1.7792241727633782,0.021467970756395505
-0.673557989556528,1.826765880641123,-0.044247064315185436,0.12863091910069543,0.9978080801643646,-0.5712657254552576,-0.10908894811205333,-2.012557662202377,-0.19104205610978423
0.30847850266271437,1.9588297251811904,0.7000881913508599,0.07274454490897855,0.7705360383908932,-2.08518313230576,-0.18093124382323034,-2.8726157997013333,-0.1538335572770643
0.4902346593807201,3.308149105171723,0.13442745863552746,0.4450787320875368,1.1358713185471974,1.1559532292443124,-0.8188571874234933,2.3853167202649517,0.15275322900641017
-0.4887378846923697,-0.838675095655556,0.11971427309724553,0.18988112173538096,0.20517672218057406,-1.3819557083928997,0.31304575303466786,-0.4774521399091961,0.009177201941411459
0.6685968855455358,2.914179329614686,0.3808826185245537,0.20226625966687448,0.7121798103839946,0.179227646728865,0.7817874085075357,-0.6678603253161634,0.1760354967977348
1.3818158067718271,1.2906617754310132,0.4417283405340587,0.07607072815139351,0.5287226806260203,0.43227137976084845,-0.2412464556140757,0.5590933405838234,-0.08611772060071408
1.6734400939895906,0.06315767419964691,0.32871209469592905,-0.05220325815197584,0.1689073380648405,1.4256556080689355,0.20992998960009598,1.1467840222966175,-0.045792930769654364
1.7207401135561557,3.065301739848591,0.12073427489572737,0.2643449394256692,2.2223891052073244,-0.0383089506699823,-0.6800203108960491,-2.5054297201318425,0.0018156312768145694
2.1893009652974866,0.9119304089530644,0.4061541919354838,0.14915935622023327,0.8150521399931684,0.17650169402956506,-0.6584274744345626,-0.465993826265112,0.14040383517169408
1.7656151744930106,0.6976357086312677,0.6365405379808203,0.20761439382453725,0.4920255655974249,0.8390669773155051,-0.049055463271023225,-0.7424540785496317,-0.32159017729016526
1.3822874145559143,3.378659912104732,1.0763516414476013,0.24058597072487395,1.7223436351130654,-1.0090948282274403,-0.4307235824059982,-1.1085384360427197,-0.12704084469202817
1.8694452787785805,0.0924554344745463,0.45101691752567125,-0.10674790098366671,0.09686090762099998,0.16221797672003416,0.9158388505105595,2.056952257757303,0.05042029748421434
-0.7392232477388077,2.5354569092939254,0.8237977052801599,0.29118059915143935,1.7431555498317586,-0.5043368364657097,-1.0501795301805523,0.23616603153876348,0.00547082150832727
0.4478135317547882,1.6577956334568347,0.13170512531780154,0.13453035963500068,0.4501639056060497,0.39960077911136616,-0.7810146023436854,-0.763278141830875,-0.02096158681170797
0.027078971298548415,0.2202383187788861,0.23052346476730645,0.02705754684782863,-0.26349106032647956,-0.9000065314989529,-0.5686720905335382,-2.4316157257730806,0.1326416413237792
-0.44239245671403016,2.0018243174991337,0.19044718667158816,0.3081613257832544,0.9739017331428859,1.3187521507763278,0.28651194251620793,1.6849388430755285,-0.11108152763215565
3.381990221550663,1.5560249458474442,0.628972151891658,0.359379999777015,1.075133614574645,-0.5104171790646069,0.018452264703640545,-0.7248353085649524,0.19827311067940667
2.170942233793605,-0.43967062390134426,0.07425573120528467,-0.013776678334521184,-0.7618413103288458,-1.1143987023388011,0.343893020435203,0.39509595754353605,0.002097626607261611
2.645989667896145,-0.7493363707306049,0.943745551177258,-0.10473862730522741,-0.08944454984416711,0.1999593134638884,0.16685580560207372,-0.7541869011714266,0.0064112170643134195
2.41275436818326,-0.1280467354529975,0.6950102746017095,-0.108062983828332,-0.6438158883062157,1.6934890038256383,0.11275611930484923,1.5181101350071402,0.001479716375091004
2.8799347643670443,1.134308591874368,0.9660730348292574,0.10926780117324404,0.9181887657049204,-0.9984882712299292,-0.4080280427714681,0.46125287535368176,-0.10833307037537482
2.3157760317940608,3.268861107388899,1.3619443578113155,0.33365690911035856,1.4394287727552784,0.8348083680780364,-0.793189140170301,-0.844287113643436,-0.04682264145486209
2.8485232853154034,2.911186825287962,1.3697848964242862,0.24590850589753008,2.392217144951289,0.41187087214940166,0.41664901250741687,-0.9134953465424303,-0.011223675503236288
-0.013711923760108102,1.8138299531334146,-0.12057495753144278,0.09783892333094306,0.47202441568373293,-1.9140902266312434,0.15087315273306787,1.2164781860664649,0.08930821094126516
3.1817554134086024,3.2181030425100756,1.2035375305991574,-0.0828301654707088,1.5357021187510131,2.1152522911586313,-0.3903965558566149,1.3582004781073127,0.11873008194123555
1.8693993442872712,-0.1972106185974133,0.9051836868595005,0.05542859733010164,0.32882802578100334,-0.6367972868479186,1.0118749947383356,-1.8508239499693122,-0.2264643010598351
0.22737612963725518,1.8641480853956138,-0.047941096873135636,-0.025371493011284756,0.5698474143300085,-1.23725830474285,-0.08966382738734498,1.7131820829494506,0.0003800450438731402
1.0464438236565679,1.565460582936363,0.5052571065779791,-0.05726921333611067,0.2742483954554445,-0.4817633652340928,-0.10945738418486002,0.8111490711006039,-0.022749730549826888
2.95314200915012,-0.21561966120157328,1.069338960040427,0.272004905709874,0.5541407657054356,-0.993831545253322,-0.5637731651859671,-0.41960345997812487,-0.2653635290118587
1.8286663535118035,1.2539662897965802,0.7242300106773198,0.10315817626164656,0.7860590260961002,-0.4612487672607582,0.11333185488862396,-1.2061141720294577,0.104154110274135
-0.9083693061588398,0.8823438762606286,0.04195607064708756,-0.22544500130932432,-0.33923782835909194,-0.9027248502314443,0.7609947091763175,-0.8553682051018124,0.07708829723887722
0.9626081086451015,-0.34906482970832187,0.5957908229829867,0.027137923850920783,-0.08857038467890294,-0.33158270803861023,0.3375134957323918,-3.276282686103621,-0.09320040504508936
2.171509007946499,0.6466488756658373,0.7686909872776986,0.2084644358218508,0.3941571967613598,0.5656297945186235,-0.23639941103146875,0.6757528209291275,-0.40668713476928503
-0.7206995515926276,2.872005719776794,-0.15039035049083707,0.337719279156805,1.4695153795945968,-0.9189097562343521,-0.12666094817626014,0.06882678242230769,-0.2563487766516916
2.108857342688661,-0.3163253665392617,0.2884003275193709,0.1945769684987151,0.5004657825047397,0.9610081858849613,-0.569325017026044,0.5967612780945778,0.2906138440809457
3.374784908109561,2.7153695869287153,1.3412298924029702,0.27069924243100985,1.2808892461591936,0.5370143066023315,-0.07698818057108817,-1.2289896317360733,-0.003898120864280605
-0.6790556043769315,2.8739566953915823,0.6689606965342503,0.24608172424743185,1.6325373329057287,-0.3484559091619366,0.16134856911341283,2.8757938433083328,0.018991132971580425
-0.1110095890185806,1.1319889740745968,0.21588111368197496,-0.1521459539065627,0.49175852109122115,-3.6605126414992157,-0.6288971801200632,1.8046565864229396,-0.07075018326887032
1.534803756682722,3.2286161583281485,1.060293630015809,0.09852409990553183,0.9408268336651139,-0.3024372481394667,0.6503361032095246,-0.5994762985072375,0.13199230332046863
2.531507745710011,3.21922530549117,0.6098404914899553,0.0005443772384029407,1.6294249278276558,0.3084970706982711,0.16228154653706348,-0.35615105032401917,0.15666733906210362
0.5385539717678991,3.4104541991016077,0.14740536922788539,0.25883515524811385,1.3793241440390878,0.5628745981093091,0.011989594553278209,1.6592219621005415,-0.05739758546674939
2.857296716353719,2.3209465769276805,1.214112287219971,0.34817397310963477,1.1176689224474046,0.6689985274063995,-0.22678351221474088,-0.8040386248379094,0.048226325769179235
3.3957063816677397,3.439284680220201,1.4886941354596082,0.10491881183735649,1.0768011521281058,0.43036385430170815,-0.07461183866842429,2.3682842869011647,-0.11064223041943358
1.1447382530585632,1.841149902304768,1.062326761231998,0.4986477570813691,1.602728904804991,-1.6567742459358317,-0.8582610066187165,-3.810737293240112,-0.10975127322178382
0.07386389944833849,2.626184692754161,-0.11966693050940114,-0.14292767504465034,0.1082499384526597,0.7417182316292174,-0.21866324736477588,1.823397007393392,0.06323257291431168
0.4130657694010469,0.6287354951078918,0.30332559294416284,0.19651367921149493,0.9047313633417093,1.2332967023419268,-0.2855802986485176,0.784477052598286,0.04727475257840821
2.28310828380808,0.32006524716790796,1.087745499693334,-0.03447538007047372,0.1818530477691118,-0.5915416853677818,0.7757929563151619,-1.5715917658137006,-0.3225381277769994
2.450992206609493,2.3481239347894176,2.004771809406708,0.24516063662774398,2.0596355059700158,-0.12808669463462424,0.5562276346232248,2.7285137732754716,0.15495709481969694
2.5733368668919137,2.146029469791534,0.8035182857559711,0.04748651347720768,0.7837185478553458,-0.22890594507543918,-0.7734567458903049,2.2500521976932575,0.2940859031424924
1.3871679738995928,1.7811744967122523,-0.10844187689216102,-0.0302974436407466,-0.04399440467669491,0.16140426119778628,0.06260223184791258,1.121073624185294,0.05102817262762353
0.42466347624609035,2.6275512027586485,-0.4215160904123568,0.09581119033355937,0.8916165618913572,0.7184156625003332,0.5541715057151173,2.0370590323038775,0.022335144397161305
0.9222088934746207,2.007954065758473,0.7287048784191461,0.2345661325833579,0.8135079592771902,-0.7791760107728225,0.038577218350545284,-0.8845771337089474,0.32791091477575046
0.790742530171324,-0.21520565049826568,0.3599221018761559,0.012051120022481026,-0.5676915976411451,-0.30025280428081536,-0.7803443537954513,-1.9725111577729353,0.21277151922377924
3.084643438835525,2.809517912568179,1.5749819566239975,0.2709081966404925,1.6110265867646978,0.40595994161033605,-0.5250213145287136,1.9065948379045943,0.19447100668668613
0.053383140488973524,-0.15788153263220495,0.25838473583826166,-0.0585500146239394,0.012242308959177649,-0.7203046543248961,0.0669984669743979,2.3470160147894212,-0.08499654518919322
1.843505168596674,0.25554309848012813,0.36114141836369384,-0.2102909479860153,0.2563301635024445,-0.6953323961257731,-0.025514421804222892,2.006747144032461,0.057831202562542636
3.3531894579859607,-0.22053445297832242,0.3387048270009874,-0.4458397991519719,-0.5117761965085847,-1.0397759585923736,0.08340657668061009,-0.08243277846608499,-0.061270906430641425
0.484554297773635,-0.7036585979716796,0.23031551407460923,-0.022647201916300663,0.0627978371093758,-0.3176283451541396,-0.2736102628789941,-2.359574333165269,0.13003955738771059
0.7392458526144066,1.6134236871985657,0.24611001985150083,0.26802104733878684,0.7094361984173527,-0.22187957532803604,0.16273630153739985,1.3587862981578789,-0.0101403125452489
-0.7445021382646515,2.388563200844161,-0.3017377207495589,0.43639682432916455,1.2290893865667794,-1.0576992380683863,0.4229072597222622,1.1772742795564919,0.06747135088321733
1.6911436460655973,2.455380887680255,0.8390658159403515,0.2672576758998179,0.9304255646564403,-2.0716813481007486,0.11254112664443017,-0.20748082876186819,-0.062480326478629236
0.4018106889610702,1.0375816718321489,-0.21053764216836807,0.05140473524076715,-0.0508715628799752,1.7648487938933088,-0.18604921418569348,-1.003465060853874,0.16575506246947708
0.7456282232238627,2.017810742778197,0.865997034212948,0.2445882145918084,1.4004810014372857,-0.045712911535526035,-0.17012887116083922,1.0695528701684895,-0.30564146968086364
1.596881835468602,-0.30533338818107525,0.3411061013361638,0.13163624977806312,0.3020145932281133,-1.6829885048034203,0.05483652402479756,0.8433040258088262,-0.11756693659892394
2.9612860413365465,2.956962030940488,0.741907102194081,0.21385800911861877,1.8481375367210187,0.9554148637779171,-0.2210941284116422,0.4268340928483678,0.08117537019276833
1.1263579822854135,-0.2284561434271961,-0.20653505346212825,-0.25195377602600055,-0.11904739688297113,-0.18587586881595292,0.035166682911611735,0.6517546219846612,0.24174202052961385
0.8840132837127921,-0.9872031542437647,0.14035958364047904,0.1270897682479137,-0.1664102495129343,-1.6507828152285309,0.07015246577094872,-3.162107714715991,0.11137160275464786
-0.07598420472863943,1.9677571192674854,0.2854872533988255,0.3199206229760516,0.7371310728586976,0.6579873444837172,0.3105540384750343,-1.2495405268592106,-0.08573280944615823
0.2823908663139689,2.406606381451585,0.2871379296061113,0.012757063454613726,1.4436492623385835,-1.0773069886034068,-0.2571113216936401,0.7568944786066036,-0.08642859718682733
1.269100525826992,1.9448705662546324,0.5569215641010503,0.0718625797875114,0.6449325967720446,-1.017125051637779,-0.22405117451261952,-0.7103675171732438,-0.13106545227383676
3.296475481985076,0.6637155018452401,1.1504340104680988,0.13351950431374224,0.2496026678426772,0.35521797693942775,0.1210430796443538,0.5572073493335425,0.02447032122329761
0.5783007060374714,1.0180763236201433,-0.5378126433197798,0.047562973793131305,0.32118925568996626,0.15678093823283562,-0.23726463786018293,0.47850320390791423,0.17468890703688156
1.9544490140977375,-0.6110835111361084,0.6872153215833651,-0.452818093277337,-0.6385263015191395,-0.694130437631878,-0.6632397762239655,-1.6479539254789697,0.288067007468488
0.25941795831387093,0.1266945606870269,-0.20335943649669064,-0.010051030838596976,0.4438865985970498,-0.6997615228168528,0.39753624363120343,0.14661189282224743,-0.08106408477681123
-0.40282582288859725,1.5733325527468804,-0.0866019519246082,-0.04566110131118631,0.5813324592330663,0.005113225405042998,-0.1170725812646138,1.4936359226615827,-0.09547578852875507
2.9458412743152484,2.172928514079813,0.8328062667096258,0.27569139808911947,0.5094779878736335,0.9620116725188654,-0.33517342047097687,-2.3908637147522227,-0.15074524355335572
1.9899026396419415,2.290129088039041,0.4329978238839992,0.23501515930219832,0.9087624346296881,-1.583826404012509,-0.09272051954242251,-0.39259145560049347,-0.17316812213261412
0.5618863674651573,1.428315700472485,0.20378688475530193,0.34005286479064967,0.6695353711731039,1.2262241401729623,0.6573493344088331,0.5252064048626761,-0.16558458047722763
0.22367041393623532,-0.5884431467927129,0.24510468044189315,-0.25491092259149495,-0.29723921141823223,0.0822788503813065,0.4727650312282878,-0.006112340434546337,0.06416409538379557
-0.9261500633671943,0.6430390904282939,-0.7559846160322549,0.21422699127032774,0.5389472385203071,0.9042473264534865,-0.1575945354240614,0.38830422189090563,0.033695675337868033
0.9154344994617025,3.125233368405908,0.06353319433833832,0.1673112048446596,1.4193635659544492,0.31435283767094696,0.7898498654994512,-0.8865463490257872,-0.022539981665646726
1.605571301250181,0.732244870019995,0.8734150580961841,-0.03857917899205807,0.45332476941248345,0.38995903499154305,-0.2805424546355363,1.5696127326906697,-0.1345280239938778
0.7410549965665376,1.9373954504034825,0.6612010212670576,0.15361259484845058,1.42064391891744,-1.431437784947583,-0.24976168882560634,-1.1498522270078617,-0.009079042660672672
1.9664132564831678,2.692700801567926,0.25962845461467055,0.04675904925179004,0.5356116395282887,-0.35965753009691714,-0.5531294316735527,-0.7850001718533964,0.14026343631639926
2.5191879900153307,-0.437550520496199,0.5513936075015307,0.015056296472909273,-0.42848974073008594,0.04922269372551191,0.17743916514039376,-0.3145033190260853,-0.09996485677950241
2.9483151377254324,1.026805204391946,0.7653385812861055,0.1443562187872881,0.9557518959995561,-1.4928231678259873,0.36725429442936164,-0.4615023059661367,-0.21985253169048455
1.568723037778752,1.1033395673099289,0.6496142160008974,0.13842035297251876,0.523239985669926,-0.24427067453286816,0.048692572026314204,2.0572007706219013,-0.17100607475720214
-0.9918690087280817,1.776736872142648,-0.7636991464366504,0.05584232274196116,1.359732993888948,1.6882759036991677,0.18281089197712383,1.8214675322885898,0.3324271611000901
0.4126094336775341,1.533700730210907,-0.018999290960482015,0.007794170467638829,1.1033942333023985,1.2119579515387247,-0.5433504957918759,-0.5120126365980145,-0.23725846175890125
1.2507926631398698,0.9119981777802164,0.066777412030602,-0.0672316304662939,-0.5424216431475279,1.145088826668353,-0.10497021308795842,-0.9956302101173473,-0.10478815239249877
0.8501656691489992,1.7360754394135878,0.8605530098072564,0.05933972929368762,0.5734711902852223,0.5735004684679685,0.20963624958423324,-1.4693164912334205,0.10680556011414641
1.349637544675764,1.126715301911637,-0.08098192176769797,0.05995470626259178,0.8325195681962744,0.9839651903241221,0.5375903184398476,-1.934499722255994,0.00488998375909783
-0.554869778324032,3.116842107710254,0.24582370086011596,0.05611662354816778,0.7807293875698361,0.9295913208808786,0.5983075329746252,0.3392137294726902,0.0066218613359132275
0.036409829469727484,-0.4879737345229954,-0.191118113265125,-0.0654455180467255,-0.4559975976814428,0.8968815620529232,-0.15418301410821839,0.7926658991233267,0.10372261397042304
-0.7466886474828316,1.8919056626894029,-0.11654941549504683,0.012449412780663248,0.7262103182735334,-0.300411860698075,-0.06441445425516074,-1.99004517967645,0.015022646821564414
1.1890188233601195,3.337107901830236,0.2500968924699003,0.213999976385222,1.8661982554730305,0.6231448113831952,0.5094121049623028,-1.4929728937908977,0.061237975650995084
2.0396052232520967,3.0041897314760986,0.990736112583152,0.21866785061763844,1.83157793628408,-1.2310872633843888,-0.14904281331616615,1.5782987780250142,0.12530194120278892
0.9989031330116935,-0.17860189854270137,0.09687012058085585,-0.11527921763641354,-0.617868483701517,0.5551156850080671,-0.26871122835924777,0.8061102019496208,0.10939399328842764
1.6966196050063145,1.5709294203213031,0.4047838980809184,0.046744138536297504,0.6599932752526765,-0.8481847174226753,0.29038262017637356,0.6593705750133929,-0.2522282870638999
2.1219010005842582,2.40500616796387,0.7940561981627456,-0.12165513401147801,1.4072079664394506,-1.8583541524300813,0.24305223813438323,0.653706170869798,-0.05377295115139725
1.2730994014087647,3.284245690820196,0.8880019115938198,0.1354582080159085,1.5170442239407163,-1.1117302818947916,0.6675694007838777,-1.8258981550172648,0.024020122115196968
0.42126405124657507,2.0880531569316103,0.23307989245044525,-0.053730953655632775,0.9907102577967755,-1.736075373972092,-0.32791332937322026,1.879917442805093,0.012575998804516516
3.3123807506534764,2.9052120975542013,1.0121577786129752,0.10047468171768736,1.6838287253327187,1.3405001391204403,0.5481859252388721,-1.3364417575703103,-0.2387588564537304
-0.7948180366927091,-0.3762593900347435,-0.508765653162447,0.14032779300308282,0.18121301518851476,1.9211590618427041,0.009304835484266813,-2.729041361493498,0.01999726984484993
-0.6974222310824698,0.100915994679591,-0.5595721667017528,0.22779802920903588,-0.434429097259848,0.46594595913566317,0.5156629923897394,0.6810915725788966,0.026248746420897404
1.5124813105004975,-0.5193176227758364,0.3984641533909241,-0.16975194684379638,0.008640131322767931,0.944446512536693,0.3835063222512966,-1.8686892049632615,-0.19748408895985808
-0.9795891392949033,0.882967947257318,0.19259629389148136,0.10149471328251895,1.6320117479007707,-0.4315943193851005,-0.2661892991309608,-1.5004957828351937,-0.18185074450188804
2.313025736032865,2.5733428041877424,1.4638940971806507,0.04527652329456809,1.5311830504817343,0.704189510425312,0.33718403771460276,0.2753582264862118,0.02609438542626916
3.4612047359599805,-0.7562963113255421,0.957360410414273,-0.1045314525862573,0.2783458271945226,0.08925685774005505,-0.013384576037875571,1.2471633830555584,0.0307010112894988
-0.649138004341637,0.4153402647882072,0.23615125348632954,0.04695958094384089,-0.10919150651522172,-0.7270763185189906,0.900723213697058,-1.875578465250663,-0.06338522913974157
-0.9024548714419184,0.46459033060142785,-0.0057706575528372606,-0.05265148419927349,0.6226764035578825,-0.29529803627064133,0.19117581585385918,1.426084326555653,-0.18988224672394724
2.4736166198634475,1.546493549195577,0.8244978875092502,0.09644238468016239,0.7034467985764521,-0.25786522361381303,-0.01932986255463153,-1.3944620163833599,-0.08025769784658116
3.3833078409142647,0.23132001664093838,1.1619438763508514,0.08779558603532862,0.03639990546125827,-0.8600792857642338,0.00513219465485678,-1.4595800957307123,-0.005976882391908526
0.17096204225191047,-0.6941131887102462,-0.5312097400909266,-0.05500155519652269,-0.6476098298090639,-0.5439300737386276,-0.04176721957591244,1.1053028630747994,0.00974743264085496
0.16382203998202072,1.8100341222037892,-0.21105558452618844,0.01854990855561739,0.5065907705800813,-1.6647064139659713,0.8156362121210322,0.6033004347420028,-0.18536234804587814
1.8834556953000066,0.20629506352444849,-0.27946265705404644,-0.14009248688636577,-0.7914793056675496,-1.332552924743629,-0.7213808927627742,1.3964206294544494,0.027090434042067388
1.9243189612325833,0.6065857373595878,0.8100520711699415,-0.1173603238873941,0.36118897346078654,1.084262429252026,0.33966813082227837,0.7039848385785512,0.03376583552620792
1.6091979290121015,-0.7991813284940716,0.7950604578823425,0.30504954211873936,-0.08478137789572322,-0.11001001966347063,0.47580918093483204,-0.08057563165956183,-0.11622187489278324
1.2658730528907656,-0.28056676064711605,0.5038735530661063,0.03136510451152378,0.21110579372602323,-1.7682564354271206,0.37584810159815624,0.40197671554277736,-0.0004386348576511049
-0.6079359205265791,3.263371856959629,-0.1711423650704981,0.07513706878749363,1.6198521987764418,1.4857404069411004,0.3014457169519516,0.09314718870522591,-0.22541924310463568
1.1311164032314385,-0.11902332049718212,0.49849102562176295,0.036446213813353966,-0.3111695894588229,0.5460073056474933,0.1369350653100504,1.4148193016634536,0.036970838229136174
0.8906392723682492,-0.4630622325692134,0.4103174310332064,-0.04998573296716095,-0.18105805942703235,0.8468195455165399,0.004773664229891474,-0.859304705860892,0.12292025848549086
2.3814964527887414,-0.06845533769027323,0.35361731015429526,0.011132174671145434,-0.01838264342298305,-0.5519544785626224,-0.8103073137848265,-1.348171686579581,-0.19196639224058637
-0.8447814490888035,0.8890964068506522,-0.41255391422521,-0.2734087175479333,-0.24166708493718422,0.07870683282345053,0.07636450983277229,0.5232852159032171,0.03279731884488759
-0.10222137945097276,1.1766297138244237,0.24238393069316008,0.12852821706522544,0.4669143394562664,1.2919012956818912,0.6476688097499418,-0.3300263987450813,0.05912471288174526
1.6720653587689958,2.2824172130766422,0.4871883914468376,0.11678718573826985,0.9087334231151186,0.06598993290774247,-0.28034196940685424,-0.4782096136359395,-0.0066184722126876
-0.6816550985053467,1.6951877739256576,-0.41946437291669775,0.37258907282765324,1.4524989150696994,1.0667140732146803,0.15803948193344552,0.11931840934371468,-0.023825042105299014
3.2067347000302586,1.0854427080550986,0.7848915230623734,0.20626843592806782,0.9262049989638932,-0.9838047222813389,1.025719218477245,-0.8074092543450497,-0.06369580928570279
1.9319585810738684,3.426013013224571,1.2019178771697467,0.42485580297681635,1.7855017328069904,-0.9563191825739681,0.2697831954676538,-0.8510715974901027,-0.13318163185012516
0.25412155968938044,0.8793493038453124,0.0044836807038414195,0.17096120475884397,1.4680249102105365,-0.733249765529382,-0.36299286178528084,0.34456681647820975,-0.05714632427413413
1.3940487773992603,1.734558824630601,0.35768846975989155,0.15631201500461897,0.8342845239550406,0.29893466708907834,0.009433992612848984,1.2834565520252137,0.038754722758479535
-0.6519926857803802,1.008946556391666,-0.4809406090478162,0.2010043718434577,1.223504947742433,-0.3432571116354307,-0.014378847597559627,-1.8363361244595917,0.010585964919592347
2.004121441839712,0.3958343435914511,0.26629294195326825,0.2212125913838668,0.2114896612593375,-0.09283044958690678,-0.13333526585176073,1.1786564392469632,0.08213279235440081
2.289490503741108,2.1005753141660937,0.8296039671345233,-0.03331805231564119,0.9562629446630071,-0.8627603496744776,-0.1301989158505912,-1.8839121549987659,0.16935174872857367
2.765078787891186,2.6517475058847517,0.947015880202478,0.2851543380693879,0.9200450318755756,0.14183569110597027,0.2508769539499999,-0.6111039370591435,0.017429872809259346
0.26574893076655215,-0.7370080011248223,0.06945066453567633,-0.13202390613343418,-0.5251826915197407,2.7658290086392547,0.08859383064605471,1.3269465512078507,-0.1545812812458217
0.18260403299565708,0.41694430611383293,0.26735753118621997,0.1263669920907897,-0.5895946771024327,-0.6618842917588371,-0.5369068373903741,1.5147540267992117,-0.18350597593323972
-0.9425597236851778,1.8576681720552277,0.3721023750329137,0.24571553626396717,1.7427724474035655,-0.5775014066306676,0.07993849137444382,-1.227770240960357,-0.2921436911522212
1.0255054615186614,3.296349802575927,0.866393000229591,0.17525652700572109,1.430085619078063,0.15344017637396415,-0.3879199454875209,0.08193759708489298,-0.003987898172988648
2.7307058453793216,-0.29966083560265744,1.1660010358061474,-0.07615304981606802,0.36592843709332173,-0.760487328601309,0.34296316867967347,-2.095119439693463,-0.0866319092353445
2.587605058123718,1.0775097265338909,1.0130923490896075,0.0897967604704398,0.4477782394550462,0.02261013499812607,-0.7849400164105612,-1.9687496042744002,-0.20275518938877823
0.05510712832693798,0.4130231734297425,0.38066805174114304,0.09062192698421045,0.36319096747989815,-0.3093630247970127,-0.17377169357739622,-0.32348961683902466,0.012078802192180174
-0.3269100863665557,1.4337569680797566,-0.1037008594291182,-0.06591343578362663,-0.45546123322620274,0.09684679923123213,-0.45315996595081287,-2.1001337278815395,-0.06117863325348879
2.311025270230617,2.4889195751029196,0.9025767048252238,0.12934941159588328,1.1428058272174675,1.738123950383707,-0.6545943198704457,-0.7270834944909409,-0.1274258465510751
2.314813715029231,3.394199366655581,1.7279667038041986,-0.011905391664559556,1.3946965115161236,-1.1584039318841934,0.10946484170116677,0.9289825848594866,0.13194220233898768
0.4056003734740343,3.4425385788465084,0.4872179956882534,0.3399189467448577,1.1749537881165046,2.0204427789543535,-0.13311379774154583,0.04928136675619166,-0.14938551261793273
1.0980971989769994,-0.3705467762934991,0.4726960175287087,0.03782094090208262,0.061061744152896176,-0.8388443063160927,0.010365293929485087,0.6174018671758139,0.2649437477263631
-0.9841674057166443,2.0969813069305783,0.39760433043005483,0.14142168422992804,1.2173179963223073,-1.0933779552965142,-0.047163069403035794,0.011897085192843382,0.31443423416134586
1.9332197263765494,1.8029874551849998,0.8688370072206304,0.3903379999262412,1.1066192263675665,0.6899435820336896,-0.398300982615331,-2.422372254660427,-0.09834368753978548
0.6177565574335386,0.05009104510493456,-0.05619911786800072,-0.013486669521199366,0.1380831376045157,-1.4185858972369667,-0.8056443755241527,-1.5130057862188568,-0.06894610258265416
1.4855216286709485,-0.6943255493464674,0.28024405841247846,-0.0938200114518855,0.2952135351958715,-0.5917095721965652,-0.12496199706678851,1.2857022400093685,-0.09165737738489013
1.794097521117545,2.0412683983373636,0.8338040893557781,0.2607266515207447,1.9088967409884343,1.7239124568482724,-0.009789710509146739,-1.4467408893960698,0.050038231761332944
3.4388297277409814,1.6910766531576304,0.8506011973199142,-0.06251936585278162,0.4321447947555505,0.11597914251137387,-0.7424047643271077,-0.8209531860565902,-0.19152957740572563
2.65805398007403,2.72782244764422,1.468133253722133,0.25283698307580277,1.1184717513948126,0.9451212865743339,-0.0459917389663555,0.4034119364964803,-0.07461924633655471
-0.20010115225251635,2.523399649113718,0.08959389925000658,0.2154611236319132,1.3055301222626345,0.06440595753074485,0.5476738383892239,0.48154552558102787,-0.09575987517263655
1.3043106309809773,0.35883855120521746,0.4580022483117001,0.01298633585925371,0.14857800771478985,0.1308453368625242,0.10029511505808399,-0.07189205882917615,-0.014443155836833955
-0.5004692862622174,2.769486984214824,0.16505587383784365,0.12815726973141228,1.0855598862403988,0.6997780072565554,-0.21964029755553496,0.5201161513187946,-0.00787490757726627
0.14162277120524536,0.10883105338499943,0.3657434562900709,-0.014040279431355529,-0.11634195999905236,-0.21582827451405429,0.09731921751288636,-0.6023424459389786,-0.039098711127139946
2.314940068958998,-0.4475577996940414,0.4748358184709677,-0.02579976838361785,0.5462266632699375,-1.508237410292733,0.12538509452229385,2.9583734932229055,0.1520614703725837
2.676778922701528,3.409641421026272,1.4457837670517462,0.1965948624224951,2.006462016788383,0.6977340573075029,0.6695779643044945,-1.3001714478871649,0.07675758897532639
1.7014289119132147,0.19137395789918088,0.45926410598241646,0.10562538532593921,0.7587184921686353,-1.0711296054874246,0.3441693261192354,1.0494596256641726,-0.05292248333101425
-0.005788578350525708,2.9588396263606094,-0.1341036762204506,0.2669083033318437,1.0884095459851155,2.020872022156819,0.12630283604053982,0.9290060277567633,-0.01767700944967357
2.316558961734791,-0.8707691447230107,1.2432765787516626,0.18267382164635423,-0.12327179059962816,-0.3936234573307824,-0.7962143658616752,0.05998392531506494,-0.0067735928399650785
1.9881519343361833,1.781899698649731,0.8102705183814167,-0.04516898615448186,0.2789784581441913,0.8771668558004245,-0.4864745024129437,-0.6178877586203407,0.011249051240321682
2.9321092326161216,0.07452797024250213,1.059297290380761,-0.060616348090423586,-0.26710076965217533,-0.29630051809379343,-0.2782428097666425,0.8895118486504114,0.002178281522626741
2.3689073589182685,1.2263045972635864,0.10491958198424534,-0.022090970716552326,0.04695812586775607,0.5032124579591585,0.7500475178942162,0.37514846052870543,-0.21850636543154048
2.64039769734317,1.7170075031987624,0.872385583673879,0.2518608721644565,0.527594351708323,0.5508390327721969,-0.7050334395548971,-0.9294585192463065,0.07476383876862686
2.7573581259142426,2.8075018612667964,0.7323814862322664,0.20826038440392747,0.9846578348321855,0.8643849844713287,0.02063724243093611,4.133309811765111,-0.047297967570803026
-0.7398027264239504,1.5768473637292404,0.11121138545147174,0.01486481431082911,1.4337091668404354,-0.4555717247516302,0.5394701006860357,-1.3853672497893847,0.13981900520323265
-0.898039795650003,2.71038144664904,-0.1116458965063013,0.14090845572028693,1.5793345176342743,-0.45102489262318524,-0.5704535293509769,-3.2852709780531377,-0.11392458727044998
2.8332881870524402,1.829268172598438,1.429962862484127,0.008776730188030098,0.4448340116789446,0.8160174061368809,0.24613454746555896,-1.3905676924156176,-0.19480105534230727
1.069454824894771,1.7800492188881467,0.9634405400405224,0.052513150313197504,0.8943291558565618,0.11054413379795847,0.7304100334240097,1.2160706279957374,0.12518964042769037
-0.5919751002433543,0.3753585373769952,-0.5114361348237687,-0.2025140474250656,-0.00749475091997198,-0.7268649886075579,0.352146291576783,-2.401407418052022,0.11847928261300937
-0.5612975176492334,1.188668827857557,-0.08891419047794377,-0.192503332610581,0.7364495103856494,0.2525131541626392,-0.2074156214756348,0.8232849469247738,-0.10673267472652702
-0.9684772568335627,0.18144577064662415,-0.39060136977417237,-0.01002264561060614,0.12121530328147943,1.0047563077088604,0.18062400041181964,-0.40592124905428273,0.024450439040637987
3.068991757576539,0.5612584995660641,1.0446001021923657,-0.0860471692269764,-0.18196622284269584,-0.09210768277408901,-0.43267806540989767,1.013857533912199,-0.1081846192588986
0.7922090583360919,3.29171782106751,0.6705046141952147,0.40136744597043283,2.3375421615307217,1.922911075506034,-0.15221347601006807,-1.2156700647844332,0.20571381714696518
2.0731408816189303,1.4203409809465781,1.0173566860569985,-0.1256661540142201,1.0698924640162926,-0.560722410705419,0.296686914573953,0.9394162263257115,-0.07448833996760706
0.7629230634750992,3.0585826895677517,0.19141241022461755,0.15513385841273847,1.4746807127369002,-0.4819595532368315,0.3638309166047486,1.967914841279491,-0.09249985193361168
-0.3338481770856301,2.8029869210117138,0.7869381139507091,0.08897998182931505,1.3896410014237326,-1.2432457932323282,0.12585606368685742,-1.8965681660365363,-0.0652217091215937
2.569995277040744,1.3923063320302016,0.9492514952679261,-0.17044333512969045,0.5792989274266751,-0.6166726453675306,0.5434167905470555,-2.2528346324448707,-0.154957003787073
1.6895004790619668,1.169281024209722,0.4379093593478457,0.24000645490194306,0.7600093236495796,-1.4286795098687217,-0.6859430410496548,1.509790144250982,-0.05006477591344891
3.1117810768065093,-0.24800671403455055,0.9883211540546035,-0.24396218042416673,-0.41705166987614006,0.4533936209415032,-0.468305415176824,-0.15138934248235725,0.13722774288115078
-0.2868419306751039,0.9950383834682628,0.3077793797636845,-0.26763055992516255,0.16808707776988144,-0.30676694410197736,-0.3084351308535586,0.11353357405732734,0.012291317770480299
2.9134917130490297,-0.9838048330773584,0.48848405897365466,-0.03224479186954493,-0.5231480970463289,0.9897080225502989,-0.2973844014530178,2.4708101454354985,-0.10759025409361204
1.3180806599927752,3.461276121921265,0.5377352781649873,0.06799691434047514,1.6892908275025293,1.3854000696234863,-0.11563178964754757,0.712633777845616,0.09054667320248748
0.698601389065334,0.42231045912265297,0.42705993617447396,-0.04274117846980279,0.6700015748085116,0.648948516024631,-0.3422217343959981,-0.21064899123955372,-0.13220842943594419
2.486673111822125,-0.22658188263757661,0.8494208827983389,0.15620090846907786,0.19669195709008283,0.41596788143944124,-0.36490173572854273,-1.050234925044863,-0.2362343610794866
-0.49969400489156424,0.6517316712320205,-0.20411236090299345,-0.016760082063046453,0.26104021829116913,-0.8646835157559722,-0.14343335271381608,-1.0205957741267293,0.2827377262946573
1.3633319860036535,0.1074175692728081,0.7245123635588895,0.07100519979654776,-0.1734553688044651,-0.30996394666995036,0.15781600597961806,-1.3057508775503448,-0.13785374062405056
3.2081657746081618,-0.3677923491676055,0.9355911324120605,-0.17026317753626952,-0.11035294749670298,-0.27360930698128233,0.06993852175806821,-2.9873394946988747,-0.08640694890418027
2.7501537490798267,3.3571687935054184,1.4040659893678,0.24620589068156892,2.02466451708049,1.5033554889516443,-0.009417822537009773,-0.9382100773819905,0.22595192221000676
0.13165716505787595,2.6283825954165962,-0.151483230626187,0.10732019690717928,1.1897023585696964,1.0167957749782586,-0.2655384544270845,0.9223711098169916,0.16007276555847708
2.5068705872301216,3.2176128416450265,0.7933911548198903,0.238968744925685,2.055284509654186,2.842440835558156,0.22086424410077019,-0.6171025659990013,-0.036603760704620666
2.061073849546583,0.9459472924727195,0.8740920837960677,0.03365375117682861,0.5725417416996628,2.6151375248772575,0.23213748834961953,0.0401218503861529,-0.06961326682833614
0.6836246173656793,0.7089641207529183,0.7554922338089824,-0.13409131795690768,0.751047070733181,0.35607101488443843,0.3648748487808343,0.17123151103512924,0.05711002710563625
2.915190156737565,0.6804042766509388,0.9386846872001255,0.17530441834451924,0.19617858008494082,-0.4856121105230782,-0.04044255255897117,-3.0989875218877145,0.09394740740025706
2.8474360475036904,0.45399798612408837,1.0070237255515906,-0.08384818916980198,0.03884864414118196,-1.015184627925731,-0.14954466264014948,-2.1519588979675373,0.0687869651829359
-0.8164607668008118,-0.10649934264423488,0.15029447544903432,-0.4030252616458208,-0.338547033508271,-0.2950962507411332,-0.5142320761865132,0.278261050452574,0.11393865162544838
0.596277775774035,-0.6081360014119419,0.38006088155607565,-0.31706827724828224,-0.03175882966745222,0.011875283185921987,0.240078826405994,-1.467945645396181,-0.21983219473837906
3.034686233868415,2.3393193510747228,0.7419362220542521,0.1842175590013246,1.591174335313389,-0.7490342575359638,0.06857280900679873,-1.300870301638543,0.04507324988171821
2.65755607367022,0.10142007260504271,0.2925131464133859,0.0008767262513065708,-0.9215928832177267,0.6514129039120232,-0.07145128332991706,-1.8920420460368335,-0.006770028898352709
1.0430649755144055,1.8493598723012892,0.011487813251424547,0.17300100218832215,1.1172678363197504,0.1112337910874047,-0.22585059272423025,0.3514480191074447,-0.0773771503462419
-0.3227719816029053,2.3584084586921126,-0.04295665121910287,0.06096703754150098,0.41157088713470275,1.3310830781410867,-0.3130789327725963,2.3230655688278006,-0.05480307275843102
-0.5604136788519114,-0.986407837356903,-0.28798863612599795,-0.10510477300220296,-0.952316897600404,0.10797159707214865,0.19878820846954662,0.3796894758109541,-0.06854233525493351
2.452285210735352,-0.7772873828523796,0.9368416391526979,-0.03997676379499278,0.2585856002526807,-1.0217426864895747,-0.43676143819650437,1.44239617536537,-0.04396315446813802
0.6494114446402801,0.9650244058396757,-0.14634695951145563,0.015133239752842694,-0.5709767294312967,2.284785064887791,0.5798780118405503,0.6651432956841516,0.18194826066587422
-0.6740123395044528,3.1022749034002572,0.31301919100243164,0.3984491557400834,1.112971139744573,-0.4187693608974761,-0.02778203091299711,-0.42932471140139145,-0.2529894820147083
0.3747588025659525,-0.37730209574240503,-0.6471263819763879,0.05850897461896945,-0.08156846282701219,-0.21153162821619723,0.5431463074953611,0.22710336329973987,0.07006802427931752
0.02931034361014051,-0.06658137389715413,0.1687095025770079,-0.07352086832189896,-0.3096540899062164,0.3487970390737001,0.5421769632477832,-0.8233272037573496,0.1627445080825483
0.4218128874908056,1.47355326659026,-0.12098518509850141,-0.03150596344453792,0.4952393185882151,0.5265092975956698,-0.5333825850879964,1.2557962697188998,-0.11142486280042294
0.09053721917777935,2.3817229023326965,0.3530979311008542,-0.013366778947434552,0.6269950443246212,0.404857218169345,-0.6457877017378033,1.3315869301931453,0.008557964723826056
0.6555534487508703,2.8655085627231407,0.10669138284014663,0.19273328445941407,1.1077063964771325,-0.8899544067259249,-0.03427453635936883,-0.06967167023212273,0.17581811283594279
2.857891579269154,2.4224972941147676,0.9094452552143729,0.32623716470431235,1.5248651171275514,-0.9729987344733714,0.060232352412064386,-0.7977863529293652,0.027479667622919597
-0.19530974444795923,3.1777269303611453,1.213748877249874,0.04206697993053772,1.2296064215087037,-0.8035237762280145,0.07682334654798577,-0.7389480806875044,0.14937409832697338
-0.40519186863765355,3.137923789855976,0.3336940786350963,0.2979403990423883,0.8901074375856726,0.044585041580398777,0.8660294695892168,0.5110089007438454,-0.027821952489614485
3.356897438881722,2.2603044083265496,1.113681579167008,0.3381883808445569,0.8363665836295043,-0.5316601608640611,-0.07354133443222767,1.9142916294979897,-0.031492867149075475
1.4917793781803286,0.8469066630538016,0.27436302536133816,0.06393669648253393,0.022872061072903044,-1.3210383858622048,0.7013235259782645,2.62984302092152,-0.018102951700088462
1.2584169141369737,-0.12333990326060662,0.7344502969072921,0.2656328628857943,0.9903051352903934,3.3602764827203124,0.3478846581829335,1.5478270952625723,0.09019758830159208
2.1430049296916946,0.914198028385574,0.5099448632961685,-0.011141243975697898,-0.35000346559229206,-0.40463937922379417,-0.10855000534906314,-0.5980370626894589,-0.07790254761181162
0.032188426310602924,-0.25986713772114667,0.0445645400387705,-0.02907152334715084,-0.44789905117195616,-0.8276325161338324,-0.29147071926032553,0.19818311042335324,0.44407587627188194
3.3911313901066302,0.5607873379002273,0.9574108623374212,0.050708821262872544,0.40916647107918797,-0.9541551645217553,-0.2121748110037602,0.8105356040696423,-0.053674210470868663
2.481441626926648,0.8509313708018431,0.5902108324129076,-0.1395854863745711,-1.1396159843829916,0.9492919191756594,-0.6404509066087425,-0.04098749799130608,-0.03627105595370958
-0.7380027439915149,2.4523254845034987,-0.265868968769505,-0.028408910528359754,1.09038099411299,0.7783464525875841,0.29500249072168777,1.439409138129357,0.0848969088701617
-0.8487163676799019,0.6159687925014781,-0.5264528532046937,0.04928558037379141,-0.1075760412288215,-1.1659585372454722,0.9637272637910492,0.5434850153712465,-0.10680271555603392
2.168306391182215,2.0128777649711704,0.8726084447669459,0.12384653679584286,1.3058472314528045,-0.9049820664160679,-0.3233005873884662,2.2612928381443114,0.07783213530855676
0.10842758846220235,2.447120343567516,0.13671501511248754,0.31969280417014523,1.542082024756113,-0.22757935212674602,-0.0110198666678505,-0.6358748600531074,0.10265623351834408
2.6738144009320237,2.30311033757202,0.6994228420741969,0.11094199911585516,0.7710982787685222,-0.8877642894986352,-0.21541663024074809,-1.4182045774563596,-0.2164083659466646
2.890934655445862,1.458246364139753,1.1886891205908168,0.08296014524551562,1.1178097844025492,1.252922417810114,-0.7545819928717327,-0.6362214089136609,0.008993016954577548
0.4498233615257661,3.0604695093782164,0.2422706490086692,0.1459098984098514,1.2526339132867919,0.26710956694115073,-0.29947246343258177,1.8090672928000402,-0.23109942717640558
2.5808320642446883,1.3078602515730187,1.2418665617487232,0.1120178651606506,1.2904201392732917,0.7201525738716437,0.5824937480182986,0.7115740766168337,0.19998340206138124
0.061379289364114964,-0.7420737767014314,-0.04119694634399318,0.26863389758397405,-0.1358587396029845,-0.6037813255807667,1.0700111539054549,2.3240431350827135,-0.004527560156655487
2.768589685488234,-0.8150201602765141,0.36662822526414873,-0.0014511568375160106,0.07932913434836283,1.1249151675687519,-0.49673140448693176,0.076039210290265,0.20087399623860416
-0.665081658798124,0.9116157616739751,0.18378525664862289,0.2529738699425236,0.9395027695417589,1.9394131904191376,0.7398945646898797,0.8239936156172678,-0.12117573999174219
3.1769029471165267,1.956386904172168,2.0553460401776045,0.19905459492702898,1.5101933722351473,-0.6189460246071268,0.5651471894970629,-0.3753341051240169,-0.02907859026756189
0.12980458384635085,2.0386165795008404,0.21403055787001005,0.12710452441212297,1.4883582448830803,-1.1401533703613032,-0.7974730924342289,-1.6952580432652284,0.02446225993077022
1.3476191225652974,-0.0007982492308765687,0.21676765448917082,-0.10897653041801629,-0.16192193476779507,0.9943268665648975,-0.011593315631034799,-0.160120947673546,0.22666922598706193
1.8617222536928275,2.199007290623789,1.063811520428847,0.17006786493689263,1.0024688456348063,0.18844914314688532,-0.2058934723322711,0.8885130274103039,-0.021886652507790844
1.9056716563491465,3.223441145821976,1.1937515431010042,0.18421370412559704,1.088943575812476,0.34125097704946195,-0.027301466756963384,1.3080922633003613,-0.16104045749444995
-0.12335071228898509,1.6173406690879375,0.27113235399374536,0.09064573836986127,0.9720218890210053,0.7628907168779908,0.05500748730339189,0.17285287707572827,0.20102432307359758
1.6567478217543519,-0.6254215029435239,0.65928188380772,0.009190758988666208,-0.21301429493249532,-1.6663358728299993,-0.3429480186044321,1.7851621911961917,-0.02438693797771195
0.2987347451510671,2.3869011527950086,-0.04139343124370207,0.29140520276784415,1.4267280511122695,0.20037242753297146,-0.39813347692064416,1.904570902375898,0.001987417624586346
2.623126750829037,1.075703006531295,0.9125842395272907,0.0682453503574168,1.1722835873212838,1.5971134094369788,-0.28860758478337567,-0.3684237955900712,-0.24782393359172444
-0.44673920118884014,1.2745430038148062,0.08806959631888803,0.04823062734006197,-0.037286391486416416,0.10359147241217369,0.30215411746222,1.3461219987872837,-0.04377419913382425
2.9103757742701575,0.7772233895044687,1.0187419156914903,0.10394296269276473,0.9052586950859977,-1.910593942073826,-0.37323002930573057,0.29186382614693845,-0.3951764928606158
2.5390197547424864,2.7574254347552607,1.2605549873906599,0.5448943913020561,0.9974021310347042,-0.06955041577528337,0.06083020547170059,-2.1870310102972264,-0.31161072212789176
3.4307602034192595,-0.5895815554339765,1.507800347525879,-0.3326491431731028,-1.0630728657167567,0.6046972373286442,0.07409832216809688,-0.3896825164642822,0.06514286509315174
1.2849106855571448,2.0889033165563142,0.4515919099071415,-0.02257254299412678,1.162298953475345,0.0508946458884981,0.8037239072775653,0.7128423587078255,-0.0861822722694997
0.9882561501379798,0.44455582513330083,0.5589066587792206,-0.05121876710114963,0.440679941601722,-0.18427120379596346,0.628000948700677,-2.126882971137216,0.0634595432362992
0.9733650695541287,2.7768020737997627,0.6575356705931158,0.2015748425518092,1.5983114058292873,0.4783714045497531,0.7485808602953565,-0.827387270640883,-0.06359817712449548
-0.67893243635919,3.2905190255473826,0.3950533727490323,0.3327405477398281,1.351387265509698,1.7260294360539872,0.7685319436037595,-0.5440376548018626,0.03187848978324745
0.023859232418243614,2.3588558154446777,-0.11998077493836011,0.13903063105921815,0.8416362968244887,0.29373084289398255,0.055591414813527744,-0.6906982587260609,0.0972039909620237
3.059652549771098,2.3132503562214968,1.3058863456525986,0.20618022933167965,1.63778440084646,-2.06077907183594,0.0709079099980132,0.22652253643327308,-0.01722774462302261
3.4333864573924977,0.768597650088946,0.7145304069920931,-0.015443990880784129,0.3346017535396051,1.797600086581855,0.3538110816753702,-0.21911768596280368,0.06773812734651988
2.361374000340917,1.8410148540151403,0.9730431411037102,0.2038565185882868,0.6351212689294087,-0.6697117009756588,0.9953381832754841,0.11099774686100528,-0.3033015830888143
2.7886980364602345,0.4724584868546178,1.1465892168488783,-0.03386941492802752,0.06211885359286574,-1.3951578262333582,-0.3957151911396118,2.1059247093424234,0.0297765783178382
-0.532402766841781,1.6606762559827208,-0.0464032938122827,0.1124699151718809,-0.15827110281204074,0.2552666700337578,0.6916213404217082,1.3182104055742099,-0.1489887555124911
3.3281637718709085,3.2294376327404484,0.7302829267394377,0.07633434227168279,1.814000238970473,-3.5144042061904646,-0.3426130430737087,-3.093702777750812,0.16509724401468914
-0.3260307418935312,1.5155737592914869,-0.40593847589049625,0.11551832682071039,1.545956342753148,0.7448200676823518,0.31840898910306614,-2.2075069825385194,0.10884598772628439
-0.18011902290878146,-0.31199730240485346,0.10889166268356884,0.019097559890574312,0.3950193834044469,-0.09552647765384209,0.34795924076441276,-1.2256623158354267,0.021717003027401423
0.7847816540440551,-0.1801283408326282,0.4954638093913475,-0.20309765075538022,-0.21077482558745617,1.0572482765215092,1.7415373792813584,-3.6554419570401175,-0.3002002682380281
1.1558910661721646,-0.38918845224471177,0.3373998316936308,-0.09614862724682015,-0.7229822344663097,0.10107222604497801,-0.4182796370958978,0.30083079599177465,-0.12486907385811817
2.1180475381236072,1.917407228097035,-0.0016578212242880919,0.0651808851676229,1.023099657053247,-0.30240977061982044,0.6489267697158946,-1.2525969922419804,-0.14127697364826786
2.9229666473278293,0.009919034064877819,1.3310757761481218,-0.3476337180400508,-0.981002154620814,-0.35694501527472466,0.10793499570606467,1.7768659134239944,0.022945110958704308
0.2240355751122276,-0.31838919788414277,-0.48390551743232,-0.05152028560324723,0.00878969953941999,0.8778842757577368,0.28732998094609874,0.8795266102912488,-0.0784154679513563
3.2194580772780466,3.188746268851747,1.4126350498505325,0.3264897524153478,2.57029074226191,-1.5794362973566065,0.11726351714632818,-0.7356870567111778,0.013087969371565193
1.083776838040715,0.09591550407759986,0.24509813613748258,-0.31574609148454824,-0.18335126182278533,0.6348072411328957,-0.7753838565666512,2.5433971239529596,0.012146124525460607
-0.5702536919426164,1.1667517237899543,-0.099595358329225,-0.037142723227389936,0.2799763878534959,0.7513717440587617,0.35378019311453607,0.6533458783980424,0.16542144772948297
2.1600177019972033,2.137378459598346,0.8488955779270709,0.29867466957247607,0.786523994637973,-1.118294597290004,-0.3622814232334806,1.5361814271045366,0.02618248306843314
-0.11509980237143991,2.750976432338626,0.5244890309339416,0.3823540796336334,1.187994703806153,1.1076714376263537,-0.03703879654957862,1.6280052866242665,-0.25160941398132025
0.30787908733762115,2.421403221047998,0.5991857341385937,0.24692946495100984,1.0483286162420802,-0.611887001841482,0.22872981432721534,1.4930476791628227,-0.06829307098275028
0.7278075329588631,1.2974914313853985,0.4049326203719135,0.017530668321240752,0.4215159675357935,1.0280685622783436,-0.9770361452411989,1.335045914854219,-0.26042803201871567
2.538097665454227,3.3247352345834296,0.9715500429624169,0.08740531186901239,1.3413314818397082,-0.06517734740455683,0.8884053663976599,-1.3416508076127096,0.08844518938226388
2.8241626391288075,0.17796840138425907,0.9565800451484326,0.3983642196132886,0.39954118704893377,-0.1842103556136816,0.038464270267806175,0.009921230507704715,0.015794636584528936
0.08591075126043757,-0.7006678983640939,-0.42879458958871874,0.18580127618782794,-0.5583107149770419,-0.4996748005247584,0.425280549838193,0.3790472262571627,-0.12365114847012369
1.3578293557625458,2.9220392962076276,1.2699059875991465,0.16959080904133372,1.1783127328568752,0.11731986045023093,-0.10920973166159142,-2.564515704414423,-0.14159503905416532
-0.05633265453052583,1.5342456581329995,-0.26613669771726733,0.13451635161730083,0.5156298753217429,-0.5812187327659666,-0.07247660563505841,1.429374764232273,-0.0733412726429013
0.044362775400325516,1.7021958921833584,0.6324954656927416,0.14622237654893447,0.704173429035004,-0.24140677600884547,0.08145668278561628,0.8491187881974545,-0.04638741728974834
-0.2266555738876712,1.3191382504228932,0.4869733009653285,0.1417764818807533,0.7585108078064626,0.4833720280479101,-0.879459899670516,0.485963807718814,0.08010850283254903
-0.11754822681938981,3.307142583691305,0.5061123612128704,0.24873367495148288,1.4249617421214065,-1.2183310473907838,0.04999416321555286,-1.11024845959227,-0.14637931071283705
0.020797571288882155,1.2453298831852009,0.3481303183284818,0.05096213331078241,0.353852065182131,0.6477543097565313,0.3277319589159352,-0.5397441141351469,-0.14306462533433079
2.9452554030499183,1.2979444988673978,0.8465286827823975,-0.03332153799394242,0.5574839943677125,1.6927931302285844,0.8801055700377144,0.5175239393645498,-0.019618812259314916
2.6842796394191075,-0.17208526644309163,0.9660167701723794,-0.059996520625404004,0.10780924502210346,-0.1284070103402776,-0.10662596168190588,0.11423583253923209,-0.10874388585442857
-0.6017578459563115,-0.1303309427094591,0.16649176773190397,0.005128360825456732,0.35714344442081614,-0.15664418608907033,-0.55261035811485,-0.8766278169852123,-0.008410120510722104
3.344820156209508,1.452324666106096,1.071466165173944,0.28043865563482706,0.3274149861268358,1.3711110365632553,-0.6608223511896469,2.5581205047643394,0.04819412357094679
-0.6601400171568328,2.576801750779606,0.5124946084308087,0.29745322188433154,1.0111467289302984,0.48123691256913625,-0.2961767271800637,-1.2011466456470399,-0.07005035365069283
2.27466300771349,0.1562221796724259,0.8944931719455618,0.061500957325816015,-0.39456476392979284,-0.8746300873931085,-0.5932292704738261,0.7023850075489668,0.09904583165149232
-0.4569312409679267,3.385892402948693,0.6844313687406607,0.08269484687432334,0.8493968578249189,0.49308819689044286,-0.28915450791968816,1.0405312709999492,0.0836605066083107
1.1037490224045272,0.4027807900246334,0.37320807289028557,0.0548536776255539,0.41422288313522654,1.2026780648633473,0.488078916724215,0.41479202372080176,-0.04255614493195493
1.030824905290035,3.2383006374839045,0.5191064918028163,-0.04869119117326254,0.9144196664305453,-1.1767403673149148,0.562571962698455,0.19466443397994115,-0.05211864568943931
-0.6511477345528074,0.16903028728494207,-0.07136562906225061,0.18510920909374556,-0.1036956005217878,-0.9936744147332253,0.14124399303432533,0.11068285296928648,0.03282081650583589
1.816653901590887,0.2335269058214755,0.36605039522163535,-0.031933501214067385,0.39483400487800213,-0.4779034035799604,0.6785770944507401,0.8133846870842514,-0.21995096393938746
3.369374758692839,-0.5233259457244912,0.9299136051419841,-0.14465097256426868,0.35162416466404894,0.4600549915911759,0.14876811817188065,-0.32305936251420664,-0.14563455474389075
-0.6639637527629174,-0.7655557357628409,-1.1068150652382065,-0.20384204965506655,-1.030882811369351,-1.4052740850199645,-0.435962106902122,2.767262839010511,0.06598023431054738
2.081937664854387,1.4749853778459232,0.38496756410077526,0.05203418657612154,0.43714863729255016,-0.7830884409986865,0.15847945555945536,2.0460769210094316,-0.0040089311943408285
2.7185751490049683,1.705780608090803,1.2146702903684572,-0.024271360815040353,0.42784775642205136,1.5652611939197403,-0.12410183774652954,0.9616416880846935,-0.023615957561672854
0.8691782504334766,3.319587835310795,0.380192665931735,0.09560538894255602,1.4149569337122156,0.9768439194610012,0.13097966684895368,-0.15699465064960993,0.09863133558119658
0.924692468751501,0.39554562196536014,0.10866078473752117,0.021580459351114693,-0.12598894126277801,0.9710893545374795,0.7230892665201997,-2.618938482371193,0.0385448810015219
0.16294208148363887,1.7169772431720869,0.21152026199708424,0.009357433843245324,0.7632028785345714,-0.4408458811575322,-0.23207047078825144,0.4658256009617184,-0.08951851751542239
2.6261996768781777,0.7124819154802207,0.6501137236662149,-0.051819887905046255,-0.1051575486537566,-0.7354436415415425,-0.40881593944787603,2.024386991710356,0.14589583032617431
1.9882139456306662,2.9805420012935175,1.0797138307639882,0.5507425962298872,1.8970034142567425,-1.8153840377639676,0.14362548464621197,-1.017515011433176,-0.04635435666131365
-0.26423438014888356,1.746940922834395,0.020440367041190843,0.01906547576956699,-0.016067131355916895,0.0563435265237634,0.76907919754065,-2.974721037014939,0.0379649237829175
2.787467173446636,1.9465002589637388,1.5832323007144622,0.27883223054828055,1.1051556914898684,1.8351759538443129,-0.04848656224609513,-4.036545616857505,-0.052431330267696176
2.789940717515342,1.8256249870177932,1.1931697442537441,0.19727697762179733,1.418406846389616,1.2660812106972448,-0.17718791496378555,-0.9936405933503057,-0.05929938375807707
2.155288571803747,3.355375632565541,1.505223454588967,0.1950331547504065,1.4958514206714582,0.6151916239302252,-0.20296013386672765,-2.779301437349692,-0.04471952757911979
1.1539159476570044,3.370755076375392,0.5605996845834758,0.1557823925128151,1.4836943864239183,-0.7066192965073713,-0.6534665455092759,-1.7055479823379314,0.0006375157005213556
0.49971532873671576,-0.8409295495721649,0.4759563767426251,-0.23862233859683166,-0.551594659203918,0.686418936767147,-0.5878487699999027,-0.06766024135605209,0.1890507606368202
3.3519846921767575,3.089764123466635,1.5318027122881932,0.14893871200753372,2.360729557498316,-0.4944972533204271,0.600623244819419,-1.9750124162847698,-0.22728566298053876
-0.7789882725431585,-0.7133695588590045,-0.31677858249338714,0.04040923004036618,0.18182025810435282,-1.887388219346193,0.3747486123890804,-0.7546545767087804,-0.13520737024262572
0.5985889525637191,2.899874646997846,-0.07412265583241581,0.21139674520593454,1.575320069674631,-0.41556839355728925,0.7265444419434532,-0.4579645262832632,0.07569973343993222
-0.6083248332745835,-0.8447482000547164,-0.5007065249371289,-0.28413909971426665,-0.35550410284836137,0.7487152700327251,-0.5519907318989434,-1.847960533980379,0.08128300425928431
1.5837871298980453,2.981677945632107,0.5346880493620256,-0.014944754566194495,1.4900694898810216,-1.851389276930273,0.1314337723629006,-0.04628275713496177,0.14011104205098834
0.08424143283893226,0.6520859169526514,-0.005940184333329268,0.33539445563611975,0.829803753026212,-0.03847078900992956,0.6611974926750679,-1.7790136809928594,0.0670756353580656
0.5397276727093885,0.2782919502575789,0.3526780370616911,-0.30848064007448045,-0.6212347694199548,-0.3424905715603338,0.43400225532880643,0.6999764504522241,-0.05089588995207512
3.024827682405782,2.697737985069889,0.8548363107197082,0.0770647527202997,0.9054067154495944,0.14546108408346853,-0.8456089372882603,-0.11700093353831326,-0.01106707868285086
2.1653138252435586,0.36673857334934223,1.0853235462942237,-0.12598607268550313,0.3047869393631633,-0.9730004773885537,-0.5863371683998853,-1.020716990211858,-0.12486157716136721
-0.24827310093907284,-0.9943700118528942,0.12741858664583755,-0.008910785738531893,-0.056040488134983614,0.07599041972702264,0.6715918041725543,-1.3705150147662417,-0.14069076608201447
2.1990831710287404,0.8737559362145797,0.4633750695483898,0.2242250972132114,0.4567131515895613,-0.4137170525912432,0.3127006030100797,-0.12540428332088682,-0.114647384596749
1.9485680332028537,0.23200432000301063,-0.11891528884742852,-0.20301681264006471,0.244424184748323,0.10340005038526531,0.09031517057106876,-2.40240695839523,0.012950072310715103
2.7469997649710747,1.1772973299400573,1.146459629808292,0.15736389053690186,0.4183827407043704,0.09551691780447547,-0.8412987041979876,-2.0567948894269326,-0.016845332222208187
0.7231199993325206,0.3901192222070462,0.7146936000873212,0.09704563025254484,0.04790220125102765,0.19028769336331244,-0.9093369059522135,0.978412163254881,0.03526300887704728
-0.3777015830667717,1.5363319364802352,0.23498637930828048,0.3004241335163639,1.4315180712317894,1.0963696722246208,0.22117881274906873,-1.2058816392123264,-0.046451735288190216
1.7315854903742824,2.683378686584624,1.1993171901178625,0.5037119335264045,0.8955951833519771,0.4204523534467862,0.36663043106466675,-1.1909076732918429,-0.07099604252188632
0.8221312591958296,2.03939253434738,0.06761683345752478,0.3067133690325516,1.850924090228429,2.0990099073564057,0.1710932922462619,-2.8955039856165117,-0.009325971356463153
-0.8916724728673525,1.2988996458642106,-0.7407258216216076,0.012749384427342457,0.11377052243109971,-1.4843393639053135,-0.39011089592870124,2.576653459913657,-0.08769354475586284
2.539146628018916,0.33687759378732496,0.6884128628802328,0.09983773102746359,-0.400421034327008,-0.013724883900447682,-0.059033641409129145,1.5403115203562512,-0.11606997738001011
0.5402809617469788,2.2163797952723194,0.689837372137735,0.13610349815581332,0.9038085904306693,0.9288226882717726,0.02024142316697163,-0.006333006936457886,-0.028106904943055674
1.1937109489458329,1.6652652284211897,0.7174186618458513,0.43787112461931216,1.630682610585083,1.5292297241069508,0.028842456921977844,0.33784948689371613,0.17372416793170448
1.583506190586922,0.4844694157160656,-0.30514996568416286,0.00887470737882631,-0.46729904994140087,0.3067772003377476,0.6260887342103326,0.10675998120466856,-0.014003819047326935
-0.1890608064505076,1.8001043978250082,0.24502060666542136,0.21520914160474822,1.1597906172110863,-1.468663364789015,-0.1235354122194431,3.410450830293808,0.061067196705427464
2.1781965122035536,2.6928139449307267,0.7526360218476325,0.1692874746033017,1.5408286567753793,1.4676121917000486,0.02915132422023804,-0.4529192138000422,-0.17478526101076472
2.128862983901125,3.113675602635369,0.40056332576594655,0.3478840586506833,1.2119728388277262,0.8403220856823808,-0.5788800487102946,-0.14759581179848025,-0.029537998306749774
2.6650207036475306,0.22520697431307424,0.9143786352303056,-0.024413304413023636,0.47407026462372,-0.2057883266757835,0.779070667710765,-0.16241283447216537,0.12087757839399062
1.570070218375648,2.6010726795176002,0.6293210894324787,-0.02219631939805417,1.0881004651899724,-0.5648326064633711,-0.327313426786558,0.6777935633643561,0.14538754044439028
-0.624732975427743,3.2853658787882267,-0.15033260234637702,0.17292236768686878,0.6450713225018161,1.5362055724816397,0.18227438514238117,0.04890461098730743,0.10693265207370771
1.003998355146467,-0.5362999246219876,-0.05272623922248401,0.21221628177191965,-0.792561060500749,0.9968749060023555,-0.38777838943849896,1.0589697840009449,-0.08667441258118103
0.9788804237125603,0.6902766262131297,0.900901895374699,-0.3674155634415436,-0.10296877695280227,0.003872142511459925,-0.2168106859549911,-0.8337986698133899,-0.046916003878646646
0.23480204453110676,1.386262748248423,0.48895467250097996,0.09479584150338409,0.2393709585325953,-2.224898049442411,-0.13301725918717697,1.0252437649878527,0.03916232080708443
-0.4516178514972027,-0.9376294073055302,0.13667105716325292,0.2485447601537165,-0.41350749195801056,-0.12606354656236585,0.25152934124049403,-0.09659703145150678,0.07654850941322548
2.3395912766115234,0.9173323877980397,1.3440302681132175,0.44839878096892966,0.850660309343938,0.2151604659939429,0.1711217076554867,2.2843936522934296,0.07775201462433967
1.992837366142402,1.9495837879706168,0.1265447116040115,0.567576118024867,1.4413567024555922,1.083039328263383,0.9775092826330117,-2.3557069294399633,0.10276526582898882
0.75758778672003,-0.2946696463387841,0.10416157964813473,-0.33755058257146986,-0.09482340038249822,0.42249081445181463,0.46110166158199445,-0.567393336530859,0.1147156733949388
0.1315592846290894,0.20107047447136472,-0.6512745333007677,-0.057921153554205455,-0.03982363298914846,1.0128208084212023,-0.0823623103549224,-0.715464518899306,-0.0818483789424532
1.2246012445730527,2.7699733923589895,0.40870372026903745,0.3581904412936347,1.6149992258077563,0.05384951589610569,0.37297357064606684,2.6505849333844558,0.02555749367812442
0.17574520842115904,2.5879129960180154,0.2513714449275682,-0.18822334299645688,0.8662577794987695,-0.9716417357546601,-0.09946790555264115,-3.928664421383237,-0.06186082323248575
1.7615689970706105,-0.12148114504977214,0.5622075988581541,0.11630401859331072,-1.1066872599217803,0.5794699951523027,-0.4294073372425585,1.4671830517310847,0.2642931515467472
3.1663368820438933,1.2312772808786403,1.2972993003028548,0.17954113400201321,0.4262126151642254,-1.7679489033180287,-0.6618465003946434,-0.43493429616215673,-0.3524778373174812
2.5214967937719397,-0.10380134310147093,0.5938800018285351,-0.043361172547633206,-0.4838713185101719,-0.5028824388043263,0.5009389738978467,-1.9086483206447606,-0.13925527902580465
-0.19230513847063202,2.1924493899268334,0.07075510433499368,0.15081818948510461,1.0823805045711847,0.823569861840304,-0.7895033757567339,-1.8289135712301106,0.04368721732426814
2.446210947341762,0.3744130777907342,0.05951766177799439,-0.042424683933203186,-0.3585466943040329,-0.7327401634444827,-0.7886972349036168,0.12606118728140492,0.012417953134399598
-0.4749211162700935,2.354193601690487,-0.22936711460264972,-0.01723611415151294,0.6768454359270804,0.13017141936103854,0.8440805693034215,-0.5769944070643134,-0.034378530047735625
-0.9764994298600143,-0.6764630034529306,-0.3884753334502201,-0.20219504548335612,-0.8029105160819602,-1.196487020846145,-0.2955624827735827,1.1469180981477218,0.0156579531817244
1.043881448241918,-0.09943732704605635,0.5501913803117956,0.1764674438143851,0.08445176248097445,1.1077603449172349,-0.8836168924047291,-2.6334382691265663,0.3675388152034239
3.403053005944848,1.7377309059487298,1.711107925312925,0.3561514930848824,1.4112047847346705,-1.701075794881653,0.14658810628137453,-1.0886810649315315,-0.035332488175446
0.21184575637034087,2.087902063664227,0.10245917843427019,0.4576673324992843,1.5584581372199897,-0.1332842232821525,-0.03365949469832861,4.197587839977301,0.10872746287258248
-0.6717339150924069,3.232923114098541,-0.40656098450635353,0.0743185933146795,0.8864888001776047,-1.28165363100827,0.8650946057631248,-0.05425496629785023,-0.037943425866054904
3.3662510013006814,1.4387538264780009,1.1201373413737,0.14849719236439352,0.3301437069847136,0.13336101397739253,-0.2918319588172101,0.06430230030463008,-0.18926556423852198
2.5180092253310784,2.9234853658090936,0.6889023832160672,0.13072761371932956,1.5097424277817453,1.3310901936908934,0.443298312577867,-0.19183878656839592,0.11165822026545855
-0.6789418234293207,0.8772291904561125,-0.768219276939882,0.2291741117744957,0.34427971904496696,1.5698866164879226,0.16481518141042636,0.5422847972330531,-0.13326780122353118
1.9525162036046946,1.223394453208448,0.6969819040553729,-0.3290588563845106,0.12940228140429033,0.7443022330458082,0.29422603349444054,-1.1390777154638743,-0.17180637002126448
2.613482268642293,1.6102823156025297,0.5305126967499249,0.4450537037488043,1.3362462110210633,2.1320384510138157,0.807621149768211,-1.1682934173998558,0.2573491004579925
3.393075755200825,0.48715535737624305,0.7322906786722492,-0.031130126255949634,0.644242620415923,-1.1697830643537563,-0.06149211653104259,-0.5213189147321036,0.12059437739387713
1.4870374513362563,1.2761357680021885,0.8608037657653502,0.1539839935763754,1.0571471196045799,-0.6888339258438254,0.2713759367712805,-0.035773291782117855,0.10060120812543771
-0.07799165153724708,-0.8026850837861508,-0.1932169475722871,-0.20649663909911242,-1.143611620663185,-1.0388451862302082,-0.011452778917126781,1.9041219035311288,-0.10569661960015761
-0.029989193858527163,0.16029392355060712,0.27298341521993097,0.10986229565331754,0.4534659590135907,-0.49396428614646404,-0.014898878749302692,1.74996639352771,-0.05606976360917465
0.08189158080065995,-0.9679903570848133,-0.08533372419453106,0.22390319283990673,0.6927787057223271,-0.6378307028255792,-0.3360720191996428,-0.28482921273775574,0.05973652871190636
-0.7398040737378104,3.310245608906012,0.19912347772065148,0.05084969233123701,1.4676307424732802,-0.9333106999054013,0.6328842595077873,0.6293476839290998,-0.11274286978039974
1.7845640448036297,1.7832372948334676,0.5598435554209442,0.4017626351509872,0.7379284225370033,1.1234229161327516,0.18418554906958814,-1.7461573473692167,-0.029646641002242652
1.0265325026457055,-0.20800533620766426,0.34041222798430143,-0.2928219064620703,-0.10975477460610848,-1.5699380198015023,-0.05950133682011983,-0.9487656886521778,-0.19506127685127472
1.4241796685467958,2.6336207219450833,0.7137805821181777,0.2552279924154665,1.002084238918208,-0.16033148821685345,0.6181507863995989,-0.8071755852097804,-0.14062777059782355
1.7720997778717384,0.2614441925105566,0.9221588742664478,0.23005022838690473,0.9238692638778917,0.7906900027370014,0.6735739830963691,4.000448233530049,0.12021548484496722
2.9938883892850425,1.782307626719755,1.3587182708405297,0.12381321984499184,1.1003207277599607,-2.0871833545372707,0.8085483840883934,-3.1811947391253907,-0.09337087845469104
0.2376956764414575,1.6408571008202526,0.6982347434378267,0.1745522261185857,1.7620506625573114,0.10084153014676167,0.4417535271122895,1.1579240625278078,-0.004994346124631847
0.21999241128683544,1.8569487573293424,0.16066484620947388,0.24933324483305883,1.0846100425043124,-0.5803612157441858,-0.8206616447546576,-1.1020818508801131,-0.15396366305358855
3.071397969252182,0.9970536621983055,0.14763386096097825,0.20749128867083597,0.9166401463607773,0.38734714916947377,-0.4330844472786872,1.1939107251949852,-0.14549861492705987
-0.6452546318696145,2.2313819809934183,0.3531136938324161,0.1529961270270373,0.9190028559727689,-0.6680566156271064,0.02875268225330292,-0.3529637668867205,-0.005879191952550263
1.4778452222932543,2.586148439983285,0.8097856004074542,0.350273219244658,1.7743341313505179,-0.3230365629272029,-0.0742373133291468,1.241509389600642,-0.046356770827161754
2.07851633114146,1.2814655677522033,0.5160802687702173,-0.058183418133158894,0.5483656558594,0.4138510370525393,-0.9960513396195086,1.5565013956889928,0.26193493480156804
3.1910905961580376,2.2093043674020594,1.3875657886369774,0.15461930992078238,1.8882281066171769,0.019536002534152774,-0.26590921713593163,-0.1733942546967422,0.021908461333786905
0.7980989550168682,2.620917314969701,0.37910206602620444,-0.08300038904477398,0.39331346243256493,-0.29404646618281893,-0.35136943546319793,0.33750280596281534,0.060422613219994606
2.4588541729470283,-0.683048598411174,0.35854211695621735,-0.18974509591049965,-0.0908351824576364,0.18458316365808314,1.1210302937175871,-0.7335326613212213,0.1963966237765231
-0.5518176927440521,1.216552173123112,0.4420453920383811,0.037134132353853044,0.20722015922857664,0.7738084741882898,0.5311425398689722,1.22876077951855,-0.14191371344007173
0.15072975475001393,-0.020905024491322144,-0.6428094248747318,-0.17083487410462708,-0.6017376666576568,1.1406884119977705,0.4521414767414843,0.9854743400420518,0.01687241202939062
2.965708668448777,1.213889362712404,0.9658476450134984,0.04549830710587707,0.6069477716551338,-1.5133870899673256,0.587784317863597,-1.42420272449438,-0.3864300850013635
1.3087780382418641,1.9670542714839137,0.6845682121200091,-0.0696642115581503,1.0454766480026307,-0.3041961281183848,0.8308932678120291,0.42631166037147705,0.034403966831148505
2.5495218453192807,0.7430271789760481,1.1238009747150612,0.12529941296754363,-0.08612890467936575,1.3161808463283027,-0.7870283820270457,-1.8581740747264504,-0.1321111586593547
1.5635295024016171,3.3791393428216354,0.36665098517232864,0.3368393071774875,1.8640325971987108,-0.9229061027493389,-0.36426340138679064,0.10624547411316176,-0.06697210958834383
2.379213055547164,2.6506646040360877,0.9535862381669149,0.18015702588455787,0.9853419501936751,0.33719609878765505,-0.32963484555071054,-1.4759946559086097,-0.08941688640080572
2.8554395729418722,2.8882238060413212,1.4522672621434403,0.2874356563573211,0.9793645560077108,0.2952381516949865,-0.06713719664412461,1.0555027701044852,-0.08380556225946323
3.2344576172054573,-0.4020850665880349,1.5358253383888292,0.09259458535685701,-0.7259435004039235,3.385976388345146,0.21972166551779687,-0.7902886778217211,0.11311682349829855
2.819375861649841,0.9159644963630671,1.2506364559803267,-0.07344737098290004,-0.1269606357319246,-0.0786612153542223,0.573560081720327,-0.004158310106723961,-0.051765722698754575
1.1861919180353833,2.089725045753395,0.13312783001004663,-0.02041243916095646,1.0392113921524926,-1.0983281988678157,-0.24850261301779447,0.6620275164195577,0.12205555941198273
0.4769497151517912,1.5189556968628697,0.74462494335459,-0.09668047556148164,0.8654583956870685,-1.1433903860846713,0.5501521257894223,0.47850442976015856,0.11162826620126828
0.0347897442925198,1.0975133248244786,-0.15868178691371662,0.3347572902424021,0.9052631101623768,2.3544297719346785,0.22706182893347196,1.1925363893854644,0.21995424348437728
0.7894178661113,1.89570697578141,0.07139666235976759,0.18737194036938498,-0.0005929940275378142,2.1385761398285146,-0.42918910633764606,1.3629989066384607,0.05062226000990788
0.3552581081591726,2.48070539828134,-0.2830972283471997,-0.021049502599315914,1.045177137146842,-1.151817741833204,-0.2602896906101241,1.8621650758965116,-0.0034973663140209846
-0.910712856658771,3.3180718846203074,-0.09703231292781417,0.08899414117413956,1.3706928944380001,1.7338324416057014,-0.010616707324992243,-2.7757013865364644,0.006610151213529786
-0.319479922551419,-0.5321873828051065,-0.7202663624772089,-0.11309505330303805,-0.5795467790497801,0.8058987066113255,1.1380146689961788,-0.5569702238187404,0.10970330083128377
1.791636490291729,-0.9419991353535218,0.26709752038702883,-0.19127482426555667,-0.873883811859542,0.512998414521409,0.570201969996449,0.5365644607367466,0.15532875455852657
2.271492627003634,3.3655279486058376,0.8001201166728517,0.27879743109701793,1.6383660116931822,1.263213498460193,-0.4112257884424868,0.046410640664251046,0.0049479191197640115
-0.4802264421804636,-0.0201944033920205,0.2864691583807789,-0.23328705357751703,-0.6267569666244922,1.4429699995906324,-1.0662648712846732,0.16085651625945285,-0.132474224332734
3.35629652679342,0.8252762681609,1.28701283822299,0.20864769876005623,0.8039965813802955,2.355697250877011,-0.17463749470733544,-1.2255637830318906,0.034572996762167456
3.331282315097793,1.6621601075366579,1.7042255282422247,0.2375959605217929,1.2300884689415812,0.6445002972667285,0.16941017323235721,-1.72463190859244,-0.08284285029218341
-0.9932418650922561,2.9590832796397035,-0.1895781490204556,0.29258305647682253,2.000966801772123,-1.3332094376111159,-0.16338911927747787,-2.5346022683116862,-0.03713919891724235
-0.42461878122441565,-0.8017313882363133,-0.3510885678958944,-0.0918772650656714,-1.3230508644563448,-0.34616613746539326,-0.42583197585127336,-0.3575130694206472,0.037934757904696734
3.108027814334907,2.8816166047713168,0.4336453890755917,0.5668922291180849,1.711104407852134,1.1489968308165421,0.7861952548694263,1.5423828490975873,0.14879385172615114
2.5505810837586917,0.9621987283899864,0.7070916496967999,0.19719120897701864,0.4567853807899347,-0.4273172295348847,0.5346460765872065,-1.3857792072393365,0.14076565202580416
-0.31701386592599834,2.961978334840079,-0.22509530368125075,0.4787865879999608,1.5131869456945448,0.46287896097955394,1.173299782187044,-0.29292391151706443,0.08493974326221879
-0.5533602547607861,0.6276945454351965,-0.035697344373895976,-0.18504488168678565,-0.2788388114025202,-0.6634376354399851,-0.6409457031043901,0.5425020822691095,0.22312106869749818
0.42045616445959766,0.3987043645225392,-0.023024081536268767,0.15781330835957852,-0.051818462733728414,0.5225322829764937,-0.055707082631703084,-1.2753055225522016,0.13287793448657387
1.7638506859611618,0.9625376420902549,0.15206029099471116,-0.11033112480470245,0.5328250142600912,-0.21565016486583666,0.4314356697105318,2.659793946766457,-0.003519427569077263
1.9147366260592467,2.9269548853955616,0.22882850069883312,0.6760590493042775,1.672122026083446,-1.7614842836209261,0.7287586038847392,-0.025509598824546842,-0.04718952425801937
2.4671902424705925,2.0324772350158553,0.9111700896368637,0.41935200065869654,1.4657165316673657,-1.1802819546987264,0.19013323956923098,-1.6972832841223184,-0.048101333542185695
1.6377343514687452,0.9449741209745297,1.1583271400591242,0.07808086952880872,0.735874944792209,-0.47294790560664424,0.36139940441219626,-0.5853785168218844,0.18090725603313665
1.2193342705078996,2.0243293007056686,0.4792073821817521,0.17331752189294738,1.359211257694676,0.6040189733243313,0.678346422042399,-2.3257391016163913,-0.24265927814713523
-0.06033621920917198,1.7133934338890442,-0.07454452576870377,0.523639152586546,0.9308415512181023,-0.7757999382476509,0.5139055310098364,-1.8590608985831532,0.12052388855689589
1.191864347377011,0.25910338108151176,0.8497321565816354,-0.027210597976129174,-0.4553326270915343,0.6445661791709794,0.49499223235775464,-0.42130659759756306,-0.08381351573371094
2.0087433071150316,-0.030632825412143072,0.36012192291059675,-0.0024580080687252887,-0.011516447335257328,-0.5027316509083731,-0.036863839736003115,-3.0121364681741967,0.10278212471129317
1.8993370064112094,-0.40638967248780933,0.6256043831183346,-0.03320199711715614,-0.47424651972548415,-1.598326601617416,0.3121687878952108,-3.945595949833455,-0.10228908479138597
-0.9159309310127848,3.1643644691693753,0.5368624498142736,0.4189460653048935,1.3530240973000887,-0.8377691950329761,-0.7448788192287689,2.828796622371992,-0.13768315074168086
1.1818614078731127,2.977892777934412,0.3746432879833533,0.11670534259771365,1.1211233048059568,1.1079114958014005,-0.07251800866764521,1.1021081769496512,-0.11906995676250659
-0.2762545993989224,3.2148702064769603,0.22790510584380919,0.3209947950518616,1.4536328959999656,-1.0313674328595444,-1.05720901093272,-0.7635911115817593,-0.023182629754416595
2.0792417595789545,-0.6136130312217902,0.5867530538906407,-0.05085962370299362,-0.09442181648359467,-1.6450057927327173,-1.0474203458082354,1.8272572564671095,-0.03691995113421409
2.107704993645195,1.7098603572873317,0.5421259093180779,0.21828934511489995,1.6546122228587916,0.05112325700914977,0.2748570506013942,-1.886659105844086,0.027760373508906776
-0.25867517016051345,2.4579746118244206,0.2560399391068131,0.1266778661831006,1.5833554879017286,-1.160386796140625,0.1535911860172214,0.24603660871456146,-0.14501957780977442
0.6206399859200888,2.6551709555212972,0.6045334290644642,-0.06179546174451249,0.8069921048492339,0.04297357670677315,-0.10247644728177871,1.2772820807986307,-0.10356507207796889
2.6753593325221834,1.0933476456525275,0.23445505189452331,-0.10926061936119949,0.17161005218643388,-0.362486922151413,0.011456794604931896,0.15266508807055845,0.08945075689556437
0.4680281091485099,2.6964739829687687,0.6785953625586291,0.4146956481728739,1.8745599986401302,0.8700702907505834,0.7738125269100559,1.825715621760122,0.05997615587850118
1.728554681425707,-0.5123997268161933,0.677557002098158,-0.0331844569261408,-0.6042847709878811,0.8992947333424859,0.1808579644333311,-0.10741809228229293,0.03144283367871839
2.2801250074881,0.6133826815447045,0.19990190596812396,0.01846437304962144,-0.017132945316350973,0.9265767645719387,0.034885602070705124,0.683313549869234,0.12886226973444875
2.547831566464116,0.7378565850273828,1.505767264965518,0.4246484794129715,1.5446202197299166,0.7501923159029391,0.3322604173675233,-3.03857350757278,-0.15145606554177982
0.5515990432550171,-0.927575170655988,-0.5168035396065058,-0.24007366521279663,-0.19217529328413885,0.4830664249352193,-0.5927969855802051,-1.0273054416359964,-0.11913639213230927
-0.8790121353253477,0.7327816759624819,-0.4404597871524037,0.2377596226562288,0.09798910374473188,0.015082239515960993,-0.4579964210841069,2.0491133527958154,-0.019373864047011177
3.354934017098853,2.5933511584851225,1.677085753128237,0.24786133800417554,1.4484500752518519,1.9164208128064364,-0.0037226031564362243,-0.7313787789899673,0.03995656243495865
3.4048134093670166,-0.10617153360002651,1.1406743737676985,0.03358055077414365,-0.237168478322713,-1.6009756973890705,-0.4224844313710646,-1.7441005560158191,0.06843860571864138
3.4020251534249057,0.28824072799707046,0.9879769992931928,-0.0408984323588285,-0.4965398283096498,0.9888270337228847,0.008286522401006965,2.1347308846373974,0.11753717204389316
1.865660677393688,2.354071047639117,1.384812117904598,0.15281112430876914,1.3477341868227455,-0.8304087258072299,0.03344483091901296,-2.565574928561924,-0.22457318565631845
-0.8434918034491764,1.1484752587125109,0.19249468793259722,-0.03493623782668789,0.5083396167680952,0.1470208828442118,-0.2701602299712244,1.3491699768016716,0.3067060976692602
2.8264980544171845,3.04003301643691,0.7084459748175187,0.009180599094452707,0.8667912774799669,-1.0307969697424266,-0.7896458319773174,1.3712125289085308,0.0021119014085426158
2.131121310925799,0.4443412341190438,0.5808598473563383,0.02904767809610283,0.03716085800106391,2.451866747486691,-0.055098816548487854,-1.1322927134129472,0.06744724376319457
1.701166582306624,0.21110105739727647,0.4628642270753514,-0.2690084402177785,-0.5717614116198112,-0.3231668787197468,0.003522224345315687,3.2181620248282923,-0.08633772609163184
