x1,x2,x3,x4,x5,y1,y2,y3,y4,y5
-0.6382199251330603,3.0300776691612743,0.23949994528357443,-0.6463823491749994,0.3932326151112261,1.6613971913763201,-0.116828794851515,-0.9659619091072827,-0.2242630698112622,-0.07057461036198297
2.9628942410904777,0.5775778546713317,0.4464840993265615,0.43107494841866784,1.0820971512458575,1.3481236860133385,0.3850791658736289,-1.6218461006491536,-2.0431228256348826,0.09003450051558023
-0.004329952386977753,-0.5301929004418023,-0.06533081317285516,0.06613201277756257,-0.4467892927440899,1.9863141277100353,-0.13087091994569608,-1.74133121670635,0.821985751329835,-0.018704848954388703
1.3403924375634189,-0.4034972929719859,0.3977564247759598,0.36787561896212545,0.634966250786493,1.8042492008407272,-0.04593918155715765,-0.36678688889025635,0.3535789244866372,-0.27076468902086404
3.345607401844606,1.0663882777574867,0.37807483805026143,0.0198861765217674,0.9393198334829709,-1.2121655195092815,-0.4315811154986154,0.5674613977251228,0.5165137431791813,-0.05831623180840295
1.1739422422752464,3.441955939157511,0.13873275856312098,-0.06971889009747467,0.15507454520655237,-1.246789324019164,-0.044835116517832715,3.09072771314455,-1.2242824354304112,-0.34100557074488363
0.8433886598883895,1.4256564373529312,0.394980149192522,0.06568821856717022,-0.19314669747601154,2.327278417574319,0.18241053663444307,-0.19762643302767602,-1.0704131518419433,-0.20967240212488603
2.5178355433584874,2.6336163280932867,0.19897092686533288,0.19752914487744194,0.5655919073019124,1.0056662765595246,0.23916615785414488,-0.21386385563504678,-1.0210753144768385,-0.3262482913047394
3.1771374672028925,-0.3551811828667658,0.4339291468071237,0.1572992480817405,1.291537861450361,-0.8032355174471472,0.20049822296151915,0.7021493287475465,-0.0074508559688677145,-0.06841017970300707
1.9933235515629564,1.1075482630564388,0.393779610012366,0.5666719614806535,1.2747385448898043,-2.058717966317428,0.15602224506044474,-0.2686290643160485,-0.1808642399689383,-0.06678002710487732
2.2247830581577968,0.9960958023313113,0.49279885157098385,0.4732677710063026,0.9388449924466334,1.2290573472248085,0.39281548655903065,0.0842509301829375,0.7106188111724456,0.3407426646063132
2.629598972156817,2.9312939919239556,0.42002202561107754,-0.8338961926913699,-0.056504791755950884,-0.5217034826624188,-0.5008033304279249,0.09998242471585528,0.5305479510696784,0.0004730126470431084
3.0413295994707488,1.7561786837925797,0.38734002084401276,0.08850547675621188,0.6105234659708647,-0.5538812362620151,0.3153949601763473,4.596884844713218,-1.515018991180655,-0.33198518587687953
1.8665254327018443,3.139420077684635,0.2278301317069983,-0.12657363721046241,0.3051254389041854,-1.925505340574168,0.2750462158715668,1.9582439694479234,-0.20834520742386725,0.17364146687289828
1.8590628152608506,1.3478680596441568,0.08763058078802032,0.6270428706178687,0.3584377574866041,2.232017794199499,0.7910903113272718,-0.9734927823552757,1.0418664911813234,-0.1601595900869633
3.1642395262481697,-0.6838374180315479,0.42425901877092514,0.8861595046478453,0.9749989721195411,3.5252625214491755,1.3634485597443027,-1.0455147376654654,1.130413558353123,-0.14341804552232781
1.1683791452947738,-0.4586550098383334,0.16822808190702446,0.14176520800272574,0.9561590843215184,0.16567583305400885,0.31121203406569026,-1.8088307623347957,2.894821322201724,0.2439933624288803
2.720731745354152,1.1187994804397743,0.21032185148238153,0.4393689641744044,1.033486946117686,1.1778932309811176,0.22150086470888863,-2.138056241033839,-0.5658973293968921,-0.2842257435787192
2.2004588916475605,1.1098547216875643,0.29045484440549396,0.3168740843732454,0.411120252499664,1.7031898814161752,0.017141641173318657,0.0955353440626992,1.4065905396787388,0.17410317626673574
0.7101275197731169,3.3564028084861137,0.3674454212861646,0.21276003244045635,0.22723279528190046,2.6530966245100176,0.8083500696386429,-0.2569427635523338,-0.06424628531399568,-0.29282891944521144
1.024293069689557,3.163738049628889,0.29656155458829536,0.09893588049331019,0.4866457943484341,-0.12692752672826166,0.1554124708383406,-1.7426928406544868,0.24909244421713517,0.360403932371347
3.2326149808300757,1.9850794331435262,0.6478366606327358,0.6789026921575809,1.2046783703790942,1.9741406684546319,0.9504482941492554,-0.08468582759242549,-1.7047919954325488,-0.15344967944390833
0.0970618740476672,2.299469331499115,0.23153865450897929,0.17918336182299996,0.4123704154943936,-0.3166350896615491,0.3797828256357571,-0.12121365014922991,-1.2757076961634453,-0.018934854950905015
0.843520901598259,0.1981307240561121,0.3187599920090886,0.3917971931297516,0.11438557414817725,-0.8182347167449833,0.056828754761838095,-1.3355042424244654,-0.06391932850406323,-0.11131806111163674
0.5250172980599515,-0.862046998892388,-0.019313442546337472,0.4724173269456754,-0.153243575593744,1.3431758200956878,0.7110430983775354,2.1526938880603987,-0.7991533721033691,0.2233468590400081
-0.44547925391908616,0.35790618647000083,-0.06451274481264284,1.021378739958451,-0.430978012735157,3.118102850047389,0.6698914199620116,0.49713563936923566,-1.2025381270115425,0.03374659251503789
-0.6715821320779052,2.61275614010184,-0.20911151619468638,0.16093792545537336,0.16510160920494618,0.7647028305339889,0.5988594978480872,0.8979748899912952,0.12780906852356197,0.07562529425212589
2.374887301105695,1.6700845013087284,0.5660274379207654,-0.272706996472621,1.2068588798132036,2.4329293352657615,0.34046542784424333,-0.7910321708957053,-0.6310420830787572,-0.014205321308190945
1.0864254101562842,3.0908579308060933,0.2718093402798203,0.7527998191985006,0.5565050490653456,1.1903317495458703,-0.05257305804603397,0.7472146658222991,1.2341199017183921,-0.020531835716432127
1.6072639628322967,-0.3532295605477104,0.41575080801029807,0.1708180821335529,0.514083102672438,0.3018752030282356,-0.1597287599133093,2.5709934376816497,1.3907578975508268,-0.02754313222325329
1.4748497894792898,-0.7915839360901153,0.2923350215632454,1.0535971129492936,0.8632903003612631,2.4598922687164353,1.075754445927978,-0.4493116910212358,0.6299707763373976,0.0014518238903448027
-0.5581051488705232,1.1560494599941862,-0.37721939250374187,-0.08863356280296918,-0.5020615689094153,-0.4775970577440497,0.18247507799921858,1.7652931512760457,-1.1148433170587104,-0.09031077602614714
-0.43633058854518525,1.7280394101332264,-0.1766623283402054,0.38624929634938604,-0.24076755218224485,-0.2439514036492374,-0.14272072871364255,0.15101686240242354,-0.9831153733235245,-0.1325349734665718
0.7071154347916311,-0.29054176510231844,0.07258724287258199,0.23896308210161396,0.08329982496166852,-0.7920439292945474,-0.6651422031286636,-0.6455715855921657,1.4797303167099871,-0.011093904846409208
2.494175309563547,2.918149524231263,0.4790635508779861,0.3594706230069889,0.44390533437720975,1.537089691564697,0.6491954463761976,-1.079681367128593,-0.5142469308677518,-0.29774940183677573
2.545985192503005,-0.02813217012171687,0.4730578690899606,0.773090769712296,0.4681386943550188,0.56376264916308,0.0017584993705505765,1.7081897526349532,0.08320040862187972,0.17184931209896684
0.13932367545012347,-0.9201814748387489,0.07640032010661171,0.33585476248010987,0.4578617493991664,1.7562437469611247,0.14842007559349524,-2.991946360677326,-0.8156310652973151,0.19932833388376314
3.0042917733761714,2.2742103875084956,0.5730603470873719,0.7150455858035097,1.1470433183433648,0.0618130258786701,0.1431366913220248,-1.1256388443965872,-1.1954870000626294,-0.1607289835341078
1.2431965354948775,-0.021143914437278033,0.47839722864639944,0.6577057225459586,0.6444129835152774,2.569641561292344,0.670293019011524,0.7773446459074169,-0.9904405150172757,-0.17127843984632152
-0.20449936858783813,1.7781662776525091,-0.1942662219587126,0.48231304991751095,-0.40349964074271305,3.6133852131572004,0.49588864287898404,-2.307753483988633,0.17651262302239562,0.08399554602930148
1.8098062678100564,-0.7197650735839531,0.4222802845537417,0.6274702987632569,1.0174686914505076,2.9100637775583156,0.4004821971972975,1.4986888000483407,1.851133053360043,-0.2239741728911487
3.255086596538648,3.357686624516486,0.5246529222949009,0.340273805922824,1.0396154226219496,2.089094480958826,0.41199284288563753,1.341931193709857,-0.8576355922543544,-0.01223943723628279
-0.717463365728095,2.648602926037773,0.08177011460423361,0.7191556532494312,-0.2687996268127488,2.2558126097555915,0.35092913422351635,1.5804371758466633,-0.9215236049112526,-0.046682711280302214
1.4799459966410335,3.0899052195918024,0.33458940572087054,1.1132621715748685,0.5052007930040364,2.015654240555228,1.0125703920343379,2.2883742552172652,-0.4075821366000948,0.21709293065812243
0.30426967937614813,1.3624034160613205,0.25210367063793326,1.342000953830442,0.1076719222391933,2.2409629494184093,0.6073351808032802,-0.2538806713919233,0.91485122354472,-0.0015402722214371556
2.9861788580024067,1.778553909248557,0.47737228347193345,-0.10773296627959769,1.5441766154145313,-3.0765717923649083,-0.27007942931226436,1.6006160987603124,0.2683510241167751,-0.0654826800082851
-0.6367161433408757,-0.326182654264243,0.03352876382049935,0.7131286058245363,-0.5619783476610691,0.303819215915832,0.14986145726035036,2.8181879867657207,-0.3433194991679106,0.12174215740587287
0.21655425056835442,-0.7720476551555178,0.2106062241624783,0.5284369986346581,0.1608086411695104,1.8364882189627396,0.9128869753218414,-0.7696548829611248,-0.6725541891804308,0.32289665016419605
1.2273360792985901,1.1675671551935713,0.2473793205078985,0.29981840142876076,0.18581325338531818,2.850352328385104,-0.14621140042273847,1.6488042092340862,-1.4629323702861816,-0.15336874834177777
0.02025140205480236,-0.6476262043120433,-0.366250138148281,-0.40561606980676396,-0.057165229896060675,-1.8418695195143644,0.1509205714045009,-1.80166136773381,0.9548848407030875,0.2900338201897761
-0.48663288005102734,-0.4405582586524671,-0.14846933470904286,0.720859722352658,-0.5057779081447611,2.3241184221764577,0.2250516272333366,-1.4231429769870814,-0.953324437425376,-0.22224453364537294
1.5769420049493221,1.7023406314912797,-0.021675568616798476,0.17117398087464075,0.652696895696857,0.3631427597508179,-0.4154660443046164,-1.250713099253714,-0.5711897664892375,0.05350355464480511
1.0773756843080737,2.7860268332298763,0.44276978467514194,0.2075972428477081,0.48251410887402324,0.26162522885651596,0.028394759913910272,-0.8128133504266359,0.7317394200238162,0.14115867409623958
-0.1453797389035093,0.8196268957600243,0.03924774664884368,0.2282800138028122,0.5707413218952959,-0.5628845131757344,0.20695224592912995,0.34351846892253235,-0.626105959385599,0.120399977546925
-0.07286092999659777,2.761037195732726,0.054488698048554544,0.7215688484244421,0.6077281772197753,2.090340832164971,0.5342471407195621,1.087242600523598,-0.5921639828166566,-0.07194146271218413
2.577093116446248,3.2533105491753087,0.0965665861659022,0.9479875186594978,0.7523986692745428,2.321643685170097,0.8693629314867295,1.8356448424364427,-1.214993021999208,0.0359335022057831
3.017074545688528,0.5223132457660296,0.16556820807847478,0.22964209167525088,0.5520340282499705,0.2533831085670023,0.4165470315783963,0.06935974264798322,0.8118058228872836,0.13363135904697662
1.280317536433213,2.44687743719394,0.20487631541970583,0.838700590830785,0.6711438800313914,1.9433881724658209,1.0077699559751478,-0.35538211490229954,-0.3320190041755647,0.01996777856331413
0.3182886257936348,3.158696487223869,-0.026148634182867298,-0.3639595104111277,0.4325624412348042,-0.9241569622854618,0.1520215928740284,1.3346242976544989,0.707610567126171,0.09697556666284105
0.8366939244674971,0.35875659086782963,0.014208055358867669,-0.1983931178242991,0.7417238320700625,2.5985679535720845,0.4202069411528683,4.751649101500318,0.5005871066000949,-0.039664205997479496
2.5060514755312493,2.0027136073956537,0.41514717718225663,-0.27622496372003347,0.9231685057093195,-1.4474760447519297,0.4678881964886035,0.7238423234309024,-1.564992776943584,0.17115195992176221
0.8050545891114305,0.7832961052516922,0.281223893290451,0.3430788148497212,-0.08004954564196369,1.9084866635187399,0.22735670292021065,1.1141712026667667,1.2218293568217589,0.05844318046672301
-0.6378219376884398,0.6251562871179561,0.10320016642398093,0.38193484748118883,-0.2660862960232577,-0.605241921136588,-0.2218352029932134,1.8821861621916114,2.126223708069369,0.10126383009006125
1.4812161233352632,1.5366964931314344,0.27985090057169204,-0.3778961292321866,0.5388364189995801,1.0541958106805964,0.36117190733625576,2.579494941331292,-0.5525590848235302,0.2617007917179598
3.3881887740002217,2.24839557486501,0.6320415080906472,-0.2503546065922803,1.3801701377578206,2.3224126542996877,0.4531394254384105,-2.866764846329925,-0.25980123844640324,0.3117031316438215
-0.14217034345669266,0.9395215588680343,0.003804376581707953,0.5458358141529008,-0.04038381408954991,1.8102285009011105,0.4799207195230809,-1.2612279265105155,0.73928987298016,-0.2147136223004209
0.7505757484242879,-0.051738404266644444,-0.06234007739199957,0.6711178753375537,0.5650348096745371,3.359492176591183,0.7743825690536166,-0.8979979116559662,-0.4800437244109539,0.22647039222511234
3.076868124510864,-0.5961454587764387,0.13027523196729374,0.3699371806661911,1.320042641839833,1.9068814535711536,0.5279963112289903,2.418070955842139,-0.8229911812669239,-0.12611115166981057
-0.8276394155773759,1.4285136113010366,-0.005425965615572487,0.4682774953691541,-0.5269120846495703,3.037809206708286,0.6713970517906405,2.2784911459783155,-0.16052164802533175,0.18967489461453818
-0.30585000518241257,0.2820626277292393,-0.052616435533028985,0.511088039570622,0.28887158112381883,0.8083767148582651,0.3932201786000741,2.849608938920255,-0.4249710896856308,-0.09180609352476153
0.11874972733575695,2.918191250097888,-0.054393223853523104,0.38282243358118623,0.15448742260877682,0.12962857144630174,0.11578145321458819,0.2627263204166489,-0.26785541157859866,0.03215047702110707
3.288869374632121,1.4181258968709924,0.4966210343570263,-0.49791454610899183,1.0625958117561773,-1.8417241833408078,0.02930360580124124,0.3583326742238422,-0.6662848302160175,0.33241450452454
-0.5593622646371864,3.33083266551656,0.08987951046048313,-0.1526840087026043,0.1823481572510507,-0.7658398669696668,-0.5999108502185955,1.9941157818491577,0.8047279427194018,-0.09609745414219967
2.500700405854394,3.4229512669199655,0.43966767610338264,0.514954898366824,1.0280055550118652,1.4748292622070163,0.3147764695292388,1.5038691565558764,-0.34788225222258323,0.23445837075277703
-0.3152669256789775,1.5455433082631593,0.30324863587276973,1.2383216666218066,0.14695197594359893,0.9349694338134257,0.22066762149881328,2.252030316513072,0.4198761657348961,0.17401698925817055
0.8766001550382678,0.24353004938723566,0.23049293785514388,-0.17230144288990087,-0.048012613214867696,-1.359056145796374,0.02516542340510654,-1.8207160427383924,-1.6391411453089089,0.0025125922060162398
1.7338090742507668,-0.035773694623437824,0.6262201011756401,-0.04586473166051712,0.3475614374771753,0.04803984807566336,0.0992447041221592,3.047615984593712,0.058189274049724515,0.2198296968521495
2.7615371872967036,3.0034445891309733,0.7503963361555915,0.23944791659993533,0.7662365148930245,-0.13670669920220746,0.22283213193236856,0.8391352600606979,-0.5362864006828562,-0.1174105959256094
-0.13924132563972325,1.6850617892179955,0.011069411801785075,-0.09314056536224027,-0.5749813536924757,0.1834726075553219,0.20973323448171904,-1.365397527480751,-0.44176921406875425,0.3931752471934994
0.44156615139702415,3.3596214918764353,0.09601694884746761,0.31839742581980307,-0.13299407186566856,0.8010319784600348,0.04091619032153996,2.035435916134034,-1.3117570317854845,0.2459420832506635
1.5555249578108499,-0.24358335275522447,0.27740823455613195,0.030175573103259162,0.38955018183998796,0.47451301366850007,0.450170539430602,3.56521921303287,-0.2708871407032953,-0.23022409370088134
0.13545160056632088,0.91869919669695,0.307509090669422,0.9559031677051275,0.11028788234326377,1.3745506219061019,0.034310344528961895,0.2092667657619097,-1.6467474403763822,-0.06451128929466333
2.4071408771884193,1.638824067814061,0.3864248375668302,0.8117611310426459,0.6787648619759991,-0.744423874449498,0.6105869796721791,-0.45756622156625637,-0.34804750429410547,-0.10050113520061259
-0.7057601031007277,1.9959157039607378,0.009309076573062833,0.6269615086247747,-0.16415664698471946,3.7669941941767364,0.6506746827046798,-0.1818975003012816,0.27270910510754626,0.30312691773715267
-0.1662340246165398,-0.6024929207933998,-0.06352241638324142,-0.19441300334959216,1.0067385871295675,-1.7040963488540206,-0.1612969522468782,-0.429252591339079,0.19578333914711776,-0.27033100937874877
2.5301648369488787,-0.3551399887182247,0.1764477600219541,0.5078463750146109,0.38057591796867446,2.3655342685618597,0.897447687120629,2.285820492995107,-1.2476410362971146,-0.4705396090688381
1.785301670555087,2.6083971136898603,0.4097667718726325,-0.08464330253131955,0.9900014660147456,-0.5840400767702365,0.0032332532160203086,0.461914889558669,0.9104398704551412,0.2591055751568875
0.5040288283669101,1.8132187086603202,0.2083383417685518,-0.05686257471471284,-0.5173062636201735,-1.8986184539577287,-0.23945844845223332,-0.10684396483561326,-0.3390626976809555,-0.034015683354783104
1.7442686833524363,1.7165771935906475,0.4736815893954263,0.28530451273662794,0.9577789685681213,1.8507046448283304,0.1415338144761013,2.4241227928180797,0.7119548562054709,0.28388340678784707
0.33126936723405476,0.6637229690215924,-0.06905812385585167,0.6257986490729754,0.09918408910185016,2.9854921288665652,0.9240541619867912,-2.7772974994475383,-0.4019668171677263,0.0952465199675723
2.416702417283826,1.348615887592079,0.2114027044805739,-0.39383574896187834,0.5668674777937781,-1.7649238261013087,-0.23373364081688897,2.570408234688917,-0.18204744003664203,0.027648027765836886
-0.719270281844689,2.3498614803030637,-0.07258622551238449,0.2068724051297692,-0.3939439660069984,0.9624022584996554,-0.18739536157214767,0.5122323322828671,-0.2920739469196752,-0.3079501936387312
2.463916399067862,-0.2546744686660978,0.4878153180001314,0.7433598209330757,0.5055789324400466,3.5080884271379653,1.1427911362159957,-1.9988128881494909,-0.9245706828276399,0.3794130810275322
3.2351001724329214,2.3892792100202622,0.6105257277156025,0.10129584094837431,0.8836095175533207,0.11989607878020425,-0.21219375121817374,-0.5000539466211777,-0.21871859125154747,0.15570056557907178
-0.20186550626756938,-0.0948979329780022,0.0787226911496767,0.7805156821448882,0.284826074685162,2.3808461575328628,0.5821672322175783,2.108403417843667,-0.5156564159335855,-0.008338377093013407
0.4837839052981996,2.2818675119666194,-0.06243483014316754,0.4213242819572341,-0.25193876300052576,1.9042659380157065,-0.2085715191733155,-1.6351860451934055,1.0935619527782676,0.1142947390283388
2.58554358430275,3.101843886522488,0.19626851990414576,0.7890376197201536,1.7198581516617037,2.0722043142683146,1.1421331747669516,2.5218015705056667,0.06786932530378667,0.3836738574941472
2.6478176244902243,-0.9084097886572831,0.35962189189938315,-0.15406378243420957,0.5006680007976304,0.13747970554766265,-0.14495779259612135,-1.2767274672312054,-1.060027658183959,0.17821218483756998
0.3730236280816186,-0.8722229347560982,0.11588836871909236,-0.12441426300677197,0.19193509958280475,1.6498153502760156,-0.06212576460333791,-0.7369952669698092,0.2885944914259701,-0.14684930865127196
3.400689704271805,1.9829633350701847,0.5561647207177076,0.054473263726056737,0.7401954278177084,0.803342069000579,0.2994609507139845,-2.042595572177692,-0.9235012425584491,0.561204234726361
1.0517955684122824,3.301882242352895,0.13346480758366108,0.1316571716480094,-0.010748654148099897,1.2555930760818341,0.3888200803813067,-0.5196929314738342,0.021829746740401668,0.23071541639403315
0.7924253831702346,1.8289309202794395,-0.05694670474150456,-0.13880884138988636,1.5321099242116245,0.19640866421763736,-0.18044006688222847,0.14450346909502476,-0.15738699089516006,0.12483479730282068
1.241608781551979,1.5146414648999014,0.43372794171240553,0.45167295562050147,0.6801482376290505,-0.24835658391866322,0.0639182309263552,3.2297761179975684,-1.0135137534739846,0.25335481365319223
1.1054357622524824,2.8157878535567775,-0.04830680851172451,0.6652928595849535,0.28853109558655204,2.9955847343731588,0.7291007888015596,2.787838433746518,-0.32752524247019366,0.19475103050736486
2.0337572042122534,1.7731517620752295,0.27986825259963566,0.013879368937890723,0.7973895668292235,-0.46493771564335096,0.30152193875107114,-0.7969783547689719,-0.19982415294148548,-0.022473353271522695
0.9238862866386206,0.3128656679625659,0.06794840438080839,0.4053003879720505,0.5244513067978857,2.9672845197802102,0.0615567954412983,0.23696751865448148,-0.5891150850543787,0.14671743986037783
2.654753231489201,0.9496532851188053,0.7086943629507745,0.2607315677750646,0.3595392774028501,0.9787018292114174,-0.3177166575018948,0.07550909639026822,0.3501834875101565,0.09632381904857462
1.0996422093659386,1.7905623386654264,0.016457296757850758,0.48181555261093423,-0.24955566813478156,2.302337603220825,0.5874326580567788,2.000718944760555,-0.46081772352634087,0.09395440910263157
3.002143121330432,1.0700470432302822,0.3449411471783558,1.1231570638030681,1.111492861162353,2.807525246385829,0.24660298154866367,-2.1592241998473565,-0.4423044844255212,0.19927846226980747
-0.3481568194778908,2.4571247393896103,0.1384493060948041,0.5843766416256087,-0.3280285689516741,0.22589421683652477,0.37086885036568396,-0.17683400397450844,-1.0949809896748124,0.07488169852082728
1.4205099539139008,0.45877531821251494,0.06608689180921504,0.8708301409203794,0.6281487631858144,1.5256945104032167,0.7770438513931763,-0.5941291567092541,-1.2330606627392804,0.3037804297314775
3.1617264584895866,-0.5057692730602963,0.6281049367440927,0.16265699919822865,1.2136250527801495,1.5238809511924205,0.04261739997660523,0.41524774563662137,-0.30546263004021157,-0.1327103847973201
2.045964223821183,2.2258367794758778,0.4106917376313551,-0.02964141575623815,1.0574488033079759,-2.195473298723999,0.18327407088756975,-1.1395263582985145,-0.1312630579901054,0.19751491793752277
1.669586376556826,1.1578317807055396,0.10823456375485473,0.49451180952807466,0.33863909169776274,-0.339446499661862,0.39256845031568727,-0.8506879689209317,1.9704929307046395,-0.0002224374975564672
2.812051117331483,0.5657007135494434,0.48730470661072856,0.04556169043626115,0.549845581358186,-0.7414474617659026,-0.03418703648966459,-1.1456838465712194,0.8103135183648242,-0.009953868481152432
1.6386129036737667,1.7036372005293905,-0.06922945917662021,0.263661800881451,0.4566221225556428,5.0441375929935734,0.3970326095902505,1.8680305130895767,-1.375767656770788,-0.5571540202021551
1.068745825175494,2.940202678378942,0.04880713370696904,0.40821606828601453,0.3973334439582673,1.2120783105337507,0.014352675052898008,0.610332666222606,-1.6565095475099691,0.41178335536556543
0.28746303535338447,3.4288952488869704,0.32156998570683337,-0.14805899554105156,0.6390465498698523,1.8025209645597866,0.49850155493270265,-1.903025097911418,1.0937180054537194,-0.13148885849817457
1.1069097232076572,-0.7953554842401582,0.37129556054365276,-0.13011393187809817,1.0978066881190314,0.6310600297715045,0.4268787947566263,0.2534813932622897,-0.7739760790140666,0.01342742745705608
0.825045023795203,2.666843711141769,-0.05446679414038532,1.4319701828570426,0.8518001144094709,1.6538651852876602,1.0333081973412401,2.0424560445599,1.543321389062557,0.17674144261517272
-0.7528082202753915,1.1570179071458169,-0.07916116496009444,-0.436021898571288,-0.7408993953139922,-0.6296365213431636,0.14046643145902457,-1.668193833414265,-0.498334559709299,0.03941382700821128
0.9507656419235171,0.7416522991213432,0.37830671753748446,-0.08592157084230792,0.6058437913797525,0.32927576752763776,0.1616499457580916,1.9357181594423636,-0.9401608862691875,-0.14642528652105505
3.216232988515655,-0.6638133871921491,0.7309630252014486,0.9039508037261188,0.850280954988034,3.5847605763121844,0.602826404590231,1.6838033667416727,-1.6946047231215382,-0.08974741268395413
0.9104893701321388,1.9908747518763388,0.12048613573182218,0.8621995436499099,0.17669344526090333,2.8176409958339135,0.7300850806968516,-2.831718282828903,0.09329435209979837,0.04573440567829379
2.7801479122216537,-0.7915388325273888,0.2794625892214868,-0.1272353687733663,1.3834492194356753,-1.7844219112702393,-0.5177580373897609,-1.0986350694274525,-0.12572781962715956,0.11927489860018403
-0.44527797962231064,0.7250770228065655,0.09622884292640102,0.6826758960764882,0.2664016214579722,4.040551246233446,1.0386642837077382,-1.9434311049031816,1.3981177069420636,-0.0007691260128052033
0.18210995630842275,2.517582400756254,0.03660912997284261,0.24931758604596574,0.652240621170879,0.2683077723729216,0.20613902716248383,-0.8008186704520148,-0.7358046497636332,-0.15495352545541358
1.2921928021826425,2.6932055579749528,-0.08449048493245678,0.5510378743023425,0.6872807394107064,1.4284960472838875,0.6579316143222446,1.7174635562515532,-1.457007655425889,0.2942164554805967
0.27680147720662074,1.822073853188067,0.11235109589097912,-0.3036112951774903,0.6951067764390351,-1.2178473182367595,-0.057356498973548574,-0.9623673110433152,-0.3514673406288865,-0.35396279166224587
0.7701340702427195,0.35478133808089796,0.1071079148928647,-0.01598871331533287,0.5424719324519487,0.6117708186411891,0.06210639177391487,0.38634419469805537,0.19494936860788648,0.2082810306701363
1.6362371843534573,-0.5681682744074226,0.5471696646731962,0.5569768152828996,0.6797968544291885,3.0935427242142444,0.9460393005391101,1.8891731839723076,-0.3450359911237982,0.21176885653090724
-0.939997317755228,-0.7583236489991361,-0.02892108410070359,0.4823782371421526,-0.6462468981349219,1.8078235037944879,0.6037865606118148,1.9607252527846994,-0.12151900193822918,-0.08259324200480378
0.6855185209952401,2.6219236817947955,0.4471886306801733,0.8253984045223135,0.5056497587415021,3.3024019685902224,0.8692451943106503,0.8859229329172619,0.29663821530576046,-0.21166595125381427
0.8409099558130653,3.3370523651115374,0.14567210689024093,-0.1625505210474096,0.17962340298543092,1.6092415991519016,0.35334318600608855,2.6831332996480826,-0.4803241323067351,0.3091878574336441
-0.7897843656030357,-0.354342621965113,-0.015596933419934808,0.6381069026107941,-0.24527247104515804,2.925815868727107,0.3400904189840418,-1.9593097417752754,-1.1581590377305027,-0.1029017240368204
0.09689029190337406,1.8484384603341617,-0.0132995201772867,-0.2927218273186061,0.3417444133155645,-0.7522743750331524,-0.21416194075385522,0.8492132290841937,-0.2904956987903057,-0.26918311946811957
2.0551765536086273,0.687651357876349,0.18623027956055263,0.0947537907455442,1.0045454913635374,0.7510772649571075,0.6182942117305845,-1.7399907747242565,0.5935444964203124,0.23698569703801023
0.8987040430310353,0.4803705325228711,0.09206039661664717,-0.08938363655285689,0.23423449991178083,-0.808817338636204,-0.5706513718958129,0.06432748264471022,-0.5670468280622927,0.4560244433263706
1.3902771840283807,3.4461474368532796,0.5338627073970392,0.1313863789444647,0.4483066490585139,2.8143703225374828,0.5285752012302597,-1.0176909797846756,-1.276433784630409,-0.3287281826492792
2.778454882256361,0.11773963138028365,0.4807347820489741,0.4722080998808213,0.6934310296808724,-0.1004031241358132,0.26920590442906644,-0.7571755124496566,-0.5457079280750274,0.3294394734171183
1.544055452197314,0.8383281788738295,-0.07091304296289198,0.7323590443253628,0.2722808593913437,3.662148909608646,0.1728868133108874,-0.3335135758833916,-0.9490007633536444,0.2143269105625056
0.9832306720310651,0.38163121652068965,0.14311079413116198,-0.43893411918204767,0.7747698669389076,-0.08945500242104798,-0.1698107793625214,-0.5060819412784757,-0.08049499368847546,-0.12487123013988308
0.5987794458998597,-0.5839906747338873,0.10965947244512499,0.08063766892752335,0.1026622970068929,-2.030415280372122,-0.3439245127861542,0.251622371052866,-1.6561233031775373,-0.38714479140676517
2.3340457214641153,1.9960399947575196,0.3548767756013811,0.9329479694426298,1.0713633193287202,3.2570474099514293,1.5926418345797269,4.743615720705471,-0.8153134946261719,0.11862822097226547
-0.3276280399527053,0.8836513636872145,-0.05604327381668793,0.9028421949194989,0.10765463284314475,1.4119870459305766,1.1888230045893928,0.6094408299174869,1.1443140868051693,0.23525082542663353
-0.4400833876341894,2.9052751731690165,-0.003890801966442602,0.01651350266854856,-0.08878803171878742,-0.9007174966553454,-0.34188687180232064,-2.7679167152723867,-0.038726203047810666,0.2583042044300297
2.0856245873107886,1.4903785156172042,0.2937889172273135,0.1425129261174394,0.637449700455145,1.936410252052981,0.39172353730547305,0.7312617883454109,0.7505797644014629,0.23336775413900696
-0.6868956590591274,-0.8790972513087013,-0.15026589201488702,1.0869451045607461,0.29865947111718355,4.593372027585171,0.24733895049401167,-0.6285724001328663,-0.7184432189445259,0.34783420143640414
3.13461264468281,-0.40679467677589476,0.49340178513534305,0.695789875951657,0.9638047275050012,2.129362865165267,0.6886627851434478,2.809435962281442,-0.859488241457296,-0.27801266646927597
3.3402766760733993,-0.12465456821288046,0.5747725611313125,0.3707588297381139,1.0017205849599584,3.1787858478124535,0.5418646937483768,-1.0034642617391096,-1.0254880153047512,-0.056843284873726516
-0.46533886760772025,-0.029514145266041125,-0.3597927471047809,0.8027208418723578,-0.33401308373301586,2.0297148355681376,0.7460883218524147,-0.4832980727647725,1.8959174616824686,-0.051009855725360376
0.7167913100925396,2.9765168761101335,-0.02417952442973749,0.5376729868385818,0.3068383204643873,2.1413798798250725,0.608357988975388,-2.925972372907923,0.8395992123148753,0.07470087407114884
-0.5562151764979142,1.1976722873941807,-0.19415252689892912,0.1924158252731346,0.11067853863852266,2.249327010222962,0.6710937039861146,1.1120303800333466,0.8852664432626757,-0.07950653477365856
2.333098646953069,-0.3933106499509159,0.42692744697971846,0.41373872066523865,0.7033961344920417,0.9765295803007403,0.6755146266731379,-0.9543904880534604,-0.14963508219145458,-0.2767473225941929
-0.07074851353667688,0.6558058096629775,-0.06642232283729836,0.7672328109953646,-0.32611017908545537,1.829382892415818,0.64448805871046,0.5746763441062712,1.2656330682233081,0.05460750113351605
3.257006099722708,2.623627327761592,0.5563251050984043,0.318583974316317,0.7111064525502253,2.3288830138838184,0.4563415172831355,0.7263110550854035,0.4419960872804114,0.2247986633647743
2.2447556882425337,1.6305325787040212,0.3393756135841955,0.7656214234173659,1.296656519530486,3.2019797618027335,0.5534130047159188,-1.262760057808325,0.6244325223964319,0.04396194383318465
-0.1533721451922191,2.0676069293023973,0.00010395073120945374,0.1755004652594203,0.42640520070384286,1.055313110381976,0.713229244819327,0.011116689754440277,-1.2085517802476677,-0.1921042224654207
1.9749113015672224,1.3684043523015306,0.18107096887648513,1.0023852077544888,0.6519194526520419,3.8924352422408677,1.0766245101852379,-3.0597324441768503,0.3486526515806559,0.020783733987667627
2.0217332539257034,1.9258596102356043,0.01940100784786021,0.09682462265771716,0.22754364179903125,0.6985012785317379,0.4449575819659682,0.48399361670613034,0.9184698874726304,-0.0944535670927773
0.08120215113318463,3.4496995890677287,-0.03567412364296575,0.19215393676121015,-0.25757002537658397,0.8639264658148784,0.025462948380150358,0.1635113156769873,0.708895196670476,-0.4243035011584388
-0.1845038755247408,2.8615022093483544,-0.30650992012312095,-0.20193381462573162,-0.037024316676973694,-0.35195208681950874,-0.47868793512394753,1.5939212289269558,-1.3144399126786979,0.21422995257664978
0.34700447921386157,2.021521171133194,-0.1821491657891453,0.4142678835126089,0.4064622074275951,3.2685122174719172,0.5627714458140327,-4.677302837776073,0.16713384460158515,-0.36852531553707324
0.9709150299066682,0.2832791051559227,0.5240270443423456,0.7476492779777032,0.6829418293976108,0.494190442137587,0.3874064475179973,-0.8556634472147886,-0.9923567296406682,-0.06105093486243135
0.8755195972864767,3.2808477172575454,0.2765497871648265,0.029429237778297073,0.6499700624087281,-0.1965812209202909,0.3546321547220444,-0.26937771053232273,1.4644815679918968,0.6153298287764513
-0.45574586165310205,-0.8158981794727479,0.0656944856865876,-0.01721042716110907,0.3771483662521691,0.8605168888506813,-0.0732937406654823,-0.3290560850936437,1.6253729238355776,0.0662240268846239
3.306793615689502,2.4626757807729205,0.3816604234996652,1.4096674062925143,0.9284714872862697,2.4118017316983273,1.0514129454488834,1.6537903874148665,-0.29514152222074974,0.2893334529061494
1.2272658720321803,1.314466109748961,0.04242220854608854,-0.2696454519081379,0.465188936491196,-0.27774378674717604,-0.42630029758659804,0.8952092443229505,-0.6471008210191861,-0.025346821763672665
2.6859986667463747,0.5504337259811103,0.22219072271240398,0.2269300265784061,0.8861285673110287,0.42549454107751306,0.15995005052295372,0.6680065660131884,0.23155695828629286,-0.4861483760532455
2.060316997410785,-0.935149359272376,0.33902076680960525,0.1110353278585814,0.5858815789454721,0.428758289087925,-0.04224323926615533,-2.2920811228906874,0.17024079999228658,-0.23213983085054132
-0.4025356146514619,1.6393652674087846,0.12721825639685064,0.26559483545190765,-0.38538540855402653,-0.6932678729895806,0.5487900308317224,-0.8436730646298392,0.6150726495981843,0.28935828224884996
-0.10289202077989124,-0.6360469806246603,0.007746303192699838,0.2739495182172509,0.15863803323737372,-1.2531471477500713,0.612851522820936,-3.474752145072305,-0.3886458210375221,0.331014328492067
1.9739746224102364,1.7520298686516957,0.2564630610883989,0.5679044303424156,0.668286814142317,2.1846770710810706,0.45857525142604677,-0.5331295599655496,-1.8163261346571349,-0.14644424411352483
0.43023031503633624,1.1682256535102842,0.10344665750195939,0.018226352193796425,-0.10471197018737073,0.700222705944858,0.8239663252004246,1.8121203539861237,0.18314618014168826,0.03173185651704376
0.9943388866583827,1.7973043634170778,0.07053557459650521,0.3411601564630944,0.7840973544347023,1.5313120957787598,0.57370520711682,3.753274835510539,-1.7816414619625025,0.2925812126123457
-0.3156435484085882,0.2981007488270999,-0.2393614802511364,0.25692583461554297,-0.3016515286233937,3.817896069575596,0.2491386081396612,1.1054573843365856,1.4312856379030654,0.11563332346683783
2.046210026289047,-0.01715453476164186,0.23251630793781083,-0.22391475344462924,0.6335252149097707,1.4790974277864453,-0.44234793939957395,-1.5899247769663045,-0.9336306097434433,0.3735553324561782
0.9628664404320735,-0.20474212948032688,0.08587606102110483,0.3487178278058152,0.4013445841882102,2.132545921102464,0.51117397781578,1.6265694850288563,-0.020435983185282308,-0.3355963253133094
3.1397050267636297,2.0545331264697464,0.34133478245050153,0.7723277497051987,1.1769096988160106,0.5069259048337356,0.3981040811231049,0.25052159141515246,-0.5293594314133752,0.5226123981034076
-0.12207372735202626,1.4848017412590995,-0.16691853303514675,0.8676822856917131,-0.2878841389990728,1.8921036611252726,0.6941890250613039,-0.12000944920740608,0.944612350186738,-0.2390401163968521
0.9961122888614196,2.4771785525906678,0.23717581028592508,0.2995690438021172,0.8479778886594509,0.9379512617320247,-0.10236856568446333,1.2157395858078388,0.953470356063682,0.133838374368498
1.2281322041728018,0.4921797676722397,0.023149599236921132,0.07819683562738529,0.41987583908673143,-1.2326615473046454,0.35577312321619387,-1.396934895455923,-0.2684431968607862,-0.08598504884759162
-0.31648993771859824,1.9451968229445646,-0.11482487642979976,-0.06840604402352536,0.04855231750337146,-1.878525347968572,-0.4038038476302628,-0.6400403824260972,-0.8772732786404273,-0.08422869122566629
1.6935609352367242,1.0000183686736404,0.3087005417619814,0.8673199548843765,0.3789541451248169,2.6001196688499033,0.6548609829225983,-0.6530445327244401,1.0335432665899442,0.004815900481285135
3.212704047063342,1.7305885258101021,0.46154731596290377,0.2086087341613506,1.5191540847136276,0.05835586436790163,0.6183787956149257,2.170210435843177,-0.903716735702206,0.10807795336007542
-0.6642709511706992,2.5033042965993704,0.07754349500523314,0.7285611123607361,-0.2743227716542077,3.3122179087623587,0.33183242383146583,1.037633850560962,0.23736013242392873,0.2684478298457178
1.8982419676846334,3.296715278311625,0.36568444486697915,0.7913690011029162,0.1668695393923984,2.747956996333299,1.2131146962870214,-0.7040872295547361,0.3798157392772228,0.1351548402860385
-0.4198266974599597,2.7778753193417947,-0.07895370619684745,0.5440396201492576,-0.22190127313064936,0.4146379360019262,0.03175260392337793,2.4922211817221527,-1.323978947516921,0.0870316034685455
1.1768746092693885,0.6163509683834798,0.06943909620160339,-0.141669129231309,0.3743517625882381,-0.0353389575215772,-0.07189998899658809,1.0635498086216282,-1.8936929552118509,-0.013732386637564403
1.4391779468450898,2.506188507551154,0.14806479178466786,0.08808532447555682,0.26196993761824916,-0.8606996998233539,0.08024540944821922,-0.9391799709070681,-0.6446450824864498,0.13437282136079684
0.521714616757839,-0.8502768517586626,-0.36923584561010814,-0.37058288628551594,0.14080879111375819,1.3218377994651933,-0.26434769726994256,2.5703246304565437,0.7153227727170002,0.18098336454844402
-0.9334857309405538,0.18266284715708614,-0.306513388687059,0.8280687630681078,-0.3076629376040026,3.2547818513793776,0.9034707621838143,0.24083761828759584,-0.2650926242409908,0.002912937165517413
-0.13090145258849706,2.4613429858829816,-0.15137076357805715,0.14452294987829237,0.4237916039626437,-0.5478998855463689,-0.3236992014172505,-0.9051993230266105,-0.6479060312083407,0.6799005613873351
-0.2736507507213777,2.555792458957969,0.08931567264241456,0.0787436160233468,-0.37707319081782903,0.06707767485987394,0.2044301790511765,-2.8780764031846564,0.8459838500523791,-0.23623419117363362
1.5394387172317758,-0.21806803406766562,0.13578074349819966,-0.19373929371492338,0.35806164425182924,1.0872756945181365,0.27624849978375654,-0.3137007328626867,0.5932612080355275,0.2938922664349166
-0.9453643509987439,0.799207409809791,-0.008639573580569477,1.1794293818537054,-0.3497887282669454,3.7218658719363376,0.8592857236261312,-0.46410908922493355,-0.880019057075459,-0.327297517813791
0.0920962862052388,1.3070150893256214,-0.0689047656602189,-0.2101156234241724,0.1841903335888162,-1.2164399971355757,0.3367845107771223,-0.7771375959254849,-1.366782559143434,0.3255809317950159
-0.7097156772332258,0.6468346802367673,-0.26361698155020735,0.07621991299679859,-0.07324346863930428,0.3909176756459376,0.5372145644746199,1.4017135347356176,2.023005063294403,0.3725158796507768
0.3203160533795024,0.9413411448038469,0.12126219238453292,-0.024595609092034152,0.0456957734289622,0.9723851901549121,0.011134704111615252,-1.474749691605321,-1.0520670617501868,-0.20678263937178254
2.8259036321136746,2.7922792767988414,0.2843064506380495,0.7642928627705898,0.8733775109056555,1.5009267789333518,0.2970148002356338,0.40042376542475305,0.8122740272009736,-0.3646033092511631
1.514042015163442,2.590110752458507,-0.1601196107077241,0.8586513116972074,0.9235744045715523,3.0015737194305028,0.8215907108472108,1.7972146413890648,-1.3998766659995827,-0.11110755567079547
1.141279181787855,2.69473303846184,0.01257016222578513,-0.0428033306820956,0.6720184215524053,0.9220228361155288,-0.1311758616349154,-0.20689074061101898,0.3244598049210302,-0.5362737487492374
1.4539228483558468,-0.22143554221281492,0.552002147253066,-0.35796872525905077,0.07309620853352425,-2.1329174393311536,-0.3698265176448656,-0.10695242299208618,-2.2644988442851046,-0.1368844632474147
-0.5750951426429436,2.0978925840113125,-0.18491150269437318,0.16540590958015033,-0.850012056129349,1.165275999801334,0.1196124745939205,-3.7049693600200877,-0.7560376086170895,0.06469756753959804
2.7352543442144914,-0.6066583973323676,0.44660593808263965,1.2369210599658695,0.628660229606881,3.725791736680767,0.7079600373468022,0.031766082967085496,-0.6118267624317574,-0.06436898336517972
2.6342130277980287,1.45333587961807,0.5344202485280086,0.3370734469590374,0.640751218195136,0.7158563000443033,0.5173266008759828,-3.4844936187048954,0.005905805578761705,-0.0029048739884609265
-0.40891314143980884,-0.555763907904014,-0.1276508032258178,0.8217418031252227,0.04762596892269281,3.2005487222917135,0.47682697115308464,-0.9909876169767112,0.6470467055201539,0.18151758334029372
1.6810836220579848,2.853046021411298,0.12327575039506698,0.557022436294403,0.4802195970560737,1.1593239328698317,-0.11683240721966352,0.8673009631517763,0.32180524966066504,0.08542200970162617
2.7853399348728103,0.29448738552688525,0.5381482459362877,0.4290861247835722,0.7118911683717614,3.3346928919712804,1.0334922715591943,0.3719523754332217,0.17277410933785028,-0.044063084551642484
0.09673689287622067,1.7986088956748985,0.3067588542273237,-0.19919077678854716,0.1620829344387414,0.005150394270616254,0.12736303718322664,0.8628581720688306,-0.7685336931981002,0.09194162572281941
3.0077342797551694,0.9028119897927598,0.553728674585446,0.8746243491213069,1.0953606861022058,2.933269209988319,1.0213901177856208,0.0940156010685056,0.2631367467527189,-0.059168645440960815
0.5163968237506995,1.3806537016590097,0.13170767202240827,0.20163685071718268,0.49341446509942716,0.37910091780775196,0.43838857273630594,-1.5388229146854417,-1.137173986723488,0.13472129036864783
-0.9025707450804914,2.8973552806116722,-0.017661914602686138,1.2703454566675108,-0.2679861558294079,5.026770402354394,1.208027639753969,0.8652185915968756,0.25245054941651146,-0.032346716412080395
1.4971264043672816,2.5576509233432105,0.3378205097271609,-0.8372210118961285,-0.026378075103674764,0.48678185211458835,-0.4019930997319219,-1.2621781912476555,0.3954646838087891,-0.2802675229192248
-0.9975072172131644,1.8146683009081839,0.21121891157914752,0.5326810951181913,0.0869175417244996,1.294810349696774,0.5119700370750604,0.6378889284937015,-0.7524855521772678,0.07757321191550313
0.4319749227305185,3.142016310947474,0.07122945738409042,0.4991989613313674,0.925876818885936,3.104899780750262,0.7857818589201869,2.649815906831514,-1.323359860628868,0.19729540669060408
1.6823727973523792,-0.4376890303586827,0.17118550091847334,0.36458699361551045,1.033977786009491,3.448077578755063,0.4332199506484366,-0.5483070809686458,-1.0113371264480084,-0.18811108109087957
0.7943494969225477,2.231086155366261,-0.14527278847346178,0.7036801255343973,0.16727067107923127,4.5270892342742135,0.7605936905814746,-1.9627338960667315,1.0470878826361123,-0.18278354989979917
3.0051842715378845,1.0276868497200562,0.6325394581192707,0.41895936292082264,1.104132728517964,3.7895951889842845,0.9403861422791736,3.139902038521667,-0.5067969391431011,-0.12132588615553337
-0.28469593574739405,2.746575270212592,-0.006372769616095924,0.5608772507288823,-0.46980325893839886,2.8379063389558428,0.5159474714066785,1.2135788865443644,-1.1243300388760296,0.08071807613711765
0.5280054253860098,-0.1582097066874597,0.026898826369983097,-0.3751292688113824,-0.04973772227736739,1.1496024691350457,0.0671633786493741,-2.0436049592039236,-1.7841069247621424,0.19390952703166528
3.1601578132926793,0.7859337490176512,0.2775670731519666,0.06853416039367775,1.0571399581357686,2.7320855670397393,-0.010840120725311117,1.0448240526306711,-1.014396451036589,-0.1582770858494271
-0.6745894346926158,0.7776321385953326,-0.24456444664270233,-0.27399235242631714,-0.47274460932123136,0.48402628945247606,0.3314677226344218,-0.2924490593446405,0.10420354656162684,-0.10045487480512733
-0.9552075000521638,-0.05118118556559326,0.12558508253445627,-0.2433023412041217,-0.09901161453099305,0.017702256784501103,-0.698801754846283,-0.9513008505268186,0.0547512062970006,0.06494625658257537
0.8685075495880838,2.8509352711920166,-0.024616296040306056,0.7650873231336404,0.4348835937475611,1.7802525006581653,0.9644731831458818,-2.4542681080511026,0.27466875500564975,-0.14417942632197014
0.6837572302487298,1.97234549823097,0.19974597256228066,0.2927744283698659,0.07002019793290654,0.8870980882267008,0.5396126054020942,0.11084414393805353,0.15749477722146643,0.13095337105141486
-0.8951128887290721,1.0619948111687312,0.05044012466087189,0.8014880246235586,-0.3713146594543169,1.644062860012753,1.0086264614602025,-1.8213589653389186,-0.10572695148694744,0.18318436665001353
0.9716586424633291,3.380079847072218,0.3932048044660485,0.848393521802834,-0.22960961572815744,2.754826577431344,1.1606747189903273,3.5731972508945793,0.3887623861627986,-0.08309810220450571
-0.6546684998502923,2.2749092824460786,0.11124596220108363,0.09912944307385788,-0.8896967526438851,-0.01985439162048186,0.1961324955576038,0.19801655012086822,-0.08981760670765121,-0.022016497556453324
2.9145297466460334,2.487202834712944,0.6886843925959841,-0.4015446433681825,0.7021175273349641,0.8282042884873936,0.34544011014278975,0.9686157740994434,-0.8495152251138356,-0.05389395600701339
2.4554685619162364,0.9964206551310681,0.48341125368567806,0.6355121327562625,1.0207454828329843,2.250328151783461,0.5935520944768187,-1.240881021868429,-1.0852181600037119,0.16221944814509137
3.342499040468196,0.37258975691584917,0.5287849169464527,0.5150167740227932,0.9454368252947829,0.6294644874821588,0.40143608940307823,-0.08184829849488384,-0.08334329883861813,0.095551791014112
3.050026784549323,1.2008085089437492,0.418263353658031,0.5406229120302247,0.872717011118647,0.351687433521624,0.9685529387329931,1.8925479674961467,-0.4191069858059267,-0.07592596970000566
-0.7455792278984895,-0.2678984479491898,0.009841085313029699,0.674617464486978,-0.2100758294693673,1.2670662429188488,0.7791565756781932,-0.8526000832769927,0.7957308655709531,0.11250072966185139
2.281754693670876,1.744208342164356,0.3994439991122841,0.9278087194739325,0.5200933429095079,4.443507266125784,0.4600685473810505,-1.6285656873498082,-0.2443746613832719,0.07003022802013997
0.04986849515751146,2.6504586090546787,-0.05584548318643566,0.16504908628937462,-0.15693647985812603,-1.7868714415500402,-0.19628484027188714,-1.4557701317252871,-0.777409709675499,0.15917487572898076
-0.3524029558841465,-0.8318371427187247,0.3551568097714297,0.2430689709372757,-0.15368273209748262,1.8766129082540033,0.07158153179964113,1.9840189605380645,1.104665015002844,-0.18302285557186063
-0.7144555728339393,0.28893462706167994,-0.33506789617901694,0.7282644853781535,-0.36529629900001315,3.382105256306211,0.2395425921807043,-0.1058412776470179,-0.5657637755393432,-0.10298374126555959
1.6739528713627263,2.417023967694549,0.1788585361846725,-0.35668449351936327,0.6290014572394647,0.38707369816152964,0.32948834445963926,1.392186393328909,1.1566613452988583,-0.16764489955973247
0.1463526326024629,3.3013350064481717,-0.18088812535649795,0.0570159215873524,0.6024338596604722,1.1974890961490439,0.37618418069753023,0.2085819578557948,-0.3347062887847372,0.20067764565786397
1.9389561170591558,2.0891962836777815,-0.03499954143269825,0.8575290067839161,1.067536210591861,3.6983091902853564,0.8090053322560965,-3.6763988913591,-0.24116974191842955,-0.014670732565069032
1.8288672733624058,-0.4060388423880601,0.2933191806838885,0.5334668793663467,0.42599193958644627,2.814779937762716,0.9230696126910851,1.072465253889436,0.23218315110582266,0.0466772804723594
2.356077904490348,-0.1522832272780833,0.5049653128720256,0.49474035030594193,0.4221184373028059,1.686091287306865,0.47121176045255914,1.5440156274886552,-0.9633768647430851,0.126930606067963
0.6309404478099225,1.8603128111085234,0.07233918727620396,0.19327282051941305,0.6463772467929039,1.3610802939550464,0.7414083998892061,0.46127462129178043,-0.14477892386678257,0.17143997051029405
2.535224735287146,1.6049602135582233,0.2746892064006071,0.3874156999013077,0.350226716477034,1.2977148568795607,0.32373811010098635,-0.5210027131715589,0.35903297911892457,-0.19052853001273717
1.5657842916417426,0.5285617576495674,0.5686480406306237,-0.10685895085028708,0.6166581919879757,-1.6362284756591157,-0.3794236273187251,-0.6696777577400392,1.7935460295077017,-0.08270413898398032
1.2654764411086972,2.6808019418608025,0.11009431235811366,0.4434450422463732,0.6840835364773361,3.0348641051181877,0.5825685455351037,1.2926745279958944,-0.6864820537271477,-0.1597068200920855
0.172487789071065,2.432767572719192,0.06356347536246686,0.6852660164737375,0.2716118795267594,1.5342020123979392,0.4971433467550882,1.9040884786666248,-1.1974312062719026,0.33161492399301207
3.211891239590698,-0.7848909123383683,0.6371613919747684,0.5089157829823383,0.42238455840533995,2.544407886280301,0.46873982498724936,-3.0871396227375,0.8407096087587985,-0.12572988233160567
1.348846738834237,0.35655350477227965,0.367606422688176,0.2800656907032329,0.4473541592741998,0.9643503965288607,0.5540092785800634,2.4813005668352974,0.9806678293293853,-0.08508169386089608
2.3767459381354383,3.1397311984470093,0.34750026916322,0.6251022437323291,1.175387198256644,1.6609823244906405,0.7707384744271127,1.840596880377526,-0.2093407566079115,0.33727984176393605
0.55195472675672,-0.6266450270969133,0.012814898640361398,-0.10459424305767276,0.5824168327238939,-0.6905495663482423,-0.6254114275023,4.204743905747482,1.124292804980339,-0.19428610441220664
0.04914360519428396,3.223217153594206,-0.152620259662561,0.7476871288516412,0.3378402230863744,1.6182692513799077,0.6149762200117846,0.6938315574474558,-0.3396793837410243,0.1095845100721384
-0.07899102409741421,0.30580996183802633,0.19353256995661017,0.671669034066528,0.1802745051691729,3.1926075105509844,0.712052345987937,2.6463177417148107,0.5276817465252726,0.3225077435823628
-0.15617894829460388,-0.405637403199552,0.07508830192585679,0.9669467314326624,-0.19304952488103805,4.245303265431676,0.634994887083995,1.242413130572306,-0.059283882850989844,0.26806154129704574
0.778861378169591,2.8875467485358524,0.10634133327441782,-0.43807336202744385,0.25272650477137726,-1.4321131158453757,-0.37965635781256,1.2319963964347644,0.3700873194881642,-0.28611800632604995
2.8780298587082895,0.4861802256049814,0.386505424961604,0.3603641007440556,1.5383826441637742,-0.4762290368074658,-0.6420267475344238,0.8507279037994988,-0.8621403624718939,0.012875750122246454
1.3505093529512684,0.5521444558299682,0.06461366699846402,-0.04957192139073302,0.6045972037902524,0.8357491977638117,0.3589743100041928,0.8047976061855322,-0.9870387613407724,0.08270983933823674
0.648523339177776,0.2845221722797051,0.1277529290881023,0.3112518824127822,0.7001211450576814,0.8548155085978402,0.07762469849155944,0.29817272825309704,-0.201785479093949,0.04680914407114202
2.0997964096343256,2.9306517329407313,0.2212216080474892,1.1022152383878654,0.9275621503877244,3.2799856379692223,0.9286726784103032,1.1824215089643635,0.11900058881229535,0.467845968258865
1.1291685912008211,-0.28979579135125655,-0.11485321767157951,0.8869797286096754,0.9042823127018745,1.1456696331208147,1.3733067962086536,0.6918245233091658,-0.710194187512907,0.34209713389133906
2.0276077591482746,3.3252435438815198,0.27768151330436464,-0.23581770518043715,0.43950685000909867,1.0382491439148849,0.00014344277988989076,2.0272279394551687,-0.3348191211096546,-0.08679687249452751
2.842493507523865,0.3928298533168568,0.6371955566124292,-0.11676209216295164,0.9319288490276272,-1.282551847297405,-0.19360446522236582,1.4339409393108178,0.2518595110604018,-0.01174143129113786
-0.9706477322456204,2.5965791588524123,-0.4290159574740068,-0.485320019795859,-0.11117879697987954,-0.8010975694064514,-0.7064816155481277,2.2229631125522333,2.2718749126209787,0.02778957513467588
1.2980167353469998,2.5493235651148107,0.1511949671298478,0.746733434574241,0.05585616411223214,1.8758210545598948,0.1599396898778577,0.7459613354360171,-1.5510446978848138,0.1712581834180616
0.5688002973377024,2.468607294699411,0.15608869758650387,-0.5231105837360546,0.42289380513140196,-0.22990269374107308,-0.03334114224518412,1.6537991098144114,-0.7531275328073845,0.16097588399473783
0.9008715146522082,0.25256869747242017,0.3737019516620936,0.644979062735259,0.5842343825065709,1.8173224524586076,0.20815334579572667,1.7346716865579141,0.8887977637438581,0.25955465684782886
-0.6076831955317543,3.3376945797657047,0.17694091241251336,0.7202978749523724,-0.8111882573962328,2.855534454280579,0.5992370309218331,1.548002771821773,1.0682830327270234,-0.17917252705163073
1.4124963271210467,-0.9254992045901126,0.08899678393078182,0.3100294103735047,0.6251664689724713,0.927817557632973,0.7502094266771496,0.6636713379123786,-0.22500401875426346,-0.06785873611690349
2.5778776946393176,3.2533722115213806,0.4680289578205213,0.024592590191098846,0.6803110331921917,1.1476248834468545,0.20256261118770916,-1.1793197761834477,-0.5130932182212048,0.3000791442004194
-0.2459437896592891,2.3643496187746758,0.1810624693930091,0.03710759841382113,-0.08265710213319266,-1.56031126175766,-0.6526600333512758,2.0186770963286094,0.8896783543978362,-0.1599568961078715
0.23692559666568824,1.92435747127627,-0.2625601372115182,-0.07577372283941464,-0.04307621258397077,-0.6224353872531182,0.035409223097347765,-0.3470447301582611,-0.4772463517946077,-0.11804250158357837
-0.8618355099662562,0.8342147245305813,-0.3772751615350874,0.2022741949897091,-0.4825969984266933,1.5250234353175356,0.1636131359801085,-0.2733196696371602,1.3850596699933124,-0.2154604118494101
-0.9185137358266429,0.40308809205965224,-0.3853117012310616,0.27636088036040163,-0.5019596148798451,2.1943143251595467,0.5728593767039522,1.5168529413007015,1.6094778232427318,0.1445642446357004
1.0640327251116481,2.388811109480958,0.24802420251812693,0.9059116428182202,0.16467171496609345,2.9697578288478956,0.5198589501216837,-1.626758519409309,-0.09059675153687191,0.1452068654549286
0.10813001152655866,-0.17649113230197244,-0.17968303731208216,0.07127761502972398,-0.32411305211255564,-1.7541269332512603,-0.16226971505411986,0.9997195344616792,0.7313235934955153,-0.2053496062813433
2.0787524123363594,2.0083560012737585,0.6278624830862286,0.9803343261617464,0.34701024921584134,2.067892864471513,0.8791847692575823,-4.744526535771497,-1.3182092974143245,0.20756120088263585
-0.4085555804201818,-0.6757086214646146,-0.0030027510234848205,0.3939251745665385,-0.08417485435196569,1.8874678827164661,0.5743332526026844,-0.34965323618841154,1.1698667806801968,-0.1096110669776503
3.1845617993722364,0.9408501155668572,0.6251112091346634,0.35563292339931,1.0421269301160805,-0.9103371238788514,0.887531892354554,-0.20351178435820383,-0.05493041132262552,0.00013529329052672234
1.2476370673003805,0.9858450203486662,-0.12483358918958885,1.3954493213856527,0.289036637802869,3.620107435239891,0.7390228326446863,0.4415426509769754,0.26133933551220845,0.3669635130382124
2.1709016841410484,-0.7842643562344911,0.39140414085124303,0.5449122740634056,0.48588285725025354,4.468088896373407,0.495545492281985,1.20571431751245,-2.262859311742904,0.1858146569123798
0.6387303179874992,0.02715315140708885,-0.024121952190148496,0.29069139103059505,0.11666602737842069,1.4459959830812639,-0.1884555489996462,-0.12003279569452074,0.4016575806052635,0.33948825707749813
0.5171232070099165,0.21143679116705716,0.009848722053892233,0.4190557556979001,-0.16050902241811116,0.5112881041520624,0.4737418748149142,-0.14913793058577396,0.5857469329089112,-0.06212662480907515
-0.21625757484411134,2.724627217778798,0.04540257823222516,0.32609869879942066,-0.40251420301739,1.2269190673223203,0.32204415285689325,-0.8250003076695189,1.9871169368832204,0.10258803799292607
-0.9124603129960286,0.06332342809643365,-0.043034067390074426,-0.3374949463016758,-0.42836762877347623,-1.7674244398693986,-0.23352788054002774,-1.503631324486971,0.014046650007617956,0.12398651070186648
1.9499866174830496,2.798128249392672,0.3260701058090309,0.0217340264842475,1.0707951666496396,-0.7600403688989052,-0.611271846241763,2.0338280373130075,-0.737627386525212,-0.24714984959113326
0.17315730403397067,0.9550292416233774,0.05247748813826399,0.1954426407267373,-0.07738719557805161,-2.324674215318785,-0.32409461170108483,2.8113354575258946,-1.2455416642538033,-0.19634827609549163
3.3543663721534047,2.96335955641704,0.4363732580412792,0.9554847497363828,1.0879051913435742,1.4065411019416332,0.2360448731742534,0.2412274413502139,-0.9391614655939609,0.09387819815999404
-0.009271422104119798,1.5743022198007628,-0.08103429753902322,0.5322647806924953,-0.44272544900424393,1.5480546092286156,0.06460116389151346,-0.3152421976006228,-0.06206707541881762,0.18179750664905098
3.3566107731050625,-0.7834309193318596,0.2744604055249684,0.07586145158397915,0.9153495794553315,0.15495239753912687,-0.4750470509970542,-0.14087646338045445,0.3785498779501815,0.23530367607026606
1.4901488087036672,-0.5142319822564991,0.12882223065158033,-0.20988503552237003,0.7670663811983933,-2.51834010614248,0.4827838257552461,0.3628504366758242,-1.2792425356583355,0.11560374247553643
1.0750327218484244,3.038187213511148,0.3120962744337534,0.33761325064079273,0.5830643072852496,3.2088257690708977,0.5893057048271968,-1.558765706242436,-0.17699994669292557,0.21423705589734793
2.3331843832955004,2.0289363112569045,0.39607580267881587,0.16376022242029598,0.9721563045316912,-1.037807271677018,0.10719421151536312,-1.8593322356443513,0.967640025408049,-0.05383414867958927
-0.47292811450433736,2.6536893568542976,-0.17592743423079502,0.37853029976604247,-0.23575632457491286,-0.3225198151587354,-0.27536460463996076,2.3353260060048076,-0.9492879490120651,0.06454306698873039
2.137740096801465,-0.9233677375097886,0.29531361088576596,-0.213898353176675,0.6709634512342099,1.6557244277727707,-0.08860405235189005,-2.7367638226412954,-0.005639823939304067,0.06285835973292411
3.122274899014659,0.8496461641572044,0.6544899637916197,0.3197798268819023,1.8018153182757364,-0.04829158319756435,-0.13855090738658712,1.6009547936214155,-0.4393389371294956,0.10577154852920136
0.02737725104338473,0.5120875611882121,0.03415186801268315,0.01471157830869882,0.5807458476944857,2.038544298795974,0.3903228099587532,2.8962067399638336,1.611104789282124,-0.03284950935428116
3.143846460072334,0.15588576520218833,0.6171526306659438,0.3251871462918669,1.522011448054209,2.7684886020104544,0.5088927704297334,-0.6944615423501976,0.598128047632829,-0.2084215590247492
-0.02029646968627541,2.6872660633974643,-0.3688352387519053,-0.15046380338663107,0.3846175234065928,-0.9154485545734592,0.13334595041242595,1.898237647505162,0.43425449418815787,0.10437172431138791
1.6140187280885527,1.1875620349601093,0.4109088132240521,0.6859217023380311,0.16404465655950334,3.0930338234841437,1.1067175641911378,1.7358424274499191,0.06333203425218342,0.10582807226943014
0.3883836405248786,2.461805840386191,0.024848900019925513,-0.0035278456759795965,0.6525085202172642,-1.13353509315429,-0.36091064789608396,-0.8162800413228245,-0.18016294531771365,0.1601890032977626
2.144533115797693,1.2763430276768748,0.40797546191766215,0.3908103381715549,0.9828606650549399,2.292871525799234,0.051533187634762674,1.9668930447936952,-1.0569506896669258,0.2976226432027027
0.0061650417011838154,0.5804134838558941,-0.02319696000950175,-0.10016816732801291,-0.3380080579791447,-0.10182932458118919,-0.24934142609515425,-1.3664725931743016,0.21003418933490903,0.0944573481601039
1.22609731022638,0.038500832996420487,0.22733107231469737,0.31737533142198726,-0.03569133566280609,-0.5668526608015549,-0.13419219795835197,1.5228920348030142,-1.2452649006570113,0.15761164603105937
3.137342645525619,-0.043516030820230145,0.9422495547510259,0.6094404482346214,1.1564795677183741,1.0491752134740553,0.7725616236345222,-0.1955663437338263,-0.04914594274960976,-0.02966110184096873
2.888422041609132,0.6402769383636084,0.6927296504045073,0.7805359791470139,0.5551523701996198,2.8994285062126766,0.9562523947736165,1.66336319662863,0.8859697521170141,0.15320172901633752
2.3654397043018296,0.6402624495743179,0.07382083101969492,0.31664513607140343,0.5467515909123868,2.9715853672776675,0.32221838962925464,2.189958320789924,0.18211641620487978,-0.042218777672708055
0.6739753373512758,0.35324798311499706,0.09156364081304996,-0.2996701549956419,0.2004122636766864,-0.9171040930636568,0.02531892340939031,-0.6515721540372573,-0.7148954146414452,0.2330166260198176
0.46211492181757263,2.524967190690843,0.10339436065952103,0.4219317903803112,-0.3239065438144824,4.086241396338272,1.0905446312688691,0.49581607228014785,0.1326864321977259,0.09954403507838575
2.3932273375979345,3.3740334572430672,0.3589940655048097,0.7054028649284155,0.5122030854474643,2.857851835883356,0.7263550675248075,-1.0611314221567347,0.19212309661041535,-0.05567414805160857
2.959704198637619,3.3652134433956267,0.3964621913131308,-0.21055965137917704,0.2823416468573489,-0.45592074992564213,-0.6011485237210394,-0.1965615292794345,0.24482809036963843,0.41611845697991723
0.9436584363024858,2.9864131237740015,0.01808845936796304,0.11590915837784971,0.5122795131858183,-0.915457103224601,-0.2522965199529492,-0.02807035080477438,-1.3795190202518344,0.012196140909511863
2.509238715728325,2.767802838431441,0.17818325296114343,-0.1714828119264106,1.1165807918095683,-0.27383418397595394,-0.35994545606919254,2.515285787058313,-1.080069067394711,-0.12067852448762299
2.3510619920122613,1.4673883754993535,0.35929228249749856,0.469435668214324,0.7851364884457084,3.8421813941094762,0.8417387767758135,2.777419357175469,0.7151957605602135,0.2734938742768183
-0.27418935178524173,2.97608955527472,-0.1444767578809568,0.6389370994234833,0.4998488431417855,2.3165496488696533,0.32926923453523305,0.365309192393248,0.998116104318828,-0.126570517855167
-0.12327566615307028,0.8064227891007361,-0.0940669550437623,0.16810409369660717,0.3033510348297674,-0.20459604943518284,-0.004586052555642695,-3.2899855800880724,0.35956451608092954,0.33726600039155313
0.7881126048864757,0.7247332640760484,0.40280702659528184,-0.14814075425975254,0.43390757267126745,0.02425609267533968,-0.16122586389695953,0.6420739987404294,0.20526962463226728,0.2009915414657556
2.9862214910800677,1.7306767480436305,0.30403320201610123,-0.02847625559102917,1.117028244327086,-0.14898382734820081,0.30062596563736504,-1.6268175881538594,-0.43499431630301494,-0.5780736786961221
0.653460821835121,1.9764386591973162,-0.19407285356902404,0.27654847491338863,0.7688327058670646,-0.7842218242945956,-0.1221371920192414,-0.12220606656170299,1.019263116294869,0.08455989902178732
3.2200963822751634,3.306654939387017,0.31931706065052345,0.7075828130150649,1.138448358185147,2.3294818849298555,0.43413950174847793,-2.2454943118425383,1.663006141887141,0.2230547849869849
-0.08757969396875198,1.8671423229229394,0.005205981837996805,0.550639049910558,-0.016845415591818767,3.745718953477496,1.1218961891865589,2.0827298457610324,0.23925903775154533,-0.16022645232926452
-0.025233015026096872,1.9384773202759717,-0.22844272475161348,0.35948740680962876,-0.07619684931155317,0.43799899641352735,0.029171345234788877,0.7711234661240071,1.0028800752572533,0.03698432975410129
1.973405744465146,0.52533286519699,-0.005406079424535418,0.1235764389681866,1.0271951598282105,0.5001209887343034,-0.30768179342036,-5.718493261319461,-0.8097978678194422,0.07620069457829085
-0.19425913561388997,1.6738631766110545,-0.015026587695881506,0.24502074467909093,-0.25267190959648184,1.7595071341292325,0.16663068981461268,-0.24445480730599656,-0.2927258224826087,0.5114022666636842
1.3017958124482925,3.38411890958405,0.10760908294321293,0.5381578003717721,0.9225220445384131,2.4498450401364367,0.4357377054876676,0.13649208447724415,-0.5207410305506036,0.2407740229498026
-0.7839296495455297,0.644447761187918,-0.020262410993773083,0.24923729240495737,-0.4014879773392935,-0.9096732599433806,-0.04662582845881643,0.33692963338183357,-0.0784100870564241,0.24658800024541533
0.4049872168726607,-0.06354934963179115,0.013880583734741497,0.682643717075197,-0.1412077421636079,1.212126093546728,0.6771652641455396,-0.2659524437027613,0.2226743669016557,0.27953151502080964
0.7948484612173279,1.766062853071733,0.21163546943697953,0.7276001695096237,0.38059924646095994,2.7895505630497,0.2704386150515444,1.9825165057896534,0.4302594913994535,-0.07872847934255527
1.3793073724263283,1.874371143771651,0.31373089828443546,0.6459794128389468,0.9186366761050758,-0.009788812979461436,0.5686090607688676,1.3637407823269247,1.16334889486953,-0.25291853879155723
1.8781343786384412,-0.4727746418575549,0.11969693925983053,0.5429089419239697,-0.23363836922011544,1.2771762423058637,0.37953008095845325,2.3945642351164196,-0.9375062803902103,0.07839119425531282
2.581154098809705,0.660114452959156,0.4474032161112951,-0.49374042409736335,0.6045436162878373,-0.6342016127201473,-0.23961876954359035,3.173221409676221,-1.1996088237868494,-0.05674040043260836
1.4434440136041586,-0.0970482902187586,0.26900004645017545,0.898823327247091,0.6239183874155717,2.6101507388923433,0.8556532798574278,3.56296472658692,-0.274750366436295,0.14052321256090988
-0.08053141968985744,0.02306544301516955,0.1521209342619745,0.03622240890264657,0.24358954114022388,-2.0640965057829987,-0.555637626672765,4.039795774896081,0.8096498863568748,-0.02141643305641322
2.178569050319897,0.415708358102862,0.2706789652835822,0.04794117270973623,0.6349864732746738,2.4353718294808937,0.9366791704493483,-0.8496957186657855,-0.859388973688262,0.06489700411706138
-0.9850253487339146,1.9883705186578022,-0.38520724641588094,0.6897387077257365,0.6243567825708871,3.850466907371817,1.0908235368097263,-2.7512616032017494,-0.8153458962857356,0.021259665048420973
-0.7910427900710643,1.0538484064919995,-0.08745095159878499,0.18340827547338104,-0.2011106900219051,0.24750469527332591,-0.023424585073938076,-0.055263304791302925,-1.562829632260992,-0.04424011495173236
2.2383681749023596,-0.3569009650708186,0.4507480407132983,-0.27788011269032953,0.2283614718499547,-0.4871620081663615,-0.036184679203545164,2.535628768166689,0.025840651831409073,0.3371618603885865
0.06942461072902084,3.215302620647246,-0.044977102716609055,0.19765264670793428,0.32178022615695046,0.07467552944572897,0.21680999174993842,1.319718181365226,0.5403783346030991,0.4493738056146036
-0.43018965028113765,0.1742876513244891,-0.2681773940346817,0.048002183127041236,-0.3281033079132888,0.789807281649865,-0.24565295754757144,-0.5816040256989696,0.7913083314078956,-0.09273477083383086
2.2006266539497243,1.996715159702895,0.2364801465097513,-0.05347912072398129,0.8343588202246355,0.8850477567040241,-0.41419294320997035,3.591342722104412,-0.6762999753900969,0.3930465937111302
0.9232090372883506,3.1423517334557767,0.3164184121903367,0.650743702538051,0.042481083779092765,4.087957558290637,0.4688745535839032,2.077337612505591,-1.3309147118531897,-0.23115242031803956
-0.10907173693334549,0.42495570272960537,0.2831807052683297,0.6053076318119258,0.15971886324373094,2.906116039841278,0.9909625918048498,-0.5803247614788541,1.691452262121552,-0.3519290195605601
0.3340129112465795,1.0400076224072063,-0.021990122377830157,0.6365082322757499,-0.5007724713688564,1.1505257454043776,0.6033074976537824,-0.5513275649977352,-0.9021046079939129,0.050303852937885044
1.7560529364440947,2.5944793343422567,0.31124574219587914,0.07751968252036151,0.8409526976399736,0.07576475749968442,0.3124572937998872,2.9199130385924046,-0.34764189587349215,-0.12015483887305851
-0.7469701845466094,2.2201916816065115,-0.2710558952930123,1.037525025486621,0.3802373971134309,2.551816704810039,0.7125439584345716,-1.0719957380319767,0.13341696629567631,0.4574853389353799
0.8423628609307066,-0.8079603932759643,0.4244921502824186,0.29641045468563026,0.5738899566387593,0.7958770954205432,0.2702934545899233,-1.1975145554946134,-1.2507271839505965,0.22706623063250392
1.1899478588085257,-0.9430853485436698,0.4538445560722574,-0.2603821931804495,0.13792140753520352,-1.339532704083775,0.4906382671541947,-1.3050231231841065,-0.018707670684229155,0.00495148339245105
-0.17976344332551264,2.834403355131575,-0.24018430682725242,-0.1981883790294674,-0.7766601230668334,-1.2086528445358584,-0.5436565275828252,-3.0404127428040466,-0.248417342618453,0.24734727945958734
0.6487194154154614,2.6286959118919087,0.36148354588909315,0.9719769168348535,-0.025246517119179156,1.5130226631226968,0.03703595780895483,-2.030320823528526,0.08117951457926287,0.25418989413007753
0.9593492970856166,-0.292106037145365,0.08690034465476233,0.11241694935653519,-0.13805541724778495,2.166102704815251,0.47059611819995106,1.6655858871122684,2.2608951770357906,0.12504522238977203
1.8630197334448892,-0.509592713234535,0.1303919817030371,-0.2793242205582577,0.3709643166854407,-1.171540770607971,0.3524771935969231,0.3700137171180465,0.2820527660536251,-0.3458457072209377
0.6041898107652279,0.8611902526089963,0.036069306645450085,0.4578167819299146,0.21120609517012906,2.2234180890071578,-0.20814752625978922,-0.47325982072142114,0.145774462366296,-0.046496342412561065
2.5971512500527454,0.00438697629070206,0.49058214540604583,0.19388985205655787,0.693824107874316,-1.3264958151647641,0.30837112329890554,0.5759631939606371,-0.5445994558429633,-0.08719797798252796
0.561679396064563,-0.8361012887606198,-0.09894604383482734,0.6837504197295133,-0.2338712018214213,1.7749683169043649,0.34427581947885494,3.6246347669215835,0.7935554677878457,-0.05857130154909909
0.6698644847391155,1.4493556895041348,0.06393280302142863,-0.1814343430296638,0.010816270824285415,-0.868616450441456,0.3095261038900229,0.8370699615452789,-0.5020090649865215,0.22895331190803878
1.158031793796872,1.0474570968977917,0.20444710378892242,0.04077835816617412,0.504099062741175,1.8151458544159167,0.008694512836831154,0.7524727676886341,0.4259243974366028,0.15248597261619368
-0.19985641077392657,-0.828264009619102,0.029886724170400544,0.39288526776951804,-0.08039670077057577,1.3297247829129137,0.5083784067868191,0.6566651079232977,-0.6122749658434211,-0.156384412095633
0.5948117723449751,0.8015054175740199,-0.0072127930519742,-0.23639998147528435,0.18556221401629777,-2.0072801828255167,-0.013276719526174046,4.425754370753935,-1.2081436604270368,-0.39056396467958054
0.8134696250258975,-0.5670475334776139,0.4695276193377816,-0.10349527796796856,0.9099105991735829,2.0586666851875126,0.18471285513366906,2.532491715807906,0.32135142000579764,0.27111211462210305
-0.19423598078936377,2.362425707361839,0.230287081495494,0.7535852153555136,0.034793721917553776,2.12049441649239,0.7625189018193059,0.7791454651144716,-0.8414713988506574,-0.3516407166441523
0.6102163938077954,-0.3116709218637559,0.15616291927774248,1.1247989703309045,0.29633682106542275,3.6143605856436327,1.0103077353899108,-1.0908352166517103,-0.6272312187177221,-0.03716243504483605
3.0612527376971244,0.35241024501681495,0.22794624733761584,-0.2584635689550553,1.4211909652876127,-0.543310196032378,-0.8510369739630844,1.5625017936054126,-0.30834696053641986,-0.31736622169343753
0.6583004525062544,1.8743738985383143,0.14225280941734422,0.2495154856814502,0.3063681089085151,0.9630386691732095,0.8567819719849914,-0.6915592146437122,0.24453047711071219,0.09439748521526767
1.7235365814731143,2.140702813805784,0.16235810765489114,-0.19831167380834402,0.21581818067034544,0.5989440367693275,0.1557402630212453,-0.6325445714891148,-1.5390770836789676,-0.08403622756475222
-0.3104226234276032,1.6968877127684538,-0.08761104417362946,0.6333285149926993,-0.2404971725063858,0.47356617685592184,0.5645397536217572,1.0658733639563094,-0.1895115034895366,0.2036050449203765
-0.0738154935744717,0.23297961120817035,-0.03611387596021802,0.7950298265547143,-0.16380096072146935,2.9204635474461367,0.45793184335501075,1.319361274817634,-0.07515039777691504,-0.17423469307695078
1.1358109367403642,0.6232163289893735,0.17106646740259362,0.19668263029675248,0.477854187522785,-0.7400627791470893,0.06742946069688921,-1.9324948640720767,-0.10917283627190849,0.17500927978892275
-0.18959845376653595,3.2914821313417235,0.0441261200593832,0.40243627410929866,0.46813649259500445,2.226879007704818,0.8571765949630178,0.3660649347887661,-0.7842454811368462,0.2402750057812003
2.3049430100975057,2.8405030638060227,0.3447431739334813,0.040255665106948495,0.5437242470616681,1.0184540783980194,0.025544566526147745,-0.14098403384848424,1.1525885823034367,0.16931087842681514
-0.7789092289286451,0.4916681739440474,-0.2897701362139437,-0.008058611745117369,-0.3285196015696494,0.41901265487084915,-0.0031834328761423452,2.4408639646030883,0.536008662716948,-0.3908421139673757
3.392038419846757,0.8016376275194115,0.41483033260518143,0.12909911947916397,0.9860847015756624,-0.7534359977901505,-0.279615506636749,3.0145097623374904,-0.13254633387900489,0.10041916997988981
-0.26552155418635404,-0.6832223594722553,-0.0770714503376304,0.11549729044794471,-0.11332782334364666,0.38052470907496266,0.4088123618659772,-3.032386434598497,0.43790788251481594,0.15775747948802382
3.129053552270274,3.4103290267917465,0.4521621296602377,0.6773151886285543,1.1793549177506986,1.5171149413385243,0.9871639535236502,0.7082811269477066,1.1192255108755917,-0.1730189789896285
1.3778947963487895,-0.7050649975493728,0.02955122776189684,0.9416569276246282,1.0841188560893702,2.214450935880002,0.7194376301375625,-0.571314842905151,0.7469386344764111,-0.13668459431316626
3.0722900517934404,2.696383631594284,0.2987898765891072,-0.033296559049823156,1.5669325990807903,-0.17190820063255247,0.051088169960598326,-0.1722942322101887,1.1275742032380474,-0.23415182916919808
0.06675522083416419,-0.731427975614272,0.06152066680343752,0.2508582615555468,0.20302370275812462,3.075500996750155,0.6124324029183453,0.700103778461337,-0.08111265729327743,0.1804315061285897
1.2901695202322534,2.9685745459935484,-0.14737171624716838,0.17985579011928218,0.21022124808066495,3.3919030096194067,-0.098866492045826,0.3209116753100633,-0.022991879985000754,-0.17216809749216122
2.245063809482034,1.0415872693730144,0.17417832058608823,0.028982764836450767,0.25142865172699785,-1.2260031598092975,-0.18515003916200734,2.027949160520584,-1.4103712988968524,0.2535769392265509
3.102550950921936,2.2490360344717772,0.8558298580794058,-0.025407113746980334,0.9794814864577753,1.7920929026171537,-0.26155576835382144,0.8760253511375334,-0.2667359768474996,0.330751757831576
-0.8566964125368541,-0.5861501803043566,-0.210149719470588,0.6989983685096114,-0.09947749702044628,0.9400288538045253,0.1855948685344735,-1.9684602298661584,-0.853717831282822,0.04744908421880558
-0.26970473230669956,-0.6758041240056631,-0.09627376418883576,0.09026408627286286,-0.970266216717688,0.4281221639494266,0.6077478775428362,0.3388449269465635,-0.31814460254941535,0.326168804927599
0.9754120463036877,0.05473704191738804,0.1269706058955092,0.22819828360269037,-0.10538960588633509,-1.27324250122747,0.6372799885269556,2.0094711826528684,-0.3567649499210711,0.012600945742847258
2.310661878729589,3.1537125154303496,0.3740019809865838,-0.13386176450670706,0.8980894520107623,0.50536253136088,-0.4541152110312106,-2.8600900377656613,-0.5785927557483272,-0.24121860255405658
-0.6253329847139596,3.42814307569917,-0.1572844432797505,0.5981608522976197,-0.2542466733862712,0.6741178958894098,0.2823600241581982,0.6384612986154077,-1.5742088435229538,0.6049218298797108
2.623668346977367,0.4441810993920825,0.49160379626883993,0.002826305179304275,0.8560603823622589,-0.4143825869830686,0.7667253333929372,0.862114148787066,0.6458162581364185,0.04037745302598092
2.9543703155880006,3.231222574412289,0.4155109102136031,0.6093320925768368,1.213080012399202,1.9329890881261411,0.31468863890284204,2.1860525763263805,-0.7009542601574155,0.3871746981710895
1.7866125494995995,-0.2808990181627389,0.49513341934736493,-0.16404369152201997,0.2614241304597636,-1.298887271754877,0.5695839154558784,-1.828181244448857,1.5905911043809753,-0.23890960115178733
-0.38589123237805445,0.5690244904917596,0.05622797351788654,0.22675089240300125,-0.0895394435242947,0.15458500803024433,-0.3783959617855212,0.026833904194801306,-0.9643959827642741,-0.12518997865866133
2.6849458952533953,2.7849694809105827,0.4190265435963492,0.33603927525224,1.0408581731338846,1.229400869312973,0.8313028191028307,1.2207365151158918,-0.41472361807721475,0.1635059304177625
1.5790804756002337,2.946648134712405,0.3929551137343596,0.8697881829930766,0.08116174752106231,4.235722610942293,0.5141645512711362,1.987736222334183,0.03176403097989697,-0.07085522791806838
3.238801730941823,2.3084877928795824,0.6162228387542574,0.21934257694661172,1.5827371939189887,3.1154014475903136,0.49786908134446073,1.3156711225640927,0.5347799944811925,0.263221919954015
3.1110787540459537,1.7473361335881066,0.7156510870789238,0.23858345162152217,1.2506166400591658,-0.404260246686057,0.4282644730262015,-0.05455290999035217,-0.8842378949942218,0.4064282701812264
1.026137794815713,-0.6436863855237078,0.009647073676295864,1.0594218826585395,0.23628167777013379,3.803174398338,0.7554239001190027,1.5587944434752004,0.6537399847615428,0.11128437708113834
1.414028778668686,3.0422124723546524,0.32142166305195136,0.6732914345810742,0.8752087268784862,0.9789577904185143,0.7404011506909759,-0.6004704392041054,-1.2300735192381451,0.06755783003281832
1.003074137134338,0.35558160520447313,0.3435701012823538,-0.03491372943014557,0.6796597394880025,2.168401681248141,0.7893764165115701,-1.3245816500095746,1.9285210858995214,-0.037951137621662925
0.7362402769541785,1.7135044544181035,0.1991471444238859,0.4191983778928155,0.09230928100002415,2.1912635857249025,0.6331257114783941,1.610758569661241,0.5344203312437237,0.24950904423099324
-0.8547251596415947,-0.059930621075343304,-0.24245770731568642,-0.20737763565369477,-0.18618280616394375,0.6993964042811132,-0.4513280984770287,-2.0575819565766964,-0.5510078669704764,0.264729470164616
-0.5707498445526328,-0.9378708773879896,0.04054066406770867,1.0852842684511896,-0.9437356437065424,3.752436423980197,1.0848351398446843,-1.5236560129839567,1.660875884715284,-0.03600299198999011
-0.6131461464997008,3.2319786235046024,0.017409508396070965,1.0317943359268074,0.26843591403862627,0.30500882676120145,0.29237858283734774,3.0670219053387138,-0.8282078790354871,-0.07604324578220294
0.880564951263072,-0.579062094150094,0.011687764875540678,0.06573966034249715,0.4898568225187077,0.46004211958232555,0.4227300958569221,-0.08644146447774748,-1.1591558185424515,-0.24810011388908482
0.3047596082895976,2.0291029940200556,0.028579113733279884,1.197053256970817,0.42992767913686075,2.629642085235259,0.7692088829854143,3.1686567004889263,0.01913551190475668,-0.25319009536381715
3.347665021169812,2.229082977911484,0.491380291033889,0.21716425120598853,1.0482434787084312,0.23258642177053906,0.1095162951724643,0.8731352512190551,0.32751828608022576,-0.1677002522010867
1.3376392848964476,-0.700965357989998,0.13247232637669504,-0.07043356604408035,0.19440657533146266,2.2596431510577872,0.4540195571597524,-2.4948288885213827,1.1671635136704712,0.1386136466133414
-0.32334444942132345,2.954145614166395,-0.023169656019742503,0.7975818383371044,0.4187987754023398,2.919261884153058,0.7764038516028007,3.1294931039329685,0.4218295767522674,-0.02778783995900902
3.433398335046342,1.1425556467240794,0.3651881658489907,0.2686188270098423,0.7797183605854341,0.3024003104567019,0.2727517876230452,1.9711003849152533,0.4876782088954214,-0.10194417090623746
0.3196031471087968,1.4370773834884112,-0.007961232680357158,0.39558913268494894,0.4823267631713141,1.38623250652638,0.8394900895074311,-0.7726717823132845,-1.6284732255544254,-0.014937148555237312
2.8083885457531808,-0.275779218171892,0.629723120810781,1.120703102977327,0.9452912309203823,2.7390206232434875,0.6568465223341694,4.32147075905006,1.4194843250183762,-0.1813618029694294
-0.8546028909903965,1.2566387019576073,-0.23436637599171936,-0.03635665909278097,-0.8016964647196367,0.6587450679278459,-0.04049708540800609,-1.3029055380132664,-0.06399676602930612,-0.07059082402494866
-0.667273907733746,1.0415215075790378,-0.16240915061865627,0.5462127006938149,-0.13307335504400372,3.1331687024130312,0.625533773407994,0.8779446840549563,-0.5083577438693807,-0.14397820727735355
2.2579746346828387,-0.922042729207289,0.2983635358046333,-0.04305929433759183,0.960979188100532,-0.9543975140935724,0.38901756465642345,1.4472159437336252,0.3008414541062632,-0.17951381169450267
0.677638605887515,0.16517320079344433,0.012818800774247593,0.8605908078653604,0.5396368697651117,1.7351178524088846,-0.08592288141231852,0.9327875304077611,0.9706499516189917,0.040640503270099444
1.5522391286674293,1.0586458479356193,-0.007559908006085828,0.1506645939762509,0.6745830406504781,1.6105152682260169,0.5017507423027767,1.0842963074757588,-2.261372696391584,0.33821520992456766
1.6627527422617407,1.0747106985420474,0.22972831795151052,1.313195388592342,0.3981533372414498,2.1181584657969372,0.15902686506119337,3.047757204722191,-0.2609186143527826,0.15276630100808897
0.03840628845546079,-0.39503106510532926,-0.01434353061915511,-0.11944828335309335,0.29384450788097033,0.851993450528689,0.1696569116801348,0.9063583658881521,0.9552937994382436,0.260886615340023
2.505287153556182,1.1992786926831749,0.21469760393321802,0.0216979532538326,1.371384477657147,0.48959236062426353,-0.01837803096377652,-0.37828941753227463,-2.182281084080751,-0.09921979884069315
0.5807359250992805,2.9499337414024445,0.27985474037340563,-0.00025628821161328307,0.1239609841296638,0.39896652455599924,0.2717472858890383,-0.5771927387571834,0.20582748260527334,-0.04678272260506647
-0.552465166314681,0.7100521790796783,-0.14844393614731946,0.3748599843464172,0.6197087679270337,1.2409838737074994,0.3501917146552053,1.7744312873421868,-0.3153517784748657,-0.09487177027137537
0.774394407773694,0.24204000359044597,0.0014108687347390246,-0.3351132557557473,0.468153496610692,0.3259538813355868,0.09661149741308778,1.147708221810444,-2.2969680964492714,0.3888587496311144
3.2856207003860085,-0.4531246577017596,0.6174743462917608,0.8901230874049536,1.0340667730133752,3.738154438191091,0.7096808271414135,1.2309276411145305,1.37088813710731,-0.033435161831649546
1.8899794536808159,1.1189232234132551,0.2561259709322311,0.46302637218030207,0.6369288891763119,1.666020124044856,0.7200654662967042,0.9639867143793217,-0.8025151387914646,-0.07177501537212506
0.9426984414912687,0.42272336006897304,0.18174156325441965,-0.14215536030396647,0.16029514959139124,0.4837431363469217,-0.3094451899832846,2.051044207177369,0.427637106262795,0.27799234620700874
0.8764901929320104,1.5746635542199283,0.35272351722276213,0.3500161744145909,0.5409457569562764,3.0880757931777505,0.7006963395026594,-0.7048159444446502,1.5315781542584914,-0.22840818598510554
1.1390662290091234,1.5450039175119796,0.056422923475700076,-0.38468484613487364,0.269773584360784,0.38873024648336313,-0.454873566713901,2.8511318750629906,-0.28615308021156327,0.21937813813962995
-0.38994077260971605,-0.18649770160408674,0.20683844733485154,0.34780563850378327,-0.21005143060501646,1.6383796651430667,0.6155540009956858,2.7354021510052577,-0.3249547017178644,-0.19550122571640752
-0.2678562318475085,2.6173326038452176,0.19403461283905002,0.33184605331662353,0.33569612603696114,2.4182536772359473,0.15026070833270386,2.1140781408174725,-0.4640184671202271,-0.19506374986668126
0.6426049135139895,2.1551987529784795,0.30395120330618325,0.3579926458663143,0.040455608880224175,3.093705646585729,0.7574672239521664,0.3503317791198723,-0.5190314546836665,-0.08577958561026958
2.0357899185957904,3.436128727161292,0.35642737539693176,0.48386506044637756,0.8717250111787537,0.32048712601399126,-0.030508988903616256,-2.721491326461733,-1.739804773781208,0.20980275272065513
3.157380420599363,0.6598024946870251,0.2516440690811698,0.14303001977364546,0.7025372228751035,-0.39133309613752887,0.18348529871810815,2.6851781269088972,-1.2877402763408239,0.19966962322152426
3.036735661260119,-0.7295684571312576,0.5940006431073377,0.41329194641944894,1.4721100998663297,1.1912814873421962,0.6675769428707403,-1.155450421121067,0.17685955646542262,-0.29839612913253677
-0.7803014212935298,0.9449118988727936,0.0737793015740123,-0.3122747481436549,0.03116716701186085,-0.09257827623136355,0.19877913402520847,2.5877006325645633,-0.4336496613438525,0.5263975126857428
3.4573031325495673,1.2553037383698373,0.4135210272600763,0.3120359527153953,1.3726429054237803,1.5634127138029348,0.5525169361336673,-0.7393739280287228,-1.6796238225139948,0.27395131007927753
0.6994320329410668,0.300138837057931,-0.15543894072222753,0.08328476163646828,0.14442110015152348,0.9032984721575511,0.4083801766637696,-2.101781756434742,-0.0179414276569253,-0.3295538391298129
3.42270973412609,1.7713586304288294,0.5105795311920687,0.5429682353147894,0.7731060229735947,2.6276237502534108,0.5554983353467516,1.441148894226964,0.836358365682649,0.36925572246692673
3.1312117973821945,-0.6359346353834074,0.39254468458636477,-0.03685436704531559,1.012933922020568,1.5224975594800398,0.36001682560468173,0.8540176005675557,-0.5682979100156722,-0.16888648734771639
2.3576367230147857,2.563060973415506,0.3684087565685841,0.22559864357913875,0.9966391434885323,0.18935134767711237,0.48506475364531865,0.8748521601564418,-0.9563557802975982,0.2430167846542858
1.4015504677419814,3.2711673688140683,0.16392747263639676,-0.1678535928836243,0.1767719427484484,0.12583420822969416,0.15985730623104924,0.3808211822334173,-0.34335503529818695,-0.09383567060896958
-0.39913305925751663,1.484346600322794,-0.476867970261821,-0.40620773003926397,-0.021809210491837417,1.0255129929539617,-0.10507035031404663,0.48899086114629736,-0.3009753948355337,-0.19789680971600596
1.0909742153079773,3.367811062024079,0.13859655548676098,0.2980402337937709,0.42581368844527195,2.5797902747971175,0.35300768306224456,1.9008450267108903,-0.6004898495339169,0.18187333727123525
3.3737074240542775,0.019480743008983392,0.1405398153832396,0.48083177405340183,0.9707647508751126,2.391179129493593,0.7469730960547284,-3.163909854815893,1.1154496534316767,-0.02910385114727542
1.6718386209538365,3.2166198927419707,0.11460041050961339,0.45397793283444254,0.9853122449261961,1.238145839433336,0.43070751092951753,3.4563586742909047,-0.5521223944261885,0.17489922727968651
0.10679237513619322,1.0058136019626147,0.05957210686262828,0.6726076059866635,-0.1559545235799962,4.207908677351934,0.9482310673950424,0.6317021469236294,-0.6070515665233291,0.7783886299803673
1.8456788884697173,0.7678754180725045,0.3528705770063056,0.5448506505392164,0.7171896510217004,1.044816130816316,-0.07876946814199011,1.7180273678553788,0.6993866566486976,0.15341118569676784
1.7761380800086322,3.293283799334281,0.10571900635161371,0.24612166688485154,0.6464353870379168,0.6245045110695102,0.487110406573923,-0.6515653118286737,0.7323260832146399,0.34964217783341894
1.9583736906271771,-0.9777800852427516,0.1653850864720061,0.06600127462316853,1.0925585323244464,-0.2734708518954281,-0.26435954163055975,2.1032818379839813,-0.336175530340051,0.000669737879530119
3.234924385907621,3.457429688914935,0.35924015399720405,-0.0759625197148911,0.6026995307958639,-1.3769282471505275,-0.5352330401107217,2.783897918792321,1.4290746560324323,0.4293801409812207
1.4431947282537627,0.6725796750937749,0.14378151133974,-0.14617250801524487,1.1260318275929848,-1.3215464574824691,-0.36473420641903714,-0.20826834421119242,-0.5694108253526138,-0.1906819923450392
2.2414080229212145,2.302793289076402,0.5540078223807811,0.10375550844138537,0.19236516473623028,0.712034522529041,0.9218573173098374,1.271299214064078,1.0056773712439435,0.19082439148047328
2.5992865245712675,1.6194039504741675,0.5145301186903068,0.7186977791311059,1.1225734303687198,2.3982104963716786,0.6393886712528437,2.370921655242471,1.1406733019945066,-0.08687930267919405
-0.4019576583127962,3.1075379148534346,-0.34385477676018034,0.648021019367072,-0.027547538936375408,1.7119360658117946,-0.09757515819007957,-1.4415727042326572,1.0561495139600674,0.1437312968646716
0.2819244892898287,-0.9565707809706658,0.01937727213722191,-0.4701689518318488,0.5055043604629498,1.0481614946119473,-0.15391249213561822,2.316181107456658,-0.325280694915777,0.09020105313235866
2.7137804907814216,2.973024170742459,0.48201224425464334,0.4118016025385973,0.24681639206952727,2.5698747374150774,0.6945356639375215,1.56950118045153,-0.1614323280443533,-0.21197224431951928
3.2209400053088144,2.4004838522137115,0.6145985536034583,0.5828645598080331,0.6573555807243556,2.474227288476043,0.8676549018038319,1.9538331950834311,0.05413126217209686,-0.31674283055427693
1.1186672896728336,0.04417654579918251,0.26348700570840555,-0.22976366481021762,0.336400889819409,-1.4215091972460572,-0.08079432230519779,-0.830851058483744,-0.22128229700169463,-0.1503900298134292
-0.8865068076785636,-0.23705086324865532,0.04073191973409604,-0.2118688163205295,-0.7169216780363847,0.4922825403563921,0.0954610774649618,0.2696773347403416,-1.9445714188449028,-0.024086710205902917
2.633623358577369,0.5245305586728606,0.3108331917663293,0.486196343668177,1.7275143621711528,1.8458032088640244,1.2762221682158568,-0.45166077365853063,0.9310787879174259,-0.2618374540743662
-0.5182153190457266,0.8683167175169131,-0.07534219974593216,0.07717907695452686,0.23544266486324317,1.4146245587638195,0.24700672687908018,0.37439501812132936,-0.21961551280623576,-0.19906148110025698
-0.57822729538345,2.874184504765657,0.009409645375976067,-0.6415691068953597,0.19379494164054334,-2.4689681728831236,0.04279886468161397,0.638626617462756,-0.8344329187262349,0.2988512112017439
1.549767944839434,0.24781717907746614,0.29507593453152314,-0.22864836302312797,-0.04043336970127325,-0.12008896389792559,-0.22497155906502342,-0.8258509954502704,0.42067610243578885,0.2190301951435601
-0.8393615004498209,-0.2813345065276174,0.03118836726394484,0.28647776775178163,0.1423980627459739,2.977232634994454,0.14856451628440273,2.0695616933227026,-0.5565002115360322,0.059331449493999905
1.8231313299235072,0.5719552379319277,0.26094628283897614,0.32004623900536844,0.8679998026996284,1.0898633126464357,0.2683307694602804,-0.20845451213838517,-0.27561307967033966,-0.04192788104596342
0.5320655693118399,1.9264361851183813,0.19539428903898326,-0.03728590923462572,0.2448481710565287,1.9122533935425654,0.20849843442414198,0.9738161855136463,0.22615936176821932,0.3579582217686469
-0.7759003107808073,1.8988694772435122,-0.04467673070470396,-0.10933994741174474,-0.5779197414629295,-0.3828998155740401,-0.33698638055901425,-4.103872654668518,-0.39828290819400536,-0.0763401327765438
0.17022459646978172,2.381658175721037,0.06129186579727411,0.9716727585104996,0.4123018367332529,2.397777936040796,1.2109222364543544,0.9905812615382565,-0.6336869268557885,0.046668749532549306
1.1110145417498165,1.0541730163528436,0.3021348906346875,0.2923407754182697,0.7879416848281019,-1.4570551382375987,-0.0785582914293002,-0.30551691141375426,0.21029737400119777,-0.5380222423926339
0.29324682903102195,-0.32098604076534343,0.08109764181415502,0.7765438400309289,-0.11447402691384331,4.181404564869215,0.4356431567680215,1.1035656584513958,-0.6856817136507245,0.11946994764288937
2.321955692583193,2.676139825167385,0.32251063611245884,-0.3411938613957239,-0.1442875976826381,-1.9771658835379897,0.2794251306719479,0.9495151680714942,0.11413297953002,-0.10717063469013632
2.2039594040464277,2.321222305807017,0.1597312670792332,0.3359604085736881,0.5642621719229136,0.47250588051632714,0.3781480673377024,1.4512041946703773,-0.6660281731978418,0.1674399347534517
2.865796158806434,1.2074374586611483,0.5067841593260982,0.6377492931400452,1.154737727175918,0.4232531303331415,0.5113181910889778,2.1465198141787813,-0.37285366374635287,-0.08210931947065815
0.1608145072796694,-0.987063045057624,-0.009817160464635624,-0.5643231242025448,0.9017519780144911,0.4927936820551153,-0.2770562313071756,-1.728178435384148,-0.7660204959742177,-0.40412160777557204
3.063390045305776,-0.5667232485778946,0.5094177248498022,0.6565785144078478,0.8710088347874597,4.507260338964417,0.9606234805490086,-0.10506289695621918,-0.21108236918244733,0.35050456426749554
3.4210561988028907,0.5800367221995486,0.5598654924769759,0.5924554042479303,0.9220729739270798,-0.5561368331555745,-0.0033667024819144385,1.9144863903438019,0.20679422767673677,0.3142433164405182
1.620408762241139,0.6432378933508474,0.1786152664619027,-0.3913513841805184,0.8493889891131722,-1.4462970757882494,0.2735191684563744,0.2649401705637078,1.5499960512939555,-0.09349245307362693
-0.7397530011921155,1.1853142476489587,-0.018999273243125867,0.20656693110062724,-0.8413036676291498,0.2552907151976811,-0.07939314547104576,-1.469354560457547,0.8059370144068735,0.27715573822812656
1.39242065498745,-0.32260313575381194,0.03663291013943038,-0.322404757076689,0.7642201425323196,1.5279366265262275,-0.03623504719808965,-1.579079572393607,-0.2556637673217581,-0.0017796335541338006
0.5385038533659448,-0.3601433034591316,-0.09732451081161417,1.0356112710303216,0.035348852039820446,0.34248660026394284,0.4909473438849017,0.8087173890665573,0.06866028618554026,0.0694570293207525
2.7547144641332864,2.1735754788835586,0.312305717290607,0.3008949794640078,0.7719039610673105,1.2518472939482312,-0.08343549986394365,4.2743408529066205,-0.2421186786922831,0.1843358682981187
1.2385187980155634,0.9632788688547911,0.06317919617771996,-0.0905276892772867,0.15171034858815646,-2.78044192772046,0.04127140182770807,0.3112592598514773,-1.0149422173222562,-0.07417356933195997
-0.4370626929913577,-0.36552443965767445,0.11365149965802805,0.8650415848099658,-0.5239213829769331,1.1998304148895957,0.8519976964719093,-2.1356509398477406,0.6715698599190567,0.10524083734648168
-0.19968568532971576,1.5021565563941888,-0.05667826180365359,0.6877193965211479,0.0804377023805727,2.5499010121512127,0.5228691092276739,1.2020427393270845,1.2046736510962697,-0.17032242975357184
1.5349162454003733,1.8066099581448345,0.06575014342176556,0.35077930665274415,0.508621812817362,1.7971551211245274,0.18365660723742006,-0.4921806213103131,-0.4631914771079619,-0.054531004178086595
2.062455471781884,2.692214245423316,0.1318628880936871,1.1645847307415673,0.7057279692163378,4.789616578748974,1.0034345195997143,-2.5405430495922188,-2.4058074109686904,0.3153603913569627
3.4419536583486954,-0.31381906524168224,0.8417308820691997,0.26700597648448726,0.522820558141556,1.3148938912222157,1.5425070473823401,-1.5601144818328438,-1.2017017034450928,-0.09493774469138805
-0.9967459198958015,-0.9436191458462722,-0.10094734702153951,0.33634166464564846,-0.46978593021531534,0.14085591520877455,0.2828332110648513,-2.633905873496613,-0.20206923101377527,-0.07966428130097966
0.5136563746283749,1.7135712668940593,0.21408427157582458,0.11643767202787797,0.026804463667587264,2.012858285705769,-0.6794250941763682,0.5286973002954413,0.9077933016758983,0.09197983050290331
1.2203479948713305,3.3993940299677083,0.38950640530276137,0.008591937284351928,0.02979927065673163,1.3097855186466165,0.2983645886594708,1.8928648031287207,-1.1790432283180237,0.2549213399775278
0.8807260909626258,1.8332492902252446,0.3129931729155772,-0.002759328216195985,0.4001574843179558,1.1518448361042606,0.13277171756682019,-1.6656493809238646,0.6596523510348333,0.061274417481258066
1.567587793253681,0.5422912033832827,0.19910737695551983,0.5992215710455078,0.5182069013330132,-0.9415153477152485,-0.5304154960603252,1.234587740636276,-0.8379600931927464,-0.2281926293200625
-0.3959757510187649,1.5461979700174542,-0.2460948252994115,0.34832144447391344,-0.12939903084687207,1.2307059652017571,0.4365124092832567,1.4768963612613557,0.11184172418370668,0.036202989622719756
3.15236194873866,1.6034987062529735,0.5329305784731284,-0.3573404106550362,1.3142687654019722,-2.4721515915343604,-0.13445919104843126,1.3317627606396683,-0.5534066225268004,0.39362311315781295
1.843246856315882,0.8014226245990188,0.5575480410183539,-0.13896774914772042,0.9142110696059668,-1.4082948406554343,0.4461078714475002,0.16574236643818308,0.175070344311271,0.28728387999849475
2.6878515941226353,-0.737997179619581,0.49397373994809196,0.4358767177136948,0.9098170135749444,2.909195832392922,0.6401483114636163,-0.8879768929212873,1.0492494196887114,0.2981450691445903
2.187063349052778,-0.5440822480150695,0.2610548408320537,-9.988828356551668e-05,0.34359109447570974,-1.9356871204661092,-0.03243322349669481,-0.9098747483260582,0.47618162619385496,0.04738131665795268
2.9832524229571,0.9684602629648469,0.43934201579103616,0.22347552671847143,1.553336268735283,0.537075363294543,0.4187201703985208,1.4621334163958561,-2.3355381934710304,-0.3828026414837277
1.1576330271850517,0.3678035455576061,0.05953732638625545,0.6013574990515059,1.051770089893888,1.5413538555586022,0.1766662166458764,2.1697885516329207,0.00015956427117874705,-0.02138881241545343
-0.2521229223953564,0.5816693474775656,-0.21217770041350273,0.4822341249648225,0.2755570486032713,0.6493206995727349,0.4057791776773682,1.614716223360793,0.5130944269028679,0.40312705156943107
-0.01863850493224184,1.8071926574330335,0.22885452016200764,0.5001511757112649,0.05117363365399076,4.399631360789079,0.8550764937692862,1.7180275295594059,0.2241808609484938,-0.05921717862881193
0.767658741707991,-0.28070936388083245,0.02724852881362857,-0.12766957169351922,0.6874275883868902,0.35451940391338604,0.10002142922247749,1.3482495250971784,0.7285614559650442,0.033429410592104414
1.4931244770447543,0.9137251224881253,0.07992212331323274,0.406898925506582,0.4231193422845745,1.0403160858093676,0.8684847120757375,0.6703539256519944,0.23212059045513572,0.04851764483080041
1.1895803315165714,1.0862499919400626,0.1887583530724236,0.07446700341588945,0.2892738161218251,1.4799076020353048,0.1557472836007026,-1.7004873247950185,0.1553119247810528,-0.25416447508135354
3.390274757915244,2.1847304165870747,0.6200771587390335,0.5875771384886804,0.5576817618781164,2.929144757209831,0.5433291009365057,0.5604956054310064,-0.31606650332208874,0.0056044473774331804
