x1,x2,x3,x4,x5,y1,y2,y3,y4,y5
-0.123120290772518,0.46913321509770944,-0.0588337439607231,-0.35744224357239884,2.0662475955433206,-0.2804771787487216,-0.5018365533608609,-0.19713163444157378,-0.787296442971772,0.1192541591827909
-0.5394928588034295,1.5170659312000792,-0.36635547371281846,0.904777209390083,3.271632735149211,-1.4629334750440868,-0.11315541587690774,0.029816661813555648,-1.4360809433245194,0.3027439667370734
-0.3819854647779564,0.9534675999510684,-0.529375509611676,-0.3359194645996824,2.861543755084883,-0.4243982884604241,0.16548302425501557,-0.32093432063293714,-0.6296285623877436,0.11740200654862372
-0.2420093471659178,0.21922936572582785,-0.20798257445086046,0.5560636831597674,-0.1739392428612413,0.16354074961352663,0.15214706593945965,0.09281221963485656,-0.28563120740349524,-0.003957525671426917
-0.06150075903619575,0.2715540259993401,0.36199731312926015,-0.13561651922358114,0.62238650788664,-0.8535780949996498,0.14820816966576464,0.27856481540538813,-1.7067230872329342,0.9866395806604735
0.13689613294972594,-0.17894615953255927,0.3652740432002395,-0.22677790047139718,0.4871397440195153,-0.7644189625558322,-0.1301759367439816,-0.14967488977137616,-0.6153815610916726,-0.1997001265931645
-0.47722742986815464,0.3120371821265289,-0.18038771345076005,0.3896627378942048,2.3361272173417063,0.8964039830340298,0.40654925169578177,-0.035077768579537504,-1.2683721341327918,0.4911250156837291
-0.03789193205420918,-0.0945753608043663,-0.05675766059105289,0.8413934737775959,-0.6254007824130674,0.6554523307646818,-0.00551328824936425,0.2613837873391362,0.011911552576673756,-0.3638287157506856
-0.4960732368290895,0.19481536362414925,-0.08949462113576648,0.20023610533060926,1.5193910794697167,1.2007827562364608,0.5266567276338453,0.18006113503814478,-0.01875775848455058,0.48095684721143717
-0.4896617967567329,0.4182400865387394,-0.3791946747404952,-0.20230023311943784,0.6518879277901592,-0.3704150117317001,-0.20114696450206732,0.22191484881893261,-0.4973715264534079,0.44712021751015013
0.018586049582832095,1.23131290717174,-0.5252980133259288,-0.9869535519040353,2.6114452067198095,1.3290574479622819,-0.12796682174463447,0.1361365600467548,0.17864250127495976,0.24768316033844678
-0.26428811221949244,0.14291812524370845,0.1453307429495662,0.2466252055726735,0.26913678841877653,-0.920092223749428,-0.13407560228987,-0.07589041991889364,1.4146389671727677,0.32620183973876904
-0.6012514878557348,1.432487524809517,-0.018427782997116497,0.45437207299707727,3.072912538192229,-0.8189173777347767,0.05848360659274479,-0.00905828100124075,-2.9594717593538475,-0.08433183535425892
-0.6474584004826271,1.1466288504809308,0.19295593167233618,-0.0024693680100068742,3.04556674409993,-1.1650189183264774,0.3403271373098337,0.2871268811479764,-2.5065746786011935,0.6087553337378158
-0.3409147913471681,1.0388801553433795,-0.14442783742253118,0.6044279743647997,2.0449986341398283,0.7529511024203768,-0.17325926199096955,-0.11505904934500405,0.32292360657476393,-0.24528412403003258
-0.5317276389748828,1.0275553008520495,0.05774876657378637,0.40879106042310376,2.922857333903091,-0.2477284993740246,-0.16293960460917448,0.2608957971668707,3.097145669016749,-0.08017505570294238
-0.506816918680188,1.1085202904341056,-0.05917481288479192,0.5128270890623748,3.200451566445265,-0.5661901282935697,0.1476106106242686,0.013151276245621254,-0.5405186681770326,-0.29611332579103017
-0.2512375675489471,0.29041612471640876,-0.22215515678777603,0.650690537439716,0.2670384334096656,-0.33120081218631653,0.16268453505244285,-0.5587559713073219,-1.1928033809350191,0.6978637627688563
0.016739666751585572,0.23605221692250536,-0.09124079273502426,-0.391640469949588,-0.2747393085325238,-1.184923753631134,0.19704017676053037,-0.10410456363679987,2.1552685981669186,0.35551049067131957
0.20739823195638943,-1.0628188986232177,0.12027007028776822,0.3520749167528316,-0.9609967490621525,-0.17592737275692164,-0.06434537244009608,-0.0038618514784426647,-0.633351661218039,-0.034925434114415836
-0.3708283200168411,1.2491302564750186,-0.20938042409868482,0.0987175062153211,2.4904644677636707,-0.8599600205635445,0.37870876011375204,0.04906836991284272,1.818278117003473,0.43747537451696883
0.07385756677947813,0.5380085208603774,0.27290410928690295,0.03998101556759978,0.6488838705264626,-1.7765477052329146,-0.36824402757564056,0.4229252651323551,-0.3871161199958612,-0.5897055906225707
-0.28278857946540625,1.361466218347085,-0.42986562116364513,-0.3216222568920986,1.6974718281079508,-0.04822443644483339,0.31234936447172273,-0.15519339413182923,-1.084287691555916,-0.3070917476114383
-0.32969237078529956,1.3801341363919166,-0.003075073038586903,-0.035017132015897,1.803787341757804,-0.05257841548109482,0.10063311461899706,0.5541693935336495,-0.07183204388319786,0.5091936510912444
0.34976779940474334,-0.09794410114791258,0.5498646487136083,-0.6015409297911505,-0.7608372659759336,0.09485669902928781,0.3337042326425558,0.03483596582054949,2.3161821232599715,0.540221299388855
-0.4855405577263002,1.005275680064325,-0.395819419734859,-0.05661937809065098,2.103062783591989,0.8179147073928683,-0.05191210399629913,0.1739128604994165,-1.3796794396413068,0.5481829839032071
-0.18038213264139738,0.9708863073926162,-0.03682431844100439,0.3733132541102097,1.016216636441996,0.6922284922906088,0.146960733958225,0.08936867646142253,-0.4304739937058133,0.0026702676439413855
-0.42447081676370596,1.1147047500467382,0.08879602561331564,0.40995180606211956,2.389777680806632,-0.23244557238711014,-0.6406008748344684,0.19168807281468728,-0.23018417265219968,0.14825362345594917
-0.3633807189079196,0.7025416710601603,-0.14689474722694426,0.043418322708167915,1.8169225799732818,0.048209267037567005,0.15233498189559724,0.012961564426504453,0.7701217108944458,0.11511436990159021
-0.11899904181936664,0.745732485490912,-0.15885875818358136,-0.3922903392767271,0.16466350789284,-1.1123010877548198,0.052124175730407,-0.07296722561506294,0.5712677384433414,-0.17725427340889582
-0.26584988957307576,1.0949025794254001,0.07152910230382888,0.7763108712904933,1.4947797941450771,0.38701254149139325,0.07647408004520068,0.4046811300538759,-0.5544783722459534,0.13968077985857505
-0.4931814371300147,1.0721260479612296,0.02574955611534736,0.3359714292267149,2.9053215872075544,-0.6949900933291048,-0.38052874179887425,0.44529728271925506,-1.0480737226075822,0.2527468448870773
0.23774138150850224,0.45837032653923365,-0.013431132328684089,-0.03160419410288052,-0.380736818434263,-1.3192360704290262,-0.3870804015450638,0.18301831679253172,0.6701697418157673,0.09178079467137476
-0.18398476615875484,0.022061873577821644,0.34542624139827616,-0.12247094604448638,-0.2583388745923484,-0.3941266228703687,0.12408563601126298,0.17394986013819883,0.006428255686691031,0.450442621933816
-0.0975877712837516,-0.2894316224346823,-0.6647110701351959,0.2843452724909184,-0.18703585818331825,0.8932930386506259,0.07346337981902885,0.32243014616596005,0.2344331322689462,0.2968813764963225
0.15850342774863818,-0.3679994853223421,-0.2796404421096922,0.034673787327685106,0.007667532128579957,1.5989077374719853,-0.5817911783706508,-0.3430226900953957,-0.49214162188743554,0.4173091209525082
-0.35198323481554394,0.6508712581533163,-0.4578137992851561,0.023087244050608167,2.7379501674073765,-0.15872740701582014,-0.31648546626407076,0.01826663285468992,0.5993091353707826,-0.04624835912301608
-0.11709125271397856,-0.18404957465826002,-0.15823753404199886,-0.7084003084263366,-0.3093139775579904,0.36764956907404983,0.24467089173189152,-0.11022571856291893,0.7886764230168721,-0.3764862164799992
-0.3359246351225533,1.584985823322531,-0.08023014113049332,-0.11634430533147593,2.048429936770597,0.2571319344048017,0.13982933394891103,0.07475180721634796,-1.1630229573297486,0.43169247749485584
0.2925251809687005,0.3733561520831812,0.11685515562166283,0.15185943411945546,0.3147963858424585,0.8725596185363873,0.17703128154775158,0.2630107197356705,-0.791209187261233,0.6012440363561944
0.024867615163934834,0.23518983652061698,-0.12474498329863533,0.13280031098472203,0.14796849374054277,0.3527239715697315,0.05422742783026438,-0.0409754988356088,0.3713328166144571,0.06416248238167958
-0.1114767502444494,1.0553460103701766,-0.21387624684851786,0.013517042164015286,1.355868915047488,-1.232601492424599,0.08113195444837716,0.2245637452781854,0.6479392492217848,0.016254716123656206
-0.30563190275985563,0.14123164078465295,0.10435713656247153,0.40953408609220704,1.4764598120129002,-1.0962268742469692,-0.5322172389470013,-0.38143597281032354,-0.9181037942708572,0.36088327468739495
-0.2863814384302148,0.9725086586757771,-0.31486868007888025,-0.32086449756384977,1.377342262394544,1.2549481250268646,0.16852292323309798,-0.08854681081801147,0.6561800353624087,1.445136558389984
-0.03503553911541725,0.6723372286904745,-0.08517181409309,-0.009533656801495214,1.7635527891720533,0.05617766453194042,-0.06783376353139157,-0.38581008164913644,0.8509311156550006,-0.7310906760586663
-0.258130823636225,0.15888617903414146,-0.44778499438454167,0.5259571035388314,1.1233920875781997,0.538249569752107,-0.048261947921957093,-0.05990503369990305,-0.5991211214933818,-0.9522705127240244
0.046196023481353224,0.8234429214766784,0.23899815290858875,-0.5058478293907077,-0.2523642074187792,1.0471327789050813,-0.04769781065997889,0.3653426801964981,1.4252859676145844,-0.8259180371913446
0.03669701666276837,-0.05389008486105154,-0.569636266200083,0.0452138692110791,0.8567478434195899,-1.1382451399304288,-0.13326083245492676,-0.34789984656958284,-1.0809009815892798,-0.8796000723191021
0.17263123419067064,0.1456786693848317,0.24000366390436667,0.8791992865074093,-0.9122942169594038,-0.9405570669127501,0.09408221393095233,-0.37424999327733754,0.47860805539627344,-0.23462045438188583
-0.3883148724388423,0.41361678382131656,0.05141458893089717,0.14166769517529773,2.299171349950398,0.061440954997348,-0.42970930794142015,-0.600884000330677,0.6841464644193097,0.5029612826796921
-0.3431900499793322,0.8526149189096558,-0.2559907081903624,-0.213479591042273,1.6786630330907943,-1.4613701826821148,-0.29550323226120256,0.4196287872200873,-0.6838424831970049,0.2761835844797307
-0.14676180686227214,-0.25241063202963626,-0.2586431651784756,0.10710896053206444,0.10091711327254727,0.6893481196745356,-0.24800928411809384,0.0757141074446064,-1.4863260114172177,0.2677224655404699
0.2297411691226666,-0.2418009854691787,0.07509259509053157,-0.39354068376321016,-0.7681923136878992,0.5242677902682222,-0.09062351518346591,0.17229438169821928,0.4500176715582134,-0.10126922165623452
-0.2716967124082413,0.8369916353182782,-0.09006879934015391,-0.08620576409506372,2.525851082614988,0.17144882307046452,0.029186383650105334,-0.0106037280243141,0.15442143906192254,-0.3476282052376255
-0.2977658320583493,0.2045441918563821,0.18668449904133044,0.10631929106417888,1.0245394774925645,0.9492192244183367,-0.03621901519480056,0.2726257087258162,-0.7726235688218146,0.9487527255035604
0.10185294129138964,-0.5848943515362306,-0.14557645094792324,-0.36817622368627423,-0.3730246864214005,0.9879210934723557,0.0942293497818094,0.19407756104753962,0.42613474552916036,0.7600561556961611
-0.03880897901632315,-0.43742425447863176,-0.17932264512346863,-0.5591432154452656,-0.10182185422597723,-1.2937351250862787,-0.035813432086655154,0.17396596730257,-1.215483412217908,0.3700196142058691
-0.45359113339843066,1.4116350567077605,-0.8732814646485597,-0.12418534394331246,2.9731976673373124,1.3916081397142326,-0.1246253583510273,-0.5632031984348589,-1.0628310791600257,-0.1912290592158719
-0.17052356132136892,0.9710569118254964,0.23060759202621944,0.31314683704114027,1.4676202956492177,-1.4826531736372939,-0.07397379178792204,-0.311176638901897,-1.3571887134128697,0.2620519254633952
-0.13604009425158867,1.3203235862844445,-0.49528848013473364,-0.33591289251654144,1.1204100321832753,0.6992206569345373,0.11639865544877967,0.28507755346409147,-1.6869767803677327,0.5456809812671127
-0.43398464522674624,0.0652602868169748,0.08044974395688033,-0.24241922722934944,0.9778479352120013,0.7707240653327748,0.24752593549182444,-0.15828485128274086,-0.03730898860134556,-0.20049088344873367
-0.6648484237849973,1.473928745179754,-0.24575544398702392,0.11577991669936225,3.1608600765427193,-0.1543897706686233,0.2698284110849102,0.2042132291814748,-0.08031277304946849,1.4335868260136155
-0.14327951886660445,-0.26385134883356165,0.15018438033125317,0.722291457053819,0.4772928919478696,0.4892074659887211,0.38848696044990655,-0.1629472536228541,-1.295886909935101,0.6198042677429805
-0.580798436163949,0.8265833528261324,0.10289671338919368,1.2033477313843055,2.7337162953124365,-0.9341364594413313,0.2612960689085595,-0.6605514757359354,-0.06225951684852704,-0.9996861697177497
0.1943919063489261,0.10974965684755543,0.42308849857624287,-0.30342966684420963,-0.1156433994227768,1.2602106557216763,-0.17017839674116172,-0.004782927883118957,-0.11622745531130815,0.5913998944985731
-0.576518960615591,1.3764573737263184,0.14150107889265387,0.5005822463684563,3.0463225227294393,1.1109465690237321,-0.23460176040299818,0.0657867897870137,0.04921617606526881,0.23092300541385385
0.6369869402055268,-0.5641283340063278,-0.5186079064160796,-0.046297976062492474,-0.6446261198385542,-0.37546560900466885,-0.11283054372234229,-0.07248683931242117,1.6218168425239066,0.02567318726638955
-0.4418851706728675,0.909083228894544,0.0996810699191933,0.23890552767117676,3.0523596091777554,0.38425690042884786,-0.2663560375228077,0.09978420843470992,-0.7159662685964638,-0.46579260039391357
-0.24473133892318352,1.0676118446524212,-0.49794164375524813,0.6248242712146967,2.570943193962258,-0.3148836665459545,-0.13334939360122458,0.0412498904052555,-0.11762531770942924,0.5571759331174759
0.2597795435157965,0.1438218909688149,0.0019264833447521727,-0.6607416136713984,-0.845612951277217,-1.5564322710178673,-0.003248190488691885,0.30902193334991246,1.3092929080847315,0.09828957252605156
-0.854538348361913,0.6490709524983193,-0.40497027991293094,0.775053466826383,2.4164968407443306,0.7807075748984369,-0.2432519107150566,-0.06333303100848588,0.3020993779333101,0.5854477245735552
-0.1302704541592279,0.5526018723220552,0.18647122368541158,-0.39239510451747295,1.4876005631323692,-1.2591657104667981,0.04803925084177013,-0.20862432043150514,0.9431915605971,-0.040559748363976744
-0.07533327609654772,0.04954896091610819,0.3356869506500642,-0.05023082464551868,-0.5336094567011482,1.4374540574886416,0.03436207120835954,0.21242470391287835,-0.5180069336493136,0.11966179857882377
-0.2414895799095918,0.3959057871722451,-0.10317793375213284,-0.7187172608118452,1.3678973693519594,0.34243801903648896,-0.1085053027170562,-0.23570636009729207,1.923970690788276,0.1204885460158649
-0.5237156388374411,0.7672156810354223,-0.013801668591583468,0.005201135599993419,2.4484586304881697,1.8879697464582437,0.19391592568302862,-0.20920570083123305,0.05609012135768926,0.14904358512328927
-0.37927023781018987,1.7339442116867885,-0.24397657766247652,-0.6537190008512606,3.138898706399072,1.7786546714862919,-0.17497321042063596,-0.04261288501081728,-0.5180859028693939,0.14018021716435944
-0.36974050537119246,1.949753001051737,-0.0008501103033608738,0.289847748052541,3.1786727243283988,0.9593642581214106,0.31633216764608785,-0.09020829937277834,-0.31376097043059237,0.0682047046120828
-0.010207369966848926,-0.056277718886546826,0.2118701257142985,-0.7924677485180515,-0.18205075939859294,0.5814334093858957,-0.3431158292750176,-0.18081760255501314,-1.6147190035812136,-0.9344904255181529
0.19215359538497953,0.2217785929234294,-0.2910030343772095,-0.4879788765458089,0.1379929401893456,0.4025812701598101,0.09255005021250623,-0.4405711106082644,-0.8414683954682434,0.39375799189367156
-0.43752077590442956,0.9626978746253813,0.2873890559096291,-0.2945272812871093,2.638924606277919,2.4458437031949742,-0.4759131329915581,-0.05606823741334272,0.3549840865013084,0.5313482983351574
-0.16583303519852086,0.6712048337377292,0.021999538270835298,0.17249861513917905,-0.3802217351592908,0.8845388780989978,-0.10676608425943267,0.04748841278833058,0.7566341714168278,-0.29917125656323207
-0.10208236243666563,-0.08105699593243794,-0.2886405779940467,-0.8053288170726481,0.21857704462663352,1.5505807855407467,-0.12581886904000042,-0.22891968887036868,0.4314678048022526,-0.07427417238357574
-0.014346461576091927,1.2165621093084873,0.3085758167616064,0.33482235730388993,1.7768512396038592,-0.031231325853395275,0.2409794581748101,-0.6171482528287895,0.9441861004807197,0.893506445333237
-0.21581251756440067,0.5531879673826913,-0.24565800284296946,-0.09293065601482164,1.3839387312694678,1.3219825064751598,0.23151825978659507,0.29158116791581895,0.054498074705325805,0.12008540914845021
-0.07212484478741324,0.44636763943644076,0.5580492674086083,0.862047176232067,2.4925010902490694,-1.4443687013809743,-0.3003981725487398,-0.45804902328899916,-0.41999132870641637,0.5106404529130687
-0.20208211824271113,-0.547855613397629,0.03028247257598253,0.25923027243623253,-0.07719423020470118,0.7990719613065173,-0.29467537948501066,-0.15551765133569612,-0.2144241834167221,0.32256317041779137
0.15637269963246914,0.25042512129769295,0.07750326780765811,0.11342142572562736,1.3279648415194965,0.7298961887240207,-0.14078115285305418,-0.3129680448484215,-0.22564467891870427,0.3555869628378697
-0.21288020269268804,-0.2151645999593798,0.2083943320988683,1.1504407800480494,1.55896868277837,2.226877714219392,0.01500144579961552,0.33964177831229797,-0.5603287252029558,0.6748360490235464
-0.34895480016175096,1.3814334476851104,-0.4645742102601425,0.23201760041309205,0.9662757323666118,0.2593704240378489,-0.02305597328356069,0.07568169466691538,2.316178691066989,0.2119988613421224
-0.03583288064099253,1.0270462172603525,-0.46292307059928894,0.07117210128380745,0.5160853608001847,0.9044825312355536,-0.08143512305833057,-0.25211427609199655,-1.120823214775167,0.9889253496948925
-0.9122358890300815,1.2630186069133058,-0.7356670398737324,0.7777176008423926,3.1548304091866006,1.0601101045579546,0.06655968577075246,0.011705960367213778,-0.9534785793642879,0.01341465760401228
-0.2632369006514334,1.056216000987515,0.027717412015825182,-0.11856854296074343,2.146372088289727,-1.0372593356614799,-0.3476856592675453,0.1869897151644925,0.987388121623862,-0.6229102930504797
0.015625187348463607,-0.6760714505660309,-0.32221235706543006,0.3558209347418305,-0.45733717881258673,-0.33714782562410917,0.03386408113979723,0.09291262280455533,-0.5393585422039193,0.5946384814145418
-0.27922466651116773,1.1987195288929609,-0.02053572303979379,0.8359627641696379,2.9032144822810655,-0.02805930714418936,-0.470863419027725,-0.014261314145275315,0.3269684565444263,0.35381309792945687
-0.526616770651927,1.0528198634538726,-0.20606750028551046,0.3506550517301775,3.4473079621335208,0.12697356428439244,0.06343347337729278,-0.22348601430352635,-0.9222931969802514,-0.16199213473629628
-0.3402840730252127,0.7818605160627298,0.6176156844210201,0.6151705028334646,2.1740343285185393,-1.5905496463724649,-0.10876324089578834,0.26944375825224465,-0.02364247629966973,0.1537459678707072
-0.39445307206016633,0.0485600269148317,-0.32706248507504776,-0.14259040861621622,0.49619115182870277,-1.0632298513935305,0.13038731350162,-0.0089161180512671,0.7259350090829753,-0.3599155703705098
0.005754218521376363,-0.546106280279443,-0.4161447283821865,0.0007089861463647697,0.12335204788627419,-0.36289904090609865,-0.12001488857870633,-0.21270971727157434,-1.483821033059339,-0.6950614822929564
-0.4996149537891087,0.5474683288409349,-0.3575026752587012,0.24633936555458327,2.5294421713687565,0.8400417708799703,-0.04345621698195554,0.12349083595877314,0.21488848675833822,0.813056472017716
0.22403594788944345,0.12524012690375227,0.4529913775248745,-0.3271418138072749,-0.8803215257636247,-0.8969191098986621,-0.12625040292773387,0.12192774522280514,0.20610277463948082,-0.5101333391925514
0.04419505331063484,-0.6554042138549363,-0.002151967277945125,0.5217451953952836,-0.9834764471771605,1.640849909512038,0.4813852165143787,-0.2556327231410198,-0.5410154634671094,0.28981537255292444
-0.24779921008938138,0.5750496649935113,-0.5489986970102105,0.3067907609664087,1.2472641986114201,-1.2099379980528036,0.08599409888306607,-0.2897677476409603,-0.4460176095139269,0.5016794541083711
-0.4514969852228554,1.6639907324908674,-0.3051998371259486,-0.1883989532124551,3.3270754476792783,-1.0778066601974787,0.04704730832595419,-0.09045632412755553,0.28000759243194334,0.5011928624343188
-0.4536356440930234,0.48108342625426637,-0.15524334468021148,0.7748395756531515,1.7391712650851456,1.1993024926946714,0.05082158241669675,0.3020027468968534,-0.6708250600252104,0.2096101737572686
0.16757828774558153,-0.28336842859400413,0.2792305735263771,-0.3585783244401833,0.3198023779344237,-0.8322304671125633,-0.011906034216506822,-0.21320661916572364,2.6868349152975544,-0.4197680003588076
-0.24553886516267068,0.45449333154051413,0.22435975845726192,-0.37342533265011785,0.6676608612448567,0.47168386181906014,-0.3338085097973714,-0.2976058253026521,-0.616402327997229,-0.5310218659825447
-0.4940474932827309,1.6817990996341476,-0.295511445742293,-0.12870054954694587,2.0994207433317227,-0.717559531768743,-0.3092923549864531,-0.23342212775971644,-1.4835548816482156,-3.465655304993133e-05
0.12247942085265762,-0.4997343392032159,-0.06012532330895398,0.3534843493394898,-0.4510032647619209,-0.29216597413308787,0.0479966342928115,-0.276904611428933,-0.6388527945126393,-0.914271445245331
-0.05924250071355955,0.12331475963438751,0.32314971144370574,0.6907949439678568,0.14425821155214202,1.4971360309824278,0.31890704086767396,-0.09216267998450176,-0.1327890067170605,-0.12302051320727314
-0.02892099738648457,-0.10737146854141792,0.573105907655069,1.080267487752997,-0.4234360201354499,1.2038775526419052,0.05729803382577753,0.08923367639068522,2.1812902751073677,0.64214121595089
-0.19456349912388798,0.6805134518885915,-0.19244753345547963,-0.7105394847622537,1.9199678125350559,-1.7138044045754635,0.19587210669281904,0.27136193736401387,-0.8305886015147348,0.40433276381378025
0.2628047364753138,-0.5410577382775185,0.20889648640978903,-0.03477726002843573,-0.91079145146833,-0.9318062499319857,0.17203188664085833,-0.10174486899443386,-1.9399013653107036,-0.24792340497070237
-0.028853147851956622,0.6055782745738035,0.10788923039332715,-0.35330324792939255,0.9014111933304798,-0.7156276844635491,0.2224514037537098,0.28457586347786873,-0.4545566285632539,-0.9520127442948962
-0.3253238528402686,0.2937669676742887,-0.15293647201910382,-0.13305561154076778,1.8911541753230678,0.2597345221788242,-0.095506972898044,-0.47062975071693447,0.31285560287272984,-0.28729684721236154
-0.2655028106309671,0.9105038693939896,0.19135360014617306,-0.16875342438251353,2.4505862038157034,-0.5101848709937681,0.6632633853635657,0.1951027830579412,0.07577473537165941,-0.14495759481241047
-0.30120832998429675,0.9097986694811357,0.13245328911033935,0.5803631055929411,2.555985028051889,-1.9815027039339461,0.13971587935708146,-0.19369713884589837,-0.08013320094554613,0.6253931574796062
-0.010376814409341352,-0.11425722411068132,-0.10759356884876851,-0.6107581819378561,0.22966501668658257,-1.0103150626747497,0.4359148120701252,0.08817159292118709,-0.0949838089302057,-1.2673708704145439
-0.6259475659520425,1.3636159050484358,-0.4470183365551035,0.7270278545552419,2.1461139020953808,-0.43697084178581824,0.22537079641906965,-0.2836366158737266,0.07077285665808475,-0.11730841074634432
-0.3072042186100646,1.3333180762436818,-0.23570426454785084,-0.05582598807962484,2.956994700663385,-3.109039178336516,-0.15681214848176855,0.0998994058449751,1.7575282087715889,-0.38712035321722077
0.07269886450950398,-0.3581015960987641,-0.28775713868600233,0.050550332103995045,0.7077191900040962,-0.14394500805077448,-0.30781282724406017,0.12326264343996833,1.7160416409500354,-0.5666929584420989
0.11787830519045228,0.34685260831844156,0.38758670670805445,-0.8853482052590256,1.2638253442101184,0.9805518458367106,0.03438361535218652,-0.10443500002752741,-0.9347013981477089,0.36040059720162526
-0.3833908872888151,0.8875688479451415,0.007992493935569426,-0.5556450710105332,3.0116459901126875,0.1217723985309052,-0.2241745763986462,0.051969765205211335,-0.1382813963940778,0.09561714641640023
-0.25201408817411863,0.8862140653702315,-0.6565215375974284,-0.10079642814417793,3.4030856902348177,-1.1815144930285362,0.6619226854028991,-0.080727174751173,1.452011888389018,-0.09364534204709643
-0.5244137828590613,0.9589658200005782,-0.37625866121952295,0.49052003377124714,2.7939255792880644,-0.16698921789295548,0.2802676404251948,0.10195938515208762,-0.9777946272892429,-1.28753226751486
-0.47207319876174153,1.6731598683062465,-0.5652694142280752,0.20641219062595348,2.2236617783982684,-1.870155049838906,0.01021357762772617,-0.37549546211037177,-0.9884629318514164,0.6150119282514609
-0.35530625802457705,0.2883496663304212,-0.38245018893835353,0.7677440517965584,0.9930886227514117,1.2977559785576034,-0.17040913284035447,-0.03716654480572894,-0.2910102861102362,-0.06257874858553811
0.7136750014856557,0.09660670054647844,0.8142986315820548,-0.30190890452905855,-0.47956453699880064,-0.19397190566515377,0.32926240965628295,0.5583365267436687,-1.27886362761767,-0.28232011055177286
-0.25570723396821793,-0.3850802857262923,0.29923259050451223,-0.3156867685210378,0.3619515625034957,0.639719958831638,0.15600489220101968,0.03840578515170549,-0.8145850824401134,-0.038494834644486525
-0.07761727901279841,-0.4950837736254943,-0.33768414149191467,-0.2346797343811588,-0.2870701154167098,0.4262846640552272,-0.04115714896906493,0.19930780327587722,-0.6261529546010609,0.12827414894466646
-0.03817104845857499,0.14353624162834194,-0.365784796972459,-0.03282504269547054,-0.07916157173560479,0.825739166084078,0.055753450622406095,0.1374090626727392,0.6666628488691689,-0.28173609658407756
-0.47530361067614835,1.8140981631028186,0.37226751750112896,0.02779596126376063,2.339410703420467,-0.9139051453934466,0.18338109844798947,0.13469236485632283,0.062038345242648174,0.23140588438709295
0.09288967557386105,-0.855018735907145,-0.2261466297439945,-0.5438719092925637,-0.735597130469455,1.3039254297195413,0.05611029157969255,0.44546499127371936,-1.6371722250484155,-0.07590345364527361
-0.3210280758643452,0.6055137825834199,0.048157914441309776,-0.09342302862686663,1.907400261008914,-0.9702126507764185,0.08177912521929397,-0.30382789814786426,-1.2101449751701572,0.19496699324284708
0.26437678085026556,0.009743659158111624,-0.07786634684013298,-0.40862892391841105,-0.288401788578888,-1.2574270315775313,-0.0037576706719795556,0.07724755795977804,0.582712922982559,-0.7031820955788655
-0.09921021934486705,-0.27566315422108695,-0.0013030388767995185,-0.041994981066020974,-0.9928127171873486,0.0031361559140809653,0.21976070799843894,0.3383319515122208,1.8005049849294206,-0.47910300568905095
-0.2874337473816295,0.6922759765840911,0.15845104082218753,0.23097884863352527,2.264884580229873,-0.10320092133520954,-0.14608612336010132,0.6788905012509028,-1.6222906567767255,0.7067522294321331
-0.2036574757115575,0.7473006066168357,-0.3619427870110495,0.6301690222321352,1.249114590403929,0.18895776733908914,0.2062148420374889,0.20633201642040638,0.6927250760159983,-0.0932819208592352
-0.06725868775088402,1.000206904098323,-0.3558317552027199,-0.2613586458427238,0.51801592944751,-0.9183421918519412,-0.17300481600529194,0.22299166705520335,-0.0021940456369656525,-0.90623169975856
-0.027879239629111513,-0.27980393276610366,-0.2741164323862097,0.44028164525230273,-0.664035369460185,-1.9678952975409267,0.38044128396586485,0.46434664860733066,1.4468410685170212,0.351979682758697
-0.17781349880739328,0.04690994984219011,-0.4348737642771871,-0.6873883331749207,1.622174326322829,-1.1455286650742265,-0.19676045045846519,0.037268928074329,1.105111448457804,0.6591811307200348
-0.18883780967117691,0.23563272575381583,0.036848694202329134,-0.1260026346405057,0.4481397984799902,0.2600936197821485,0.023941592158953265,0.06723531448639808,0.9874629766677563,0.19968812917025225
-0.4070312116491507,1.0388043249528234,0.14169661744148063,0.22196787690400022,1.4575166698444861,0.22000795477974602,0.4035372051868022,-0.004820431029972861,-0.6202565408391321,0.4271876746454492
-0.1328694034987518,1.4435613344266622,0.032657083192833905,0.020990189186497133,1.8183747893806474,0.46217346618531924,0.208175785082531,0.10913514829966585,-1.3181980808500373,-0.6780873528359613
-0.4638837315438223,0.8062589643486064,-0.11701425051987814,-0.24619696845199115,1.7040848977172791,-2.292200121617919,0.34736555911006833,0.1106857184693681,-0.217865410962173,-0.06987228988090001
-0.10730886730127684,1.3398272882671578,-0.19783357264884133,-0.7989248548116039,2.0173342148691877,-1.1816114377689055,-0.18305011144942585,0.17892472977322701,0.6203681193958339,-0.42111571422825816
-0.07804919197183253,-0.29614970807033225,-0.11868152770301826,0.06028618154291506,-0.19676960119722187,-0.9898935739802583,-0.03685099953532016,-0.11355863240118744,-0.7580371104138826,-0.163663030100356
-0.5062976610881982,1.414918161542311,0.0569563485922925,0.7214930484761525,2.4355496037304434,-0.29186617758767897,-0.10290995831467828,0.1229831191727876,1.6047383076344006,0.22200434165980587
-0.34948986808437416,0.5282054549296278,0.2656817039363347,0.3821515447631374,0.787132145922272,0.13917092412652454,0.0026184419245502467,0.11412621122268483,-1.816694763637835,0.3764735741344573
0.5171260704190034,0.17614898463775758,0.0857338053705761,0.10173960592980065,-0.7972360146448848,2.417978520234394,-0.1657017306462396,0.3402574983347814,0.5351650033311398,-0.9067002466066393
-0.8170325613585546,0.981111383625475,0.1176417393285566,0.660611892232243,2.7514311394931767,-0.6897697857060123,0.37218131418903044,0.5202048072071571,0.6882336310079538,-0.4682268445960316
-0.44712109307668996,0.5909401353331978,-0.18213768712872155,-0.031239470658946132,2.712453603788923,0.355919299632584,0.19737915121402286,-0.19830573863781262,0.30772531246761353,0.16610895661157174
-0.06013690520110291,0.9435504725653425,0.2954398193860859,0.13394885625154407,0.9274055935177596,-0.6057555051514769,-0.09371559095460452,-0.09146183691147926,-0.8033680218191704,-0.08192688644087734
0.12891046379063095,-0.13661859203647578,0.45912979010525834,-0.4342945028720019,0.455528007996332,-0.08720168060973453,-0.39041632337829907,0.3675990369466305,0.6683735020369876,-0.6094161315634251
-0.42473906554213603,0.552048966703853,-0.01040353066155962,-0.4117308021263511,2.5081852203471113,0.07815947406201443,0.123185376084194,0.08941737325823754,0.16462155972995107,0.11735852576665472
-0.07505565214789962,0.15401067280101396,0.11711124923064481,-0.34096381751823224,0.48537705549072574,-1.4232169074825198,-0.16756784328951432,0.17495880987168932,-1.0154394738777366,-0.29269548203999746
-0.43794438696425253,0.7912216213213454,0.26239827903672325,0.016311706213363957,2.444751373630471,-0.23767580144852402,-0.16817726490595636,0.22889886723023248,-0.4170328992760097,-1.0929565592600434
-0.3361969405453184,0.5584829925767935,-0.33856514394613485,1.351973743840399,2.5173177150159987,-0.6637707930492945,0.17639089160607205,0.24353425615335955,-0.17407983510602368,0.1114591462402781
-0.2181359891346269,1.069837504055012,0.014646190517152624,0.18903972607269795,0.9571735729366118,0.5349044145636828,0.02075302202391819,0.250424690522189,-0.4215426514230175,0.13441170394241764
-0.12938795616762042,0.029974691357995197,-0.42322000226673523,-0.22553516656344008,-0.5234393326035423,-1.4546329062067054,0.11295842950783372,-0.6254337130987615,-0.7813757225739495,0.3975889726965893
-0.39102734241991893,0.5402580550486057,-0.17243004172279486,0.24753626151617256,2.233237034373236,0.8863829930672467,0.2514730553785357,-0.30216617918861477,-0.8000923335499276,-0.3412197679328099
0.021523488455221947,0.2996594835666202,0.11205762904407962,0.2949768674603926,0.7440397308674984,-1.11158974232554,-0.01972335094544813,-0.00883072215066329,-3.01662036793562,-0.3819659393261085
-0.33694816110071835,0.02429123809916388,-0.22697710577056393,-0.4050943542921357,1.9223735010612732,-0.6517743720877162,0.07807770130258988,0.11243957735993561,0.7475652660666126,0.8867331495401216
0.11503093822091849,-0.06372180906537779,-0.2560054032071381,-0.6312180500020116,-0.635445790290103,0.4317773263001444,-0.14524600038773008,-0.19078272028654228,-0.6283666310159899,-0.7929529078127766
-0.10744688008632282,-0.37078659756454674,-0.42166576857446764,0.26731420169098097,-0.8030680748292919,0.8977110604528875,-0.3526810442375844,-0.367741203859761,1.2959959015906246,-0.11574283719425599
-0.22034238202723147,0.10233295497410036,-0.2055759928285891,0.28207800770521485,0.8494487631736745,0.7431885151868318,-0.0413687811824983,0.149912675785236,-0.9155487065673427,0.23053543712164537
-0.26713723454437077,1.0392152747081402,-0.002943399163674381,-0.9520783193545485,1.792616127850141,0.5423113158924243,0.15673903957370205,-0.1998259695630145,-0.0559284350776188,-0.9418218564483437
-0.313581357051284,0.16775977420281296,0.20387707283504664,-0.744742770127013,2.0471185409058403,0.48320371699693454,0.1659330317406344,-0.008806523513147004,-0.9612558230325877,0.900225479443551
-0.4580858416111206,1.036060142791823,-0.14150749832834444,0.38963100703419895,3.0747137886052673,-1.0609898524068042,0.07077651340310441,0.032802175773472726,0.01587278538448761,0.963720591734943
0.0685073191379985,0.6794579146116927,-0.11230959193306067,0.22420031245820088,0.8402280418578303,2.267590375941771,0.10031162626573481,0.3254411770291595,1.4156138247419718,-0.2725102540131392
-0.6604374319381111,1.1034708100961708,0.07777736830123975,-0.6053003364085233,2.7024948417610313,0.3692491653705274,-0.03573562994225131,0.30918418667696285,0.7098624816128443,-0.022496215099767774
-0.06322698837264752,-0.6179320076974705,-0.24061191742987012,0.40412844730722725,0.4687492230070369,-0.08367984467457469,0.17539231753628157,0.2504752073233898,0.07036876597947794,-0.47816684141839594
-0.07924741766743892,-0.21796009199660557,-0.1240042146831529,-0.2700178928202589,0.7864553573579498,0.23848537942859738,0.22787814934310738,0.08557810817695087,-0.08987469951667615,0.7686932200004707
-0.5061832150985786,1.1179352614228883,-0.4281207835450659,0.6528865646801522,1.996429971723563,2.42634103248439,0.11455933332850723,0.21505467717893934,-1.5236170731120966,0.48760658907197657
0.3136866529604245,-0.07499725301009985,-0.297572389574955,-0.2489632478500008,-0.34258004372860484,0.6320326702663248,-0.4176700887548493,-0.16131972818697035,-0.18691441728735347,0.9926001666285681
-0.22015601558431883,1.5322533680377914,-0.35662348349960116,-0.6138119406012847,3.082358085816538,-0.9464308843188962,-0.0259544583088324,-0.21530613216175942,0.35318084521116133,-1.0205507439520582
-0.2544008134491727,0.9066818646289349,0.5646072244512649,-0.7454877943532574,0.5919828525795061,-1.2505312838955522,0.3204855879534986,-0.25339119423483486,1.4107018286987476,-1.0032471607074611
0.02386024207569554,0.35975967717020524,-0.17970177716489388,-0.09208276842675388,0.34446709869227243,0.007422409710074199,-0.2264060495372981,-0.05802177043164951,0.2081796105829584,-0.10223911314743028
-0.1744062544864378,-0.8816279473451084,-0.13860826658623626,-0.7268321773930922,-0.380033195319601,-0.16254288254883437,0.5065337253035972,-0.16486713123979446,-0.017053843307712258,0.8003452190370896
-0.06193494479779717,-0.5800700915542627,0.1145669224082352,0.4543324188668686,-0.449157689009821,-2.5332658684491864,0.27483470886816774,-0.06137559040220535,0.7545398064356376,0.42011567899103786
-0.5786302548364761,1.0341750591801426,0.11532272576114905,0.8811163748410086,3.4254819247659514,0.8804573178953323,-0.0945970700763821,0.17874916697844287,-1.6508251163727667,-0.2915557828940479
-0.004869994414671056,0.27461059510085,-0.434520914696385,0.4438751512746363,0.16086938620351376,0.08303719935013329,0.5868717435710525,0.17636632814491218,1.6754231537033346,-0.32466696531453315
-0.31630186800449667,0.895370816231667,0.07762366017287664,-0.031746857194338333,2.323374599398397,-0.1274679281391113,-0.11469358504669633,-0.021715178496454803,-0.9759242222594561,0.0479272434244249
-0.002396543848191083,-0.31092233779414186,-0.29805697679018145,0.09096947402486022,-0.3674552282540702,-1.3237995890188847,-0.35050987834123176,-0.0771079515877666,0.035360468585661664,0.032250102338524864
-0.20355316828628572,0.1802630334162125,-0.0021573685173390273,-0.18565448682388735,1.361724632273284,-0.06480832011364798,0.29440467477675364,0.1253562937270678,-0.6884851049661652,0.26722313905297246
-0.07667048819007313,0.5343333486247885,-0.08268507980832172,-0.4254690873520648,-0.2486875172247056,0.14914890662656116,-0.18395577522874568,-0.1508780075032162,-0.8362108300404081,-0.11177370133866797
-0.00979993110667751,0.03353573028900262,-0.13990733438173836,0.18813714789322356,0.4950358020556287,0.5375792513049185,-0.297031440970235,0.14632900246224098,0.5456174453293322,-0.7108855280737618
-0.0038391592141452952,0.2705389431654138,0.06972017017930345,0.7247225643928086,1.1709672529540178,0.024382745088072588,-0.0124213591295669,0.43682662452355453,1.2088685690238115,-0.4683919525435492
-0.23842392252776579,0.3641229777588645,0.512659554004088,-0.027294429742013588,0.7258585131475113,-0.888737807487155,-0.10904693080906218,-0.02097098328023432,-0.4735643800650453,-0.25376089690401266
-0.39095319196873834,1.7949226413064907,-0.11281563361672473,0.42172191391810093,2.536874525280737,-1.1534646073608832,0.0034805099802901643,0.013120798222481338,0.6982408086162211,-0.5512354333636669
0.28369895726890076,-0.1932121670918654,0.5098432581829349,-0.20528011233124607,0.9460429253283202,-0.8077191162849939,-0.3118998797455593,-0.09196411634588551,1.0721939274547783,0.2562504569644836
-0.015266706914039698,0.5650496085077412,0.2719094054513793,-0.3025920913699214,1.4582766440987553,-1.157312612301421,0.2724330885196646,0.3354448672031529,-1.5885010671532158,0.20845161404171988
-0.513921006044095,-0.03804119869643807,0.10048948363391864,0.301611280441545,1.803820064135763,0.3754702954520221,-0.24601625781432807,-0.4663117955923646,0.22253461103855188,-0.5760302492553712
0.2462404223271524,0.13643391237344416,0.7221708988618237,-0.7825774391029275,-0.40437170501919983,-1.847416559449032,0.43066350313307333,0.5333025973767967,-2.310214212400116,0.23958147697582316
-0.26598042013896744,0.6389307684341526,0.12065540858682547,-0.053562992592004685,2.1166603392991665,1.6626445530294638,0.10515728628012484,-0.15838401181292902,-1.050630640983374,-0.11964234077420582
0.4253462938631366,0.05502730270646902,0.10217924292575394,0.5818039373851543,-0.8316840027564034,0.9653188583944776,-0.06884511197687214,0.18415818785832114,1.37410510778545,0.4250322020340936
-0.03575155582059115,0.4264915783140356,0.290702024551442,-0.4413031142169833,-0.04204867889373498,1.2835509548832327,-0.1513241799297791,-0.5050052815700538,-1.1822677090488671,0.4311502174146089
-0.23156323649495508,0.6877376829948894,0.08289130514674813,-0.4208430020826719,1.3132035970305385,-2.468933478777497,0.06616079527259633,0.14765666386076032,-1.1305391562672535,0.1497728790938236
-0.26752940164125805,0.3819329452021785,-0.04574978748901433,0.1355901976328086,1.2192365304678687,-0.6885301676313712,-0.2271537251037343,-0.38546825225292036,-1.8649065977854855,0.8953187940113695
-0.0020840717708330387,0.45822220961822674,-0.48878817264383,-1.0885849445223945,0.3136506298974757,0.8645620077920271,-0.0073197437645565145,0.24014626402542594,-0.3107394864961664,-0.10616100994286115
0.13284265891926897,-0.5441725357610235,-0.09676914387375854,0.42137420640148526,-0.5742591552876277,1.7237605499673212,0.13372341824948042,-0.2302642389882107,-1.555631281528015,-0.1328463429595303
-0.5571622158988314,1.4424762024828206,-0.37050718357483914,0.06638801051567204,3.011695550391755,-1.3953475186782287,0.17214623860861472,0.550908368619921,0.3305949878704934,0.3659031856762062
-0.42769659206648003,0.8757228655253994,-0.04030739988463647,0.7960031156414067,2.6038208496925783,0.3719481202637398,-0.19810834442975325,-0.7013728467789949,-0.9594448600129492,0.6927726574679578
-0.6053735704354696,1.6118747839096175,0.21349413885327417,0.3861691860630551,3.0788241497524025,-1.1470440594617592,-0.35683142867105505,0.44557886066771013,-1.4717055806397168,0.14710860658247327
0.08041233435020127,-1.1929483402157364,0.3781209246811341,-0.004956527483763598,-0.7485183428503892,0.4798549406995274,-0.1293406247212572,-0.13067135087324933,-0.9193826025934293,0.16520659445816283
-0.33409382380711933,1.1179763113367873,0.09480027800253472,0.3985427702298433,2.4189804046543406,0.7559423622315683,0.19517257639322616,0.6122930088055397,-1.3263166048692403,-0.02711896829046119
0.07713848820873281,0.05269612184045827,0.0580179455149943,-0.06857780508899187,1.3184926987153802,-1.1624896727811722,0.15896767263221165,0.0788184345314583,-0.8486624788356504,-0.37051880591137315
-0.4527712769619797,0.8160989286175587,-0.33145986119005905,-0.489838647067876,3.2417874452170103,1.5538567069571532,0.023745129269005287,-0.019177374435164807,-2.3421043139927153,-0.1616886539240643
-0.16207964304350922,1.1032466111237165,0.36913271895628136,0.8250334203025071,1.6649315831895826,-1.5357505846487007,-0.33517976122605164,0.005087612542467234,0.9842834013614472,-1.1094966274731628
0.333503856084649,-0.4589286210817717,0.040596551935509234,-0.5456723666403349,-0.8554097595483898,-1.9155887292881828,0.11759144443627058,-0.00851244820936359,-1.5112598861202566,0.01717181562432791
-0.19853332297454118,-0.2324949347835457,-0.23732171505207447,-0.019026845590144968,0.355925654786281,-3.1381407384563262,0.34468704389104504,0.3423132184618008,0.34033801484552023,0.7972906408148778
-0.23133967339484665,0.21171580275411256,-0.49411330428144445,0.37790930738096845,1.6365782983096913,-0.23743872589003767,0.17996605251767642,-0.21276540668217414,-0.9894627841483934,-0.5190831446112193
-0.22599217612476138,0.42856902236110617,-0.05989250564455871,0.1272252214219137,1.2277132589372415,-0.23304378289436148,0.2216488665916502,-0.3430119482962129,-0.6223336918401284,0.2384089521342729
0.14049896892322633,0.5255054654726309,0.08091662175804923,-0.08294216714333258,1.2011470497034704,-2.2954268142127523,-0.5070590752739654,0.6217613282412298,-0.46370347974141324,0.09722515529353457
-0.0671275858410358,0.8871002538784338,0.16209567824862306,0.32022183216860267,1.4972543416579898,1.1374046356508858,-0.06436933396731877,0.31119223605923285,-0.5030076777643604,0.5715923024937145
-0.14626232988468257,1.305004553139464,-0.3270444083548025,0.007685889884319411,1.7774041865260988,1.627031615174831,-0.6545227540796746,-0.22925998532403818,-2.0716838875124886,0.030713106344234412
0.035473386592569565,-0.7885530305160975,0.45896896523546354,0.4249549002035085,-0.4933000841230346,1.3579499750868704,0.005524031379290214,-0.050987638243523176,1.1481344706624819,-0.6635943463848939
-0.07740943603332928,0.19618751947568971,-0.08180610221744389,-0.21027193204019337,0.8960558623492876,1.148925887250405,-0.23271891836696657,-0.23266324298602586,0.45354530759388345,0.05193448975676187
-0.4884614585688626,0.7829032248028802,-0.4609086722374827,-0.3817826640069158,1.7393776365327391,0.35214336889732145,0.020429369473039406,0.05927031268917727,-0.5648240986217259,0.28412569459041576
-0.12743972597237457,0.06817757123077231,0.4080231052149046,0.07098722774508433,0.39095087965215036,-0.44615082621045615,0.02027414332940202,0.3409897084944575,-0.8292192925266748,-0.5669000044543119
0.0543689246617317,0.5920267503250061,0.09162013886317644,-0.46311910248119753,0.3894927948168714,-1.3232891092976689,0.3893066313282453,-0.26599514595454227,0.7610063072629382,0.1017438176517173
0.3146223699339377,0.43391331850807174,0.2954050050006516,-0.010034673804435184,-0.13228580298824477,-0.01345140516251031,0.14116495449393768,0.5554770605306383,1.0674141978886715,0.7972271767361361
-0.4992676003549835,0.8858837514341188,-0.19157947103955444,0.09213262441396901,2.506602334442919,-0.7224952918099812,0.23231933598824628,-0.12580930024345405,-0.45343071188143624,-0.34573159234716583
-0.07486467126370226,0.15706183263878812,0.23506489558146923,0.8579617490989994,0.1562781906100159,-1.4192433061588918,0.024106981204239267,0.08351765194250478,2.033465638041609,-0.06915854088224752
-0.18865150356772645,-0.19336955403592915,-0.06093717044006559,0.12220359341414526,-0.011141135437624738,0.05820196029361868,-0.1513154735532405,-0.3790574390922136,-0.3854826464226827,0.3189986614186523
-0.13840257144607873,0.2641381324807981,-0.7406005545326801,0.16410102997601297,1.2273578739016289,0.9285725638204275,0.11625862635862173,0.001657639706971797,-0.1398517211420234,-0.0997431525559615
-0.44854156295716385,0.40172264890774106,0.09554734193465758,0.19775210061373036,1.5438121207763889,0.6153206194122324,0.1362543093470215,0.5379879134859197,-0.15742932129823484,0.7526168640055929
0.17545309624893887,-0.3657196797681129,0.2272982194568935,-1.008626112842824,-0.9152940996985117,-0.016264787808191905,0.2104602864199499,0.03022157812336647,0.1566815033201224,-0.46957903501771003
-0.3130943613663428,1.1471869741799954,-0.17454413032948246,-0.4202901841840367,3.3541316835096877,-1.645658245338544,-0.0241862434334016,0.22770517418110503,-1.2932998555047113,0.2490405404899433
-0.3126254287648275,0.2029644516477984,-0.3312841749450746,-0.021458931291118546,0.6247710366994523,0.6876166948038277,0.019715942367332182,0.11273903829192837,-0.8446621572574184,-1.250333537930993
-0.4342095698929488,0.5381405163401805,-0.029083314074634367,-0.5708313207323745,2.0580211072981878,-0.012875642201602644,0.37713061331624786,-0.04231201723895062,-1.5443639279950405,0.3461212191533583
0.07039816280060503,-0.3708840384890434,0.020278987002881114,0.560521283804609,-0.47970622040863553,0.7913531244678695,-0.29272184724248107,0.3240937303764418,-0.7427737468430047,0.6033342638250069
-0.07206993758118369,0.5879215679619304,0.038275830977218636,0.6670881389801092,0.7067433459754444,-0.33256653156065624,-0.08156232575910415,0.09325415195044846,-0.4413780061128102,-0.4192514661330255
-0.7920364026205637,0.5935464023941138,-0.22670750259313338,0.033709499270781276,2.3827007764258883,0.9723777193912939,0.2131422002928102,-0.044404911248561295,-0.6318625164713495,1.2542245194434507
-0.2229915521979714,1.2700467504428372,-0.5805936813212127,-0.6342810920294296,3.112837850939899,0.08504380079879023,-0.15699326272119352,-0.24594498302737963,0.2959459108756646,-0.18497572122054234
0.12304885439211304,-0.05612146972020514,-0.7138856511166187,0.873360648701429,0.06103606159710928,-1.0309282640537587,-0.02369908449999395,-0.16706873385569218,0.9310560218208699,-0.7694036877684024
-0.47056027102193465,-0.0288152623715205,-0.22098894767771096,0.25021811740841626,0.9871492427515887,-0.04643455246382385,0.4877409638283787,-0.42472107715631496,-0.49156513685008085,0.39212371764438814
0.04770387978895708,0.03904560178926374,0.012417736251142843,-0.1775505084242241,0.579096382822603,0.3915850539714053,-0.15749217862270315,0.4747897600130812,0.10561005016236358,0.5555495870611313
-0.2679411418097189,0.6300686122491794,0.5712343953418758,0.6936416808166663,1.8090125634170526,-0.3552679806869306,0.019314570460511573,0.0906874333577993,-0.35076085450364713,0.6134671792098874
0.16095192753854412,0.6436513839626562,0.2443296666334161,-0.09086051277419885,0.24841356622911692,-0.6181396741397531,0.3651044888413393,-0.04597309949000135,0.028378674023370964,-0.15811685896364816
0.20774145403653663,-0.16020082383753131,0.3800795555964782,-0.06913223146866054,-0.10886802410964125,-1.033024524708818,0.33753106126062976,-0.03615275857368333,1.1951204082827527,0.055619259568378515
0.14245055915495541,-0.12376339850706423,0.10387221998916256,-0.11748227727126352,0.117679441138419,-0.5655604262774171,-0.2656896211006591,-0.1566278630330174,-1.4093836928225172,-0.48915853196445
-0.2945200928668553,-0.06335487574406092,-0.2708210113281272,0.549160212414717,1.2077763196922882,-0.48274511165087264,-0.24504420580880532,0.006915666097279232,-0.23526740267662558,0.6680486494075072
-0.10856285845603736,1.2660400976650914,-0.5249258550067537,0.1933758474080136,2.4808147724845444,-0.010377972779344713,0.5227530853611103,0.021248920329070897,1.6838134423299977,-0.04436174434855789
-0.13167416768215462,-0.7673988374503053,-0.3189026665340216,-0.4863835935526486,0.396020118880551,-0.22090216229869808,-0.4881864948752945,-0.44177869961840105,-0.019380519007097308,-0.07886672559013078
-0.5713316944734901,0.6387314189613722,-0.5625936804526191,0.11615962864525547,1.9184963957136385,1.1435091974060039,-0.14411105213667003,0.04374172057854267,1.2950340028321436,-0.6248329198322792
-0.6036194799355654,2.004787347908418,-0.21554905013351905,0.20189066578474885,3.036040874521089,0.9467158906458015,-0.2798717616388389,-0.29146418529455637,-0.616615441279599,0.9101853179394971
-0.2589122398775421,1.2592366888222202,-0.35071764197527394,0.27544102416239924,1.1583087361140216,-0.22650220836186175,0.40578533758007224,-0.035465716393788725,2.126533674908363,-1.2585604930991763
-0.36303873602617687,1.1223122771714453,-0.18958551430500006,-0.03568481433436362,1.6098649373793212,2.035792913493901,-0.2787392224226285,0.2840128393851378,0.31930073627040423,0.5707930807530032
-0.3519583109670616,0.7092394253588046,0.08556510519402902,0.2066217013078204,2.8872824705501166,0.4632324074647013,0.19869378064746976,-0.16202236491738745,-0.482439305823238,-0.6508109135907437
0.016612325013363335,-0.17774534111878415,-0.2680331657518076,0.22451334098350925,-0.04017407256929495,0.8376634117710692,0.20470536419596475,0.05776271441255971,0.24638793045180624,-0.20326716572743267
-0.05937904811150266,0.8084858792031641,-0.08878176221500275,1.1468405109419026,0.6054647475572337,1.0609486226586782,-0.08448622127618378,-0.018870114884765622,1.8420881140293859,-0.6549824284467228
0.13854894716533583,0.3704150255156923,0.2704622626193421,-0.12487921822598623,-0.16622878939019659,-0.21796905882383222,-0.37752809637010315,0.24699226346705766,-0.419337865022527,-0.06560003873270025
0.006626244415812364,0.760478002235227,-0.2825022333313748,0.01799084285775882,0.37425084905542527,-1.0670512407745958,0.08046223586431384,0.036002381489913186,-0.7431953660941544,0.5725362741742487
-0.11025426472089789,0.8175121403502851,-0.03850140411127964,-0.2327337297187934,1.9957995719623294,-0.4111640175450829,0.10598293024309124,0.03723711158517386,-0.23060432525741978,0.5924243828335795
0.20169610859846984,-0.36643336611484123,-0.14013676049750684,-0.8858508974045441,-0.42177175830761715,-0.40568609806772993,0.03316485507128689,-0.1710041712062394,1.0349641760193078,-0.24906229266841476
-0.3918289216552359,0.9035134730489373,-0.13721680775444406,0.4641985924050886,3.210330788146414,-0.5967459967265625,-0.07037515615927287,-0.12398880515193093,-1.0865233430011312,0.4803299171400677
-0.03535807570107978,0.27139681327998844,0.21196776661830308,0.8191719200318945,-0.20349257892917616,1.3450188500194016,0.07781021175917499,-0.31465367050816934,-0.22842815676182304,-0.06928194828730005
0.31295262955704656,-0.1344982154056871,0.185761181252976,-0.26177696544216006,-0.4679665802769989,-0.8121359699688633,-0.032723914284257125,0.4242172340739367,-0.9907757612363747,-0.2138501519477167
0.15981307342012555,-0.970088581435443,0.4912538555525834,0.8611334614536308,-0.7746982439109135,0.015666121095739616,-0.0661959830109093,0.1435033362097047,0.3806541003614232,0.2198270257378582
0.2637611448521247,-0.1628505420467666,-0.4872461624257206,0.42359275894765536,-0.9419235889132824,0.49869160144483754,-0.2453104639261062,-0.47036700069428933,0.7916054529697008,-0.06581360786459105
-0.30121969469359133,1.094996540332279,0.32731178628542623,0.2822405912595395,2.806654412581744,0.3593763624733807,-0.20049328052914275,-0.3992036826506075,0.26173401625247783,0.061204865780254726
-0.390897332884439,1.797206825410217,0.5788765790809118,0.5784262814878864,2.7715272046148782,-0.40487853770291193,0.3405057934483564,0.08169598153301116,0.7828456533163215,-0.7321716182749572
-0.1693202151774522,1.0290385435534986,-0.08551454432464221,0.03890098624598442,1.148578303142461,-1.1655030878976822,-0.1193768573118988,-0.1106701308741658,1.3568801572569609,0.734883614632283
-0.16315577274903026,0.3827506097790547,0.27578945595854715,0.5956086482714232,0.6901326243897898,-1.8048402100374574,0.22486086140992045,-0.12360266209361606,-0.5899214833410646,-0.0610182989194341
0.3616341030835671,-0.30428993272719423,0.2140987875791118,-0.6715465650788665,-0.2907303838192281,0.3446426055601091,0.04279411146524982,0.13288492642928917,-0.16479480442055547,0.7817206197251211
-0.17349112148885262,1.0918778446109456,0.18368750748630838,1.028030749417415,3.3135590418429004,0.916313653107625,0.35583212947120996,-0.24514539037861766,0.4008276515716965,0.1795048455681532
-0.13918228240244934,-0.07286689684068079,0.005911866241861347,0.20692517531834972,0.7400285665440385,0.14693085336162104,0.3342378221005698,0.40067694763615985,-1.2008852625710087,-0.7815989215284816
0.24238902423659778,0.0032674897289299404,-0.3913761394266965,-0.1536509316625165,-0.6983451611026785,-1.4367588904143764,-0.03776155668724678,0.16549217259019725,-1.415384921433073,0.5621296740513473
0.006463537007240244,-0.47041635087825534,0.16942921568606986,-0.012011059204947081,-0.8495572489358777,-0.16316875888114657,0.20693838554214583,0.2836026007805785,-1.1499245481514178,0.35168586207415237
-0.34716445243563887,0.12125067741464049,0.016896941645606952,0.3192485357341947,2.03815063012761,0.5140964218921318,0.08146445698776718,-0.13643037839703415,-0.5785547308996679,0.342442579630387
-0.29605017551121476,1.2979927325268508,-0.3035218545662451,-0.17093970293258956,2.9905283552344892,0.2591380666698156,0.4463287250804805,-0.23516386630717837,0.030178932662020375,0.0833458203557228
-0.3222351015080789,1.097939464808652,0.439477535499115,0.20080312353896887,0.8307611404323767,-0.1813666727486261,-0.27915997753217364,0.2248213487030441,-0.006377973059507658,-0.20980829547619326
-0.5301171014692153,0.419223034460773,-0.7075575004610349,1.1309779733642105,3.0603753044360475,1.1863127739413817,0.08045443974217126,0.2883527856607473,1.2055796656505386,0.20791369441433719
-0.21729074692158676,0.4607355844441629,-0.19666993458504442,-0.13306008578375525,1.4215745142807217,0.3741071918359502,0.14760772042194623,0.13636818627596095,-0.5874709399581983,0.32995321969986807
0.2539553052241564,-0.7414230988128355,-0.06483293103580168,-0.40976425324024873,-0.8002817466798755,-0.6835104095373827,-0.41020347000802243,0.05605257616188171,-1.0225590789311354,-0.542686738037202
-0.21269663323153565,0.30921361051075336,0.4191418968300874,-0.7538282756916418,1.3500139630614467,-0.25511571240071484,0.013315005392810567,0.12831858983312525,-0.7572912935239825,0.7973029670372379
0.1401768420092222,0.4457114514071586,0.3007546173515748,-0.21519508619200065,0.11894034883422577,-0.20235754657284427,-0.4103179474958035,0.010563034123368061,0.7032765413264038,-0.3600252169679672
-0.3935047887028798,1.4191910064009092,-0.00846555686877765,0.7118290712564148,2.9653580472649224,0.38758890244271393,0.34206670730348826,-0.01136388611077952,0.4693551441703536,-0.08443942785358381
0.3942597855186997,-0.15978879809999222,0.12423713720794786,0.8745476970509417,-0.5850712528055237,0.21695557371714028,0.37765315841772934,0.1635401898430753,0.001650191952271396,0.18090041474868376
-0.1925625977130462,0.17212912067674077,-0.18281969583500005,-0.3362753644534536,0.8253491845848187,-2.2444793523080016,-0.17776725212017735,-0.0072939915341269064,-0.6697970832895447,0.07956439622168776
-0.11736831474732046,-0.5947683626673607,-0.2581335561773342,0.6512668194898844,0.11678693170881416,-2.360935734110955,0.3965961730899886,0.3039912503071083,-0.6489683830991952,1.09713222908186
-0.9137026539405091,1.539472435628181,0.3800573624923107,-0.2967358352806682,2.7739885694014284,-1.7970208788602715,0.15277637436945044,0.4302365290300254,-0.014423344172764974,-0.2987963128819684
-0.18401837355982545,0.28827877097777643,-0.13222161034253008,0.03858011793579544,1.2500530282248055,0.7192504194134681,-0.3193089662883487,-0.07721214765205586,-1.3642653170874794,-0.12088370744849343
-0.45434142092462815,1.0715754906680093,-0.7668493472439241,0.4411587925729735,1.6929615086711403,-0.2059951713989951,-0.5529939227369894,0.12049384425143103,-0.9511558118957234,0.2383377247351207
-0.35635893552163783,-0.06105854850183049,-0.10916779082070491,0.027148554813572805,2.239923316046878,0.8084460887733511,-0.04310235635378886,-0.164290982920828,0.2750171758668791,-0.11933049218225791
0.1392448369401783,0.2617094102529366,-0.15947512285259152,-0.2971202644576218,-0.25088878869878584,0.6048188925447102,-0.43947236694018554,-0.25990913765124773,0.17716938182790243,-0.661226740307346
0.12602952170152998,0.39336439397254114,0.09935170649453735,0.09033800864343595,0.48651727948763046,0.24404401822237318,-0.07141553773382382,-0.2517072082670071,0.9196563947855042,0.05471303787930248
-0.28164711247475366,0.04326167214022119,-0.1004860850388137,0.4929473478376758,0.6226850777538961,0.08299923064428211,0.014991722840813933,0.20582193147297095,0.25550704072615515,0.6452806663877193
0.07764499947851564,1.0780352334568548,-0.21632776644013155,0.2921642532854002,0.7646151513171378,1.1971724521245377,-0.3335055444707958,0.47851471643411986,0.589512189028915,0.4691080509244745
-0.0659815915279594,0.7442682243639058,0.7529937513839646,-0.4817775512473223,1.290947149538709,0.21303481771681912,-0.16829863266726727,-0.037251780570934444,0.7077249454843233,-0.10612429434373731
-0.38354576138073054,1.7431970545904696,-0.56918011562931,-0.4181929111793409,3.305921009720297,-0.0037724423705761123,0.09560669572285886,-0.4115196615141711,-0.7537723215493124,-0.5229920941356921
0.03679467546210642,-0.23209704067252462,0.4132038744906387,0.2918367364280725,-0.2902193857464809,-0.3148091953853216,-0.4231435115212444,-0.08728833404210588,-0.1598773803226951,0.30220179157075927
-0.6406617765871779,2.191259683906976,-0.25417663198293095,0.4618995491282219,2.6552192856112318,0.23919287533694988,0.2755339461761538,-0.05958656769848409,-0.8441193415279283,0.01959010136088133
-0.22788859794285063,0.05287014807292064,0.07465066936060331,0.4057635142131078,1.1090960523774474,-0.07273700849778658,0.12296066698605321,-0.00457770897053444,-1.1403454182600254,-0.8037260049306062
-0.25495540626039853,1.7166671463436416,-0.2350474102234611,-0.2083617443459364,2.6146140464478327,1.0995160520686413,-0.2526562324545701,-0.3088974816574042,0.6751929051332184,1.086222908321621
-0.15667797531307245,0.6793552433918274,-0.20860326716411265,0.1762951163037757,0.6992810856768239,-1.6666337992769071,-0.03922742677239358,0.11796634665196559,-0.06804242194576304,-0.13386167840784854
-0.2001480555597768,1.1640982419124029,-0.042826606509696136,-0.014521822609285069,2.003154247488834,-0.6180911364368094,0.07920416366568866,-6.612586603708693e-05,0.35838666779351386,0.30905076764610706
0.08248707215235142,0.16194024201276838,0.33193240095028265,-0.20571951563017304,0.03212780220935674,-0.9695687163900186,-0.16771868869604833,0.6322609316851582,-1.5643807262011817,-0.2462412673514061
0.07132096293208816,-0.3063250763217134,0.18999147532111785,-0.6741954135775369,-0.37348560184162727,0.3654154600272916,-0.07700545768298725,-0.07754884596413651,-1.3414640334862107,-0.0762165653886589
0.24612484398670018,0.4605963922094175,0.2520625928646457,-0.3404769836440681,0.39960219824060017,-1.505074190923641,0.170741510940892,1.0535543434570973,0.7264041822633391,-0.8303971426916401
-0.560302415911642,1.884237741184841,0.2155962113776177,0.6446206811711913,2.8637856264065302,-1.3388829271799365,0.24837843030931522,0.11642641711199397,-0.19860227687476148,-0.5228548972322756
-0.1486397345961486,0.33940063723718517,-0.3974095423786513,-0.6789449026804509,1.7296970352433108,2.1167441228124986,-0.03095665933158997,-0.2982075583700994,-0.4760332387209928,0.3492119755164512
-0.522485144777639,1.2621996576427463,-0.0024618154780080385,0.09471933087884578,2.7346497117510613,-1.491311560766361,0.21230132278447297,0.3421989750125398,-0.19722066766113025,-0.8040590616697891
-0.3726261951990929,1.0568687336802702,-0.14738232775860496,0.22810255138744,1.9066339809391164,-1.442306238730346,0.13278631970258659,0.28753380491546,1.246218861493576,0.4882913181403269
-0.049450548165435614,0.08735915378945185,-0.1491792877142969,-0.12094573963845602,-0.6991970720082692,-0.5087594288450403,-0.07712678405007534,0.053672053120450466,1.3998509745891279,-0.47731827018531175
-0.1592914198123788,-0.04916502449036246,-0.22605485040328804,-0.15168626102785113,0.9103350190985187,1.2120255067029304,-0.05182711695679956,0.003696191266239144,1.1170282329752976,-0.21911011671234826
0.20562490020433216,-0.6409724421940787,0.0014573373062382608,0.07694479135041614,-0.925934213294072,0.8054725683326176,0.11501619919316866,-0.18018195978969123,-0.3115247698193004,0.1785812903791534
-0.13127859746705944,0.7114161300124346,0.06797918705274612,1.141662439079993,1.9634600021876523,-0.7560713752158386,0.10106847756290856,-0.3837042254572601,-1.0009885304660395,-0.36149122200794614
-0.42360082762959944,1.0413749909673973,-0.21520083857087968,0.17572101420318592,1.3550094087269158,-0.902794602937963,-0.05902423458320153,-0.3297946610259621,0.3697504308196292,-0.13434964083737033
0.026112172595061038,0.8640517179979955,0.029890012775767284,-0.029231181309057153,0.1664923216362595,-1.0812974495963654,-0.14924854587230885,-0.2182429639848546,0.08748222703366026,-0.964344858914552
-0.3423739183302353,-0.09104312028878979,0.5044918201547487,-0.3844921568653007,1.6617636941461864,0.32935689131952095,0.538707047110814,-0.011577618658175888,-0.1597256187395118,0.5524003169801087
-0.5468616980972092,1.2928980968523411,-0.2274970449131861,0.2254586446758918,2.202866774444506,0.43241067807852895,0.016745218955107017,0.1739680418847735,1.2683771642425552,0.9983585020786716
-0.13901560182197562,0.4205850576825913,-0.08392641751912627,0.41641863404353946,2.2918816271331783,1.6269286812196102,-0.010884305871225368,-0.433802902359816,1.9957520269671893,-0.1326010062647391
-0.26145940337419804,0.320999314178015,0.07162291784496962,-0.6338406637784393,1.8220870672424727,-1.3936211423062963,0.21110927185211423,0.07078827788544592,-0.015577576288477724,0.25626382186171587
-0.3407203878932298,-0.3772839160887286,-0.17667068854929177,0.03943028744044567,0.5844100166607247,-0.5891997137826643,0.37147526998443203,0.06690145007338658,0.38442332118877237,0.007100029604511638
-0.27180850394611156,2.2381140754962696,-0.3532897751049648,-0.07978474433013703,3.066240528528355,-1.2580643915242504,-0.004482076980492971,-0.6507166773541676,-0.3229864107894452,-0.005693509264712808
-0.06930356887429036,-0.17631099520622348,-0.04978207541752247,0.320148978656687,-0.7914978882259713,0.9292738517195696,0.14576882921255435,0.13630928572651646,0.2450331472627734,-0.019737432119413992
-0.3062806693087825,1.4197237692879665,-0.01873179105661969,0.4016192590338852,2.3756728281721595,-0.28585301976951766,0.1455973166868177,-0.01152991922184357,0.3183210379181205,0.4419230440123688
-0.33122513087614763,0.9723080423111413,0.12190855079679135,0.04089574396540456,2.494447150886274,-0.6824638083904152,-0.10877038597182774,-0.03345420516648396,1.4254749470641814,-1.1359173452792213
-0.09527302055625086,0.1549210551428517,0.6333902131858334,-0.6763647484004476,0.564295646060424,-0.5982453460922617,0.5890518774667717,0.02783153592978248,0.28284895243535485,-0.5867759305057848
-0.771935302410917,1.9556780215425904,-0.48367700010032694,0.3401089427032009,3.404200311273029,0.9564351946988789,0.40850360065976604,-0.2100147004074352,-0.2852539011558438,0.5254840254729675
0.26811106458203005,-0.8341643208643664,-0.1815064524287088,0.09437569176601385,-0.8588620480591832,0.34147109242289697,-0.1057494706174201,-0.08558678046822621,-0.8529607974396863,-0.9523674376881116
-0.4449064413860239,1.367372837692569,0.06974254345495881,-0.4356070352452757,2.666759119474552,2.1017573630975646,0.2083287215782111,-0.39766363304508623,0.6994681673065304,0.9186854443284608
-0.2680631968667657,-0.03992784183125132,-0.36565691205406947,0.14849425255523582,0.8170825894917857,2.4775457792246605,0.03326889366514465,0.3887892250138395,2.3781994124090784,1.1553461467138226
-0.3656674919400676,1.376083462474143,0.12850286083658963,-0.06626714259240757,2.871855656299432,-1.100077673123859,0.07050946877031909,0.1709990331838499,-0.8680577484604552,-0.5166461518522849
0.284161581929982,0.318278168595402,0.12308492309356436,-1.3085113956879166,-0.9755599003646334,0.32135961274905334,-0.2884998170380048,0.23241768971325696,-0.045891782822217564,-0.9033906568030495
0.008289779140401151,-0.4872949678910711,0.2762700030213511,-0.20845503118235176,-0.3512182161847375,-1.5079206017961664,-0.13063973758133587,-0.01775795566595992,1.5409670590976827,0.7575250255370273
-0.03257502835580682,1.3672068691828334,0.19776561260112174,0.6169035601378189,0.8821641104918967,0.7768512906333358,-0.04936414507722065,0.3583280040911208,-0.25011965077750337,1.062228433318505
0.06823192259633969,0.5710162294948391,0.3938540407418319,-0.23527942348101996,0.22880775588472124,-1.052192109774363,-0.029887995834753482,0.31736888855304785,1.4333131476249363,0.2880430285914303
0.0016263211649759082,0.23787102211768477,0.16683096432858233,0.03847001486800417,-0.3022186422190426,-1.8748410486661211,0.1389225845824462,-0.09790670868803952,1.7108640486590119,-0.06087198049691904
0.09388246180030038,0.5350765037062533,-0.16439502254297222,0.06244799959346195,0.15686586915880918,0.6593394859432089,-0.25749448395543667,0.06460897151094518,-1.222682180077856,0.173391429257628
-0.3022607842459976,1.314896739476926,-0.42781795102701636,0.2525137384154825,2.6671735586081433,0.3652934699344538,0.07652316056565946,-0.3014937933713699,-0.7250887779197595,-0.2683108009438633
-0.3455477506981851,1.2939323539772047,0.57737344872089,-0.39668903815080353,2.5285156017205934,1.1215016529085147,0.3636276643393123,0.44243258480866293,-1.8439100880460888,0.22310577083992128
-0.294166571530406,0.139253995866946,-0.04901114508011216,0.12253583067198626,0.27097063327857085,-0.9253864057823606,-0.36961982045860897,-0.2988887428998215,0.1682755657394131,0.40562312374352627
-0.47345591140071946,1.0061093028020263,-0.3348979834819097,0.669837099389786,2.553293485476907,1.415978773302281,-0.04562545578518123,-0.03476223719962153,-0.9725223762489279,-0.013614787553306433
0.06842898474188651,0.059936229655058425,-0.3887322687798701,-0.3387367102012018,-0.4998957404268938,-1.596544581203797,-0.15152062956065696,-0.20405500026446463,0.7768414597438553,0.28333316684230897
-0.1119039920746146,0.08056813392683981,-0.07134335302020645,0.33984452226704637,1.6472173778171824,-0.7454486138009562,-0.23356526827984267,-0.04018237941848195,1.2807938066170452,0.245039686457077
0.08770720501732006,0.6219002206072305,-0.3146185262487458,-0.9117470630491252,0.11651800525244038,2.345185147706304,-0.2802450120251476,-0.5971437885043801,-0.8533473902693949,0.4262079157211938
0.1700133018941563,-0.22250127542994777,0.47467795048601724,-0.3930991052763348,-0.22025406376090628,-1.2996388685431572,-0.0018765188537052866,0.13009684613714292,0.2260884169796723,-0.5142339636390687
-0.22853708155367464,1.4871768616818641,0.2904291051360469,0.27458739036648205,2.5778254768749385,-0.1196066726934924,0.18685434931056782,-0.543901146914787,-0.6023172718009047,-0.35341519537170857
-0.6051863116974369,1.680452248591293,-0.818605384167659,-0.2505129675990288,3.3234965095112026,0.3679465301920396,-0.01286697325164422,-0.05212402676027084,-1.0055879370613314,0.4965271959476424
-0.817971883520749,1.9857130950040784,-0.24533742315377347,0.9675239929385098,3.4522700664559114,-2.637748486545906,0.06553845360249115,-0.3202177034302121,-1.0427698824384335,-0.1619416764330538
-0.42202517709341697,1.1484106712162419,-0.5862864373673989,0.646852833634007,2.1072474538576103,-0.4078217691832043,0.05869708489076846,-0.05432979894630171,0.04157631676365636,0.355951500033826
0.03794910912133905,-0.02288900437472199,0.23282877615250713,0.3301403377964645,-0.36925539078238756,0.9806010597649913,-0.2071338936271164,0.05651961910166657,0.8307357909441754,0.4372928442081369
-0.17805116644632007,1.3267058459809002,-0.09806856312490282,0.20933629356761516,3.463822956245533,-0.6698414973985417,-0.13532483871628406,-0.43236844395533336,-1.908572899327655,0.08759651887197879
-0.10473572249577968,-0.022196126416608668,0.0008068824857339878,-0.11044635075506064,0.09203727887757918,-0.036681500984319465,-0.14422134313132015,0.2679048923413994,-0.0941946987913705,0.36216385765034853
-0.12426290112373127,-0.687773168915234,-0.1280771141545396,-0.29177870844342346,0.19297238598037558,-0.1862965971367027,-0.04412521882752267,-0.07593319302960694,0.33896028646240045,0.23483367156101448
-0.4819300130897181,0.974151711087937,-0.13507877442374505,-0.3263201509902922,2.9808103513050472,-1.7676085631915883,0.135389630907021,-0.3563033235628771,-1.3982649019367053,-0.6131734271968089
-0.12113844831757307,0.7408295131834265,0.021791109295220802,-0.5553246033120812,1.6814408793887359,2.2878996314781856,-0.20490079037193745,0.11154188856596982,0.426330901541947,0.009910168002569572
-0.11530271314871876,0.30587694210894967,-0.11900606644873599,0.20563814855958115,0.20895716102472095,0.8835859919629454,0.2111448129058461,0.19288664760799434,-1.8686955138751808,-0.22766896542709456
-0.48116606089395536,1.5184205231250076,-0.07155853527906036,0.17402676628678734,2.903961215020305,-1.3157317729867475,-0.39369901574221433,0.07393242361216987,-1.01502789375452,0.17080171670924849
-0.054947204023782524,0.9788310319223835,-0.0736341435269696,-0.08720610027570057,0.7216771518971143,-1.4134962945223677,-0.04183557400594247,-0.08220489094633927,-0.23273355057975353,0.26900425722003507
-0.4224826043528542,0.5731677826107631,-0.41979261358344117,0.8425468290928294,2.8904817162634893,1.5438999476023885,-0.2450418883031049,0.22851447491840757,-1.313097366272625,-0.5152222620661003
-0.6363271150178408,1.1408655086884507,-0.17432468836300755,-0.004621691508498951,3.046470687509707,1.4652770414241942,0.6869779153300473,-0.12141955921750751,1.1191897263739343,0.23071695607355394
-0.6501238031112428,1.005814058848476,-0.4913611136670384,0.5927373931498753,3.398339592208199,-0.04251210951072651,0.04027600789771325,-0.0041263971349456904,0.7566863054406645,1.198384127440537
0.016801373326065912,0.31821537212392415,-0.3010706258525394,0.2905114127247653,1.5389781166290026,0.44538908764816737,0.14447725847194723,-0.14081407175339883,0.17914587875816962,-0.4224424534761856
-0.35886359468279,1.1129383249838438,-0.3012426314279819,0.25927153833743916,2.5874248688247143,1.4582364586658698,0.28630410386519123,-0.0670176162835469,0.3593100964131093,-0.3563491320609481
-0.5269248191693985,0.9614378358973457,-0.05694274473850765,-0.05279570797745315,1.2044956593125127,1.624361750418128,-0.0792537218398036,-0.09157510855600615,-1.1504116258554327,0.782695489898105
-0.3684600251933685,0.6184754486014055,0.03536439934381426,-0.06799775093580303,1.63165615753352,-0.9221051034969594,-0.013918807686383254,0.24195705373915877,1.453267280496359,0.3603716975550063
-0.2636619413629426,-0.26583395585177094,-0.15314398855429795,-0.03517486685849438,0.7433979616706452,0.889178639779961,-0.22645821504877697,-0.13753379655492207,-1.2434591261573622,-0.6688547763573799
-0.21212096089432683,0.32052487106580335,0.776426661181451,-0.37215905798948856,1.3077763088413672,-0.6994899508544898,0.22661177272222913,0.13609824478718047,-0.5853528541601275,-0.28086253215798257
-0.17384361425854508,-0.4635668411346146,0.035259450851969985,-0.256676194489522,-0.16200872263821942,0.3027342072912441,-0.01773186214986957,-0.061280770803729186,0.8261912310952706,0.829485360267802
-0.15437133747162238,-0.21644880996944527,0.14913462256835544,-0.33467810501774936,0.08591395929425283,-0.34805644319571516,-0.17469721634699537,-0.19241406371603662,1.1088946822628172,0.31969189232542844
0.15229365662586566,0.36195381312472275,-0.04911533940189142,-0.9297647284405662,-0.30853715057880293,-0.12338002884176702,-0.13048824778273757,-0.2323187838147944,0.8067218552151747,0.12756611490566172
0.16888387706049834,-0.4333121173648282,-0.4874386077355201,-0.7956045648518569,-0.923471936568906,0.42634760160927915,0.3550913807252037,0.36376891790301974,1.9103337421668547,-0.25946998498276724
-0.020475248077426574,-0.2415558263290897,-0.26011662011507003,-0.29917387746553037,-0.3907236357660704,-0.0535624436372335,-0.23592245784137034,0.2530158311824197,-1.2385007231724603,-0.3106346950823428
-0.0644808573462597,0.3086767805837511,0.32770832379835946,-0.26920963208137094,2.599822285180614,0.6341562307049643,0.04366036627112721,-0.3076911818386358,-0.9127763099620878,0.9620272690265648
-0.02227695112020747,-0.07942997244330909,0.04609548149546899,0.2273275340267422,0.9715053049347906,-1.2116427490320936,0.4168603284340306,-0.11054048476809915,1.0684103563260365,0.6889065206676875
-0.2918305328889574,1.2422221254667023,0.26275718340539805,-0.6004698624192513,1.5064891064086625,-0.41821482249070707,0.667727623227971,-0.4760182202492214,1.1421088231188175,0.58108729445993
-0.2661113467200826,0.39381105412844136,0.07834730700031725,-0.048410122424138065,1.3080481169451499,-1.222246982311454,0.20230927749447017,0.273547586697451,0.849088289114939,0.02670954432609648
-0.09088460565457983,-0.13694859545220306,-0.42143454617890963,-0.2690887425139584,-0.4129105803905644,-1.2395062976384597,-0.45452916538788274,-0.00010753391959824392,-0.7233983337256785,-0.1604225075725708
0.05400860577364337,0.5486807596110058,0.33532233111805376,0.10040990654286949,-0.06948864900769003,-0.6545219942161846,0.04927749727132794,-0.20999148736629542,0.2679477415495044,0.980578152004112
-0.48986242190232177,0.326269465330211,-0.04543869479603973,0.6230758739214568,2.146875362300879,1.8344274963813905,-0.053330554254597866,0.07536302227655457,0.5471583191915198,-0.04800466470679225
-0.05198947067484325,0.43035569418745895,-0.2421732195374486,-0.19027240643625848,0.5656026720590355,-0.08115935352047855,-0.04080719409352871,0.1650886496363399,1.0217865589571158,-0.2130198880592408
-0.2623609366349157,0.31408811818168547,-0.4320697944793053,-0.28972955585612997,2.422524083902825,-1.2768117726033572,0.25441251907923057,0.2576462483846274,0.5663267532202958,-0.37133240559082975
0.3643233513290383,-0.8459600206892526,0.27081151495030265,0.5400232825787663,-0.7585131840911753,-1.6305168039181148,-0.14192668642530637,-0.47546036657507634,-0.5392986660047662,0.19112862849213622
-0.8517976704531974,1.0309739459826424,-0.11744657609770638,0.08302276921600073,3.1050578880679094,-0.7857554759554684,-0.009630297447853896,0.28701959002677085,-0.8371451422327936,0.30152097924576143
-0.5069123950809868,1.1027754089388238,0.12035417402764695,0.44102053029403937,1.6959077506745053,-0.08803812811667477,-0.47242408358482274,-0.3154882697141485,0.6278988121157053,-0.2683317540134513
-0.08807363167218943,-0.0157579734991369,-0.24923565380079782,0.29544518053120544,2.3958563378163373,0.09762085099352014,0.04997189891830789,-0.05001236476571822,-1.6664790572312531,0.427793755404835
0.023696357158021694,-0.13877904942015562,-0.41131134972984895,-0.11328065593166019,-0.6744144400336874,0.04720346423380439,-0.595235734226824,-0.6128140413238216,0.033265075049421555,-0.738692007990042
-0.12408586972048084,0.39569789397013544,0.22188571325674342,0.6797950400523742,1.3551395482702855,0.16774541253589695,-0.18264817310802478,0.008397862472239555,-1.6607123479954686,0.7795319565382526
0.027959407418065258,-0.011250561994531512,-0.4201862558534117,0.31457524223202254,-0.34103916311177884,0.8894563909999024,-0.2562481883298979,-0.3270088567220668,-1.2960451244112918,-0.14220410776038836
-0.274173893882181,1.2248617237214532,0.18164168854772167,0.5189836716257258,2.2488369981276586,-0.3136173560686205,0.0066679914516668505,-0.1582090479443566,0.7240139221035887,0.504279672508003
0.1176044688353594,-0.6647154287369672,-0.39671199056781004,-0.6918572574180745,0.17940481556219945,1.5158816065488174,-0.1799305422028362,-0.4446350912210604,0.2975976106353067,-0.17550582641206086
-0.4579773818795174,0.9992325227439683,-0.30203362586640203,0.7476502068099796,1.6071045643911166,-0.0809877270697284,0.07826351546052526,0.12111766254492827,-0.435521528417019,0.013880632006315622
-0.425710783146183,1.2385641765101274,-0.5853827902279177,0.34931329897888086,2.6821325328194305,1.3786242745832167,0.052327815762023555,-0.020824433951846893,-1.9144928202495624,-0.27655791399334645
-0.274133110884478,-0.2980388951752554,-0.025906379709590647,0.5918498054551082,0.2337436098165886,-0.40327391784461947,0.4544771466194818,-0.066361507795722,1.8062813137989697,-0.8663698306661293
-0.359945032510638,0.9709508775788003,-0.06849924211142337,-0.2383933214339175,3.2620810805635703,0.6365649306088266,-0.07782780778925809,0.03426080427118485,-0.5414750371255613,0.3746920828430276
-0.12094172553318197,-0.3590923721584507,0.05975483572289329,0.7209757930556304,-0.9797803907954952,-0.9809846996373365,0.0353763809603715,0.03861650007306038,-0.9131549064789428,-0.4818342499467106
-0.2740440487794854,0.31141368776014283,0.22488379420068288,0.9392438617055572,1.1675360314551608,2.0185082402198464,-0.13515473232505756,0.3969267389417962,-0.3090633109997188,0.12477653935134216
-0.11927262851034069,0.6463825463077435,0.18141792448342234,0.5652674126737802,0.9996342881032994,-0.8827602679995129,-0.27208572876014187,0.040358316245983065,-1.89078752657988,-0.4689702998378229
0.10112808553000599,-0.9045438936893442,-0.39713323554947433,-0.2997240823690709,0.6062143550390926,0.1492596787977067,0.08980137718089437,0.29029792393887427,2.631938544305259,-0.35014343075089943
-0.3786893299021561,0.6039429663832547,-0.4458301529628551,0.22057031450450174,2.514421446832128,-0.42389425830150135,-0.24481200365040368,0.29437079928247806,0.606534294164222,0.07041415703481002
-0.02136022512496994,1.04808910775965,0.16769951304153444,0.2623086339057067,1.8520340900903611,2.622221700416314,-0.3473154835172466,0.03332489021254087,-0.7069856457456376,0.6683347750344913
-0.09753832230318986,0.681525417675753,0.07067334757119421,-0.25059092838826835,1.2958788049148389,0.5344799629187267,-0.18259967513222716,-0.33531702630812493,-0.5035082112615856,-0.4241750627916513
-0.5293674056953742,2.072784429578523,-0.5680799207366515,0.42922408273489215,2.3284512895600864,0.40519876334371757,0.03992851573211113,0.004370438876589989,0.24953075469276145,0.47667194313893
-0.23145172914535492,0.8013410115174341,0.42866178040068864,-0.7219169622563825,0.8061738535433112,0.6680669616147534,0.09274446259453949,0.29471825269794644,-0.8471929840329866,-0.07249361920084371
0.1978955771611415,0.37833673369859033,-0.25508453027178857,-0.06823682230101774,0.008247725513667703,1.7849406251195299,-0.4641506149640506,-0.5543824543401035,1.6025839964203281,-0.1823494209325251
0.006313686005217446,0.5810379565783662,-0.07031777775825072,0.3476650490498935,-0.400779479983835,-0.29500710826433085,-0.16686410309666844,0.22671912486091447,0.7763219626780486,0.4865277492464798
-0.16870891051852743,0.6248482914190765,-0.10497663857841899,0.09349564910380921,1.0178638300998752,0.5816581343966978,0.2583983031268562,0.2202820186074772,0.21435415535098434,0.10723918910667969
0.062104015964870474,-0.022026824239760052,-0.05011928365446696,-0.24465066170434052,0.059727823950175285,-0.4659808757157471,0.12395388214645049,0.2986335642605782,0.8902294554705334,-0.02756690987872172
-0.6896488774506417,0.9719465306922583,-0.45450037335752286,0.879575069296344,3.3245702617509396,-0.37583314958373815,0.07571629015175324,-0.12134297072122818,0.6117004129523901,-0.3317227889117533
-0.44341327369561295,1.0922264314196146,-0.031235024259170067,0.35663525426853343,2.83131772609788,-0.7832913452132857,0.12576687349021184,-0.4663314104789192,1.340708835385597,-0.8046366153649123
-0.3110071195468242,1.4709032627484182,-0.2885262513207737,-0.026177266754700917,3.104519952395024,0.7560400460056491,-0.3190916378108905,-0.17081743703571894,-0.3458681683895256,-0.5853974904669986
-0.48346392248765874,1.4220943665117776,-0.9264213825365687,-0.31142399441320867,3.031907113328865,0.016816696670566345,-0.17357545781607506,0.015923029595838863,0.9239974731427453,0.36493980369946516
-0.2862983158996259,-0.11714297605927325,0.3618942526384421,0.41709376238904716,1.657599667519189,-0.5756651828647836,-0.048463413291041015,0.04527940925833635,-0.8870417108703618,0.36110011738567815
0.2280820799903569,-0.26964833297584495,0.0628053504007891,0.010251723055283489,-0.5410915203689013,1.2466953422402303,0.15442360053793322,-0.1419572591074491,-0.9045362095014928,0.9462793790897034
-0.33219633648300134,0.47798914511408935,-0.16064759526081226,0.5050340710816573,2.9388300369949656,-1.2193972469147747,-0.1043585893279238,0.2891887525754929,1.1941116192922425,-0.3599608266765218
-0.599831539763706,0.8210423510584873,0.021895299076058604,0.1854130757817981,2.975005855779533,-0.3644618640299976,-0.36812943043782254,-0.3786171435611036,-0.10980380845022136,0.2988692734772438
-0.11872252874000362,0.05541542544888021,0.12332657984520783,0.6950982706505386,1.4453031729807608,0.016429483313341597,-0.15782615424424062,-0.19777561454296208,0.09188637494297992,0.0329352444432016
-0.3714952949026112,1.0008970912507287,0.12018826419936196,0.08847451763911963,1.6049617554079973,-1.1729385576152618,-0.17048500850497128,-0.041378771215302354,-0.24541900540364942,-0.3830649275421791
-0.3433793024205493,0.3256845680483047,0.1438261479667434,0.49840280743126225,2.300467387748654,-0.6245799582578399,0.021702666745460543,0.0028266644995027864,-2.473963319782516,-0.08738002275396313
-0.523391975956862,0.2944372309824576,-0.3847592519427126,0.20603425335807685,1.01502297570562,0.824854580940994,-0.14710610841648,0.17939290441678835,-0.11656779714016291,-0.5197498792146598
-0.3631621533289496,0.07394512406270123,-0.021872585919383732,-0.07781788549280513,1.9211163390482202,1.048013807694192,0.46968957876958806,-0.3998605567835076,1.7013212168045444,0.09297042548162332
-0.14341358685971453,0.005589547620312342,0.06519983921575372,0.5957356712109785,0.8425155568127618,-0.6503725311367399,0.04663916174166236,0.37546123962256184,-1.1112894707606213,-0.49041372087421653
-0.6398792591736419,1.3763042430064327,0.36710389938703686,0.7047306060694687,3.3637130806603084,-0.3031751025894555,-0.14978133879179525,0.2849403366401928,1.8430951749774684,0.010881881015618903
-0.058235726731950016,-0.26848751943166094,-0.31446707546091446,-0.371172074958478,-0.20525997089036607,-0.23094900032157412,0.3762825881433219,-0.2708657212212905,0.14808883016570185,-0.4263486134379241
0.12352179999963725,-0.23117278880038677,0.24289838922414508,0.3507771089320606,0.02058856229772843,1.0157496648927269,-0.19172276467537766,-0.10306874518700802,0.3692942003428774,0.25776238962078146
-0.057063436479005046,0.5606104785479157,-0.03440573288056174,-0.014315331607182014,0.9409165231781274,-0.10797641067319219,-0.0246694710810341,-0.3054875945144439,0.14492821991960309,0.09376533342712116
-0.6652772204827696,1.1367328965441652,0.2990909856778918,0.04375717665737016,3.193110724185705,1.0464031773661828,0.26302352552310176,0.21070707263025878,1.3459871413938211,0.45215661679275876
-0.3636228335295973,1.1139657862605676,-0.011058322290692386,-0.13779004574034828,3.2154735333884066,-1.2366245541824732,0.07218021801508334,0.41380617569953776,-1.5662653452712503,-0.3049475969031711
-0.5397307068456138,1.0018490804911642,-0.35875832079890546,-0.6941448487390265,3.4560644480115483,-0.5940463595136465,0.07037572296556974,-0.4067315116856105,-0.7470348995635077,0.5500933814295624
-0.46706141642695603,1.0046363824155686,0.3415945875539102,0.49625177986469937,3.050054922307517,0.34545375965001457,-0.011231031269064622,-0.390678822651239,-1.906948646189138,0.23489978968067587
-0.07657635883471234,-0.17732216961610597,-0.42478044751286176,-0.40069819642382704,-0.9898844831114838,-0.1537053784518994,0.4941463744560165,-0.01404209070885978,-1.1914587373723264,0.6061011195337226
0.0979910020772112,-0.4972869547341876,0.24670229767675855,0.22345200450886096,-0.7992328642636721,0.17019712304945256,0.3816164357213007,0.23294691889308938,0.5501688140717347,-0.1289349299766226
-0.461019065538906,0.6941787358810317,-0.07003567789609375,-0.32818156878584825,2.0563560376627508,-0.18283857789019525,-0.5499089431109813,-0.07414533107409176,1.2903016050690177,-0.5042273686170565
-0.7533733536339433,2.0184100821589874,-0.30150513812850704,0.6860764674581779,3.224341588095439,-0.5445993555032002,0.5329608304774187,-0.04192863953450277,0.4833686151652372,0.2060664353793674
0.22278480406420484,-0.2299137046212161,-0.04134535724594534,-0.14741683643494713,-0.9490504811948561,1.0956233629176633,-0.03951059401257116,-0.01129832064710421,0.12800772637248342,-0.062426932921913904
-0.038247797737247236,0.5376230997877202,-0.014809033116398286,0.2126969058610924,0.9264246702498258,-2.315556717582993,0.24645057303247056,0.042209886518155826,-0.12658814894226536,0.07404126489393216
-0.7714992455275685,1.2570792030723281,-0.3850448236731905,0.26545111294703555,3.4232167348507723,-0.2657564864371483,0.39337278376948304,0.09975726441727212,0.6999428297711934,0.019114839986310268
-0.4091377118392743,0.6493438767850763,0.23295539761513046,-0.15860143627720516,2.866931139969122,-0.5917723178171947,-0.1833671441281101,-0.05551683729759322,0.3206456740473801,-0.27648691500752426
-0.044318415889629724,-0.47472103724193704,0.03279212476135823,-0.16218850746391011,-0.5444066707586617,-0.019019701381902454,-0.06783196847935437,0.5114485358885376,0.20516325888463627,0.3874397954712364
-0.19705193458919387,0.1731760658245398,0.3141346778187047,-0.08803899510927493,0.3291314038187927,1.534625213874023,-0.38166604472986293,-0.03479060839840004,-0.9779870531157283,-0.1389564563259782
-0.14372229794864294,0.8568825211095499,-0.7128651946320845,-0.256870313812336,2.3340092581806524,0.21879879375182165,0.01582036206667979,-0.06604407517490167,-0.7891201593571147,0.08267408354943401
-0.029727141633546436,-0.07255015483853702,0.7729181566869252,-0.10666358861495212,-0.5102907294733805,-0.9432378214036399,0.10450499395032302,-0.045864920643310096,-3.9664429846911595,-0.01843373605469936
-0.03054573514823315,0.6321795481607634,0.21896738787129863,-0.22803232838033902,0.409793932023891,-1.1688046931247411,-0.08860095409712171,0.2912052772350593,0.3580188654443273,0.46905273160586736
-0.6541619232381498,1.7835194966513828,0.2397186738323583,-1.1392839727838509,3.4030664985787977,-2.4444479760590934,-0.21366172070737693,0.19578977199923586,1.7653610643626705,-0.13596446173710955
-0.7296874904452928,1.0125190346809398,-0.4388019706440393,0.7133337949362015,2.5068024006862455,-0.4822053408646485,-0.1937975389933459,-0.39449890393366005,-1.0605098079781783,0.06641025473995527
-0.100713533670318,0.2530302579023686,-0.2171353366643318,0.7760309063799363,0.6518866988498411,1.3281527216040847,0.41691692004901904,-0.043045533802298995,0.43560126951316513,0.3430058563184206
-0.7553371842696591,0.910198117047994,0.4113580911690128,0.34263260155730857,2.638280323838596,-0.34868690661198987,-0.1925753120600692,0.03724764493749334,-0.27261910527860883,0.8045218290550272
-0.6516207303053768,0.9070923598706384,-0.3911087824435119,0.08683815156738067,2.7248367431927485,-0.6592959885471048,0.13340758500652836,0.09360754688501685,-0.0184565366268854,0.4208419515356148
-0.0684915437025327,0.40325514306422405,-0.11944702615336894,-0.10032047589523693,1.2048560185604895,0.2838124802257954,-0.4512066512225592,-0.2410227645858375,-0.633352365544166,-0.13269783238170688
-0.5392123401758853,0.8752140329980705,-0.4113331083296941,1.0457474566548932,1.7812870218952193,-0.9853506294306524,-0.016720197933855114,-0.17502885791786413,0.549792299466523,0.1949598114462308
-0.20300942315446105,1.0248349605452303,0.3426023036261654,-0.24691766989916206,1.4016981276109535,-0.9812542712293533,-0.3998691766344185,0.1610535957448559,2.1769854061235345,-0.63370255767826
-0.10084539859828338,1.3272054059420453,-0.15379417851258956,-0.2836932067091922,2.666445008371728,3.619258112953987,-0.4956703600763856,0.13256206922557437,-1.1354807587581282,-0.2904184299334905
-0.07924335539742391,1.653729671983964,-0.1361803726267062,-0.25132889903602307,1.5094433102827005,-0.08591994100807399,-0.42443633797618907,-0.17884491927096913,-1.0438316201071296,-1.0242923891729583
-0.00903308464941273,-0.11802962916607533,-0.43408455332518997,1.0072793655262775,-0.5028846105983249,3.7540576599296047,-0.04825627271982983,0.3371385844486863,-1.1575352143745237,0.7616380614784697
-0.5773027764751272,1.210446311176397,-0.03531136369857039,-0.2961253096188586,2.8206853618264756,-1.080305823609986,0.17517655171851076,-0.17605719987050683,0.5255465794190716,-0.38693737811257706
-0.16247602022015256,-0.5391644427710295,-0.142374045110868,0.34201289791268624,-0.4039369174537738,-1.3984148391996756,0.1607957788970068,0.41458125509094257,2.1296515443349744,0.11262405650726781
-0.5962699215748969,0.845794251894017,-0.016838468192517844,0.8458473191684035,1.9038128880867968,0.33447989651980486,0.42048988630844025,0.0701974116212048,-2.756089904417992,0.4492733202942275
-0.12240455538565441,0.40787204171176616,-0.008321921459598907,0.2813364889550097,1.742706616272617,0.44472779829113224,-0.2022594703362268,-0.3527248465340228,-0.7105468639274891,0.2805170354441178
-0.03976253225236022,0.06561327774814253,0.013141998674923083,-0.12067706817808149,1.1059700765623544,1.1407794036743066,0.1867571048158039,0.09812382979964446,2.6534800650098793,-0.4027726238293931
-0.25225226522709304,0.4780034136806151,-0.020317991778510444,0.9072748664553587,1.816909363978247,-0.5068738248671547,0.6549207597931552,0.12665581277018334,0.4908068787044503,0.15666029488710012
-0.2888475751065,0.3000714823535221,-0.32783624925855404,-0.31041730593347683,1.7814478245334766,0.7632771934988902,-0.2340762855111469,-0.4772497787415347,0.8845977589115439,0.15975260269234184
0.23781967880882876,-0.6296093963345668,0.1764476858936794,0.3922667901912002,-0.22251177330126182,-0.3150897619427566,0.2177297411048144,-0.06606798676647171,0.30128524633883996,-0.5668221157568436
0.23112694848905296,-0.46502100402941543,-0.20286130481000145,-0.3627052393490796,-0.621870529221355,0.5614230782755154,-0.0696794003224332,0.017753158997157646,0.5133195653735647,-1.1127841617159593
0.18026736750148548,-0.8251064614742413,0.4293119849395893,0.5889579430914716,-0.6182559389462599,-0.35870726460678265,-0.2378879075361735,-0.03520816983314725,-1.5442828648886682,0.4264298342560303
-0.37943460184319344,0.9275050226846997,-0.05201183675065392,0.11103232265504369,1.7461356536290458,-0.6838619289833179,0.18460547316190962,-0.4997442546248875,-0.34671139554056146,-0.3192919945061254
-0.1980594604787919,0.9281295290010839,-0.032961206357420995,0.42068224109333907,2.234472044320736,2.9983303947370006,0.11294784750390577,-0.09286378941730536,1.1329493663195316,0.5630407108292621
0.011586662340267478,-0.13149104219069263,-0.012184798943870282,-0.4480079231199087,0.29659950079099606,-0.4543522486288995,-0.4686760010738824,0.2810887999768741,-0.22455780701306324,0.2010729541891657
-0.5881455035377443,1.3519942854493303,-0.736697655683273,-0.047693749583716756,2.7744372247648084,-1.5532894080983675,0.2094764137411139,-0.27963389847212766,0.45734812680577175,0.4123419541874244
0.32636519437609957,-0.1891235452845873,-0.15597050440077811,0.5667979398627759,0.4051797002198967,0.45725174893656745,0.011568007474621228,-0.08777445100779777,0.18830248299473076,-0.7847262782863506
-0.07504805249185575,0.10739108498791795,-0.636444638703845,-0.0973438000363716,0.4325429416705511,1.0154881068252386,-0.1523909033697654,-0.31917960540571766,0.46815109865052645,0.31968418788798164
-0.54051127324961,0.5112658877285537,-0.23459580273146835,-0.03653170596368836,1.5762336137843493,-0.11568916088392464,0.2923460166404121,0.2504601939745526,-0.023883702759114778,0.2276864194043094
-0.4152264479846992,0.9245115089619436,0.21769403162644338,0.03453620868012731,2.094335251233013,-0.07894659911836632,0.3906481940172782,0.19777524866044968,0.012483251771440843,-0.17885051495108137
-0.3047545359865344,-0.4752054916148326,-0.4458103782436161,0.8711884486999366,0.8949974862289194,-1.4460320262308644,0.5193935426501839,0.14820816467210193,0.28584477080563636,-0.17530043016967517
-0.12953411610201507,0.2618286690773428,-0.21902016090114168,-0.09355064190161069,0.7089765251850944,-1.2810613511479578,0.0022723387193565613,0.1706926390282805,-2.312184514631219,0.8405652443121461
0.1910342438842201,0.2078851720377643,-0.3814618234944826,-0.07652478372233867,-0.43809612170754086,-0.6688272955012411,-0.04789813652451806,0.13568741365813997,0.3824786977738357,-0.4149589393931403
-0.6324252315280846,1.5696406568445744,0.11722564575137336,-0.4676759414847969,3.380981280373488,-0.10375473805965536,0.11055518661279065,0.09494656784498276,-0.28756521740317276,-0.4363862684020734
-0.23673540410810257,-0.5117702432378165,-0.16888306393964123,-0.5137254816523038,0.07466623348975565,0.42189720038963924,0.1175781888755671,-0.2562973330696728,0.985123592605664,-0.8004546798420739
-0.308196243401926,0.9415748146081824,-0.28926950265511003,0.31918052953236065,1.7693092155677768,0.518212335438872,-0.5579146849068811,-0.04862598260023671,-0.5943673090440621,-0.6973754064198103
-0.5535670850545646,1.6401793857555094,-0.5071832821920864,-0.3302521159169647,3.047416266773661,-2.286441013885656,0.42529981099393077,0.30147305457960494,-1.911644492163665,0.3102022116905291
-0.134972650729501,0.3341789577681409,0.42599042901381423,-0.07700054001639621,0.37857617631511786,-0.32235415455886024,-0.19135885063737618,-0.3044876819588634,0.05783196531882143,0.10485676619359163
-0.1900789769636867,0.026888091961969948,-0.21087182338371213,-0.06106501037467825,1.5583116957588543,-1.106949427145732,0.00771467378526432,-0.33917548503292155,-0.19064989101404844,-0.08846130292845425
0.008780558816511482,-0.32271832370128667,0.27020735415662434,-0.8808755948213111,-0.5062012413688118,-1.0761800404938366,0.3762474319872482,-0.16758479916915733,0.6539328719507105,-0.23082431952147556
-0.7402107071886805,1.1079813891292591,-0.0293902594093397,0.14205081268280045,3.394158470125828,0.9581840216164681,0.14644452199067665,0.009818181085663883,1.088026121497122,0.4526254774789693
0.07502992921341566,-0.5415087867286618,0.7297029716548484,-0.20398009575529175,-0.9180200644483996,-1.7336400204680378,-0.44754585669539126,0.29914457844814263,0.580326006559324,0.0726404111988084
-0.46142278917719987,1.0400126049015386,-0.39308365035533066,0.4750650250811832,3.0742789711299006,-0.15983475928431345,-0.5066821075498478,0.4366439507800545,-1.5663381488009083,-0.15076913357537014
-0.3540431474894507,-0.12171178680614642,-0.0644835553911027,-0.5443027979471404,0.252358611143241,0.43374171520482674,-0.35333529185654644,-0.08401412019129308,-0.0657642753521922,-0.9872128982820418
-0.6805599746167401,1.7233408197377775,-0.14851942357435707,0.16696352319176197,3.33343270089341,-0.4738184917719197,-0.17127919146032755,0.10177387052578091,-1.3748529228297028,0.3120129898916504
-0.35363664419334534,0.8380980198885318,-0.30934753890637495,0.29750673855772847,2.8073093681905106,-0.8959998706314631,-0.36790668462214215,0.1392835191067534,-1.0168457607527246,0.19495787373422532
-0.32266719415984485,0.5044013480203965,-0.38132963935534314,0.1512259278438247,1.9103228177482832,1.2778496844885159,-0.10042661255158204,0.22906766997669317,-0.433795672904157,-0.3420980841564962
-0.173794785394646,-0.18279149617825496,0.31157949900983567,-0.18258965851818226,0.2634561133220543,0.698017354986397,0.4225798516788316,0.7061645107904401,0.6167320676806258,0.1255443298359231
0.01412163716209476,0.23684293583604618,-0.2113041252439031,-0.7680694320784501,1.256518254689404,-0.7001940728982385,-0.26064700684004843,0.1391048904037981,0.18345412423634158,-0.06479866875262762
-0.6563107711727648,0.2754336642240252,-0.5034598756444186,0.3668833138399306,2.518337475978719,1.0441600833605107,-0.3213492477866889,-0.16614443826956393,0.9460251599691698,0.11731962000864883
-0.004287165414221385,0.30578782596456644,-0.26092367235517716,-0.5116877727620586,1.2027289143618218,0.8155865627138187,-0.2120233579022464,-0.29904235560339015,-0.5332884499462518,-0.48856936184275096
-0.28536007482611614,0.3176483562604079,-0.34577449841549596,0.6331817399611227,1.8572851900868708,0.3236419642581265,0.08743884188402727,-0.06695683436002876,-0.05089061970734818,-0.3232563412847323
-0.12807939004362492,-0.338065029828917,0.21172682795314376,0.2076166041262669,0.5710698576376327,-0.7955585808512877,-0.02775044102876173,-0.3412410915158428,0.7019024783812952,-0.753795533103875
-0.06417798371236025,-0.7003304767694767,-0.2639497974517116,0.3248319890883169,-0.431465456518103,-1.411955908194987,-0.12866515907414053,0.13536069079684235,-1.538635898430295,0.41152324717823585
-0.17403156030636957,0.3370669363122916,-0.4715808934095226,0.21107029014860448,1.0197587784290332,-0.9999394598234033,-0.14267061920769603,-0.2600900182096744,0.9998225457381131,-0.4523328379703795
0.06110686505822074,-0.2771658904019895,-0.45603721676587805,-0.007024478441344366,-0.9534927708853994,-0.7102516966834206,-0.4874501626691132,-0.13638653115795063,-0.758641632357768,0.2507434528801204
0.10052627077199248,-0.09522519477888865,-0.0010322168745175604,0.14145589099892192,0.23113737549950608,0.2668744674860054,0.16341813009804193,-0.08516137207266837,-1.588615644325233,-0.03768430262447018
-0.22352751901910267,0.6722167112999887,-0.013830708899193828,0.10904487632348865,1.5429619128119043,-0.30180556542222753,0.1128979913467749,-0.10523912290596024,-1.7160554699642891,0.2697030470851189
-0.6315817608529796,1.0049275652892546,0.24282144071266293,-0.08384642363250677,2.2267822585130705,1.2148505328964467,0.08350005999020818,-0.0019797696130070272,-1.1519415569970102,0.2865768124605145
-0.4825220851891913,0.7061176920824848,-0.2212393979810544,0.3879172977911713,1.772882368504217,-0.03466548069527707,-0.23973891027437058,-0.002997977526611072,0.0685688971614565,0.3870022836081307
-0.06326371899160772,0.997645874062836,0.021972712553048446,0.6758768941842606,0.6712786677609381,0.43128546902518683,-0.09802816201583787,-0.021134606032391114,0.35750700379820965,0.20881122937870716
0.14911996762681184,-0.6781535477485906,-0.26870796872029,0.37712415802846433,-0.6191359443953306,-0.08925335511766654,0.28520079234841395,-0.042433092892532095,1.110110514400121,0.17550546342685866
0.11911366106741986,-0.3052084921674705,-0.3595247219463093,-0.5449803553121595,0.495891842299222,-1.4369034204849174,-0.24520184378168544,0.29162009750523094,0.8335692658475418,-0.3524167031509321
-0.18640950701033132,-0.20385779224928657,-0.6964444091177691,0.45243636962963363,0.17590472164956195,-0.580238496678966,-0.1896365954695917,0.03146447662181873,1.8601709241671935,0.311154838731956
-0.18288542182325163,-0.13058671519197176,-0.4020317688687831,0.5554250002073807,0.8535394265039351,-0.33779301812836254,0.38199572359868383,0.01816258237099107,-0.05709744232738112,-0.485911945135837
