x1,x2,x3,x4,x5,y1,y2,y3,y4,y5
1.3664593555210702,1.4372468622090944,-0.3865286417526644,1.777413941805904,-0.15933630719831934,-1.3944471094957187,-0.3190978370503259,0.0056818576748276835,-0.2729346734267369,-0.5336303738121103
1.2379922401678896,3.374894279527779,-0.991992411616459,2.5930246517318847,0.432230993555243,-0.4605566755298214,0.4501594752288038,-0.4668285934293258,-1.8497401779988165,0.14842875203899725
1.0252007890616932,0.63503277153046,-0.2414582499857361,0.6316036107548877,0.12353845553960019,2.539895162239695,0.6145160181266127,-0.2359948525148281,0.4034376768366347,-0.4786929726659188
0.24729331981364344,0.46980731062404857,0.16075984703416318,0.01868367887227107,-0.16488893135837365,-0.636538580385972,-0.1730847677405455,-0.04854974710701262,-2.391828486699728,0.44117950772657055
0.388049244933571,1.3517951834697506,-0.17288401742196977,-0.14478436054728205,0.28577524248347624,0.21420704556809889,0.6319152936219045,-0.5421861335785102,1.2743203338333453,0.524855150752672
1.5848546910565646,1.5100789361796751,-0.4911302889187659,2.829951455788983,0.23432934557336446,-0.8588826190493837,0.3853260615400151,0.3260282406371279,0.35206585282931463,0.08781633765693014
0.42422242813051847,1.0306112951673279,-0.47962242257277465,-0.07524040078862881,0.21923558624146788,1.740838372269922,-0.38004638776197314,-0.8237864454912743,0.06705210945761128,0.43366536619775076
0.37455956452371447,1.7468842860023246,0.008894377496389789,0.309043982710151,0.16600839842430928,-1.191617717830834,0.3483556499686654,-0.012332063775083411,-1.890965863994674,0.3295106860000735
0.20502125734951487,0.4823779698626358,-0.10844622144809779,-0.059123308710208544,-0.26803824592400194,-0.14457921778395205,0.523499113070671,0.28056186123803534,1.3532999687525111,-0.21087555188204615
1.0596666116169355,1.4660147132306949,-0.15869191744820116,3.4463727666043997,0.5590499276839643,1.0780213213707013,0.3112148376025982,-0.019380544230378702,-0.5963528982028544,0.2899560464164587
1.0453058572326863,1.7935722433483758,-0.5549520009411035,1.8257852151913112,-0.04924329160366587,0.21979345790299792,-0.5527011425111732,-0.17648660869465713,0.8504839020742627,-0.5456943320334318
0.5006862612866936,2.2413820019490323,-0.4735922420636199,0.8555505901784726,0.0014415672425404913,-1.8077322696986717,0.05428060073401218,0.38234646276220857,0.10473662902384652,0.13634098162915673
0.4213337936125429,2.615254258566362,-0.41914938536002905,0.23958079892586603,0.6482911099632467,-0.6493593428363473,-0.13771715316347813,0.3099094342306249,-0.4654264470811328,0.9167076561717721
1.2802250357604588,1.6252814353554021,-0.7535511221122673,2.355322793919387,-0.09639859463159725,-0.7697503999018989,0.26175404406870373,-0.04891312024107495,2.753504204359983,-0.8168161553160236
1.3984305208635104,2.9968376864184734,-0.5763565577695385,2.8334477664432542,0.2783306739257185,0.2808204871146083,-0.1742379696535134,0.48302191583178195,0.5650796130774636,-0.6989246387206648
1.2809857575270218,3.0471297213200357,-0.6039806048846589,1.6295983007615136,0.10496219441907406,0.00984712514924041,-0.06877279036873948,-0.09122756330335904,0.48284466778903784,0.006837295977411122
0.9601322243592763,1.2917209207498628,-0.30906714270243335,3.012733919935634,0.25342769020940525,-3.099218480997486,0.5472068444489099,0.4119654333684125,-0.14095737326738458,0.23238374215819008
0.4959121636911497,3.2343782439462574,-0.393350535788397,1.068793155710761,0.052723482900143094,0.1973325758779697,-0.5869242556411414,0.10879527155021167,-0.7445880973035732,0.03549234002537594
0.6178628945512901,-0.9975284547502729,0.29653144997119674,2.0896239454318413,0.6092674562056124,0.5853103575220922,0.39608942241410966,0.6939140493691619,-0.13077066154207212,-0.15663049130414947
1.2373653006486949,1.739614724703137,-0.3293707238982901,1.501136460700415,-0.7926074342967735,0.13222159906177328,-0.107567610654871,0.38460797064382085,0.6280586922543526,0.11432595711821078
0.8123924403608878,2.3214522932556636,-0.3059371655550656,0.7428988257643667,0.4650673034880413,-1.5534324621777027,0.057889727843805916,0.2373166293058507,0.04018056605058898,-0.22665786982966107
0.02964783541855609,0.9578947112083256,-0.4784919362986671,-0.016023522320414707,-0.1845496491822568,-0.8272789230389826,0.2976367448859382,-0.3307258738172751,-0.09588656249004751,-0.5660450020548303
0.14045861472331916,0.14204905897614362,-0.04826611185994351,1.87217985061702,-0.3282595776687518,0.431979773211282,-0.7530421178175721,0.2087396661644644,0.4446269207826507,-0.1485501097318827
0.8110893539127516,0.4802333866707902,0.048798045889668476,3.3186984128852215,0.16497049625817897,0.3188674567180476,-0.9496054511836589,0.7787344984026452,-0.3742778250487608,0.15646113620581187
0.16290390860147702,2.9748991946709133,-0.3097761925337251,0.30876986338667867,0.052798890560499356,0.428175646850921,-0.2590477221483934,-0.43732037449342487,1.4857303332086755,0.4179933628549939
0.7036318805684213,2.401715645147699,-0.5805837571975427,0.18762535854842155,-0.3224048591069723,1.1808175168690518,0.3534938610398591,0.1793575864844003,0.1918619624441305,-0.4369513801263459
0.544632224418246,-0.25686983005500374,0.5636538268707731,0.7429751297225344,0.2599408689930531,-2.007450888171342,-0.6210201459031683,-0.13052171697513404,-0.6228133276101756,0.26538048264659275
0.33376492938434466,-0.3580472940337459,0.16538221436151349,1.7451461815783182,0.09336407786512275,0.24877938819411854,0.09427385405893157,-0.08252198961084797,-0.563029971647842,0.9761393240844835
1.2721406697674709,2.0325675327222186,-0.2537319369340316,1.5803622854544939,0.5675101868137878,0.3701797853634631,0.6352467335703771,-0.13251108309174162,1.893630633657599,0.295110520318523
2.261432061503503,2.7145985302984266,-0.562321878247415,3.2805880271359955,0.43231039381788267,-1.7036889110054663,0.01608808614931039,0.4211008515594736,-0.5284208607538095,-0.11878400308508193
0.7394524263711624,2.350120949303591,-0.46346583056621504,1.9973393732472817,-0.1250317309972724,0.961241865611058,0.34617156131589766,-0.2915299197790839,0.9752812502014333,0.2125683279360921
0.2676893705773932,1.8753268776815717,-0.47123629362104424,1.9059009927821315,0.41782918173029315,-0.17199080516131313,-0.4707112784978315,0.33529712870106404,1.3813371300833976,0.5642052144092369
0.165644982608102,1.4364035578942138,-0.44421306459782667,-0.38273941514352516,0.37600916555489644,-0.7570983184609449,-0.19952258226143488,-0.21941585848321374,1.671518923381559,0.3247348698827
-0.3980288106591049,0.010720119452414911,-0.5022522226751434,0.21165097013838285,-0.13439648891672593,-0.7202021699377057,-0.024805182939006038,0.2830871925153964,-3.116144240896413,-0.5992115058892987
-0.29781680715536984,-0.5326055696472104,-0.0018182629823351832,0.4482573752050243,0.11720744761728386,0.18705969817837792,0.36627672872157413,-0.19696151253141186,0.8728421303177345,-0.766651881193374
0.1775794041726118,0.19597709305865374,-0.028983461550675525,0.793709328972162,0.5141917106365459,-1.0322349138895024,0.46445908993008084,0.5884075074080067,-0.42284600446258647,-0.594052410011954
-0.02322628460420484,2.0692543907484215,-0.42052777634679295,-0.9632860516877418,0.1749000938442086,0.09104104505495042,-0.5005788143376542,0.06760037867996682,-0.06928065637993938,-0.14407619960704895
1.5869414757622682,3.2898879597609474,-1.258233222370176,3.3799090459085672,0.38314670074665863,0.13010866779124008,0.27819992091239093,0.6629639881626752,0.4256658607368484,0.511796943400607
0.5845342684649467,0.6053185881528629,0.08150962758144566,1.7529075725422794,-0.2538087667936897,-1.166149230644188,0.21739193092817152,-0.28113591929535936,0.7536202470718041,-0.7660546895031127
1.472048551060889,2.9215141135883087,-0.5524537276283447,3.041610495909983,0.1981412498113699,0.6893602547468136,-0.1595618862099993,-0.11939726586059124,-0.265554045101648,-0.7707745908036724
0.8234714676436888,2.105689917972271,-0.5785029464342246,1.6840215297075973,0.6811249524882117,0.8278292728480667,-0.20028251898824406,0.573733381187904,-0.19088483727559105,0.17157476129654342
-0.19929733564565377,1.2161451136247918,-0.07649623150418153,-0.31685501054640586,-0.35056365211914275,-0.3044428363015689,0.11606598363031854,-0.25594631161993575,0.30186278650895604,-0.3177715842420022
0.5446546672139704,-0.9202564748980998,0.5909505321968713,1.390941545560597,-0.3252955310780272,-1.4714030575106556,0.3420858281571442,0.1867091401835849,0.0036215390316854112,-0.345254891433041
0.8012598111531248,-0.8524950444251801,0.08024093599371887,0.2014268150482752,-0.31610611619108653,0.17326609250149222,-0.06037599681271171,-0.1437366183036944,0.653413514751288,-0.19383247127913383
0.3757195289185803,-0.8462848383306257,0.1542102671210804,1.0882263131688523,-0.25636194386772737,0.26913110395654327,-0.6238712942410672,0.41954912322399873,-0.9594743466322366,0.6889642435183806
0.0654709118007048,3.210635244245922,-0.6341362013391858,-0.6774633702450394,0.4426656911716417,-1.8998101565265584,-0.23562349440133737,0.7216751283421915,0.20749091751875887,-0.058001975541020455
1.63689867302173,-0.1836465147655152,0.20496530400081664,2.795372059381078,-0.4165220718300477,1.1983930832864012,0.03054778101485646,-0.24167675468658634,0.27020349707828395,-0.08114536255470536
0.36040994254547043,1.6936831830908798,-0.25713949575645106,-0.2407425070471495,-0.24565152721680167,-2.486229175127452,-0.06094235800897229,-0.3369130011145694,1.1414029707655373,0.7281944075564405
-0.8823458264743891,-0.24361518444467578,-0.30540357812941993,0.07742537126087345,0.5336442519869807,0.7395544193872237,0.09220732963789062,-0.17145865369309038,1.0325871116804142,-0.23768150940009597
1.3181107266397911,1.2856158547416787,0.30285580174449206,2.2719741563731977,0.13849788468511354,0.6321007408617387,-0.22856120035303265,-0.19226518476854254,0.4558835700117179,0.6947484053437114
0.7044794697195933,1.2141389185694291,-0.2652477094036956,1.7012112613197101,0.3327648229998807,0.38136428305078784,0.0769664300423176,-0.8162090498023221,-0.263302092439323,-0.01252021186686292
0.8257198757936393,-0.7191693552956917,0.0835125090548053,3.126550304276673,0.2650130197058315,-1.1044380119939312,-1.1219045795748703,0.4559703602313069,1.3980824901010758,0.5192396333016744
1.3524554688861414,0.1642259179609451,-0.13125701454419944,3.185093063341358,0.31153862693222617,-0.9963585326863419,-0.35100495034803036,0.16851411786963227,-0.25452442628385225,-0.027640686328896418
0.7783583859355916,1.448542083741239,-0.8134041279239943,2.7214262621212066,-0.06516064559376841,-1.5749156268958038,0.6091773898866297,0.30996784377425374,0.20186318094371433,0.9271700170970472
0.5832899956943449,-0.3219976687716509,-0.22403629072640358,2.0090058717171675,0.0918998673228523,0.809638637271513,0.21750679213129995,-0.2025804516372067,-0.15447906178826745,-0.305038964602703
0.14582949993522104,1.8013370798920807,-0.27649765116135316,-0.2400588055572752,0.6177362832551783,1.6641393676240561,-0.44948991063320026,0.09136550876743194,-1.6816216534533694,0.2818730591594959
1.0249606770014017,1.2620543160183897,-0.43353571342739156,1.828037130749392,-0.17701779501280543,-0.25193712980897687,0.37272859201812386,-0.642515052106182,-0.7041829024248355,-0.5571255650249161
0.3581357334384435,1.3134153339093984,-0.5237528429973228,1.3376183255538447,0.2083798476023012,-1.0519908320126448,0.395143122672588,-0.48293765679197503,1.8253160091529768,0.48628401218627465
1.320993159801604,0.430814613393401,-0.26768046389281114,3.447150187658294,-0.4071022504176479,-0.6412201975591274,0.4857068501756063,-0.09961478931512663,0.04691164958921501,-0.21335468559891727
0.8063177250464233,1.486405758471479,-0.1767345571539923,2.2505736320365126,-0.06450998395262511,0.7154604639890154,-0.18715513815359522,0.016222778750315366,0.2375672144482341,0.6299160457493217
0.9398471560191982,-0.31161986824978516,0.44254174317932377,2.655184463306254,-0.12516814731570003,-0.6616382640308214,-0.24136412234162172,0.3545186955887395,0.3791176883472177,0.7281106412262585
-0.025218218333784646,1.9056378812033592,0.23501292628135784,-0.24692748647253016,0.06732607427834125,-0.7854654719762331,-0.5213102223272341,-0.02657243346318446,-1.9480533750951863,0.24857386222179198
0.8822555985977931,0.6552734684424579,-0.03651705660988551,0.5283853104838341,0.007728408729510977,0.872397585249688,0.5213885650097458,0.3118446459001073,-0.5730823107890849,0.4208055814892387
0.47584574982424743,1.277733672512316,-0.4226526015991158,1.458769888869282,0.31221122218988623,-0.4439224332907309,-0.14818406280878976,0.02578258015597491,-1.6024333447732129,0.11139070685226093
0.30215189599322567,-0.7664556534310896,0.2320626952746072,0.22804931719435606,-0.1289805733256635,1.7973302077223954,0.2512278147157225,-0.1961733917364388,0.44974194497444325,1.465337206167556
-0.12035866586313725,-0.16540683130447342,-0.20514243933659973,0.2696948816567377,0.11745644835539343,1.2322038767950527,-0.026246010389668756,-0.37628682788094453,0.09794444780519246,-0.34482423610961915
-0.19667374569156026,-0.790966170083932,0.10412731730546072,0.8367047787445845,0.2902803627508271,-0.9808815670920985,-0.09907459047100961,0.5924326260617858,-1.6111156024191333,0.0522884049215706
-0.741893354379153,-0.7266376497468656,0.2432962091776806,-0.6625243014200939,0.008541580887128265,0.946229294533989,-0.22087853333792862,0.26891160995665014,-0.0024438959806129257,-0.5450469403475584
1.4680539514985067,-0.876599462713199,0.26159766053950834,2.2949454750004623,-0.2697593785068674,-0.7696222764933447,-0.08777583387068388,-0.1689624018279611,0.1952517650862276,0.9480318145382544
1.5289398760794966,0.05429032232905184,-0.13802861794950314,2.2237451656197234,0.19173864731976997,-1.5177370087487485,-1.1649310814317049,-0.4157314461301301,-0.523054823935101,0.3177420009841623
0.8146710439638292,0.2310498563323422,-0.2506251419132589,2.103256422021477,0.011218943477053843,0.8659250701032981,-0.2849500340183859,-0.11373754178215555,-0.28964525357632304,0.5919522868547907
0.7874714504379929,0.8084358090549115,-0.013595650213256217,2.09683188007789,-0.022196028827055077,1.0001004743386774,0.21763111380171815,-0.4929738743667908,-1.7478142709705993,0.41438416838287984
0.9331689582857255,3.1013876743487616,-0.9270865865119708,2.2710669153408887,-0.20304674162750108,0.08950720174167592,0.6777197973646415,-0.061485667404806606,1.0007462100952937,-0.3225468777011712
1.1357768069780783,0.4752475775080136,-0.06477926995664463,1.9582899906698965,0.318542653091882,0.8220757085925308,-0.1870025058387868,0.10184881862148294,0.8795498835621768,0.26163616245528676
1.3131548127341048,0.4018438136885043,-0.08339816682929986,2.935822004142962,0.1309335324233034,-0.0034833274197633643,0.08154064354115574,-0.1483313417469391,-1.6634940166238446,0.4773260948173391
0.8902554148269846,2.7925158795688416,-0.4674528870947856,-0.244480297467065,0.4935847555525549,-0.8688466659535713,0.9342935871484829,-0.2301439250708641,1.0681630238254203,0.24910995495416738
0.22378671340986162,2.6924338070998863,-0.4233534390800844,1.1263606322850088,0.08886853365162209,0.5595001846904137,-0.45265610815276536,0.4608443970855871,0.4710229194796002,1.0638997509881158
0.7459187852748551,1.144876250832838,-0.3292490511757554,2.8134415351533515,-0.500029823093334,0.5976760109035801,-0.28925198493863274,-0.9024817343620227,-0.2311604366683178,0.1291129351343759
-0.008676529870623138,0.5944777892906608,-0.2954815288497759,-0.1493289906996148,-0.17614228841808205,1.1811561979242926,-0.2697353913033041,-0.16358563489310293,-0.9989360193958515,0.4055347456090827
0.8129443687806535,0.9989127864978544,-0.4174214016004937,2.687159968539023,0.30136762891131896,-0.6126459735234621,0.5866033706310437,0.22741079169169834,-0.6310089831713159,-0.06544505995741992
-0.027544741377151655,1.2034248411293085,-0.3554722465266638,1.6790598423204837,0.368159167725238,0.12307605989351222,-0.18832118912658435,-0.25536087105025046,-2.6033992545179894,-0.22149886593738213
0.832251406265063,3.1626856099442726,-0.36780172910619785,1.4138256984860043,0.43116920246689944,0.3985108720534969,-0.256704324917928,-0.09109449749858353,-0.7022398071633312,-0.13571194974263207
0.9056784974547513,-0.7532344720073808,0.5211995390504687,0.39003941357256355,-0.5178427760298332,1.135662764167397,0.015531244678551407,-0.09563701706082724,-1.1558836821841723,0.229342661326228
1.3310703633852414,2.4199257862603503,-0.5379477795704799,2.494766970814569,0.12848278412703787,1.7534530747985433,-0.17700638346309236,0.03030996158807337,1.0286228972704898,-0.03586805886277118
1.1642719176326015,1.9009379157967485,-0.3868018137715484,2.6408483539307808,0.17831643258769292,-0.08718775084904382,-0.33361675461087814,0.5113026317072631,0.6335907498816505,-0.5699214360750996
0.585848902409862,0.09856234292575294,0.11138004428416047,1.45218809604322,-0.1359697514381497,1.2224689131790638,0.6269561276419967,-0.6696240958116105,-1.2910022768002662,-0.5448840048983968
1.7665789412666433,-0.08607415335735702,0.09953900199610083,3.14415780602649,0.06527278396790684,-1.0695463668190497,-0.011931743383313416,0.45331940921744046,1.0441858327300504,1.0214291356498637
0.7090010103249964,-0.2806298430915146,0.02406713479791538,1.6667826372026067,0.0638542548369711,-1.1406293440534945,-0.03292640905884163,-0.11803781618650727,-0.6668986640078312,0.2728686660878717
-0.1749819380626348,2.449552131905966,-0.42814459090331625,-0.77070793541743,-0.16638276784744052,-0.7418685243773313,-0.07365701188713752,-0.0493329258009596,-0.4100414383690305,-1.3677087316588425
-0.6367241190536729,-0.012637933494368592,-0.1290670558515291,-0.14338923669491543,-0.053385045397213414,-1.219471814598149,-0.43727919069845617,0.6040476784729036,0.9513470400360269,0.39110785525517644
-0.3113364399666968,0.7523113319209989,-0.2736731238900557,-0.638635073943097,-0.07145545788929762,0.9283247535279506,0.39167889814745177,-0.35968483501768767,1.5988018215189164,0.5325511895261181
0.6050473731574697,-0.5130351124126193,-0.03279460444162786,2.2785777517095487,-0.10508679398537565,-2.2065737331192325,-0.0631647757472972,0.03868914950696764,-0.6101855156396484,0.337132301824026
0.31210224254793845,0.1696547242310622,-0.5522925071683259,0.5799192873802328,0.4382316373805984,0.36849219952994894,0.42259443640228794,-0.3249821979150765,-0.22031301240071025,-0.4333656408242191
0.40551948896399315,-0.44210042200617106,0.06480370223788706,1.940725789130541,-0.01358319154030797,-0.7890974124594858,-0.14176486063519664,0.41963548192119726,0.4386356795123554,0.8106083140446589
0.8363045699052442,-0.9279070635890684,0.06544865697314634,3.1110995908717722,-0.4490445369401816,-1.729691526910865,0.42516285771224055,-0.25321082287813057,-1.402841727190955,-0.23508295430538237
0.9387134848612361,1.3586428948363158,-0.3099940711789599,0.9608917735629585,0.13787573412829437,0.7541002255412939,-0.08008277368251539,0.6048241608437265,0.6228642260016449,-0.1585808634966677
0.1670474053481081,-0.5593411762734648,-0.2852566534486211,0.5534937742472397,-0.18612834916941845,1.676251229013412,0.32242613047714674,-0.624441522266196,-0.36132959606844944,1.2637213206183207
0.8741496854802235,3.244028665483196,-0.6866456342529862,1.1649857267431147,-0.03551818772538,-0.1029834545830639,0.2043028266424287,-0.1782237190713852,0.5659168864882965,-0.13580299672408033
1.007590768368004,2.6188994450974126,-0.7847012558895107,3.330347068865554,0.4437960129560837,0.87636992863616,0.5568558033513052,-0.017087779111121346,0.7083021444054334,0.6377133057229524
0.9641191319958731,-0.25688235634578616,-0.2949133908279334,3.3063983755265944,0.45089351554038465,0.7431834699443147,0.1709427517848805,-0.031094181937508646,-1.865948240698107,-0.5272656219645857
1.147190203052306,1.326946989668354,-0.27646626586627976,3.0082494504503154,-0.11774855194113391,0.4142437758889015,-0.26351711433987896,-0.06531650818823807,0.7459102246374563,0.02960239027662675
0.30354888447241885,2.34018548186925,-0.3589334688104529,-0.26531936985231175,0.21088302899265152,-0.5354625944902948,0.3266651055475231,-0.142987547717373,-1.1346982760612379,0.8312207575631829
0.622718154788217,0.7542838356997741,-0.33770442207941703,2.58324801209317,0.4242222921102609,0.837796867748192,-0.15392976445982934,0.1578084405934355,0.26291178480900484,0.9588954649632978
-0.2724616685120109,1.8714653065823659,-0.7348646447312864,-0.9026595330027342,0.05801722444668371,0.7873395723054274,0.40910511996673354,0.12401125541214299,-0.03470892727031563,0.08516141453949531
0.7636089480071655,2.1798203106668823,-0.2603329259060351,2.9439143880481144,0.016656153370024872,-0.20413865346052285,0.20227850035408187,0.5307213909891777,1.263803254092138,0.7963943017490314
1.7401584611500724,3.1275786198618203,-0.6694173610682562,3.154461800823807,0.18346128557582794,0.6769440307366077,-0.02294326852945972,0.0437030146458083,0.11100636272629233,-0.10943234739940812
1.4563805497448252,2.9483683384434727,-0.5706611853642074,3.178351277117101,0.028014792236129044,0.019404305703036362,-0.32066472497598136,0.5587474487250086,-0.17595276898073228,0.8284930577280697
-0.011067073702177549,-0.20013464517676827,0.014565786029869836,-0.23458685080801644,-0.022800004572056404,0.8231901130361727,1.2648889120082663,-0.5049824245436455,-0.5218960259931777,-0.585712529448935
0.17643014029053022,0.865063083300228,-0.15710772781510599,-0.2953439779012643,-0.27143858290008754,0.8707467301382359,-0.005663555614637036,-0.3246996439070854,0.9010776427527619,0.15704746189623542
-0.39486956052187416,0.0025290907109167815,-0.14227172766997523,0.11199044656121848,0.20923628831390229,-0.9504290545542462,-0.24152034835097053,0.12236000274502812,-2.4218761207679123,0.3708333615747254
0.312129431187798,2.3498195870568126,-0.38499721985820246,0.0068019426863048515,-0.2544118743787551,1.0804192136646373,-0.37737262135646277,-0.4128542453611153,-0.8002500616711004,0.2590867536942498
1.4603623648682764,3.1297147609078504,-0.42688392158371397,3.325000417692819,-0.24673381893686522,-1.7159283582528906,-0.2827962814335747,0.05127001284681171,0.8071304493583673,-0.9539820935763537
0.8489464131979161,1.6076794519339233,-0.6760035892468417,3.3084334608867767,0.34764110612191124,-0.7498766271453841,0.24465272401465593,-0.1393039230525308,-0.6423073094103631,-0.33991992122037756
0.37619703727214515,0.9011478985871391,-0.20527197397012772,0.30139050989981486,0.3161469474875868,-0.4002743546371076,0.3527729238643103,0.31476706218579587,0.5644965662768819,0.830934583237472
1.5728822980655788,1.7945144563902273,0.04232483303496934,0.9181825370067713,-0.49899204465992586,0.9709029694709546,-0.23747686427959913,-0.03565803501873354,-1.4023455714886996,0.9394883610985222
0.15060546960041377,3.3186720589088665,-0.43032514878618944,-0.9539508831711325,-0.14198189405691083,1.4260941477546047,0.4994610720994378,-0.17702685696309883,-0.9320545558864951,0.4977525637177184
0.02132630210025649,0.7948690938232701,-0.3192796856291563,0.42337818868066823,-0.15805133642329827,0.5193497715363508,0.39534006954242235,0.004524026871896682,0.6544717156398998,-0.5751519234430135
-0.2678194325186418,-0.3879425845741984,0.16995008140668352,-0.6307778269795205,-0.09764719648008176,1.1431582579264528,0.21001934731504587,-0.12093572903088155,-0.5483187468537145,0.17044374548083346
1.0560067227013117,-0.1512814468153717,0.27962836185333967,2.1582122755243365,0.22367967326384686,0.44914635226547545,0.023614053479969133,-0.053690278306651865,-0.38645256792316285,0.3614506026451423
0.45823191667996166,1.875270591375084,-0.1697213901529252,-0.03543615788189014,-0.04059006291317784,-3.3801576774840747,-0.12211678647351848,0.08985464032643978,0.09397777150996331,0.42607414710996155
1.7795547878167697,2.0744210755803745,-0.5435676449209114,3.111817864564326,0.6252753450029033,-1.9252763324056699,0.017797786327662393,-0.39411169518551925,-0.7531586358643899,-0.19990308157739956
0.3336094836885519,2.0895170115581414,-0.5865744761084764,1.1511283312878233,-0.2238116425382458,-0.44879754565554353,0.4722146137104969,0.7928904573739647,-2.5377261871436225,-0.14906682966498935
-0.3235406655117875,0.09039053041604617,0.15459578828884907,0.17775528036553423,-0.6399540173951168,-1.880717656797688,-0.009313685050490307,1.6037760308726954,1.8495981711546547,-1.2000392030460918
-0.33423158053810076,-0.8747151991137836,0.2568438900060856,-0.09696975977928679,-0.46123281165450475,2.455133562603656,0.21910783322983082,-0.035835219128138286,1.3499857881986053,-0.056720424292045706
0.6395807812594196,1.362514607747178,-0.4490063541057072,-0.27115591892717195,0.574216026705808,-0.5350130004908342,-0.0904003586148696,0.4901507276688627,0.3312241698626457,-0.025529018673580352
1.126645868953131,3.3804390841559053,-0.7091610849291816,1.6726715496929847,0.5558703999722816,-0.7620252902470688,-0.10060795512662474,-0.03578036865398223,1.4675370610209892,0.12348446747275858
-0.014684141612440665,1.1780767597331998,-0.0037490622010321268,-0.32383732836777024,0.3285557383920749,1.7219472329421452,0.27603149175569897,0.4669544776494972,-1.2866897200507126,-0.4396374500934421
0.2907027146481778,-0.8104144707126831,0.46134035397982875,1.0122781720013592,0.37149583671605346,-0.41331952990762316,0.2618765208968765,0.36437141568612125,0.8416436629272044,-0.028015696796992742
-0.41637027309980723,3.0911433377467086,-0.2093850393811899,-0.7092877118957848,-0.20106561075208157,0.3395133610469342,0.6287676102521872,-0.9798172188884815,1.7137871514537228,0.2590948467646366
0.00010706087387768806,-0.5032313764881309,0.04588192609799861,-0.659399772211031,-0.4056175608652643,-0.13710728727981858,-0.13001254695435943,-0.09674239849416923,1.257432242291825,0.03240590794867891
0.15181577379990194,1.6409880317289445,-0.7869045972769906,-0.8512166328683584,-0.42718975938221326,-0.1052725511416447,-0.37708077494602754,0.23556057556139057,1.0689094050380632,-0.23217572047586404
-0.0410691750874278,2.408595455147836,-0.3155331459502977,-0.7116800716779992,0.47627714995302145,-0.8962197587092102,0.08517811212735771,0.3019904447326004,0.4715528500583866,-0.06523850951598277
-0.12543526729146695,-0.09081880428549216,-0.14376092275212188,1.6416454190161636,-0.23118326164081376,1.6109956082637213,0.8431917498607758,-0.16241461739215918,1.6838131177859608,-0.07482605104037537
0.9100188913870585,2.4444591248808467,-0.4825522407085316,0.5457961008051464,0.33721211044468985,0.15542575334403064,-0.680217178169955,-0.5533301566103147,-0.05794282136749623,0.008932160418184544
1.5452587625958922,-0.09304024542097111,0.25015730578257306,3.2811377050976356,-0.12356793813705239,-0.08484128131259927,-0.12500113567571963,0.30243197217134493,-2.52330801534074,0.8402165315243604
0.8526168726663624,1.7432437109982266,0.1490465196018083,2.9531370519735356,-0.35089408563077495,-0.23354592745425715,0.160616453640819,-0.0493273442426775,-1.0929597063702117,0.5323055662945977
1.7094944967630394,0.2919082335647134,0.011118466835793702,2.7417398743469232,-0.06079024760012551,-1.5017237200961202,-0.14883029198171638,0.0027589876709123574,-1.4498617941529892,1.8666713719926393
1.061335903875417,1.906451050751655,-0.2322966375157913,2.8272636215135694,0.12053964388059443,1.1263984257187671,-0.028813870392158776,0.010781543713369519,0.9946143974102379,-0.4498549517233065
1.0367616695218216,0.21884813159458094,0.16589424501380357,1.8281820777757178,0.22510314661023897,-0.895441064743554,-0.41066792056656604,-0.32705985689183775,-1.7796402223070258,0.09971174884873167
0.6115468203817008,1.91280284256883,-0.05603596507266674,1.178956702108099,0.2568533807776286,0.26845851125782644,0.5446553747554748,-0.6217103779556901,-0.23668700388921693,-0.2701204320918919
1.3216622469555228,3.333343994191381,-0.7987363062152797,1.0279397836296802,0.16269734820951295,-1.4734618658601806,0.18685634402466847,0.43328331346650045,-0.23893270829338592,-0.22455584478615623
0.3849141894944167,1.0209380080380561,0.2324000043623787,-0.7501728973501873,0.04681151104459089,2.1134980363489815,-0.2002818389363693,-0.7176540209160455,1.6130618697049945,-0.5067550972776756
0.8326872408809456,2.9230195528424123,-0.6918047666232752,3.2014718947832206,0.024867070575710207,0.3341438742257886,0.11352246929205101,-0.32993117519554005,1.3100422343254274,0.2774666705744396
0.7249599894408184,2.4152168751626584,-0.721580599362998,1.312884007255489,0.14670668345968785,1.2704472284335273,0.6733346061386275,0.23213520581189107,-1.5328152766867007,-0.6869941585828333
0.3220435580423704,1.3454585360563271,0.08335505156755511,0.5518650921110537,0.684599980096666,-1.1999877216146486,-0.12229075429153552,-0.39472518252749467,-1.4023265672674436,0.3407144207066855
1.4859309125514026,-0.2788808242752643,-0.04506922565723688,3.381344131889124,0.1443272263343591,1.3086534729098531,0.4211882014697893,0.010700609157925067,-0.05678752037811899,-0.4095668319122683
0.8216059575156974,-0.24835797478412613,-0.18180700828318316,2.1244643434635795,-0.051306872838377496,-0.17225729341696183,0.7062230264084634,-0.628626584698856,1.253139442810276,0.6679819724383467
1.1630930193935527,0.6162659310784224,0.12786752723142095,2.907153672255734,-0.4323932698383809,1.5788133996017621,0.24207547260438206,-0.27570433391521243,0.19576167139675418,-0.011744886687715788
0.5857538025013952,-0.15846760780727787,-0.02163324377638039,2.203783329556016,-0.06351957814343873,1.2804772400656632,0.4607909703570986,-0.09222523771136638,-1.090355921365228,0.308507404751638
1.4266146928622356,1.5042502501385107,-0.06267108097513734,2.8529527043374103,0.16071665967946944,-1.2595526920064093,-0.0014342868258134663,-0.503174617040895,0.5867448813599105,-0.9600913762433037
1.3760600547340922,0.14431212295529505,-0.4008871467503139,2.704029425946641,-0.5813415689040649,-2.1981037559671064,0.2935699957838651,0.4455195803422082,-0.603204815574882,1.1662434290504806
-0.522219496938338,-0.09519265457951342,0.0010549881952457935,-0.8579383434996954,0.12414209591925174,-1.3824260015926464,-0.3231715990126675,-0.5268574876921674,1.3048059708774786,0.0819938487754984
-0.5998551753747694,2.837666426581773,-0.9632236921338528,-0.6764437616703649,0.7020679550905286,0.49370831793798853,0.31967952666226424,-0.278841944887563,-1.1551675962688648,0.5249548442056556
0.3994661235899221,2.991656791109023,-0.35450878357247584,0.5849708171302799,0.3216268416551876,0.7000794605294947,-0.3314231232202813,0.2297754578963525,0.24302284698329388,-0.2345036448602697
-0.8025136585549367,-0.10384331969380456,-0.3235657839673185,-0.7777647177794758,-0.017444991506127543,-2.4395722697734112,-0.02703154946948726,0.1339807647657543,0.08093593312247105,-0.31284785314274544
0.08948708478605541,0.3979593025893686,-0.02544218833840155,0.09984966150932495,-0.21234441109190189,0.8152120333152654,0.6216346782510831,-0.042813437185531406,-2.1445062597429487,0.7950667422627422
0.375185131541174,-0.8097453920836011,0.09475695911252656,2.464799017279407,-0.32637468185924295,-1.6326235071254374,-0.5710688736154973,0.7163045247754393,-2.1158080345443855,-0.49803450964115253
1.7050111908445904,2.7568717139431964,-0.7756373544013085,2.461750462805345,0.14305499223881923,-1.9714037341968618,0.3379127955627695,-0.018058566647796884,0.2508057694107445,-0.5221808752292066
0.35317366284274015,1.8637622163821699,-0.27577941616614016,0.38353563718685035,0.0040936196886723,-0.7235307216670281,-0.3683789283359594,-0.4236012353399128,-0.15959493303965266,-0.9887828440727879
1.709612911206841,1.5984546931024668,-0.18232323167935727,1.3330741695806343,-0.3266019340320303,1.69597272718501,0.7787698272204412,-0.6946264727752498,1.4074535555064533,0.06470482982911097
0.19129456029829264,1.8203942230971522,-0.568722590353995,0.027337172978203927,0.47233439197475674,1.1013386128174147,0.0002358296342978291,-0.4768394536620598,-1.8980609680608007,0.0018534688018422823
0.851537561517259,3.2245764074015844,-1.0695288541880432,1.1356686140403585,-0.5796607627279663,-0.916172370472968,-0.03856527310767988,-0.27483935610270405,0.48297359921120503,0.4217321615159474
0.6080203734023928,3.18119131089684,-0.6189014045763171,1.4286833952296125,-0.06402188006200858,-1.107682267769555,-0.3505543193975522,-0.12989823595129565,0.4193371345341992,-0.11035909240265276
0.3734362115025563,3.168055422363249,-0.8758510406343112,1.321398711685596,0.4344685243266012,0.2883370395574463,0.6472411351621392,-0.6485161282300282,1.574061600249129,-0.8133757690155202
-0.32100120439767454,-0.9453270891169421,-0.20617432414497971,-0.6377863158902993,0.029058106150303815,0.9866736681541602,0.024041687799496315,-0.30587124317110187,-0.813618365261839,0.16784313730282488
-0.28877947219942646,-0.15703692372433842,-0.17605782070412593,-0.8663633227548335,0.23470973449488372,-0.49172797437287946,-0.10433805526599717,-0.055186355000746486,0.6424558901164824,-0.19088075565418172
1.157964220683301,3.1843859724640327,-0.9166484498014451,0.7599703305640428,0.05356121570176038,-0.8224453901813059,-0.2637129473271454,0.12467964525621437,-0.23516035504866473,-0.6261577911472181
1.129732794048733,3.3813949319992247,-0.634304378018939,1.9169476586467677,0.22530230638378534,-2.6768486904690643,-0.3354337007200024,0.5043169825001729,-0.4820771717946498,0.4849990754856661
0.8473654308710972,1.9289355675349649,-0.7828176850310107,-0.9930494545361652,0.026557864337970295,-0.08772750269239132,0.12977562335202036,-0.17151068335602362,-0.7004684576563563,0.7320926114730426
0.44059482389942717,1.0185474268209544,-0.6370326852156956,1.173179847720141,0.5486567799186275,-0.5259751364063434,0.7027033666578704,-0.710654851882488,0.4576295398688667,0.0735710963495042
-0.13734647582175213,1.800572028813097,-0.7320574438208094,2.1464203298978735,0.2841706452847146,-2.4754502799901683,-0.4649000574305274,-0.21679579293612447,0.4556462160567486,-0.15781485021610372
1.1605300284468234,1.6452347486902412,-0.789507056365212,3.1718797506430683,0.19962318332853132,-1.200843295944971,-0.06930181670270424,0.2242264971246181,-0.9393201917482406,0.2619647780350421
0.7741872452044044,-0.5015258417957413,-0.08410812025163776,2.53463871631979,0.058204731443567886,-1.3852190003587346,-0.5911290137072368,0.02888929661751971,-0.6244302853949195,-0.6484976625765723
0.37538906989786,1.4011180864428403,-0.2685084981958593,0.2411887263074095,-0.13686818756803013,-1.7665482917499165,-0.5324260585353637,0.1879725609127608,-0.2891779195715604,-0.34663660117394685
0.22907295954244516,1.597220277483979,-0.07947886379550524,1.9365584262568762,-0.3752167291838897,0.3625370272927423,-0.7656295118042775,0.02520124118800188,0.39826371518292036,0.5094114424320041
0.266679750237056,0.5258778438175833,0.05302899533497915,0.527736393168418,-0.19793711502654582,0.7977090525212631,-0.1659247252837572,-0.3886355969194733,0.8313499640065413,0.008921165809084248
1.0682115112549493,-0.8916657770806405,0.040995488848268466,3.192201701061535,-0.52161252100226,-1.0067512989828835,0.34045776967940977,0.08472364452936508,-1.73480333548115,0.004078404414338703
1.6614932831230704,2.7597357425757134,-0.7724113699141009,3.2542588250033946,0.18576251832650972,-2.385887361935393,0.12099354451339736,0.6414791710911112,-0.34658055969938895,0.3780741925247966
1.2484863386892582,-0.9720851233685103,0.8853296193961351,1.5838337243181515,-0.14273997766180582,0.25510654626069595,0.7429286353645038,0.34621661897403466,-1.745862970685036,-0.12271677314255927
0.577159677353215,-0.8425039670441403,-0.243427099028732,1.208490621533433,0.406475959666681,-0.8968167748704859,-0.07082136853538368,0.1806361345495065,1.4401361696672663,-0.11701874781281446
-0.15825393779080993,-0.7881726887070666,0.14647988322560251,0.9944014681788447,0.02274445318842319,-1.618186510419072,-0.5603067705536536,-0.2476339787964134,0.9006479697432033,0.7467894185177723
0.9084321273372536,2.4190931319524913,-0.7509377926327587,3.269179175148194,0.28681266547072065,0.27954407752078914,-0.5866761225373692,0.3545967887207144,-0.3349886681184864,-0.9328308307405971
0.020373130706261566,-0.8949751755371214,0.388684200157542,-0.29943913871265837,0.37003596207744016,0.5747437171985453,-0.47520912612005206,-0.39551726531316583,-0.5340793869652656,-0.10283869922398185
-0.14127406066576093,1.0843261624145089,-0.2605166913102013,-0.5300076834485208,-0.689644785327279,0.5463515580248717,0.1208337844789632,0.33976982128154226,2.1816725901739233,0.32013342239538006
0.40492626595834436,3.331761646167374,-1.103469734437504,0.009995583983274825,0.5062343346877076,1.519947413394046,0.7291968481452713,-0.18565985888568473,-0.5080351080697323,-0.02082466918808888
0.7112385869995671,2.8849918065539795,-0.5128111977366617,0.7666898768940225,0.21943895167012378,0.5916426639500142,-0.022734717993518953,0.0162431033581936,0.5648441355935341,0.703911533738529
0.8618275604501928,3.2988069587301556,-0.8393222986168014,0.773661720021849,0.34137221446366367,-0.872665810130985,0.18018275922662313,-0.03166264326722646,-0.34013924474219004,0.1613699923400773
0.4177425878736193,-0.3749144099760173,0.14931730991047748,1.6844652230824115,-0.36909408775768016,-0.2877018731002942,0.5932327228393238,-0.12065346160688052,0.459800279835569,-0.11858494145343787
0.1633114245640902,2.392709146576844,-0.7316115554598939,-0.6788988581621717,0.19118951317612184,-0.013131537821268885,-0.2721836835596612,0.29843687060230367,0.6152764018886011,-0.7457714964599397
0.42903191576955085,0.9721682879555658,-0.03944491727171989,1.7998645846967714,-0.10864975813934047,-1.0772906456065208,-0.47148591247883664,0.18146664567838997,-0.5966317999818274,-0.10332690714517953
-0.24112096012541237,0.3350226458255334,-0.24602764276128472,-0.5477450685277765,-0.3328471390093923,0.6716294768863629,0.10194297988749611,-0.48919251605696856,1.1919513590599025,-0.4199235783857793
-0.09378394162203905,1.3707994650329667,-0.1968267537806274,-0.19653534742751988,-0.43506731714695757,-1.1751966446246032,-0.5770351436338552,0.175889571648051,0.8247864490453588,0.3502196186630951
-0.12427773362821559,0.6639929988111295,-0.29905829779795323,0.3854465029897207,0.15482605734154584,-2.465249753633647,-0.8979470513203501,0.0065805993651021225,-0.24425032452145848,0.25331875701013373
1.6478985948437268,-0.06535567216109461,-0.21115249805055378,3.039332935041145,0.43201556384867207,1.150695718230604,0.7047258274771923,-0.30866988423151887,0.7997382753391045,0.28994900326637163
0.36319050153713517,0.17432917982397922,0.12058895009225254,0.733978500457678,-0.48112430987285654,1.1034003501811671,-0.2766754226728606,0.2521202320630296,-1.4058437800779469,-0.2812609713009892
0.3582509753140867,0.5699912221248076,-0.5669251220598942,-0.45379286336934876,0.22998518349917912,-0.46928380313816614,-0.39035521584977706,0.655822568638888,1.1161525959878802,-0.7696035738969228
-0.04070731811887082,-0.7872877171336916,0.10410274022099415,1.4309221240104426,0.16717181352015398,0.8303104253179182,-0.4043978069036684,0.34393333897222766,-0.0798222269175251,-0.08011136938648404
0.2405151131033269,1.1251467427003932,-0.2511412803217592,-0.7836882858478679,0.1811720172376878,-3.2184731732762524,-0.359467265534726,0.15962964865021825,1.2809875938688633,0.5399717269917315
1.0135107677610016,2.9300291575482302,-0.8027262278654471,3.2442715790982746,0.02644946630575646,-1.7084197168480904,0.009919581351153684,0.7206797742089377,0.3217068814908795,-0.41563962581035013
0.9322747221257208,0.1673128445586498,-0.3087614411761306,1.7458561389077407,0.23940620468824622,1.291288935480686,0.03260008716109017,0.2906137446779534,-1.1176879156648871,0.4047057146481666
0.07570691482390063,1.9923533830494424,-0.8641384562432828,-0.3336678417014671,0.24315328225887078,-0.42786831523525537,-0.45866037639702456,-0.19526017899562093,-0.7729360418409907,-0.018940641027864944
0.08832389171235137,-0.8056233849829969,-0.2359709567801679,0.19135645419294023,-0.36411415071487024,-0.8421012283545051,-0.20507434026358887,0.007452286071668922,1.1765495623593945,0.04505633939927333
1.7086497288760534,0.2825003048310599,0.13347161910061658,2.9263002604471593,0.0471282108230597,-1.2178248908931946,0.025581378709474235,0.8973837125947548,2.3245772558255067,-0.22612772952705298
-0.17173579088685384,-0.9769181734249307,0.3524047447977354,-0.1495823299292437,-0.28298187136290304,-0.9838573459995177,-0.10334284688086555,0.6100269500566879,0.8278928207194954,-0.8478908763421775
0.8217728055147334,2.22002366718714,-0.7424351530425615,1.37609611074963,0.6702233668307848,0.337853799659668,-0.48089550419209215,0.6493234457702037,-0.23121410039277626,-0.1304975182859387
0.03322985935334294,1.6966369326327642,-0.30135467086528506,2.9087803005642585,-0.1030563757696505,-0.17104067445134452,0.2084779619595579,0.49612720102684194,-0.6835345905051566,-0.35292159710136384
0.3226007527226172,-0.9211969945229393,0.4064921528623236,0.3635294517075549,-0.13593910656343516,-1.3510021048072187,-0.5670248279604245,0.054784448283069165,-1.1342196680941539,0.3090011412901352
0.7609854533425517,2.0464133703779317,-0.337810442138667,2.919033957193803,0.7553469075422556,0.09444046531552686,-0.054555502505022536,0.6993692472448764,-1.6135484678065968,1.064834095534258
-0.33358326789493586,2.847980003142178,-0.7878862724809396,0.055099170846897305,0.6174753934650933,0.30785020556936804,-0.37547721145319923,0.35525532658476905,-1.8446951349395593,0.2333558659854884
1.5543514735301605,-0.23814583916637178,-0.14216987010955356,2.6968517849846183,0.07503924928065009,-0.33204364453088075,-0.25304620375836145,0.4602762749887538,-1.7234917526465678,-1.2085709710777488
1.048616821128642,0.16017188784231928,0.3076942525555975,1.856752133745748,0.19940683694756486,-0.06648816018057235,0.010494932574007923,0.44429174726771065,1.1837412669905745,0.4910096818488603
0.29070726821266324,-0.6695636781172194,0.34463953943312486,0.7306340388776564,-0.3883722745035286,-0.09269343173621392,0.9114186081754133,-0.15275422412190715,1.683069841074571,0.02727838686188455
0.31593331603764924,0.7631002300436049,-0.04765432545810274,-0.6809112157914231,-0.1657187656008196,0.7025327608883247,0.3788740031008298,-0.5019547913000342,-1.1558545041258856,-0.6629834472647326
0.5072469971859366,3.26614196037065,-0.8919058023505684,0.8285476806464438,0.3121252609268968,0.5627972795268354,0.26897401288558404,-0.072977896474852,-0.4246421237843857,0.8556259324242069
-0.4958862131004616,2.428597474517581,-0.37963112231677465,-0.42966794041971035,-0.32107211977089256,-1.1673349282713463,-0.4955928336426145,0.17869509477114928,0.17394580157703232,0.36092852222565197
0.536411424190459,-0.36032058947248147,0.37824291965188345,1.4483392455263924,0.4875991552194616,-0.5653346620462804,-0.9339556859977578,0.317241139962937,-0.8962816947436804,-0.3589911737269837
0.8547812507729229,1.4082637976089618,-0.27823998541377254,1.4734588565555327,0.4090303953671977,-1.6743548389647087,-0.31719358281982024,0.4589343631774422,-0.12319597698255125,0.6629616448000141
1.672891333292995,0.17355035140249986,0.20292573359699273,2.674451271177459,0.20003290218098788,-0.36555811622451373,-0.4569086742000945,-0.6652522215995916,-0.7278837723637073,0.587196458996025
0.8211164523264186,0.1361953419291635,-0.04632016728100961,2.1073116813783876,-0.10351008325678196,0.1765548088752299,-0.1677558704331892,-0.5124663780022524,1.6320047977942034,-0.3607900132917083
0.9212148015748891,3.4500790978336537,-1.080970473097212,0.16276326175716527,0.056569833427354825,0.7040723557571824,0.0030727504098312084,-0.680527555826902,0.25715970690839607,1.015993896105645
-0.8314503068194876,0.5564346817756181,-0.512418790832264,-0.9621805932884405,-0.4478520331804411,-0.45971933685069905,0.2142851005910921,0.37193730171636497,0.5131561066097119,0.40995179486103406
0.9342421156471534,2.9466272138916327,-0.30808336591276736,1.7330182254059339,0.5573497001004042,-0.15729513744997836,-0.2424762267828784,-0.033473248437405574,-0.28538506825936055,0.057846384900221086
0.5588383806842441,0.8148232043612489,-0.38538058548188486,3.2432819988525203,0.7780717147971811,0.2573872022420084,0.017377676300791137,0.14204307426316948,0.11673689584759003,0.19960868184664493
0.07171872174046956,2.9793802035808254,-0.4897068176478389,-0.49157614543793515,0.3217413447913766,0.6252050943352647,0.3029093877556851,-0.38780363002689483,0.2858063544307498,0.36402293793506396
1.1546048514894238,1.9615483683214747,-0.3166874288214165,0.6815881078416575,-0.1515487216536845,-0.3487901369736295,-0.47946800266008094,-0.03328532252790123,-0.5737061512286631,0.4154073453732121
0.7933997324980337,1.5908985849641466,-0.4394780163407263,0.6669842274809028,-0.09128236800701627,0.7770788389446103,0.13375340626858542,0.3048578857684147,1.7680537317578253,0.10404592921157418
1.0474226435427398,3.2330203589629347,-0.4606686128159718,0.4735455518264742,-0.17911157415016465,0.6483784684359545,0.08472206244791522,-0.2563958063377565,-0.3149276024035116,-0.6902348924420625
0.7527985485277409,3.3533643039143906,-0.8240252663677329,1.4389157018233525,-0.011373484006603703,1.903865752943969,0.05337290225421548,0.4911932238041254,-1.731986890244027,0.0032360702096615956
1.1693495214321636,2.528040682514784,-0.6307444168697941,1.8910241005143926,0.036857094951069105,-0.06268173800784671,-0.34389292228120133,-0.6275994592299291,-1.2490141706936821,-0.076336329276927
-0.030441054367841697,0.1575409278951585,-0.3437974855429059,0.8708568433860642,-0.023617452564764857,-0.8239273941304145,-0.7430258441458069,-0.265374252856713,0.07945943088598068,0.5169380989180212
1.188159418196511,2.6404010443260755,-0.46725382510504926,3.113127548360037,0.3927509115589826,-1.7499693840520654,-0.198988866390192,-0.5474681400546355,-0.09610137933636631,0.8320166269104474
0.32181709997847996,-0.9940866582929243,-0.018737073074242667,1.8985576258179813,0.11637463470842294,-1.0558280215544578,-0.628733853858465,-0.2700845631812782,-0.9040060712194289,-0.1523830683056421
1.1700721236351372,1.9155761727373029,-0.7087631924657681,2.194041548400549,0.22545798079536622,-0.5079681051787873,-0.09903240390695907,0.9513318714118806,0.7258613081244137,0.03236974364380243
0.7610595733728514,-0.9340932878537332,-0.04269899157836114,1.8825041249225665,0.31749650232134774,-0.9728389832688749,0.6078871248772321,-0.4768730246168956,0.592829757226238,-0.41238357765949973
0.9549683681171354,1.4911575786119498,-0.3863665939200982,2.0259082759964784,0.01325962491870869,0.17094957780758321,0.27433359811273744,0.0022032834461451754,-1.5627567727800908,-0.22646628790647116
0.210822780514703,1.5715996856226946,-0.505467892110691,-0.6251934790134582,0.12464323082765653,-0.19167154083266486,-0.021826166466808534,0.5512310658749688,-1.631794490075236,-0.5357128396436343
0.7369282617622461,-0.4362998480529058,0.20244566256281468,0.3936644283297106,-0.3461687474079753,0.2030719911375361,0.26992099982045203,-0.20864792531195286,-1.6165986388648674,0.2557623085910028
0.2702620850195089,2.9806121850397442,-0.807708852983692,0.6637408367841757,-0.028590127507137804,-1.480909743809796,-0.5183971416998833,0.20197214333660288,0.6884473710318268,0.5814960737893797
0.9729777894128393,0.43140524418610915,-0.5450083074791828,2.0556333706969423,0.29605029590000137,1.029939866760623,0.2675042649499936,0.31946231068727243,1.9229781762289817,0.5745102889559806
1.3328550307840437,3.0052071273929375,-0.27438550130687905,2.680142450640098,0.1826983496254709,0.17125331182528328,-0.22893802170806268,0.04183862158462509,-0.10506916557188609,-0.7159964295687833
0.2409965585522082,2.722889171469018,-0.7151576612671532,0.7343755402465741,-0.12236012387313049,2.341720238043476,0.37147560319551864,0.11498497900846516,0.3225209416250059,0.27546591179732327
0.9622961582789555,-0.5064806596342607,-0.29115143398321625,3.44304377504612,0.23152580990616792,-0.9759641934179373,-0.2569964698686979,-0.2439476425951038,0.021137438330566083,-0.2959423481624976
1.8889769339899376,1.7415703723544387,-0.22519176073969774,2.938010475581894,0.44189455599151656,-0.05708291845864999,0.40989466839730826,-0.2867689058507721,-0.4715773531977808,-0.1899260524511399
0.5334282885481229,3.3856952814243506,-0.9185568461738955,0.0629386513130179,0.17251237211946904,-1.7877248411797657,0.33361686780480954,-0.044508770629113355,0.4335971465166638,0.27016059118568375
0.3998666239463192,-0.011191088215476763,0.2305491586595849,0.6137792194489067,-0.09593404968289347,-1.5273475860051753,0.8820203326719491,0.1590115785395634,1.9495212059995046,0.12967516377366356
0.719901398792621,-0.8057156506607649,0.094813603116357,1.5760992956010638,-0.03900695801816875,-0.22580085137113554,0.37502965354994255,0.44542118477945336,-0.2959613605215473,0.2657912406424491
0.8287889102415277,0.1831571093365867,-0.3493431926406145,1.4224764654591189,-0.06583070066221099,-0.34155455938861495,-0.14244149491957153,-0.16607327875785888,-2.1502471089996518,-0.3131572303873642
0.1810234912957648,2.1793878383859817,-0.8165843700767657,-0.8632976254936328,0.0501777026265862,1.1966178903464177,0.3504976880086378,-0.11671296657349992,-1.4950212889591694,-0.05429442694139881
0.5127723070152539,0.12008849670091548,-0.5589114699386927,0.896173086762799,-0.09373890265607901,0.2506447425111838,0.011101476100652189,0.0131856526643529,0.7709073319633403,0.6227069556074107
0.07060895134440909,0.2863686185816121,-0.1988637934220674,-0.14884122418078582,-0.14317444734182203,2.476534295697186,0.3903782087440125,-0.23483163544804495,1.1783336686653996,-1.090891880364167
0.23642749786090023,1.7531092695468433,-0.38098978171872333,0.05897789780014495,0.513296411262595,1.42716235460457,-0.36994101732230633,0.05405942885129889,-1.4006693009327018,0.24409191921321344
1.286617305702029,2.20071011487768,-0.6713869449965563,2.69087920312826,0.5923310294307988,1.5351825128341612,0.6291339558292965,0.07693625105806107,-0.37011482870608065,-0.4719642078288822
0.4512945227849599,0.7123034381411188,-0.275006290929796,-0.2732606490461126,0.09619716592524577,0.11965892678070886,-0.197004961024611,-0.1876573611185206,1.5384666077624434,-0.682894354595994
-0.18519064438498128,1.3652157263146072,-0.40286504767193093,-0.7986085794226507,0.2012499272521986,-1.1461616955934426,-0.6277774991135562,-0.10774384647391487,0.7665348406538892,-0.7563399345738416
1.1802183593239597,1.2052797582532402,-0.14110239090226512,1.8702412205134866,0.2968644169650171,-1.6446881546482033,-0.6682917458946513,0.1935942031738184,-1.5023487412820515,0.43597471804632304
0.3787017021016498,-0.4456667855850709,-0.04265729051690618,0.24333525192514882,-0.21014388302720277,0.8958848445652956,0.1795141356935822,0.43360032303043433,0.30260668305898386,0.6434348184347102
0.7477108604591252,2.119209316391679,-0.40382738884117847,-0.09783444289753229,0.09865511789574334,0.11344511756869885,0.12654239845380386,0.4095435604186244,0.925331733450221,-0.1644087709843929
-0.11063822798959275,1.942450414232352,-0.2526406215807133,0.6581246768868665,0.09547242301135675,2.058055090892597,-0.0517697005666432,0.3053922369762287,-0.8979423140537999,0.6860904053811817
1.0498127167856617,1.615231967339378,-0.025386647374279068,1.7656172325827835,-2.6036830428454903e-05,0.7869847851436402,0.4662458001164512,-0.03007914504532435,-1.9463008672207966,0.174628519270835
1.6320370546756893,1.8962085033476996,-0.20702006759715927,3.4000138657039507,0.33859215750435107,-0.6184216945400708,-0.22377998554492604,-0.10084971775724681,-2.244008951389205,0.2853853806076517
1.2706041166892756,2.4673473418636998,-0.6933298423286531,3.121324186316315,-0.09583711919899103,-1.7287127050990414,-0.4180707177951121,-0.8058091202406512,-0.3620542098155708,0.329980178431238
0.5142694312620577,2.3466721795516925,-0.8600337931336471,-0.7495796779380761,0.2911996849427185,0.46395789408393184,-0.12015304409706033,-0.3226659140277247,0.10984912826932756,0.17695914999972004
0.734633376561988,1.0591953516418737,-0.35961685245952185,1.62099963383144,0.05698724882614305,-0.8995729123996168,0.117239683988822,0.8650434302317452,-1.029550494276278,0.2263440254788709
0.8357310833230542,0.3132800273842571,-0.09837697808697998,1.5178734656986173,0.4934528940682223,-1.1533242375531731,0.1451259543191726,0.06175852146513595,-1.546603424626338,0.20096906860134087
0.48745455764305773,-0.5847853410623554,0.1804117379414607,1.334882627329796,-0.11925574829323277,2.01478573988731,-0.17214442711801434,0.4819097871038098,1.403333265547395,0.19923817872929894
-0.24209456244223726,-0.35216564769727,0.16747785081459546,-0.392426985561631,-0.1784708164463865,0.17486691137517568,0.20956318983974098,0.4508969218579545,-0.4855505896755495,-0.6673303140590455
1.8388768084479843,0.7523529604597874,-0.13673084892076479,1.9765950199816453,-0.18244575884564807,0.9879461959237623,-0.1873398873666507,-0.4197727216232621,0.07501211190994474,0.5571495397263864
0.4845950836539616,1.956280669864439,-0.2887173416955106,1.6819649339460812,0.00533139616355942,0.9487025495911863,0.1430304221007263,0.7590200209375305,-0.7560882951116834,1.0596256499089471
0.13197923685073265,1.0772913595861704,-0.2274184587904499,-0.6759207541627499,0.05963996464404349,-2.300305093312355,-0.2724304800046954,0.10272984697024556,-0.3379952259760842,-0.9675646571577868
0.7717196585039184,0.9073400605104176,-0.08462974146132825,2.5229649315051637,-0.11259598854343486,0.3719540177153545,0.5397236202546147,0.39948514206363983,-0.13393139269406518,-0.7402232451749818
1.6293871970980578,1.8737491139649634,-0.4860190127755099,2.8900325937804117,-0.3932019787110296,-0.3648379650471118,0.049499195392344514,-0.1348131923857552,-0.055312418742866604,-0.030319737461242748
0.2639157100747693,-0.9844981161991211,0.1649200491273212,1.7533771370853155,0.35042768542945796,-0.7413056627439353,0.3635586151832479,0.27592749310406306,-0.6107743257391901,0.17665544681530157
0.5786367220866733,1.5163860676747305,0.15033776696779116,0.4878933440305171,0.11375268612502283,0.39406091495697415,-0.05408513172049076,0.5702462016087716,-0.9215042370427144,-0.3691081098371267
2.0679049249820056,2.9502380638301777,-0.6721423030069594,3.383910414940061,-0.1601577392671966,0.7119224834014637,-0.2051440883461584,-0.18892066927658818,0.1403059727201972,0.660306205593641
0.3718638740034298,1.4970000820627365,-0.5384248973762928,0.19250024691691103,0.4142891267904367,-0.23504169293679128,0.06907121789083849,0.00023263545679761183,1.0023094552236116,0.07703353250023867
0.6896375802880086,1.022956898791934,0.04937412264624113,2.6705089548591934,-0.2975536101311585,-0.14316940972069384,0.07465111829427498,0.18434635789644857,-0.8329165161836624,-0.1922869331396168
1.1749160175095557,2.889793260956464,-0.5603823427658012,2.247454565247631,0.32134776878090815,-1.6868550826173776,-0.20462544090070514,-0.20801270858126347,-1.7350968985842465,0.2754184392992307
-0.02400988129999218,0.6058262000023771,-0.4307644785042288,-0.5054106908480933,0.4437690087673321,-0.8187024522447437,-0.2818933455504454,0.05777258852095016,-0.27148864922495686,0.11018640962094821
0.8136174192902761,-0.47855496519812446,0.3445112033267728,-0.09765268218890344,0.06185858879772277,0.4022005773510615,-0.07714045808791153,-0.0972461176731171,2.8317366891226645,0.6426414039425252
0.5450699703019202,3.0660116853493022,-0.828291150232297,1.495367167050203,0.7965489357585507,1.212935681963727,0.44746771378881167,0.2171674314584502,-1.6630151015998809,0.17041836450608777
1.7967897274730713,1.543145256527093,-0.5814067576747964,3.4282787755876054,-0.050608570386960386,0.5035693265100014,-0.3294707578116487,-0.451016430708906,0.11321595939355761,0.22825638588346153
0.7205152729090067,-0.3136648864235102,0.25709994359808536,3.428905647755651,-0.10333490621896602,-0.1744040977437316,-0.1758922354351147,-0.2121445120371037,0.006345953574547369,0.3669915275195398
0.8041090716740973,2.9733454034463764,-0.567581998426849,1.044722295716301,0.1733674827308363,-0.1802669583279231,0.32479471416071226,0.276177094058524,-0.2618306018397658,-0.23083704336408323
1.290801047307635,-0.21045781399795493,-0.06636413474425645,2.780556997876732,0.00201548420215923,-0.6034340710369086,-0.48662497650688186,-0.3328149265774332,-0.34016768696292426,1.3181536678763859
0.11605222427812734,-0.5142491968234466,0.34664108122134896,1.4487786943321184,-0.1999831763513724,-0.16395448826364165,-0.24598616329044196,0.5669324549658675,-0.5675589660410209,-0.33892658466576886
0.8022522182879459,3.234313999284457,-0.6764673638145948,1.9639726910852424,0.37317867294664087,0.9167134915208807,-0.23851010414749405,0.04362785735123193,0.970754879748271,0.30468046469265686
-0.6218001731247091,0.6932657616058187,-0.26412971251246725,-0.23534983213694904,0.07000129649109467,-1.241903775462364,0.19805706660269246,0.0025924010809477895,-0.9448012426860997,-0.08767545617241822
0.48107843218815405,1.8410671667086462,-0.11372013242300547,-0.3446298913493213,0.32971843898225883,-0.4191770154570264,0.3729324347189856,0.20417753029355615,-1.0689663793515227,0.3104580525504075
1.4420474141865327,2.696232005091203,-0.9032525768560691,1.9529590213340278,0.28794446441520577,-0.7164468021141279,-0.6092273275005834,0.45151337089626475,-2.1519636424298385,0.1983571762133613
0.5178330727641007,-0.3066687085071963,-0.08570507016338627,1.1825159616823369,0.46823237495589276,-0.7715887197496708,-0.00823692210680755,0.3715204648504634,-1.0597264383071736,-0.8501027662922606
0.6018025939364424,0.9554776193819228,-0.41251939786792774,2.5612811627991996,0.33100660024726447,-0.322886510685051,-0.23288793988267104,-0.09810637814044018,-1.2282963080707356,0.22839174789104116
0.6984726681900537,-0.551831629920403,0.07575937170752527,0.0007169380044458329,-0.1902308918391811,-0.02567849190050292,0.33265614027281654,0.38733770822232555,0.36093173387737876,-0.7934208609015606
-0.3937441835475065,0.8755149705742284,-0.07727553176491962,-0.9754763764915524,0.5409029486568264,0.21005746404521491,-0.1275289014048283,0.060122191225447284,-1.5163116487027495,0.5498948744518579
0.6294873689282021,-0.5954266131884571,0.2586464997881922,2.458177555476753,-0.16837330169434978,0.1460618729516837,-0.08439002689992262,-0.5505169234124817,0.01690292100356708,0.018617297789084202
-0.7239362385441096,0.28255689091622194,-0.19657109402222112,-0.9901572316910086,0.15370668977317486,1.2308820698271175,0.15092392012038006,-0.384785121390762,-0.15669555426558357,-0.015875892731650954
1.0322880965418022,0.6046737050629414,0.19053197582973977,3.2747132150099194,0.12577613202807889,-0.5576837693078062,-0.7404822471891898,0.08940446624621283,0.7787393087935428,-0.06990990471281092
0.680374618027709,0.5774103704400917,-0.13999854442379303,0.5989146006418835,0.3093581379563859,-0.5638976269380214,-0.4005351461599524,0.32863428239190773,0.779761772606457,0.2871211396923426
1.26929514185624,0.9378383705023197,-0.32162599365440936,3.096237253383811,0.675296680446598,-0.60114522100635,0.02039268152432486,0.07427478475244685,0.44578625981668063,0.07703175737477602
1.0085704886172688,0.6155819592140219,-0.35015935073087623,2.168889841012643,0.14821110126611278,1.848046534081552,0.2548677118873209,-0.10081097762336357,-0.31257456171156894,0.411896181322809
0.5540379111245328,3.06312679767655,-0.6045083514032743,1.5265146354548356,0.35935728569585973,-2.3199038204018745,-0.16327538839260788,-0.25480671128792637,0.7605069310327476,0.14318133724865836
0.9932603820482333,2.7650382458774714,-0.6086497372220937,1.908924777568204,0.3178355053276424,0.16204273796181146,-0.06405183228630167,0.47091501082161175,-0.2784017475475961,-1.1288996249643162
0.8691931557172257,1.8362271542769966,-0.033612329680547136,0.2888419146776433,-0.32599796453885294,1.3595432089594646,0.1261512670228509,-0.8184880181806454,0.6527969878733173,-0.13473252677357894
-0.051144457321404185,2.043450210086222,-0.7591439205186625,-0.7518423417541747,0.7409030605427802,-0.30193314170538815,-0.3593924508878892,-0.1920898155148985,-0.3736991737377021,0.6365885645165975
0.30831986537821876,3.0745627338274,-1.0534100924131071,-0.6588818536984684,0.2454538454166584,-0.00421178618509338,0.11455715885038166,0.25355143949292014,0.21683081993740314,-0.281404849040999
1.8613855492816138,3.4219274214072275,-0.8480293321672273,3.22840213530353,0.35066046787905325,-2.015933954108876,0.6329938039794066,-0.003437940963401195,0.4433418531959691,-0.314258826880996
1.2803626172305953,0.5542611645051876,-0.17831633557200696,2.9243225929985583,-0.13281520350720477,2.641998072481127,0.5895984743804584,0.29097499739241883,-0.20280514366623806,0.5129631548011153
0.7530449887832668,1.4697745968489828,-0.5606170376435625,1.7525923077515935,0.3083978943883694,0.294426493343189,0.06370198109720053,0.0017997724720019937,-1.1795614093280378,0.48630615882486616
-0.20833236706353733,-0.9705105068491673,0.21683507737123336,-0.5385939625557485,-0.018053430784253314,0.3934237294821297,0.3874002486062859,-0.7872377705189587,-0.3635503309630698,0.5474661910713519
0.8368946845159776,3.3859547137813646,-1.078765567121982,2.2015948817274156,0.5325125397347245,0.8115438452373137,-0.41009938901812404,0.9949739476654174,0.1592665944401688,-0.28089362613884905
0.903666647363327,2.7870714008644892,-0.6305086164081448,1.6349320973655197,-0.04022734450643634,1.1967663012748242,-0.3787076689291281,-0.03600779968525366,1.2085171169268225,-0.48863202492778557
1.5983815381581645,2.5207326237361665,-0.6035702605996784,2.2536581082817686,0.279206896355791,-0.2820011423273251,-0.02437657826720128,-0.0486113913722713,-0.22117780124873637,-0.025607638866521537
1.1079683694059665,0.12108226008664036,-0.169780086915615,2.485861253834697,0.17684199974869794,-0.5183659579768214,0.03373359801066745,-0.37637156529165433,0.525763851641033,1.1198263554934869
0.03877464211246563,-0.8148357576558216,-0.28461060636444996,0.48871311223637703,0.13500817925908462,-2.2634794594742527,-0.37467498201173643,0.04123538822094689,0.17106809167215437,0.7313209031649667
0.8780523437477642,0.7839896860635669,-0.3725382556361738,1.1973390324758535,-0.13682200517147608,0.9039117351873325,-0.045524017720876594,-0.9080907370533169,0.712642366253653,-0.603298408705935
1.048384486385382,-0.11034916448856247,0.28208302081615894,3.059304383606384,0.06276961115511952,0.40009530229234325,-0.49462657867651266,-0.2078638637566818,-0.6659425874871546,0.11867760546424366
0.4568439454960852,1.0905702274134463,0.0015713676005302565,0.1010117953493681,0.1687425612573795,-2.2083270348938275,0.0686568758156315,-0.014316309173687591,0.04231533930052149,0.24942421288282282
0.6461893207101832,0.6355209458691284,-0.6112053246959691,0.6299162267920069,0.27355077643139747,0.07865183798507258,-0.35218470159712895,0.34040122014384305,-0.789959550419379,-0.2148350645897106
0.17257290819665605,0.33478869549157575,-0.1079466982069803,0.8756401758666155,-0.06597637988247715,-0.47083868927467465,0.03364532928315126,0.29968645658752385,0.8302839607203544,-0.22533187048953918
0.4060799351575407,2.1750032554852856,-0.6913133690616275,0.29737817177701475,0.2157777888086681,-1.3807207575292677,-0.6042003350373354,-0.034616075537556315,-0.23357565007099484,-0.42687360230900007
0.8890122963313369,2.8104842200273956,-0.6843503346987948,3.323429566182125,0.6139887982004352,-2.3612244792778774,-0.12247365872975606,0.312249317859375,0.8879252387333632,0.32706985402412386
1.0390266186312276,0.3518919507263403,-0.39497590691465484,3.103520480249089,-0.21304123264063318,-2.3227823794151283,0.20411725054013108,0.11837270831417901,0.45508070107171983,0.07204872464089002
-0.174371808595087,2.0878907255742676,-0.37877789190167777,-0.24406701781876616,-0.24843358183210262,-2.190602315968997,-1.1730178227552566,-0.4658225120136649,-0.913574476566411,-0.4696772576341828
0.9232391367289293,-0.29933092232966707,-0.1513773659976553,3.1552693544893113,0.15008050842047452,-1.0689112584296292,-0.9723089344402616,-0.40691478920083246,1.3059984251069878,0.10656659482112686
0.2966807926748275,-0.4764192485344486,0.01763307293692138,-0.3729174581467821,0.11463369614683772,-0.3479234934859124,0.5102174362091862,-0.05175008977536404,-1.0077332292104266,0.1071831289768028
0.7009798437171788,2.8593654842197544,-0.5542543715793704,1.8568435129592653,0.2037100304179826,-2.291356912381316,-0.5190578839236278,0.8620144227570536,-0.8564099093577434,0.30666734243334726
0.4234117873602827,-0.10256422437832213,0.1696570549191628,2.059778796317218,-0.2820303834005198,-0.3684717755179892,-0.3399673879331973,0.4491560411052199,-0.4576314424106316,-0.19988499354800443
-0.2175279304510983,1.0372277416472815,-0.19935375932493002,-0.5695356093434661,-0.4086569754369473,0.8006271321919372,0.16554829024360518,-0.19421171824506803,-0.22450934154828842,-0.04850085862036307
0.9967100858311029,-0.029254480545493733,-0.1126131546904647,2.6891585636885105,-0.5842011567368558,0.25494562142340366,-0.03455925308988207,0.0026154260559268284,-0.5960615690664085,-0.149286305546845
-0.37767543571090334,0.5755125472439033,0.12520969423723613,-0.35290162354471766,-0.6014524881355797,-1.761195784844605,-0.25994966386382107,0.009280643760944418,0.9174728404692644,0.23294016090176994
1.0637182909214444,3.276352529114523,-0.1664389142850768,2.9847317408404583,-0.12153965480899993,1.0906334533206805,0.25401762142574247,0.11224173242955499,-1.3019942956938495,0.10124639284282597
0.5838529785582329,3.130121724849447,-0.8651140662191965,-0.7522864083498675,0.2063568266703711,-1.4719409915194905,-0.27116952523321325,-0.5620969098328555,-0.5241875657128127,0.05934155224758087
0.2641946091343754,0.44172661529521196,-0.2614744025652602,-0.0709152501764958,0.03735038406378182,-1.4242523426176932,0.08157204325023588,-0.6532109965737466,0.6791666299422304,0.4520028046011504
1.1371735029920935,1.101668784064822,-0.3766346152415406,2.7116117830432946,0.17405174311498037,1.851486613273042,-0.19504257213733056,-0.750207448987885,0.10030098820044908,-0.5997743963072447
0.5933691961888419,2.6470324021791614,-0.6784870260216885,1.4578614928684503,0.4227570838255876,-0.9372564580957675,0.1196738260610511,-0.09742279637524583,-1.9608211457892657,-0.11208427386807543
0.525383588323141,-0.7616660398808377,0.2284721208565828,0.2795588415533672,-0.36078333341656826,0.4976611470255489,-0.36054316102375245,-0.3119018202539399,0.6046816435527853,-0.32675767577328296
0.29165979349610427,0.41380954533980696,-0.32095116393707945,0.8214387867109265,0.6048817541458621,-0.0701074148551709,-0.23747056962560012,0.22603701424594816,-0.1527124400618967,0.28796937672272227
1.2183006960120537,3.386919633156073,-0.6244880043303175,2.1458581386391122,0.0745490566012912,1.6016674890894802,-0.4107970595806001,0.4380189928120082,0.3225100925221495,-0.4589222063703339
-0.4045782608757256,1.727360032132994,0.08001423412671584,0.4389392363395319,-0.10258761144363049,-2.4259541782202176,-0.5464696616091127,-0.15543586882025365,-0.6848730169295245,0.7277483187389716
1.7518078533749815,1.2790028876081276,-0.3725218250363602,3.236307425968705,0.17568446689270964,0.24300949865886995,-0.5146005685710721,0.2979365069846274,-0.7281159884143017,-0.4468652707169382
0.08388175372281176,-0.15435858349303277,-0.07438130494224372,-0.6084483744904676,0.17863260492373892,0.8657052984285156,0.39463174807973544,0.13885048882737508,-0.16325635885720358,0.45715190194118693
1.1307748747169957,1.0525646280839078,0.13279283620226348,1.8282645419350514,0.15035607535334014,-1.8426163761398653,0.17837854344720305,-0.1306307959999022,-0.8006937790675783,-0.16571500264965425
0.046311519017423364,2.959507228406115,-0.3307355715764564,-0.17961925215894503,0.2732021453367164,0.5666829906407184,0.7783685443004563,-0.4152219150310725,-0.5905410011086482,1.0417945793048704
-0.13797448736928275,2.243659373053424,-0.5832220814290896,-0.4136993728412772,0.24734536240717953,-1.5533253758198136,-0.07608585936849234,0.10848965501939033,0.45294808639678,-0.32021324507932647
0.6054379480494134,2.986856783914446,-0.5547488919644765,0.5323619828476673,-0.4727576983855554,1.7908196261478255,0.7097393762412889,-0.30773949237211584,0.8779791518612926,0.2756849132135267
0.30499020981003994,-0.6936711693180795,0.20778329645211496,-0.7439180674913746,-0.07745260367629002,0.7416976877705738,0.7335154683702709,-0.7442109995222251,-1.692926183838524,-0.26582821159543835
1.6197579895587353,0.9026558262584545,-0.5103492577911729,3.033030681710401,0.12669179144790482,2.796862379190596,0.4497513533508518,-0.33599555842668505,-0.13723602097636278,0.6994103802782129
0.41501510933908414,2.0509684616229835,-0.701481860348582,1.1599504305441384,0.6263035091863648,-0.10062371006694562,0.07194385742197255,0.4305902175963268,-0.5677147815538467,0.3371399600922053
1.1485189467780417,0.7583978173468622,-0.0950736592560737,2.3370156359486036,0.07942818680165528,-1.1166295995693927,0.11712806087921881,-0.04397112544436619,1.3322606435517932,-0.792218201703963
1.004562438392171,3.22151882377167,-0.9824434791934442,0.5734541693858015,0.33390642744671467,-0.1370654638778111,0.3428320320661754,-0.09011014615775766,0.21328806063303357,0.09615070825020579
0.8364375601339629,-0.8966745161927699,0.48043037459681076,2.7032323373708604,-0.3028088126658865,-1.720973427748572,-0.3852459689442038,0.45402746359153556,-0.9258208827027242,-0.03993704674824302
0.07424833362525333,1.3533204733961974,-0.18291463758044668,-0.04368442280250984,0.4226126139697954,-2.035044576956637,0.1841287643081792,0.4628107991418944,-0.2536623027079148,0.8762920081163824
-0.22078772838037286,0.6111897145747591,-0.021574540501016967,-0.7962867216644962,-0.6480647365884085,-0.685470955597713,0.37827349124556303,-0.6876381414568101,-1.4919286565735062,0.004741056009705255
0.3268512579659085,0.7372120520021499,-0.24902058316655648,0.7349487613132328,-0.27365510737988513,0.4356488035369482,-0.4689752753076869,-0.38110424397032283,-0.8610389014782219,-0.3325957655091095
0.593061437982025,1.9617039152671922,-0.5975048882361046,1.0430202194990712,0.14687123431968707,-1.5377798120973845,-0.20270796779499586,-0.13773461244153185,0.19289766883376833,0.273351178668465
1.242582989212091,2.6186674479369483,-0.6681545470849062,1.9840272178298424,0.06779327918731184,-0.2533009618738674,-0.39410240571088045,0.05006795703972768,0.7307138283655408,-0.3886360188483442
0.1754968805544967,-0.2664033033738257,0.10960270131794322,2.6652317341540495,-0.24541542535290142,1.2715850495339978,0.5258790414935814,0.05689391777709106,-1.1255995694569185,-0.5281354347878413
1.5264273148551184,2.096132784883821,-0.2272832565873761,3.3226384865613277,0.36786905609534254,0.4505847770509892,0.027811576909030168,0.48338407733730665,-1.3159296511450256,-0.5598562576352313
0.9538416806089227,2.781092666116239,-0.6598630066657224,0.6752024989382008,-0.022159546793755928,2.071524254874462,-0.6697963249237344,0.19254453266199592,0.34297604245302105,0.12729518934923562
1.1124300461149172,2.6451401553107683,-0.6859023022847635,1.785389734936996,-0.02400353000924158,0.22912798994252664,0.5470537956704853,1.0040452748465565,0.10079305548225403,-0.6003489584373289
0.7284373548389342,0.9511366222729996,-0.6900458443216171,2.1084381718479315,0.5124449076020545,0.46586626898808947,0.37206800463434425,-0.058023988239908154,0.8461512641630374,-0.6855195871857066
-0.028805764835301673,0.8037776516755026,-0.36899167510407027,-0.060134458645775934,-0.10952331427813419,-1.9819436642780974,-0.039038764505396575,0.010239131852925553,0.5674677928124917,-0.16619948759050812
0.05579469994692404,2.9701972149780516,-0.8695260715726791,-0.042809423503389454,-0.0034987814562341167,-0.4876259928618265,0.12726455774955356,-0.35748878319460803,-0.47908678573504365,0.09054353632264385
0.04469969934405557,-0.6494499158173701,-0.25307300110847447,0.4612798977719992,-0.09262628129854103,1.8495392653791356,0.12791425070475257,0.01969639872528714,-0.9609579542767019,0.7206041811099051
1.2399395096897379,3.4197579383407186,-0.7560883693992875,2.7372873208300197,0.14026387417622027,-3.2384200331895614,-0.08630353759582657,-0.012624203746615534,0.696956925253291,0.20645530699387363
0.06388896696186487,0.09564590678519269,0.09767238317540926,-0.451156156556215,-0.11558212564553412,0.7113641579242946,0.48128968549907925,0.2978532925904745,-1.3745567112579709,0.2374742437617518
1.4650571206849539,0.6621336495177164,-0.04518042518674755,2.183323524377335,-0.8414620821764883,0.8433889856787322,-0.4946504541447509,0.24482579443062757,-0.855414695187011,-0.6144741836930158
0.24899884373582745,-0.11381915708341617,-0.23870004773337297,0.22001549520156627,0.42250212208611726,0.7885211876934127,0.26455602172489867,0.07391596834087616,-1.5025712216076506,-0.26552865195320413
-0.08661470118445831,0.44229149767715326,-0.43211597065398366,1.525830636315205,1.198299008814994,-1.4143652380068374,0.10351900840170497,0.11166430673600115,0.06938835140567759,0.5778316785751932
-0.7146193381505278,0.10198523932668402,-0.023618603171144812,-0.9450820386106434,-0.11196660866352097,-0.2951950244574283,-0.21563691085388717,-0.012348448599852953,1.5206022861070958,0.7473879580697306
0.404040999497975,-0.0915734744994352,0.18893809041943904,-0.04797264455447681,0.5780472164173661,-0.3356877324039416,0.03604890371691929,0.1724284348066451,-0.09005221187349763,0.24994757271232831
0.32114755599415673,-0.4275727828546897,0.26429771352782194,0.5721833726478576,-0.20292472285503207,-2.412483247458674,0.11747377220784488,0.21799493344382143,-0.005979721839313251,0.22951485736555502
0.3527740601985586,-0.4989662006988166,-0.1296171542719391,-0.4021204312930494,-0.14934588610511507,2.243525148531033,0.11720128909297993,-0.16791992991662089,0.05332238390781445,-0.28200622982511875
1.0170663345908968,2.2401729993091717,-0.17239609443500364,0.6438118820332694,0.1609793457019,0.17690317203374362,0.17631791660946142,0.08318527856685834,-0.6511218608733833,-0.3838500348704741
1.0067780600870577,-0.17141618019261895,-0.08759242825005183,3.0554507010931893,0.07898414867467878,-0.6833026940118865,-0.2173840743346244,0.10579019955688744,1.7154269743152297,0.35990109045765106
0.5745796028822938,-0.16512297651171393,0.13557332871363906,-0.6586004896026252,-0.0738434499067891,-0.44603539105723117,0.0005503818187200886,0.43116312406370966,1.617395490986462,-0.16239637228688558
1.4940935123944263,1.9474679233421202,-0.8188990111394298,1.7020450239455753,0.10617820202505743,-0.8789786620632757,-0.47003362508300883,0.6054153826560585,0.5812585912667729,-0.010063945404799896
1.0107030934557126,2.766060076185563,-0.528699072240716,1.3072025330757748,0.06995783026412068,0.4187944850355496,0.1018353390445539,0.46029917864387637,0.5391070737832194,0.7634736611293587
1.276556593588951,-0.5493507243398714,0.26608906086807244,3.3600011188518613,-0.3241742801499184,-1.5009830698231725,-0.16889482035854436,-0.03485293065881757,0.20055921320367576,1.043837937361128
-0.1203831693793436,0.26236874390275644,0.38426128065180987,0.14386543650708172,-0.429503621840262,-0.9796870103412592,0.2186885267592344,0.5286482755310886,-1.3358631414587394,-0.8266520861247573
1.2240275096486462,0.8501868543988989,-0.05210658533481363,2.454637245120185,-0.2298813686459682,0.8037827683660989,0.37309331738904167,0.3912524918054547,-2.3407391219738845,0.6797792983699887
1.4353301259033575,3.4597112864983046,-0.8068460693796019,3.358761391163064,0.390603511446899,-0.15403014125057968,-0.4315197418395154,0.28706725929444005,-0.49055070164599607,0.038121442198950084
0.9731337476396603,0.6868066030384083,-0.15168144422320715,2.080235126072656,-0.10089499628462559,1.3533919977132558,0.23360596395943373,0.11070825088732816,0.13567052591298592,0.679391968806336
-0.4132091486893213,0.9848047438575507,-0.30764685326962066,-0.06098894999571669,0.12582499719895543,-0.3218313682747476,0.1768038847931736,-0.49994922219142157,1.8418795288807055,0.25288034858870595
0.9026368622462463,2.9259324056061327,-0.6301559208434052,1.854649970219298,0.1541675307420688,-0.7438855090828329,0.2483322494165789,0.20231138917098956,-1.4418972133018015,-0.2763969157803824
1.3533268076329645,1.7547915183669045,-0.4961324561875136,2.1531824663529187,-0.15800219221115197,1.6207677823749926,-0.17297099200224353,-0.9449935073404552,-1.5356693722383303,0.9068153979203536
0.9275123431660339,-0.44852159527906454,0.3703587908646316,2.451834740199494,-0.11711906156008703,-0.6389313791761498,0.5222146195454768,-0.25164927820373956,1.2814669335570503,-0.03620535030260807
0.8883669138868219,0.9410417534933964,0.17826215021441538,2.967352726727917,-0.30402730928810284,0.9293790310267092,0.07699955828530287,0.02188112867773067,0.9484623283126571,0.30777447135491254
0.8424025892751019,1.6491914264722065,-0.3563463609199457,3.144277194887229,-0.11102885031734241,-0.1611587235228318,-0.24921473549694956,0.556913703813416,-1.5770072333976626,0.033456596018283054
1.5702078946433202,1.6738698587581538,-0.43497624466924667,1.1252729668470915,0.37901985824611484,-0.3615204820561115,-0.6762304268129099,0.4272225105872535,-1.5217618286820564,0.5965363195945076
0.7703470150421801,0.3446168537698706,0.12224984697177312,1.0125239413614882,0.05581366541143871,-0.30777430726669863,0.5182417781064849,-0.07963489923735687,0.09097956907810718,0.31647953042214133
0.042748774951059776,-0.8582433098872897,0.24501347700392231,1.1896724709868072,-0.17263825927790077,-1.6888019502516678,0.5516183254206891,0.6489014265620062,-0.03929693795969095,2.002068570681927
-0.18800213709135477,-0.3635465273042844,0.2940894935568454,-0.11827503220587954,0.07050794264560718,-0.7270044723284903,-0.3198493922897564,0.46551794968171256,2.7117669822410955,-0.523540027454643
-0.4636523505585083,1.1288541496062536,-0.00971560004742585,-0.5051501162946697,0.4364687962007689,-1.1915112694343246,-0.4866949031702646,1.1803483633775873,-0.31572896446673165,-0.06634999950378881
0.3941592098358736,0.277618537023139,0.3739161110061805,0.14830664942684613,0.04683050745966735,-0.3567133975323389,-0.3728204885635442,-0.12775631510260116,0.7023546008520988,0.9253254438952293
0.977891604310677,-0.6377165646211964,0.2641728948739583,1.5746375640118666,-0.1769513149327293,0.14937619139645847,-0.3060674138260157,-0.20012976013705816,-1.7719746390032274,-0.041327298917034926
-0.9115597272860472,-0.6013992343924,0.45648121093450916,-0.3416268318333756,-0.36386496217685377,-2.0242317127425884,-0.052183405889009334,-0.1673289013629261,-0.9585123368890546,-0.34686896700587944
-0.3844252424577378,-0.9363266358057561,0.45329508367605037,0.37808519210152247,-0.0102703716919167,-0.4309852526903465,0.6351279131227391,-0.5946002645974781,-0.634414753922841,0.12626055854498192
0.8123971804628742,0.24043226337428947,-0.6333903291402795,1.0163282719668487,0.17858830300990575,-2.5823802048314657,-0.13576902622657466,-0.10912592819546901,0.07216717392134069,-0.11580594633617473
1.023802879289686,2.972775460955375,-0.7652565444949225,1.6432937789892823,0.9536505260343202,-0.583901139347056,0.046048395197088504,0.2059644340148877,-0.3838955326700366,0.04716046407275781
1.0369653097776474,-0.7519542291113938,0.2227952095213491,3.252838096657632,-0.13967154251614464,0.5871896119140816,0.1235445924429372,0.18465511029554182,-0.10612470467099851,0.4290528371727781
0.15259825020558096,1.5489018471809093,-0.764827544991868,0.21915808309875318,-0.21544025307258283,-0.637990005440088,0.9000085291719699,-0.2541014177470322,-1.0391616702080162,0.536062502827137
1.0452613071869163,1.045545164085286,-0.3646669049059016,1.7278637544350142,-0.36031967964790684,1.3244310974201339,-0.6234342041256241,0.22387637011049408,-0.5651306936093051,0.2214020934628621
0.7433260594306894,0.6006270194243126,-0.1689650823860111,2.320946394346989,-0.33473578136651727,0.26459366739624113,-0.6738721656909804,0.3569297087131954,-1.7973468681303313,0.44143400067295885
0.2199030529361959,1.3038020809746689,-0.04039771111484991,2.4100793411450843,0.36527004840078225,0.6559303861891768,0.17885024341787006,-0.21173067208810295,0.03507783799695935,-0.44617672596807073
0.5183626946846398,1.7903527071698493,-0.8631106919845501,1.42361924511642,0.08050314627699591,2.005700493609948,0.7364501088546962,-0.19393380159200674,-0.32995067553781265,-0.8090562856618703
0.8961456981066644,2.7011290671997394,-0.3075688851832814,0.5938161655632792,-0.04834156516446096,-1.5215325280166407,0.12130693958265777,-0.33104663774995774,0.7440475531260796,0.5863356370178179
-0.3026757243886232,-0.6355494374611738,0.2818910743135033,0.6184652410882581,0.17947588433680345,-1.111590969413085,-0.027679521430788088,-0.18133202427456324,1.4163051351460272,0.2867624193090621
0.33484869420212027,2.8999097721726286,-0.6603603623211729,0.16394222385957402,0.7379489127730704,-0.4247232717418597,-0.5814239610174067,0.5957747887841285,-0.5708878232113407,-0.5339894923279577
1.0001624842952606,-0.6709604476272685,0.2793546765525685,2.704298175826083,0.049326254191549,0.003480428186105562,0.09153090525629654,0.4629715709597906,-0.09955817594774644,0.2698019883893747
1.015535683779889,2.8036541859661335,-0.35324062290486713,2.2498925408102584,-0.0031257519829006836,-1.2339331227535748,-0.20554569807838152,0.6141711559293754,-0.1065868032621331,-0.7054954074588351
0.4001005489588027,0.9472675854464974,-0.28876135944076375,1.0771643937939914,0.017072552749033902,-0.22747753585067565,-0.09290602927098077,0.26210185019959603,-0.4187585794691877,-0.3178785024787265
-0.03605177706135851,0.30789875524096155,-0.1197974558122083,-0.5307500473934359,0.09757016630181234,-1.1395264641789113,-0.3012632068063401,0.48581879637066855,-0.46023539279643433,-0.2540732781978243
0.36822375340317065,-0.9345685108706191,0.12337432910746932,1.191812218362628,-0.43795440204073394,1.13317134270789,0.24535329021473784,0.22523944631440707,0.32417855256701045,-0.28731708417669904
0.068443464799993,-0.8292674445221851,-0.28854545671843346,1.1905485213063614,0.6563611395844586,-2.10558590756162,-0.08351328223656844,0.2373026446983546,-2.4314672423830976,0.06524344457128814
-0.200982804334984,-0.9625928252409737,0.13627231233810763,1.5940458999354798,0.34334857700606186,-0.43971635925254526,-0.019743385696046847,-0.25913589359586997,-1.1327910248582285,-0.4688818861880431
1.3322909259042528,2.190735454748408,-0.8285094187292635,3.217752454899033,0.15091487808761514,-0.7791635567753646,-0.24755742381701218,0.28600604199708235,0.4988017093767806,0.1964449705880818
2.3350544109899625,1.0108479151488825,-0.6277226604003957,3.1828944604705605,0.12686312748803272,0.3540281090328991,-0.4170668678230211,0.6554255107350748,1.4596428473648189,0.26848767878213525
0.5102110271151957,0.05965177198536842,-0.16042711829520093,2.3119378511271624,0.19774550310158207,-0.15325121086321702,0.17479044043970615,0.17730921918501977,-0.26420467807593084,0.33494088581346787
1.0769692291720812,-0.02831915299746035,-0.21962303159065683,2.5892036772767035,0.430964454695734,0.6352919138227612,0.4582249500377888,-0.3883950335844023,0.3727924837587422,0.7467567268819143
0.5041264902510509,-0.07511254424052294,0.10742902708787963,-0.10362893897583414,-0.08022910629672567,1.6819075697869763,-0.2164533980876961,-0.9832531713023424,-0.5292102448043712,-0.17935146417842793
0.9894321856572563,2.030268035761769,-0.34012109047643657,2.7228028876765356,0.0578699651888551,1.6969409545948424,0.32464589784974596,-0.779323801457168,0.9589794843823942,0.2777122972219517
1.3168020878249855,0.18571107277987675,-0.10574094042244626,2.6476630000607777,0.15663086413643804,0.7154858092156131,-0.045676580506727654,0.001449888543373156,-0.02663005945389893,-0.8278745876355647
1.1881280786594461,1.4093985726807272,-0.35163118689446893,2.0862394176810053,0.07056575028508949,0.1834143093791083,0.14403900906085765,0.5730414579044142,1.9286888129564288,0.7874115333588871
0.048881742160352265,0.12657363349824635,-0.1817929734457918,0.42050169671255966,0.16039100177970686,1.3476208847929532,-0.4515603360498389,0.13815115263689,0.8219866938791623,0.41983243643738183
0.45553379108754266,0.1359710667533056,0.2435175175523647,1.4474198519001744,-0.024704043421806494,-0.4154096002675167,-0.37539985175928237,0.12880227982198633,0.028625349800713157,0.9677178264025131
1.2009675319328257,0.7207574445544787,-0.04500398569295334,3.1503365912899293,0.17753939590961154,-0.6243988237888197,-0.19202931011309124,0.04554680155129729,-0.565632982565867,0.9576910235043622
-0.0037704910321473273,1.657871010630529,-0.5316859837544721,-0.41462230118263577,-0.46825669683848503,-2.003341463777391,0.4836610159384103,-0.4844769681570915,0.5521201103328889,-0.10166964850719884
1.7561123521222912,-0.12211429388748651,0.42915049412005907,2.46860559967353,-0.23368829581599637,-0.5759776256513791,0.03876522219147548,-0.005471018145024116,-1.6617783627998473,0.9224901609496574
1.1849383948379675,0.07664277225390759,-0.06668520889991474,1.1099872358356078,0.1741993145481563,0.431595741772706,0.08522053586374267,0.5488208906142209,0.18499202486257332,0.8987101156852522
0.11325228550027086,1.603494104140177,-0.5395740273622451,-0.48664644541965674,0.860980659844107,-0.6925800304914824,0.28568675430176704,-0.20636609693194952,-0.36002840256441837,0.35934584884012766
0.38683741978012065,2.420204103744387,-0.12448799258119897,1.7571612536427943,0.07787270074386031,1.205715378173278,0.03247665720741879,0.2860173866362119,0.336825356976722,-0.6325399358921698
0.8026037590926378,1.5699542519490781,-0.47070758678710106,0.7549860131675372,-0.23213275802885044,-0.7636900102261877,0.1862080021295571,0.2432978505848907,1.6825085442633398,-0.12026834600740571
-0.3495109385636521,0.646696794063707,-0.2187785776435491,1.6222869862594056,0.26475523579964527,0.6025268438522444,-0.8507709587393325,0.16323739723045652,-0.29994578557728824,0.07196833038084273
2.0229933404185867,2.611803847572529,-0.9179784919778817,2.8602993467025097,0.2738587103509847,-0.7333002459810284,-0.35044060338153266,0.3494687075859587,0.10943213441957086,0.8622435993301774
1.2182481241661547,2.611355153974458,-0.68795169133537,1.7517550960392123,-0.029155618447955927,0.8587028226434095,-0.07255392912446845,-0.15587541748310998,1.2283689779593052,0.3963589801310692
-0.01592698340895797,-0.5231311585917073,0.35327120088550706,1.8896409783652772,-0.17409145157499137,2.474817924088569,-0.21666465196116638,0.3838708280408609,0.11477969608090352,-0.3992345953559165
0.4943609724553075,0.47151920463500696,0.17181207537563148,2.7755296919838757,0.30624486117521343,1.5097823333530815,-0.6657477700062723,0.2229865979218761,0.7152009461792899,-0.025924685275474618
0.11248585720958237,-0.08483461242107049,0.02801264634748881,0.14949171807868433,-0.011821012117709268,-0.7867400461511954,-0.07051572328279504,0.314331696442418,-1.662268104998296,0.665844342572421
1.145330848332476,-0.7028184755524776,0.09790892210933383,1.8819688768507352,-0.3425684828479494,-1.6039194686722766,-0.30770718912548556,0.03031657238609086,0.8897395124032665,0.10047121793823612
0.7878667637119211,1.8757517963200714,-0.36426972535337676,1.5618973384536723,0.17661149788699582,0.08642207529893745,-0.33905372143218193,-0.023977884369584136,-0.7162175240356108,-0.5516474130328168
0.9685691461898465,0.49756458022222416,-0.0004566006789278746,1.7695629303811615,-0.11281180541272712,-0.2850108670826552,-0.8362650417414275,-0.12392877106677097,-0.6381222316773877,0.2684913841771847
0.5267475802487506,0.8167199489583625,-0.5177501627822729,0.7006221189236823,-0.00791362485904396,-0.9855917260554561,0.4694039155397513,0.31944795239805057,0.07009785220475642,0.08684394763729113
0.5042724484593275,-0.03522061073279181,0.2048637996219554,0.8598576198015697,-0.03162033677178482,0.11349903304937664,-0.18798920684409484,-0.46817095817464444,-1.2738430907198193,0.37894147428425623
0.500721420538282,2.0720848337340674,-0.6266172031849413,0.9049222419305791,0.2615041235280771,0.7167611702324084,0.38340792108222244,-0.5229643166501502,-0.6831548509953561,0.19454208258227554
0.8025405910273888,0.4288325645000246,-0.05302284825482754,2.2475445743326103,-0.29208222151033203,-0.3918754166425462,0.7294423920125747,0.07217792007744121,-2.2420235166854696,0.5293011259903492
0.6158247165234668,0.09784457103864863,-0.4233551022482228,-0.1279153210449797,0.44275395454912664,1.2116828609115857,-0.8797535873024986,0.45005847854949044,-1.6058506833077566,0.2920867036646168
0.8211512349872635,0.6087949803589039,-0.626246328345038,2.4468783413144246,-0.04372778792389027,1.43235135395632,0.5822192453108248,0.30519441731970476,-0.1327391219832097,0.775695141908818
0.12199238878360794,-0.8602419592560936,0.24066453085534098,2.477162140786754,-0.6145203390364424,3.3290486675771125,-0.2075687711029529,0.28950312489193963,0.4018240915490075,0.7539193736467765
1.7253874971230652,1.9413307174065153,-0.4185481841737974,1.279967266304821,0.18103836505111118,0.7196498393352411,-0.0507729590407797,-0.4708925440317157,0.9445184366541475,0.2457862675396459
1.5146356597569113,1.0694544461920228,0.03053061136143524,2.3041442005723574,-0.49061077454817287,1.8485623653180903,0.36661710785004625,-0.2672973808224727,-1.3568902546369301,0.28138177076063897
1.1289466880063168,3.189714804341274,-0.7757169337282482,1.4936119273230943,7.631446745649834e-05,0.7060017593041329,0.1613893392880867,0.04496125302220886,-0.3085658513409715,0.35643034315141275
0.5844559777495898,0.29790655087270146,-0.048168854834506995,1.222322200926731,-0.16427922761256422,-0.24105966112066385,-0.08020243356138977,0.7547838684038665,-0.6694895144488247,0.22450580087870423
-0.9535770939139727,-0.6319674907809968,-0.20003912548725444,-0.30529270017557053,0.30558984388233446,-0.7190569680381083,-0.1327498428533608,0.8208603685099399,0.7264927578835949,-0.4250278516881724
1.7976280193631882,1.268056275797147,-0.04806822630619268,3.381658306208031,-0.252242084944147,0.5822520234415549,-0.006957652632339683,0.4982833139586566,1.0191128583513902,0.3562889895582879
1.1630904498155044,1.3339679131258397,-0.31540542668126564,3.004916009874413,-0.37948321432078663,-1.5808038543664773,-0.21691295233165178,-0.2576599375983232,-0.7402889054864945,0.022864584665749935
1.0292129594892245,2.7115647300017756,-0.12320382944359544,2.327322508070009,-0.1607369795292832,-0.9703704466070178,-0.12331925469997755,-0.1652140313292713,-1.231845155516969,-1.0298142232411553
1.5407809870998679,3.353056636754893,-0.4972487385500693,2.4216903587251846,-0.0076009939350646415,0.378730980787211,-0.24860530237997544,0.16362487914981316,0.5581729628114431,0.36250325628957
-0.2519728478527243,-0.9577809609064317,0.042314238327817666,1.0189414807371797,0.24594290174127728,0.13255499287296285,0.6305365400589392,0.6333788316543371,0.5978918817224433,0.3866928171156534
0.13578606701153462,2.4821904473057717,-0.6220314323206211,0.1594183600902217,0.24714543421430976,-1.2496918864765576,-0.36715967020274315,0.24340778407371053,-0.32626772881345173,-0.2569838520393732
1.3978694570232049,1.9025928217692947,-0.6356676413564595,2.062734720730333,0.3318552875827738,-1.0781815720784063,-0.3257209669295042,-0.4967388168578569,-1.1464310083575455,0.6708264955366315
0.20159340464023606,-0.4393125295596092,-0.037000890622365425,-0.9752111552061022,-0.09902610584735286,0.2749780241596623,-0.1706465928533729,0.11886133198548808,1.2642981098473958,0.1318429330901912
0.17329835104495483,0.12865267844576977,-0.2851812963601967,0.18753671983896902,-0.30788587717403637,-1.8181654035331904,-0.4078553024239102,0.6698950699777005,-1.364964728047205,-0.2091378511806599
1.408870213001698,2.457222452767054,-0.4525665442845491,3.042128199326643,0.14142954073040423,-1.6158255141742794,-0.04636857692121607,0.13916972455200044,-0.6365379639149064,0.4181433090687206
1.1898633687028197,1.1305647152327567,-0.2504965336390483,2.8601293851243277,0.06208427759152846,-0.07297809030607946,0.021628379416502357,0.36305791075699734,-2.98124286377534,-0.17316056295000792
0.4214450409820206,0.1861747034682626,-0.18703431066647305,2.262750779975937,-0.3871597953107789,-1.0555191732729061,0.22397427591974245,-0.36828645640221785,-1.0615106633444655,-0.2699519337915121
1.3357391461756292,1.3316435241680753,-0.5696296192358878,2.6079237090947176,0.26115544506727567,-0.9313252645523309,-0.0611958040037105,-0.25787380295391915,-0.9443732863039249,-0.16570911460201734
0.8238434418676014,-0.05570175733645666,-0.1401041894766091,2.5317091643902,-0.37554265306816836,-0.16454255336362983,-0.07730900953603002,-0.0675682796879165,-0.7103181540689019,1.1150852959139255
0.11918804232788865,3.016285714822093,-0.9024027300955751,-0.9719650964280461,0.5328670997209614,0.27325814558647993,0.017379442606846224,0.2699345603644151,-0.8443301133821391,0.16408455006879083
-0.5849048303097624,-0.44744110066915,0.43151361969678864,-0.9367322180884601,-0.16753308913493714,2.0329577304360416,0.7923932330783703,-0.6450593832270328,1.3280148948319614,1.062446703818172
0.8485097034228467,3.4276490488680667,-0.7223624604271317,1.7851359619257958,0.12342331465551304,-1.123741683675916,-0.04537964412258589,-0.11000888984685232,0.9982349835486295,-0.7494199194176792
0.35282458664297733,1.3141575829450334,-0.1759050320836621,0.20025027243987759,0.4342883691188845,-0.8207880904056362,-0.167856901647287,-0.06660314171660288,1.1696366650147307,-0.03798635100044922
0.46448337074574997,1.5083643039293837,-0.04058679843240469,1.3859510196001188,-0.40120906606201273,-1.2614111373812886,0.10440091611461293,0.3763485478800459,-1.2084569308287756,-1.260700377193426
1.641399515259064,2.9656784759050088,-0.395066312488372,3.4576353760643075,0.18665260468200248,-1.1214226112548435,-0.5146928084003453,0.625384622593225,-1.110956155679544,0.2711585567672628
0.17918979302411117,0.6692980737378225,0.03849093685119969,0.7235857004628077,0.6306607431544321,1.1252454089212884,-0.2403539127734926,0.7815066452943801,-0.6932103434415958,0.8779416762491831
0.6564880758895655,1.3471022355365672,-0.734833902842298,1.4500458753421461,0.2748071401745998,-1.6034889335961096,-0.609630193374096,-0.1918888901014863,-0.6296574138537876,0.39346115218552435
1.6400419348705406,1.518695373810377,-0.6222943206072057,2.188286991910654,0.2631406685113516,0.7685457534064517,1.2082553470239208,-0.41703696611216845,0.754826538492451,0.41358428900600536
0.028200386147350875,3.0234274804753767,-0.7284989949432051,0.3411135658762394,0.4969800515594973,0.947191133163673,0.2637271043595854,0.018010985229632574,-0.2944231919386257,0.2527627068851894
0.8091226809235451,2.065899468873852,-0.3722291337000609,1.5851814685880443,-0.2570996462041793,0.40242293824581077,-0.36042150307748344,-0.28296396060282974,0.7563329942381827,0.08027301529608784
-0.5181339062079177,0.19702338298096755,-0.06286141880754596,-0.9808551775249095,0.443884821944741,0.13836356663542687,-0.4073135910441847,-0.6515003315841894,0.648212786476727,-0.02902471882865944
0.3376762637114259,1.0796524634036762,0.11630879883556676,-0.36986864152186194,0.049319582957100656,0.8939984836364279,-0.679664287229505,-0.2632775960710767,0.20160545722065298,-0.0823488666771026
-0.001203875240188279,2.691340956951626,-0.4872351257729303,0.31892481840365705,0.35673890273285996,-1.1355486595887705,-0.41735466040637736,0.0035287515009798666,0.7235720669512044,-0.7329349174218907
1.2655226210451966,3.314080455738548,-1.2374618227241017,3.0586888743049148,0.08107818076195472,-1.4435447423054133,-0.09585440165278976,-0.0295269133991443,0.3461825086503088,-0.7962452213541795
0.26738737408759716,0.7023174864410617,-0.5314553600871694,0.47494983001074464,0.5024796923650076,-0.13333750622507357,-0.35944458495495984,0.09964766304434416,-0.09308938396648442,0.6890127078672794
-0.42824325804894026,-0.8647184540428268,0.26949195210838073,-0.782699692573566,-0.1562260641806944,-0.09252762031105338,-0.07037593352730251,0.011724284572652536,-0.6641329032332848,0.202215124356117
1.4462087589789145,0.5896317551433958,-0.3310473354692118,3.2961282676370445,0.04313925330000239,0.09683555231210383,0.04093021776517508,-0.3917018981077679,-0.31653118752771353,0.7434475335303489
0.6089015217148693,1.0312883328599454,-0.011073405645003719,1.4910385551672163,-0.614499480437692,-0.8333987718644341,-0.2372501933897458,0.017038655335189987,0.733959119239714,0.5542248165653373
0.7360454073605307,1.8348752641752175,-0.731228024384256,1.4726997833426694,0.05730445595531193,0.10539790918118075,0.12861864115162291,0.34124940036146173,0.9229167835048063,0.2759410577130462
0.8032604295397658,3.0720111502680165,-0.5168758993075189,1.4248827007514562,-0.059615451135746796,2.7229005741350347,-0.7310469302543018,-0.49192649069542327,0.61013267137988,-0.740047710987547
1.1024443581211592,0.9921732188314663,-0.22899815846459062,1.4381707519637335,-0.14639370935996907,2.7793482386947566,0.8883549843082329,-0.22430863078350344,0.41068106674530475,0.06750217687825583
0.2652783890607503,1.4903538131012848,-0.34815571272956247,0.6414100367145141,0.11448947085905525,0.5546858134337278,-0.22626491559399664,0.069266644816895,0.9678467891001116,0.5419914505880774
0.7682272523798769,1.393699949189346,-0.29074540408597294,1.4016894274748557,0.20666329563024763,-0.5330927964053513,-0.0779270976716149,-0.3981267615201459,0.6729846932121741,0.05368011861864293
0.06661394601420975,1.1693500548693616,-0.2378988724231656,0.29110090797008037,0.16186876254405505,0.40327462697190497,0.03372148657988284,0.2994864911863418,-1.338679813684907,0.5595110344148979
-0.4464859230857746,0.004784073237126485,0.09420651088438228,-0.38049129175792495,-0.34310887772009396,0.501000220155143,0.40662615068438,0.07916012170838843,0.16290977246997781,0.1594639804754981
0.6529719093205342,3.431936952156436,-0.5976516562455612,0.8947508286488925,0.07093113087406423,-0.14526487308724687,-0.11351459034618763,0.024833396909883235,-0.8858443769631935,0.3793075053011065
0.5886461539496141,-0.348047411959058,0.20473163784658077,0.2950908388143585,-0.5602835058148903,1.3222360045309576,0.33683529734558565,-0.4845800852913173,0.08751735003668323,0.5875781030066088
1.2795916158639893,0.0912842386818391,-0.44000981162924735,2.899326779025042,-0.1627003416466804,0.0424022011248406,0.1686366659980365,-0.307959249562256,1.5863486823482793,0.1612115722107929
1.1481403968391821,3.1907278697174455,-0.7474437292397469,2.484037775343804,0.5204953631144664,0.7549382966723677,-0.5446171501149772,0.424380663249363,0.9229197447503987,0.303636446500526
1.8665209182575593,2.6958229634134687,-0.9988385588712559,2.1857003689750134,0.4155592686656849,-1.0122424608731353,-0.05796675485847137,0.3261605138123524,-0.07575537131261176,-0.10840740540954526
1.5545739962073564,2.8826455320820696,-1.153070485564639,2.569848822757124,0.31975101925625526,0.09131226769484907,0.7114113346153891,0.2590430514180306,-0.05029809234299891,-0.36863340833772795
0.9161341033136277,1.281151497797342,-0.15257890472547284,3.3815362116654786,-0.07811340180125169,-1.549453792677215,-0.18476752100602897,0.33341071905373276,-1.9403766372979658,0.8630270160119535
