x1,x2,x3,x4,x5,y1,y2,y3,y4,y5
-0.6834021746308947,2.5072033686263016,2.651322779404765,0.6827446996834166,1.0132337506884332,-1.38604498331446,0.45224629787732895,0.5723706581452923,-0.8976973542867875,0.26001329740318135
-0.47632242533775676,0.4221403533268644,1.0675453055889506,0.6817945406791333,1.6066376851899062,-1.7604454868932706,-0.1588560048236537,2.201884744240793,-0.11068395900708536,0.1501356516152741
-0.94884096647981,2.0253466726249365,0.5457495506650034,0.9435644255972672,0.505127776668698,1.7461557611130498,-0.8707318941069035,0.9801546917699127,-0.7760190732484248,0.43352975105398556
-1.1647669609133406,-0.996840107602548,2.004612884795906,1.0246385241459315,2.5409373739595518,-0.8005443276412845,0.04228543597389595,3.2962644487071153,-1.5264866628961102,0.30252232899041975
-1.3717631798679326,1.6845816737757797,-0.3676041051493063,2.0287417732424133,0.6328620487076109,-0.8652558324643078,-0.19148370552954297,2.2331850837991016,-1.2946261532023502,0.7728239064073467
-0.2233143601259707,3.0863087986529827,3.4242507286106045,0.09477343319407687,2.7011941672524875,2.6394950557163295,-0.23580283030055812,-0.711056465549004,0.28469608343984104,-0.008577258058807581
-0.7676930085506222,2.5623486745346926,0.8850844848374657,0.4970106714486089,0.016384606763450077,2.3079672083166294,0.992124128770575,1.9604290091398604,-0.6205577695938094,0.08880307365989011
0.08675420790226182,-0.7738689358042847,-0.5697338189301335,0.09832514252244912,-1.5899597225405264,-1.517387219532563,0.08598323246858397,-1.9546925091298502,0.1849589831133217,-0.16492646329929223
-0.04918195208897031,1.2601325470327733,0.07634322780011704,-0.06539794867715873,0.6378428909729782,-3.3639225324667876,0.16394167496452922,1.5331851690262872,-0.24610908808213638,0.25562073479953884
-2.0655961264911413,1.4143483507526695,2.0117104643095267,1.0524126774456908,2.0439728495925005,-1.2733757366967917,0.6971668684030581,1.4005993485202288,-0.7855778516896219,0.49430486999905643
0.03791371958491824,3.204372689237549,0.2770220694698453,0.4804245276829425,1.054041127128884,-1.125184198423927,0.12298613424719901,1.1540674233941581,-0.7675799925358765,0.23324390917322452
-0.8048969623858627,-0.7391714795711052,0.34282715880035375,1.0963966785097434,-0.17206020134426342,0.46947983276019,-0.9898218156120961,3.5015034438050114,-0.6502115162350917,0.5774544489755448
-1.3171049296266801,0.6134163659683018,1.152139571173124,1.1969380056681354,1.7519707812670795,-1.5742532199210006,-0.40710315704876,3.040546529925193,-0.1499807379019734,0.6946871628100288
-0.6373816065147117,-0.8477353764588917,1.4156326040196099,0.5347993368591513,0.8741728355896535,-1.5058065977903707,-0.8250469274398312,1.5770821340310817,-0.4327873246095496,0.4943840570371084
-0.5730619964565467,1.4036214226044121,1.9575344513138448,0.25341346418672245,2.0718527018233304,1.2640475327900558,-0.40091826599574454,1.5331604619476,-0.7372334591006171,0.15104999531988286
-0.4498982489070577,2.290027242864985,2.9271925619796817,0.3686151332889471,0.758180856753938,0.4098572227473458,0.590987536358685,-0.453560943689012,-0.12630579161379865,-0.14284301783113962
-1.407138566717604,-0.8447296478667018,3.429900694844199,0.4120602238674399,1.915913300963553,0.9693666937989893,-0.15772562411785895,0.7261881792103291,-0.8942208651246499,0.5554330615319739
-0.46588494000464037,3.3244278968215175,3.351764419723388,1.112085539005006,1.8350519462817796,-0.026290002801829804,0.24606799497318946,2.192038059945232,-0.8337902587933401,0.38097423096390276
0.07919762765800374,3.1609719683874573,2.040186517640094,-0.423920038809032,0.59212287038792,-1.3420107190619581,-0.18799837979457712,0.5776936379191944,-0.06380549587315554,0.026727200883434332
0.5101037579794819,0.3858024849085291,3.434055320323006,-0.6747101856652632,1.9340838005954073,-2.237029313903224,0.10973511129045598,-1.1279296159913221,0.245186558647695,0.37926616372538946
0.8323513910838899,2.3232650897278426,0.7599407751438809,0.4014456086167959,0.47621326691241644,0.2249417085386497,0.5063360966776798,-0.7770031274660165,-0.14726446028490775,-0.1495553677980043
0.43939020730235806,2.0541729581284476,1.367735891528338,0.055876370210135216,1.2247270981531067,-0.32699599276652347,0.4542112378868563,-1.8060478115017136,0.2396272339697386,-0.000623788047820898
-1.2619284330568648,2.4972336272359703,0.9311055514940516,1.047575843070795,2.1127173866912967,-0.20917250119046238,-0.4242250685221771,1.7641385885847172,-1.0573698308350776,0.5130649420369899
-2.487127003033311,0.42763111723239366,0.8365311220083747,0.9863741661859117,0.4900996970423642,-2.2660899589517483,0.0005996877333333678,2.330748234493035,-1.262532082902022,0.2745483220274884
-1.2239906132145264,0.15908758846741677,1.9793145261895622,1.1090855586115413,2.1965374422906696,2.2188286966971082,0.010861759360282885,3.0187682684296018,-1.3528140312661467,0.484695307728451
-0.04041717330180228,1.3689003731601002,-0.01980058051702316,0.0734340854263462,0.01866777528015906,2.081910355525036,0.2459107026436977,-0.24633523471847935,0.044011824161299055,0.0013909095365372437
-1.1286028330530085,-0.8833553095875402,0.8375933120747889,1.2391465158395065,1.1079765637754166,1.8976657509850456,-0.27300732691836804,1.232487554676886,-0.9553431224729425,0.33899193261505567
-1.0126937473138153,-0.3507844545380415,3.4328944131527077,0.8666103537030774,2.1661191901353276,-1.6196410009908968,0.26199181838659386,0.5101073356823802,-0.8851213621474608,0.4592297611364613
0.3738156538383548,2.962373653473448,2.677943688803911,-0.26468895681257004,0.42594624064586684,3.1743014492892954,0.8109707269864632,-0.777128942790835,0.4959547258778513,0.05855074784882576
-1.2107841922982785,-0.1507317471774975,0.6283644300937206,1.3495155378592878,0.883478466659452,-0.2109255026082915,-0.20573712926697513,3.446040388255212,-0.6697400572043956,0.39507889136486074
0.39051866663075424,0.9900263584527469,3.360078150742834,0.14983762788565452,1.6171230486098183,1.867218072836625,0.3329612212088524,0.2678100506040394,0.39632615372344,-0.11268164841828988
-0.1350688163632481,-0.1851340534043382,-0.41656018847372056,-0.2572208947954855,-1.6230084036903136,-0.05489962505826779,-0.7028929899950496,-0.821711352231989,0.3520978246377745,0.25404005068011104
0.8846341994418819,-0.548044958931358,0.2916406838141994,-0.2923065514920511,-0.011243675109076534,1.2227927069595084,0.4753215239261339,0.09328154323604443,-0.1144256750093746,0.04225987208529589
0.5681569955906511,1.8993112119030902,0.8005939586081807,-0.5059095656354771,0.6818095409105267,3.5161838961226355,0.5409866565093576,-0.18827431538328943,-0.378463915198899,-0.33891767807110457
0.46271351437970243,-0.74018370866869,1.612925616928187,-0.42952291871845577,1.0694420463400989,0.0411617230591923,-0.01772798668507665,0.09644563343738777,0.28039486213195,-0.15312826436864085
-0.8163734547461932,0.031053342324778743,2.981556429426041,0.8185719560744582,1.6318554814587332,0.33892513688510306,0.07816116329280859,2.0809555950861625,-0.6281868365437011,0.1554864969048082
-1.3163650553974902,-0.2668595077663499,3.0715937493286853,1.3533078452590994,2.8368641706861717,-1.1799659262324944,-0.09846216587254386,2.902247327975903,-1.309687723210898,0.6902251436506407
-1.461645147195312,1.28532957503629,-0.5704390678063311,0.854757747821603,0.3331863268706395,0.6410218252355374,-0.1377754820670064,1.5710713442673379,-0.39720095943663664,0.17763058588535527
1.7440554946794953,2.741402601055648,0.40072257550032964,-0.8896539159673695,-0.30739961853033304,0.4814456891817187,0.7647020809786467,-0.42517817612605807,0.2734155878042145,-0.13204685723682605
-0.7088946963256143,1.0806767102076864,1.7528527994429055,0.8327196709427928,0.13285905108154097,-0.6895569987388385,-1.534229946053188,2.5537985967539627,-0.1354529021464206,0.5321741453030757
-0.41044217346015427,-0.7582079398011311,0.5291974884485267,0.8244783058560294,0.9428774325134985,1.2016815791762694,-0.44719768179467756,2.073495615892126,-1.0208542439059152,0.060469408005855506
-0.6632633692141979,-0.10268729318288361,2.4755786240451996,0.6302397675735832,1.2010521707033828,0.09532960437690807,0.2055854728221869,2.6566921851547844,-0.519166569513006,0.21900966696634366
0.37653296741268155,-0.37369749264824303,0.9479802019147168,0.3453436125864611,0.47361755709587683,1.410205713501844,-0.12852550425536163,0.15495502094875147,-0.6218493404152469,-0.0703010366348545
-1.8874706515878124,0.039638019211878595,0.5663139092687499,1.0821823838361648,2.0557916019352267,-1.6059755297555434,-0.2426682229624654,3.2908523078663565,-0.7487086186846985,0.27538064867281775
-0.6422924832913631,2.160483233332691,1.6037364296145902,0.46299421585159917,1.011591110979448,1.0268655618919875,-0.2654208516052624,1.5019722325199913,-0.3269856644083779,0.5511879762175571
-0.18328110762655794,0.024693657364203148,2.6877839679867566,1.022954727519816,2.542481140296993,-0.7587499730206942,-0.6637135710555552,1.2248169127507027,-0.23339563869641342,0.24439560072486882
-0.870996837814636,-0.6820420040658871,0.0910521442264578,0.7055917332443813,1.2308480496782022,-0.6866557589802449,-0.21050210330906388,1.5600629115376468,-0.28620923219220107,0.4400826513701536
-1.1763422864984618,1.6107562210471893,2.3272469132806393,1.6056445145107063,1.6788244636605365,-0.028962632748896766,-0.2392555951100588,2.288698714103478,-0.5381006966327889,0.6655955722936967
-1.1515213186572046,-0.9209253548079516,2.3015540252938425,1.7178327969576417,1.5656433551895004,-4.120021061426054,-0.06630267027443117,2.882953416966876,-1.5715866487642536,0.2499698065515975
0.6943119512531593,2.1360056130817138,-0.7478868350854355,-0.4058468308374367,-0.6740879587400236,-1.2283092169576406,0.0365740404928695,-0.11288894345326025,-0.19052116483406936,-0.2096892384931959
-1.489265092070193,-0.9811159826263031,0.3544510487794257,1.185310851041839,0.4129487369106065,-0.294566559391665,0.13317339480997042,2.945878845490236,-0.05983148376615378,0.0651451689195751
-0.06626903610860108,-0.8982210540029549,0.0997276838391572,-0.5424140128489127,-0.4336967622622999,-0.14768633020098387,-0.14377299265628934,-1.2284227909116976,0.4268193228783525,0.0374386135566496
-1.7213272634598116,0.17547064836180915,0.8384271297799577,0.8387575130049554,1.1135884047996982,-0.5616456040096386,-0.19143784257505322,2.477334681977554,-1.0498079947168482,0.3045728503077689
-7.550739617266299e-05,0.8365758627008784,0.22835948188648758,0.7929542740572351,1.2758490814413477,-0.8753075757963045,-0.14126226674877176,0.900304774365775,-0.7599454049758461,0.25884939307973087
-0.010232643372047781,2.8887255474105507,0.9580904617773864,-0.34440604212095993,0.28164262005608354,0.6384569048006601,0.8149559097889205,0.5936979297782743,-0.11115483485457105,-0.11135335901661057
0.002960891468421331,3.0887911755783817,2.131391604767441,-0.6066591690844965,1.0853331214163215,1.0692193315588414,-0.07335428938420013,-1.2783516556734367,0.12473866492983149,-0.043101987312650525
-1.2308540574175826,0.18381800262597148,-0.28604000483926373,0.171263320010761,0.14347156236869296,-1.6740223652034305,0.092759088577753,0.6902313773878511,-0.634087177166336,0.37261219362751496
0.2999891621767456,0.6392187400726761,-0.16472356521970144,0.10751889021546202,0.1625459955338016,-1.7119468935164408,-0.2093553036471775,2.3780524191482124,-0.3823787043188746,0.014225690778745673
-1.7193266676140964,-0.37469658287631435,1.7728639764642753,1.5349319086336344,0.8790330972794649,-0.09589246079612201,-0.00606388008648534,3.3951840091316576,-0.6752203361565402,0.6562039505455639
0.4958153543228494,3.1183216033633023,1.8250943304182567,-0.7083276011216247,0.028577073610663473,1.2938882562625211,0.39791141353531906,-1.8190340227868411,0.3973834118633318,-0.060081057421844886
0.09586843968618382,1.2379829908517301,1.3122920488320804,-0.6475708499693251,1.0433549357243912,0.6934025589493762,-0.08539025627103933,-1.782069420694476,0.051331247720898976,0.10192280860620778
-0.8510772402685512,0.48576920817624747,3.02220491764177,0.3813568139681305,1.2502829249830707,-3.328302269722581,0.133940842588062,0.8831492781198912,-0.5722478014450681,0.6024170019311501
0.12486982415612868,0.6113573951961915,-0.39451658432394376,0.12318784114682008,0.04149689008150703,0.531609175250137,-0.329978331410626,-0.24940657146432488,-0.3447787193937808,0.05563128108769341
0.2839438089507079,1.7055655431806445,3.0742343833578785,-0.19856561782057908,1.2651591522245615,1.4251769623680492,0.298365133974249,-1.828772375567349,-0.3080962712856147,-0.009023766702824346
-0.3306482731314481,0.1174266130474535,1.0519678695573806,0.7110277864591098,0.7685741619586526,1.7629040371311044,0.85870564198632,1.7034261988514015,-0.044552468670898744,0.07062074853998136
-1.1264704838205015,-0.6433880791810599,2.2966679631201155,1.2387708601609957,2.25393497475992,-1.4835656113871618,0.16540917312257197,1.4417146598146058,-0.5660421808057482,0.21360649189318143
-1.9003875723700812,-0.1541647198313032,1.0199183639618163,0.44618567581963153,2.1274389614915115,0.2663048436266223,-0.22912223937557702,3.140959056852656,-0.8693107063628319,0.8075933067474014
-0.17650643088086804,3.269297105729601,1.6359699432741706,-0.2693971355376776,0.5611666007459264,-0.8203515592112873,0.5712631163122461,1.1425497988640947,0.48863831913173655,0.07532995612720039
-1.0227977139809101,3.3848324824371456,2.926922454480538,0.6681785771824236,2.9758254298460933,0.3527993050999594,0.3582758167741347,3.7462673305566474,-0.8228722955650745,0.415876602551691
-0.9978522249309151,1.8417751244535787,0.17170310092009355,0.32335631037547713,1.5426438354084908,-0.7797183175167293,-0.12494901535995703,1.7119488390078195,-0.38986618898987574,0.17384463072401352
0.36950474518492205,-0.5774423817574996,0.8850621148807849,-0.11404532372852011,-1.288466711772653,0.2961711123531461,-0.027536598469516768,-1.2945442204183435,0.2647158219962533,0.024766550457970906
-0.07813782802991052,1.270332149690105,-0.45402617573056603,-0.05859584480957167,-0.7679767292979213,2.173802687278631,-0.498291396668888,0.587750427100203,-0.023344153545118356,-0.0907995432913559
0.5809460198921456,-0.4013741554716118,-0.905394852214313,0.6279182382540012,-1.6908858615731432,1.9793335436887303,0.06314608367917765,-1.9970627561256593,0.21060935930797223,0.051446445007332905
-1.305735406932203,2.624485841883451,0.9645896402828569,1.013683367616117,0.7670135649559853,-1.302833610155083,-0.38963775102406534,2.6748830009876237,-1.2286264608373647,0.6094421302596952
-0.8274157777251161,0.1026642535254938,2.064652728517508,1.0115050394484677,1.7113781024584072,-1.0058493671184192,-0.3693328896400135,2.9006963558764407,-1.0728209605087173,0.6512375548081524
-0.882185614606403,-0.3691471854955741,0.11804269379685772,0.9378318507138588,1.2885099768527983,0.49457342553105255,0.5636923865379249,1.3527586997712122,-0.8919071911795692,0.19362430933001584
-0.052109486412802754,0.8598912892119681,0.17796866421337376,-0.0489934419548681,0.18249246575010006,4.080336941117616,0.49263556844476464,-2.1041526316552206,0.4388372967682339,-0.19091354114203254
-1.0768801990241121,0.989825007101967,2.844678453729262,1.016562677003061,2.0529724408198375,0.6693654391614346,-0.8762507130070123,0.8300665811082939,-0.3312406018734957,0.2886362661380617
-0.4743360266492234,-0.26001308499809817,0.7685285743218893,0.38211419123389856,0.8046300298252009,-2.576855927425418,0.013069456004511537,-0.4325248526879715,-0.07098114272822553,0.4624269058339704
-0.07217889605189556,2.7574885308784327,2.1857891108497665,0.5108655951746152,2.0298297298328514,-1.5332832513330195,0.27329762946945235,1.8787842680014966,-0.5619787233833495,0.5084538350636446
-0.5856847374570466,-0.31800294861967093,1.145596377863873,0.12120082899974845,0.4818420753947272,0.4311912178911119,-0.5974079690572431,0.706777911824747,-0.2219506991837546,0.17897277699994432
-1.7520579809971135,3.1239674548256717,0.23867771429423734,1.3309999140317321,-1.2429588304026964,0.5174038089694009,-0.17530492806027909,0.7259691835589273,-1.2624913111523715,0.5450833270707774
-0.16658821261956044,3.144195664741182,2.753059902726213,0.25528213751756684,1.9422257839455561,-1.411799082432935,0.056836073892226086,0.9964367133980641,-0.5407506814108493,0.1626815854631787
-1.4877067891522096,-0.41405387847222674,3.2234556557817537,1.156941906877767,1.0131352518766754,-3.3411506471728485,-0.1393175324483072,2.3260435566339486,-0.4458015208017172,0.5190708105234941
-0.33845086936620383,1.8626939607253021,1.4949882958922545,1.113221224846933,0.9097013816245427,3.1206698527762256,0.0019803806814247538,3.0298731936693213,-0.9358897509052805,0.5825795310207699
0.7469315773371888,1.0616728592666091,-0.41075208265497765,-0.7060112963742727,-1.6102526834793864,2.0847414364329184,-1.0800748183735638,0.2224338797928822,0.4197070556602873,-0.05147190256004528
0.3327059656129288,3.140700293857013,1.3365908753969742,0.32183097887830564,0.024676962872088537,1.5524795331439625,0.389899798686402,-0.3675786725267677,0.13815910351124874,-0.22907180953038964
1.562397431624958,-0.42370395045600096,3.105908250335254,-0.214842787315531,1.9784919010267932,0.2846814961968487,-0.9277438280784528,2.380899611050971,-0.03729886340274489,0.15272772207017546
-0.7663285642212713,2.2527821715992267,1.4281087147393237,1.2762249119928775,1.1791547948971743,-2.1038964466005976,0.5398449645927222,1.4821807732627326,-0.19735340377438285,0.43549502481829405
0.6532750924688688,0.8321242359847445,1.3000982046147245,-0.8036211655355877,0.9213228603374344,1.287478249084102,0.026344842834917226,-1.324009099632572,0.3721083242342482,-0.05692436927639969
-0.26118660760303447,-0.6915787089674437,2.343332837160092,-1.0493709012307364,1.511587070166341,-1.6298330214163426,0.025852187266356408,-1.5912866334656017,0.14642351401839962,-0.02847208528355606
1.2364055465124957,1.289667180920643,0.1744480414536258,-0.32635760443426565,-0.497527355861047,0.8985716370747429,0.11478248773772741,-0.7520294588710668,0.6382451515842139,0.07964827834741196
-0.3648344602715502,0.9940704501417763,1.2193066856062513,1.318302542449498,1.3102399966285558,-0.8497620284874362,0.0010203580676490243,1.3575931778623915,-0.5114131810875279,0.1754427721238254
0.7818536168432499,1.0937794371901286,2.469541089266391,-0.3100073979882074,0.4163358871039286,1.5356832728837688,-0.3725994945162128,0.6344124108031852,0.15049201975840656,-0.021746095922490636
0.14763479516704373,0.8117755152036883,2.108650332285349,-0.15075377570721246,1.8071632759758256,-2.2096503649638892,0.5322107942542595,-0.3032345595807413,-0.4931997387716786,-0.4520253255958628
-0.8793147543257893,2.8915573947506465,-0.6391700557390094,0.4312848765410677,1.2209395537684427,0.4947423069750947,-0.027192250218438074,0.9789902502597514,-0.8417683671501819,0.06897931664514284
0.4412101137156296,-0.13346997450213294,3.0886910260675746,0.799414495691526,3.2330508935160807,-1.4843175115960427,0.08077609478874982,2.9259196337686713,-1.015055125724729,0.29917572504228557
-1.2214250460957707,1.203855837052632,0.34589908856825935,1.3825499695048182,0.49673978996026524,-0.8211316902334768,0.1479472703128757,2.6278123763243335,-0.9551497023835778,0.4090768657049846
0.08463398872278156,1.6249721444627916,-0.20950944882634914,0.19792004799872615,-0.3546390004413374,1.5021102642710402,0.062287176169949755,-1.4136654541242804,0.25530265356480003,0.12434217771443208
0.533391403346933,0.4854544664277656,2.5498950655884465,0.5138793370253331,1.4487969033877561,1.458525198929522,0.23429112346267086,2.2898331193619152,0.5779789981658574,0.1803335592097683
0.014372702171331995,2.6675241741758797,1.0752515260038567,1.1047388749108782,0.5495350311223354,0.5900218927176727,0.4603167916360573,2.3820122106461374,-0.5608509519593744,0.46212447518799926
0.5197983391206046,2.9348397419169525,2.2187883624722646,0.6987362884577667,0.4687133382217489,-0.7554145992888645,0.6591392563728155,1.0179540488621026,0.2806018962860058,0.08405797741846537
-1.0485538518881758,1.8844111729340343,-0.7786532651985736,0.7950576633313369,-0.14214101840100402,0.7172660989242223,-0.12002144833704281,2.5580301089791506,-0.5731091818021512,0.1659898092794912
-0.8909008542970769,-0.34614463020270325,-0.1528209510824614,0.830432009574237,0.5877273347075083,-1.4795327248287724,0.14822343119388068,1.9889256745265091,-1.077484282885751,0.6561191670901239
-0.9298137266991197,0.18405076670488207,0.3073643408347688,0.242596690418431,-0.33031894768025427,-1.3452404187583609,0.03270374484390412,1.549018747096132,-0.4998007965033176,0.2565864125584968
0.8098845844807672,-0.49595020560860026,0.5829786467362876,-0.14250159186784137,0.7293482690615645,-0.6300716609829087,0.059832453083516896,-0.9613559469110041,0.7240145619840036,-0.025292920940258302
0.7299825838326404,3.2785012943254674,-0.20633070973298528,-0.6120732818010626,-0.7350490635292404,0.5495614907623637,0.09309148498051374,-0.101919472952544,0.34601529364624733,-0.21250204087367688
-0.7163597510620549,1.3348653718509897,2.5545783733009664,0.7185569715566865,2.4559743669147034,-2.3928403956875606,0.8159495581845011,3.5583736321023967,-1.0939687530651356,0.5349027856584473
-1.298451860351779,-0.15538396550049038,0.7441640719768567,0.2727590886659563,1.2948479057503346,-0.4184832894430667,0.059770918547301086,3.301624565386745,-0.5014891061741056,0.4995135819935066
-0.02486542031128575,3.003795838711844,1.0956967589852602,0.06630050959613616,0.5383635491674116,2.01967908254949,0.03486121711448886,-1.0332618079859468,0.46728419893283324,-0.17748964646549864
-1.4371570029223344,2.216544997894122,2.3117441633757445,-0.15202969494775007,1.829961936382353,0.23757974297649365,0.6160606054155231,1.4528106187607999,-0.661509748578337,0.444023247271788
0.7129761438143786,3.1123968571861766,0.3881717808878009,-0.7248437522428319,-0.16710377986176433,1.0200608746038693,-0.07921861093929781,-2.2754993580576826,0.16807510245810012,-0.0946969727742846
-0.9370157200682955,2.9087212548538366,0.5749784091703265,0.33761656388602446,1.0270584767287767,3.1696049408626457,-0.11918143494688618,1.0472451561691738,-0.3528691181835423,-0.0428197985103588
-1.8048784162292493,1.9441563323826676,2.944136230057886,1.6557887042411288,3.060422906425201,-0.7851998086926215,0.13078343041701526,2.9908904253130593,-1.5193766742564172,0.3406088369641845
-1.0275076758808028,1.465467638078112,1.4881513240357633,1.3782362172869596,1.9319399112747817,-0.6453775743088409,0.17069468671809554,3.0961316315358847,-0.5520813235646784,0.6764756324992598
0.07946461165220645,2.406168320056329,-0.5107806272550439,-0.25631456853422285,-1.2453866876580852,-1.3984291195538836,-0.15887506278872368,0.3717778063606503,-0.19930819351821877,-0.16715576347921393
-0.640286426051052,1.3700368082959398,-0.22493609929891778,-0.029294073236328603,-0.26678874474934333,0.2553760626372803,0.487181637314724,-0.1541872819316158,-0.20187992986039577,-0.08315796491948697
-0.5201091738887839,2.046184332873201,0.8071003145039064,0.1736038274740005,0.41723952202801734,2.2334810296928262,0.3421137553890278,3.399967146771098,-0.9509790775347986,0.5436323315879454
0.9856831909560198,0.5329795060265792,0.5486161642595138,-1.0247095401057666,-0.7071412325611682,2.626753666643264,0.602258752544784,-1.0317935524846675,-0.06252388325753978,-0.04110268256404297
-1.0897730969695003,0.15282902976368962,2.808193879843612,2.0095594909210996,3.469007982484279,-0.7400414968355529,-0.003583140924949473,1.3429227815568319,-1.4132996803861044,0.5513327073925792
-0.712298883443762,1.5101010267277295,-0.8280797508870439,0.747833458406489,0.6287304526182823,1.8064749849107278,-0.2823111251293223,1.707324982574523,-0.00703399054366621,0.19553492961104252
-1.278318486753777,0.2105839113440966,1.1557140920646916,1.8978272894074226,2.1756206360894614,-0.6566307539574221,-0.019992314313270254,2.2320199826867393,-1.0865557523534544,0.6648392651639318
-0.3332447332177322,-0.08148475856493576,0.0009840939657157488,0.13418634163762533,1.0447723094915706,-0.25216101634473675,0.0721689742998673,1.939296090714862,-0.5442820456547469,0.15893101704225426
-1.5810525227409455,1.6748489056710025,2.0778973097270588,0.020441156338721685,1.4588998803213264,1.6842370037236771,-0.040605691868611016,0.9221079034636265,-0.522330359720346,0.3284486689066491
-0.3414531264646015,0.5259909919484784,3.4110559200132604,0.5306559934820202,3.1820156185503974,-0.6012836178901512,0.49424771767123943,1.9748205782793415,-0.7855820065479482,0.15071880572670382
-1.854975964790568,0.31302985707334274,1.6184549818394043,1.3141329769284267,2.6687733989872875,-0.955017899201562,0.7722856214740836,2.939570755551336,-1.3142674086670458,0.7009459286980734
-0.27968998096926817,1.0608471272346867,1.0669946405256052,0.3977705400571145,-0.24583482433138612,0.4890864029890698,0.02870377487071532,1.4898023909246159,-0.2288250136661579,-0.010189580786970128
-1.2513865840954022,2.012926781120387,-0.8320068705641143,-0.1557345769278837,-1.4029753311875874,1.9260916328084796,0.4050932977333502,-0.6423356805320496,-0.060165223280168115,0.3661051385940752
-1.8116092486339805,2.5836313732108915,0.6388568492269919,2.0349752781850294,1.9577626814137608,2.8168374840943553,0.27437943718834296,3.586130449590073,-1.0653800581045452,0.6802577986446604
-0.22413911471456602,0.17289727336246785,0.9262269695048142,0.2686198319024677,1.597540751741675,-1.1583196253987758,0.003102016787626005,0.6991433782735421,0.5444083124074415,0.24941041535685676
-0.4867225982946542,0.7513099540181849,0.7287681161607589,-0.11797096758203321,0.950965365438496,1.410920153203413,0.50375922660049,0.8491244436226002,-0.6992560683770452,0.32599041875459295
0.08509055578594893,-0.8010106285679116,2.806943398901367,-0.026701202081132615,1.2904281160386835,0.4911513743005081,0.28746564200154134,-0.07295425121490272,0.4345609286284758,0.038281293033506594
-0.9723585617676757,0.5531835682081385,-0.4943470116151849,0.7523000259554311,-0.051621988685944475,0.18372008595751782,0.044111594633082646,1.8959183794005368,-0.2082052735855556,0.29816661697656643
-2.2150696307236646,0.6838877099705689,-0.30496922791484693,1.9351623888608627,0.28201328996403074,-3.4630116994532734,-0.3073548712424194,3.963718164088608,-1.5136512938358933,0.684118502392207
0.21793016440230611,-0.9043865600821566,1.701665265090241,-0.12272921613180186,1.2804465876099351,-0.2591573194024789,0.1278785379607781,-1.338914709366917,0.3465143573934467,-0.4136388823609404
-0.9238331641067354,2.4328310965243336,2.2392577724589406,0.9120073141962056,2.146308645245163,-0.5824503013657368,-0.2811838724222403,1.1788583927266851,-0.20524761100743794,0.459948979314818
-1.071596198757593,3.2277782706539764,-0.4523312801354561,0.7454115169827901,0.731793047077621,0.49919834477145253,-0.4870318056796883,4.262769038638552,-0.45766818944610543,0.2811883719002089
-1.4685737814201856,-0.999340183159218,-0.6846636691504783,1.1397146338150514,1.9248750293094914,1.1159922194859568,-1.2458945559182673,4.16970707532932,-1.7677357186258615,0.21330013763063654
0.09949973731683978,1.2116869747601888,-0.11779049292769139,0.21697028974141644,0.11709656524713939,-0.1854335395997559,0.061621966293952,0.9905652261682688,-0.4022338307172801,0.14572546014553692
0.8268300574961468,-0.38480153385393845,1.0909597876500268,-0.7035081980545853,0.23148634768263426,-0.09918965454545647,0.2161854176851013,-1.3385290520813657,0.2524048522675838,-0.3144198668284023
0.28245358381339425,-0.8057984794817507,2.71944980980798,0.48660395584051064,1.5977643367948433,0.6301137220997277,0.9317581260624279,0.39235780423981265,-0.5125813302021647,-0.09347218747180354
-0.5695388255181418,2.2190292558494633,2.315554276308251,1.4397013739397457,1.1066809948915068,-2.146080302773287,0.02325448637478758,2.4656017757221336,-0.7989324889323084,0.4747072339756979
-0.258675775585716,1.1603297460376756,-0.07720738496655422,-0.01307999167755781,0.7393992677514467,1.4859006443856522,-0.27603920715984787,0.5228858138843113,-0.28378733945507184,0.3675034185552222
-0.7786649013554662,-0.23433622522891528,2.728750607943246,0.7779242335135665,1.1121004525028668,-2.827138251371819,0.5707193761360602,1.821242077462621,-1.059180186564183,0.40030517531503107
0.06612305551367743,1.5716435957088928,1.68378592689167,-0.008291536781314644,1.4127205873146984,0.7104749824014955,0.22432204650240758,0.5298628662105873,0.06312312041865685,-0.16456668037271943
0.25547211343223664,2.9278094079922883,1.4799741792071126,0.6039423875532012,0.5080422169471766,0.6813612069526953,-0.11713001084247496,1.271212101207465,0.12346127478049333,0.25699491648682565
-0.6779366227802395,0.5972324457477467,0.9158790483529156,1.7997871066936084,1.2581046303592256,-0.5436858738373794,-0.4598672492170678,2.9345696438753017,-0.8209465938430229,0.6333425643051186
0.23148319153689553,2.725246900034392,2.8297112121801415,-0.0667026359694868,1.7243979994031564,1.6953879356127133,-0.1389506051322928,-0.6531350421594443,-0.05383177939759167,-0.08277732116743872
-1.0768541025696323,2.5359466738571816,1.533590390462396,0.9224558981269679,1.451392277339011,1.7668482037580084,-0.7688122950593749,1.784962353115974,-1.3853029653610303,0.49411431765000186
0.21396150151160487,2.673860680280804,2.619041053981333,-1.359438419613085,0.3955297699779778,0.0953253854646463,1.519475789477167,-0.3958834885166234,-0.47962167407420486,-0.17466962512589868
-1.676315512224424,-0.6296614036629931,0.10554159269297969,1.6435399426321602,0.8276610580397595,-4.77192013653813,0.15421728200819299,3.46920189285981,-1.4283766486685805,0.5523008396867948
-0.4449711383795767,2.2321035980588597,0.15127821769079897,0.6353844982243189,1.9019482325221488,-0.4613087613233451,0.32648182431710143,3.762451501454474,-1.0899475481585486,0.3627708147427019
0.4559007684090296,3.2836143461657095,2.132106994399616,0.2516554588066076,0.2218947260376462,-0.2566649844491914,-0.19671467925830322,-1.155696706783991,0.12269817596981837,-0.07648300564302261
-0.4726916023250267,2.6227532145505164,0.8371310986479368,1.5706686492108854,1.3842987368585984,0.5621803190485541,-0.02569119201957866,1.2299136319718524,-0.24005917028067444,0.6688186521385462
-1.8838026932626442,1.0752248100410164,1.2173660476690178,1.2847355015354753,1.7127724274548255,0.8791337632606818,-0.514883144170259,1.3849251240020104,-0.6115900856116486,0.4352072045457504
0.23941891004913962,-0.7411484578467663,-0.9747638850625612,0.5114399788223806,-0.07661973999439435,0.7526880258991924,-0.48647150821396595,-0.0042592085144218805,0.12725833467882852,0.2784013117853554
-1.3604553793027845,2.5938418471931945,1.3988862327059146,0.3754309165813233,1.9252014431723048,0.6643028277465919,-0.29335632310250226,4.114073440427354,-0.9293902037978821,0.5079836338052651
-0.4236640884990587,1.3544172311522225,-0.9535916276329153,0.09607850313910513,-0.3697147787852788,0.26786080591219485,0.5339430746626487,-0.03363833389992543,0.2406264059313193,0.19935945234701832
0.3699617354585099,2.2265586241602837,-0.7859755414488758,0.22529346152549992,-0.6420461974442688,1.141150172607299,0.7694037098718296,0.7369863272151884,0.07185018561876473,0.059565236117519745
0.25955005311548107,-0.7492876692591071,-0.029962466765061202,0.09674735482507905,-0.4381087637821436,-0.47150829797439037,-0.9524745804810104,0.351534929738301,0.7183977714099382,-0.2785479040319968
-0.5114739530532086,1.4295842807063317,-0.751743350998285,-0.0647685301089687,-0.1122954852895846,-2.0536866466286217,-0.10178037255673025,0.010719502396388303,-0.5176327564828461,0.11688813084318596
-0.8828193322894325,0.9484027165766926,-0.4241204165792539,0.18680585280870113,0.19832640693400205,0.6028435146554665,0.11529985447468549,1.7550049440364555,-0.7066784955139015,0.5658587711597003
-0.19858142490778966,1.2218965777023598,0.7258569847932368,0.9270742632808461,0.6263083536651839,-0.049827830985522625,-0.6236089799023548,1.6634668587306503,-0.454585412108355,0.14612012931491905
-1.2896539705687329,1.2046275822164971,0.8661577120374657,0.36675861441394836,0.9962717222475564,1.1466088023815297,-0.4372438266428662,1.0417171637688538,-0.7687873206103625,0.36363683793387847
-1.5383075435817233,-0.5571290480793554,0.7533461903333043,1.1109743619353947,1.1926896823651085,-1.4505052037027983,-0.4652477842983273,4.409704695868993,-0.45622460501949613,0.7001318903418138
0.42829668270367205,0.25978679389468606,2.7457536152666195,0.35530002843574127,1.2440774102217298,1.133192144388107,-0.2258968420509096,-1.0887028739753275,-0.07846200592980378,-0.23511261597836897
-0.8262000941387665,-0.7272840053304495,1.605426698725266,0.8133218367454967,1.4726276184125062,0.9439943161360342,-0.7846677989677251,1.5272670860855015,-0.4956139066121502,0.41730254338459705
0.236559377590564,0.9121843721079623,1.4937229175161226,-1.0010425196433461,1.3918220606372547,2.2822157824247706,-0.11410748403248572,-1.5813039109542169,0.20059289137672054,-0.05178374865017082
-1.0954604023258596,3.1704067014437785,-0.6344903051408022,1.5007725957750893,0.9662863668964468,-1.5408925675625214,0.29870731124146754,3.933057930305906,-1.2788472045023846,0.4006596561598846
-0.38701194124693566,1.0405966468434182,0.5743609833641703,-0.7220051754335107,-0.251206233191527,2.9658663254945417,0.5798933700703353,0.03448274148849162,-0.16978564313585362,-0.21945344695706057
-0.7450860111513948,-0.8470532573090952,3.423966708525306,0.3885438727871094,2.790236059952938,-3.277146882888057,-0.1452323419003732,1.8273805388444013,-0.034503154927953666,0.04614035166182158
-0.6564059488925063,3.077182312988506,0.18334778810943075,0.633134672743731,1.0464160970886662,3.121598483620069,0.12547752503174447,1.1577606070278195,-0.007560697689744834,0.17178279425700144
-1.1973252140637596,-0.12953875694210026,-0.8031291624192199,0.6063890245974741,-1.2765861733070025,1.1291358721375708,-0.7242188005280125,2.059960716711776,-0.8252060740560102,0.6366070805997381
-0.5562898274470637,-0.7131938649940952,0.7870768318330137,-0.93850230778012,0.37245366438870015,1.60926934453862,0.17245292948188665,2.311723496359292,0.44088813763885626,0.039843848850472145
-0.38265770722103054,0.45271917740839784,2.7008461514648,0.1899802929513022,1.029739220456184,0.740804177351877,-0.8207421742093661,0.3432340115365917,-0.3196590925680593,0.3730665319591155
-0.6670516002182859,3.2445498727457176,0.3957570355490254,-0.25176484517834946,0.8873856918831315,-0.8261830550988917,-0.3042123319474407,0.9966300630119453,-0.28058350543598487,0.14215800907869885
-0.2972590720853133,2.6410404665183114,1.30918927084821,0.43580969899786465,1.4870903478931607,0.06914748799520765,0.8911574524629122,0.704662266809289,0.18721733742929317,0.45323404078891744
-0.4538801570157564,2.967668416788451,2.846447312873504,0.35037694461799895,2.507849383366713,1.8606104561093515,0.4868165411967548,0.7804671614479152,0.04131230653136571,0.19231917988836866
-0.697340529680121,-0.23015093877573567,-0.15217043939415387,0.8250062824344998,1.7868325462873476,-3.2639958859985745,-0.152239004539367,1.3363972122977126,-0.3450166262299923,0.15524766692396902
-1.9102509197044757,2.4778639347186897,3.179855567365836,1.40426777327054,3.2809950923530082,0.056268849327252735,-0.8221928938540588,4.087143848715465,-0.8869886212734388,0.34982663469913255
-0.27768182232441035,-0.2782145423530922,0.3112539783634203,0.7922743172378935,1.1810831519764342,-3.3780785130637287,-1.032343018269287,2.7419049592653844,-0.8133342909011191,0.5616334048717344
0.5265131469547667,-0.0996066373475899,-0.6664640406180022,0.21162973049759243,-0.7775326712382925,1.4711284786414696,-1.0061841066457602,0.6605454535462485,0.42551744907207906,-0.34522113826143813
-1.679313261196783,-0.612360821255602,1.1286585893021095,1.2585849038320487,1.704791356886366,-0.9952627651962382,0.024869618824086212,1.8262888108433049,-0.10508280941117351,0.42447125788961115
0.06559626484042422,2.672318953949062,1.3847466679812142,0.04393793865461953,1.4362876260552866,-1.3215490867394966,0.37303606259539374,0.4893691198858812,0.19603119403669764,-0.009947049744692026
-1.3466706805755286,-0.1460821787035821,3.159358449336912,1.5715624199248786,1.688290874064681,-0.8798678901490182,-0.2681071766328886,0.7945101388508413,-0.7124313559182032,0.39355655260054373
0.23313975881390925,0.30677262015284446,2.8845585508100893,0.23468057140498488,0.7002611956825264,-0.40235697990077385,-0.17706923197999114,1.5322512248178937,-0.174755777629085,-0.09525400474031599
-0.13473851933118347,2.8304549769137948,1.4140750115043939,-0.21729328137564097,1.2296367364074443,1.646677986780218,-0.43606025348269317,-1.1436484240063083,0.22108440355949716,0.30664430708332685
-0.5543714146956762,-0.4217319526413492,3.4353470721146397,0.12256783220202855,1.7653891121439245,2.120523584130475,0.13827633916402202,0.5336946154739284,-0.3254328123055679,-0.009661250116104145
0.642680431136814,-0.6703753169704953,-0.05986019955628874,0.050736931000318536,0.07292166633455155,-0.24639827091008382,-0.21344721174619266,0.1484983632566142,-0.2743399283780178,-0.11033946754801649
-0.3605597712834146,1.7550149297870754,0.8695760495719829,1.2704142858612126,2.1796657559370933,1.8616666242249185,0.4432370247389813,3.9478577502915044,-1.3509717469909324,0.4474757488837851
-1.801477770743859,-0.8872555835081531,0.19503889038651678,0.577465912062198,0.8374963675167347,-0.9809616065030783,-0.6374807373283765,3.142943702838289,-0.33948995449353875,0.5104024122642371
-0.6459588699229796,1.2834783082920884,2.166046098304177,0.3037648605622169,1.3826722210024291,0.49696759297769444,-0.711709736006325,1.277712895018278,-0.9102440091022141,0.08861109029077059
-0.18633317014548623,1.475563499319803,0.8891871122329238,1.2139263186363922,0.6917839680706964,0.0028592780346035074,0.2779457980143581,0.789377126255497,-0.585359861796224,0.4426965082220843
-0.5471283399114436,0.6145440649029648,1.0226269455311803,0.4583731420865007,1.3183564231133251,0.8032810309204201,-0.480099138575391,1.909521106957543,-0.8670689127152555,0.40175424151214206
-0.4056038751052031,1.4330016949737874,1.6955898147536543,1.2864570283332677,1.9926741891932256,-2.5537372476550124,-0.211921813797043,1.2964664909662031,-0.6094679399552652,0.4551642333938814
-0.7174301562957403,1.9699124951656843,1.4609933116127634,0.48505335702453145,1.4838851617230064,2.4517637493847095,-0.7229881459032622,0.4668235441065669,-0.5301203079872626,0.5187618028397184
-1.0026235214040227,0.8307017714418776,2.593548927167499,1.1723820510652045,2.532250462742077,-0.7249487004193343,0.04640236817766598,4.189834673897006,-0.8531220563729757,0.5643451718129182
-0.37709508191000496,3.397928149361701,2.9073386458887196,0.8104057213990742,1.9989208170209791,-1.1669246347801723,-0.11283983357892852,2.2388549325661784,-0.053964752736648094,-0.07379189513567745
-0.98908788087523,-0.15527950649720312,0.8896398748987311,1.26827919629119,0.8781036888753749,-1.1677707349697672,-0.09505101203442932,2.2123086491347204,-0.7595501445380696,0.23664847347555157
-0.42881473153209193,2.4926623112317583,-0.06063012730939277,1.0739323778632195,2.04440823899628,-0.9758550489956038,-0.07151030958097987,1.2025069309897332,-0.845898762360385,0.36387634991727835
-1.4766096841463634,3.1214163012721183,-0.5261808885187216,0.65759940353257,-0.8502945929046307,0.5796390107326113,0.23791582115622095,2.6004363497912046,-1.2483116711522033,0.1019341445559052
-1.4423909727966318,2.2094573133318076,1.8435348740345878,1.2844166396017442,1.478151332024363,-0.7704432362352759,-0.13334788761863156,3.0732578446412733,-0.5125051493168892,0.44664573553519243
-1.2145324702156652,3.03815160004776,1.8225430936334237,0.8303089102663292,2.030849645622137,-0.609374536568565,0.21024057374026783,1.701750825768529,-0.4868362296260598,0.2734376890570449
0.04773489899681873,1.4747228362236258,1.611358907661204,-0.5988353248969484,-0.6411851802505392,-0.021088130762412338,-0.08580735079394267,-0.7159096184938125,-0.1026703105247731,-0.33201954880809054
-0.661942462241907,-0.7730182027420786,2.919122385576367,1.5567269168323998,2.926588365560349,0.37006208733706214,-0.39416433530355155,0.456795558119917,-0.3476491809592309,0.6348886739330123
0.9164843120292993,0.665137574421022,-0.610111282467226,-0.8698596402620445,-0.21888766583013286,0.12137381790831836,0.038401588130656625,-2.62543182436412,0.12855438090189591,-0.0066763929789341574
-1.3509384775093998,0.7844278165303356,2.9725639801280503,1.1004451425268869,2.553640922660342,-3.0049547581752303,0.12673739579569065,2.9203174070447315,-1.1482409058344099,0.38380272981623664
0.05616538936832099,1.3591189678851001,0.37863513636781554,0.8137333770209512,-0.36989752746475485,-2.49559161994904,0.27844098377192855,-0.02577045692198121,-0.0017252530360877165,0.37718034456732347
-0.7195460362298093,1.1907246542718055,0.5503889215235545,1.0211471496487905,2.117728371407093,0.5882254916561825,-0.3352405447126455,3.222364354256434,-0.9171196784508943,0.5143831078632903
0.9329159909065217,1.9201243492051758,2.308270854676191,-0.17821471558595783,0.33363826581422806,-1.4441402218676942,0.20578744610777325,-2.7916644081548423,-0.39124679329569906,-0.22846924261889018
-1.0915003754044137,0.39192765168229404,-0.024159744384096737,0.7387764859587428,1.3005701923546542,-1.843069126674347,-0.27379501074814705,3.1230756405115643,-0.29742083059499996,0.28769058861350827
-1.5827111952963915,1.6380317888135636,-0.41855031199135473,1.5064452463919271,0.620498612641008,1.6031558229470326,0.4138164260162288,1.8110596982279328,-0.8549530620729238,0.1088452153730532
-0.15684019664522622,2.2270565075973203,2.305604024112723,0.8375502630401912,2.604541978837653,0.33933583403089473,0.3823597463951358,2.481556469372372,-0.10213805450119716,0.5232573012523766
-0.9276399397793398,0.340220082312952,3.153173677258228,1.8082940025145628,2.72576250662877,-0.44888347740867557,-0.38415611719971166,2.046173202135995,-0.9159905696403094,0.2228729806634053
0.911254302285008,3.3123901922315797,3.4148194183560463,-1.1009754965578407,2.3547015994190885,0.5898487293429131,0.5194655874831349,-1.3139041435366057,0.4232957842987394,-0.2728130144249838
-0.5804354930851916,2.9097376302063367,-0.9671916284928895,-0.09544017361406383,-1.1720477285615245,0.7559370923352192,0.04707595903655487,-0.34628176349847645,0.7216496028082183,-0.30765733075425256
-1.4628948392803576,-0.4761560377724289,0.5917406481608098,1.1196914526679593,0.43847544889366175,-1.053097210948991,-1.4317226591850758,3.007240805697722,-0.9191466720751827,0.2366401817627213
0.47884536411646633,3.0773068839239732,2.6254132357969864,-0.3638236109626429,0.35113976942442693,-0.24780714603591547,0.15911713117113085,-1.737412973429107,0.3746267196344696,-0.3926242409102422
1.0296528116641297,2.58419418492368,0.6249210898375168,0.45695008788164937,0.5704415348217267,0.7553460555055983,0.9648465002581548,-0.65873632149453,0.04017024704030948,-0.14363120822145434
-0.6604611647595501,2.360620870174878,2.535053802914079,0.27971484773551697,2.1308666392435334,0.5271603484299385,0.017961408265814605,1.6998587054759335,-0.7826285901427296,0.4228628011815934
-0.14362844825809268,-0.7373577617612748,2.901136577699229,0.2846159645374237,1.6295771805297312,0.3664921454084976,0.24050327576443928,1.6651837846335649,-0.3897316830086045,-0.02836090056368941
-0.4861781966400181,0.521795748097651,0.205785201348744,1.1304299683661552,1.5737897145830202,-2.1360414809772905,0.230124682645609,4.060323071098536,-0.6298743724143027,0.2580620100097038
1.2532080088928224,0.5893302346783293,-0.4899526771283548,0.4282616926148258,-0.99609109114282,0.44325609220899453,0.0144670439235976,-1.2815973479658456,-0.14435477209450173,0.18095089595030078
-2.095164418326693,-0.1997827133620531,-0.19261966705401912,0.703510151475841,1.2276241956144227,-0.9604332424712905,-0.789376311484415,2.411418755931386,-0.9767946476773818,0.5722736420951547
-0.5673211803068787,-0.4856889471953745,0.37086747980855983,1.3089855574428064,0.1874151142075736,-1.735274204778659,-0.3228474162167831,1.5380979338371872,0.0017190989588429409,0.26882598116315976
0.24612279418882704,-0.10875850161935752,1.3197487546391318,0.8117682075393726,-0.4719881022077261,1.0429540190533524,-0.1551312711064853,-0.7053720259293788,0.3656885387807943,-0.2270657455545014
0.2760072254080113,0.49905155671952195,3.248670925554009,-0.3406957503588808,0.602084177045525,-0.26615551838638507,0.7048014878778172,-1.1384199160298518,0.9808929562020453,-0.05058198483167342
-0.9714389131991787,-0.04581327178317318,1.5243367271106334,-0.14784877895896786,1.273418012847503,2.9833756207912883,0.26703487401267345,0.9023932348342176,-0.7471622235834368,-0.19930541759733592
0.24362642617854086,2.309153065951763,1.121862288536649,-0.15851530822679846,-0.152043367381897,4.055731651189376,-0.18893353099328422,-0.6221218342687693,0.6600723798797534,0.1621931770344604
-1.145010504786281,1.4391653933574697,0.05775330692661851,0.6863469275753784,0.3440303391687098,-1.599451508330532,0.16464000822464206,1.9819886256147914,-1.372945976018165,0.3441434292908129
-0.3110787414706573,-0.4224634710945394,0.26086854458434905,-0.09806764740960183,0.6805942649518759,-0.5540368993037159,-0.3484670959737647,-1.5589901359324128,-0.24672891949529105,0.10269641690792854
-0.14859365480185246,2.4341020556919686,2.4875419184606584,-0.836936717035298,0.0097501840376059,0.540429874026249,0.8734564988823004,-0.012944332936983605,0.15882240190651065,-0.10628163042836311
-0.2273062510360919,2.3247907117279643,1.573173374155442,0.28285968804132683,1.2936110487441321,1.0735880668752729,0.5206899246029696,1.2449017626093046,-0.36722595524355817,0.34921800061620495
-0.9223944597983771,0.08236477697508615,-0.2533135962030454,1.2754358021475483,1.618902885258351,-0.12734219237719055,-0.3694681002791157,2.06167037177719,-1.0168452567095756,0.43628391690964263
-0.3237439518308186,0.8843402364665502,3.317469724055065,-0.1026760631714147,1.8673748994257537,1.8469800692086364,0.1800137833773121,0.9852402977816588,-0.5562415222514364,0.26945988055441705
-1.8402312658240176,3.1018229210453123,1.1808846094201408,0.8631132606420734,0.9279199688140529,1.33690025586403,0.02632744071312615,1.3782487667276921,-1.4405645607423045,0.6681134154337693
-0.2085426682731844,2.390894530247814,0.8130730812799349,0.12465628691002573,0.950874637718216,1.2662575428926468,-0.7117850209269393,0.2971670862352051,-0.1278323884793614,-0.04665856563177586
0.1248889996125797,1.6687040758548837,2.2015646346232205,-0.5251364907653039,1.926874407440403,2.888701487797128,-0.5513699008386563,-0.12608711204097667,0.30846439460289626,-0.5115567941342483
0.5976975885799696,2.3572845221743637,0.40182544474606674,0.16721505332893546,1.07600554300399,-1.7132249812009448,-0.25605078822177363,-0.30202316888461256,0.003356936652070918,-0.04244308433206752
-0.545076290161471,-0.9620461673607767,2.2700394091270497,0.4793230315226119,0.9470424405847595,-1.2712651859327493,0.11983890726188379,0.9396108076331791,0.14567303400881448,-0.09515730982062433
0.08506021214110206,2.182462382087093,3.0333359034652556,-0.09129790603104065,1.6385450091654015,1.722212885837937,0.6976778080906834,-0.20136676575815332,0.2309657221326624,-0.15333411332309063
0.5158855707530662,1.8510607581441296,0.955969312433772,0.46576248451912,0.6961526912393026,-0.3476893246195108,-0.01131788584592014,-0.37268615826589896,0.43507282187558877,-0.32858682749973495
-0.8318950054676957,-0.773018130597145,1.850878926713348,-0.8117673356319743,0.6843271133008376,-0.9378872844140591,0.2198950725161007,0.1488485038840243,0.23006630727337535,0.16298755504859921
0.19610833016431384,2.413462144587758,1.6386302976576692,-0.8805491495332949,1.6850605814320863,1.4279466235188505,0.2674633460438063,-1.494433320857782,0.41234251964081986,-0.21165197711255498
0.4003212889146102,1.5140702497786585,-0.2772751690751316,0.21849914173383356,0.5062230842396059,0.6031239625265886,-0.3509175996819521,1.5807662068691015,-0.587928346603851,0.17969077192233737
-0.7655017838908147,2.3860889918190735,-0.2308177750767645,-0.3328020804841205,-0.8450708395920723,0.011089012073998039,-0.06527148039091879,0.3726309895495344,0.25864435039294564,0.1098061608678406
-2.4839115380727756,0.2396940572867221,1.1888398521553656,1.1450367318111518,1.0102696774844482,1.1263366243484312,-0.6078381584082186,4.375812141439031,-0.6744276008277984,0.8006408226530923
-0.410730669668607,3.4215345981972343,-0.13405813611386008,0.11588925875546681,0.6309424339427272,-0.007314529426892313,0.42181762214647,-0.9621453017807042,-0.13725216257503084,0.2684220402862382
-0.416522989482172,-0.7115623622756491,0.06637523266975998,0.8899028838545993,0.7494185449781355,-2.1237403885225405,-0.5236040422429702,2.8609531438393865,-0.48461700393120527,0.3545967355572365
-1.42987451670157,0.8287052485520559,1.9774589130396705,1.1301205886770869,2.651791112614007,1.6809025643696625,-0.5560815367333564,3.88087323863518,-1.182153371516327,0.5542315672597262
-0.5810291775154391,1.773681173999381,0.2568803111935507,0.49992801271518167,0.8216822624038763,-0.5794615703731122,-0.23142187619034646,0.3280113114069696,-0.1358053619555619,0.0384208254575733
-1.1361887770850143,0.7041432499231401,-0.5608523916722532,1.488273794854369,0.23902802835153988,-2.3385979550619775,-0.5661040356931706,0.15086715279669471,-1.024352745199975,0.22911538047405033
0.14725932656346247,1.0282066912633279,2.0626846698322714,0.22765228388807157,-0.04909428652293446,0.15951231565394963,0.6186966052441137,-0.10416930295164195,0.2889375019316057,0.11440658757230404
-0.12484283028121625,3.1935393191206716,0.2536767498767132,0.7782891831292712,0.2458392836501675,0.9110571833753653,0.4358807678614798,2.363824712635928,-0.8966258693890578,0.32673343168245955
-1.6177729469918851,2.9514332768638654,1.0310899032617056,1.5096862945280882,1.7165035266094613,-3.363457475727061,-0.5194962120198195,3.2288388534859855,-0.7856855833380034,0.702733733815452
0.28548686486973956,1.0406301725748737,1.8320404247763236,0.7561510954988081,2.6251566720306894,-0.08854706222389774,0.10275435670354277,2.724210895439655,-0.5276299319175829,0.37400565612932707
-2.2507258360281015,0.7339792631720492,0.5199443804849675,1.6214143817500828,0.2027070093703321,0.23334103340441625,-0.09491132947725517,1.0194413065237935,-0.8802726080388782,0.627559860499342
-2.7635548686970077,2.9818289874428636,-0.5118997888492791,0.7527614725660644,1.280386305557471,0.9480573824769678,-0.17952057176761382,1.9183781875296066,-1.264858555487896,0.7026545775368526
0.6559145556661131,-0.1685282314912525,2.882542665146189,0.16542696649679225,1.253001758337659,-0.9471831236576292,0.06726723900243074,-0.8790848587298965,0.17874289546101618,-0.22633533793080451
0.21218946498936592,0.44915133960755305,2.861393973718469,-0.21010786669887813,1.6707401095816297,1.251015408230951,-0.45020252991112913,1.4663912472084868,0.45655086329248246,0.15827995814193638
-0.7591825661925667,3.244601174422127,2.8193345511036463,1.1164297111615258,2.767768492304964,2.5469014891321766,-0.1716810063266249,3.3888950596453316,-1.1738021534551106,0.5762741513306429
-0.7684393223399001,3.16526197747483,3.0582422077860683,0.7047421738487382,2.1555041723005512,1.307876585984386,-0.022803431394351814,1.698618122079735,-0.4908487341033104,0.3081490169339469
-1.8255041763641229,2.2283621289883455,3.1700761712882963,2.111650551844139,1.9237153139542602,-0.9312033987807873,0.06873915990301799,3.048690203861339,-1.2795494927957103,0.3065568919593332
0.24651422504735124,0.6446196005422757,0.9753363839892133,0.21938123373977128,1.0012563546641216,-0.27016591385845556,-0.41519087114120523,1.224129462318456,-0.265712515170817,-0.15261719956455794
-1.0267319801827082,1.331416279125056,0.7275903837048034,0.8283206119670329,1.4793889397734077,-0.934934316560187,-0.8725507506058026,3.2075085754334753,-1.1795470384732387,0.35470445968591585
0.0983627877181883,2.9487495511046955,1.838791626305067,0.30341446179222387,1.9824919273039359,-0.19146937052596763,-0.4426046151543561,-0.21938471270004412,-0.5276484671942104,0.5033368275039314
-0.4783883813817381,2.252258210675612,0.29011391719049207,0.4095612448244671,0.34869523602408525,1.0941292318210283,0.37665181452034713,0.6777705672288471,-0.024017994194418867,0.1639870423994648
-0.7415974693877734,2.9457390604724565,2.1226730318060327,0.600026707201622,0.493907668123804,-0.07912588759760542,-0.3278757584395302,-0.2050082870973382,-0.5297491863227558,0.591935523229344
-0.42724809549724946,1.3224659280448017,0.03815387108753554,0.0962250346103179,0.8580995947609673,-0.3688447101298941,-0.043443405537759244,1.1264778400215678,-0.3074143641991154,0.2202544562073038
-0.46554421310390015,3.4196543521025404,1.3396989260493135,1.1059143098189244,1.3474562273231991,-2.0731119676486727,0.30190292620431997,-0.0738668327362404,-0.05496679638342018,0.4079579502997335
-1.4215170970063704,-0.4574159286360485,1.7548982967328581,0.918607921001276,2.0846995482443904,-2.0001829975302616,-0.10167828939076788,4.57728076863515,-0.8757757557983243,0.28094922073722
-1.2507359387808148,2.7034792045220315,0.7419981310340487,1.0923505730889214,0.9895382739742314,2.4709322435831504,0.30132038227314073,0.8149499735862715,-0.941177915625459,0.5336361812507211
0.20975614396001793,3.0285250989208228,3.0300724511077117,-0.25256075163886066,2.2793759377524245,-0.02933351919733518,-0.6320126663981537,-1.4733913166859645,-0.19036640367726487,0.10047789957230198
-0.7605451778332023,1.6286841440154256,1.632799012837081,0.4471290197038514,0.7901788142444887,-0.7145353946485431,-0.02748215366475161,1.293294921482737,-0.4053919957411718,-0.03506825361472812
-0.24398575995252558,1.5506683974375637,-0.6382582026616388,0.8105213382685682,0.4661419480169231,1.9902476350198417,0.030202407916770004,-0.09505101282396677,0.046721206282398606,0.15879493403667627
-0.7832541490407684,1.716379811050896,1.1599147034951018,-0.12216992044339693,1.7884108599363397,-1.285529464501683,0.08227254502383738,-0.05677890203754521,-0.41949841425171336,0.41040797677141266
-1.7144324105637732,1.8826605855290799,2.0098522966473653,0.07666547215254112,1.0843194470131545,2.222222218939702,-0.1148623117077125,0.15447282959994724,-0.018716570878229907,0.06684523935519818
-0.17575803375617727,2.3344290255235967,1.8842072103505725,0.306383545241525,1.6141349591889196,-1.694612448835519,0.31582078736427466,-1.0327517141458569,-0.2985270689231261,-0.2538052322911501
-0.8170837903456312,0.09943303877929321,1.477869562331056,1.198910389303177,1.7249936228812057,-1.2976036409725231,-0.34658009141380197,0.784398567350288,-0.1401821053855093,0.40407533952405633
-0.13930737403301724,1.8385552820911815,3.32286394750077,0.22177747921315433,2.019470386910842,-0.46223416670194406,0.060881291024689865,0.11193375796494204,0.16913218271154873,0.018024704972622582
-0.5461913026877108,1.2192167338317184,0.7216151352240383,0.23426382731524942,0.49329948430936993,-1.6208581901057448,-0.5784817409792563,0.8426332467391435,-0.25219258800349725,0.22395221487080522
-0.41673846544165394,-0.2676965399112371,0.6173987282331732,0.5937915726745949,0.936467444217387,0.2158458787102946,0.41166143329124333,0.3822336067061357,-0.23849541790781043,0.09236744720280882
0.2783991005638804,3.1262698428978117,1.2155775062684633,0.34505410186943447,-0.09558663441238047,-0.5778909740805402,0.5936369507050954,0.7572391288867254,-0.31003859418370205,-0.1989265487238077
-0.45131272633420905,0.10226443528249529,3.084579008879996,-0.24482111092299244,0.9232935246285536,0.37641838086683743,-1.2381410735784315,-0.4671626380837138,-0.05062225131623411,0.11835902865763767
-1.4030148922852352,0.16075004232960022,2.3232938176269515,1.5874866914575787,2.130754675023157,1.2165455460634704,-0.397255616989468,4.473792161732403,-1.090741630170968,0.16869315232481139
-0.7295210721583818,1.0243339685148438,3.277994765158791,0.9196541955794295,1.8624365987342661,-2.7326675262185383,-0.2652951065649759,3.1229930599857774,-0.8952549219984881,0.46136774745330933
0.33768976374220966,1.8474133548574563,-0.5214279025846217,0.2564860180334845,-0.4399010203938786,0.2790022384951968,0.20768517194857383,0.3977516934508252,0.21813200308830402,-0.408912785805466
-1.1883063285729312,1.1352980338181227,2.5172150040622046,1.315245583723827,1.1635870824852321,0.04925790798644192,-0.37374974747288825,0.4179467752946753,-1.0001669169057865,0.3466119163030145
-0.29548248016108136,3.195353924293597,1.2328833507739576,-0.5517370167934815,-0.40794090465038824,3.4795587851118905,-0.36235361422215606,-0.7975777565776128,0.2718150724255489,-0.03969365728364748
-0.8394586825036462,2.1776113933628114,2.877416602899167,0.8396182560274824,1.9864834106482032,-1.113176884444175,-0.3656534373328566,1.6869230298619022,-0.40793360242210175,0.38668009437198686
-1.5793525985093488,-0.3552749760977457,3.2238680464513507,1.6689851589430704,2.3786913423976372,-0.846682379898908,-0.17526655070008546,3.530144560408238,-0.46401252297245776,0.5008422195203696
-0.8406294931557081,-0.057713427329485034,-0.9883166293091171,0.5457912910507634,-1.0153831801149993,-2.0475468811575777,0.453591675995595,0.5981511077953934,-0.21803743009945004,0.3653809074200835
-1.4014496148710942,1.2411688102176939,2.4251433838182055,1.3277288691429154,2.937007326721439,-2.0742892464014724,0.5158798871720925,2.515737897295895,-0.9688465113594809,0.18646028569053893
-1.3923545049091721,-0.2714703419143877,3.4143404020831056,1.2042965088324384,2.9129924183339844,0.3523484399040929,-0.2857126816088488,3.5885238569897333,-0.9866038781245451,0.7154283084785256
-0.5361870503698517,1.2596671343401593,0.8721172373797492,0.6441456822713916,1.0281568219124864,-1.2556011993378935,0.8970200421717722,-0.27542634861871296,-0.7381712318030766,0.4026198967195438
-1.0582756658079264,-0.79147542304541,0.6829735909298329,1.2754275899630667,1.4338570397947428,-0.32622863792078793,0.034551931317592,4.047183595790026,-0.6996819222857733,0.4316982864811016
-0.78872908116444,1.5799131370795112,0.11559670205824513,0.35720523254063224,0.8780022655919666,0.20236019073628347,-0.00027358273524934196,1.8622885154425424,-0.14847255460025263,0.12308334023710135
-1.8828663227776923,3.29616498242114,-0.539152592177748,1.292064541530196,0.9170084054585532,-1.7075787495783694,-0.039792827865788305,3.9316689355576644,-1.3099965905269193,0.3740775953712783
0.6691525131358332,2.949511256750282,1.6609256023633376,-0.12003776868925496,0.7645254354926769,0.37542778264199295,0.2750900946009147,1.5018009912562107,-0.09469319551719155,-0.2972007577509093
-0.11686687844746489,0.36890724545838527,-0.8905868837643548,-0.1422706996923488,-1.4880657232114927,0.007901992323413543,-0.1361132905527043,-1.1796023163093978,0.2899565671338104,0.10606121208087736
-0.4860333411922714,-0.2600668269968215,0.30645346904243453,0.33771059042845786,-0.1165737889580602,-2.0491230100799664,-0.1637555009662408,-2.3328121928637247,-0.06631545933353818,0.018853276668377307
-0.0026376733434839727,2.146445412822999,2.0896114955158027,-0.1903958270570035,2.1545910407995574,1.473961728188463,-0.15686441772784407,0.13157471968336742,0.7361236137579728,-0.2108960368957956
-0.6150425173906385,0.7807824760230435,1.2918882064429278,0.9471320313137759,1.7814738147448872,1.9829733295323255,-0.5813815860689646,1.5013959364171985,-0.6378655911141474,0.43367154894082227
-0.62465065579637,1.6379858830839127,1.3702783238947571,1.1649372367101078,1.6740955441476828,-0.3873361371140631,-0.14124696922212704,0.8927515951131433,-0.6897641985280157,0.5207378704909157
0.47945283789119214,2.9030464903696314,2.5652713052463767,0.3144663284711198,2.6680089217054435,0.510374251028548,0.707431158448702,-0.09243898228713604,0.27606944089135316,-0.055956808187286176
-1.0277146229062206,0.3971366945427226,0.14070386997736595,0.96462438873697,0.7218920740603771,3.5788555786935587,-0.041264580917577814,1.4759485144040672,-1.1777580349982935,0.21594583713466586
-0.9641598679823806,-0.42518732684541183,0.6188427363064906,1.4792858312420052,0.770729524730018,-0.2239759005676324,-0.17890353400687445,1.1436369873739136,0.013678467196261522,0.3885227410070088
-0.7408080842994749,1.8086597456925553,-0.9622984044343932,1.1200377294850699,-0.7115510476174806,-1.8144362775039686,0.4345426000146061,2.6524993027025063,0.0049692726415246245,0.43143087785056916
-0.7936136138247043,0.8710330799022468,3.4433959437227752,0.5342808388216828,2.3468633911001695,1.618510536003031,0.08507535286203895,0.33559377938500035,0.10388081073743902,0.11035214003952913
-0.8700422079852103,2.5193555534960637,2.489840430355313,0.9912879625914817,2.1227215333937344,-1.571384896823376,0.22285075812013733,1.5532540228264584,-1.4701176825081241,0.6206244218067505
-1.0869708836222411,-0.5466734366345126,1.5484114145681174,0.739185755446999,1.2656269824231974,-0.1174399222126149,-0.4557587015671757,1.2889249130042222,-0.7641297704836547,0.47259282444545014
-1.0467428186370542,2.567029757685448,-0.48555063622937766,0.7207647058182148,1.7352350602747242,-2.5679653792485957,-0.5438513891889671,1.2216713483581063,-0.5880554736114045,0.4738899015380969
-0.7089648552986203,-0.5683929772406544,-0.6104832159867095,0.4066966275308695,1.4523945180091413,-2.0152984255784565,0.1427939349129544,1.4576220385376664,-0.4426686887849023,0.3582925666795398
-0.03334952342146487,1.0591109946711916,-0.6605942202477706,0.7026108578136708,-0.5143553808705431,-0.1728607306497933,-0.42531064578675315,-0.1581492201331559,0.148750279432986,-0.28867419162719804
-0.11447298759884517,2.410506374923936,2.9079901653762166,0.3912167458915022,1.5911730812533287,1.2724814320543794,0.25306491806168857,1.784347355861793,0.18166949991155903,0.32182067554696425
-1.6591703335338455,2.1818216506433306,-0.9781581954287969,0.6291859961957551,-0.20584451145901383,0.4584550768578881,-0.17868947795418488,1.3290832625024658,-0.48410708949495074,0.5492578034759855
-0.7587693351511494,3.1713359444439666,1.8309883134127536,0.6319959836874163,1.957151291352554,-0.06274474366322425,-0.012759002824010407,3.1300776528837346,-0.542885155313101,0.6535910287247318
-1.1296012549444254,1.8209857203679634,3.195144635371687,0.6809699513445392,2.9075342205594352,-1.877187390186169,0.47144323546960076,4.736807082595627,-1.5402566491199814,0.42940207966958016
0.7506296365190945,2.118776957291185,2.2007660785255094,-0.8193252787378268,1.185774039729937,2.64633157109298,0.032361406976445295,-2.5212341620451504,0.5382890090921005,-0.41653166956091514
-1.05590922511183,-0.965575712338163,0.8540537266009458,1.5657363743610944,1.5593098654606667,1.128197948259535,-0.20974175321128627,2.791957730616935,-0.7528184396475819,0.43847775934584343
-0.9182493585250945,2.6410471003362894,-0.9566734152013282,0.3700264028282777,-0.40402444191410947,1.72789098315317,0.8208304140696137,0.617437982240896,-0.19557968275426826,0.25571887343260585
-0.981784160795589,2.8750888743361784,1.9600404077183788,0.329521464964123,1.9856105212709672,-0.3128881347067007,-0.12626203669994834,2.4953645379569442,-0.8492416152764537,0.23550151080141732
0.9320748732600477,0.4250421173513319,-0.7332823876794061,-0.5973432194808664,-0.6990654248659409,0.47291790768977515,0.18212630787203543,-2.5943207803923567,0.7574664091098351,0.008729690167879585
0.24664631099194745,2.310606905047675,0.3071353884058974,0.3577780082475164,0.045455949114698635,1.273959414814427,0.606992134279013,-2.8442446162750206,0.33901907589333163,-0.268565164100457
0.053234193597083264,0.5989476890079322,2.4354752480149404,-0.7144492251852895,0.44167874186279305,-2.769794504634739,-0.2104520987478728,0.021376520362016982,-0.23587081058503248,-0.21566670241470276
-1.0904921016745543,1.010414439563056,1.4449998199836767,1.490860089506425,2.0121521508518425,1.6232324506636227,-0.5261728286209122,3.3553792128903654,-0.7974388073120621,0.5646485446921952
-1.853248024042412,2.355871206416519,0.5829175484996778,1.4071500893483284,1.1245072245754464,0.030389377027490116,0.08527835828188157,4.874051608641153,-0.7063286769242949,0.2995065585927783
-0.08772453702995259,1.7562102777181612,2.1468496035460998,0.14392626950676932,0.2835653439652794,0.9614240051650087,0.4109486261957881,-2.4568362720028776,0.27494967852272867,-0.2465718332194224
-0.3805573189414808,2.008404709096706,1.4794315758061836,0.9160488554652108,1.0517572783792095,2.3361617075462298,-0.19591189427328023,0.7008566167949504,-0.633038564715008,0.3237927329800578
0.39570783023163375,2.8646966387611563,1.8308176534113123,-0.1629159550581189,-0.38308578475747324,0.11073893528811823,0.2285363071361876,-0.3153242412907384,-0.04034827476370811,-0.3414356512918445
0.33064313328561057,0.6354904931810501,-0.7077188119931253,-0.08425934128741096,0.1410984366934933,0.9274799698289672,0.5983127123696491,1.9821952542870434,-0.16897331245829625,0.2978665586830445
-0.9735401873291382,2.097688274082016,1.9150032934621866,0.793655965075948,1.6337088268275033,-0.8970815707406157,-0.11277496544071527,2.787659710176469,-0.9963307117179875,0.503694863542257
-0.9155614353185721,0.3593550729318826,0.1612414814099019,-0.21492983614840833,-0.454246155537399,-2.501727900860572,-0.39464334064404505,-0.501690126649744,0.29220746249095536,-0.15684977886758442
-0.19678469967114642,-0.44206227166332834,0.5704692894588614,0.2564964667611058,1.658174181057249,-1.3025465642729928,-0.5424235709518448,1.417286581599279,-0.7309036404708723,-0.13606962031763534
-0.7720062161792755,2.1714302699886767,0.6583723361049605,0.5915843620566724,1.2196996153164474,-0.6570090541345512,0.8658579394335324,2.4252198269649776,-0.11174040248458984,-0.031938034188293496
0.205223607145724,0.6100725959871998,0.08585750015617388,-0.9242478221931929,1.0188906716207355,0.38374517512788353,0.29072865142220905,0.5816219089821011,0.20385351577781782,-0.07428467737027719
-1.3966375010499146,0.32420931810815135,2.1511111202829474,1.3015291986388404,1.7983439320891939,0.6754127213933321,-0.6716897599394034,1.82993964135637,-1.1869252214960038,0.37117637290351063
0.07057204069848871,-0.34440457979047956,1.3982403897335858,0.3188010305042786,-0.36298911806304895,-0.058590327272409926,-0.2260015368330986,-0.6267313473783428,0.11108445470552908,0.11615369821625803
0.5019279901528038,-0.684670726491414,1.3140069489382529,-0.1537208152930205,0.4933151308604646,0.1379937744669446,-0.3495590414270151,-1.5257817218006973,0.27586622501451735,0.005266130332543619
-1.1799996035728877,1.5543564059735284,2.967065949337799,0.8899849069700175,2.1600666672985764,-0.5405955234571418,-0.05595629182532619,1.8665455309075556,-0.9831115001059719,0.7525925655135068
-0.06957161922720188,0.3726071466255181,-0.5496604500002797,-0.17381553489973803,-0.9185112292274835,3.419019459501403,-0.4972380456230985,0.40545188320686887,0.24549978713393011,-0.14683203660702465
-0.7068713981089026,3.0747701936196243,3.140987264458258,0.7722431248731766,3.217696065682384,1.2111826338038623,0.5720425309484919,2.926360993329498,0.17474398713307493,0.3766272480790158
0.5890277365641549,0.5646359553649221,-0.6383346737735396,0.07143300362289261,0.7594459165567026,-0.4430174725044336,-0.23571467884794867,-1.7463592994346797,-0.5713291406374599,0.051980200539434064
0.26238783101850605,0.3214086438789987,1.4406585334328335,0.09324440186508717,0.37746618778651964,0.19659376336289758,-0.4479132900023825,-0.4724454241468241,-0.39174318446975837,-0.5203630317180568
-0.3674409679955289,1.1189699454124997,-0.1214416554901695,0.21398037604504572,0.823500205111906,-0.13469031376329643,-0.32659062640397885,1.3625722476160547,0.056591409089536054,0.25904119328466657
-0.06656673461859258,2.2363751831650287,1.5226642193863031,-0.02765567849585907,0.29529352822379146,0.07062144887057409,-0.39137263367191294,0.09053483415989044,0.18959638347315336,-0.15753844428074618
-0.7604948873629789,0.3494018135881529,1.209953392614203,1.5359844080688714,1.8678663149139627,-2.645803462698122,-0.0762040811266424,5.658473287798594,-1.2818624125574685,0.6431352382062756
-0.01160843702227982,-0.9842696645537011,3.122595053826852,-0.1395803291291363,2.4505885265433967,0.0333990585096674,-0.014469287123744345,1.3297669109670889,0.015323154780835298,0.09931403907332985
-1.0258145385501816,2.8374863653286604,-0.10748338021408943,1.0986861749048726,0.5443120327458609,1.1497871844062522,-0.8884951861032968,2.202542655460012,-0.7478744390666027,0.36871801665594717
-0.09690232928411517,1.6234624856853501,0.3868149169285391,0.901148008250066,1.200142634337376,0.11350860692757858,0.004364271515235024,1.6192801269845798,-0.29859205490549456,-0.31434480900642914
-1.1094430257786458,0.8036993622445776,1.0253182989896445,1.03614434563668,0.8273922847904331,1.4401369551003338,-1.0020155046411945,3.0518859386152952,-1.4055411845571635,0.6544701410584659
-1.1840269472171574,1.0644652005546864,0.24769185799980464,1.0808336442581223,3.1676674162665686,-1.6229856597556205,-0.7519258870733616,4.011801385177316,-0.9900404305216955,0.4832304680659051
-0.18829528393901976,2.917515239022396,1.930170603019592,0.41431239037652745,0.7384157991403442,3.5911702047951266,0.17518734267653502,0.6484197046906656,-0.3234850489811226,0.3179786082399045
0.18246030949696287,1.204173234141253,3.121077395325826,0.32556597801104514,1.274978435595981,0.7243906993672522,0.41397131437754575,-0.755350431937039,0.08783810858240367,0.11443930894999728
-0.1689244659273803,0.16051309944668035,2.8785158210419857,0.7766120396950877,0.9570219861416144,1.7043165047331696,-0.26470947670042505,0.6455338656353289,-0.25523127612973046,0.09773972944375618
-0.9536349165923389,0.288409733054966,1.8501060627151449,0.8076304929891381,0.9761120187864633,0.7049699889568414,-0.46638300859270965,-0.1529939807633114,-0.2599219134616184,0.24097967312196353
0.36264125825609506,-0.45025051966249563,-0.21758262213070068,0.23916433640099385,-0.8297353963782206,0.01209978219932567,0.33182639153744586,0.7261631514927632,-0.4098098290029104,0.4423383724609932
-0.8295822645673814,-0.6297248729423992,0.5221902357106467,0.5172223333077138,0.13845777636898443,-2.0870179201178334,0.39425059466439527,1.622920750160407,-0.21313578455890145,-0.05526125748537805
-1.1957473407375896,-0.8220000150190123,0.007852215200278012,0.7221148820621962,0.38752265310106926,0.0933488579042665,-0.629303043958011,1.4736160569572738,-0.8898748856258744,0.622734273908705
0.09740020004084536,1.0847441341818644,-0.9905494941498695,-0.5741729693558474,-1.0461756187077098,0.9188097486549045,-0.03938467003143303,-0.4528823621338318,-0.39233579177657796,0.31472769030248177
0.15610910875055825,2.9147653658090755,2.6277068891877704,0.3568711454459536,1.1288887059823318,0.4417063866815937,0.18257885500709264,1.0076598855139332,-0.30087796604823003,0.20440879931806397
-0.8783169415294665,3.2148580899643573,2.1717141318976703,1.1053054113213208,1.2890974299753033,1.1523278586737695,0.257545930507762,3.3948223312442423,-0.8044653009567296,0.45266298514106673
-0.5574935171042306,2.563988009347282,-0.1812741613577702,0.19958440206399558,-0.5692820039205277,-0.557884256038098,0.04446449135907571,1.9380595241997702,-0.4107058691894644,-0.1869807292314539
-1.1888487765847513,1.1099967896266532,2.2111598646318416,1.4277115298201164,0.4780226692814206,1.6874055882377799,0.4873346225357789,2.2399119227410798,-0.03366787126184935,0.26200747879288083
-1.1131442744508044,0.1956243811885161,0.634029753744922,0.17622555898803932,0.6421213665975585,0.5805889660963858,-0.2775881693526677,0.9387937155999799,-0.18581566510749814,0.29536424318111476
-0.9628120231352013,-0.3625090927283574,2.6964796188682985,-0.07516488086794103,1.644272213953453,-1.3373670665227824,-0.30057988039360317,-0.6422578032471121,-0.03323556432052893,-0.12979205846417774
-0.22134085554531727,1.9250458856816164,0.11287288062993195,2.0525673864037657,1.2170280124661448,-1.5203990811958064,-0.5857517987172736,4.9493306204328125,-0.7480907009589746,0.29305092313576125
-1.4738778893688702,1.7575678080202057,-0.5504660959279744,1.3354173763429638,0.5265757090100325,-0.08438709013917167,0.021613579384750725,2.473775580044063,-0.9933081921254968,0.44707767922718616
-0.46147917792076176,1.82643667410826,3.3327373191649903,0.14793131011116947,2.4146771053058926,-0.6554928880485063,0.2952707793873347,0.6918659406981863,-0.454794488730596,0.2379898836771358
-0.37436868111599336,2.905103983671089,0.14863848943704627,0.37878028868103647,-0.1548945269164212,4.072484137349582,0.37430697045589206,0.21373233077534678,0.48588941533488106,0.10780378200986548
-1.0049187887906064,1.2219155664264547,0.4543911334472124,1.274502859448114,0.45501784637403253,0.7433079952170785,-0.02103296629155113,2.3041157203397153,-0.7766884093896718,0.43866827301165995
-1.5815884106074405,-0.14738602043245308,0.11081151389566757,0.8426863095347898,-0.4411236840790674,-0.5047709217218153,-0.3969500781558116,3.0022239556545576,-0.7586407457884082,0.11655644630704988
-0.7327994367958904,0.4015610685906039,1.2493709246074554,1.091939514881397,1.6703493114827288,-0.4410014819329281,-0.5680297884812283,3.920078561681662,-0.7612654105192959,0.545830754798668
0.862625314984841,2.5869370447505746,0.0857301142649014,-0.01334414351245545,0.6655422786925638,-2.6759517546361606,0.7931716858208899,-0.47475055626582946,0.5464504649192036,-0.006206033897117744
0.017724972003898266,1.8539384740596798,1.7879994680768196,0.26584743043575854,1.0893315052439179,0.34146364683409836,-0.08656397682956189,0.038343811517800475,0.2611392938919632,0.2676755828708604
-1.2819126174298827,1.9195448083461573,2.0751232977738856,0.5038228281110574,1.8775053867582423,-0.5299065007479311,0.04749331388254585,1.0365156641583948,-0.8476134097997914,0.5614689041916264
0.5528826632314164,0.036569826432402364,0.4405394054151677,0.49074493768913663,0.18744606338090639,-1.3785721483537567,-0.17626503691412618,3.165081636565647,-0.865521264574972,0.7019077383225507
0.5602912046308447,2.339984881457468,0.9922357254875873,-0.05943958992092369,0.9432522934319448,-0.9814902714390945,0.6852702808581338,1.2078301687894175,-0.23908184857924383,0.02307699021065319
0.5624713651403834,0.3044278018205815,2.802349318425158,-0.4963988445185941,1.6382447795513637,0.21684359300445954,-0.4588316008586584,1.2628611419410318,0.6172525640198934,0.2627915522520931
-0.8797055841177623,0.9178876515354983,3.423605020370852,1.5321817982802939,3.9538430646248743,-2.819270867223246,-0.2014539840338771,3.5909466499359315,-0.5556211866265137,0.4134886589281538
-1.0779214809145439,0.7354389274189252,3.221176869405358,0.4288612187820139,2.1460585635281855,0.16694559256879993,-0.7532514245323279,2.300597573986079,-0.006978458586940358,0.08282033992576038
-0.7633206476231176,1.052222762520664,2.142347468137211,0.8719517485444661,2.0291030894998086,0.4150280044041246,0.423995925217744,0.42479168962248526,-0.12974984322501787,0.0625394486100481
0.22604979739211087,1.2150221195117243,0.1829561271263762,0.01623328657284685,0.3802762825364784,0.47233331934805783,-0.04482475140748386,-0.3233993225178232,-0.5394857326644033,0.14309283088760655
-0.06198663095892745,2.0935168000924684,2.1312141862737,0.05572457351139171,2.144700257162715,2.834770133595706,0.1796189207779555,0.11717337681534132,0.40445175510924575,0.13662244325056827
-1.0623913239898901,1.3795292951828495,-0.38768145166767043,0.8409884428779569,0.4886253137375913,1.5312012952997311,0.1343666968622519,3.3575522134109943,-0.7849287043194013,0.3950036818543985
-0.18303304113664942,3.0283808758408393,1.328562671841767,0.8877168478633863,0.10306923418851016,1.1054910550746067,0.5721445912853288,-0.2961399352461768,0.08004531297950483,-0.07258096716975153
0.8222198504796203,0.3255656747851752,2.992605217568082,-0.03587232290782551,1.0306717782353458,-0.6513299402762195,0.3893143686997559,0.5134058880454844,-0.04575134672747958,0.05025477503408255
-1.200751678301328,-0.665577708738673,1.6935452248596174,0.616406189475884,1.5064813579969722,-1.5888546385658087,-0.4248231206705459,1.7445459110851582,-0.41452632584565735,0.3959440958632573
0.37374941691885916,2.079639577872566,1.3449589141978144,-0.5748447396545842,0.05661809599877138,1.16319090555523,0.2545511267790713,-1.1730865755706372,-0.2699104039018996,0.0964692685787933
-0.6849825757931576,1.8068873082886414,0.8952445668307552,1.4493660868522753,0.5341570813032558,1.8470200429950614,0.7508272772022491,1.8383139854744144,-0.5941825993074915,0.24110598101754843
-1.4913063561182325,0.38556917686230063,0.40932169812477737,1.1089005066270323,0.7795390817028494,2.092699368629113,0.15671600638178046,4.033977597686531,-1.0903586568023917,0.5125915725200324
0.7270553406859775,3.169649586949771,3.1228867981304775,-0.6097516556635377,1.4800589560046105,1.3975137511315827,0.016342638976454715,0.43004594000191154,0.8256048616282088,-0.016049309485448193
-0.18533779385520027,3.1094693348205915,0.07117261910399808,0.16279170416315042,-0.46477058853824654,0.7150298861283525,-0.290914029757133,0.6524898725340434,0.21214854546269638,0.2218005595119826
-0.9221580482134258,2.4721297632613433,-0.297100492637555,0.03731905840272743,0.010972720074221565,1.0724738511878777,-0.03726636531946574,-0.042197149359359476,-0.169998774386513,0.2889138963559982
0.2485924545417434,-0.4788064055807294,0.00403439477362233,0.43173180233051095,-0.1489295053214523,0.762675638235484,0.26603605510679174,0.15843169093298368,-0.11059923371963366,0.04829898735757854
0.07457638478578764,1.3755012966579088,2.0535369767143576,0.6933087113452471,1.0537775309165553,-0.3820387714988706,-0.23866959485808387,2.1252199734687656,-0.792450865818194,0.31102520500041414
-1.5644114018588418,0.8372987719954665,-0.6762741089242128,0.8366219455030618,0.35059403377157794,-2.0934464071178738,0.14448494688622537,3.7211421549321155,-1.2748050591597613,0.248744037147505
-0.9166554809401685,2.239952246442617,0.13266404457207748,0.7707654735641407,1.046730246741733,3.897591780748047,-0.22247957249063877,0.07753828985604883,-0.6813434536853371,0.7936731416592298
-1.6779528375048238,0.2793923993755516,0.9384100667004118,0.5866642979580604,0.6601170473589307,0.19272258587167035,0.14443611887472912,3.5213415789265676,-0.3140441111532796,0.5549714942833873
-1.4024434926283338,0.7605404872722628,0.7772150044155426,1.0988308833553153,-0.010804523979805913,-1.2789773765261747,0.8397920337821011,1.1488917182431881,-0.5755447803002937,0.27096415055962486
-1.6912730355367818,2.4369580235566075,1.9943596850576717,1.2096605072296909,1.9124737249031645,-0.8085351301954629,-0.49510071117488197,3.50807972591912,-1.2172185233030397,0.543961178617313
0.42871888407595155,-0.7269659394279055,-0.2508965204991105,-0.35632044486494996,0.27002966042583687,-0.40198229109237626,0.8744547792635583,-0.1614954531041583,0.22764178717565417,0.27755422326004436
-1.1031673905651405,2.571343143396603,-0.35287844060300666,0.1931659704920171,0.03009579547663374,1.4592189078195106,-0.2152842472113477,3.0061944846709494,-0.4556492337739439,0.1965778688933949
-1.1699521742343972,1.135093263725036,-0.5540539443726393,1.9028157589897063,0.3756353880447669,0.8140701348707866,0.6288782816267634,4.307271547289735,-1.0869262178490768,0.442930816680996
-0.9549866987968271,-0.05328076154379657,1.8139380747470768,-0.3378100214300115,0.4953789977954988,0.677967186119842,0.007847132398443368,0.6774034654298033,-0.23372262922947404,-0.13390365256463768
-1.3861023231767386,0.6625936735530569,3.416117260369653,1.5656134439667702,3.030927427658132,-2.766248240055629,-0.6226135747427474,3.717503781871638,-0.5805496140874975,0.46572268085714114
-0.6125876130328349,1.1062667389801328,1.066374294892579,0.24557106782526547,0.2611047297639989,-1.5583016682428195,-1.0884854117621359,1.3076374773514423,-0.4828449917875118,0.21606370317534188
-1.6321915719233295,2.677663714167228,1.9820165564509855,1.4991933183918194,1.259729651684474,0.41667359057402664,0.4660424251106917,2.8688689220575903,-0.508572228822044,0.5542225571284939
-1.938694722021467,-0.952023963730427,2.2658115055146055,0.18163059373232415,2.0692821260965424,-0.15115410581224298,-0.17114815857402174,4.356644298810661,-0.2847096689539955,0.46855065926210754
0.13081183929394596,2.7230458298353337,2.7211363894854683,0.6435240398977852,2.15959769394775,1.663653054234161,0.05904462479364281,-0.3851039216225748,-0.2783200100355616,0.3066294744542998
-0.3510204378920444,2.989465998983706,1.3929086398758423,0.5639074083275576,1.1012229545375591,2.827085843749016,0.30565583903009186,2.6241822317444927,-0.3706877486775038,-0.17179679361343467
-1.2009348118402243,1.8722526174696545,1.3647999594719868,0.7395136399699809,2.1630192097163996,1.1922132200231816,0.3322731481830124,1.313268843209611,-0.4222650806534502,0.1980020488761913
0.23545986131227276,-0.5138616913216953,0.2984142926712292,-1.1899249613948908,0.835038351473113,-0.14814457459869323,0.6307403102903,0.08018348156122385,0.33054972065431537,-0.06402545220518027
-0.7117932130829888,1.3676443007002148,-0.5839364408024255,0.37086372421769037,-1.0918581091649,1.62817863927904,0.18196249854464702,2.4581298733442387,-0.32445040571104455,0.07423918274430633
-0.6412941326824487,0.2845525025633191,0.5819693664664258,0.29275780358537634,0.3347407232651784,-0.7142418226379615,0.5028140200777844,1.6467692351665693,-0.2373951114009344,0.042446278801148575
0.7202967236812081,2.3023904979067864,-0.32278947061169583,-0.22528772378418416,-1.1911698345155135,1.019814948852502,0.24242292370044283,0.3290095432373298,0.7114722290999937,-0.08436957722214757
0.21093518092618374,2.915026397117272,-0.48389115195631305,-0.15884060130219327,-0.21790716957631934,1.2053837497223956,0.1987757765156542,-1.2929330310514564,-0.2047947096202925,-0.14596812437886653
0.37693373843236433,2.7317153087546298,-0.5723446349301716,-0.122652090661581,-0.6789953238926107,2.7657196587412924,0.4312320440743782,0.4836577966027059,0.26712284732568203,-0.13728060146650248
-0.39821349921607313,0.3727366141042898,2.2707717024330973,-0.25781749613721505,2.3582444529913547,1.157377478489552,-0.01246938213594026,2.1802774456864897,-0.2557027171378611,0.184403174524171
0.07038053267489174,1.0856150459920122,-0.9173778339116075,-0.23205862506727817,-1.1101242965832898,-1.8608093614886947,0.3109753384083235,1.7625917490048213,0.08239228962691257,-0.17820147685876817
0.23145113372270962,-0.8700594377078716,0.3926669681113073,0.4407938198926085,0.10411772456223828,1.5180194574304426,-0.6847783865241058,0.5271543564857779,0.27313269448152566,0.12260018588120078
-1.000385855304875,-0.4841081108706641,2.4504919111944754,1.0719767627162153,1.883949615542505,0.5674518676388476,-0.4424620353540042,0.6027007252124532,-0.8166518646793754,0.168032018330141
0.4508743870547735,-0.10529404462246506,0.15685664703217017,-0.532050024457045,0.6072334289477505,0.13075672087281065,0.0922474659017725,-0.8078161699130763,0.05434500955376889,-0.4997268589163151
-0.5141714588940068,0.375256372861017,1.590728398995564,1.2630627041225897,1.2986941410916355,-0.7231835641209244,0.07053985561645026,0.16099053399268382,-0.14611775993667658,0.3957156947145576
-1.1044877692231467,0.7034926271693374,2.722935429335183,0.7473549415821068,3.088061542305493,-0.7446473049823495,-0.14819678838307915,1.4420579557383468,-0.9721734080293606,0.5119745178427715
-1.2187390283797208,-0.17476540572552446,0.7889204475389533,0.7910612275042229,0.48570989538554366,-0.7723442115955953,0.17458601165356483,3.004578159066886,-0.5243749173014536,0.49457433529751726
-1.449805334708985,0.20955049482891042,1.0280236230757875,0.8604005773592744,1.5440020947018087,0.6984078265188502,-0.4420204723323914,2.042082048262886,-1.100553101222941,0.5457601519756301
-1.962146219101686,0.5550321485102532,-0.5684499701851422,1.4642319549727112,-0.02764286974035124,-0.7458538362844622,0.7694160680025444,4.725520028785555,-0.5926706338982247,0.6805821639822734
-0.7166741036545607,3.1077589441758136,-0.9309291191780393,1.9452022258410673,0.6500777323005449,-1.293393503974605,0.3490127548554425,4.627027786108035,-1.0110010889491912,0.3298235882810489
-1.3193841899758922,2.8751776352676583,2.800813910128275,1.0486805025172163,1.8769105944097553,0.457203345447321,0.6763823562326693,2.3774633224418658,-0.7553029991788373,0.4555389975047678
-0.6835242690184979,0.307385697378034,1.4749461402798332,1.4510868893443196,2.138075517226717,-1.828557059116908,-0.2524387745681891,1.5533514847644248,-0.5110309571679498,0.5987030848458066
0.23093682171683377,-0.6173770004381398,-0.700395939358189,0.6512893755880496,0.32732894124740597,0.7205202181445729,-0.7681038159138707,0.6774417504248724,-0.6089548817607799,0.24259075057634577
-0.8731529219178114,1.3673072393647074,2.2436695201012364,-0.4916490198486408,1.7262963661536963,0.3886946442698745,0.11519161204057346,-0.06015952412313774,-0.2341532195831039,-0.004271720966887383
-0.14328048434271526,0.6633965436271045,0.6139286045588603,0.617613314243104,0.4851465120737038,0.5901996745307496,-0.9102577841894586,0.8886672133982896,-0.1800524461826401,-0.09098748608212874
0.6457239686955836,2.6410120663487375,1.7671774639448796,-0.2145165292963634,0.5644412662932409,3.3860219538513343,0.5929360231470285,-0.23615093404778426,-0.4979174101395108,-0.08722687462582691
0.3915951404228661,-0.7114654199283884,1.7989633107687415,0.20315398536896462,0.2744923754438022,1.090762400392976,-0.37984599982524425,0.012028113926151773,0.6541720997477671,-0.38514445385492674
-0.019007636550729918,1.2138860775008289,3.309469457123786,-0.16961868889258144,1.4968796955087975,-0.6991163386933625,0.060278275716477286,0.39410036583891356,-0.44625215187772965,0.03278100513441356
-0.2584086913777862,0.15187606255278574,1.2740913809941516,-0.17798014841296642,-0.24347079875044947,1.2395570085617658,-0.6106615503444912,-1.6123704392247888,-0.026929002447683488,-0.221977712320603
-0.8427039527780605,3.160064074801425,2.871240713088019,1.2678543456125908,1.4784317807052823,1.13709948924599,0.4523676982823261,1.4124434194193272,-0.5037770496536408,0.6059154570111276
-0.6575270155717688,-0.4509094319617668,-0.31666313167311677,0.8477157774830003,0.6859643973214455,-3.0221640209336225,-0.2564349249039307,3.965663374721849,-1.3706629409722575,0.8804325697965335
-0.856892412947043,-0.92673072580373,0.9066395329913988,0.5861498599614409,0.8193212381040349,-1.5792997620373046,0.29611049963376135,1.160125683915902,-0.09594069457618971,0.25769662469767435
-1.0389874389411957,0.5737768596043107,0.3827644433593689,0.5048527014729869,1.2851168524816752,0.6528874103645816,0.32067562865741905,1.9882525877230484,-0.48767746038134735,0.1235494219082616
-0.43640627227326223,0.1962266497882159,-0.5137652961183554,0.5354815321525555,0.2366975258301648,-3.1551918848811145,0.06044499796440597,-1.588077974475902,-0.5283030446605538,0.0022813257776607794
-1.1315801745949523,0.5925423027314631,2.717032033331171,0.32503691072848223,2.7460340853512024,1.8146757015952732,-0.9494245713964871,2.9311172057450907,-0.2809389377285258,0.42160402133191943
-1.1192992300435376,0.8589022036554974,-0.6216724718805772,0.7091142859437037,0.2522252396421897,1.4005623476092208,-0.42634450737314566,2.3192854425563447,-0.7344645669302372,0.3579272957722727
0.38054902017778847,1.821308455172069,0.23923039884025576,-0.42264659956200296,-0.18090072663940604,0.11202088930619317,0.5684639454562888,-1.7194716793141882,0.08184211563806572,0.09453164905249294
-2.081272912650567,2.702819497556749,1.8816613119806944,1.0672236360060177,2.095144070778103,-2.826051635031383,-0.3057011341999528,4.09270476501106,-0.8161050782857264,0.624635177001832
0.558288401608875,2.7510903508435827,0.4425921518476186,-0.377547175203644,0.2770559185493767,2.1094361656076437,1.4535514442334256,-1.9262061468125857,-0.10507623345837046,-0.32702870668300754
-1.4640995048613368,2.522266624007768,-0.5685694614078383,1.0819077185142438,-0.4455218541261641,-1.521162013259113,0.3554978885655303,2.7608217636501893,-0.5700455691125097,0.2388761403321979
0.5414027055869541,1.0601395609405797,-0.46203356431754694,-0.03943233926649974,-0.3623903459394783,-0.37511374589368707,0.42855469373717286,1.0259649671007152,0.15312966851767587,0.3551474103761078
0.1591426627517557,1.7636284046364024,3.3643193824665723,-0.39507420916725416,2.4727974851277947,-2.3244073022650595,0.9432381079471261,-0.9519518193929711,-0.20330491101954706,0.01993652816512369
-0.9402769351847602,1.8659168075659642,1.5305118222411065,1.1476571153183979,1.41003744738674,0.04017756223282079,0.39714239597307693,3.266005409206988,-0.6133390892265033,0.49574800209693504
-1.4169168528693914,-0.2902150538645556,0.5358067373251756,0.5535977679106302,1.2410142537139075,-0.8865696322155896,0.14547603693632516,0.770961193874629,0.46068830221743834,0.2691612985541132
-0.9086898686262314,-0.03930797613550863,3.3984907297468396,0.7904583023279897,2.4131035183084535,-0.1335620845078317,-0.6463169997843483,-0.30855247272206987,-0.8096135022929378,0.272380216186871
-0.4235309173080934,0.7510329594288712,2.295597299995964,-0.5772540684900906,1.4801687854175305,-1.3443591832979647,-0.2299900927083648,-0.3413856825545589,-0.16013194583768214,0.32799305009808927
0.6888234009950367,0.4617536922454444,1.616859759382463,0.11263613119490183,0.7438923070926462,-0.03156771044779527,0.3567595586686205,0.015467328927756596,0.034030184443303135,-0.2582263357989796
-1.2791631810514015,0.4323713771008302,1.661599821382611,1.0753714595736377,0.6961510286214796,-1.320541938341554,0.2906784894629797,4.568888424511024,-1.4368148226813071,0.4293854875510533
-0.12760098810061904,-0.09994677296769494,2.7594661512661323,-0.2767063407796518,1.4118060394899055,2.516390881211147,-0.23111813112511506,0.33422446262966454,0.5705629454108029,-0.07323384462877064
0.8080413619539032,3.0601286698589254,1.3357254955228854,0.34651508332439107,1.4273317020804095,0.4898453382979701,0.02543523470811937,-0.4573171089699297,-0.05903719625294198,-0.308683540529129
0.20667641633647096,1.7872588692736335,0.31000008341127483,-0.06140232282003302,1.5101338528320964,1.0907255575143098,-0.17293530497094686,1.358998102633619,-0.2475100720718331,-0.2550071598374746
-1.0953832751720833,1.8607025407316118,-0.02843574852825448,1.2845364615780466,1.1571490140935246,0.8450330156393036,-0.8718127715971832,4.260919733504176,-0.29847568287686127,0.3428270527550951
-1.2424703634287428,2.0151477791475987,1.2364043860704754,1.1354537983915414,1.22645624639678,2.256045178541055,0.04850491726974121,4.071689630786516,-0.21064137683655235,0.3558941314955967
0.378961526609837,0.05535083510633365,-0.624844026699896,-0.2919481657845044,-0.5353460816431654,-2.055715382458776,0.6260218571373244,-2.0676813006200514,0.4130213189514135,-0.24339281799956244
0.008897857586353003,3.2523290088110457,0.3710306884400525,0.7443511757261483,-0.06020771221309754,-3.24854852890961,0.24331964794718333,-0.7295984493960752,-0.35128103520459814,-0.1544960351237058
-0.4074485378487992,0.6497884049577924,2.626530449156416,0.5469858769331054,2.3185344909063534,0.602505004175015,-0.3508833043566726,-0.4757210746524356,-0.31075164891062745,0.24170258307034442
0.34092924786789447,-0.5551028731955558,3.269762742747302,-0.04479395621542902,1.7727574804180828,-1.278927561685486,-0.5185406345783625,2.0684554405374462,0.04996611396595643,0.47978788083543583
-1.5858470984092636,0.3954557602380493,-0.9357650270245839,1.3803718427368652,-0.44110961411837424,1.9094400414519825,-0.020303556960866997,3.2517669632860193,-0.7743013784762879,0.76722456452325
-1.3123695398009974,1.1768193842437538,-0.8281816637288912,1.027577241708872,0.7999398400193414,1.1042415200842173,0.5272871619713064,4.964532397287504,-1.4225046143474809,0.5898611115460993
-0.5509402035463045,1.7293434770425535,0.8601753836848016,0.175147030082719,1.2410543247197163,-1.0965035409442985,0.6510525708232686,1.934859904943027,-0.6265610374470157,0.23794385529276843
-0.8648627290085485,0.0904601640227396,-0.3613078072969038,0.7473685949974501,0.6035279904682384,-1.2042721058156072,-0.10683382054904916,1.570274125262016,-0.16508352317995717,0.0908260146143942
-0.5502373256659248,2.45751493449953,-0.7715479819102964,0.41179913175427857,-2.0088447425045235,-0.5453860763649204,-0.6222343264971657,1.2807030461789815,-0.7359847763062695,0.13211091444812964
0.304185117339562,0.057774497660666446,1.5810011226393805,1.4479513399497506,1.294018852959996,2.417618229589685,0.12521765940829532,1.582042107335767,-0.7946395809278446,0.2881543062402498
-0.6509271034322298,-0.24355713549858216,-0.29990798089613036,0.26463133818839824,1.0777595779708546,2.4869804438476617,-0.49135951647112086,2.6349404129197906,-0.7530844004212397,0.29199554910705267
-0.8466082032599224,-0.07561961934888561,3.286891239139477,1.547127594293641,3.2045308435640867,0.14368696783765234,-0.2526716369884907,3.978747714270673,-1.0024154237207201,0.6876516030363472
0.6111437955831998,-0.16533788046248166,1.6000410918754615,-0.6519704339375245,1.115130747367702,-2.7453052350620744,0.1445199260467681,-1.3073263702100637,0.1780516960739241,-0.11207198338442875
-0.8021889903804448,1.1741794004424397,0.9583682177375195,0.8979495921950668,0.8272922841874665,-0.07899120647334645,-0.03352964520797447,3.007576728889317,-0.5526571736092615,0.6044051772183067
0.1677995133350054,3.428167178628126,2.834813317874723,0.05576188991591468,1.486522540809924,1.0163030899425427,0.5233971557837998,1.2189987773406872,0.1411578641745947,0.12368267114627811
-1.950797319713423,3.148575334635594,-0.18371082150509288,2.098124068132741,1.9496819045203355,-0.5521150227776797,-0.10542118489496435,3.8583866029876392,-1.0889365967602567,0.33606685091699284
0.266757583201796,1.2934831843598347,0.7658079127305615,0.2538091179743347,0.7202082261237838,1.1852874298804972,0.6718971794411841,-0.14984543248185533,-0.2184097660807881,-0.016440809701489655
-0.8177963874161254,-0.108976082838799,0.601505777744584,0.7100999353632113,1.6246064787144885,0.7284212818884627,0.6444769140775738,2.906690324317916,-0.9216791159210741,0.42912276388498183
-0.21335636073644942,1.5478823923313008,1.5985701993381292,1.0504547032444946,1.5585527522674207,-1.1345935095126718,-0.714108983020342,3.508874872285354,-0.3348090256243639,0.7886277074860117
0.6199895344817135,1.3491619583964445,1.9793603461448792,0.7648161365013322,2.3525578834580854,-4.573567718159428,0.39354611643948195,0.9489984501232007,-0.35986648937814003,0.636867308215459
-0.6880554777898746,2.3611240363564336,1.8328374712514401,0.6916476564089986,1.0046232385360123,0.3217615661594503,-0.7740280691652784,1.9300311555782625,-0.06643815375900317,0.1400908501686805
-1.8178356828200573,1.118586534388751,3.2551762474783086,1.3854157446048918,2.6908099442042643,-1.8926625837351383,-0.48532979987917774,4.784399958735819,-0.7770414586091794,0.5530868309391757
-0.7229379384754351,-0.2021578269797899,-0.28928670178725724,0.7037033391674627,0.8639654169012984,-1.6252687556693384,-0.7034429840501607,2.7547763348981196,-0.5098978549971983,0.533471742774803
-0.07414167119072138,3.3156712485495445,2.1780432776707723,0.1668413773147612,1.3917223490317032,0.6745125755911754,-0.11051275382428143,0.1974125355899796,-0.6419058220819035,0.06445275778511123
-0.7626352551538101,-0.1644699488082636,1.2058226995470953,-0.11429857627454758,1.2160225613928302,1.0758760959037938,0.6801109875200393,0.29921303122095866,-0.016229888127349604,0.10162559492481116
0.01580603911650299,3.1140493663630266,1.6798419703722303,0.3138271773167799,1.7107702887506495,1.1535804791922075,0.5482798375605741,-0.13038374686410226,-0.18623642256449327,0.026552379512208308
-1.1106672102313324,-0.1646289928844752,0.6086103640140872,1.4024631481516059,0.7024414018169978,-1.0019943787413064,0.13128158176841703,2.9807122112796316,-1.2204306040799988,0.3397970779112598
-0.402510749792922,1.1104025452951802,2.1209940773976657,1.3294857550084425,0.44937051935666866,-2.055277756689109,0.024069112210886125,2.559224775685358,-0.20703078648419942,0.4831386293096287
-0.6433814734833389,-0.10458314594457319,0.7492322332929735,-0.0381598494176145,1.0632250288809693,-0.7764252433313088,-0.2245401957767092,2.2513518913426416,0.06483383545253955,0.09733438250943101
-1.342472386921341,1.7720774247074553,1.1446701274075144,0.9467328000910005,2.1127065550569863,1.4750324232104495,-0.3392886641657901,3.1173374046260003,-0.6597038939681379,0.6617273995115892
-0.20029562550064595,0.12859409833362245,0.020989734224667433,0.46647517788274107,0.3779448646868218,-2.3641979271632008,-0.45657402445716805,1.0648094624132396,0.03478487540552299,0.07071053269593142
-1.5475078788587726,0.5664593481991687,2.760326714312147,1.4611084383638417,2.631318642992379,-3.1024801737913816,0.36283661209624507,3.469804076331296,-1.2032931285748754,0.823562257812003
-0.6224495494756438,0.06407448992486842,1.2813779992011103,-0.21382666921717117,1.7767400328801632,-0.9478493039779301,-0.31251567325815344,2.2369350837164075,-0.9796808533786213,0.38141320521686073
-0.021099554744127346,2.4602423972920606,0.8853361484317197,-0.25762392342172574,0.6679113927084752,2.8250064527312055,0.6098641719974022,0.45548562992489333,-0.3228831205911246,-0.024798656505460908
-0.9576135640586915,0.8140914055632915,2.8898616741251395,0.8569261597880353,2.1495986160463074,0.16714078070617983,-0.3784826870989266,1.778429145394416,-0.6589759052255261,0.3120245418879232
0.6193736804445275,0.8047946058149784,0.3773341005625199,-0.3883772647256589,0.8361406742907348,-0.3509585467652354,-0.06734978639520249,0.10835236458327924,0.5588265624582909,0.04670832574858011
-1.2510277714480025,0.24613559500857507,0.1425904722147986,0.959447979674056,0.8892995090523201,-0.870228474330144,0.3957048784403323,2.6366357015600386,-0.8310844220412729,0.4492938355348405
-0.06744162164047622,-0.6226290271263552,1.3144045761659853,0.3942656392691101,0.7376993052723528,1.3806434217465016,0.37126570463498876,0.3815133065566782,-0.37012385421533167,-0.058647754319572934
