x1,x2,x3,x4,x5,y1,y2,y3,y4,y5
0.125161433035204,-0.47549147307553286,0.5316564049033398,0.23217242059484305,1.0810322309233578,2.9592641941671047,0.1270318605584236,-0.7462410781871692,-0.04365766757235312,0.12191447744600234
0.03158914467332432,-0.20955002621265761,0.6098124787967233,0.400884484895702,1.8247077091847759,1.5401098514325624,0.1434643625946619,-0.3700282260917267,-1.1337780004646887,-0.5501621163985744
-0.0818748582803796,0.2625694873079053,0.0985304406950214,0.08417295130959952,1.2552890933086092,-0.08089289284351742,-0.07703327131433742,-1.13423677021829,-0.3681111272711424,0.03660667268530169
0.04186693965279275,-0.16481914975886464,0.4064527997255877,0.08767015531401519,0.5712131933926061,1.014140603715307,-0.0612569226129,0.6361503113415101,0.22801604538778045,0.06953608895413438
0.06331736364787267,-1.1143678722175294,-0.4775546652213044,-0.10779848059715542,2.290075084558628,-0.2483085622597463,-0.02451740343876797,-2.9783476030490155,-0.10213342206378694,-0.5921971808240293
-0.11725368954095035,0.0889229232699493,0.165829656162139,-0.07966938826941732,0.8165702002093631,0.7830151009051969,0.014493858097196964,-0.8750337509654902,-0.5523476631200908,-0.43790633005677654
-0.06344421628967319,-0.43398542347746305,0.7100774472373718,0.17433685101022625,0.4295589488605529,3.7390325428011573,0.09149131254030793,-0.6178420195101826,1.4368168112716304,-0.24025172950438972
0.14174294901233703,-0.15907487281253369,0.6329463591587082,0.41659491827661127,2.6931954049788285,1.9913064809510777,0.23009221820629677,-0.41844843607736876,-0.0765394370430886,-0.10284345183303677
-0.10297635633114423,-0.19693481579521377,-0.05227488732190624,0.07494774759771686,2.639740614208109,3.4435588785113773,0.2134296069250861,-0.903155713806026,-0.6385025399978204,-0.46691136629223945
0.05823437019438244,-0.5435721434293899,0.09675342867422829,0.09030805355363172,2.3156495406386943,-0.18286803611022973,-0.0905675721467345,0.7795737220723848,-0.55404789781544,-0.23529948648508833
-0.2315262126149357,0.43253705357309263,0.806834013490549,0.18919248443914755,-0.6596062647605347,3.6064638059200558,0.20245968704988995,-0.37366818376557004,-0.11869001039284291,-0.23831957173637494
-0.09778947668095046,-0.23989540562925055,0.7449170776600044,0.24497660190171155,-0.2794189782233133,3.3974812927310998,0.2736514895590719,1.1856523985528327,-0.2315710583707374,-0.07556018198896895
-0.33019423623233707,-1.6369940717871418,0.31035295709202204,0.13165562956640914,2.6621326426021943,1.1720961606553597,0.01196091533063918,-2.778061930191915,-1.2798624138722707,-0.2312959098116216
-0.05279914590295544,0.03493684382932463,1.1261859504562397,0.3420791746225292,-0.8307237042672532,2.3674034620079776,0.18827541098855397,0.26328899474084805,0.4416202300803156,-0.12260208387071254
-0.15755046994599406,-1.3970402180957704,0.3327613047409062,0.0015345243057478769,0.6883117031837884,-1.8419727126828211,0.04428201207857297,-1.2684693572493304,-0.759181278576642,0.1768960411708917
0.2893841767253867,1.4646507286257568,0.6711155098811201,0.3226120342593805,1.4017886601328673,3.7593886549321742,0.25068775093359985,-1.273409839392261,0.01475517976132203,0.2599851379849281
-0.11156652316768646,-0.6835981180609214,0.7003478930720143,0.18301965899446168,-0.4424734446692159,0.7089154815214725,0.06432279897953712,0.0036572390715974845,-0.8173277733641265,-0.10982754198619249
0.04322969292168252,0.6620774436705872,0.21204365701591177,0.17935892033717465,0.2297361344103679,3.6864301113071196,0.23135159722407345,0.5312110378835733,-0.5627211135828877,0.029474298027159798
-0.02425466544414505,0.08528194090034595,0.19476215227471064,0.025240150466555273,3.2839410878692803,0.6133640220811141,0.032706027000008756,-0.02586505354181501,0.19904897961532927,-0.20645162641366488
0.015959160746408872,0.2922204399296427,0.8004284060649328,0.32729415504208537,0.35831156339325876,4.643039425713835,0.3094369969066573,-0.15748712824857952,0.25952156226529716,-0.01518194490274734
-0.042930873104206645,-0.5605619831260729,-0.09519791614616041,-0.066575865100739,-0.8159283706544601,1.0207600834958659,-0.06137587213869709,1.1868857112887758,-0.2805724678795192,-0.21260659450870406
-0.023269797874396956,-1.4106178753404996,-0.13976130623611968,-0.10870694456523677,2.1570700144821258,0.2573603546110441,-0.037311875493851614,-1.753685504577332,0.05201054168313406,-0.5461819109742247
0.10452899250892786,-1.3103462397419774,0.5420902513154673,0.08902504742276533,3.2629408716443065,1.4703195831697569,0.07626724603004913,-2.39460247457068,-1.4294062652180783,-0.3942064089591941
-0.20741510226880774,0.10113454531002011,0.6649397980612622,0.37229492804338066,2.0658621991400206,0.699084422185519,0.09860151602358537,-2.4271616176787374,-0.5306365934535351,-0.07265861266041282
0.01363405276487852,-0.06117192478447207,0.607196938233441,0.4242554083554576,-0.23965329896864362,3.211741242687701,0.20569960793980968,-0.3213022108213368,0.10683557050577373,0.4828428563925316
0.17809043738064306,-0.9162448584871421,-0.019697792345288796,0.13244769379782603,0.9089833189600551,-0.48055164602097933,0.18761915010266253,-1.814242640687135,-0.0312876357563415,-0.19867354460563483
0.04502463349649259,-0.5541503155136899,0.16451940657323896,0.02465629903445068,0.7953741183164202,2.2123059093840443,0.1323139480668696,-1.0666314300417299,-0.36941648304558233,-0.16061559024996966
0.0734919487276172,0.0011754623722205967,0.09824737761002546,0.0800597064704955,-0.7519994339553339,-3.2709453477669657,-0.007550531425196699,0.49346724108364237,1.2151477256934562,-0.1424610765066014
0.04531201172341362,-1.4072950491155471,0.023974429308194954,-0.05499077034313382,3.2595899106583497,1.9470808002971416,0.11443403151980144,-1.3691645242134527,-0.959714225076246,-0.4999519976132706
0.022032555962538634,-0.4489173852026907,0.5566414808507977,0.22342693525444335,0.9353248546448221,2.1364857317110673,0.058732959912467644,0.7743977223779726,-0.20672253495698031,-0.1303770152615731
0.13567968305606457,0.6742716479366254,1.0241237777537786,0.3333766689914805,0.7592942360745452,3.840947140079317,0.34975209969034743,-0.500986138999251,0.7019759935377958,-0.20019527853098967
-0.12325361830725516,-1.090420858522113,0.34691333007118036,-0.0021071678744816204,3.016770143826702,-0.3103824848834392,0.1286189145727386,-1.7645428571446478,-1.1804572014952444,-0.4237390302263865
0.3365205735713798,-0.7693836682631461,-0.055266797714325605,0.008003653220050706,2.5642727603157742,-0.8140439736886803,0.02891435220780935,-0.09221685389194212,-0.09964773892728139,-0.34177264144140795
0.20504075790210807,-0.6753935646226893,-0.047854379329681423,0.14312680025112479,3.2101824087706543,-1.208258249515793,-0.028207904061540407,-2.125993986111112,-0.8902989907043856,-0.4928809317239633
0.04824823886714772,-0.5234625083666427,0.7422326264733898,0.28247799050996253,-0.4677943651347939,1.6577896456207628,0.10401549425545381,0.7273580816566731,0.5964815344277243,-0.04612053896430601
-0.19512941384091623,-0.49266888937043485,0.6756681825529991,0.05376179198598432,-0.11304065189131329,1.7100171622876714,0.004317391986151177,-1.2003356681927244,-1.1910872090618279,-0.09423733592929652
0.20094447124965564,-1.265786937990254,0.025762622783055994,-0.04638587500024954,2.285179965287224,0.8952630994298654,0.11625362842993613,-1.1110008340883695,0.4730180750411257,-0.2255549282226216
0.014445740395175244,-0.22781772842695303,0.29510522507649717,0.2809580787915514,-0.08320490795850322,1.5874632565835105,0.1670123397578325,0.20786407339153182,-0.07841605950149057,0.037051902499374935
-0.1800002468390747,-0.10474589143594319,-0.07676748039002464,-0.04070522908214054,2.4089122060967503,0.2725814287823124,-0.015967818281332934,-2.484021842006265,-0.9727078094992556,-0.17477082929772236
0.017286511739390532,-1.1144463078865987,0.11371200935843033,0.07348517038261618,2.7584784164104765,-0.21373483693449302,0.03100320805787115,-1.2123216588612884,0.23220160921444571,-0.18417517853437154
0.029675614393193182,-0.6674502926127718,0.5527474464230396,0.2113238117672137,3.293768394305678,1.1644449358309643,0.11975490287790316,-1.373564463198913,-0.9788307210310838,-0.8262443215901805
0.3363787002410541,-0.04273550160480724,0.10353005980620211,-0.19700467687360498,-0.5871579316065094,0.29848940870537305,0.12168891744783246,0.29989116033059626,1.2084782957797235,-0.05224375897216891
-0.21267955357653792,1.135111557713631,0.6849151403005035,0.3941481279606831,0.12585894707401923,4.1757320924906285,0.19535008975227078,3.4354800373812644,0.10196197725668718,-0.16205297251787276
-0.026090294714068575,-0.19046938535074961,0.22757874504895415,0.03746340440309828,-0.5652361248187212,2.110351389205796,0.1769234690271303,1.6313157849045012,0.6187254510518669,0.05611524167687772
-0.07584644516543286,-0.3932496499575663,-0.5377145326399912,-0.11501374211992776,-0.050341572379597244,-0.9199415073499206,0.03738855437210521,-1.2133803308562312,-0.649724262454747,0.05057340265163849
0.12638966367785293,-1.5608119796679212,0.25783762747988576,0.09169389171705865,1.4778352547233453,1.9127507903040895,-0.00237325697291726,-0.3389916219096907,-1.0384489385649864,-0.3564938586899044
-0.006239584109863587,1.0349964596258792,-0.5599904220835976,-0.009328638360833525,-0.9462364046649289,-0.7304272490806889,-0.11341059534792389,0.4794071555709696,1.1140816206726214,0.8692266542161229
-0.0187184778167635,-0.6165301465199133,0.11720101180153901,0.04101234988685418,0.3089724969355727,0.28287724016773313,-0.08781403192345727,0.9922871894138078,-0.4068922235755393,-0.1821417361161995
0.01806093223289899,0.7138767721952465,-0.07656274324713097,0.07171157355816375,1.3640903754152065,0.17300002533601352,0.04256696471645592,-0.8764439006559593,-0.40102238030337745,-0.3179214015871989
0.16953520200177397,-0.12429473956389323,0.6464283450969436,0.32472811147220615,2.699963540787187,3.285644207477249,0.04363906732824051,-2.6942777836510574,-1.7889719527434091,-0.5445007263119289
-0.058479393945664856,0.24219798538598525,0.3264979966507112,0.130151277646794,-0.9930863256329611,3.4380867829744437,0.024202126735996348,0.07086721655307132,-0.7837342572002103,0.11517499125865933
-0.16085070748085623,0.1363196858820515,0.8588044882655775,0.2961087475925614,-0.0657937005947461,2.6107755482152086,0.10451241624261069,-1.1083017505774806,0.21203981110649806,-0.6558296614994401
-0.19606855461468345,-0.5598094309496905,-0.06597798752823868,-0.18709700764765827,3.234517470047569,-0.8540911883535518,-0.01771085886658723,-0.9518684501092866,-0.7718457551630563,-0.12607575177021388
0.0013595403698917117,0.20831171072388405,0.5031030812825829,0.2635011249051066,0.8966571488249764,2.108269722479464,0.12407980609021443,-2.589611653974559,-0.31721891627677173,0.11978501326370114
0.05476024909334601,0.40132119102079655,-0.12110401358398462,-0.11309627393875338,-0.3078166188855761,-1.4940731282108528,0.059811694829783914,1.148987188613264,-0.17139511841346758,-0.06326548808590257
0.16159382618052892,-1.267236824651623,0.4116019019031275,0.2774511512070686,2.413701216456094,1.1635670605008355,0.14009766951110786,-1.186432360219447,-0.5204182099305797,-0.47942987297280387
-0.03573815376369646,-0.22545935109017773,0.08734058335133878,0.13318820602215947,1.681011938554155,0.4661065026483537,0.16203249310546208,0.10574258271538028,-0.7177716495054661,-0.39728423921497014
0.2224051601875622,-0.5313645718487913,1.103119450285705,0.34470066643546754,-0.558004406073121,2.603147646134579,0.18036577802672882,-0.8789939956453597,-0.4249106608689086,0.27038382451190596
-0.05214013234193572,-1.0036611836728861,-0.21918389567556515,-0.10331939266964542,0.5868566905801353,0.03206923142664864,-0.032252119107497465,-1.4920738311925037,-0.3324880747006239,-0.11472290628468325
0.08465313709883751,-0.02486958428462205,0.41541591971720254,0.218159193570094,-0.11924337439082844,-0.3762134238663366,0.07232843398852885,-0.30039303007761226,-0.4177837100952375,0.3836428292750026
0.04944547721715587,-0.5504459794714638,0.1542086983395023,0.12058736247473083,0.8068212576885958,3.259170077529543,0.051063054669256445,0.759165303258718,-0.45542399775489295,-0.04590804822410457
0.22361190641916345,-0.35521686565084043,0.2641423363995063,0.2371553143559462,3.2739490216146816,1.5683389863818609,0.1164651442237857,0.1234890084918987,-0.35045167623920837,-0.15276591294244476
0.23906062059158334,0.11588087097096764,0.728304088797794,0.5405615812199247,1.9747176507897573,4.168137025281239,0.22418382583746838,-2.5828152520089196,-0.6871250288674501,-0.2536362596737381
0.04774173967604338,-0.7107783942079542,0.5152679326408145,0.26769671239223297,1.589159607560933,2.5620525226343056,0.1642170701516189,-0.5409193423811284,-0.23430290921194255,-0.07831777829489509
-0.04642656002736339,-1.6412361390911965,0.29758136759797654,0.12411656387027432,0.7424073544976417,-1.0659067640739848,-0.0458134325597154,-1.067033351663048,0.21015818728633834,-0.3002312333529755
0.025975998114601186,-0.058853644217516286,-0.15072458096343208,0.03059619405211201,-0.7498618736582336,1.4505227779122793,0.010528996359422825,0.6317840149063714,0.09957242654408369,0.07366150022877628
-0.1307788535733888,-1.4489375519625443,0.0025431968061351232,0.15759337420423372,3.3744437390200055,0.5261686614335995,0.05293831179845287,-0.9957743593901364,-0.5507707340721165,-0.42764529392768297
-0.008565328853134949,0.40384461748670336,0.08616646889624274,0.1454943301573158,-0.4403870060697984,1.8736703043399736,0.0833198878594385,-0.49318773740237565,-0.5979163311705209,0.013681724177010126
0.20061400556388226,0.6743626411697894,-0.3657004547123438,0.00829071108573406,-0.9556713789377952,-2.115074894810327,-0.110720847417328,1.1693408641424257,0.6652723206447224,0.009179004823593467
-0.19304692946569288,0.08847859616791515,0.02551047818374402,0.14905931337408726,2.576986171973699,0.33052185943782514,0.13526742920231583,0.07163105382441148,-0.2930001749424176,-0.20860462349084938
0.05053331744648944,-0.6258875953333235,0.4159497487201544,0.12368802923157408,1.6663776514159974,2.7565674888310987,0.08140517905479419,-1.4300337564910488,-0.4681350369554771,-0.0669673697910989
0.03604951509593414,-0.6713253295668702,0.5214419620196735,0.43584520904559443,-0.7618005899140111,1.2369170051868899,0.18012045414796862,1.8243011684614632,0.1623584621635132,0.19529903580708383
0.17447262799951527,-0.9504810437170909,0.09293775187909144,-0.004867287010615151,2.2725298858298704,-0.8636173503479463,0.05205658044804241,-1.154540884294482,-0.45816241653244605,-0.6835061209843107
-0.16457576993387124,0.29188563998385364,0.7091482445206385,-0.008588025420418192,-0.07789316726299822,0.7757793557331254,0.15248189979762422,-0.6283388724568884,0.5792127047492944,0.018282778698890313
0.04703659082364085,0.5232883605611688,0.7589504138409288,0.3944613785910047,-0.7174389964800725,3.4112941020351206,0.2527877596017529,0.6503093367230798,0.0505755893958779,0.10524282860376423
0.12946774584247153,-0.9795525199991144,0.8336837594092027,0.3212976379036577,3.4518868307147237,1.3811689700443222,0.2148766979530897,0.4986568246750249,-2.0042076595382827,-0.3246064710965069
0.35081895570427235,0.549874319469632,0.9275573528863462,0.46644746281236493,0.08196110000094525,2.7716088276884876,0.15746943220604112,-0.6827319731926557,0.3152334785968574,-0.30659475296744865
-0.269131944728321,-0.46936492136126573,0.4871280347397832,0.1623290746810311,1.9096350527570003,0.9208495597615964,-0.07778693483689601,-0.15655804673519935,-1.6115442088305443,0.05111221054996833
0.02982528541724364,0.399897463252766,0.6290727039202739,0.2981425615471354,0.6477025039939515,4.371686959861028,0.20205184158216552,-1.2650193236572964,1.4748059935085849,-0.23225693149619459
0.14475597383800823,-1.093168511434069,0.140437317139504,-0.0069577389695972556,2.391162894466262,1.500393765705033,-0.07943544728613233,-1.566328937088886,-0.7546786552103025,-0.38683588906658223
-0.04862495612241357,-0.5206324498387842,-0.3285675647456213,-0.057706561038352484,1.988916392176995,-1.76476213050579,0.07809295668652687,0.6817361417785727,-0.7195204283377179,-0.2236255452860134
0.097290056474425,0.1464361260272725,0.0823549981985323,-0.06930996027346165,0.9912483555000959,-1.596088939949882,-0.07328983170962393,-1.3455358355674882,-0.3148832651081298,-0.32140412360130916
0.11007803681787855,-1.1073890026760465,0.00316971511260247,0.1625392086511136,0.5472538035198176,-0.1306541155410148,0.13471526364283365,-2.2694697721091943,-1.7458759072938101,-0.7283265620858196
-0.07576871427503737,-0.8005477736406863,0.28756732354071135,0.19488677368074536,1.1534649745374312,2.1204697286008773,0.1021210814919754,1.3211958275944298,-0.5395499452668727,0.0743610571044697
0.06356709158121623,1.4126804924661471,0.48346970311112314,0.04104994285870445,-0.1959570355490382,0.24168857386565623,-0.005668480420757244,0.9216861006701367,0.5337730615242954,0.27539367125077063
0.024782872416256884,-0.04681150934126488,0.0568375038758817,0.14865234335816815,0.6315499981579273,2.0570557939263683,0.09772635766076405,1.490198085587099,-0.8645316980603537,0.4512009671833936
0.24522309324029512,-0.7398589004465351,0.36815710527744816,-0.09217629879505236,3.091540200075692,-1.2518146011333475,0.02907117476380806,-1.4311221859618823,0.2402944335848285,-0.5297934068693636
0.06636326452081116,-1.0881570055700736,0.3649825367560136,0.19371855277038538,1.8329079569836981,1.0176213812020094,0.15855124134594537,-0.36104209345860294,-0.48862523250960377,-0.3458837830060998
-0.07884932766127058,0.5060352240615963,-0.2603089883959281,-0.05134970284006424,1.54709890612075,1.2515115503164846,-0.027599124688076338,0.9129630919602916,-0.004789607983594645,-0.31413538276459807
-0.005406704669882236,1.103772838885503,0.08628928738338759,0.3464564690026153,0.2571220738544848,2.907647478077707,0.17373400926270113,-1.475724353457531,-0.4998025193430538,-0.14699030551349235
-0.13677940886182194,0.08274431011134858,0.941105825912351,0.3330123702756446,2.3585602718368945,1.0662612566050356,0.14356768766349642,-1.563240177838055,-0.55053498251062,0.19704201795799692
0.2907791028679027,-0.5141522219553737,-0.012470900367329191,0.20787513445674013,-0.2115970413833802,2.442022466777341,0.1256021874080793,-1.0378999568876621,0.23213353317319893,-0.2395540593826956
-0.017451287723978724,-0.1692303528614257,0.7444865305369721,0.17751113823208853,-0.028786513237682443,2.1945431363320496,0.12905046196770933,-1.5168324901133239,-0.055070146885720525,0.15041085416739547
-0.1619032630337256,-0.17913587209035003,-0.08028458575202496,0.2662123905772483,0.8108880984814697,1.0771991994985186,0.056150493580812595,-1.5950338100546202,-0.32109221864621224,-0.08372749428154685
0.07845494141694019,-0.6245791177577182,-0.3468795248368164,0.10660937077860157,0.9461783271829758,-0.40012029296821494,0.0729610781592455,1.1609547066424473,-0.3433644067206622,0.006804712430409607
0.1490759548647708,-0.006434467320670899,0.8956534916048663,0.39762107491714377,1.668704425215255,3.9602029633522067,0.12576808975838025,-1.204380712031561,-0.11272940190086635,-0.10509366603697794
0.11942908640843765,-1.7294946965057056,-0.11525949813546069,0.02133516378815322,3.2016166295694823,0.6281744123576136,0.059665072976202486,-2.4442198038256167,-0.8544375036755991,-0.6395355054647094
-0.13939706988440365,0.9296295461171686,0.2674843454848642,0.003169122719770221,-0.39705782726902106,-0.43112149305038416,-0.08713734005884778,-1.0255130071837684,-0.07565236754409745,-0.4563617030416732
0.04614345863269447,0.9749214683445708,0.4579371469100389,0.1482400974677358,1.3586113825183483,1.5941073555053078,0.10911551343815684,-1.9905960970633192,-0.5804080858683082,-0.24789830655575004
0.06961152972266543,-1.4661224790722378,0.2426477867009528,0.4798632665771121,1.232873487323495,3.8926053402456917,0.24681189334727938,-0.6741272128504707,-0.5423862367324326,-0.1956455163537197
-0.13480272569689689,-0.38842487179223306,0.29804456138288926,0.2803027160633729,1.6971118100774114,1.5872690102160518,0.10443851032261373,-0.044148489210069974,-0.7317504136516793,-0.48772935093628017
-0.024785954670986265,-0.04987897798203758,1.0462587129439582,0.218760553869784,0.19783134347227316,3.108375681510371,0.32532181556301465,1.2799763796764432,-0.0714661639969886,0.3268123163373386
-0.41792762932768734,-0.045122307527238226,0.21259883953944278,0.09331602299410284,0.15120362994845937,2.8515900186153464,0.11691778486716348,-1.078735912520979,0.22185150852984142,0.09355498575229299
-0.24371221836196214,1.023587140501888,0.39889543046396353,0.16963489609010296,-0.36016966925354943,2.584129321414162,0.023084226606643627,-0.24342857384699088,0.06110288730683304,0.2550896244447502
-0.2906599224785629,-0.6959675116379567,0.30811758754407853,0.09619203236355073,0.6580484839057419,2.8078648885744864,0.17821972744438505,-1.08257880774089,-0.6104380660585278,-0.43624749015990033
-0.17492665773700866,-0.4254040567031952,0.6773475319468938,0.032528458070571704,3.3030433652831146,0.5500810131308259,0.1084692701781011,-0.8874591165372538,-0.7006091385497779,-0.03261407940079119
-0.0779504005616121,-1.6532194887749656,0.17612301283188322,-0.250428606575872,2.219664352139308,1.1013297806280082,0.04477569468048189,-1.0999234510326152,-0.16657076864192957,-0.26738816789321923
0.012797990332127966,-1.0299732930512069,0.800298615846981,0.4348857336186428,2.7742129072243604,2.5881886317842233,0.21743614247818424,-0.8832407526176832,-1.812732467394615,-0.26980492328586414
0.054010028023710355,0.17852625873255548,0.6243850349903531,0.4999516840106842,0.3816435265244973,2.039837135980093,0.2052512849185219,-0.48495915478321283,0.6155631568148628,0.06548325110544961
0.010680654951336474,-0.44743895920884147,0.25140322197558373,0.26588828435034606,-0.014776971705589448,1.9095928638033348,0.1439934273871861,0.30602609189349456,0.48366412841333645,0.26846930376138023
-0.02278585851240957,0.7711973914272311,-0.5188984155440217,-0.08433219030263295,-0.6694985272026309,0.2831971567784026,0.006708241343954395,-0.45823356161423323,-0.14587821339026613,0.32978228465569565
0.026938518037434002,0.14906889685799019,0.6466868672296304,0.2593073179073729,0.34959732693133794,1.8947226823175396,0.12258189518954239,-0.5936550686869342,0.26770766911931543,0.1440109739487773
0.09956808699898446,-1.7877241794216958,0.5677207959669028,0.24765475359201133,3.313339584972085,3.6889187426637946,0.1229335513991728,-3.1947961274626557,-1.71258080841721,-0.4499703191227403
0.03873103367436062,0.49427538958251716,1.0741376129595601,0.20769611399967966,-0.6976732142501816,3.4960305055733905,0.1763491539882737,1.8230445726821238,0.1891831057649073,-0.3861369518604425
0.05536148034773765,-0.7802277961661335,-0.20450027870959286,-0.017678685976941135,1.1823758281477406,-1.115696682445552,0.004789789770068902,1.1867103872923261,0.5383437276864462,0.16258903782759063
-0.0171105304739509,0.13511277579396086,0.28114901237430495,0.13351651671060905,-0.07962625844459659,-0.6574402658167049,-0.006199552569037449,1.5541961814748682,-0.4294281701805199,0.051323034412506054
-0.07305751985022475,-0.8223910587536245,0.3056250474794742,-0.06594002760036721,1.432380098029693,0.3199061925423218,-0.08089714023402728,-0.8216938297089114,-0.013974199743630882,0.007220704819240211
0.03918634021168471,0.8101168141297715,0.8202544118042008,-0.18333286076154254,0.343326125279348,1.5728134563655325,0.016851193352080577,-0.16898666867374523,0.5801903964586494,0.305194611271081
-0.16547222751585014,-0.7446540562048671,0.6822523848490658,0.4480367876209135,1.5448384630447052,1.64451724987652,0.09948879250185885,-3.185106233122865,-1.5468669320438357,-0.4753189413279457
-0.14516879262955373,-0.44877091319336815,0.629478889735399,0.12240231087789674,0.20765578353698055,0.5257312876701647,0.1499866200512189,-0.47743152694831004,-0.07789823808942714,-0.0669446925636995
-0.06368095257675319,-0.9036551428240261,0.6793268945659767,0.4267982946988176,2.804179662319147,1.965751990683355,0.06731906355349328,-0.8130930470439786,0.10340938393823607,-0.7176904325412091
-0.12042041474560299,-0.4066197208877118,-0.3769988394032344,-0.10501913527340165,2.9374080234161926,-0.8094241567204192,-0.09663431727264875,-2.1846606891578713,-0.24810630380284376,-0.4715008715627894
-0.1459682064693911,-1.4173599981909208,0.023123585866609668,0.0629217467862558,0.8501127125128638,1.1263896533914421,-0.023877074843833595,-0.8530921918602139,-1.1778822594400185,-0.11202636628980263
0.3013436961438079,-0.6240019905647584,0.2929071404311574,0.06594106142829315,2.806750777130315,2.134045983963917,0.11264478354737707,-0.918799749453177,-1.330264572382969,-0.0652290325690384
-0.06236509355724837,0.003526660791679098,0.40448247699086437,0.31311833325809046,2.6746921133610218,3.0182749830931037,0.07033346401140726,-0.5137090946990261,-0.8684998067105719,-0.20242154723217679
-0.052709149695261207,-1.543112907015172,-0.19126394122458817,-0.13534869599368715,2.24472804343884,-0.5115927794986243,0.006145545493771996,-0.5166989743084688,-0.3818993725674454,-0.33487957245826566
0.12895722681259816,0.6861375156743028,-0.08531622636751912,0.24799023726127908,2.1019097725714992,1.1096397525850326,-0.04560801680049182,0.4122328482027675,-0.779946476595737,-0.2433232012622225
0.0029420869598545544,-0.518837297048791,0.30956750530269805,0.055788346940674576,2.8843964359062193,1.944723574614412,0.08838524257091912,-3.679060931848368,-2.0934192071325164,-0.19530741978669547
0.06532138411047672,0.13525862237295533,0.41216631867554104,0.3622822403836983,2.483410516278712,2.545116504555993,0.18866059139603608,-1.5037640888523789,-0.48242043929121614,-0.5328740562412547
0.1736224052574419,0.087507093076027,0.28254289134116894,0.11789354758247597,0.1764223044494131,3.5674394795823074,0.24116499000545066,1.6642252453194135,0.007240463936392971,0.05928600086533429
-0.012341089279754355,-0.23605659760381917,-0.037946050652000775,-0.0062597738144788235,-0.7299917608409497,-0.5412664441421786,0.018134129345301755,-1.1681145115004572,-0.7381052431188263,0.01810867523234507
-0.011754840956937195,-0.04685929551916894,0.2352901481399877,0.07329650242291123,-0.04803489276186579,1.7192102948846528,0.0034356026823791864,1.787482736949849,-0.2236306784298155,0.02623991468880976
-0.002793993054076571,0.09716730313693034,0.17504666682771863,-0.11102576559797585,-0.4979027297946216,-0.06321210535570415,-0.005895901657697166,0.19226075172827484,0.3686762721929663,-0.03039742418942601
0.1407002739733749,-1.1539803980923367,0.5380731226782894,0.33996854583298775,3.4550690406344255,2.8813045999548352,0.0940631180894858,-2.7367709655502637,-1.1401781822673738,-0.12041601741902125
0.012415216517876686,-1.4106451852699318,-0.29558880272845606,0.20857242142800936,1.6638055712424258,-0.8811933233553758,-0.009838015206749883,-1.487231390533752,-0.7450466048038606,-0.3536094073321433
0.1642963731567386,0.13639762843184325,-0.042205821131586045,0.011233412379745485,-0.13313746439399765,1.0767400181517213,-0.006568877145607226,-0.32673813279325964,0.2760707761106096,-0.02547308024331686
0.07150599229835998,0.06562066401083075,0.0036354272417331275,-0.0619750653564417,0.5651755311216704,2.208754931805252,0.10842648428618078,-0.6187129924135717,0.6789406732194825,0.08661755090907836
-0.20630754931260514,-1.0268383988366294,0.2918376451268503,-0.030479491395063636,0.7772540691885317,-0.06103578987048208,0.10445496608203098,-0.4983043147520755,0.3324212384553051,0.14003591864794904
0.14905256403766395,0.9505327769660273,0.729998537914685,-0.043523695284564304,-0.22996232192188215,2.548318937779217,0.09607643868534659,0.4100280127058955,-0.12291178380098962,-0.2661363140119491
-0.08045014950061033,0.523102613327997,0.8481495936160868,0.1284284062169469,1.4281981473763987,1.9773688733069306,0.17478671203466745,1.180700272299352,-0.28669534547690007,0.10145187028939731
-0.03360248749908985,-0.8143563690501717,0.4173897840389722,0.2757703103657716,1.6008517191758367,1.582223029545012,0.12634545717158438,-1.0220892041706262,-0.49945687066080535,-0.2430410680414389
-0.2766624456952983,0.298295369730772,-0.024005688963242056,0.01378837515979863,1.5430296187554955,-0.8342527862716858,-0.031079109218699927,-1.4385380143329,-0.7152552204940685,-0.286196029361624
0.1555365838596153,-0.568496588267467,0.1769120433443247,0.20165154372349875,-0.2619862039808222,-0.34532053825358977,0.13656267536884162,0.3041463422351738,-0.31655468236170226,-0.45688185178445057
0.0359273014510457,-0.027866414249714387,0.5842334889701128,0.3543458900797662,-0.8415070036687173,2.6937642342927317,0.17786734696631087,0.3886103425844941,-0.12598222938238976,0.2591237859309721
0.2254300322836193,-1.6604177412668273,-0.13292969945948266,-0.1355091238459469,2.9087279181312424,0.3740958982882403,0.012826085565805006,-2.893189065199837,-0.29368857451741626,-0.4129888786488709
-0.044264609206057653,-0.7159403462976117,0.2626384350170327,0.31459322072161516,1.069789302945276,0.8047107556274609,0.04210667666088201,0.8167924258048546,-0.6574033445004661,-0.6399642585779163
-0.11486692888702067,0.09734873400750155,0.6752054072590284,0.25361246531026593,-0.5820450425762982,1.5399140923672394,0.14709401575436234,0.761332929138146,-0.9223004003301011,-0.33800524304643625
-0.11551284875983646,-0.3663222951675692,0.5685735676223974,0.39315291344839876,0.9007761027095544,1.3800432930398328,0.054733492312932217,-1.4857872060841761,-0.7150454698432571,0.006718543180875647
-0.2916587555783367,-0.2949591913669126,-0.017726006864307926,0.1613990564884799,1.3743395664953244,1.5413087029508064,0.05557182237911639,0.4728943643771908,0.004852621144926546,-0.357698546786864
-0.10490347252585262,-0.5357725431203346,0.07970095322367521,0.18438522611559616,-0.2765338261157321,2.1160740426049367,0.2053309114101326,0.6155742467714461,-0.45381550548939464,0.003693722538789415
0.11414054524482196,-1.088081057512081,0.3475976952960752,0.2501078249603034,2.8023868187879453,-0.29873289900161226,-0.09505133431057029,-0.620380110873288,0.6061668529448442,-0.0344393843608192
0.22887549977482913,-0.4821800752090179,0.1991250882832872,0.06286561631733095,2.304123685129812,-1.404299576815713,0.0643430470820612,-2.3574488290017555,-0.8695182758076448,-0.18960597795661327
-0.17011604360549598,-0.684761380940144,0.35637675469535307,0.06499325147493078,2.4749373741913123,1.779108431130806,0.12192734686207815,0.6580032160166585,-0.4973026418689086,-0.313755499590982
0.030461766678935537,0.3217010557405723,0.5497083429817993,0.13682969250532875,-0.034338772922312244,-0.12670521682248137,0.09262955206493133,-2.0769077396494766,-0.64372830460074,-0.42391695577607047
0.13582464765114738,-0.6962037457771743,0.509325183184605,0.19914692017985017,1.5292651580004462,2.4616630548705962,0.16486816365659995,-1.2212079586529974,-0.2868949759296922,-0.14975971482126638
-0.15495289827099668,0.11986526565147931,-0.254029414765486,-0.08945124611811851,0.7749055377379579,-0.42868673275374625,-0.06710806130825356,-2.0702979907854555,-0.23163312329104271,0.09488195930916535
-0.013677084341640264,-0.40333614851598876,0.4924041513554221,0.10212468426019476,1.4395440933128416,1.35106020188757,0.06649463563928626,-0.8056884869360651,-0.8312310024848188,-0.2259082144507235
0.17899311683997915,-1.2140245365234679,0.48346333576274736,0.3094676203396253,3.1940666086073994,5.018140408850923,0.18088169628942077,-3.806971268136664,-0.6619386446685408,0.09294321240452466
-0.1474512615543593,-1.0553630068271695,0.6410631275279521,0.25430249874788924,0.061111290741424185,1.9609769967385344,0.14167183594033242,0.07132865076798901,-0.23456235552753066,-0.262885542317756
0.14814169097528007,-0.5390659876849344,0.4855442532493164,0.3295882929245231,1.2710566659083358,4.782846266808144,0.23874834634821898,-0.7500628117440009,-1.0560753049502118,-0.12034970561599102
0.0004048637431118368,-1.8900361029538624,1.0998005413081433,0.46551156381048703,1.8799805713722035,3.8179732398344752,0.2789478927913622,-4.098145338421402,-2.56617008722636,-0.5033293710700699
0.13653777381589444,-0.3929527521310057,-0.1742836352197235,-0.010645234543713732,2.647822852103317,-1.1835037152118835,-0.043679398987796575,-0.9701195403445839,-0.4772624837077835,-0.1283934183793833
0.12079808053731202,-0.6109475774040195,-0.0991371439410439,-0.039074952010715126,2.1024115684557243,-0.08319938527394255,-0.006802344615564357,-2.1075373734376424,-0.5930508944495895,-0.32855981221282365
0.12126292212743117,0.3174509674250032,0.24735250392130823,0.0084099487997948,-0.28643833000628827,-1.004305039336024,0.016996818119472783,0.44157397362192197,0.885919933232822,-0.04151611438155203
-0.32779421913644946,0.339846641845307,-0.2032596328745076,-0.02049589543381892,3.0663733842699035,-1.0980228566315988,-0.14134306747075492,1.0820680901185413,-0.1220099253115416,-0.4010374392867506
0.21877392498294904,0.41276624556461095,0.6063417908008869,0.3524831986043801,1.0737820667650633,3.056726779576321,0.16702507712427406,-0.26892617522935996,-1.0429522031553666,-0.1405694758684292
-0.08801509125842472,0.7643906296754192,-0.49447276260915835,-0.006239206917349783,0.08500593138009238,-0.4910382501880357,-0.050604876179708026,0.10052340270258096,-1.2507145789596852,0.2528938937842281
0.2749967218123862,-0.1343012994583921,-0.17717031380262976,-0.12282955863939946,3.4378948198331587,0.40234668674857066,-0.1209852724565905,-0.8062023342830096,-0.22527406185022528,-0.3879736322882469
0.32630984311944883,-0.848998499114683,0.269387482059601,0.20285698203574926,2.9906595867897896,0.2775699506677124,0.07344042976872078,-0.7221951949257632,-0.5320790180160181,-0.14394478868219407
0.131906389085165,-1.2240103119523469,-0.44606622770144494,0.09352711342713019,-0.6300586878339609,0.4195095162814986,-0.009767180652133311,0.08405141158743325,0.43965308844955775,0.14478034993430933
-0.08824244182298428,-0.30046040831731347,-0.3484475361569097,-0.03423556503251297,2.7837970059962287,0.15417022681345702,-0.054533140084913515,-2.9008663016319893,-0.10859938200565082,-0.1257460940389521
0.07193748003646264,-0.8958802588971807,0.7562793227049525,0.19057117705102133,1.2812308954465976,1.300949509101509,0.2581508406660034,-0.758481167178377,-0.4684732303293896,-0.0017698997922367626
-0.3165037921386043,-0.32297185454290694,-0.04255469494120474,0.03316472268612444,1.5429595251750254,0.6641466753571996,-0.014070517090813795,-1.0610858719434042,-0.3078501314484001,0.03697268449652531
0.34568187976620457,-0.46742621193877143,-0.09117237701404825,0.0636072561941893,2.445388730332429,0.7712043360558956,0.034558342718675715,0.047896270536065266,-0.9755567666467722,-0.4677875119299851
0.09203161345348423,1.1415507362261894,0.5575358857420565,0.13951146792848426,-0.22649563462213407,2.5693133595464706,0.2404210632204531,1.5401035355615467,-0.3129659341491051,-0.4182362739627068
0.022995859497681802,0.08891109465752023,0.5900906776573682,0.36105357483739536,0.5930739244973149,2.6674194899228856,0.21241368069348607,-0.19845705330448488,0.8066228583721851,0.30664448390408744
-0.10555515496133996,-0.31700728492694924,-0.16783096314442975,-0.1983125672002269,2.1078574589296073,-0.20661308928805722,-0.03780901519744911,-1.3987973132613958,-1.463088389936728,-0.3799553384012014
0.10132649272439997,0.023319525641345706,0.7227251301123411,0.1182387839382097,-0.08421523329218283,2.1992304787399295,0.08026545370564742,-0.1068183998199276,0.33430353277514857,0.22868738359822513
0.11925720772603021,-0.7108879495625627,0.5236842221657466,0.2321874043219676,3.2177128848413634,1.9149437508584584,0.13091104296011682,-0.9387779756357773,-0.406959648946862,-0.3843562744137833
-0.12818322050081932,-0.6436263589898394,0.9068103685107399,0.1789962726151337,0.0801640835773485,3.912618824090839,0.11868740628844658,-0.7887785876548601,-0.9065534353438072,-0.2870361829994671
0.3522729140787375,-0.15923014494848625,0.113021795401163,-0.0655119527150357,0.017788827101885785,-0.014365035554713149,0.06891961283501488,2.4466571375728705,0.5568169418022209,0.17463396628462552
0.040102823128089896,0.06755980787084491,0.276749817437375,-0.08617488414609409,2.923229186089373,0.46240182645839534,-0.017011851682204336,-0.2271243136743608,-0.4443831963571349,-0.18874914617696956
0.03549395003808432,0.32923662906019985,0.4696828782247385,0.32355998616843384,2.325687316917085,1.7130838055329,0.32207396748415396,-0.4856067962895964,0.627035764919507,-0.08847565747109858
0.0889763601961261,-0.22904907005109854,0.7712038543846427,0.26301030718306706,3.392384783189339,3.1532097879795904,0.1413427711380032,-2.0179344612530064,-0.8242849381356657,-0.5763074665653815
0.16785441326802875,-0.032136618875499026,0.7247787785889949,0.15132306830534853,0.36222826554206233,1.1037862986811613,0.13618508109525906,1.5326335041054533,-0.05867656255880611,0.14897035331869296
-0.2824696704292073,-0.09512385115506455,0.02870912264048641,-0.0029768660923386353,3.131308743765958,-0.3423797510507195,-0.03555709015138185,-2.6723997454308943,-0.4746471518244032,-0.11298946703021162
-0.1256115643927922,-0.2759794219087524,-0.3342920329048932,-0.05211562021714599,-0.27957879620078874,-0.16526802675632873,0.06298119916049856,-1.1124459767877317,-0.4737560205468811,-0.14114689192576704
0.08139610301824603,-0.5361683892360807,0.4538209689009751,0.22684956106832668,1.0482499120271993,3.884615424928784,0.04186854549645152,0.8630612046265661,-0.5294798607509575,0.004254986792840888
0.17555249571003317,0.3475873824109572,0.4184741328430658,0.48157636663934444,0.10575973396857141,2.8876874007818896,0.1530544582952283,0.734760305137562,0.9709518972519341,0.1399738371774617
0.062404046408740366,-0.43479104269209756,0.24636944533841307,-0.07277592653862154,2.589640960543502,1.2924127413113282,0.0074398979613693305,0.2541526169312631,-1.2943552042422153,-0.5941629895979719
0.24945679458300601,-0.16127608538029814,0.3114487876438598,-0.10204130177187615,1.905766238917316,0.2723701614295938,-0.019916804031707397,1.1913705981541558,-0.3305552116097549,-0.15205951631397016
-0.08133833839606049,-1.2016525511748175,0.6715916282286527,0.2588340523661545,3.0298652735080918,2.3300765398464014,0.11966123670384961,-1.680417389804572,-0.9470541461997475,-0.3101670435449883
-0.06893980228006388,-0.378719742514505,1.1161382392394292,0.16111414074640343,2.0557726202514575,2.287120208083924,0.21116363493946969,-1.966904564352581,-0.9759571766675825,-0.13150924548223444
0.017749625247300744,0.28141158548465134,0.23283404240122826,0.19139161186866943,2.677073335215732,3.3683722561096383,0.16541125094509615,-1.3058922533854078,-0.950812328086934,-0.22108224631304793
0.024904821502968178,-0.2525843536060869,0.7127147742253789,0.3093024464629386,0.14104157334381462,2.482907767484529,0.11660316394049429,-1.5319082594750377,-0.05207323002979153,0.11252574613531703
-0.20377377692065862,-1.036899621793435,-0.03755170826159096,-0.15901553116060885,3.0600480601674827,0.038832834671385985,-0.030029333780734715,-2.381787583919354,0.028616143616011037,0.14507738418443392
0.04953687411876275,-0.3872745805054111,0.07573551082075619,0.12792420087319584,0.21746872036578035,0.23940144640232697,-0.01978800709788269,0.4674499901304948,0.1292496171492119,0.05335877331177934
-0.23504051881235713,-0.46561103416387056,-0.20265287129339463,0.0074522383218999224,1.0700896230519974,0.3132945923632606,-0.034222587755051895,-1.2498309054129315,-0.10439357161083615,0.10512463652169202
-0.03489651215087365,-0.37140257118444114,0.32180375793911054,0.03208735348398538,-0.09523244363593453,-0.07666923744641463,0.1462140717009446,-1.5329810639754617,0.0054014779688055636,-0.012226939476115002
0.03630038085266879,-0.8920017486964895,0.34563939843687513,-0.1298139911825448,2.3970265731231817,0.43191296393076967,0.0570669689713758,-0.9757632538821319,-0.9340253878795484,-0.46139283456049485
0.03403763090936438,-0.63945436049738,0.0017674890967110995,-0.05215559954834816,1.6672682956680287,-0.7689722893967808,0.000389285976411546,-1.7297227170970133,-0.19529114098255443,-0.07279987948923991
-0.027513957744174,-0.6245733968705965,-0.019612741795792827,0.036764813470623936,1.9467473034766738,0.6237125857764817,0.09751369787652465,-1.5696687548716577,-0.5323563557860315,0.08733291895793877
0.0905391640065977,-1.4066420333901744,0.09067828611162598,0.2105219059299243,2.2205969373708063,0.838412408323495,0.03036678281286966,-0.9687063687861476,-0.9091870263333071,-0.3255061632301786
0.0494401330572817,0.10528619945806,0.4377504109246297,0.3285228349233733,-0.24313426578955422,-0.5192606342373358,0.10178442147330227,-0.08327689375993375,-0.10228433133968313,-0.09885751983523751
-0.0026832846340416766,-0.5841936095254707,-0.04898221747314524,0.042665693986319725,1.7761216713583754,-0.02652557502349273,0.11057663795017719,-0.8274958962181774,-0.4982804378307846,-0.18543315083184517
-0.11929176970828197,-0.23370633511745434,0.2930229945507872,0.2652367624635804,0.7009336118950731,2.69961353518627,0.13468455336422755,-0.49734684805674817,0.12029284817029354,-0.1969520425273262
-0.07816739571711731,0.07648302685301789,-0.19987836577049878,-0.07997275224611164,-0.20297995964394233,0.7052118716673058,-0.0019369492972097,-0.2653829081518882,-0.5768313719864695,0.0684173584409707
-0.08461357947711852,0.4776613044421787,0.711865121253031,0.2036562557372249,-0.1841368419053625,2.2782393589841203,0.17161161803635366,0.19519707010195364,0.3032803313949051,0.13472031019443176
-0.13756056043146794,-0.6954080966749481,-0.03611314201237518,-0.12760964977166767,0.9570039559082366,-2.1986151085621684,-0.013159431655235325,1.0158788159241894,-0.7925930549979361,0.0022807347267849404
-0.0822509814233392,-0.2152419924735413,0.38382005107962525,0.09736825572968631,1.2721149324503402,1.829545014536727,0.06306939053127049,0.04457782128830619,-0.16264464949334423,0.09839230547886858
0.033812504071420016,0.6816071185882273,0.33403784388351304,0.056109237243365605,-0.7939871257618435,1.1283224780010013,-0.0030172080564954524,0.569931755509673,-0.4312130732502256,0.23563730884957582
-0.04550899676271964,-0.1940958336008113,-0.4469960757174261,-0.01986831708375458,2.241568663786095,0.9022290365590044,-0.014564540795830158,1.068876000626992,-0.6174733152956213,-0.06475326339062949
-0.06663919132463762,-0.22932356264573964,0.11215991547190954,0.13888524260415042,1.8669561276772573,0.7058532855193838,0.3112723665885174,-0.03268092706695043,0.18240244690997942,-0.0917423120160998
0.14294423868675654,-0.5662377553001249,0.2577369442726862,0.32528281988805874,3.230873681263244,3.4931414333891904,0.19050626605616003,0.2294677622673309,-0.49010567637265706,-0.295065646505061
0.17154569621360663,0.29370265349752445,0.5183691209545159,0.2837210223978527,0.9690093954233363,3.0610724620431395,0.06586660570771936,0.32436605427247683,0.16333300769590825,-0.02023256164864987
-0.06735771080912697,-0.4776298549074715,-0.0496866959608375,-0.040770596606068084,1.6367688175171509,-0.24230234089221586,-0.05274127982322489,2.637331073717765,-0.880562348032854,0.015997312797455535
0.030544810434792128,0.031030736088776323,0.5321985313267625,-0.014868514915362806,-0.569123308328158,1.4937317350385515,0.22302371421751835,1.2887494207589427,-0.5085400595037144,-0.2840141615995806
0.13674119865476764,0.47521242312063605,0.14643180409371284,0.3006822451735297,1.5984722046852164,1.5431585104312076,0.12494548372618104,-0.7773239987383849,-0.7280939048644828,-0.4352260940668329
-0.07183444354367527,-0.7254755742745636,-0.3161588277035902,-0.09760197110190748,3.0427003676115767,-0.2301000203847018,0.05207847302606055,-1.1491254166407836,-0.9701759676551979,-0.49322596538543567
0.1617246101042262,-2.0832774382367085,0.5723525986441858,-0.40175217720178463,3.2622567647859047,-0.019988759849890708,-0.07546099266536839,-2.1244397099036387,-0.5884921936010458,-0.5403980994246435
-0.09485596251816897,-0.46523506640543144,-0.2411332214423079,-0.16000472049946904,-0.8404396144547426,-1.8895224060625564,-0.02418409980682408,0.7239581924086126,-0.048688767866892475,0.20388977328066132
0.20719079796848022,0.07449183766600209,1.0078819970313035,0.4597878833515979,-0.4382371942240393,2.052260170576548,0.2530897753720324,1.8373510633052832,-1.2812637645871183,0.03647788379169433
-0.08757493765723384,-0.36171454394726665,0.215633094150826,0.0694345836605994,2.389156279319954,0.3690305180526382,-0.021418807533937916,-1.5762901035078656,-1.1626207264485755,-0.18766014435145867
0.23341467565466154,0.006765472340949916,-0.14129656088629972,-0.022459319665420075,-0.4499382368785414,-0.04193145768546169,-0.12145251030436709,0.11062708896787413,-0.3969243149556644,0.038401780683336446
0.1468429450178077,0.4868592610516239,-0.735391841214988,-0.27014086047231,-0.3190785332939152,-1.067210752804987,-0.16710564903785494,0.3921969668369363,0.028260940477097075,-0.15923241154756568
-0.0022616847732973185,-0.7670664006960601,0.3583659220703957,0.05281041528676908,-0.059084414244963135,1.3502923082050167,0.09885720879682,-0.3971782217452522,-0.8748701536808324,0.1568398886257626
0.14027339819697898,-0.6650948800465751,0.08887643482921548,0.014024970879392881,2.888094977144767,1.0009487969995123,-0.015957863006453892,-1.381383755384138,-0.0463006174776756,-0.5177783565132438
0.20892854978826714,-1.1722053253216205,0.7451809755440253,0.3383832781927325,3.2696366591397688,2.020382988171461,0.20248433498331853,-0.5076457706036257,-1.6827539477153877,-0.25542285130562126
0.09187818348272653,0.13576983854189434,0.31965081133845713,0.10596162029201912,2.361579398856257,2.270575580471344,0.13578469605358498,-1.3911211408277708,0.07488808641265082,-0.113178301616897
0.11240105019022861,-1.60694041406555,0.21846951072504892,-0.04743904855044551,2.9261105201119957,2.1779761773848527,-0.007078095820403573,-2.9716938337951246,-1.6662745698589985,-0.5363383913875595
-0.15244125948054033,-0.13540650234930504,-0.0304242425058541,-0.1303883959786282,-0.3797713987916428,0.20240163242283227,-0.07621540366866215,-0.38291292515181163,-0.2730656829948533,0.017313443067891603
-0.05523218898616876,0.4768074769524621,0.08664489416613427,-0.0689296343945582,-0.16917257970851063,-0.5924346908257214,0.1659969263948325,-1.363102260412215,0.3135550715815036,0.07526210485929098
0.03454781245204358,0.264866296520084,0.2855406893830131,0.09485479370132711,-0.7523273767658024,-0.6450387824625741,0.0450652245509307,0.5168223736899524,-0.17517997059633625,-0.05323837923378273
-0.05693703637681952,1.0801009422302226,0.13809515938021805,0.14935622934902362,0.06212068383713021,-1.4458815885788263,0.08287319122118039,0.4289462960093089,0.6349973280456526,0.24551341207817276
-0.004896717948697814,-0.40286943141937487,-0.2856878799733668,0.16491233071579814,0.8311366564854197,-1.3318854623690455,0.018095080082673375,-1.2446291846094875,-1.2005437181667127,0.28543855533963663
0.006596985971097019,-0.49429365273767917,0.015979911821849817,-0.07982310739229058,2.41160454260618,0.9102976243144456,0.11900639197159095,-0.6172234206679592,-1.2025866979839641,0.040452963787398065
-0.09482203815060457,0.8760351262575539,-0.10130295104203758,-0.04212968224720745,2.001527616045645,2.430227675462219,0.08912511689080745,-0.4355084685770686,-0.5450783209663878,-0.2553822786006365
0.07542599009620432,-1.8892532758726672,0.511948426541174,0.49107197030825617,2.7918818092329656,3.1999532371240615,0.18892941866722568,-1.9958781518012698,-0.5129118050735276,-0.4447106980764923
0.1533557059189048,-0.10058502753555554,0.21734064028424258,0.26964908954875827,1.497239087578993,1.249090391250891,0.0553535936303553,-0.6919473533168815,-0.8441407705124633,-0.07926459159818615
-0.135758610969148,-1.2651866426877505,0.15399832293628288,-0.14297514348692117,3.0723931256449823,-0.39945119104557963,0.04316001171695538,-0.6039658471023021,-0.3492414526438392,-0.25556781311917964
0.14566783839846872,-0.571204003155083,-0.04175927384077397,0.03165985479951041,1.4855497133995286,2.076140631488923,-0.045836900335328674,-1.405822028966752,-0.4678423064183854,-0.3209703899628228
-0.05283807276928873,0.2006307505793503,-0.03819960894435623,-0.040132746943126046,-0.41357850680828845,0.636480064216867,0.27693965093909645,0.36407013403559324,-0.03875755529941798,0.1264316050102521
-0.042641324510825626,-0.09541463928504218,0.2805520167720136,0.1731616719482865,2.426093550600066,2.1240238764751362,0.08019603221334329,-1.4494601831777887,0.07425652892744465,-0.4136041455662028
-0.07948903432960105,-1.5819681634055809,0.4690363773084443,0.3756234696854116,2.554593457615779,1.944011528148952,-0.01742784635273391,-2.107577125588318,-1.1884915725218679,-0.6908602308891068
-0.1189937955473663,-1.0393067215093197,0.6567123413971081,0.33543073638037635,2.6422042138460173,2.94555543562763,0.08734095326329476,-3.225007737823542,-0.20144104016748268,-0.7564504659965339
-0.20155933595323847,-0.8253979991226206,-0.2172393695298622,-0.2519306196239016,1.2690865968367198,-0.24538180006560062,-0.06937125628001,-1.0848198340530408,0.6552370568557288,-0.6294501844306504
-0.14295363309245107,0.12484071212534861,0.12733501240075856,-0.08671795236238047,-0.2811393731701941,0.08788658604669353,0.02679313832324992,0.4473530292521681,-0.2535157631738112,0.002066264178286814
-0.055911015830711494,-0.823951949385621,0.5549967049531908,0.4190338158599542,2.106018765876131,4.7364989050280695,0.1664144927876595,-1.6292877681923748,0.027798547433260597,-0.34897861294590027
-0.16641626057886172,-0.6279202857972015,0.7184450162788276,0.1515523691788287,1.5347457194313017,0.010412474105958136,0.14049434156756152,-0.04668553105206219,-0.5243619428184287,-0.023626578637219224
0.0050441084061810595,-0.549207350427176,-0.1284485528881218,-0.0004861507686768754,2.6253590684587382,0.47523893893663766,-0.03432043377561467,-1.0532436370422253,-1.0696606540649864,-0.1579706826744203
-0.08665011672364231,-0.5567599227483111,-0.3216570341725648,-0.10271541060577206,1.9266012715963772,-0.6589812601703166,0.010293946560615663,0.14947428073004465,-0.5275512168955165,0.10119727288144326
0.0746714752214608,-0.9272513704908582,0.7265632148010037,0.5519230107380121,2.2746460359963767,2.9949747884020357,0.2143402044106156,-3.58790089482227,-1.1966267111807165,-0.4909714217256434
0.11848944724383625,-0.6267831621377402,0.38841109813164554,0.2506244313801868,1.3285147406406423,3.937846629856201,0.12563944929847778,-0.35883307464400344,0.9540548132220482,-0.11741930182526927
-0.004444224016174922,-1.8288763617367938,0.39561869445452263,0.19154314354295743,2.905174371784201,1.9776103533998521,0.054619821010376865,-2.535842259390884,-0.6081428039951547,-0.39789046666912
0.14162359478343056,-0.7318844059456447,0.18081045098074106,0.1927163754883421,3.3666138459824335,1.6769279530202232,0.13332845413604064,0.3073293627802014,-1.3255871263658967,-0.3227561279847561
0.04881624679620319,-0.9911612903533604,0.938088673083058,0.32341601173162426,0.7046295212939513,2.6484265393179207,0.11098122078131754,-1.67432113885235,-0.5573360969452922,-0.320830249794543
0.000699222848040215,0.441512987295504,0.2256608232019677,0.3158406332117315,1.5072207280351622,2.6465878089528703,0.0797392994254444,-2.023457609935955,-1.0867919604950338,-0.3288850733294208
-0.10473510458348118,-0.7595869255070934,-0.30449462738711214,-0.3029874715861357,2.065520585163016,-1.996212809845269,-0.08545499882404975,-1.442981552093061,-0.4696424395705061,-0.3442397817205681
-0.08071820366460648,0.21122767420383748,0.5744679884217436,0.21114381748173575,0.69282771816937,3.187190290232974,0.09580473122693793,0.4419959711489517,0.33629225207571295,-0.20438346480380706
0.044544468126186725,-0.2826558262999882,0.10244474080045834,0.05711305265982401,1.9379079898235023,-0.27089281482671074,0.03987575689344981,-1.0756181668252014,0.10846460760857805,-0.46977267533406447
-0.01063498282555667,-1.81640900453464,-0.03408894397434195,-0.1641518473056561,2.6493366738123387,-0.5100975061878813,-0.05013331296715364,-0.1635205556698458,-0.7357583528774395,-0.421567247081349
-0.09673439083042668,0.5987468759315223,0.8775982327135833,0.1668513462989379,-0.48614527069866875,1.0636847213582967,0.13243660515114783,0.5024414057015878,-0.22823176711675208,0.5410910142419527
-0.052368981835245666,-0.10150522403990882,0.40710290698651397,0.2077993629813973,1.4013933482224283,2.898684903209104,0.18929830948640633,0.953005212033835,-0.1739158027183057,-0.5273276042874235
0.005161696971048811,-1.076346581048956,0.42259284126934754,0.03232450584383228,3.2340791887113003,-0.37632032639825064,0.05673451159323431,-0.2353080620814787,-0.616033559485349,-0.628139814696915
0.056535444185742634,-1.453963580668745,0.40715100765212814,0.31322831026164183,3.288676425624355,2.015519515918017,0.11420861322469689,-1.0885104524388343,-1.0927739374578207,-0.44341676985209333
0.10019546141251964,0.8163907191811635,0.5188076892321282,0.264671433341864,1.1358767317170315,1.452307990262143,0.16065213265080053,-1.3610184940920265,-1.5000241363371958,0.021690835802425753
-0.1591155375466596,-0.3800916177768459,-0.07813012419684005,-0.12159467274469006,-0.6567302226193886,-0.7855181620637219,0.19812362201627426,1.8498938946797152,0.31553908638681943,-0.038396843608993286
0.13993003521667605,0.1677642190530635,-0.16763930858727719,-0.039964535833156796,-0.4671787437425885,-0.010052464331962052,0.01998910727322548,0.11430353500582252,0.6569210705185428,-0.21253610444218624
0.2628338030907886,-2.1723295481047344,0.6719554703064706,0.4105501865965068,3.1282270215835117,2.751797785528042,0.24123495580356227,-2.324197770283752,0.4588109101204719,-0.27330603674140014
0.16805234745414735,-0.47192925197914226,0.6906758924908395,0.057801206736136757,-0.09560187894448935,0.43720034167488653,-0.06316992500725681,0.4138902581935118,-0.24222390958946638,0.0274436563664031
-0.12787586448658583,-0.2735350795762475,0.9813221548886323,0.24863874859820956,0.6689590886243573,3.2578568330987463,0.2819093844580023,-0.4992049335632364,0.6512055437837689,0.16358021029550138
0.023183021449246992,0.10261638273370721,0.6569430322186977,0.39575091340731383,1.8716770571891574,3.024102293101888,0.15397863366732337,-0.15122589365815386,-0.1817093916580628,-0.10694051605403776
0.12763526842398873,-0.3073031301692324,0.14814478223686955,-0.06951386144705328,0.8844417931007369,0.44452115099948,-0.08131865627396259,1.8596973136238044,-0.34378768608667565,0.25461883356717563
0.34554213163013703,0.6066955495756264,0.39809129020532835,0.18144419163492967,0.8541416155343047,2.1840837838280747,-0.04997653306281607,-1.73666779224606,1.1253255849961727,-0.07162571107830688
0.05325684946690364,-0.7834783179522022,0.47689966626467106,0.07102394923942189,2.7815929610223895,0.9959912795116947,0.02707715440206615,-0.9427769570416039,-1.5769779244573399,0.024913693282491156
0.10462799062828264,-1.08082210977568,0.1403073578712617,0.0016050056526362023,2.066715562904312,-1.2619516201047374,0.004797138263960299,0.06827529480350769,-1.7754318222869687,-0.03908144839969797
-0.04046277489458719,0.032456810174038425,0.12546987957244052,0.21346563303749624,-0.14267946041370538,1.06572378952212,0.05674876044263063,-0.623920244481425,-0.18180447908350017,-0.2168374938371189
0.09458525218544685,0.16783527484684696,0.41125625853810593,0.37525085949673626,2.587566282212199,2.3086142100215348,0.19180158768267128,-1.8916550065643354,-0.45573537652448554,-0.07275164911003022
-0.1921401298034056,-1.17447003000577,-0.28617610834647217,-0.10719926469549716,-0.11532021262510794,1.060392011074664,-0.01662894170365704,-2.4076433002408075,-0.26286386937080863,0.23371223318503032
0.008178062836065259,0.34035089556282627,0.8453337245023052,0.3768740566530827,0.3040513730132355,5.782532307792491,0.16826511969330196,1.5194435204704058,-0.2730472323724826,0.4683132065541413
-0.06778664213010058,0.8581088604690579,0.1499604208737793,0.18248280919674073,-0.13212394999305077,2.4808156910272547,0.014254961362832098,0.049393495777595664,0.9076963557286643,-0.29384437470536723
-0.11933896925047906,0.13542267380749662,-0.061808978311822145,0.10145870468935682,-0.6364119941059998,0.05859993110723871,0.12346987800730272,-0.22460623343211805,0.32405234369344305,0.12445211135120363
-0.17343043224023108,-0.1335312745007698,0.34889109053164113,0.06876587088741817,2.8996872123133914,-0.5240733334817245,0.05304663799058419,-1.008488195736582,-0.37676311717565736,-0.2806009557564284
0.03337265844011636,-0.6253229245176612,0.7740884904495287,0.3043301373194623,2.467346205081686,2.8491450466993324,0.1797546831723735,-2.14942368426847,-0.8284973265595644,0.12061576167403817
0.11390689143317259,0.53400878756583,-0.07363693190965305,-0.07638132074371348,0.8213636588720428,-0.5809745459428105,-0.09047969707106172,0.5657892972926571,-0.9490749394280765,0.07985356010627304
0.14958276820563865,-1.0979824063459465,0.8250894652139276,0.33816314382088175,2.8175694433734733,2.270772874316986,0.0951445444481744,-2.4713022114266834,-0.5399952724873635,-0.3449435714225901
0.1033140825685326,-0.2264230036184906,0.8804287453206896,0.29692317245171296,1.4826749830564765,1.9283446622504568,0.07802861388942584,-0.8810496743345773,-0.9240228839598402,-0.44265389917175174
0.20546187472864247,-1.5224348331970048,0.7007802603251305,0.061533234959500076,1.7057460132356246,2.9947249516574286,0.18752591709094246,-1.9618345429418926,0.09088572386408765,-0.7420892016844255
0.03560927266612245,-0.40291836792441327,0.8327041954533884,0.3855958564905843,1.3603764707933825,1.1495313562593403,0.2391884840806824,-0.3849654128628312,0.15926540222659097,0.09040126446314857
0.020323558684344836,-0.221479953754297,0.19865056989514956,0.16353540757891072,2.589411798719111,1.545595372611283,-0.11167336496032826,-1.4636039703332906,-0.5324698139532675,-0.2913672338012323
-0.20057976058555638,-0.13308772762463522,0.28743563199208777,0.2879959639738306,0.2934829748056742,1.8375230578241448,0.05804320377146954,0.34044476754919983,0.9131666292569353,-0.04715623936191027
-0.05250618601137539,1.1582731093055745,-0.2134182248192091,-0.18045707413735598,1.9627648212007252,-0.819858456056494,-0.03806643342686217,0.17128142711948013,-0.6662238589111329,0.2934478944222501
-0.09657051038006528,0.1922898187693401,0.6257370466454801,0.23657773762740353,-0.5574643884068968,2.4206521130391856,0.1671820156865634,1.0873435743979867,0.20391504006779518,-0.1790806263218692
-0.29225385724308833,-0.13058153958603375,0.8698655676341903,0.3369188418937368,-0.0655222036957206,1.8550701088109016,0.2884402697778644,-1.6442195744841046,0.7379101271537768,-0.3575128077339458
-0.17402209403527552,-0.19131060450300597,0.32894159452587435,0.07413899324374337,2.418209658158792,2.7238323027843236,0.05416976842702619,-1.0559958198647341,0.3815979471488947,-0.4461679000942816
0.03312241614335377,0.6881437936722432,-0.22752449470157332,0.16336565536276493,0.6754349302149849,-1.5280919072770853,-0.15749678773707185,0.728422406866306,0.0805208916016075,-0.054227060677959106
-0.008300014127199816,0.5769572671583858,0.29661336374401825,0.1728844873514988,0.9311605382117967,0.6883382666822245,0.049970551362050496,-2.618968598243388,-0.10876018946790796,0.36478138576222374
-0.06553027900574519,-0.37155385626167775,0.3357709263786849,0.09340303011811092,0.962465376549186,1.722306830777108,-0.007846659915275243,-0.5230793224206113,-0.6184011184083856,-0.1908573472921177
-0.035296314297363844,-0.5698720892046467,0.5968397478307903,-0.10335900842708955,1.9826260088709717,1.2908512885453491,0.11359915179651525,-1.4884198130627944,0.07011684076250431,-0.3423564923340967
0.06122975576977757,-0.36810836097144434,0.7652755374671344,0.12758686600884914,3.2205721140884815,1.18479899584349,0.0962990287923804,1.0651272346821279,-0.6429013700998863,-0.2818322930207956
0.02567434930334069,0.04987796801726645,-0.3360668787430702,0.2054213215002377,2.2505568192624175,0.16595077617481122,-0.006582482983303172,-0.20857995432791504,0.5638711616569813,-0.42549086081146115
-0.08870727565577217,-0.5050639882231823,0.7717289145499372,0.42087670148594314,0.14346903650702436,4.188503043110605,0.051731858769457156,0.19784741585496915,1.693692845144032,0.09656073904123837
-0.11268636937296406,-1.7110287003176323,0.48482354015964113,0.05198985415641204,2.9146700871798146,2.026779407209383,0.04045571037574123,-2.831691807437366,-2.2331190377422656,-0.4863730030917739
0.14189187693404334,-1.0434642284433535,0.7798547712964573,0.2890216132514418,3.0399952361841986,2.108618490641798,0.11427666188907827,-1.8962077499811683,-0.7723731713491271,-0.42736722842591174
0.2868096251097843,-0.505101909692898,0.22724575973563343,0.03003298166446622,1.9598245739295885,0.7666877499928436,0.017817968784602758,0.395965911260685,-0.07657697359062325,-0.2231882249951682
-0.14311875126131207,0.3650977054555724,0.7130797047478362,0.190242049662332,1.6687519335229468,5.670434668242125,0.23368984695595715,-1.672978296838001,-0.14529939520431767,-0.29287283015886567
0.010634533914941981,-1.438583243671291,1.0653418728431847,0.31613707702847244,1.2390164447336374,3.036249400780595,0.1488040132932762,-0.7586415127691061,-0.5454394077077239,0.06806365437145806
-0.09218516869846995,0.17188626044779085,0.07319146028524277,0.007788671946325645,0.5726630863736899,1.2630254550254336,0.042835452867963246,0.5151142350968558,-0.5810256733897242,0.007015443850173904
-0.0051108032211670635,-1.4672623496025325,0.8873470801044352,0.28126015096194934,2.4373266788721963,1.373596325188831,0.24201243089314872,-1.3859547462534572,-0.5188492816470152,-0.40230594384776086
0.02979770280214273,-0.3226390218624494,-0.3744638861807032,0.005528002912243588,2.2174080121290816,0.6505004912104044,-0.015771483386938488,-0.9894835421780184,0.16345025336265995,-0.6803479119385138
0.006987403372613952,0.6526060904908403,0.06345813210885333,0.08773726805464768,0.35114519831178126,1.9304698410116412,0.1302750132668504,0.15087418283571047,-0.07930500961744118,0.2010872212720947
0.07519023250690718,1.000847248647198,-0.1574440365593484,0.010341432063077884,-0.913046581319,-2.2873203929151087,-0.03380366733016669,-1.4876521676257546,0.5209777510508804,0.009128361117619287
0.14350507752165903,-0.059285455292762246,0.25842241288379136,-0.04636450816444543,0.16705287939290692,-0.643856476058223,0.118761311671729,-0.2768506346044962,0.7688441313621899,0.4847579045949415
-0.2570550560232215,0.655963221065384,0.7662589755834268,0.3364928978065979,2.215569351512805,3.058624647822397,0.15149742499104663,-1.1240788601841032,-0.09938806884469266,-0.34740114315434834
-0.1369301165956531,-1.0766921278084196,-0.1849351503737969,-0.12668838170516972,1.5996319436092574,0.626505528153709,-0.012067387714985315,-1.0497575617541515,-0.5448880458718408,-0.2534742582628302
0.2928557868363786,-2.1107731738137985,0.48542881095966944,0.3266144531430432,3.4415348189496573,3.4997070154977954,0.0756006826033111,-4.868676165192159,-1.210609434026636,-0.28101642287474166
0.14989806564936703,-0.5991545444203761,0.3078175216101774,0.46341900411071535,0.7151164869836748,4.119132335537907,0.14048106463842597,-3.082441822509084,-0.27615270222241617,-0.2333919404298456
-0.18977618930751675,-0.8017142916999063,-0.15830924188726903,0.006687425795696848,1.1004304573862314,-1.2436993904847387,0.047786725223020604,-1.0353026341653493,0.48878180132970006,0.2235043271815349
-0.09194751700787786,0.30433102696070485,-0.2121889858773767,0.01569927397024281,1.2375372664739994,0.9197762923154933,-0.06805463890647168,0.41546316912828074,-0.6690719730884277,0.1318333124599788
-0.05848049583309614,-0.7501944196368041,0.7677854817757943,0.32914899242565027,3.3439720944107076,2.8465810704846284,0.20056625668681188,-0.7385005961807886,-1.4259515831064515,-0.3268755546232935
0.20553566033600137,-0.5532479754106412,-0.36938847188017054,0.0018231441938593277,-0.18878291043366735,0.20240396751847767,-0.1655078191576698,-0.49399587509605103,0.4740095984590535,0.06120990708275301
0.06455614798551022,-0.2925778448174074,0.2822842471638211,-0.10141536513119306,1.6765928778986035,2.329252357700864,0.11654334120691487,-3.3047450410740407,-1.2303358996385032,-0.5804205054671943
0.06952565555768744,1.3361278909184102,-0.302086347739648,0.1257516658765823,-0.4012271848896899,-0.738407154368258,0.013602345250388276,-0.05586565550559919,0.921648828265051,0.11272532133136472
0.06672870593273157,0.10232215587081109,0.09018827578641156,0.25281030745028915,0.14220648254156742,0.7046910300332999,0.11076778013464456,-2.092887589377394,-0.10346086622596697,-0.1380165750735421
0.12190443185734501,-1.2214782930379022,0.6296358423362388,0.5031242494687751,2.627750174976011,1.8846389446856586,0.1282949007317215,-0.5162993399017219,-0.9479643193094185,-0.6045669758949709
0.10323122074510792,-0.9365906059520779,1.1601143063198334,0.3173191678325856,3.406907006932901,3.1968376548775987,0.3205909518333645,-2.3841725741635345,-1.62602622818847,-0.48900633989367526
0.2632230316204993,-0.9510118697751915,0.3515022091166868,0.0015735906510366178,2.700823278967295,-1.1823289479146655,0.00531711453973079,-1.585937494725548,-0.5526694481557424,-0.31720766331806516
0.14154957359531783,0.541780301983742,0.34105042147930753,0.1556414759153379,0.23383162950279002,2.05225563803533,0.12914710856801043,0.26020878641704637,-0.8739607108467147,-0.177304502874542
0.3014793104599682,-0.16297157732036024,0.7623556804656566,0.3244574135760728,1.6069978657405555,0.9170176178205298,0.13562300676358283,1.660685676939619,-0.10924304328136569,-0.050437594012152365
0.021886788356494,0.2175654649336081,0.6778500151338573,0.2979063076085528,0.6156766487189378,2.7466394480306042,0.20931061117695324,-1.2158179493448606,0.24854987877102547,-0.01980426681671884
-0.18576729813026918,0.18067657493932507,0.18115306308728643,0.31128286366894875,0.46179646579399414,3.2957303377056073,0.1779164787118718,0.3066041942527631,0.530386752398704,-0.22393139181602853
0.14135510984220168,-0.0002993407018550831,0.1722984148575693,-0.07674901659310872,-0.7605336610923337,-0.1995765783133292,-0.01569427573187692,1.7022141221227378,0.5551547592141518,0.10570714007596337
0.18888180688631853,-0.05323263820352431,-0.059419169535908534,0.05074301857496454,0.6219919812488743,-1.9621581122659328,0.045254498595340024,-1.55118648916248,-0.22856178926609738,0.2070350054409291
0.03017622551862207,0.28869141624471906,0.45917172159106484,0.5269141140563235,2.0033627174586934,4.144294480780075,0.02462182023755518,-0.4605136776578999,0.4068116383982003,0.007255352898970282
-0.23058269111390356,-0.9899053111889647,0.6303342414552178,0.10267710333205235,1.3300016487378281,2.7744019159291646,0.09184486001977986,-1.2803866023721264,-0.2517547652857376,0.08335681464933827
-0.10818132346850354,-0.9145428391618645,-0.32848679876529385,0.06331520434715138,2.2898801059820757,0.260398487425584,-0.0504865913687745,-2.494767709260725,-0.9823999236450743,0.009268018644328205
0.12974197577177052,0.6256063984094256,0.37680812849653955,0.38497197283758394,-0.27089601404487906,2.547113011543625,0.20281520481515242,-0.6703969393722956,0.5090382025115108,0.13933973960162566
0.163993405656304,-0.36205824145227333,0.5144056846415257,0.33644529567797604,3.2709611683863082,2.226471525178184,0.10501141962846955,-1.223386369289751,-1.1024412690379102,-0.17024157949406693
-0.1475355875845716,-0.41501522425978343,-0.07263039341796448,-0.12740527753404718,2.686998902570649,-1.1383827185063817,-0.04186685114450323,-1.7228115880273864,-1.0165186829617787,-0.09288926470537442
-0.16380875513515794,-0.23864209929357463,0.13820499083787366,0.26051782625124376,1.5499075081487503,2.025976730305396,0.019909959806285123,-1.4378907262390248,0.7051909553369397,-0.012250930379104675
-0.04857962149476816,0.05098199881506332,0.8023229768779,0.33385661338448785,0.766319979431427,4.077941155312753,0.19116631388615193,-0.49802918921481526,-0.9113720660064175,-0.03083008251738113
0.027633417624891677,0.14912171266705193,0.05448742429987512,0.12562141559483092,1.485360265719899,-0.24394422047452288,-0.16316215944327386,-0.16139484242004692,0.08660379967488409,0.14897177589287003
0.03656745259114758,-0.8747158741032255,0.5426791082125566,0.29905856262298247,3.0465499900473567,3.7989512222712336,0.17562968996637823,-0.8313770265476699,-0.7959047582743936,-0.25684805432705293
0.05303897679045559,-0.9783295327137855,-0.028233282558521977,-0.010502756640836736,0.34386541510192536,0.23106383896248872,-0.006888106685373986,0.17806760643748631,0.08067686300520388,0.3081723683474724
0.19607166963425207,0.9402056828162474,0.37585788398043596,0.42447214906877684,0.1365713367485586,2.668326226965069,0.1813077471879373,1.438990026998619,-0.7103251440237172,-0.22013716724323568
-0.023228553359055146,-1.0642249925916942,0.5650332816045722,0.31902952494347586,3.218297679823377,2.4273887465274426,0.0038384081494744287,-1.4836004471809396,-1.0506232352305942,-0.49780930955676833
-0.12640346664738192,-0.6008207513636891,-0.06865543719410756,-0.019614704720584835,1.480487888576263,-0.34216854871795555,-0.03382984635633879,-1.488969194757539,-1.2799694873276815,-0.7621202662139038
-0.06872338149689444,-0.3707096706426783,0.18897467260649303,-0.07849444557567715,-0.03052123958637154,1.368394859964727,-0.022709777284985373,-0.66011742075668,-0.36133341750674713,-0.16204543088788648
-0.09918977777182755,-0.8554945033629238,0.5525649786784685,0.2897112627758283,0.9323617493365552,1.6116526577071795,0.18248956101531363,-1.617625883844644,-0.5653810072330614,0.10012252117162079
0.32477402878259615,-0.10177259552190238,0.7925338702626757,0.3078743145507718,1.4108784459031152,4.585718542008122,0.0898352886523476,-0.97326541644157,0.7098479667972628,0.217827855667996
0.06429182216425865,-0.658436182876546,0.2747456434981672,0.30930491410874156,0.3545882176041777,1.9308918466916332,0.05529392586469566,-0.4892343191130258,1.0021327374762852,-0.027006193880460223
0.10844761096149465,-0.9979217841655112,0.11546715258246722,0.19286518094758429,2.4134621442137165,0.19203501960678537,-0.02677178163292741,0.05707002251525184,-0.37349434536252063,-0.4783455616947835
0.15674911111334916,-0.6236695255712538,0.8018311664553267,0.16126915148745685,3.2517304288682753,6.478839537151769,0.17247913643408766,-1.2488819310016424,-1.0742415273302284,-0.38648061707773895
0.0843645856593147,0.11725146974031717,0.7965774927191421,0.27173265853295175,0.26154782604454097,3.8488348535911467,0.2783289688826911,-0.49363268204886385,-0.45759249602503227,-0.20068562212067578
-0.11994604295201702,-0.941000745418968,0.10703875485426283,0.012213175395497813,3.0144668330023467,-1.1608400012519189,-0.1386863896269952,1.9171454572509927,-0.6148499829555202,-0.4796679918094967
-0.0367200535427457,0.06953436543778892,-0.23704014589681882,0.04929652844557678,2.313631883112719,1.0959939772677336,0.03871172736794629,-1.5184229483202953,-0.39824789574856784,-0.46302248700455967
0.03886768587763627,-0.21863612657173997,-0.3167365950738501,-0.08788284011380625,1.3369824796789032,0.1621286764695249,-0.1429702064160377,-2.070263832327843,-0.03515864440520608,-0.672938334823584
0.074646280293695,-1.033270277739174,0.7649365752798142,0.2835255583674001,2.1601016869464065,2.6860854449025613,0.2820637773021946,0.2279052668027478,-1.5695728438996794,-0.14836165939325166
0.11840827644102049,-0.596352588617784,0.17650326076672546,0.4681908764706227,3.0322042822516124,2.4196344958764806,0.18585692738206,-0.07273431428199606,-0.6697931851123633,-0.2892092409990961
-0.03494535988549336,0.8460975427880525,0.26368934838333613,0.12638126412268444,-0.7089049247431813,0.4766086261449005,0.015400444557438334,1.9175188798404785,-0.5992095881987957,0.31091262190261
0.04639321397867454,0.054132498782214516,-0.305746361151052,0.035246941327863865,-0.23635134688365989,-1.2663732951235283,-0.1224053311091299,1.0035006236033617,0.2763277303904032,-0.19743133007827543
0.1302120068125346,-0.12345836732243239,-0.2799655610460208,-0.07163646108975182,2.9694984645343796,-0.07249291164204252,-0.12316716784516672,-2.5685767818047323,-1.1272557349564747,-0.02267596784795309
0.19262460624398223,0.39105028848239093,0.8466804073324027,0.40872563177729576,1.7348719021007972,3.7009707428149596,0.14261026250543407,-1.0091966237940928,-0.11483674797157646,0.07191805255719923
-0.07125917253208498,0.5335661698697673,-0.16217537817871636,0.19053636149325934,0.08028746660715003,1.6021307197423682,0.07869012674372629,-0.11989403211745608,-0.7304525214788203,-0.2516599085194442
0.06897547380188493,0.28075258380363866,0.24117688247399238,0.1093434308940012,0.9332366677256683,0.711562186761856,-0.025993254998594235,-0.05304021781112089,0.6260381034564956,0.32690764281908613
-0.10763379486239277,0.20033982879961332,0.6696994947071372,0.24547117178956826,-0.9811438270050211,3.6677240695406574,0.11915245375513618,0.22484204681886782,0.536186586328422,-0.11675053916403418
0.0370973204940755,0.506505671176356,-0.025981141581209052,0.14191247344917865,0.019589032754054214,-1.366899863409689,0.1061533152640317,0.003622925544060629,0.010612631657223879,-0.24654593832164004
-0.1079094572251731,0.10467192398172433,0.31667993897697444,0.11682192954278864,-0.7619583233418659,0.5283949882434494,0.09336020688844417,1.4327539545373464,-0.16709182133319309,-0.024389035997151875
-0.043544796561896706,0.4165522587603375,0.5548422526049807,0.037165118774528355,1.807414979382381,0.6693977785378925,0.07857192004918315,0.2773285305169133,-0.9930213040002757,-0.1720232017537181
-0.2026805480277141,-0.9917368919557753,-0.22423970844220126,-0.040438988533991506,2.5075848785884536,0.5075500689523837,-0.0022911611282935666,-2.4914890231273117,-1.596163607724547,-0.386526669693387
0.21067944215898354,-1.4579168612109386,-0.07984274342445989,0.22130087543025673,0.7986475882448949,0.5473557944977303,0.09481694925389027,1.805702572281401,-0.5567993573868762,-0.16460313185050338
0.008580671548727246,0.4376523039399742,0.46487957604934826,0.28839365883645873,1.2363342597314286,3.163881579672647,0.23365669868471936,0.9519483641301749,-0.1799420157078706,-0.0941330952857477
-0.02228999178655512,-0.30141129390881005,0.5222365145205895,0.24694305407316275,-0.7616070708495433,1.3582373338380642,0.20446527156441954,1.7278618310262248,1.2089104182290142,-0.06026532291754247
0.05693817478155569,0.5915509025149435,0.8021404722578972,0.583482604771335,-0.2681841056912092,2.242043149756813,0.10144847501830428,0.05386017068954929,0.8210980137463517,0.20675382643608053
0.12508118013062988,-2.0047037710629394,0.12960860733172783,0.00905373655607012,2.175758893631468,-0.7739828457660276,0.10364190249578141,-3.936099511959729,-0.9543896569534949,-0.28450889221021525
-0.012161072822441813,0.3387809086922255,0.08021097055484278,0.039245747233407645,-0.11196363753259309,1.917423572943485,0.16011753562785078,-0.8551604562969896,0.6331875320970296,-0.017028311123577618
-0.09482556244193202,0.28282447521797266,0.44913214578415656,0.1355172363859694,1.1970090018594068,1.3823459171544712,0.07808135469408314,0.8276740717594527,0.4901648074278345,-0.0976748713410517
-0.05687047740084163,-0.4834277776718172,-0.46142878912787044,0.03829199483018136,-0.27104163717828744,-1.2208008633214136,-0.07253817821546665,-0.6945429940795877,-0.46407283612737116,-0.12987802773813334
-0.1531834765635367,0.02272454192082407,0.4535001198676423,0.1127563654246388,-0.2690897369733454,1.688435050080698,0.09531278096066735,1.2394553099870975,-0.03584542064335498,0.027125052832821236
0.10652657451258925,0.06272646668040019,0.11328285071026843,-0.17649081181315465,-0.130840286235958,0.44413216419776474,0.10189286770762918,-0.5722470758215461,0.5851561283297925,0.2553874160523382
-0.0697001630055683,-0.6353095021441552,0.7477138981109615,0.2809686216313575,3.3374673964541772,0.5961022840755792,0.129910843449132,-0.1998526416868074,-0.662823579363138,-0.03205390150361451
-0.009716885858923593,-0.5481506971117704,0.7142178719116558,-0.046212797382139924,0.44677557228889553,-0.24236146099327355,0.07738686076790668,1.0242438948481178,0.0432858440050199,0.12689996628083153
0.0775857235389704,-0.2679839944964748,0.40473641051394166,0.236358608937703,-0.7265029662399309,4.418139093115915,0.20298814931325512,-1.1615837804002944,-0.21348995197258108,0.129320764289779
0.24709023936420862,0.42550626607807246,0.9223217572950534,0.2599781581562475,0.1636801149924565,4.088144748308753,0.20178351101939945,1.834967608960127,0.6945530233307915,0.25998869504046895
-0.06790415475946741,-0.8031900728189362,0.6276441975084195,0.19103368975106155,0.44463838928170296,2.4713742401771595,0.10432424998131463,0.9057311869841062,-0.10207306746671416,-0.09610165101497285
-0.02343323249299556,-0.42720516851226764,0.5855964603916857,0.12817623035054046,0.27538705742319114,3.1990553217234323,0.13306034113041898,0.516631843591572,-0.22191885863551536,0.06891356672907456
-0.11336681682151505,-0.45523414624505754,-0.5010392836248747,-0.0404974596040133,0.11813468224478085,-1.4423789057673146,0.03711234046744666,-0.37282569805439425,-0.7200533748677775,-0.1822505874313827
-0.01369575737382367,-0.597862877985835,0.35030358409704254,-0.1087289438101991,3.2122900640534757,2.05011799951323,0.18742288402304685,-3.7257022947047993,-1.749681058548691,-0.39149539213081924
0.11450859122396283,-0.5622311794022832,0.05420857144335575,0.15633426402042783,0.11807412505782322,-2.0984905209987934,0.0057384799814265445,-0.5876963927367699,-0.546179083692116,-0.1260081848290722
-0.08704986518674136,-0.34547972754867107,-0.22118201944676905,-0.1653470325492661,2.5648930570642166,-2.3324488707622653,0.008845040600420738,-1.5236839825505273,-0.18210512381899127,-0.026713059340557246
0.012672701064340248,1.6624513701196524,-0.05308835220537668,0.01680342630108073,-0.4363929630905795,0.9120328470421994,0.08302618377555508,1.6570550509188209,-0.21334597696978627,0.16936523731150094
0.05291283630533427,-1.3687359003217192,0.6101611750655546,0.16738843235989748,-0.8393782731677087,1.648095128778913,0.154545460531511,0.549381334539165,-1.2745677716719805,-0.24895040769623303
-0.047073646587160414,0.0529640806228635,0.26982624648910786,0.1415335431102216,-0.07655253569732579,0.9095366778465677,0.1808725747492199,2.2129489855189473,0.9419181677224143,-0.000856407819231087
-0.18729047054740167,-0.4136724648430945,0.34807190345292205,0.2660734135573852,1.7279149519033674,2.005537479668554,0.10246956075787286,-1.5172857902933843,-0.35585817645651274,-0.14570934606301053
-0.03734108878572529,-0.2043061841875844,-0.35115367020865834,-0.2832351249615211,1.5978780535236168,-1.455236225041191,-0.08017136802756003,1.1118877546778632,0.4626173649881529,0.014500702067061706
-0.14732716425664194,-0.6424177255269615,0.43496071787719276,-0.14554372288971928,3.3678503371984396,0.8253149875833814,0.12472946324533012,-4.171169014529157,-0.3600630153855684,-0.4221554184088845
-0.15994857572230098,0.2724418132336626,0.02884040159840681,-0.031067785502791594,1.6333922068875082,0.2903798309076939,-0.024177333226093292,-0.28338701889883655,0.37956815630244783,-0.27401969664401926
0.2556752045667624,-1.5876164512751256,0.13120044339355783,0.059247454787122455,0.830368450523792,-1.2962779565030411,0.08823186824328512,-2.401438646655423,-1.217495703510012,-0.176337474567107
-0.13615646914578752,0.3821676782711868,0.5163651111248703,0.4840226003603137,1.688075228520681,1.8997029342009202,0.2270388616698769,0.6178219029638309,0.24941618856138245,0.12161481402369469
0.045125791401017884,0.923802291880516,-0.04245729687560459,0.04112491142086812,-0.1718568334430719,-1.093223907764366,-0.05230981681195973,-0.8706213046995089,0.905492840122077,0.1881139711052707
-0.00017011392577621952,0.08591502649892954,0.13286618085841412,0.1490911063090662,0.7271211719089437,1.447524213525097,-0.025548774816119633,0.6778835010720452,-0.4748777490647669,0.09935260542199303
0.11991411485798599,0.5172313980176083,0.05356205787185557,-0.06260654443850105,-0.650971084879693,0.42542732052325105,0.05529841608136894,-1.3554199902666946,0.05253895477948537,0.31978406159647965
0.10127524227511542,-0.2511765420799632,0.05870300651782817,-0.07770875075199361,1.4990372363449844,0.21104735705410668,0.1680924494541005,-0.594805610884306,-0.2122252504063953,-0.5743682767937754
-0.10900117113173331,0.05218753281690093,-0.02436126399917046,-0.17141259942978412,2.2241433763119507,-1.5344094347582362,-0.050199434277537765,-0.5555176617704394,-1.060479464400558,-0.04392666448325756
-0.15595786083621221,-0.42713823802702855,-0.030531026903363727,-0.0730117462808916,3.310863820458243,-0.23922610066857386,0.10021482028051396,-3.3777041727325554,-0.10962123045453892,-0.5690171176617876
0.2917268470680532,-0.955786865000019,-0.14940044632542326,-0.09726571465626493,2.566950960163083,1.4514815865838286,-0.031900419404963486,-0.4819275753883012,-0.5092802570336782,-0.5186581487455435
-0.2469049767233605,-0.6209619975067113,0.18296440177049325,0.20683708603715675,1.5935048175664002,-1.0101395044463717,0.004744035108468743,-1.4048478071952972,-0.2127922983716197,0.1310381873404731
0.24299672770508765,-0.23643351329184029,-0.11107317910364943,0.0026032786221167168,1.3420024744722014,-0.5408449428055739,-0.06971518945746132,-0.9869538864792244,-0.6637288217251995,-0.07233575021265677
0.08646324431418048,-0.6454534413901459,0.28889573605745883,0.17189160646647705,3.2532052718575812,3.4051719104607843,0.2136368817692311,-0.7176822999991617,-0.46861853360095773,-0.44383651671447594
-0.03652301864623522,0.20528154256237385,0.746752659990775,0.2777190423036246,0.8003402430541762,2.8165452640280453,0.15526087962936963,1.2070028928544179,-0.343837316482984,0.10384394235002888
0.21432291294486008,-1.508519091276193,-0.2769928673067594,-0.006406272809775737,3.279886299448897,1.1741134832468874,0.03905241906899201,-1.44734783062502,-1.2282023721294841,-0.7329094713740015
0.008466268766964657,-0.030860791375953545,0.28646098728712455,0.2806468504556107,-0.3458570189373845,1.2394582334980473,0.10541721984681006,-0.42457714145831144,-0.48222811578056823,-0.215347550786259
0.021873804726308742,0.5180188740406101,0.09462079240496687,0.22463683839475798,0.45874612915240265,1.0105063400030203,0.001761556817290273,-0.17936606729966062,0.043111625178226545,0.3299009390470893
0.067479673736588,1.1323967074993044,0.5275253993483823,0.4411520261708772,-0.36442265975724264,3.7946536373424817,0.2332898824955151,-0.7309536573318134,0.06973694464621244,-0.22072982787328221
0.08233991562016325,0.6975522326262318,0.6062413276391657,0.2586000753371496,-0.40819899280802696,3.659607314852048,0.09190418951794342,-0.44248757198513133,-0.099976955375223,0.41318932866866753
0.18601419137468123,-0.640489168767961,0.23534464154461499,0.21972687132375107,1.6595799401914828,2.735567348334978,0.15414139117656628,0.10066583020959391,0.8207762711877997,-0.12370279621061031
0.07524146185512923,0.14902291587178276,0.07582990026776984,-0.023954523160334806,-0.07082484382580112,-0.011217888589000413,0.01299536145549108,-0.07315482564897557,-0.44061496503781994,0.32836195858399064
-0.16775271862993724,-0.6384651448877541,0.7059517633487774,0.19570424515871573,0.884025053159136,1.0203888187037276,0.22446457951244414,-2.3004101562681742,-0.6008729821566876,0.11451159961092476
0.2219373851972514,-0.9150626831148272,0.5799983500820131,0.32765522319658585,2.0450214777566624,2.4155418302818283,0.22317771793487798,-0.9530070473938248,-0.28127208900423456,0.10217558398874965
0.1390269701058543,-0.485654492523391,-0.2661168459319923,-0.16295557703394686,2.3423121094608432,2.2781492430096866,-0.06754284846753494,0.41809972377231297,-0.8333726686439322,-0.20137070827603162
0.1585161346843577,-0.025252631791325197,0.6557025540126726,0.21224016136750326,0.749048721596056,0.09900595112748167,0.2071272337709071,0.19848003896425825,0.0505452688961569,0.01702827752795677
0.08925812004608427,0.19299891073685457,0.2794307307164541,0.058613251617118244,-0.26601493991754566,0.1424215287446821,0.04772908310620215,-0.009195337092367004,-0.9797959494713923,-0.18275124177877672
-0.05272415563810158,-1.0145805081605925,0.2553745490118154,0.2142406142934568,1.6992677479708114,1.397782578367727,-0.014423230059859514,-1.2237913558682678,0.04117554636937829,-0.5814335037240377
-0.00039123986847531834,-0.8106458633461574,0.08958294096912457,0.06190734856997071,3.3844759782243843,1.0295314947126353,0.023830567298644474,-2.5615070339870822,-0.8756087303306874,-0.7108250611195706
-0.003779683358563679,-1.0631908554616885,-0.13331703868945066,0.031600221752220166,2.77272328287697,0.40970591994044364,-0.045405045494293465,-0.16096376923221478,-1.1397995323295393,-0.38544643087377156
0.07431183380647806,0.24155986524777792,0.6009003683639921,0.3764116062470771,1.6737539679127802,1.3690152492495375,0.08224906348536323,-1.9801065249945462,-1.0594520906390967,-0.32977923915219154
0.017418425988064132,-0.17752720318693255,-0.6235005604606209,0.005803498481529379,1.5462275721102294,-0.5841450620460198,-0.13926235908948761,0.2745638398704155,-0.3798287517931362,0.29290967296527554
0.13625345816959053,-0.50374616006276,-0.017119644744919463,0.00038672544513952163,1.6145597863728751,0.12143795800678396,-0.027592857639382636,-1.8590031203432238,0.025447136118891364,-0.35719265020095026
0.4948802882783252,-1.0185840415064318,0.35149033928190515,0.088780521899049,2.4336543285489616,3.415168346686455,0.17860596907412393,-1.7434260378727915,0.3250469857930365,-0.4653426526457345
0.18933934506482444,-0.3115237971286312,0.26513850122109933,-0.004209560261879506,1.6366852948561745,1.8687494495306467,0.12616209242480791,-0.8415905128011353,0.44961178745993124,-0.07689885182235014
0.1042153435170831,-0.24676995614063837,0.2740045250366034,0.14847182741661472,-0.9506838854939781,1.9565725804645024,-0.024816991040069743,-1.5093226607940509,-0.062357891545924554,-0.3116935907358008
0.061344980021262166,-0.6606611974258528,0.06389742966925464,0.20005937254798392,2.2973732138309555,-0.33541944105202925,-0.008679728159694389,-0.8142955630812376,-0.17235792690414486,-0.4201653751459698
-0.15331162795600695,-0.6216141419269601,0.3273657215827287,0.24276294136909274,2.7016858163594475,3.519952220410686,0.2618530252663666,-0.6480876899246643,-0.7249407622405867,-0.5502342522178597
-0.04443291840839454,-1.1060582090876219,0.3891632697168036,-0.15159738485562319,-0.48756669158690336,-0.5501235053550002,0.05405463461262491,1.5697678389096341,0.19341104929581812,0.25356316152628516
0.01803454948840748,-0.8315180146948403,0.5875440566098391,0.2579916017590314,2.131849773793714,3.255448093108316,0.11129656373552467,0.26656972042673743,1.1390149918573276,-0.2572357972355987
-0.08489075513554802,-0.5073917870410084,0.19344051475454085,0.29485503077693115,3.252067426419883,2.722666126636678,0.045534845955590396,-1.3691035874137683,-0.2966281463932076,-0.38805022577029136
0.11525941096620197,-0.1086825718763334,0.7361084608099973,0.27636436378248475,3.237133277679866,3.576990960757319,0.11480788147284993,-1.2350841507900256,-0.5190163446279153,-0.5259164511496325
0.12044295848570724,-0.5715518050558621,0.1862281952120326,-0.01990905705942523,2.4151659077965704,-0.28413103653714455,0.11690714468544092,-0.3983113775788847,-0.8206059544119022,0.16864622461508277
0.05429198390308459,0.25923688120061733,0.5721308026908793,0.34515810817830034,-0.5445351650718808,3.7413556133018187,0.23395470147311312,-0.35740723611860914,0.1847806725555992,0.2631539279124103
0.11690316060638668,-0.47052031202595396,0.23060963443939975,-0.10689419621240435,0.7782702823662464,0.1943204694200905,-0.013205436356275706,-1.4799417608699579,-1.2978264873205199,-0.20505749008633567
0.012723242107392499,-0.7817184819279599,0.31459532920321537,0.14491880570697604,1.376423737321943,2.2692600220595236,0.20626767768359622,0.27433488766234737,0.2812169004914936,-0.25198180700804296
0.17073907225489618,0.4538070216681957,0.06907766199504985,0.11119238720486949,1.9222110349882633,0.5179474049680128,0.03293654235982082,0.5511188464118832,0.21631975840865314,0.1343609549106478
0.14212022468364796,-0.18769937441128337,0.4344856538772828,-0.10245589492845827,2.3295237348815383,-1.3998577946742736,0.007889365804320633,-0.46324262192268606,-0.6145989652457085,-0.43608652138321613
0.05566359412376278,-0.608590120720889,0.21042342102179976,0.1970070369310256,3.1293494052728166,2.571539001993871,0.2417151901433046,-2.3105345584084773,-1.4046015545949557,-0.45734977591782505
-0.07896037069672929,-0.8929299237254956,1.0710296319271593,0.31133084805357364,2.776507033394338,3.0737885816603807,0.2874578469953862,-1.2436545096210483,-1.1681715623772295,-0.199937778723591
0.045172918257315876,0.6862382812935528,0.044586976411515204,-0.048069529041520766,-0.9541182564675238,0.7610529340347743,0.00662741434938126,1.7194332143699862,0.9748509438935553,-0.10790062186139723
0.1206533251377291,0.41918913702441163,0.3199897957176294,0.260316440303155,1.2807286459853642,1.4887018717321772,0.0712101325987733,-0.5214030507529678,-0.6680373343455919,0.12539485205542336
-0.12213278767459346,-0.23711836890604923,0.21211526229803251,0.2569169301702743,-0.6008791551803454,2.5951508217230645,0.2033678803317395,-0.7629668664833995,-0.8096246834086738,0.09140675834634637
-0.06805400315214333,-0.23758448249923567,0.06773817542640488,0.3624715980341974,3.3304988235261828,2.363147953323484,0.16095246229493693,-0.17743457806236007,-1.0810380993131974,-0.2581750560477238
-0.035213573997260814,-0.11192979166180111,0.49685100166410223,0.16290000866458118,1.4144699881115206,2.0238590657230477,0.10522695730965882,0.19118006424439926,-0.22925725981452397,-0.3444329092143827
-0.02377860479295689,-0.6649217458155543,0.05859987343841,-0.00278346683406612,0.6203860909270444,1.8635672795189377,-0.03219000029200242,-0.8136661927804749,-1.0332369985958154,0.02865671876141514
0.05351478966360279,-0.43141122431354706,0.2817160242439763,-0.02474197854424672,0.6040133758947501,1.158459727043473,-0.02151475121097459,-0.6467192342565463,-0.28105501131327065,0.12012060476027439
-0.12255593078261684,1.1884946169162058,-0.4135566502510599,0.010000823104156814,2.432476785430497,-2.236874344191234,-0.13988167913870062,-1.7205544135336834,-0.48278585590974504,-0.17808483474729725
-0.16974470971690447,-0.6466921421867937,0.11758334166844901,0.09803626867076753,1.7188443060350096,1.5417209038034168,0.1033658816846751,0.5670077710033989,-0.11510195076727714,-0.018330053953054648
0.1312508681910203,0.4090982284144028,0.573786832105502,0.16187983228316272,-0.803930795076375,2.1253009980443975,0.12164729715213413,-0.2843268811798798,0.17015730884316077,0.22648505561535673
-0.041081340523703484,0.16501544486739,0.7442256076190531,0.2529513174240536,0.8762725214464466,4.078674883694482,0.2788576215481912,-0.4870367771380689,-0.9807951340000608,-0.4648924436029538
0.10545171584360016,0.2986387622361253,0.9355672222060776,0.2495879252779586,2.3041087233171833,2.8349334953891936,0.26191086982051986,0.4246840936527624,-0.23799570862575514,-0.172094482699935
0.1841755012503363,0.12481689621490163,0.6607844312174079,0.2080241976416204,0.17093421016509813,0.9646103413696985,0.16057519302619677,0.11500590343923414,0.22160814941029422,-0.36071353013644436
0.030442217899286278,-1.219236537716069,0.5517206829875304,0.317504166122622,0.14102075748061882,4.044623019138991,0.18850681138700406,0.12302722482303224,1.231188349773448,-0.03352845517801974
0.055359456593168356,0.021065203866095228,0.47939615063869573,0.35097339778862124,1.6857814325380347,3.0058055640341994,0.2505625142331345,-0.5157536685707818,0.8296458347607285,-0.3238598422674988
0.09264105634525291,1.071369302571993,0.7868179336813618,0.27751420441265123,-0.6019112948127354,2.777138606104214,0.13753466442857737,0.2385020833167295,0.3607321565626243,0.20440457715006363
0.09253476269719499,-0.27971697644352783,0.3599861636510674,0.058477381442534546,1.779415912187329,2.3664662461967767,0.10839951684460011,0.5115073514493951,-0.7783370796769327,-0.10946449926365004
0.19518664741244848,0.03770723247742512,-0.5312148163446053,-0.11651307414630352,0.8877296156026824,-0.3878573688363324,-0.03498615373433113,0.17549193495513796,0.0804672394540136,0.20265320419667399
-0.15189205510230686,-0.09667300752532779,-0.4169454510041465,0.049457636515840786,-0.6072460879522213,-1.4275736162505286,-0.03757666835344909,1.1518228028570503,0.668270744994307,-0.2804739233571134
0.16280352679167173,-0.2678563571513414,0.6366212594518381,0.20454434113774797,1.2859883820041795,0.4688427270226534,0.04649775075043865,-3.0002754260547735,-1.326988008927296,-0.5122917014163995
-0.03561676965932374,-0.01986990196331591,0.38290437820309636,0.06629852638382962,0.08401474920478247,1.7146106102235978,0.13643868163367479,-0.8001250793297641,0.5582056844575413,-0.2943575494099882
0.03906976398292931,-0.29540711247831636,0.8225269326540404,0.23441543775591753,0.1471939260344426,2.862371295003777,0.23552264359827238,0.9667608467955484,0.5226468617725742,0.12165878027185818
0.04504093005604827,-0.5588731431918663,0.45802446228315735,-0.019930138590409915,2.79290570874803,2.684576270147188,0.17087906220616922,-0.6897971009971663,-1.0630575340360742,0.10692660522067297
0.2206099327895495,0.034852774388817155,0.12384696083499716,0.001071321021251665,0.8098001553728398,-1.043812492885288,-0.0021863816641687363,1.3207176441693078,0.2351974281197066,-0.02840051989405231
0.12664973807417626,-0.08319921233224586,0.749867997742116,0.25597478818440894,2.6875114283574155,0.9693804667716466,0.10129278553167351,-0.7007159285138485,0.11880242167771653,0.09926240318810681
-0.021939265988952277,-1.357341318869225,-0.027141822100628932,-0.022309426187441438,1.1936870099164536,3.047438406867885,0.014265873577510852,-2.366558442663232,0.004087962227786118,-0.45498373174486684
0.14289548839577979,-0.19383425549090216,0.1767527378814085,-0.05125539062946763,0.2785743462665873,0.13877695222557335,-0.05591038393712647,-2.311739474982834,0.22117131378133564,0.1244628243222089
-0.03697067723360238,0.3803305598127159,0.49874027416140854,0.2712681482772535,0.7168277643527428,1.9208710800472453,0.053799011789734466,1.8120346589813165,1.1379984974676014,-0.01656857610125851
-0.3419953819652791,-1.2247822644047914,0.6950080339210306,0.20124408909882052,3.2116184407241954,2.2107199853636064,0.18303459864330232,-1.2711165418645773,-0.9842783776014353,-0.20606666206476384
0.2189662918132369,-0.0395183774972134,0.5992147813887214,0.3201072858614818,2.92300489442169,1.4706444382476853,0.08934341180336049,-2.2204895371118782,-1.0764854464401867,-0.3991629541371145
-0.25291036221864066,-1.2980951527257283,0.6258910144342426,0.3067200910759898,2.9639564610587694,2.9213203834797876,0.1942848281954323,-0.9722425214257873,-0.29972995850939393,-0.682976511019351
-0.04663811329927854,0.7195438298300356,0.22379511387865356,0.17114025472970804,0.3507510912024905,3.435185937201674,0.2046690044637216,-1.5754671695619913,-0.3271845525947488,-0.5174893285692037
0.08139443063178782,0.13749310434229026,0.28360846581686305,-0.026943548924549206,0.2212079017411308,-0.3687524617021309,0.04311863141837566,0.6041864581542421,-1.0450399655887561,0.08245874753773841
0.10687889253238057,-0.7122744312252114,0.7169694615023383,0.37204995953622216,-0.7061188004842436,1.8607998209954348,0.02670392348643153,0.4431137764060633,0.14073755297774654,-0.17005249454105587
0.16167273362793433,-0.27066307559478137,0.23836485425052098,-0.03895509782487716,1.1091991813569506,1.460817307995152,0.08375094247908645,-0.27172467863556565,-0.3529454637731157,0.4861042095158191
-0.03856692817695063,-0.7735094117864479,0.5616751671502549,0.20993542377746652,1.6150725692728756,2.6811794781901903,0.14889386035375035,0.3391797280159963,-0.9913573035263438,-0.42393999227876766
-0.038228440629509704,-0.09111070021522337,-0.22078791593167313,0.08795425313003506,0.34338669834293745,-1.6942509975341846,-0.014677353277577531,1.272191914306097,0.05462623509835083,0.10330325707332787
-0.06146054417925024,1.015886968013136,0.08702298560238524,0.10200283229903145,-0.7062517520712674,-1.1658226061115902,0.0407280646001804,-0.6685253671760654,0.18480020590662663,0.17882274947559054
-0.0656930084353326,-0.6254988633145342,0.36931683934339066,0.1772400499014173,0.7066916528302158,2.357346677482697,0.08142618960913402,-0.7331220226100875,0.35943129637598,-0.3274406089708842
0.20618475106882247,-0.8796514175481426,0.5514706537072672,0.009706758313481724,2.9190234307592684,1.457080641127236,0.12870917042885588,-1.6638466346843495,-0.9832303468024535,-0.770758355826723
-0.19330913160242374,-0.9953038627438887,-0.0564979422224913,-0.09914364152028524,3.053531060100447,0.12492382592874746,0.026386074787344355,-1.1137634620356112,-1.1630914773174215,-0.21289512170919458
0.18132428405391623,-0.7078474860785643,0.49723183154544737,-0.024811335638390695,2.443967487941201,0.11414637291854948,0.0760736280809143,-1.717533104233696,-0.5881966907309708,0.20035050794296277
-0.18481587823404821,-0.6581221525676758,0.6160301244780587,0.18390054806966322,1.9339598597647973,1.8774698212982033,0.1551048810084912,-1.6034711641478998,0.34325752900743267,0.14895974165770776
-0.01377973285376941,0.30386773245831833,0.479296627663421,0.20780776860681252,1.8009592089065878,2.170032374442086,0.1082245966624799,0.5456633289021177,-1.058047388625264,-0.05593094690852125
0.30190576910002687,-0.09898755980203867,-0.08817136232943101,0.19774266087186154,0.16752733709985423,1.8066326113093893,0.03897349865261778,-1.0820200577876584,0.13487179892736342,-0.015189649732644491
0.07084975763162922,0.9649632952848004,0.4715224729822024,0.32151755319877795,1.6876283388504727,1.7618378827305725,0.2887006750452073,-0.8173760837847192,0.29757045333231047,-0.042317475076779985
-0.1059842267729375,0.8226788333752475,0.25234158724480543,0.14406962342691107,-0.8311336482557301,0.016432782183228967,-0.014451528573422755,-0.9171740677445505,0.3494100995071354,0.11832719863072416
0.12162986079550447,-0.8547533535226323,-0.029080886214538554,0.09745675528869711,2.2681474136225614,0.8786560883075027,0.08437993969681278,-1.3828652042447802,-0.46164003680806426,-0.3132656096926138
-0.06611280458705987,0.4895982704542124,-0.04286340089580908,-0.1753202025608005,1.5264346771113888,1.3946060899040584,-0.11526834367998792,-1.8432701675664551,-0.678832680793054,0.01055406553901109
0.04828567535442558,-0.8715775872143754,0.3163605675419143,-0.09235590519943401,3.357912177605198,0.26857918774393125,0.02578754986129498,-1.3283675124034773,-0.5530607619103022,-0.5075108893511843
-0.11966883017649452,-0.5154993853596741,0.7368411217008908,0.18610946239051257,2.4598593011212047,1.4318227443905096,0.18909150620926282,-0.580939435236598,-0.5072958826040764,-0.20977766149564953
0.11458573280679729,0.20607465521009175,0.33506478367587,-0.0883091542321376,0.33606923118179766,-1.3486041778670121,-0.06433973328880759,1.3417459222990828,-0.3588610202558783,-0.37911869789124325
0.10685055287475792,0.5181247458524445,1.0629738248103329,0.3893262615912494,0.40363251474572004,1.6984762583047828,0.2230561881338656,2.004535693720058,0.14584289887161506,0.27597031802796773
0.1935727009395246,0.32006959368818405,0.09038244321864393,0.19108869615987245,-0.06812887242881605,2.1734139653620557,0.17532158766791966,-0.672473592347224,-0.01539878310589638,-0.0747936677654231
0.11772870925399355,-0.0011189816119768214,0.4761751149460002,0.24881308000792227,0.5881989588313279,1.5718237275364717,0.23979710060109793,-1.4831003045159894,-1.5450087911681343,-0.018568421974217254
