x1,x2,x3,x4,x5,y1,y2,y3,y4,y5
0.517044602519124,-0.004205898297074292,-0.04463018152749125,-0.009923150680869323,0.24494878813985085,0.8624832362325905,-0.31887536901286123,-0.24072098103199377,-1.1567273574959027,-0.7380636315629923
-0.8188548525028623,-0.008983100710015025,0.002562700164216683,-0.38259698132443826,0.14751738171153547,0.32564342387603035,0.6472424232890555,0.18573261106013206,0.43432404878269104,-0.21177955896712392
2.9861274908618434,-0.029691772392166155,0.19246604780414614,-0.07977193284877472,-1.079704627882363,-1.2500421654496119,0.22946245889356784,-0.0945831734427812,0.20778245084084512,-0.18264686340558015
1.3663284484016813,-0.0720815465591903,-0.23994440072759485,-0.3455665621082469,-0.32647174550488817,-0.05102719760246355,-0.1788762909111369,-0.4132590407664237,3.831204990713937,0.48580335016087856
0.8323010725091782,-0.12210710648156135,0.007325672618388089,-0.31745454754641167,-0.721600487820366,0.3579390895858151,-1.2197639940100315,0.02270543554386785,2.125884977058107,0.44663871734593785
1.3381901291198672,0.048934040267305016,0.10575616663697396,-0.1480979415479177,0.15292908031830327,-1.8067647836314356,-0.6782885201233361,-0.35803645218666846,2.0855146440786134,-0.2133520626453357
0.48351845832402507,-0.046655473804725595,-0.2469764425005096,0.3884980962513251,0.5873036051270284,-2.0557937167427247,-0.5608897684178119,-0.021085968230325602,-0.4132698991377573,-1.1698372589029433
1.014376792820824,-0.01672087043990093,0.05163127212428436,-0.13526596902072852,-0.6907653211294675,-1.2174286873830131,-0.9361056736984987,-0.5827671597155893,-0.14895470484020387,0.02993787512788123
0.5260834041608267,-0.0014528763488950564,-0.023066033010325213,0.25065075483808336,-0.646685474520994,0.05177786558297215,-0.365493641612716,0.21527187534172643,3.248153552042374,1.972842807708712
2.7964574303839704,-0.008468094127612529,-0.47937814219359176,0.01960123664425746,-0.5897005275183518,-1.7286429385886537,-0.40657398362267083,-0.389383956059999,0.23011090781432486,0.5961084523135906
1.6527790434577772,0.08152113320058621,-0.011072850856719607,0.2824260988965621,-0.06718880362527217,1.0126748990159526,0.6432215110367623,-0.723685594904315,0.322455027881122,-0.24460687216396917
-0.167559713055215,0.03275552999422462,0.3538534400964158,-0.28753950224920577,-0.35072653555134914,1.8860270707555755,0.22574031413376353,0.0077978668280151014,1.6728922510182056,0.7782400602387971
0.3170240509485167,0.10959256186801461,-0.41337717704790244,0.2330710776180698,0.42372807094315906,1.019098217348767,0.5639809435402849,0.17260063853761903,-0.5288823906229464,0.12737989114544687
2.720159655902498,0.02435005978960529,0.06543673362238273,-0.27587967339269653,-1.126249034728219,-3.0434856378189563,-1.2983612336029546,0.43574943087996776,3.467855045039286,1.2358953778127892
-0.2851254222321814,-0.0015144502395042139,-0.04885585254986912,0.07583533150703882,-0.712399048279039,-1.098388510522397,-0.3623776068675388,-0.22258863415895502,2.678178136344827,1.8760602884431363
3.3187714722842925,-0.03784868607552643,-0.0774653100420312,-0.10745973750245817,-0.9056732661909691,-3.727042941116465,-0.47543736590527425,-0.29571152193247574,2.36217213939463,0.6554213835554658
-0.9984882826578954,0.032853383574099296,0.04002515820218536,0.5000534702851451,0.5162085909214056,-1.0621094845410524,1.0344653365281276,0.6433500129997711,0.20292436383827728,-0.485071195426384
2.4409791132858163,0.005755184372613406,0.18444873310968232,-0.1302366048640799,-0.5998181420203392,-3.460642055329193,-0.2650935523601961,-0.19998303932154007,1.1758265724235628,0.8878861096680652
-0.9120440428592108,-0.010497792985611142,-0.27168977155528595,0.005802529853944107,-0.14830572200892564,-0.9849857000322869,-1.0932102788224975,-0.2805368141018838,3.2331948535871846,0.6159175071282958
2.383290958175304,0.044739721669693915,-0.31816546646414207,0.09589084695248656,-0.1981636636905763,-1.740545906917673,-0.41751416287523035,-0.12040897405743672,5.856912595416794,1.7773926909911397
-0.7954676886520468,-0.08338845764776152,0.20961617294319834,-0.135449042940086,0.46724550787290237,0.6185033284315239,0.029862825230027146,-0.22445959651935526,-0.5810037675170578,-0.041652355509734555
0.4013770520142059,-0.05127900129745074,-0.30689552333006126,-0.004711204478047051,-0.9690438567927911,-1.8965844506322407,-0.5095163531395098,0.1661469639550988,1.480213190477621,0.02250323641357774
-0.9995165688151579,0.054085403702872493,-0.4592513344589184,-0.01954319895651783,0.2620021529059757,-0.20582510220363215,-1.2540664001689192,-0.22498004857209772,3.653029248072299,0.7431988899247735
2.972659700281412,-0.0035262163909760926,0.15199285516129063,-0.6274843904719999,-0.8860469988214488,0.027778604585893152,-0.7526357099737437,-0.6337253580881299,-0.0816469477525068,0.30730505888614895
-0.7343875211509353,-0.038374737215101505,-0.5255671474392488,-0.08782221024800346,0.05026785136409745,-1.0879127031840135,-0.5986319880777048,-0.3825410418260086,-1.1878487298543,-0.573638046658532
0.6319916685460918,0.06994496867124236,0.49011612926888604,0.2890308248996786,0.3527776837039373,-0.3729413698479151,-0.10416479900091535,-0.14635513062955735,-0.08895705439731644,0.8728530135255396
-0.1894379296439137,-0.09180659653082245,-0.17840290877355894,0.14733656899772274,-0.0672996704487005,-1.1658005874072672,-0.23576241328907616,-0.2630126365470998,-0.12420569653972069,0.9258349602105141
0.5536734959456475,-0.0029608599041505684,0.16833841387497595,-0.15633515550536167,-0.8639905274139001,0.9019995009059909,-0.8826008525664659,0.10733329041820816,3.104816513781635,1.790074672679389
1.386549837726347,-0.07629078804023669,0.05729560354952973,-0.039258825479117264,-0.495227794199432,-0.8980585714049648,-0.4681275189316204,-0.32373323641612356,0.7336694951464109,0.20051253446194947
1.6995310815148272,0.017362771911196423,-0.19358331942382592,-0.22192999327895607,-0.6974615886542747,-3.092259801310599,-0.9731783438734731,-0.005378380368511515,3.1964905052338946,0.931382490677701
3.390589506787376,0.010925501260940777,-0.1380592572451122,-0.3596304068818905,-0.9992390751749064,2.0860362356940434,0.2398189973276756,-0.0827280894303189,0.5725438738907691,1.9429226086031552
2.895647994993538,-0.05996153037750252,-0.21989325489149741,-0.1725641484386809,-1.3110048999601824,-2.5465298911426695,-0.5311025602438083,-0.12418324139797154,-1.0746523945082813,-0.18861257286298622
0.8186253771065377,0.08534038232969021,-0.11823870355926382,0.1293060157772455,-0.5486398792602001,-0.29668298518021285,-1.8796392667225943,-0.8850973913864412,3.9231076839926455,0.6565572124695254
-0.3402189682208959,0.05813257703295489,-0.217907500928481,-0.09105630543951385,-0.11300070937993038,1.493603702646838,-0.1248950534316382,-0.061193631828351996,0.28083349537788127,-0.20765890101759507
0.1483326359888686,-0.019429839470307388,-0.2049366247768818,0.23479369740169997,0.320226367888256,-1.072900973802188,-0.8557952866910051,-0.5028567148490558,-1.5130339043514978,-0.6014026898420618
0.008017551631108732,0.08352298221715493,0.18987363588259815,0.1618882614510145,0.06177017337653147,-0.5278091118998334,-0.5321618244035635,-0.14084906792531915,2.2972886176989444,1.328832407171452
0.7094205167058754,-0.04909542080588453,0.12320070696133252,0.20555482982519113,0.18056820669399976,-2.1443099637280985,-0.3611021143192518,-0.19402237791680083,-0.4142581761020455,-0.21899274173920616
-0.23246097193393467,-0.0829034341953993,0.03452512613989722,0.015466513293182218,-0.3690761168901361,0.49516845235343687,-0.3969082897638567,-0.00344324543987945,1.81239197098464,1.2583613982316435
-0.0777600824667668,0.08975451381703825,-0.09538745538672594,0.23044815006638647,-0.5329019179221157,-1.8578102146580973,0.6164761698471871,-0.3456556498876803,4.605001768221889,1.0117832089087173
2.11763922217056,-0.0031529511033090867,0.005885411296725901,-0.20169244826949154,-0.3145875052199045,-0.5258804996552677,0.771531409199721,-0.2463976098534072,3.342405179638451,1.776392483777297
-0.07275086110738083,-0.014080106303231529,-0.12352034408182185,-0.30436002376480026,0.2419104941772607,0.08542036455370638,-0.11886921124112904,0.6596649662130404,-1.3679913525796306,-0.5622382074411812
1.7946674414979444,-0.03297868266785536,-0.24843871640031384,-0.2824490831175762,-0.42141142604930587,-0.04257388062877633,-0.8689599591977231,0.19677138897784333,-1.4206390957276833,0.18387623587065174
0.24050641250559535,0.04751711102067394,0.16780815044146746,0.3443021175141836,0.4282886468082313,-1.1883841910540014,-0.4798783483119794,-0.27632974361971274,2.914848609099158,1.4644928066841996
-0.4446614961875458,-0.02390851767337869,-0.36152113337732283,0.14114199178950892,0.5333375959830706,-0.17592038090169726,-0.0437519092176125,-0.14924554166235077,-0.6621663054806833,0.06971908976225986
-0.5644028965755015,0.03178584668524963,0.14761240912221005,-0.3254323079105977,-0.3345558176329797,1.0914495665511605,-0.36136326557939735,-0.3410914303815566,0.7561362286342198,0.036649318189711025
0.6379867408117712,-0.05975378227483999,-0.2563055594315828,-0.07457323832280777,-0.570152874169011,-1.3024054840165706,-0.7983291926864838,0.3832862219040766,1.7887677080488413,0.44312190263349016
2.3570082647138557,0.006915892987579745,0.0054225161612168615,-0.3572298915378143,-1.2010712790524085,-0.7665281400551612,-0.2714714334658715,0.123097302064858,0.8326750348737544,-0.8492852967130669
2.385555855084818,0.041078214226938047,-0.1617140751637057,-0.42132604750216973,-1.7479266219542646,1.2489794673733154,-0.5257163364477279,0.18198715907478713,0.9652588119107218,0.4597029765200189
-0.31082326784095016,0.03193546519607936,0.004295520433548139,0.010059588638682162,0.5016944790209815,-0.9821129358313514,0.0044983148626077385,-0.03893085692631615,0.5400734166340543,0.11346894227101965
1.3939412541970149,0.014147723583199207,0.1773784142424991,-0.29782433997821356,-0.7473023824802582,-0.019415664768130197,-0.2705258428221402,-0.6734091957724561,-0.22019402685444156,0.4403179066808952
0.660593550278491,-0.06805132810323683,0.3830982081275204,-0.15985012676080151,-1.097667011270442,1.0652593414791982,-0.32620633786252434,-0.8767888668761066,1.9263497395771698,1.1644424525197248
0.6501756524807987,-0.15410959366295823,-0.23274656017451556,-0.14338156182326234,-0.08312458369457741,0.5758579218237012,0.04599439482114745,-0.016038274915683493,0.9339896514346857,0.7738916694817346
-0.2852659135644414,-0.041451953949311116,-0.1303826032053712,0.02216076695428102,-0.4482593719764823,-1.9148009525362617,-1.263368977370452,-0.4652704806658854,2.11687695579257,0.9539158607561566
-0.11992214150881553,0.00395066814323506,0.343649996935535,0.15520340829403645,-0.30502417872958515,0.7116269752633619,-0.9780674611260441,-0.10582884771494397,-1.9482593071109715,0.5999562356755114
1.1141865734972685,0.035569080278425716,-0.02847196500112817,0.13450552912059877,-0.631505444960859,1.3552779204391823,-0.6956070536269238,-0.28417587428945235,-1.4231041796338357,-0.08320379554582116
1.435500841266148,-0.07862475494794934,-0.0046630769167335,-0.08692293758810743,-0.4215563486510466,1.932422546419028,0.3404691080956749,-0.08668896674412484,1.1905864046075911,0.20045574275208092
0.9157524071826908,-0.04919061552839519,-0.09723614970176266,-0.2978117445294042,-0.33946355728606675,-1.1709150070123313,0.3074740279553079,-0.6898853274712035,2.1963066243625096,0.5062168070736224
3.241732428091022,-0.0049640393316120425,-0.1604671620243193,0.0013135579777788563,-1.1875269272087745,-0.446209719229123,-0.7564957199695767,0.18570017114327586,2.248903025743572,0.8712018013257574
-0.8306212249782687,-0.07389915024501499,0.16785512837299993,0.1674190754415174,0.2025185186102293,2.2755167207348532,0.7318115326899632,-0.16193105660800888,-0.3396027852782626,-0.9813400915321329
3.1070959905853623,0.06549271740548583,0.12168955832216238,-0.12060385116678801,-0.871334519385172,0.20574573379027872,-0.061625385581639436,-0.14597311031801277,1.299147842865903,0.31319535307368923
1.362594274655173,-0.036606166169039216,-0.2956475192113789,-0.23057227447144774,-0.8590305677659169,-0.0068272664199986455,-1.489712286008523,-0.5814448315169193,3.960375584142064,0.4353039144486323
1.5609778636513414,0.0006507625949099126,0.3005853758130759,-0.4101298620637442,-1.0772654642057102,0.7359397586509575,-0.29770245020671826,-0.23603908853742386,-0.5252208161869232,0.9344950050767526
2.742034404259056,-0.051613136024736536,0.15403634673191174,-0.36469787144618154,-0.6808753164373053,-1.6472917481180922,0.2890108566974011,0.43601033726146393,-0.11829620379591586,-0.13660758337875706
1.2699346498499855,-0.015196952096654911,0.48168364154121857,-0.26773156819947413,-0.41571187045738184,1.2730525071451946,-0.6678722124131137,0.0682519259384877,2.9760717642061456,1.6638711962713897
2.9054230100407037,0.078337376118162,-0.2382698274197556,-0.2089277055535719,-1.2458736922565274,0.6996287730612181,0.08926690320221305,-0.17620548553582632,-0.6736799635564532,-0.15066706477821734
2.004062391981778,-0.013475495391471278,-0.11243716990536223,0.13460711322794602,0.060987970149345566,0.4144166134217929,-0.4255435386440566,0.23297644679373575,1.8941861988052144,0.9286590123059817
3.427815680906602,0.045850995417081604,-0.06895789873955158,-0.2101610729894137,-1.3474249370432727,1.2205589059563557,0.6404819661049694,-0.41455747734564263,-0.18321571188584573,-0.0638280630618995
1.9509362180172682,-0.03993550599514186,0.018007928407763246,-0.08476184406999343,0.16112246158352797,-2.2092858381652603,1.0876562472959659,-0.0610498460519877,1.9643959026378466,0.3950859869082593
-0.9375520631895933,-0.05972352373308595,-0.16775853676439073,-0.1288153525433487,0.8255091734801598,-2.9285219191792105,0.2579410691195244,-0.36267662704842424,-1.5741613207790728,0.6579547302884001
2.9277994991888736,-0.026030334227223468,-0.04188688878856907,-0.36594491964698944,-1.7508244700408153,1.090700127795898,1.1136507537269855,-0.5101605259474062,0.704854043341772,0.01720482703898245
0.3732023528970274,0.005824774921523757,0.10017137341965929,-0.057989664904232754,0.040652826621538886,-0.6179957384800695,0.10731991758500437,-0.1168974313431576,3.4594716370160015,1.33421825935525
-0.15629867115014462,-0.06756545463738145,-0.04978998329567112,-0.5121847992155498,-0.7533513378004876,-0.1442296601233103,-0.775955385452821,0.2284968985485026,2.352357292792023,1.598188230151376
0.9954539747095317,0.08129503585081498,-0.013791771020060989,0.023227052298123583,0.13760980812574486,-0.3470615040492836,-0.6859449577963342,-0.22400566101991803,3.795470627359646,1.6417500777350498
1.1573346808747167,0.05835502186836634,-0.07253307916882613,-0.3626869695300088,-0.4495675871418687,-1.2896831576837706,-1.8235262727314883,-0.055737254573189024,2.0401085254749196,1.717315866154557
3.334929038848288,0.06283640963748009,-0.06478829213244258,0.1672424549154816,-1.0290570910613066,-0.2626030383313046,-0.42309761870324386,-0.04937442313032028,2.7171025467358465,1.1309279982443476
-0.832092835205899,0.00892516298864771,-0.18207147183331024,-0.2049590695332516,0.44712595783165154,-1.8963251625459905,-0.7168626596834352,-0.5314550165190547,0.9077452781366229,-0.5634254368598702
2.1778354055005607,-0.01744239777225509,-0.06174943953731346,-0.04215201947858362,-0.13963110749426727,1.3470533620976732,0.5491441618709441,-0.028660319889548425,-0.5287351493625791,0.10322207546646979
-0.3659333032023694,0.05381691611237511,0.23367261017941293,-0.22931847781453607,-0.3075104974768608,0.5843020502282875,-0.6743418615078045,-0.3641281159906913,1.491632682828011,1.005407164561332
0.5752338944184916,0.04958655974411326,0.18298096550006987,0.07786395954195124,-0.44623673607209474,2.0117337087029776,0.11614428188282278,-0.005037609933696903,-0.77349464460422,0.1701993785123446
0.7155088577652957,-0.04895835009060371,-0.3220059701084964,0.0416403601700582,-0.23360039242802338,0.053019984206635395,-0.23989377314829968,-0.48380297108718756,2.836360960626816,0.7929563048688352
-0.6743760404577045,-0.09682666490479389,-0.24249708161968825,0.0679928127687239,1.2359239823776622,-3.999884537910308,-0.5060356230233033,-0.4399722368947333,3.0025400795936164,1.5350368891268136
2.9130007694311324,0.037710407805297406,-0.010923565989905681,-0.15731081066978916,-0.44320368522669124,-0.121562382649128,-0.4725807931305977,-0.2153161542703404,-0.7886881934107073,-0.5809574227406358
1.2518851303688199,0.02081117573131249,-0.07781202313249078,-0.0473762807007385,-0.4010009307125745,1.112880252778161,-0.22123849072850818,-0.19648979446169074,-1.7938398684987322,-0.8498792729794492
3.081905376922524,-0.08168299425448051,0.13916612086395613,-0.5154505803393009,-1.1987539121806612,2.060358907088699,-1.374120438071929,0.06034090707462514,1.3293906358392096,-0.76006111979012
3.2773438969814226,-0.07290914859830411,-0.12630478215638852,-0.36661311999189744,-0.859932031391538,-3.0053062501792365,-0.39459058771712296,0.021851945484773736,2.882148369657045,0.7509043159157499
-0.2475883233671623,0.048800094728762566,-0.2153361285165873,-0.36104959001513676,-0.26360069159768645,1.2447943658882612,-0.6045424343116064,-0.30673233813846656,2.771752207600456,1.3548173818839617
0.7553535539410559,-0.006228573074953689,0.590118751373911,-0.08320802333494076,-0.35351421495780266,-0.814061501086563,0.24548409069797983,-0.14182602532787175,-1.9722075360747744,-0.2885950767783893
0.4019440292812231,-0.005353046436810966,-0.27807005461597484,0.06466397727009623,0.1416522942807858,-0.2548995234189583,-0.37691751315156935,-0.4982723924183946,3.014757814925058,0.5223869087634097
3.1717576088994726,-0.0688103992650861,-0.22828271815590387,-0.3292372167028931,-1.0918293128406276,2.4204494490482693,0.024953486326636007,-0.11593742823477135,0.4219317073212593,-0.00633349929945041
2.157048113283913,0.05411175405742344,-0.17565859249899726,-0.009151269563497719,-0.49628524786915307,-0.4174753197398402,-0.3341321748173717,-0.027574179818773158,1.095547401682858,0.8138185960811508
0.2238022740557235,-0.046054184868916166,-0.11871139128057695,-0.12464783595284099,-0.45454299417180977,-1.1153737972200102,-0.25375124356376433,0.21322655798046494,-0.06760766754343173,-0.017266680952773915
3.2542561213102763,-0.005785533506939461,-0.24359620094398954,-0.5136467156886756,-1.2430458644889504,-2.612367309489531,0.38880590908915674,-0.07608166481987523,0.27545487238981725,0.7756725612161223
-0.910146636532287,-0.09149709983414593,0.1291391054345129,0.014713207527662382,0.012764395428781678,1.9479938735660525,-0.9028975070324325,-0.31063949512492867,-0.7895179756686991,0.10648652206120676
1.3751454900859055,-0.03532286601507091,0.11915382044666659,-0.02050068221830162,-1.1927699384996857,0.46112261958664946,0.5086609951004784,0.19837175386124184,-1.580643474507049,-0.19684318138933787
0.9251302862269613,-0.062167253871884105,-0.20001596287108214,-0.015498658069025634,-0.3395264188710208,0.07795577830049216,-0.7328594779008113,0.32275388048104353,0.5764225362595322,0.9600116467015343
2.549237759095049,-0.024267223198596626,-0.18589428900836572,-0.25284597136006925,-0.6112183949940331,1.5408329996567194,0.5997085100580012,0.24095992560391088,2.852099179440945,0.43451512981052315
0.2062283369892819,-0.01497361757304843,0.16140684696615162,-0.191104448035903,-0.6589692161761536,2.3397422070897593,-0.11671937616936034,0.24711321295685965,-1.3370796418408086,-0.2313856755916936
-0.06144681808457675,-0.10451094758623779,-0.17572429112923327,-0.03776382419954415,-0.24961192075572694,-0.038505473102892956,0.008628165031513535,-0.3518116700101713,2.9163911495728563,0.3520471716619574
2.4340798901477587,-0.06085791240020253,-0.2846551275862993,-0.03857758740775188,-0.4755001622655817,-1.6240205886951267,0.22053890301176496,-0.2714848953594932,3.0955720279093035,1.1974103319570903
0.5218356354649616,0.010013259770905598,-0.2578014828728657,-0.07762608739401655,-0.42972420177178855,1.050387477295512,-0.38528204666614563,0.05097218791936575,1.0059746597694001,1.167838679851818
-0.5375923585464524,0.03617464981425897,-0.48124563414858734,0.5303858113358921,0.553545192768059,0.7061336512209173,-0.6572942630112653,-0.27206011711728717,1.5621169581504366,-0.380038864120332
-0.8191046622990453,0.07817013449188376,0.1809732238653601,-0.029816083341744414,0.11643737785468246,-0.7094237075398712,-0.05317749253872431,-0.07262745660686684,3.9001528859501335,1.640358625658758
2.143155295249429,-0.04054633495852688,-0.25960570265663563,-0.09225403252904397,-0.27971003200465683,-1.555738939614788,-0.9793969370887521,0.24197914037789706,1.7186732672467926,0.601728469758795
1.8840424350379759,0.019664940824369998,-0.11727230511090724,-0.16367164304924525,-0.5431524768139528,1.492179202979884,0.9302305196708074,-0.0518344102523626,0.7178578093000967,0.05780800697516091
0.14924274056737485,0.03300449170439406,-0.25693369581530284,-0.5520132543538573,-0.6466460974967928,-0.2788414007279514,1.0138941145895028,0.0031132987686003644,-1.580946703758027,0.2423369859692883
-0.47924007843076344,0.01861459372632123,-0.4518945307513156,0.12029511589177927,0.6835652524296233,-1.6398769847770869,-0.12345744285074473,-0.6694756254075899,3.3981517466952775,0.8824126834828707
-0.9718880968944266,0.030969565827574316,-0.6748631195604948,0.4694749447376231,1.0937025861051937,-0.7747213281858152,-0.016519373346586652,-0.16537621618772888,1.141970766784883,0.8177967421581405
-0.17727032687435385,0.018952951936213654,0.268122724416623,0.07380901099047205,-0.2847219615222659,-1.279737944443276,0.23467820587783103,0.3553337538848166,-2.129825007785249,-0.5112765891117657
-0.46184285702911443,-0.01701846114615107,-0.41217857926168666,0.07475499883823082,0.24548346583864242,-3.854403763005107,0.13915874132503497,-0.0013727140993277688,2.33603253764342,1.0487630760704045
-0.06656231948652114,-0.06496336776834134,0.1979221599047898,-0.1534502761754947,-0.0593243512295581,-1.8458073328116629,-0.19007941670453746,-0.05629525877566968,3.743613251921504,1.3842681153834602
3.1725208981795374,0.044846571103125656,-0.030621428967343402,-0.22118452550910314,-1.1893943077158535,-0.3868989221683423,-0.17009970526629428,-0.06689573896219148,0.6851174724926347,1.1368556016012585
1.1172503264465705,-0.03700298044947887,-0.6526695305955434,-0.14112453897602725,-0.48997924242507346,1.4104939211306196,-0.08425099860487056,-0.10871531092793105,1.9821283778738221,0.8135246392765842
1.540111468215608,-0.10351934314056468,-0.34670889721472575,-0.34455357172656736,-0.20198286316120417,-0.06896083083142635,0.11379766998375913,0.41474482141531843,2.195189689893853,0.5666216950860016
-0.36843281753922696,-0.08828683606934212,0.2987041065661533,-0.025257082149637688,0.2850353695212088,-3.413231101310337,0.18972747391531886,-0.15658688096509146,3.6362132495556114,0.7182481081153517
2.954616317457935,-0.07937894031052446,-0.35855443941356574,-0.3045813641119858,-1.2548843863003893,-1.7920852324586596,0.6658512134748011,0.4121713814048385,0.32499708262415955,-0.0370413176266649
2.0796808558408495,-0.05114996184572512,0.19245556787647786,-0.27778170599480456,-0.6689761121860284,1.0460201443149681,-0.46936408334348223,0.21449234642383957,-0.4083045168466528,-0.41997605424733436
0.5543476187247465,-0.04201907376948993,0.3437811739726306,-0.3136082987631099,-0.37793440928319955,-2.393145178058747,0.08399566504545669,0.11990175528511603,1.5072200009161383,0.17865566041462783
1.3476686292738274,-0.10007341167524553,-0.32502267024025117,-0.06945794636894848,-0.5902945452808366,-1.0695862781514387,-0.9714778758023596,-0.007848311377401274,2.0892973230185294,0.032200178654095184
3.4299538405865544,0.05071404815575832,0.04177217336470518,-0.03994226687718998,-0.7377905521373116,-0.7695508698765017,0.058952023988917523,0.1682296417494275,0.7783845871929522,-0.11111197865591542
3.1571578573548136,-0.08456591259927677,0.24170398251824785,-0.16122368860609024,-1.439492776202145,-2.97684718167514,-0.5172796223818764,0.005285109886057654,3.795423225908258,0.7160230266095117
2.4515415053378415,-0.052167553854419985,-0.19130743082615853,-0.3526199917141388,-1.3669244122774276,1.2203088462871108,0.2223359148733426,-0.2577013075104424,0.5165393072726019,1.3805502468240238
1.4429864549628815,0.018678770850641926,-0.2832058106076313,-0.22248139770501266,-0.6071282251515634,-0.31808471452219844,0.5280393789895466,-0.22207827385507306,1.3585573019675512,0.7582364817417558
0.37592229398158894,-0.013219939285212015,-0.11010316541465778,-0.01924544016250099,0.6001010640112274,-1.3626794616517532,0.019962531121967775,0.3168583758178403,2.90753989774794,0.8328530407341783
-0.9695723311985799,0.04799756007100579,0.43336674356636795,0.031171868032022643,-0.19646067944748624,-1.3787298107740629,-0.24521169683412178,0.22619979247948252,3.1515571343124873,0.7085426528489573
1.3440423585361096,0.054895414833216825,0.0011354486524501328,-0.007799677190937846,-0.4191660704082874,1.0150242245117815,0.7326156131051842,0.19542587665738997,0.9496281059646832,-0.5742081407458522
2.4574920608693276,0.006098173458999245,-0.16403211905485748,-0.10622253399917841,-0.1181776342608422,0.0007121240685719066,-0.22161357878225546,0.1583246106630983,0.02864258751270965,-0.1301154317123562
0.18784935313180284,0.04996511278350114,-0.3796483142093581,0.02109039593229274,-0.12324447490493982,-0.03684457105062333,-0.6296160065326744,-0.07825468198904306,0.7819114723962215,0.01863228344369724
2.210521431297683,0.0451014178738957,0.025329383563563648,-0.013091755924971889,-0.5521449817335945,1.9050171915836582,1.18513044426427,-0.3930582135984514,-2.7974054974428224,0.18008069444680733
1.8382618805572566,-0.01087025352350769,-0.3819322972565916,-0.19747634431443292,-0.876618408596608,-1.6194218150561017,0.9433084055400788,0.10190386864362512,3.8900317350688365,1.1632661008495173
1.8794319130762362,-0.03199233867828358,-0.10105057018251792,-0.33551383167759746,-1.286425238780169,-3.2627932013885355,0.9790449791734703,-0.009408642784551016,-0.5806165400051945,-0.35784020323133214
1.5636678871427554,-0.054727020800484444,0.10970913981442328,-0.1049085736226021,-0.6993237555821328,-1.4884528267597992,0.940332122210126,0.25232969583834836,-2.5280875765347988,-0.5860984916488946
0.9744224402054731,0.11766372695705822,-0.4105972503694048,-0.04451770272650705,-0.5873122452038904,0.09699844093335469,-0.1824169925915085,0.2606943887048342,2.0027396076729245,-0.14664044250442268
1.4123606813427667,-0.04093485265772828,-0.010545618234542281,0.025557675171798327,-0.9776272330877296,-1.0454937598272667,0.08243116701597153,0.1438201861132109,1.4600643872306274,0.450938759109953
2.1659442708991867,0.07557405200380823,-0.15389697030814758,-0.06778649955786822,-0.4650301995402331,1.0261843999438445,0.07599172834797023,-0.18289899003565324,2.8276755815027093,0.6703839625616872
1.8018278540350914,-0.008604272947279912,-0.2100812407787493,-0.20035813249634737,-0.9381341648023095,0.4249977258668799,0.8298187179908856,-0.3525875019748695,1.6532898119568744,0.0179719462835592
0.6604531483040976,0.018622164900939212,-0.005403465647002892,0.015181423791266156,0.06558091615828882,-3.235819317448194,-0.4674486139142596,-0.3582923586749075,1.448346622136905,1.0820516424266184
2.490814598170587,0.0029056265406891724,-0.26165071384134664,-0.1570333576743234,-0.5582276345620522,-0.9180202710681891,-0.36903912204220424,-0.13807632821072596,2.584937278591354,1.3735538387444022
1.7521351727724004,0.06331607816936871,-0.3289921739073903,0.05145536981672135,-0.404484205049411,-3.132391692089946,0.479624707555097,-0.41954314384175495,2.6535613507277316,1.5479386302296825
0.7595359358775804,0.03095381368536657,-0.2601829778357045,0.34970537289250114,-0.5790295062664675,0.8372655148396813,0.21523927645464566,-0.47517310662110446,2.8431929537400684,1.2427184439981196
3.445705322536405,0.053455389510023626,0.09607140364537738,-0.3024722819542324,-1.4743968323355003,2.3401344882811546,0.271844930731763,0.5188221646050533,-0.3443656519764364,0.1455306368266527
1.3289488430849654,-0.03937002304842604,0.1491202534561733,-0.2846275887796179,-0.2814723613146644,-0.6560729444262079,-0.5176963743856435,0.4526353863877042,2.1401959181986947,0.31997734355869567
2.640523604600358,-0.11998493974993418,0.4774623563480857,-0.27600891307150827,-1.2354622769349144,-0.5336647282219333,-0.08353630847312354,0.15630620559029795,-1.3982888311633401,-0.17574211509856477
1.232249442982197,0.09937500836484754,-0.16672892890055507,0.17947132108049332,-0.6938696676475968,-1.0395389203632242,0.1383693693340311,-0.04135507766130386,0.167992632727889,-0.41342643954913094
-0.30910794023556254,0.07309079192506095,-0.29898749063902885,0.12155780261666642,-0.06435374398831542,-1.1849429784251269,-0.05481639426684456,-0.37535220928063495,2.81372861759996,1.1506150914484972
-0.7906001262806893,0.042366329480314845,-0.16461387634529046,-0.22348219147167575,0.5046442522819353,-0.43630211125691687,-1.2357087465410443,0.1410408829749015,-1.7334069365609954,0.7234995819140326
0.3704927018828219,-0.07445231878498038,-0.09524601576259072,-0.1480734436205253,-0.20832298739883442,-0.5533083047515087,-0.07489903241818596,-0.2395215792197155,2.2213075034470497,0.948990086524526
1.880327102009991,-0.08442119726220658,-0.04281888169432348,-0.25372261649317734,-0.7031195156218899,-2.387001244768796,-0.0519874564944095,-0.011616983039011375,2.484070654651252,1.297019137745247
-0.9402321044505946,-0.009318273109369174,-0.5237221196171127,-0.10046936199335503,0.23383128316374877,1.187902581442081,0.8555664627876074,0.17424431748973881,1.3106248414501243,0.43239239668002755
3.069948715528308,-0.04452558282505935,-0.01610928048481472,-0.30585824599298517,-0.671402299229602,-0.9083412623178617,-0.6195564802287197,-0.5817721047663437,1.5775688838259898,1.0979948376568307
1.634258475564533,-0.07188047247161344,0.14517287021717384,-0.4347339725604861,-0.19753929734554623,0.39567509436727566,-0.04493579649468947,0.11029845494125884,-0.8209054556028056,0.23294897542857126
1.3934163015163215,0.05079094719321747,0.02051681181859203,-0.10656387641133093,-0.6538767222314564,-2.3406644231142124,0.9253783217081403,-0.11628410113143704,1.1063483552362743,0.6342533506274722
1.123483674161212,-0.0199325053919123,-0.24715999200636396,0.07871944453477485,0.24674682387840532,1.2515129520851134,0.6762282083305537,0.13567273685863473,2.962225606694154,0.6936954665424903
3.3707076082189626,-0.016091494403034652,0.2479846906015099,-0.21932480971250928,-1.1781282501304362,1.6983207085266265,-0.2629154854633184,0.31738240246149696,-0.13635402934460594,-0.6350148492322544
3.265101211170373,-0.00540805197939075,0.26898724584066797,-0.10291857317213199,-0.4910983154606766,0.7810108593217477,-0.03571938844194811,0.5622035354376544,2.2076909893132037,0.8030903481795945
-0.2843436425758965,-0.03849926309439546,0.1667482655294389,0.2972672161908934,-0.1414391934955877,-1.6772614185282524,1.6258806211101862,0.11687180684892545,0.1206677626245288,0.2837230497116589
1.4870147210991775,0.05012372686357377,0.16073782699239958,-0.18827155879110768,-0.6168134973275435,0.11154131461539807,0.2541129903416678,-0.22405844687279386,1.1532765234187154,0.9078197177926397
-0.6173645967947177,0.04868356933250584,0.004527777020284807,0.17804366735133897,-0.33227209544902436,0.21386371938040927,-0.4493986122006783,0.1807173800689373,0.6264296354089337,-0.2071921890017106
3.4124816033959817,-0.026669246959924505,-0.217862737035955,-0.3711319598234262,-1.0058325235629004,1.0841078775523567,1.245806287065252,0.1372210417428046,0.25090584883672173,-0.3475225644748441
1.7542012120199613,-0.018985854773467738,0.06669454823344152,0.05504668698767745,-0.4764639177751851,0.2551044641740921,0.5380930768909624,0.05620211174776666,-2.667271651980277,0.24005956234730058
-0.23857387037855582,0.012958473173915684,-0.21824833203925162,-0.02881395666236868,1.0086037736671984,-1.8546881854440715,-0.2190965358481549,-0.13870957190825348,1.8650771733167473,0.37185575264794124
0.5198528518517609,0.002921933714065576,0.2117636136184725,-0.21330780125685198,-0.2485362840346961,1.672060985724547,-0.00788710337018289,-0.2288232373425843,1.0430263437596847,1.4926935304860036
1.7131932173077549,0.034000832518545854,-0.2373885369840812,-0.033652822877741365,-0.6400387791006732,-2.4497497360136973,-0.6288936716974235,-0.29269570526989686,2.623679446697808,1.0369476011955425
3.185349067998991,-0.043468169469125614,-0.48076460827650647,-0.14360436241680166,-1.5438461184948984,-0.7587131512241533,0.04339767868586575,0.2073261457210363,4.539589955997026,1.325196305490474
2.2129921840367914,0.015037377341411112,-0.3436748297441952,-0.08482485036918584,-0.14605328943995036,-1.671418863687963,0.25847360070968395,-0.6247739399868881,0.5464141839577517,0.9465335252446803
1.3833271088699073,-0.007442372690944937,-0.25892963830477544,0.015245670103264613,-0.8456325878996251,-2.8234629302342116,-0.03689230566039031,0.14717241257233957,-0.5726445917565746,0.5767403529060063
2.76768561210889,0.04032435402278765,0.028156155566483532,-0.43923564849610397,-1.0841277204893351,-2.355613943217571,-0.20859963616607202,0.11782351702716234,3.0186031132687043,0.29746063622429647
3.347550842602673,-0.10058526857672499,0.26324019880322064,-0.761124843516963,-1.2701274134778342,-0.7012841891872515,-0.021054085419630417,-0.28018278036402244,1.127407332652524,0.48178286920765667
1.6398604104282835,-0.1255449658541687,0.02993522948620676,-0.46907767864050426,-1.168679007638694,-1.8397373771428573,-0.4045265183812029,0.4403233610838526,-0.6498501713581359,0.72484033433863
3.3109542392818687,-0.01164632914622927,-0.16400345272219852,-0.5639048468020622,-1.8191980936204268,-3.6388256479659016,0.5808752591409656,0.27857323687467317,2.263506657860552,0.5246598730883054
-0.05200076237909712,-0.017814632365482013,0.020045596787338568,-0.02475515324457391,0.48416760751824495,2.2210964969900453,0.04324589196118811,0.05467696259199291,-1.2284237037929808,0.23946634825720808
3.2026998560546023,-0.0029262428394008044,-0.004532978084419534,-0.5363279084652471,-1.7224885029490744,-0.5041866326117009,0.49641884068713477,0.32284223617813657,0.008844580074406694,0.2809776206674936
2.6221017159584297,-0.0006432175435282313,0.16860689921599176,-0.2270365136373591,-0.5265758966625254,0.03741509310569414,0.3482519983329296,0.44587915195353955,1.0965432881998443,0.5284269436926787
2.206858877008164,0.01879253503035306,0.23327497466984537,-0.09532609070219061,-0.23591530702484517,-0.7703966477834674,-1.0731203133288154,-0.10070433993670505,2.8989523989279378,0.8470696695774723
-0.5727822720044077,-0.002188868597632548,0.055534466000937685,0.3585695588780674,0.7844013819163584,0.18691038112786784,-0.14562346086099204,-0.027357262798220053,2.3207905399219433,1.234628824867677
0.13094948097375347,0.04652236273321288,-0.0997985773124189,-0.32056538122287537,-0.37805588205033175,-1.804993442633514,-0.5238477602079906,-0.6530378964896763,3.9771508779279117,0.29392268649899644
1.7160764939949136,-0.06087180700401774,0.12277173276018447,-0.23667378136297554,-0.6635199484668427,-2.3760669297895314,0.0254814728540273,-0.21904121121979453,2.3886521962709946,0.10473494511406614
0.2787209729721605,-0.03230227403320949,-0.25329570305145,0.19656703418819105,-0.4469684389855727,-1.6485838720256356,0.05404307274442566,-0.036421920089460685,-0.06528586086755372,0.036412286537359555
0.26987028861230056,0.04834175755164605,-0.3087833514175884,0.016242621183022346,0.40295800553517963,0.051251683707127016,0.5073988770777097,-0.7791973572962361,0.0073289896585188585,-0.05393449485177575
-0.41753561988711285,-0.01746657096093103,-0.07187604135591669,-0.20028165447441856,0.10590728444463252,-1.8258601820215368,-0.26311467832556057,-0.33994991051030665,2.401740342232176,0.38960066718274144
1.490959143011969,-0.03164030605173293,0.03376337995496743,0.08259252769411064,-0.6288444252231075,-3.51179544679002,-0.51371579118082,-0.7498728110710757,0.9766233522225587,0.7900444338936583
2.6443210748591577,0.10909469483225875,0.17030575350964872,-0.19196859128305913,-1.6793866454967943,-0.19825400517591119,0.878683644839299,0.3049924274652982,1.9479584606831712,-0.1663786497642191
-0.47967478326619695,-0.0049118945892017265,-0.18073347478912982,-0.30889314920786126,-0.22955913535921832,-1.4574584437917153,0.9194786543495326,-0.04493318231403626,1.475285357482968,0.3170728455980401
2.9108288485006164,0.04363543004906997,-0.07651864800927805,-0.0057567487057411685,-1.209364588358562,1.3391791942223792,-0.1372691192103399,-0.5116844705612161,-1.8436476647580378,-0.36636589515778895
-0.2634953875368685,-0.011302497772016255,-0.26641394747325214,-0.03341948477358291,0.3267111354962488,-3.8527856100014715,-0.6264402943789535,-0.03123603838187794,2.255518436491678,1.3892924931261443
-0.3549594241501919,-0.029289110424988066,-0.24962895459697032,-0.09080319673439517,0.26030613680845427,0.2141587585561301,-0.8867315220589395,-0.8883096021574665,2.337602397387774,0.2549972137099188
1.3338598114525269,-0.01774371217294527,-0.05409429618511484,0.02362100738308325,-0.44344499054937986,0.8638682782921947,0.5796952725208308,0.1277005454049199,-0.9153661488967368,0.2989723278044735
-0.615779139795553,0.09771377597508639,-0.08758101987788391,-0.16985821412201782,0.33636639876308727,-0.5463958973739831,-0.04741090083868578,0.2866021350250576,0.27888032320466216,-0.4994047834540834
0.3116301979563867,-0.0135229622347646,-0.21314561625746548,-0.07554038204390617,0.30680739828793124,-0.2999005652230457,-0.8926161750849564,-0.1909481272461377,1.2752286689139187,0.9071735014067038
-0.30754193894078496,-0.10183720106118511,-0.0033767777042710487,-0.2726000083604545,-0.3528423362037925,-0.5622033375886482,-0.7104532288546538,0.07162332882259091,0.9777757639603947,-0.07575448260202805
0.147513487785343,0.022330632232477842,-0.09982865665865763,0.19500595198575787,-0.0150240808557722,-0.49110681830738867,-0.6864581550499608,-0.08625039341920487,0.12599961542700044,0.5114928774643787
-0.17850857525799513,-0.011243576931103387,-0.3170568176171772,-0.29054371943268636,0.05745555321218595,1.6664697792598897,-1.309794248394514,0.010536040038759083,0.8312849053264821,0.7688290155173292
2.6505828476196465,0.017388363585309884,-0.30729237698804507,-0.22866496905106246,-0.7055787494962368,0.159463206712104,-0.4545109517739546,-0.14374659332827386,2.61726470996971,0.5961327183376176
-0.6323361641157478,-0.015172380318039294,0.14278065307850993,-0.22561885139269033,-0.05277638482967034,0.44478225976688357,0.048431929407631295,0.35741420408062086,0.8129805263518706,-0.08819403192695344
2.067920749014943,0.051473034584811665,-0.1414489301004685,-0.12359000242986752,-0.5312560435828303,0.34256319921892864,-0.9427714160904892,-0.5317617530081342,2.7021614037045616,1.9140886601456821
1.534401402081253,0.04675634653692848,-0.2868565718713617,0.03558712406427748,-0.06807028161673241,0.8483021163968705,-0.757561292553854,0.3948638361400192,-0.5426521699231511,-0.5681603601676299
1.119764028592383,0.025754704528340215,-0.18887572537478617,-0.16573571381428523,-0.19565071447792423,-0.8546169771162722,0.4038519538750105,-0.17111074168191107,2.0155539609271,0.3529256990835951
-0.7154199692428655,-0.0033730179257218493,-0.03203585816969193,-0.09052623828331414,0.1156814492442291,2.4888767489717982,0.5117770169300955,0.48959050557132777,0.015659005291242034,-0.046431275101091074
0.5729987651760671,-0.0015439619901844134,0.06264379130816294,0.12732272953954546,-0.07106964160923789,1.3738282779592685,-0.8599396738962164,-0.5771794065327557,4.57442806341214,1.340298036729079
1.7380784050111782,-0.008033705636727862,-0.0773043703495945,-0.3794943747233145,-1.3221842534833272,0.3097992094304819,0.033388657175967285,-0.24960322897768356,1.9911391447339821,0.9648427581682717
1.2668345389951097,0.0450880762217139,-0.19717040228998767,0.029510414502197026,-0.5482484468779968,-0.8583164141759514,-0.5047879063425861,-0.08310738996078836,0.2629077855905908,1.1842433256331049
1.00405611135458,-0.03918750765924075,-0.3654645923379243,0.06899153085871683,0.0020357117441651786,0.46920531421869016,-0.31210619797573724,-0.24646036227440501,2.4783041495150093,1.4815309848763731
2.165261965735173,-0.02877508415012837,0.03332883867608684,-0.33958924868026774,-1.0612054823352666,-2.5782063973437594,0.6500705303395364,-0.3198315627605378,0.32495182596406114,0.41931180839271753
1.1300263088131168,-0.05585518644054169,0.10227672913972106,-0.19603167139376712,-0.3687028527912416,-0.385363699303363,-0.31927735760915044,-0.10723750333836649,-1.2676331352113532,-0.31341266291448117
2.218795546414601,-0.023459451780844298,0.00582999342809562,0.09232763013028361,-0.5630369583015018,-2.1161119050827364,-0.13054476489088362,-0.2290441959179636,3.0766744209310435,0.675728320387534
-0.1774877070282912,0.009480509910824764,-0.41391238872506186,0.3688390003713411,0.12577896101238195,-1.991335504219513,-0.4954802611884712,-0.16121286583255076,1.466640814232163,0.9286526363388674
0.8950099275530876,-0.07951261491862405,-2.455633500098031e-05,-0.4283807700254578,-0.5687690388917066,1.3119209171433304,-0.654377630631126,-0.6368615107386182,-1.2315420754537023,-0.39776904094866977
1.624148388428262,-0.004971759132757569,0.1446081509221623,0.08025657625960336,-0.5005243537089354,-0.11987068744452767,-0.2634768109005882,-0.42681047682171613,2.7525922912233143,0.6151340280251761
0.6952154239317203,-0.06819836645648913,0.0199706487571768,-0.392147939192479,-0.5423173838408616,-5.344882392782818,-0.6454239922844294,-0.1288055092785339,5.485926387912544,1.724889164536727
1.8944193039943595,-0.08943381527234072,0.22722312867114894,-0.16605545804629063,-0.7158967675930213,0.8494122951362227,0.5656045365877198,0.07520789551017043,-0.3848007466853036,0.3286772290148586
1.4544521444496126,-0.05227886368474072,-0.113935467704946,0.02982210315133804,-0.2669878744859202,-1.5801136639132125,-0.5080173465853808,-0.08489591051877104,2.6779319155349666,0.5839910708713254
0.3149110264854056,0.012110298338929987,-0.012562019814786551,0.27723246878497126,0.12850589449168887,-1.7758689055844323,0.14800032709231592,0.07731914029887316,2.4991540226093427,1.5062726632189394
1.3360113792989576,0.11172458825210635,-0.04027703616914474,-0.04718324343891266,-0.502726575710756,0.5762696876950704,-0.5267945522828802,0.20475119039846923,0.32542938300296265,0.1830881071574539
-0.5364833437432971,0.06258571491595195,0.005601163309588639,-0.214898684511468,-0.347242082255114,2.7963569075733696,-0.5979238115607621,0.26797555716815397,1.021791416347197,-0.36316641058861654
3.1694059356383253,0.03664207611981443,-0.20056926645149933,-0.2517617367017593,-1.1817199909555214,0.22255081629719264,-0.7961051858018131,-0.10513629397719615,2.0355081603286,1.2606336160005054
0.5283232382665422,-0.02214904962959533,-0.05449592240306891,-0.2737401971795166,-0.4691927047630089,-0.21804639837333895,-0.5531686505821145,-0.36980650608045584,1.254879640105324,0.5805405588089086
0.31546122984876246,-0.0842351124484245,-0.04514464832560936,-0.19639755217618152,0.5073753972434648,-2.0867915860703263,0.2747263067272107,-0.4025162244928916,3.6691175702046275,1.1321205571950337
-0.5293758028753622,-0.03675534182715694,-0.4074236187756024,0.17193095525693747,0.16535866389269857,-0.987146412802488,-0.4824487610054805,0.06918705498373924,3.048036484446291,1.373633390902657
2.259187066972097,0.049473019916071566,-0.2995784399895609,-0.25409146511405883,-0.7629974177686805,2.1592352675857582,0.7599647206406553,-0.3942105283717553,-2.9816868411738993,0.6386411807493513
2.3875603244124908,0.03883205908214376,0.13212390727359985,-0.06679628265112451,-0.7735100168730036,-0.23470723080076894,-0.5039326194563014,-0.7901895785640729,1.3265765049777112,1.5430138657898937
-0.05352722149847322,0.06099264377647084,-0.08944396136839494,0.010698987645854023,-0.3448292164952355,-1.9777264879991765,-0.7240503021843756,0.042709466935346135,3.5141854063905558,1.084803978330748
1.9389769337750735,0.029827235959466125,0.2070539487849681,0.037911161064863065,-0.839304839298881,0.5460678998507351,0.5639836139567301,-0.195104008848811,-0.9138386168156483,-0.5768700909482548
-0.08982553332338128,-0.11546682968135204,-0.40238498549078916,-0.19288424693961206,0.521889568727242,-0.9352685206343081,-0.5630760294478823,-0.4722448367705047,3.3967458396509893,0.7903430744879445
1.0031869534119386,0.025230714051474926,-0.27230474849309017,-0.04978809720967119,-0.20396006230608876,-0.6174244237197958,-0.037815863499158525,-0.20451105149445964,1.923904404066386,0.8632487215652038
1.5034530918580327,0.04379373585251501,-0.3837801997499101,0.07483612477504749,-0.24912302435481556,-1.4411709468287397,0.28370640155752325,-0.42488282931935595,3.789832811269317,0.8079405729117242
0.5232640137399218,0.04105548083054388,-0.5106628037222503,0.050771492413258935,0.0031546311860018257,1.3565887343083856,0.3409053155578077,-0.18176739249258214,1.2070878235217317,0.7423214872410084
-0.5414433872730857,-0.053757349771605796,0.07614787341033113,0.01584026072388876,0.3253758541391332,-2.826363080967592,-0.8660352957281172,-0.45215887713577974,2.693052168743615,0.6581786615986265
2.9422691585325524,-0.01463225774887656,-0.3257271167832761,-0.23181325458303156,-1.6092326494313685,-1.897657151222967,-0.39325965131897317,-0.31048306219673905,1.8974802281583392,0.5145275696348183
1.2844060237516155,-0.019085132773849323,0.2919882092828322,-0.37069566418178834,-0.8431283998216015,2.3231110724048714,0.7291819716824062,0.09849283708347896,1.086924958046571,-0.549206320374711
2.5588819336591104,0.0036268233872715915,0.07963060866764289,-0.02211528368047004,-0.9685418381951202,1.0676891083302817,-0.7592654183068276,-0.2819931707807097,5.682033200368128,1.388704059336018
1.8358895093923855,-0.07155870338860432,0.4102980508001235,-0.1701872879256114,-1.0638176564368043,0.7589301391137372,0.7458610450069225,0.2830475052056578,-0.33830602623515443,-0.8120310923692932
0.046589840827958584,-0.0412978715982032,-0.13067411531767914,-0.20087347061444946,0.026725298703732085,-0.24534352862239903,-1.4589450746705905,0.1849836349681816,3.6063732453493564,0.7153916106943757
1.9611870230532102,0.017679708628502308,0.11575212831915352,-0.35099060541685295,-1.0768788896882227,0.5616212101331496,-0.8339318763619121,-0.4154274736584983,2.2720637503806946,1.1015770388995239
1.3829683544715627,0.06148089110925736,-0.019097442059201997,-0.2719624837192312,-0.7096699762846803,2.013279232369583,0.28518916735090993,0.05761093967599969,1.121379596770556,0.33170042412329265
0.022308366379689692,0.05216798895506282,0.3182581320850733,0.061716809867839346,0.11423074241367334,0.07562184338768774,0.25914233120882013,0.10506705338104523,2.1069523603377576,0.13919021570859794
-0.7362842870422348,0.03742297727520994,0.003105358885538506,-0.21401748625789077,0.3905322413775531,-0.0026929063515193086,-0.8374734707178367,0.1596595938603838,2.1372295477710264,0.8188345273223028
2.8373201168676863,-0.023459534635898883,-0.20151760913671507,-0.29040822976435016,-0.8155220615665576,-1.52724639931348,0.03949176388895295,-0.2590964054437548,0.8807236155418475,-0.17491200851378838
0.45720739409514555,-0.02997700684771922,0.15403808327981455,-0.041290772524086965,-0.01572155196198748,-1.8460981537368542,-0.5491038248287976,-0.258289657915227,3.243425566063262,1.4646841643917021
1.107073025400787,-0.09481180854921316,0.09448731359428991,-0.4036329684890855,-0.18557054193234065,-0.8669777685639636,-0.06799241659340799,0.6414479762308929,-0.7121103811689069,0.21575397590652245
-0.9037248075027906,0.01994148299318487,0.06696394380336777,-0.027908893565304356,-0.3510912140302069,1.2875394813311802,0.9362587310150824,-0.1722149824671675,0.17518016056682006,-0.3280875835138624
2.659941427377691,-0.010964187757818518,0.27243848352721617,-0.037280435811411425,-0.6974712818741837,-1.7167882381398434,-0.4035955823423988,0.13903349225723655,2.12549060012568,0.7269047925195046
-0.42056537548401907,0.11951063350843816,-0.024484437757689416,0.020226359016659225,-0.3717220756078416,-0.3417402722989697,0.7686126103957343,0.37427210798468336,-2.188832651433197,-0.7035328127314978
1.6845545112236175,0.07819639244190425,0.22173997148516347,-0.03945302107533528,0.07685345547855289,-1.0179529924079334,-0.17444780575521282,-0.21071723343626864,2.2035151529687487,0.8915899677126218
-0.6335108895656307,0.004930714401348539,0.005818497443398275,-0.037188297651419656,0.2668660383029865,-2.4403594404787627,0.47768549955703266,-0.3052230661764584,0.6525204413384498,0.41649517881904974
0.9666740772892257,-0.0653025219612627,-0.05917825036687194,0.12826503828652866,-0.4341265438046692,0.06560005097839756,0.9342437234974,0.14835821451784012,-0.41963056176497504,0.47194614364364235
3.4449802020545883,-0.07010702114855603,-0.37148381470624114,-0.350351693458405,-1.2799590994255299,-0.9489680700217114,-0.7274652764287444,-0.6497554489727326,2.7873348843096513,1.3178226253172822
1.2958891876527363,-0.008871742295878792,-0.003271544681920518,-0.029582407546087677,-0.2891144396425483,-0.6717839106674802,-0.42417747980579557,-0.12544410806797274,0.6235136112598962,0.7541569504964859
-0.550877187938021,-0.054619957457505024,0.1952381109657514,-0.22284458413318067,-0.23854714607841554,-0.8692165989013524,-0.4556285599196833,-0.1541164102398238,0.4234807662626445,0.7412194519697718
3.328343996165117,-0.11614404099464172,-0.2222848994736514,0.027933935566086494,-1.5684433379236002,0.6374741053676585,-0.5892643631516676,-0.06475441371940352,2.0629274581291868,1.2599421162259727
0.930989057006113,0.02510592001267461,-0.5023231445250199,0.04889146926861153,-0.19877862257233372,0.5383557016014027,-0.9046119071201394,0.3815285416160561,1.4576668667276302,1.1284397217569866
0.12749711135331143,0.04818472123329852,0.1759182180661918,-0.08845937760928736,-0.5836850643276619,-1.6136467130748886,-0.5854380944561985,-0.02965929658037591,2.314203903365331,1.1019203205234753
2.895487261427381,-0.12192102024040427,-0.3818578098402495,-0.3799344998895614,-1.4064033714404287,0.7835390037792364,-0.5005010853982317,0.14040989397147888,-0.37034137369610354,0.11125337460253885
3.440675015440709,-0.008904742663648747,-0.38509985467929764,-0.07326798108832523,-1.7321969765538394,0.4122674890650463,-0.4399033380131799,-0.33115794429259376,3.232521418562218,1.2350936086119784
1.4008887757441157,-0.023747159952909574,0.21237732865765754,-0.19163452902961084,0.16109470099656492,1.0944421102533313,0.1547219418125792,-0.2542273999144275,0.07641219186227377,-0.5511298584892883
-0.00914498869628666,0.019143533104381986,0.0214537500910586,-0.06941561742839021,0.14153503151063837,0.9822037357278222,0.2473473248855866,-0.021288858242679023,1.976100679902804,1.0106639632029861
1.1547673098355946,0.03060968884864106,-0.35042312094415884,0.16232988728059125,0.34248041833720866,-0.3643545724559418,-0.9789827262845361,-0.28990498302369394,1.2060641985257443,0.8174981722037693
0.2443434581250914,-0.021291730285442005,0.3530516236637341,-0.3489246807196782,-0.39774296366819467,1.4603235601641937,-0.060443201151295915,0.7057071793462196,-2.0755888102193105,-0.545324822883843
0.7246675194418719,-0.1491315654083389,-0.42485257676528365,-0.20096596013710258,-0.3704354371830418,0.9605925703321034,-1.0543877934241865,-0.023479491971237387,2.2703485307269005,0.9813174235216382
1.6329262549818626,-0.004227447894174804,-0.2105978858044932,-0.388427464570982,-1.2231253304277017,-0.5510457459240503,-0.5147521553697589,-0.27086505833326735,-0.423955871387078,0.5363311242403407
-0.9587025852408331,-0.0009722668087849912,-0.42581324843870605,0.17308860769133116,0.2313810770131213,-2.1448284053304754,-0.9946391688664254,0.3549256338483141,3.735091996033452,1.6028140723877606
1.38796213629207,-0.0810603817332892,0.36804830035193514,-0.161911493242186,-0.4591346593658113,-0.5545625259218969,0.06917350324102964,-0.3861710102053648,1.015775793820255,0.22108075403054375
2.6247783889004457,-0.11915715900528513,-0.4166460473019028,-0.08075052964347855,-0.6139410747393931,-1.6973035557983973,0.8558744690274354,-0.6874001323578578,4.6670157721671925,1.5878161717860775
2.6701141436441906,0.039325101213284946,0.3603577885179706,-0.17274192320716905,-0.8004383694830836,0.9336038119996106,0.3208392533329053,0.7800239291456401,-2.1239658442873615,-0.5266468860071961
1.7096709455286034,0.046581643459665964,-0.26381094771383684,-0.0942226244163849,-0.4875529806506072,0.6975408738195641,-0.6813654020691525,-0.060943989511584196,-1.2126300892177515,-0.560598258444817
-0.1381139350467696,-0.06596268824488105,0.1317029004966106,-0.24902678759199662,0.04509449291955943,0.9246291132604993,-0.2711584577577044,-0.19017333142245021,3.908555124277597,1.0054206249443813
2.329492993000295,-0.02897814251673345,0.32532354031459987,0.05691612289542684,-0.35157829450663647,1.7656528330213266,0.013739746772198747,0.051465527606263974,-0.43584544216083076,0.5409404005531601
-0.7548615230187069,-0.013117049025518811,0.09130432484524781,-0.059836877573677685,0.14830601891153244,2.269320302866295,-0.6229370857121573,-0.2963075969355094,0.295318431805208,1.62211479130939
1.7914036072076582,-0.019544513647317907,0.13934238740046623,-0.5652473108318118,-0.3036869266509232,-1.5957223208245968,0.18716563525356056,0.030310758697508045,1.7121022695318964,0.9157274541490997
0.03451997498582671,-0.04167163446241048,-0.4648891538118771,0.3353740522434724,0.7329829157520181,0.8858273931341418,0.2994734143656066,0.11052056153481779,4.728988690858453,1.7261904257297502
2.6098031136496767,-0.016905447206776236,0.09500031655614452,-0.017935641007125698,-0.43757209023705473,2.6439103536262976,-0.2619383949671642,0.003985342386911062,1.3573792893165042,0.16289399752696385
1.8435817341930427,-0.03570460786444063,-0.06081374794994737,-0.1229790006443009,-0.416305071135436,-1.2798180350094484,-0.3393333534711109,-0.16716240518700207,1.329821219795135,-0.18709624975236464
1.1411675237789267,0.001070264096409443,0.28276935485246996,0.1801318735439992,-0.08784033944946916,-0.5950386236155712,-0.6473494488376911,0.5398500027884476,-0.025504875514529957,1.1190294107836922
3.316598291894537,-0.014375938638757307,0.3007318456305384,-0.30610530441330447,-1.0908122833922327,-0.09718427468715102,-0.02420022153082646,0.02398240478846471,-0.2435525997195176,-0.3492895912012383
2.5621080197034436,0.03091566792739053,-0.012700199909967732,0.16243531222236637,-1.1645836610490283,-2.261592085365934,-0.05927421732222077,-0.16237981037398863,1.5324719867620735,0.7689480382656031
-0.9341304794976678,-0.09990156662820848,-0.18309069598250804,-0.13475735762581173,0.6070813923476645,0.11617557335730339,-0.350141748289987,0.19453642239638605,2.229425605677061,0.42972032295020635
3.136221229729191,-0.0692586869437218,-0.06164208130839757,0.31514006703195546,-1.1354325714953206,-2.748676777432605,0.023521698278782532,0.017508961086544705,3.1171963735448776,0.9961390036048382
0.15622270152849893,0.05752573507934851,-0.2720899208184407,0.026422958124608903,-0.07549381296134106,-0.48856868463681546,-0.29128461144927414,-0.3135135037522274,0.35155657474954705,0.41080287185017017
-0.37176658764558057,-0.03086798485922074,0.03297134559433135,0.10781347696523122,-0.20074629625583057,-1.9397185845517806,-0.04011108548074299,-0.330561657177985,3.8155819980727044,1.9583844752180246
-0.35246451325800954,0.1045838503414514,0.15771924351253058,0.25150914702017774,0.0513361149577079,2.0709759660193763,0.007980104994959759,-0.09505465035939513,0.6802564432727267,-0.00931629010480888
2.6025989213411496,0.06639652087761999,0.3366937451857459,-0.05229770350248362,-0.8307962492049541,1.2981259628020623,0.38451891025843177,-0.3727949795932801,1.4275645886903976,-0.3858853753785902
1.49191609344722,-0.04227556940156988,-0.07263042488111562,-0.1798513726431088,-0.8766232319314257,0.013674629662487392,-0.21518326477461547,-0.2038374389258985,-0.4534207990993069,0.7813736349689809
1.2240745892035578,-0.013922918024635017,-0.280410373121309,0.145260490496754,-0.30514729996522777,-1.941466422000941,-0.42950378864519523,-0.1442423806643733,-0.38278639372701395,-0.2870631679532814
2.872842042171356,0.052059670598980964,0.38269924805206856,-0.2469288678668534,-1.2456509418755315,-1.5630282439713326,-0.18157365516939014,0.18405620878502368,1.0974001471685728,-0.4477322644533903
2.4091022062856506,-0.002033673461878741,-0.04406051202186248,-0.4897605246186013,-0.5032931057383025,-0.40831866597202204,-0.487865938952245,0.2558222876934341,2.293481115173028,0.7479559698066173
1.9827187547581286,0.043031811259653,0.021685326796289477,-0.2712384775677753,-1.1188228543531022,0.34572638524081045,0.18859195154782615,-0.16687326401994707,2.917370333428259,-0.5021090004871517
-0.8670849545765306,0.0436541039943331,0.09857148653955305,0.1855532370500749,-0.07460983251009742,0.8524850122673975,-0.09943054393409095,-0.20626050140970917,-0.20776139206703037,-0.24226622997338004
2.8080995085788203,0.04791299387554241,0.09403663320089864,-0.10748824573632512,-0.8766042519023537,0.11630874672419655,-0.19335726688661636,-0.02675706256720725,3.7471214002564297,0.8175349511503054
-0.796008384292207,-0.06305789699557794,-0.27510992737998474,0.11159978468445095,0.359651871764704,-1.0104355401998433,-0.560521997469394,-0.32916861168209577,1.4994042742867257,0.8627288655363724
2.9554239086923797,-0.03834364981114315,-0.16992920346116785,-0.2450309002844552,-1.398718526018674,1.8505720851561074,-0.09549296923557467,0.6860135055689769,0.4278869422882967,0.21273825070240202
1.6500075292206091,-0.09169187735842285,0.1794706608673297,-0.10512992997861681,-0.7349001448734674,-0.7740755176657357,0.00015571364114219666,0.012986561017552356,1.279454599052456,0.6252213980940537
0.3218236750118939,0.03187475659489573,-0.14673222670452984,0.15718836941802458,0.06911976598290699,-1.1919835178942768,0.01704302224321419,-0.14662934041887946,1.6893073109787071,1.504662494800912
2.4889117083648684,-0.0026069079686877354,-0.41881746738746406,-0.03992498764438186,-0.8003183129961985,-1.1314740960482736,-0.5595096459236462,-0.2248693100256956,2.5185490104263013,0.8667379987000943
-0.6816101794309478,0.06067657160635128,-0.2172440132886893,0.0959911502570426,0.5043771076534728,0.5931917785876409,-0.4923009436957151,-0.2092307468379519,-0.7928993355798408,-0.08264431620470933
0.9056011430842563,-0.10673545239777923,-0.1377069629808369,-0.13331801941924437,-0.3712171212624867,0.4540870358514753,-0.04081808528329492,0.038329087264519696,1.352277189698211,-0.34844726811834115
-0.4852103229711786,-0.03112420392328382,-0.17646616335658288,-0.18902123911141921,0.7560791816090882,-3.3334064086404487,0.16754864902774674,-0.4164109296505287,4.01607505340761,1.0563902854516118
-0.9656867623215658,-0.08462483579451369,-0.2839867529068541,-0.08719049628383675,0.3471329403014828,-0.3259268811287551,0.0812648642273612,-0.3799073271501713,1.088616440460179,0.7956959201697472
2.0467094061957467,0.0217431930545619,0.2495992424298053,-0.25775998065282807,-0.6707306224299427,1.9526247609113074,0.43040888898250773,0.45289237527522996,-0.6721359583443268,-0.7243900205042841
0.49446639579394325,-0.018131361427977492,-0.11597619500845939,0.14495940718808334,0.07099861730759256,1.9829524093692628,-0.3589846843844937,0.008516777193890837,2.482470748644471,-0.1209469866482269
1.9868890002388757,-0.03134632947415722,0.16163673947681917,-0.17594146680298872,-0.5153872440225743,-3.271824599203959,0.7967726316422943,-0.031653578054335774,2.6938968439657733,0.6040174824825808
1.9515131243859596,0.01490143336055247,-0.3597876112611079,-0.38427773468011783,-1.5675499443824947,0.3962776422810308,0.24725831713073415,-0.3083068511272575,2.173024215870293,0.42305418478837703
0.32892683821830637,-0.0062745504660973355,0.024027459423882246,0.12347882616117616,0.6799853782233563,0.13372504122786943,0.5801251766497847,0.13520671167258785,2.24407788365844,0.9594025974143724
1.7465073188804108,-0.02289176244286079,0.216977476584478,-0.0726423514880062,-0.6374416005135589,-1.4468016411772564,-0.17900572358104344,-0.20599464084076893,2.012675249879028,0.2536865863644166
2.765228217495584,-0.010813877389706877,0.10986431299541054,-0.03176411781644947,-1.2159941322743772,1.1170901215901625,0.33812107980036094,-0.3649727463873188,-0.3035509475189441,-0.6270648185516052
3.1052955636035886,-0.06755739135595464,0.1733733328872636,-0.3755922649333116,-1.2002130019299933,0.35751938881414225,-0.18024935901746414,0.23795557098261202,-1.5238378983553302,0.43727253346528755
-0.367600980700462,0.03713929402693964,-0.11620458622652416,0.4364482840127769,0.05136177294569355,0.03562198601633959,-0.09437704309454398,-0.4280248280912201,0.673152273246727,-0.08556758293430751
0.4604672819232336,-0.000922387171704556,-0.03282651792649596,-0.16597896766672776,-0.3115281033942565,0.1991780391414606,-0.22145503344563688,-0.1965639092590898,-0.443322791742391,-0.08461886622327738
-0.5554108628785538,-0.10465392157690677,0.024985049291392586,0.21871019733092806,1.0161919801923383,-1.2259412907439298,0.5191193915142032,0.3650352098542784,-1.2514957266493192,-1.197110464199962
1.9462818165128382,0.06295213135847007,-0.18432913993138259,-0.27691663323916815,-1.1531238383198463,0.3542754027918358,-1.1171305899641348,-0.038487550256600195,1.9833909042920643,1.4563027154625954
3.1036950774831276,-0.07112620904139076,-0.44187166844893244,-0.44487263317441356,-1.377245267688786,-2.6816060451541723,-0.08380322308684318,0.2511083907895171,2.5555273240502223,1.1390854898856544
-0.21022867838786652,0.021494919696863464,0.43957194775403224,-0.12647955407606962,0.4231718464230216,-2.054199343052662,-0.18885557784896048,0.11371310015577543,1.3495058051657558,1.3246116733826083
-0.4886531953232751,0.03764783529021127,0.16744491576802015,-0.09320672951518688,-0.5205636333650313,-1.0540649171992873,0.04580936118782747,-0.8402868854711196,2.749696486165803,1.7226510055844593
2.6747536476816665,-0.06211313254918234,0.1150107054655766,-0.33031157661712973,-0.6051791521145863,-2.1494869584995424,0.727689367437663,-0.376787355550449,1.5319464764727992,0.47901449792034295
-0.29419748648602184,0.009682910074335803,-0.10762200824724114,0.20229192678643618,0.20113648681288226,-0.7426539111106399,0.28956926675355077,0.015377026124279809,1.6885546352778646,0.5822323578443939
1.024769618845753,0.0987391148767179,-0.04301211828361316,-0.015978633304654377,0.03930628115878428,-3.8373417009178894,-1.0547637860696548,-0.12411451499895175,3.7802227846025804,0.9764655976513344
-0.3212637302189565,0.025303090185346648,-0.32249583422630634,0.1048809686622935,0.9272940959437809,-0.39096274505902107,0.06857241746671491,-0.7016884636995628,-1.1862978527196155,-0.1879950919674965
0.19512811187595203,0.08183470363909982,-0.40690874791058185,0.02902109134376863,-0.5669006763537602,0.7951814974688712,-0.9932418299521899,-0.04380103971438058,1.717437497425684,0.7938057725110489
0.6203319891755366,-0.03501108126067967,0.021727524204928766,0.21462811775486737,-0.16304297309833382,-3.827593553035717,0.11857547148104962,-0.26056151786543985,2.4399603138444776,0.8545013464892603
2.0503582808310816,0.044246309730840365,0.08756135527489756,-0.007153094453238137,-0.11305675154708117,1.0020821321564561,0.23809045020385522,0.2989992751525534,0.24828886943099704,0.2300327663600471
1.9698359014262605,-0.010526733437625058,-0.020565307227317024,-0.05512030400026651,-1.183482776588162,-0.7471918667447075,0.5335532491865244,-0.2942385884537233,-1.8230649038528568,-0.07147564931888935
1.7898418790901585,0.023457012421617716,-0.005193337183688529,0.004431175649376351,-0.429620681366928,1.917167129804415,-0.48209438123516557,0.4342256888128472,2.721380044609364,0.8150004714384624
1.9643247623266782,0.01313923244485106,-0.06389179641942838,0.008994899262816054,-0.752284477035243,0.07100040842060562,-0.042590976667542135,-0.39548989270042845,0.5075176079948087,-0.15954330808273928
0.05764107096970106,0.023683713969680383,-0.23999526215768754,0.08056980302388353,-0.42516847560204596,0.20614252305073377,-0.365616388953453,0.09133109009223989,3.5817131085902303,0.9775187373790516
-0.45726770199806666,0.0008198519739508775,0.2580507975158901,-0.01622431773178724,0.04040400583655526,0.22141809601917262,-0.0022350818132509664,-0.07143709460992578,-2.4004589906911313,-0.4440797424610345
2.5251769083146995,-0.040330989385361005,-0.29651583029258305,0.05693941800598302,-0.7141848071969876,-0.4469388960199955,0.012123703462726176,0.3845349919773959,0.5824913289245813,0.22062054916911883
-0.7859179441420945,-0.08396816602266041,0.29166127134546455,0.1127188419495891,-0.02720956385575484,-0.3730920940071597,0.05947643675554258,-0.13148729095054223,1.6709492800882153,0.2549402715614695
0.5245117902249743,0.04775458316963435,-0.08770204952368965,-0.06583520840743332,-0.029364340481425482,-0.7038694160870159,0.669009289572786,0.01255347622692311,-1.2285511164120266,0.437730404157335
3.0248256529988655,0.0708823685827073,-0.03802515810922982,-0.38532480947311887,-1.482954613541071,0.745166477653118,-0.14408053269423693,-0.0270139299620841,0.17188330567704946,-0.34289732139380136
-0.6105947639697994,-0.032565853958405125,0.04937227843535329,0.18467934958102256,0.3624227173209042,-1.4129235814593595,1.4631359029506392,0.016917598777426462,-0.4063069052408543,-0.24908697408431973
-0.5034201712260462,-0.056136449286714435,0.3357302317315298,-0.022108492858202204,0.6176206691839535,-2.113642566339876,-0.3811099716533982,-0.425374854896133,2.035113198249008,1.08148458426635
1.192517878540674,0.025953392869297695,-0.19900209171647343,-0.028312712960483048,-0.1976883815066419,0.8028384205760994,0.10185452214285853,0.31905213191402226,3.104632871410693,1.1812010595409645
1.2005701849666601,-0.04121366448133152,0.3381675234378911,-0.278108072968834,-0.015443352239815552,0.6176121095215317,-0.027648830893545688,-0.3561542341521299,0.40256612989011753,0.24386513167016874
3.3945992167442665,-0.028126438829880723,0.1350260464113662,-0.19910501443056716,-1.6174788685340962,-0.5181349035256921,0.365065171540313,0.1994361102126979,2.091599039966699,1.1294189351017423
2.4503474151804654,0.00690115159582998,-0.3027152838665869,-0.16023143383403876,-0.9019982446378993,-1.7027774582625295,0.3021333475899364,0.14101715035768847,1.0645366971564107,0.5086317474881985
1.4001289914949924,-0.0023872794360407946,-0.17279664437647071,0.07195782669907987,-0.24178479140376422,1.3698916807168942,-0.931822696500766,-0.2772729460478746,3.7170268536758426,0.6825163756232099
1.9487413099272644,-0.0831198071613133,0.29131058686062117,-0.485479968162865,-1.7387503227597143,-1.1286674797741734,0.5266969400895966,-0.5097336505739605,0.28250142900130104,0.9609039508295366
1.519565183811869,0.05062952109804982,-0.3016870311027885,0.18862482882001716,-0.29634193108279655,0.7353018648017908,-0.7135764834883809,-0.20267849902073443,2.518127519530644,1.136905026161638
3.24518482214293,0.0032862376192793735,-0.2693200771581418,-0.15885930690264696,-1.0289772340230054,-1.3858246271893067,-0.1439282783433613,-0.7584727825930627,4.269030587818515,1.6549208140552263
2.370854737985816,-0.023134506005656703,0.24960974348364628,-0.25241073255082563,-0.960072118301998,1.3716017971328898,0.9442557072061597,0.0829592007839706,-0.7147638079017484,-0.17934564700563238
3.4632733355662753,0.09698463078899063,-0.1911369322447072,-0.13276743385354353,-1.6447769850382339,-1.2792399982087248,0.18520946868171195,0.19514357167062263,0.7409919390119394,0.360761865019899
-0.2931421981876773,0.017169097581084692,-0.06379027594477735,0.1314136997355353,0.229077977915535,0.37738866488127076,-0.7344678032214609,-0.35121546334115766,1.0792895475545627,0.24888511175685193
0.31257606641045177,-0.04755354847744814,-0.21841160315613367,0.008169488041328084,0.2515174579344567,1.0632543607557141,0.8497899203142668,-0.5496142825694297,1.4907830048376378,0.2270916408094868
2.2627588202970976,0.001891611995392944,0.10361170634335656,-0.32918749585055157,-0.8450822488639596,1.761666905086137,-0.3140267737850857,0.027838941978065294,2.1817577231337557,0.5182952046909184
-0.7713598749820301,-0.058430955154826485,0.40287022929621313,-0.26253303808780526,0.0670378784405261,2.645084697475123,-0.4559472631670408,-0.15850558452332686,0.9109776642246056,0.1597437270806242
0.5249812546026162,-0.040258927480446516,-0.2343133437743725,0.19348789076843032,0.18429661868125508,0.9117765185158875,-0.6982108141789076,0.008451627734588837,-0.5412616874475684,0.945411832424552
1.5850060293442576,0.022417314634301255,0.20361425438322833,-0.0745258639467924,-0.4003944598949516,-2.275357785898915,-0.4577097054310379,-0.36997941560850706,3.151766317109828,1.5648080604043981
-0.7466879213459554,0.07196532793717601,0.07460364152103784,0.31617547455063955,0.06979699094310288,2.1035402200760442,-0.3867731113193734,0.2142282991614649,-0.3318756561160402,0.5507968799622001
2.8114573991018292,-0.042506055420891906,0.25799298334304216,-0.1406803750724296,-1.0282612343064688,0.28456745730814115,0.7366070517901473,0.022013514123299063,0.8587947557990018,-0.6623591726092044
0.3760541561490349,0.060585056078854796,-0.17343382690145942,0.1954914351219745,0.25886087858231616,0.890373774151354,-0.03716554868373803,-0.2128677501618212,3.091690308392436,1.2131121712486983
0.5438927224385524,0.055987372404152115,0.2919620496417397,-0.14251884897744788,-0.4370249744939041,1.4399382517020913,0.8680530900464224,0.30116589788879716,-0.41002615637064854,-0.3192984925483402
1.5768543805802704,-0.04769272754692067,-0.16204270785593206,0.1687438933108733,-0.29665568137681264,-1.4666689775915693,0.4291123286879249,-0.2755846712993386,1.3683830750532033,0.5814351946034382
1.5622678078574617,0.027506742523552032,-0.32470317109302105,0.24156487780223873,-0.7268671803249047,-2.061599156838155,-0.2056402666220533,0.26140730786552646,2.9509149539548583,1.216146590787019
0.6690967920691988,-0.026968619124305485,-0.23288104262600962,0.15784440536926822,0.25902427748699036,-1.9404595195973462,-0.3309084849215174,-0.022360229940792856,3.3229853090772448,0.9406817975940909
0.4296505066709986,0.025226686108300426,-0.31706863849775707,0.3208509136481829,-0.31859748468554894,-1.6827018884975944,-0.5333568328828081,0.39143926635684695,1.4313755401594763,1.1926610963515258
3.4427335207320766,-0.011831849538552302,0.06747422720920615,-0.1822515163428484,-1.4475985052335452,0.9026912223399124,0.9020148369698968,-0.26478904535278464,-1.0103415232640311,0.40612532822200786
2.9399466757036787,-0.0014574773605215666,0.06808535316310801,-0.29662513852065836,-1.1428692061133054,2.1173882162552213,0.5094727501933347,-0.0070556829629846995,1.5207895244507317,0.5660827340398917
-0.06296011015566605,0.021032753544439894,-0.5381538325334989,-0.05528030035768184,0.06275736346375085,0.33345410580959056,-0.025438468105751122,0.020013995603065937,0.07386798854910231,-0.25502107768756516
2.7700881767246477,-0.02032738903021877,-0.015763261140536416,-0.028689966622607328,-0.4971944495487392,0.16146233013347278,-0.04285774026580197,0.18751673024229212,3.8506964037584543,0.8768472895381382
2.574256912161508,-0.009913467180191387,0.07410131853076693,-0.03705993480991342,-1.2932588591977525,-0.06236850941759586,-0.6383229882108076,-0.36831958712736124,2.2397534694406507,0.9063862652998189
2.6583302059862115,-0.05751932441944092,-0.10912720674103335,0.19053205666961917,-1.085139641582377,-0.27738657856884696,-0.7847512791600186,-0.37530158504599753,1.062013554533477,1.2763860778754408
2.5508062152559425,-0.045693453119812835,-0.3649971467917537,-0.16228664169290744,-0.48003009705990424,-1.3169195710434494,0.44931211522958486,0.14211782017450184,1.3012174087271329,0.963692051637675
0.7366466401211087,0.017922459036051618,0.24493286287953045,-0.06982823549233712,-0.13619351142143005,0.08172956361284212,-0.20498585826550342,-0.1793188313665889,1.59702221312073,0.5292630681703507
-0.22092422170246584,0.017127813607126747,0.08701539819621763,0.11535789756718162,-0.41441784260745934,-1.0675493126360118,-0.12978514731579724,0.17164798501277012,-0.2847335624968154,0.14356275641716798
0.6629748527280801,0.009316000707294861,-0.16124488758817568,0.25955307271167066,0.05964726122226472,0.8388403066366696,-0.42707593845111463,-0.05545295293554105,3.1477838552845148,1.047070154947417
0.06358241881215765,0.07217504212182854,-0.16159124709443584,0.13371705348382149,-0.2957553703626468,-0.030907310709930247,0.15168314293946944,0.09265053781582078,0.42744962330785347,0.5969772672916134
1.6623078332793524,0.06542540220088722,-0.24035922887400404,-0.029439392799819622,-1.0832650876319263,-1.1066132272850135,0.8166036115630843,-0.10283832245488439,0.32827525254587386,0.811435432195907
0.07634921421137131,0.10334021007418101,-0.20528676718761632,0.07770788931982352,-0.3609100613585092,-1.2058421024641301,-0.05590621644763233,-0.39698361764503437,1.8497776678103017,1.0566357088838847
2.264805099922594,-0.059145533273236905,-0.12320851385938114,-0.511846091210945,-1.5374439800050608,-2.1070331181603255,-0.8584319662655397,-0.15276536506897906,2.8179194643136576,0.9247737668242333
3.110920420120527,-0.01563155251207121,-0.4841385100899079,-0.24171814407524214,-1.3720498068122478,-3.13923423593536,-1.053872340715512,-0.4768421462361245,1.1447855769111,1.2337897605359853
0.8383635630036979,0.07798200001264992,0.06942920815353595,-0.19711161666806237,-0.3819727918385109,0.4528355885011548,-0.6421742128479825,-0.43810052922442944,0.7790885430039782,1.0707745334262153
1.792253753390741,-0.03508086435297211,-0.09122181313013715,0.21224863570918426,-0.3352407672784658,0.10397064915717324,0.5285215122364423,0.4839550759350756,-1.5644677555555684,0.2001951099883484
3.0561808494691896,0.029681943996965793,-0.07741683140088597,-0.18121479763913523,-1.0834821625716986,0.49578097196785403,0.6275406477374759,0.34138717771348054,2.3903131001217712,1.2564387049784522
1.2324388686347367,0.04036909756322973,-0.025194872524616663,0.317221288854263,-0.6230973300153058,-2.414531183699839,-0.6827093024393923,-0.3531115605689663,3.853191677527925,0.5226737074670144
1.2142630010853415,0.02328184673056088,0.051968112974300616,-0.29408611418624825,-0.7531491113023571,1.3445230424677903,0.14643207859013424,-0.36514534809664495,-0.13955533963081573,0.16210378872958703
1.159961303173274,-0.020252633933488078,0.05140907693672078,-0.058124946035972166,-0.24671499234355837,1.258702025115693,1.4509794534300435,-0.03502853678201268,-1.636777737601726,0.09524780164820343
0.28764744809450793,-0.09097034792958777,0.022678463347612324,-0.12969911674969353,0.04537954491204981,1.1605155566223104,0.6298806982902794,-0.18772226428814537,0.8912626194937734,-0.3393239615131944
-0.75068538085764,-0.09975634350165366,-0.2995826830065929,-0.19171378563372324,-0.6984195691389605,-0.6891126025786476,-1.4042803926204992,0.09825116547103407,1.8010030425789814,0.25611414676002614
0.3664309154401928,-0.0557110475414778,-0.050023752633135896,-0.38287310469908936,-0.06762485970255713,-1.1947715144936213,0.2107409110718193,-0.6377221288448212,0.3921487837238524,-0.7759750378245034
-0.9155072828796121,-0.04960038374506671,-0.5580724596850553,-0.0960137455137,-0.05415945594265679,-0.3854978926965782,-0.13892233869735027,0.008349613107452365,2.626600026636564,0.42910804554908943
2.8060612616591567,-0.020105950497873257,-0.14733841751787002,-0.0006187805291471815,-0.9633375708734736,0.6979568223748307,-0.1792737528222922,-0.34055851398497905,3.3310621002305867,1.3514079564040522
-0.5455928152546705,0.05561876875252319,-0.19098979787193704,0.16935703824557877,0.13539902156059302,0.8870277333843476,-0.33846839691147806,-0.2742982980372524,1.349208626661944,0.2226862470313648
2.04803376930955,-0.0064180847831991645,-0.0036667524083290742,-0.26879667820035075,-0.6497051835229518,-2.1425022507683997,-0.6306541954357556,-0.5481721175029501,2.208418396808316,0.8227896317003969
-0.6049921758583129,-0.013515731523262981,-0.1635752146328982,-0.26778723401041393,-0.37575893981642633,-2.9462461756033766,-0.824761587840111,0.17274764048857624,0.8437562823582446,0.685813783139287
0.9595727909969851,-0.04910969424732189,0.10654435713275488,-0.1815716760584106,-0.08728724861060959,-1.3650284647096527,-0.25380950648940437,-0.45126290567471794,1.360328120644135,0.02560355934109815
3.365973243377523,-0.06576638366093339,0.1075431011991579,-0.3349364388947548,-0.9591946261674588,-1.3002329970228035,-0.46258903517913486,-0.24533209254637708,3.0598524912104486,0.8642256180933237
1.5082820985298926,-0.08818298227128962,-0.04655269239338289,-0.10393249590183275,-0.4208048436773277,1.4913822759506785,0.7721002907031647,-0.10536844916337401,0.8072210165267234,-0.08526984845577781
0.13052014243125565,0.09701806669856856,0.05072497112118354,-0.09912858691742821,0.5492835514765618,-0.9834930801416728,0.16745075426226638,-0.2279693974026925,-1.3329588041348548,-0.10108037240010315
0.19316669629235417,-0.04285778726763565,0.20060074336738315,0.10685239044790223,0.04031747109741676,-0.19453195279170088,0.20905145543157985,-0.4193773821344142,1.3202359560640833,0.16501273606901173
0.6060401308866104,-0.0062635174698618965,0.07393021816140333,0.12509104469316476,-0.4243244809978844,1.934891457531306,-0.0417070489665293,-0.11284235819906013,0.6452190286035872,-0.9672753883859118
1.0327289277596283,0.03493871535401092,-0.2650428149134174,-0.21562814007422076,-0.4447222138833044,1.932399168207458,0.06447434955432897,0.16421651735421589,0.8816760485304331,0.9118718019920817
3.2265185606662463,-0.04951574821015554,0.1073078123864577,-0.11789135498912008,-1.7740379137938251,0.16204219101448558,0.24148844381585785,0.21901730566936184,-1.0169377274573477,-0.6557360551635371
1.4781077343134896,-0.08583902439383412,0.02294547626754835,-0.30807487097167646,-0.7850809434087036,0.5750761966697354,-0.7209820934517889,-0.1011776742102334,-0.026844209798502494,-0.2949905210019058
1.5534918941366769,0.0020465567782888537,0.2536809502554571,-0.1654436357923861,-0.044416833167887616,0.0023652415316315345,0.4804045388814865,0.03386645408511475,0.09561745544471056,-0.012830535843337928
-0.7732088194080254,-0.05311689172239585,0.09783568667493735,-0.19231606704595827,-0.3041188398172739,-0.02955137226429594,-0.7793626781821236,-0.3629974469899747,-1.3248755374103611,0.3924459817259776
1.8117500132988495,0.012139156956840681,0.31165962879043196,-0.0613247066355882,-0.04516429313345486,1.094282317376031,-1.0432120818715247,-0.31589499036531604,-0.005294815399195851,-0.0031942870641212063
0.6620540094826572,0.07774386514406788,-0.44592726794152326,-0.062367316059108134,-0.15807135326426597,-0.9261266302687765,-0.21295166358021214,-0.2316102069049611,2.7467744645052576,0.3256340301812744
0.9051985868203662,-0.04095828950912955,-0.2031185407736285,-0.00872609594252588,0.16974681980235637,2.1444942422881774,-0.45704912596913994,-0.07870043679428745,0.4251778123518049,0.07730860075314942
2.1944585168300432,-0.04339130380360327,0.19257864840397143,-0.1349812430604595,-0.20068232680750556,2.4863104255507635,-0.7713454213010721,-0.43079533407958903,-0.10543377333205672,0.7006964686169731
0.18481711090679798,-0.04008956287791887,0.18804444442493823,-0.37446840451443364,0.10738358651813656,0.6565772333234801,-0.9269082411425587,-0.4052996896943723,2.1693376757657346,1.0921104094420813
-0.7291891328952733,0.0689499483919315,-0.2191780178488327,-0.08781457251255627,0.35835301965649174,-0.05401337551204555,-0.28462316991103004,0.5167555690968244,1.2019945528272649,0.2849942612657221
0.3249470281058351,-0.07358566838251993,-0.5625182610229323,-0.13834732190275442,0.1818178676712721,-1.3751819470792452,-0.356431336466992,-0.06213968969926831,2.272068654334931,2.0914380267802324
2.903796572352571,-0.09066728034809696,0.22826917284463594,-0.10078725717767087,-0.7820229640386226,2.4681431136202425,0.6279442112598501,-0.13137858411302028,-1.888573116856255,-0.6032749592667256
2.2323215430385477,-0.08658817511851499,0.028969078886223194,0.01611907549655084,-0.49623049517976203,0.5114241376428247,0.6192137753813538,0.11279265228679557,-0.6509161676783201,0.36247786938194837
0.035281027312555224,-0.016239811154290327,-0.1414742822793535,0.10881914215960044,0.33373735207389976,0.7954839757971248,-0.9378014743621663,-0.17729813408307832,2.179027274512344,0.9486194581263249
-0.37956684801476326,-0.0034756932573231244,0.1474974480378634,0.0014142810600536056,0.40392294199703865,0.5598479529554793,-0.23802628451744032,0.12911904606321128,0.3205340074023012,-0.05821150489805474
-0.23169453341379775,-0.08493971395307194,0.10613007241121306,-0.20234970477148564,-0.32812812914580575,0.8215556097457457,0.0927705110407155,-0.35253338687090446,2.9176273182375017,0.8199119876572748
2.1192228810958045,-0.0394415065838019,0.1546293035945105,-0.4243666989610517,-0.9760916393788438,0.19124447135648728,0.026314929924369457,0.07513143751452653,2.402743414902857,1.0138726367533524
0.46077537183314865,-0.0040560162476194666,-0.22565671198937798,0.46043686310967846,0.6096591226706638,-0.47981176683759963,-0.659118478977044,0.2773584415104272,4.479394117580292,1.9016896817567888
2.4794826466925453,0.024840563062676287,0.0913084877318869,0.10573520622544849,-0.6970328628116809,-1.8896365561165247,1.4561823352472887,-0.23679193383472913,0.7174475603223238,0.7183966159655424
2.4322638356182638,0.021221811171772326,0.34882294188314567,0.007099538257704079,-0.7079157273580211,-0.10964314636891204,-0.06616453759282764,0.6821376270846147,-0.003536301155277588,1.2587297448346944
1.4377662898382382,-0.029408420757483903,0.211987443559164,-0.4079032588582767,-0.9566524270950202,-1.236936039785086,0.22904170839131222,0.45820225619205235,-1.3873730626836591,-0.07779365962009742
0.652079288961805,0.07413180805574134,0.009166401800478369,0.014202687974047756,-0.36915418698464325,-0.5953798602629693,-0.30893298459432383,0.1069308357527321,1.8915720803211107,0.8897072364717601
0.0896036972688512,0.058627266123773905,-0.09311542034490364,-0.009896413563292223,-0.7930065623150515,-1.4356946223127554,-0.3794648174115649,-0.6043132906233906,4.011856750120964,1.5944177527153651
2.503900356124887,-0.022455795585924677,0.07166646893796305,-0.2883287497702017,-0.7422971483342036,-3.880570385270257,-0.38564665145809834,-0.20167106844274335,4.694828127057636,1.5860316322484969
2.804618881007573,0.009819021406781366,0.21575417555497511,-0.38279794759305896,-1.426187050111536,1.2877560728964033,-0.40683275425635934,0.23230294485128863,2.1590836652893692,1.3025753714648192
-0.9878239504590922,-0.033655767251201285,0.004360162944006568,0.1351389242824808,0.9346372555952744,-1.7114469107312713,-1.1771628263277112,-0.03358696366392047,-0.07151750226269138,-0.17835410560661893
0.924585114263047,-0.016474330686551592,-0.04752992140025769,-0.16276213966409134,-0.006359504548845765,-0.03506355208055814,-0.7766011953663409,-0.309078334216503,0.988193049061822,-0.38316035417466304
2.316043657044645,-0.000775102657805462,-0.037121481433864095,-0.44232299908393696,-1.1214382558141809,-0.7812372678153207,0.007425196609479823,-0.06348694162371678,2.030925156352666,1.1365405268680078
0.9528140801338623,0.007610724201268658,-0.12778172291021023,-0.1490678402898525,-0.33920110910662393,0.44701545765167605,-0.11405005832476922,-0.3491651591456406,3.833837526723471,0.695087272362279
1.2410378331244183,-0.031504158915344395,-0.7028102108180492,0.34134339933175795,-0.4399461963895194,-1.7640021319208008,0.36612967768874105,-0.6726894071993663,2.8878835357066848,1.2275815048922043
1.4522224448412056,-0.004425955913080053,-0.3712785822163389,-0.36497798469302445,-0.9195136715087711,-1.925958341733623,0.24313639142472332,0.02880731498083014,0.5710409032554671,0.7654891614247262
1.5088239436121529,0.1196199599133296,-0.106143318861274,-0.2991768598459199,-0.7740623151536427,1.061868768948296,0.2981031010715926,-0.22284687514512083,2.135951459882927,0.7971548442931952
2.4026070704996614,-0.01839631347480605,-0.8858815953755232,-0.2451626868115092,-1.5103686618678622,1.4818349385308864,-0.6433860099585039,-0.7732836119784908,4.218556650945415,1.1427784770087317
-0.5015579302441255,0.02062866525496643,0.12933930048701747,-0.2860425752001127,-0.20073118615136676,-2.3912037993347184,-1.2789711996263575,-0.37079837884202843,3.5249851433436974,1.0823558307981187
0.7750744966197116,-0.05681188824052185,-0.26931462643136495,-0.12378780839821234,-0.6034401439881022,-0.783676121751977,0.45053310169613736,-0.023984139656082704,0.2944898150638383,0.2896082129878499
-0.896641281509525,-0.07035749805679647,0.061994017268631615,0.44335762711008425,0.19988236022337466,-2.001497311919368,-0.9628504880132517,-0.1417896427057077,1.0229059921325414,0.06376882911134353
0.9211016318303447,-0.023221381774245292,-0.08587373685972344,0.14787399063363377,-0.38548306625078027,0.40869351779684293,-0.004110411548758866,-0.07920217128100247,-0.8316949556716154,-0.07297584006436378
2.618398945304723,-0.12123326899548412,0.002653364019459148,-0.44490324945888665,-1.3513235822485792,-2.4559621477896996,-0.018984889351686962,-0.183259881607992,2.8449012626714154,0.8395236736052484
-0.6234255715440621,-0.04650209699103019,-0.0642378222017838,0.09196276063708059,-0.14333339505062953,1.428870411920548,-0.6380396169686835,0.0424760133695071,0.7321299728198605,-0.07164623078309564
2.170911777285523,0.019416311563270203,0.17810041962786238,-0.17666475741971213,-0.9451219556436394,-0.8056369951841847,0.376145045501037,-0.12301903106103333,1.0919719896976794,-0.004248236741504575
1.531094136467075,-0.017519474417731724,-0.28743356683057003,-0.02485595877977349,-0.6338647913944204,-0.9768120603948796,0.6573279671974084,-0.16210737966747374,2.514172289871201,1.4266850282127999
2.33980568629444,-0.010734067812718266,-0.07848070281420244,-0.1844289775501003,-0.7934634277836627,-1.3451637321946497,0.3507838233360973,0.34300277059282014,1.777096227586401,0.8607595667132623
-0.9719964335437418,-0.0532215352742225,-0.25410683470757645,0.2161332722864254,-0.25369663784791247,-1.624742016739575,-0.8848955207449696,-0.5420286462973944,3.8214352201709487,1.210796314249356
0.15330304451083498,0.037373850469821654,-0.011785978763078575,-0.055743334170798894,-0.2406876287154223,-2.9031102686157952,-0.08359170836384497,-1.1976556895146668,-0.21045220249412222,0.3900305655945358
-0.9123240379659552,0.05824827555906517,-0.05807256531412303,0.3439827886506134,0.5662969007759941,-2.434264329430115,-0.34573196265354056,0.013149900876631954,3.473529814881958,0.5014357687690796
-0.15778098046382583,-0.036299723912142805,0.02277099554425846,0.17583088456121765,-0.03527362827613081,0.8564472498061275,-0.10409684421699131,-0.01053431422931055,-3.458517041026549,-0.46904548318580347
-0.10857681239598183,0.041497279643035394,-0.03646386263931342,0.26301878035310794,0.3157100958885562,0.5915014736678779,0.6817612130719808,0.009374702795704626,2.7991576993212837,-0.011014985547851458
1.660077339894678,0.009606382387538099,0.019520811884747937,0.14018208682945008,-0.6436902331570201,-1.472382365345617,0.2411241824705698,0.1476917225739287,-0.3741661205783344,-0.49366959459669096
3.2669829659626064,-0.02771759916199962,-0.009678214804037535,-0.17353523078874805,-0.8997005620279028,-0.7834727730853688,-0.44062076447013265,-0.31692031145350336,-0.74412474917949,0.6516006451689389
-0.16754364952098333,-0.002727153544192353,-0.019337554816093575,-0.029645230148000076,-0.6016943472273865,-0.24746268788614814,-0.5198940342250952,0.1817168993166625,-1.9726764435505602,-0.3965182610762822
0.4909947709159681,0.06502714827395414,0.4734096450280788,-0.5642878778863128,-0.18678490499306863,-0.9873806745051785,-0.6762803330684035,0.010554352734269537,0.5534711387641036,-0.05631774848669548
0.108258678586856,0.052256982067700776,-0.05813395960467159,0.03783117692838611,0.09007216757685027,-0.483293268799215,0.8596094147959572,-0.6146184981140823,1.4209070195249396,1.3202151859237399
-0.5558617536434863,-0.062338180883515656,-0.07916290546299272,0.021264411374622025,0.0009965263632849626,-2.36797377140359,0.07440915152470218,0.3259418662704432,1.4657493755342677,-0.03762938073021935
0.8748425645459361,0.0015360174985380815,0.2929149948098717,0.07335351339670061,-0.5510093222698739,1.2644133507498894,-0.1374637589284655,-0.4233466354207246,-1.556707104998798,-0.7481665051894627
-0.6856702026387465,-0.019730376513930045,-0.12850462847561356,-0.2719461430788436,0.10193505319603516,0.7496093793660612,-0.7116911685443168,-0.42250732661030066,1.701425085240055,0.6963861849550732
2.7389000204862937,0.0019045808563630804,0.2586891132221721,-0.2535308410193744,-1.7002348261529219,0.6863132378777682,-0.11580540637513811,-0.10095970104439861,-0.04573817433222038,0.6728472900484795
1.2127743412216385,-0.04313687150027626,0.17383983445331364,-0.009064348361830116,-0.735560410934648,-0.5824953383807203,-0.6915380421464834,-0.1945923907777628,3.9559272649746835,1.9163099445776783
0.473921093996752,0.05012676364237013,0.16588923230095584,-0.3349933382370305,-0.251404252644932,3.519627184920551,0.7269370797893928,0.32352060259862153,1.4155695738608303,0.024542792478666753
2.3625725343178923,-0.11990673845748878,-0.3635589664424419,-0.3691515597381399,-0.5768275707612197,-2.5652336032085605,0.1465826771204386,-0.7185787575815236,3.5791722637631023,0.6292330158197865
-0.7375380850854538,-0.0686397933632751,-0.29429299367658956,0.016651018398809243,0.6086166599140607,0.5263265707315896,-0.3966332663156575,-0.28874786279308434,2.998020827543308,0.8281899441197778
-0.5439171373513281,0.046223567097373165,-0.2728864133264546,0.10595622694681349,0.05939340724057994,-0.06557643365890486,-0.2772377370096263,-0.16907464655466148,1.3129019066767427,0.15879485234615037
1.3755556124578319,-0.07705625679539797,0.2589947183818958,0.20797880815258596,-0.37573788451245255,-1.0340511962327994,-0.7503277271622099,0.17321211991110325,1.2844119542963899,0.036624474020519604
1.4673432068467913,0.002338514188056803,-0.11597263399645405,-0.14051980426225588,-0.6621711718916117,0.6375499429684333,-1.519666210756462,-0.154687084625301,1.430209644086529,1.4770931744931899
0.43091844660948575,-0.0056884685479678225,-0.037294739454696746,0.19335649748027578,0.17219383642664848,-2.4776614788317275,-0.266073554015954,-0.3476989411071611,3.000265234240716,1.1852258926408696
1.9825359378948262,0.01513354247777326,0.15439593269693763,-0.1025572691446227,-1.1091014786561388,-2.518243009628281,-0.429231409249654,-0.12442929402948327,3.3701851570116235,1.1237122774342825
3.188935267004844,-0.007467470589335628,0.20338562745373648,-0.28303485943375917,-1.2800902572293231,0.7808047532136028,-0.08133432718020346,-0.12933885521072072,1.9172985117100596,0.3625770361879149
0.6127551045733468,-0.043051589748088225,-0.02740886079459598,-0.45743601165889997,-0.4539595510882608,-1.3050508944822636,-0.8448362685662509,-0.5360063448426435,4.263156170143452,0.3667734464255385
3.1041896042258177,0.045102530378417396,-0.21935695317060802,-0.34300232664174457,-0.6844095507413229,-2.0219163184775413,-0.13364622213776348,-0.3260266319494193,1.539492567600158,0.23338898529976781
2.562434517684383,-0.01736029396237947,0.4160609128232756,-0.18077465962480838,-1.0086858827333973,-2.687253569400621,-0.6311352728705436,-0.4436044554885881,1.933269186378972,0.34762254241209056
-0.8542936568894651,-0.019440078504190016,0.13826052252209228,0.5317545649652948,0.29303031928706863,0.05095514227201137,0.29457434307503383,0.09832597922088014,-1.4271994433630717,-1.271761106447638
-0.9739285489084375,-0.030770773807345966,-0.4473120683979592,-0.12164008330370774,0.0014943334355660455,-2.2281755473122544,-0.05143383582922434,-0.1489005599642938,2.310082333828141,0.41405619713443015
1.7578040780721094,-0.09258641276275727,-0.4721667881374588,0.061624312217030984,-0.9388713802297002,-0.5436768451895503,-0.9997731272864365,-0.5925928399851466,3.12031826652321,1.5014997458527617
-0.565483875318241,-0.03553861721205356,-0.05544674286640071,-0.5372162410336111,-0.45441569284758215,2.1205711147593265,-0.27065267639212914,0.0790563999753474,1.2535115006678923,0.19822159826942365
0.5186409624564501,0.03357234267957549,-0.0015311774901455993,-0.05460779199148132,-0.4081424508370875,-2.612375835221594,-0.21812264629304334,-0.26626106504410557,1.309168347732229,1.010940150926069
0.3384040059020734,0.023577930255519373,-0.15834915109186395,-0.1311946876920705,0.48200293478995826,-0.5172106916095273,-0.1438535448488727,-0.3893289791065139,2.435499407909173,0.25532748997724264
1.002338012158218,-0.01745057808990449,-0.41563638964946203,-0.00354322753822012,-0.40442433908890696,2.3416088179682357,-0.6224368440826461,-0.1128122197068358,0.38370501631311926,0.1649407245585137
1.4567016624644533,-0.00466131056726993,-0.07018368575867044,-0.110512192708819,-0.6984413079957371,1.3947019081917391,-0.4285794126747592,-0.5707018376312714,0.12142095326275114,0.027287128556652912
-0.25713922053324945,-0.00514402901562876,-0.274327406988988,0.06874065684718408,0.8787468910735347,-1.4685615866617459,-0.6610065499968445,-0.09635714558815042,3.56481592264261,0.9675564689438416
-0.9420616361429722,-0.10843829951436791,-0.17987289414133634,0.1663629570806331,0.37011900293083305,0.6401023899313814,-0.7795262332660017,0.24254795840818766,0.6022143808265341,-0.010296580201541977
2.694990100740774,0.16087483927193255,-0.20817544615996725,0.30736962079979724,-0.6735878775208712,0.8033152260425038,-0.4271965505377847,-0.11490912564217101,0.16177880951944434,0.8370949246057183
2.8548806867215024,-0.09739694056656319,-0.2574893363321845,-0.18091154416471797,-0.5887242570558195,1.4176862406317872,-0.7830693750304186,-0.0019049321145094833,1.5382855871525112,1.0373825559952559
0.03851179196365573,-0.08256248219444667,-0.2505424457647919,0.0842141656838576,-0.405034627233467,-0.1426429536653544,0.03430671847034267,-0.8900968682516398,1.621218385138296,0.694572167455507
0.6732665692461091,-0.05113009693050792,-0.23680096318805988,-0.033020860425019595,0.0058878464537718955,0.306967478906981,-0.4398861917535368,-0.47878554142871527,-0.1602437257224243,0.6769723670677574
0.8911378329375326,-0.07754888835488057,-0.05199803722938835,-0.05959171788401531,-0.06919013508587649,-0.7843947444959788,0.11716829666515574,0.5590161260397891,-0.3078962186472177,0.155704023068175
1.3040996891583916,-0.04980162803458651,-0.3124050491806242,-0.06537593572886508,-0.09478548663962393,-0.7171581775042962,-0.4692131492308926,-0.48918608398603997,4.963972595483387,0.5216039049660826
3.4555100659400564,-0.05684573819881786,-0.05486740921625634,-0.30921798235176645,-1.762570222333174,-2.1195667329813705,0.784927834312174,-0.16735474546706564,0.14880865164948343,-0.37872998864874863
2.123079908391076,0.01902320258336454,-0.12183407569219978,-0.030005814475088995,-0.34685365727596124,-0.23210109004282492,-0.19555077774115623,-0.10713526964076642,0.6030197500150691,0.13632846524458728
1.025974164553376,0.0025933362401718567,0.2763861795874086,0.09553421144521039,-0.2709190392739379,-0.41450120076338326,0.5005665410407836,0.5039187801989309,0.33993632094897663,0.27722801133219555
0.4973968255611432,0.06606450823920212,-0.07521202815695126,-0.10534255308618962,0.13925708233493897,-1.7037336211273417,-0.6682402948195743,-0.6778063021157291,2.5125962131020527,0.7217057388359497
0.9009409617602611,0.09427967396817398,0.28300849228953734,0.16672917702061962,-0.020514108420391846,-0.6352876117737332,-0.79834606586003,-0.04861468946217033,1.4765551862661195,0.3162291961627534
0.5027083619539505,-0.01742598638571055,0.20628640765680406,-0.3110060343041517,-0.7407591583170411,-0.110129415084525,0.15126886632432518,-0.03854263950384185,0.36295199764243846,-0.019978590702089506
-0.6909655128547931,-0.0018931814914113073,-0.053221270088475936,0.182667332764448,0.5418580732324724,0.05835701934766768,-0.8014320353275928,-0.11580182237789932,-0.3250409593485435,1.3896375914162094
0.1867686234306094,-0.0944484921509537,-0.13790213722167396,-0.22696378488734623,0.004243528496095164,-0.1829744282370016,0.2958742506050154,0.05798522647797627,0.8512367862750866,-0.06190579356827235
3.1304375327713103,-0.08295359884607252,-0.0488698312936077,-0.1604744627846622,-0.8054951687215869,-1.5352287986468993,-0.2318257707143203,-0.06211117685576842,1.708296466273283,1.1267985107894127
-0.7089308030197672,0.060533451389745196,-0.37157406891440475,0.15723786775612597,0.6082644409106611,0.6996879446298101,-1.3898800865803032,0.0782066095774433,-1.3100253468136733,0.2640011421635237
-0.2786390245106025,-0.009002880243661476,0.15698415356305964,-0.01424390993135624,-0.47239911921854577,-1.5304399567698828,0.21578434337300353,0.08394487433104626,1.1763976826409284,0.4380621916825708
0.7451968659675521,0.07724275167716747,-0.2239821210689549,-0.1792221797967691,-0.5235820803921072,-0.7074414429823522,0.5599473278771548,0.37901116952204333,0.8351953431768594,1.3654006887630037
3.434326457932003,0.053989392955619636,-0.3227560922318772,-0.5581798215425494,-1.3477718392219404,0.03730159908802666,-0.20900382680240776,0.4556253818395007,0.30851598050120665,0.06011029225035491
3.073759471763987,0.0734677909479439,0.26719147605820914,-0.20637664735053737,-1.2234327863597536,0.9977062007230311,0.24489538292294027,-0.04945633046841175,0.12946345419548141,0.03704868849664744
2.0097604204951107,0.025919165985199045,-0.15478673542166882,-0.05987778505270904,-0.9649295931891648,1.4508559501925413,0.18849526083933565,-0.31029865309300486,1.8475971245764913,1.1399426287863703
0.9527188755837819,-0.0448471196540796,-0.1923813911439629,-0.11704394864464283,-0.2996643962845909,-2.191926509121997,-1.3090841162390254,0.469373110806465,-1.8463172093616684,-0.26370607238126814
-0.8703643561676497,-0.05172768063723518,-0.36150095764263085,0.09578527980617421,0.5100401191949671,-0.36825823735924856,-1.0715413201001205,0.03322433104080062,1.9097034965464017,1.0126551915414834
2.9738068123062464,-0.1161874119653345,0.08072126557215742,-0.47124645709133905,-1.0832669974224174,0.2448178900488257,0.010182212759844905,-0.5501457287140887,1.8256161372113608,0.03787389592208696
1.7229493686054194,0.003668042260726315,-0.015424964971558663,-0.4150093908741009,-0.5047209853579235,-0.722419912908971,-0.3958658859816453,0.12901696531434223,-0.6883063489903376,1.0081174990030717
-0.7328668578087848,0.03052076431187202,0.19482338644090696,-0.039146034948666995,0.564053903842745,-0.020603634792269565,0.5393496784548529,-0.6348012062799929,-0.11567754246843831,-0.28711374965833675
-0.9222851906599243,-0.05564841968801852,-0.4920141969972375,0.01185784181045191,0.8706580937197231,-1.8380622479668953,-0.05053417314614117,0.17282357403673654,2.031404888457768,0.41666614176682487
0.9919328614949883,-0.08444807466816388,-0.38938068881960486,-0.15005636775279665,-0.1339122324219387,-2.580326751218397,0.172456381939585,-0.02353557304202945,2.6848874969973404,0.9588686876226112
-0.3789003586034303,0.062170784118590554,-0.24700574777959783,0.35402972893469453,0.4543532041172908,-0.3188775635760841,-1.0037569450540018,0.2992979720804204,-0.9451124410405485,0.6104677220212639
-0.9696785231739579,0.005763466853792948,0.054651664032528594,-0.12911396766981056,0.679260522602682,-0.6881347053107523,-0.5023811302752046,0.31482997835219556,-0.9647638607973226,0.10096137372501209
0.1018493752666978,-0.055634847116032435,0.006579931171453418,0.0011219855780467943,0.1565646314931415,1.246523336060616,-0.11078488577905346,-1.0534519490050716,1.9160154498393498,0.15668060231790482
1.1493796938223841,-0.07907527571992438,0.0604255791236841,0.02264613683628191,-0.28427524670164417,-1.581654807712556,-0.5691518911543025,0.10925574335250128,0.017265093987395286,-0.2122798156554069
1.961606348341844,-0.0068964082484498646,0.28125259093173566,-0.3395638328222225,-0.46656610861901054,-0.23462379052320415,0.29833336199850596,0.8159848238686157,-0.5738991119661944,0.027123041560671354
