lhs,op,rhs,est
x5,~,eta1,-0.47917857090211247
x5,~,x4,0.3642727481988952
x2,~,x5,-0.18409346923081868
eta1,~,x1,0.355507074305302
x3,~,x4,0.3890016749878961
eta2,~,x1,-0.256468523479183
eta1,=~,y2,-0.1878153254953798
eta1,=~,y3,0.5269744395860497
eta2,=~,y5,-0.135094036125786
