lhs,op,rhs,est
x5,~,eta2,-0.34689871360457697
x5,~,x3,0.09865719491221524
eta1,~,x3,0.11448544023442367
x4,~,x3,-0.10093443188522964
x1,~,x4,-0.17502166287642298
x2,~,x1,0.06902657894434273
eta1,=~,y2,0.2752561812515839
eta2,=~,y4,-0.41870204143589834
