lhs,op,rhs,est
x3,~,x2,0.258015502641558
x4,~,x3,0.07640842117632794
x5,~,x4,0.10937881788847412
x1,~,eta1,-0.09233316568120935
x1,~,x2,0.13802616741869986
eta2,~,eta1,0.215631218700731
eta1,=~,y2,-0.4846081246912659
eta2,=~,y4,0.14548827671455586
eta2,=~,y5,0.42569156571388117
