lhs,op,rhs,est
eta2,~,eta1,0.30995440528992035
eta2,~,x2,-0.056261740804988164
eta2,~,x5,-0.39423394733011274
x1,~,eta2,0.2032598079750855
eta1,~,x3,-0.17432926492731832
x2,~,x4,-0.21031399151200914
eta1,=~,y2,0.46161626318994464
eta2,=~,y4,0.055654020954340966
