lhs,op,rhs,est
x5,~,eta1,0.13775075791414246
x5,~,x3,0.08487088172719807
x3,~,x4,0.36854736657002435
eta2,~,x1,0.1015809712918826
eta2,~,x3,-0.38953727241232833
x1,~,x2,-0.3412792368667603
eta1,=~,y2,0.15455985044057874
eta1,=~,y3,-0.16592397117914418
eta2,=~,y5,-0.1438212994814014
eta2,=~,y6,-0.2239284302570868
