lhs,op,rhs,est
x1,~,eta2,-0.1103431542228483
x1,~,x4,-0.2276078956590711
x5,~,x1,-0.2182502899329679
eta1,~,x2,0.22654383278061058
eta1,~,x5,0.20471959738573203
x2,~,x3,0.11012225854901783
eta1,=~,y2,0.47152401697007845
eta1,=~,y3,-0.14258335297275201
eta2,=~,y5,-0.2866212473281495
eta2,=~,y6,0.5315673507926892
