lhs,op,rhs,est
eta1,~,x1,0.7521548224310866
eta2,~,x5,-1.0995915989616294
eta2,~,x1,0.39344179633513965
eta2,~,x3,-1.0431172772032675
x4,~,x5,-0.8691402396390377
x5,~,x2,-0.3939513353367696
eta1,=~,y2,0.12176432987933206
eta1,=~,y3,0.5055103354855238
eta2,=~,y5,-0.49936111869807864
eta1,~~,eta1,0.5759231581735994
eta1,~~,eta2,-0.1337480077187502
eta1,~~,x4,0.10575955362341033
eta2,~~,eta2,2.0187563377394593
eta2,~~,x4,-0.03283132627567779
x4,~~,x4,0.5300008810555827
x5,~~,x5,0.1658453766616158
y1,~~,y1,1.0078184920508273
y2,~~,y2,0.01705223352898825
y3,~~,y3,0.2690256947391957
y4,~~,y4,3.0485531510412542
y5,~~,y5,0.6331128918646772
