lhs,op,rhs,est
eta2,~,eta1,-0.6695764642066191
x3,~,eta2,-0.8034144712044812
x3,~,x2,-0.13958353314488317
x3,~,x5,0.9274812253629485
x4,~,eta2,0.8951615542153057
x4,~,x1,-0.9430644669041112
eta1,=~,y2,0.6082256735356786
eta1,=~,y3,-0.44533143729599817
eta2,=~,y5,-0.20916854994607126
eta2,=~,y6,0.21971715191329924
eta1,~~,eta1,1.4132398903193757
eta2,~~,eta2,0.23786278763091517
x3,~~,x3,1.210577845847096
x3,~~,x4,0.1786088559094628
x4,~~,x4,1.9683522139404281
y1,~~,y1,1.1833854649401454
y2,~~,y2,0.31715596857888273
y3,~~,y3,0.18167222186698367
y4,~~,y4,1.0204106623788827
y5,~~,y5,0.04271082051039067
y6,~~,y6,0.045011187256783575
