lhs,op,rhs,est
eta1,~,x5,0.7053577513417679
eta2,~,x5,-0.6449361658581293
x1,~,x3,-0.7523843302350008
x2,~,x1,-1.0064242664799408
x4,~,eta2,0.5671832449853667
x5,~,x2,0.23230784368071278
eta1,=~,y2,0.7803553684330876
eta2,=~,y4,-0.46723995866623946
eta2,=~,y5,0.3577669392986674
eta1,~~,eta1,0.4029970869726981
eta1,~~,x4,0.011962274943577848
eta2,~~,eta2,0.4143261928212559
x1,~~,x1,0.5384763948768858
x2,~~,x2,1.2610762089527885
x4,~~,x4,0.48193249326846327
x5,~~,x5,0.04445953254353378
y1,~~,y1,1.1645593181345486
y2,~~,y2,0.5807295754670883
y3,~~,y3,0.8697435764824952
y4,~~,y4,0.36605498296118383
y5,~~,y5,0.08410375623166436
