lhs,op,rhs,est
eta1,~,x5,-0.6293647598478951
x1,~,eta2,-0.46609437448962726
x1,~,x3,0.24508442478438572
x1,~,x5,0.3617476710451525
x2,~,x1,-0.12086164607653054
x2,~,x4,-0.3099259542888857
eta1,=~,y2,-0.2260484808018947
eta2,=~,y4,-0.8932150201100126
eta2,=~,y5,-0.28513714818203034
eta1,~~,eta1,0.31548537209104405
eta1,~~,x2,0.13233905780187122
eta2,~~,eta2,1.3354146807742302
x1,~~,x1,0.4290723888942194
x2,~~,x2,0.26699184619290683
y1,~~,y1,1.0648498413453633
y2,~~,y2,0.06638624248488843
y3,~~,y3,1.1628394336891914
y4,~~,y4,0.4573523518952361
y5,~~,y5,0.08596880987669567
