lhs,op,rhs,est
eta1,~,x1,-0.28509130409807093
x2,~,eta2,-0.2047341025128785
x2,~,x1,0.5280483902542048
x3,~,x2,0.3845173674607367
x4,~,x3,-0.6384832648580514
x5,~,eta1,-0.8850106982956583
eta1,=~,y2,1.2324791298246762
eta1,=~,y3,0.544936942498596
eta2,=~,y5,0.6818928266020047
eta1,~~,eta1,0.07461537099058115
eta2,~~,eta2,1.3855228028824214
x2,~~,x2,0.34837189793425616
x3,~~,x3,0.3335909666065191
x4,~~,x4,1.2179033113985438
x4,~~,x5,0.029906409908538205
x5,~~,x5,0.9386738327702231
y1,~~,y1,0.9693446980565228
y2,~~,y2,1.122319484692171
y3,~~,y3,0.3166164844516225
y4,~~,y4,1.4418417862869013
y5,~~,y5,0.22199761595531867
