"lhs","op","rhs","est"
"eta1","=~","y2",0.618028007580169
"eta2","=~","y4",-1.0876795377774
"eta3","=~","y6",0.12397897358005
"eta4","=~","y8",-0.303250028692805
"x5","~","x6",0.670256008884978
"x1","~","eta3",-0.111417987596158
"x1","~","x2",-0.756422447942224
"x1","~","x5",-0.906811627625577
"eta4","~","x1",-0.150243163166993
"eta4","~","x8",0.499528580199708
"eta1","~","eta4",-0.0414241913093489
"eta1","~","x3",0.371125618671154
"x10","~","x1",-0.367519995054694
"x4","~","x6",0.487088719303044
"x4","~","x7",1.07922215256218
"eta3","~","x9",-0.836524412674493
"eta2","~","x7",0.298565626828446
"y1","~~","y1",2.29638031452585
"y2","~~","y2",0.560271084999126
"y3","~~","y3",0.993451389882276
"y4","~~","y4",1.1961236921619
"y5","~~","y5",1.15396008638741
"y6","~~","y6",0.0143410097734913
"y7","~~","y7",1.82716997947702
"y8","~~","y8",0.180477984061561
"x5","~~","x5",0.419413802841294
"x1","~~","x1",1.36315340592911
"x10","~~","x10",0.824322329171577
"x4","~~","x4",1.16872033697776
"eta1","~~","eta1",0.0990679706518567
"eta2","~~","eta2",0.0100058434473445
"eta3","~~","eta3",0.555415143747166
"eta4","~~","eta4",0.411745728527825
"eta1","~~","eta2",-0.0307576963928398
"eta1","~~","x10",0.0223457653307999
"eta1","~~","x4",0.0331534489209086
"eta2","~~","x10",-0.019394577931667
"eta2","~~","x4",0.0160945566369389
"x10","~~","x4",0.00612879024362981
