"lhs","op","rhs","est"
"eta1","=~","y2",-0.141771582429115
"eta1","=~","y3",-0.375113196166254
"eta2","=~","y6",1.09488903335028
"eta2","=~","y7",0.679274811105066
"eta3","=~","y8",-0.50161361104923
"eta3","=~","y9",0.6044125406455
"eta4","=~","y11",-0.341094622217905
"x10","~","eta1",-0.710399467375146
"x7","~","x10",-0.949114718065307
"x7","~","x4",-0.589228574283201
"x1","~","eta3",-0.292736739993577
"x1","~","x7",-0.325917851451931
"x9","~","x1",0.483010433553962
"x9","~","x2",0.013750863362869
"x5","~","x9",-0.328701571719019
"x2","~","eta4",0.336751742458774
"x2","~","x8",-0.921374471175128
"x3","~","x7",0.122450843382406
"x6","~","x3",0.242552696519703
"x4","~","eta2",-0.30535059002488
"y1","~~","y1",0.983283346781205
"y2","~~","y2",0.0234163220262698
"y3","~~","y3",0.183501138556932
"y5","~~","y5",1.19801954718049
"y6","~~","y6",1.29565905629529
"y7","~~","y7",1.26732191176841
"y8","~~","y8",0.3091938386787
"y9","~~","y9",0.451872170842506
"y10","~~","y10",0.892650821612332
"y11","~~","y11",0.111046152759769
"x10","~~","x10",0.60031067446475
"x7","~~","x7",1.208029146457
"x1","~~","x1",0.315082907617537
"x9","~~","x9",0.760994710948
"x5","~~","x5",0.29603692244381
"x2","~~","x2",0.942145852897365
"x3","~~","x3",0.0309874756242871
"x6","~~","x6",0.0501646623759656
"x4","~~","x4",0.072927396854733
"eta1","~~","eta1",1.63851962338206
"eta2","~~","eta2",1.56003443962001
"eta3","~~","eta3",1.71526235925762
"eta4","~~","eta4",1.53282907243609
"eta1","~~","eta2",0.0516309014131841
"eta1","~~","eta3",0.154574175223847
"eta1","~~","eta4",0.0708441027654211
"eta2","~~","eta3",-0.0901463709703932
"eta2","~~","eta4",0.0966540108823057
"eta3","~~","eta4",0.0631392342321341
"x5","~~","x6",0.00611964846902909
