"lhs","op","rhs","est"
"eta1","=~","y3",0.760406864801184
"eta2","=~","y4",-0.428827715090945
"eta3","=~","y6",0.262047172675962
"eta3","=~","y7",0.19094261354148
"eta4","=~","y8",1.035617078953
"eta4","=~","y9",0.609581574164205
"x5","~","x3",1.06943600027539
"x6","~","x5",0.218166515694507
"x6","~","x7",0.855315115632363
"eta4","~","eta1",-0.901072779415046
"eta4","~","x6",0.0930478696613613
"x4","~","eta4",-0.313596667219379
"x8","~","x4",0.700988256161033
"x2","~","x8",0.569063463493395
"eta1","~","eta2",0.790862972186545
"eta1","~","x1",0.108568823789192
"eta3","~","x5",0.852982883562606
"x9","~","eta2",-0.120751030993557
"x10","~","x5",0.139707840174725
"y2","~~","y2",1.8741849276099
"y3","~~","y3",2.20990839482418
"y4","~~","y4",0.205578177326604
"y5","~~","y5",0.994386591094555
"y6","~~","y6",0.0765870710003182
"y7","~~","y7",0.0390973677848834
"y10","~~","y10",2.17847530308204
"y8","~~","y8",1.62152258890085
"y9","~~","y9",0.699881845377372
"x5","~~","x5",1.03120848845674
"x6","~~","x6",0.78083201333631
"x4","~~","x4",0.1834297584956
"x8","~~","x8",0.789856743855448
"x2","~~","x2",0.60580676485602
"x9","~~","x9",0.018189240806995
"x10","~~","x10",0.0190222916172618
"eta1","~~","eta1",0.787501702646296
"eta2","~~","eta2",1.85881198799985
"eta3","~~","eta3",0.721354752301953
"eta4","~~","eta4",1.66417520939787
"eta3","~~","x2",0.015052353845503
"eta3","~~","x9",-0.00408014744297322
"eta3","~~","x10",0.00487655240323501
"x2","~~","x9",0.000527189945237393
"x2","~~","x10",0.00142325032111753
"x9","~~","x10",-0.000585574949400817
