"lhs","op","rhs","est"
"eta1","=~","y2",0.176506268076833
"eta2","=~","y4",0.860260459121369
"eta3","=~","y6",-1.73681029643664e-05
"eta4","=~","y8",0.461896209243138
"eta4","=~","y9",-0.88137701529071
"eta4","~","x10",0.859163450727719
"eta4","~","x2",0.0185540508094949
"eta4","~","x3",-0.157138672193824
"x5","~","eta4",-0.126154627670665
"x5","~","x7",0.41947511046762
"eta1","~","x5",0.116383830800059
"eta3","~","eta1",0.598934315436144
"eta2","~","eta4",-0.371027855783063
"x2","~","x4",0.949738261334369
"x2","~","x8",-1.00532505873301
"x2","~","x9",-0.623607909418696
"x1","~","eta1",-0.492929399867348
"x4","~","x6",0.285728232562219
"y1","~~","y1",0.960336037007599
"y2","~~","y2",0.0739671136484535
"y3","~~","y3",0.935618164260665
"y4","~~","y4",0.92061812803318
"y5","~~","y5",-4561.40908303123
"y6","~~","y6",0.214218042250843
"y7","~~","y7",3.24128611140445
"y8","~~","y8",0.651362586996983
"y9","~~","y9",1.61886841633598
"x5","~~","x5",0.204017892365803
"x2","~~","x2",1.99045927320368
"x1","~~","x1",0.885836794760996
"x4","~~","x4",0.0818351956583825
"eta1","~~","eta1",0.159933379849265
"eta2","~~","eta2",0.263889668053131
"eta3","~~","eta3",4562.49669739038
"eta4","~~","eta4",0.703419036964555
"eta2","~~","eta3",0.0505574049601471
"eta2","~~","x1",-0.0557129680681775
"eta3","~~","x1",0.00406992279713768
