"lhs","op","rhs","est"
"eta1","=~","y3",-0.231413497795102
"eta1","=~","y8",-0.378130611479058
"eta2","=~","y5",0.426512761041258
"eta2","=~","y6",0.95696378008038
"eta3","=~","y8",1.21349018192932
"eta3","=~","y9",-0.617594663308005
"eta4","=~","y11",-0.906063546925102
"eta4","=~","y12",-0.926798663196308
"x2","~","eta4",0.200068103382198
"x2","~","x3",-0.0958064221165557
"x7","~","x2",-0.164099806028498
"x7","~","x6",-0.396204454801535
"eta3","~","x7",0.165213236081338
"x9","~","x10",-0.92053109712266
"x9","~","x6",0.249138085433591
"x1","~","eta1",-0.904845585625275
"x1","~","eta2",0.841675346241778
"x1","~","x7",0.681373412032101
"x8","~","x2",-0.052113487014058
"x10","~","x5",0.741677347290693
"x4","~","x2",0.707262709986571
"y2","~~","y2",1.27511187679733
"y3","~~","y3",0.0393464416866456
"y8","~~","y8",1.16550191600146
"y4","~~","y4",0.986480792916559
"y5","~~","y5",0.187722424513647
"y6","~~","y6",1.07931481865794
"y7","~~","y7",2.02363497094075
"y9","~~","y9",0.25709835643586
"y10","~~","y10",1.05468648757124
"y11","~~","y11",0.933524068468215
"y12","~~","y12",0.957602304183313
"x2","~~","x2",0.0459527121751474
"x7","~~","x7",1.07621005981425
"x9","~~","x9",0.980014907399022
"x1","~~","x1",2.02806215057272
"x8","~~","x8",0.0995292740602712
"x10","~~","x10",0.508945711890429
"x4","~~","x4",1.42697961182213
"eta1","~~","eta1",1.32982470177036
"eta2","~~","eta2",1.67450754799551
"eta3","~~","eta3",0.0667058204572772
"eta4","~~","eta4",1.59180748643102
"eta1","~~","eta2",0.103624430781004
"eta1","~~","eta4",-0.260630767116477
"eta2","~~","eta4",-0.0315989528431347
"eta3","~~","x9",0.0202115783276314
"eta3","~~","x1",-0.0209811193754534
"eta3","~~","x8",0.00899119929988838
"eta3","~~","x4",-0.0389881117938801
"x9","~~","x1",0.0599597763950939
"x9","~~","x8",0.0085176220729617
"x9","~~","x4",0.0267344514267356
"x1","~~","x8",0.00849824551794658
"x1","~~","x4",0.0158941167354096
"x8","~~","x4",0.0281891188476491
