"lhs","op","rhs","est"
"eta1","=~","y2",-0.113916398664849
"eta2","=~","y4",0.789332906589146
"eta3","=~","y6",0.447481786791871
"eta4","=~","y8",-0.437176001971573
"eta2","~","x1",-0.917142242294224
"x2","~","eta2",-0.235862688152848
"x2","~","x4",-0.472394636795108
"x2","~","x7",-0.990547154859631
"x8","~","x2",0.0261410206133787
"eta4","~","x8",0.447185084414365
"eta3","~","x6",-0.677444142033267
"x4","~","eta3",-0.713587404125579
"eta1","~","x4",-0.757166805282768
"x5","~","eta1",-0.378803580392407
"x5","~","x10",0.214599764579405
"x3","~","x5",0.203530757588845
"x9","~","eta1",-0.663623627661867
"y1","~~","y1",0.942056264886194
"y2","~~","y2",0.0170151774368324
"y3","~~","y3",0.907195462091445
"y4","~~","y4",0.692367174214965
"y5","~~","y5",1.03708426317314
"y6","~~","y6",0.212842259160307
"y7","~~","y7",0.948399700279589
"y8","~~","y8",0.195832950663173
"x2","~~","x2",1.26079970100714
"x8","~~","x8",0.37805655803678
"x4","~~","x4",0.492882373567495
"x5","~~","x5",0.178700090366529
"x3","~~","x3",0.0869189948381128
"x9","~~","x9",0.581667413323099
"eta1","~~","eta1",0.508217019294083
"eta2","~~","eta2",0.815476412420336
"eta3","~~","eta3",0.470380170386225
"eta4","~~","eta4",0.194431690889354
"eta4","~~","x3",0.0129219630782201
"eta4","~~","x9",-0.0352772004023353
"x3","~~","x9",0.011624280761401
