"lhs","op","rhs","est"
"eta1","=~","y2",-0.831328697980177
"eta2","=~","y4",0.530331865733344
"x7","~","x2",-0.313123717391692
"x7","~","x5",1.10470483324922
"x1","~","x7",-0.411362198583448
"x2","~","x1",0.65963773219873
"x2","~","x8",0.254269061112941
"x9","~","x5",-0.13560448494348
"eta2","~","x9",0.0657046720480097
"x6","~","x4",-0.478737586851054
"x6","~","x9",0.180883544216397
"x10","~","x4",-0.471555750681888
"eta1","~","x10",-0.576323243900276
"x3","~","x7",-0.185524900909607
"y1","~~","y1",0.927950732940235
"y2","~~","y2",0.856715587642851
"y3","~~","y3",1.0315931375702
"y4","~~","y4",0.257867595000289
"x7","~~","x7",1.22714691046586
"x1","~~","x1",0.274593977502426
"x2","~~","x2",0.609943014080825
"x9","~~","x9",0.0190087008325995
"x6","~~","x6",0.288397087141998
"x10","~~","x10",0.20621528492648
"x3","~~","x3",0.0607349016580375
"eta1","~~","eta1",0.42097494962178
"eta2","~~","eta2",0.0870262505191893
"eta1","~~","eta2",0.0623471084457098
"eta1","~~","x6",0.00244717760210665
"eta1","~~","x3",-0.0189213096561716
"eta2","~~","x6",0.000862876684666306
"eta2","~~","x3",-0.0180670869626032
"x6","~~","x3",0.00416504270830113
