"lhs","op","rhs","est"
"eta1","=~","y2",-1.05755520920712
"eta1","=~","y3",0.62526145097587
"eta2","=~","y5",0.765636000202768
"x1","~","x2",-0.27979749125733
"x1","~","x5",-0.835843777847902
"x4","~","x1",0.33424048966158
"x4","~","x8",-0.758429325690617
"x7","~","x2",-0.125514733162337
"x3","~","x5",-0.130229783139832
"eta1","~","x10",-0.257925956456237
"eta1","~","x5",-0.637737924000567
"x6","~","eta1",0.822452003846516
"x9","~","x5",0.126130005940658
"eta2","~","x1",0.531520639775932
"y1","~~","y1",2.34761458265472
"y2","~~","y2",2.20140706432006
"y3","~~","y3",0.804163486420067
"y4","~~","y4",1.89854975611526
"y5","~~","y5",1.41660870806496
"x1","~~","x1",0.632543436779608
"x4","~~","x4",0.69382009640959
"x7","~~","x7",0.0149426250380873
"x3","~~","x3",0.0173266484579615
"x6","~~","x6",1.1423370915833
"x9","~~","x9",0.0167931724338615
"eta1","~~","eta1",0.317016166620612
"eta2","~~","eta2",0.586854013183631
"eta2","~~","x4",0.0803558584025476
"eta2","~~","x7",0.00259221139733651
"eta2","~~","x3",-0.000588186907268583
"eta2","~~","x6",0.0388973627828414
"eta2","~~","x9",0.00518869620375507
"x4","~~","x7",0.00118466468845085
"x4","~~","x3",-0.00167847965109489
"x4","~~","x6",0.00840552855814644
"x4","~~","x9",0.00121320462634056
"x7","~~","x3",0.00108770522097526
"x7","~~","x6",0.00247573371203543
"x7","~~","x9",0.000396936930098405
"x3","~~","x6",-0.00737723661529354
"x3","~~","x9",0.000205999851119635
"x6","~~","x9",-0.0114249542089871
