"lhs","op","rhs","est"
"eta1","=~","y2",1.04507717428444
"eta2","=~","y4",-0.348617778849534
"x4","~","eta1",0.424702064113545
"x4","~","x10",0.278254751123531
"x3","~","x2",0.475182250089172
"x3","~","x4",0.140569936279503
"x3","~","x5",-0.139168270094861
"eta1","~","x6",1.07615062666728
"x1","~","eta2",-0.524700640809523
"x1","~","x5",0.435759408983416
"x1","~","x9",-0.911000836379923
"x8","~","x1",-0.181956224673828
"x9","~","x8",-0.29975768895169
"x7","~","x5",-0.863739786603743
"y1","~~","y1",1.00552122640742
"y2","~~","y2",0.978568673923402
"y3","~~","y3",1.41759404285908
"y4","~~","y4",0.0713192778933359
"x4","~~","x4",0.214270976792468
"x3","~~","x3",0.910086035545457
"x1","~~","x1",0.730995480480569
"x8","~~","x8",0.308595199971339
"x9","~~","x9",0.0803481492029058
"x7","~~","x7",0.724288777421151
"eta1","~~","eta1",1.17846867790956
"eta2","~~","eta2",1.50008070107378
"x3","~~","x7",-0.0284507182526333
