"lhs","op","rhs","est"
"eta1","=~","y2",0.278206757791526
"eta1","=~","y3",0.273895819793934
"eta2","=~","y5",0.484418912445157
"x1","~","x10",-0.702930650131017
"x1","~","x6",0.783086838904969
"x2","~","x1",0.450992974057082
"x10","~","x2",0.343497237826536
"x4","~","x1",-0.571784533952236
"x4","~","x8",-1.02540399362734
"x4","~","x9",0.904121247279546
"x7","~","x5",0.881826549982172
"x9","~","x7",1.02710416504528
"x3","~","x5",-0.436528668282466
"eta1","~","eta2",0.579998891714157
"eta1","~","x7",-0.566544134998039
"y1","~~","y1",2.1473415863454
"y2","~~","y2",0.155992360144688
"y3","~~","y3",0.155106668802864
"y4","~~","y4",1.274633294562
"y5","~~","y5",0.114943703035004
"x1","~~","x1",0.752280194999492
"x2","~~","x2",0.268097837509846
"x10","~~","x10",0.0928316022579525
"x4","~~","x4",2.25392190909524
"x7","~~","x7",0.855107834495198
"x9","~~","x9",1.04669977104734
"x3","~~","x3",0.209820474111185
"eta1","~~","eta1",0.421220858639728
"eta2","~~","eta2",1.42481676320242
"eta1","~~","x4",0.0665792567048566
"eta1","~~","x3",0.00864458910697055
"x4","~~","x3",-0.0207997384544673
