"lhs","op","rhs","est"
"eta1","=~","y2",-0.694262223995002
"eta2","=~","y4",-0.986186498066083
"x10","~","x5",-0.465046614180576
"x10","~","x6",-0.524635518669893
"x1","~","x10",-0.111466996581093
"x1","~","x3",-0.332831466916318
"x1","~","x8",0.749643013275618
"eta2","~","x1",0.0296635183621041
"eta2","~","x4",-0.839258029072386
"x6","~","x1",0.705099346343861
"x6","~","x7",0.457221146618705
"x3","~","x9",-0.99920171287851
"x2","~","x10",0.0213337703399989
"eta1","~","x2",-0.577350671887027
"y1","~~","y1",1.01757889570974
"y2","~~","y2",0.115597056988229
"y3","~~","y3",2.28192086975118
"y4","~~","y4",2.07116255689671
"x10","~~","x10",1.35097019079599
"x1","~~","x1",0.877195559533531
"x6","~~","x6",2.46031903781759
"x3","~~","x3",1.08631811778416
"x2","~~","x2",0.0145561795801967
"eta1","~~","eta1",0.13541280385832
"eta2","~~","eta2",0.773197125911413
"eta1","~~","eta2",0.00983348552329644
