"lhs","op","rhs","est"
"eta1","=~","y2",-0.522675944223522
"eta2","=~","y4",-1.09129855312119
"eta2","=~","y5",-0.162994696545364
"x7","~","eta1",0.514921063932523
"x7","~","x1",-0.0287819906330703
"x7","~","x2",1.15891454403644
"x7","~","x8",-0.14800433807718
"x4","~","x7",-0.00876613191959036
"x4","~","x9",0.491835824224969
"x2","~","x4",-0.782424685299091
"eta2","~","x6",-0.200021253119309
"eta2","~","x7",0.0219201895037428
"x10","~","x8",0.281622946841954
"x5","~","eta1",-0.58060830153089
"x3","~","eta1",-0.915491032193222
"y1","~~","y1",1.02555273696729
"y2","~~","y2",0.264393441852976
"y3","~~","y3",1.91414597415737
"y4","~~","y4",2.07841800904067
"y5","~~","y5",0.0875334700614702
"x7","~~","x7",2.71408227766455
"x4","~~","x4",0.380824848972547
"x2","~~","x2",1.48225392477275
"x10","~~","x10",0.0762556586766314
"x5","~~","x5",0.452098000459052
"x3","~~","x3",0.967788390393396
"eta1","~~","eta1",1.83059622407594
"eta2","~~","eta2",0.145660383427049
"eta2","~~","x10",0.019411504571177
"eta2","~~","x5",-0.0288224590794273
"eta2","~~","x3",0.0194035022559657
"x10","~~","x5",-0.00477853012006645
"x10","~~","x3",0.00411865687925838
"x5","~~","x3",0.0274822028483913
