"lhs","op","rhs","est"
"eta1","=~","y2",0.44671876879822
"eta1","=~","y3",-0.202435583970723
"eta2","=~","y5",-0.751261934356021
"eta2","=~","y6",0.537084791667161
"x9","~","x4",0.497180669484927
"x10","~","x9",0.577308398002076
"x2","~","x10",0.893581416312485
"x2","~","x5",-0.650693883964484
"x6","~","eta1",1.19820126924645
"x6","~","x2",-0.345744928443199
"x6","~","x7",-0.275039933045029
"x5","~","x6",-0.835737898461298
"x1","~","x10",1.13952646616442
"eta2","~","x9",0.587881943187081
"x8","~","eta2",0.7016678771476
"x3","~","eta1",0.191293632327958
"y1","~~","y1",1.07188819829104
"y2","~~","y2",0.212852296582833
"y3","~~","y3",0.0423923620928166
"y4","~~","y4",1.10477591306614
"y5","~~","y5",0.516327156800766
"y6","~~","y6",0.280812276300665
"x9","~~","x9",0.245123472793894
"x10","~~","x10",0.313474016316539
"x2","~~","x2",1.85310092969806
"x6","~~","x6",2.85790726717093
"x5","~~","x5",1.57633769058197
"x1","~~","x1",1.2434000095033
"x8","~~","x8",0.370352097512476
"x3","~~","x3",0.048985358135626
"eta1","~~","eta1",1.69468508490098
"eta2","~~","eta2",0.435359020261552
"x1","~~","x8",0.0668400798158034
"x1","~~","x3",0.00782693817287734
"x8","~~","x3",-0.00151685235495137
