"lhs","op","rhs","est"
"eta1","=~","y2",0.646809378311371
"eta2","=~","y4",0.237036051056417
"x8","~","x3",0.262286149216668
"x8","~","x4",-0.256004351767019
"x8","~","x9",0.410037820926912
"x10","~","x5",0.323481562019693
"x10","~","x8",0.474033171110622
"x4","~","eta2",0.432604499686891
"x4","~","x10",-0.500961075891333
"x7","~","x4",-0.851261902598996
"x6","~","x8",0.179763612648719
"x1","~","x6",-0.576803684939943
"x5","~","x2",0.863694932903325
"eta1","~","x9",0.81660534627316
"y1","~~","y1",1.12619622509058
"y2","~~","y2",0.419878397274972
"y3","~~","y3",0.919704908331104
"y4","~~","y4",0.0447706931623703
"x8","~~","x8",0.38495551916596
"x10","~~","x10",0.739219708465754
"x4","~~","x4",0.871550587854753
"x7","~~","x7",1.27421565393293
"x6","~~","x6",0.155440500615965
"x1","~~","x1",0.292535818603987
"x5","~~","x5",0.69729151353147
"eta1","~~","eta1",0.610628246443508
"eta2","~~","eta2",1.55021276903748
"eta1","~~","x7",-0.0996266093445353
"eta1","~~","x1",-0.0429429724174568
"x7","~~","x1",0.0281784053416672
