"lhs","op","rhs","est"
"eta1","=~","y2",-0.301647706389831
"eta2","=~","y4",-0.679733552289559
"x6","~","x2",0.56885539320534
"eta1","~","x6",0.279490334912695
"x3","~","eta1",-0.591713114417673
"x3","~","x1",0.547894507785264
"x3","~","x10",0.902717467797286
"x3","~","x5",0.725087585090314
"x3","~","x9",-0.158300409538386
"x8","~","x3",-0.16131806475657
"x5","~","x8",-0.187575533346304
"x4","~","x3",0.402199990598391
"x10","~","eta2",0.11640795378827
"x7","~","x8",0.692768982045684
"y1","~~","y1",1.07596224609607
"y2","~~","y2",0.0568224732537585
"y3","~~","y3",1.05344004509359
"y4","~~","y4",0.488465310548369
"x6","~~","x6",0.322917731820787
"x3","~~","x3",0.752630481873826
"x8","~~","x8",1.20793942659424
"x5","~~","x5",0.0347149307864262
"x4","~~","x4",0.725054387922606
"x10","~~","x10",0.0163937924184772
"x7","~~","x7",0.518099892536273
"eta1","~~","eta1",0.0558162364699243
"eta2","~~","eta2",1.59758006086285
"x4","~~","x7",0.00877947326128754
