"lhs","op","rhs","est"
"eta1","=~","y2",-0.841208130777983
"eta2","=~","y4",-0.75839585969644
"x2","~","x3",0.920625161661169
"x2","~","x4",0.25300390180803
"x2","~","x7",0.209668789509569
"x1","~","x10",-0.246753004933359
"x1","~","x2",-0.0114841081865927
"eta1","~","eta2",1.04841382771411
"eta1","~","x2",0.102590673857376
"eta2","~","x9",-0.693440104712974
"x8","~","x2",0.0475591552971379
"x5","~","x2",0.849042045642111
"x6","~","eta2",-0.366856739185065
"y1","~~","y1",1.671504695553
"y2","~~","y2",1.80390861013506
"y3","~~","y3",1.01322421377333
"y4","~~","y4",0.570692483611098
"x2","~~","x2",0.981791621099868
"x1","~~","x1",0.144199230098519
"x8","~~","x8",0.59805998987418
"x5","~~","x5",2.35621993379598
"x6","~~","x6",0.126531877328909
"eta1","~~","eta1",1.08286094355323
"eta2","~~","eta2",0.439540965156779
"eta1","~~","x1",0.0309803703353269
"eta1","~~","x8",-0.0738267023836286
"eta1","~~","x5",-0.0500055186501069
"eta1","~~","x6",0.0243105889540906
"x1","~~","x8",-0.000703352785924176
"x1","~~","x5",-0.00375981958838439
"x1","~~","x6",-0.00955139541001904
"x8","~~","x5",0.00674421415241458
"x8","~~","x6",-0.0167378864277439
"x5","~~","x6",-0.0294012535015681
