"lhs","op","rhs","est"
"eta1","=~","y2",-1.00525485827468
"eta2","=~","y4",0.733105439328247
"x9","~","eta2",0.597057627540847
"x9","~","x5",0.251454293236332
"x2","~","x7",-0.234857900200326
"x2","~","x9",-0.520896142524795
"x5","~","x10",-0.05618652465602
"x5","~","x2",-0.61126169441631
"x5","~","x6",-0.888774185139212
"x1","~","x6",0.409609280360213
"x4","~","x6",0.2982752617014
"x8","~","x3",0.669911153166313
"x8","~","x4",-0.85407755340362
"eta1","~","x6",-0.785404976738816
"y1","~~","y1",0.944829680488301
"y2","~~","y2",1.06211148176909
"y3","~~","y3",0.863779224210009
"y4","~~","y4",0.602070358071256
"x9","~~","x9",0.448054247450291
"x2","~~","x2",0.479716744465215
"x5","~~","x5",1.71387798485359
"x1","~~","x1",0.145236496608458
"x4","~~","x4",0.0880571909231682
"x8","~~","x8",1.29676499995387
"eta1","~~","eta1",0.473696877013862
"eta2","~~","eta2",1.79618364064618
"eta1","~~","x1",-0.00832653436248382
"eta1","~~","x8",0.0161050992896719
"x1","~~","x8",-0.0210371373360877
