"lhs","op","rhs","est"
"eta1","=~","y2",-0.560588587847411
"eta1","=~","y3",-0.475610566149578
"eta2","=~","y5",0.511700336284775
"eta2","=~","y6",-0.0756220754989535
"eta1","~","x5",-0.507637160831283
"x3","~","eta1",-0.980568248728156
"eta2","~","x3",0.291703043489004
"x7","~","eta1",0.558689314188709
"x7","~","x10",0.561374317879019
"x7","~","x4",-0.958421487544843
"x6","~","x7",0.574493922028286
"x1","~","x6",-0.124549758524709
"x1","~","x8",-0.388482713090209
"x4","~","x1",-0.557079018407219
"x9","~","x5",-0.212738988086955
"x2","~","x5",0.364912670657429
"y1","~~","y1",0.956082514973672
"y2","~~","y2",0.377759806083483
"y3","~~","y3",0.263712783811887
"y4","~~","y4",0.959611909537048
"y5","~~","y5",0.201856128658533
"y6","~~","y6",0.0111380785643312
"x3","~~","x3",0.891445777952045
"x7","~~","x7",1.42587158531989
"x6","~~","x6",1.80460110233587
"x1","~~","x1",0.180122994988065
"x4","~~","x4",0.42145933141779
"x9","~~","x9",0.0507254262580526
"x2","~~","x2",0.128442907580577
"eta1","~~","eta1",0.168289246372164
"eta2","~~","eta2",0.0886825144571258
"eta2","~~","x9",-0.000983421490706934
"eta2","~~","x2",0.00731394175302332
"x9","~~","x2",-0.00053321391381478
