"lhs","op","rhs","est"
"eta1","=~","y2",-0.632737606876048
"eta2","=~","y4",0.342521690152598
"eta2","=~","y5",0.204506261984854
"eta1","~","x1",0.544719405781815
"eta2","~","eta1",0.390284093798254
"x7","~","eta1",0.0977582127431357
"x7","~","x10",0.943681479475692
"x7","~","x5",-0.341754310167429
"x7","~","x6",-0.817776629844078
"x6","~","x3",-0.484204995077877
"x8","~","eta1",0.900682744251438
"x4","~","eta1",-0.259506171719566
"x5","~","x9",0.564231591843548
"x2","~","eta1",-0.852634362432819
"y1","~~","y1",0.878658051196378
"y2","~~","y2",0.415438026011253
"y3","~~","y3",0.939034855951032
"y4","~~","y4",0.199776779599908
"y5","~~","y5",0.0336990303114989
"x7","~~","x7",1.7475375697854
"x6","~~","x6",0.242047277191422
"x8","~~","x8",0.844312187409329
"x4","~~","x4",0.0783777858328166
"x5","~~","x5",0.341867267349315
"x2","~~","x2",0.871643153339888
"eta1","~~","eta1",0.260361339970044
"eta2","~~","eta2",0.113072493010151
"eta2","~~","x7",0.0058376169636187
"eta2","~~","x8",0.0358215784943099
"eta2","~~","x4",1.32295041065389e-05
"eta2","~~","x2",0.0140894571276182
"x7","~~","x8",-0.0791960015522994
"x7","~~","x4",-0.0126377240498293
"x7","~~","x2",-0.0620181960790607
"x8","~~","x4",0.00330067646425338
"x8","~~","x2",-0.0216734377189988
"x4","~~","x2",-0.0120576169125564
