"lhs","op","rhs","est"
"x3","~","x1",-0.133589576056036
"x3","~","x5",1.00595610022351
"x2","~","x3",0.622626327652504
"x1","~","x2",-0.299675583227167
"x10","~","x1",-0.951107679560305
"x7","~","x5",-0.253702074059707
"x6","~","x3",-1.03628519228867
"x8","~","x1",-0.152567196211305
"x8","~","x4",0.365522072076752
"x9","~","x5",0.330578024949312
"x3","~~","x3",1.1065060498482
"x2","~~","x2",0.405578157722997
"x1","~~","x1",0.0916228379333156
"x10","~~","x10",1.00242838601031
"x7","~~","x7",0.0605201549234732
"x6","~~","x6",1.14024976313617
"x8","~~","x8",0.165287700910831
"x9","~~","x9",0.118894181006317
"x10","~~","x7",0.0105293507348999
"x10","~~","x6",-0.0086552427312183
"x10","~~","x8",0.00955599078073071
"x10","~~","x9",-0.0122871090275529
"x7","~~","x6",0.0059849873341044
"x7","~~","x8",-0.0199473854411118
"x7","~~","x9",-0.000444240525531375
"x6","~~","x8",0.102045958858193
"x6","~~","x9",0.0156329079049864
"x8","~~","x9",0.00609445404020349
"x5","~~","x5",1.64713430209287
"x5","~~","x4",-0.0914762274350425
"x4","~~","x4",1.62531473798273
