"lhs","op","rhs","est"
"x7","~","x2",1.03959722646973
"x7","~","x6",1.09867061395268
"x4","~","x5",0.851764999808715
"x4","~","x7",0.114760214097686
"x4","~","x8",0.433374218567828
"x6","~","x4",0.170248097074822
"x3","~","x6",-0.672009123419939
"x9","~","x8",-0.863287029258974
"x5","~","x10",-0.619950637002563
"x1","~","x5",-0.659482222334246
"x7","~~","x7",1.34060114543126
"x4","~~","x4",0.734195576369262
"x6","~~","x6",1.7274465888058
"x3","~~","x3",0.792233974706597
"x9","~~","x9",0.703688501406175
"x5","~~","x5",0.279493034455635
"x1","~~","x1",0.46257974349995
"x3","~~","x9",0.176069351397704
"x3","~~","x1",-0.0565233863972723
"x9","~~","x1",-0.0219320704247977
"x2","~~","x2",1.65677550139825
"x2","~~","x8",0.123687643288069
"x2","~~","x10",0.0735450907823462
"x8","~~","x8",1.64292061801817
"x8","~~","x10",-0.0813575509401677
"x10","~~","x10",1.67990370120881
