"lhs","op","rhs","est"
"x2","~","x6",-0.55262829239481
"x2","~","x9",1.08595145555958
"x8","~","x2",0.259090567376238
"x5","~","x10",-1.00300455876558
"x5","~","x2",0.234620172510065
"x6","~","x4",-0.62303687952054
"x6","~","x5",0.015938076136906
"x3","~","x6",0.00774869897465285
"x7","~","x5",0.492349197212198
"x1","~","x10",-0.53488391278947
"x2","~~","x2",1.47791279116247
"x8","~~","x8",0.166307354310888
"x5","~~","x5",1.10846587483335
"x6","~~","x6",0.537137951457411
"x3","~~","x3",0.0283173654581554
"x7","~~","x7",0.533500803418668
"x1","~~","x1",0.320125447501331
"x8","~~","x3",-0.0112751167865822
"x8","~~","x7",0.0122057356034492
"x8","~~","x1",0.0237454924356637
"x3","~~","x7",-0.00743448843737715
"x3","~~","x1",0.000153702391135013
"x7","~~","x1",0.0641084727993181
"x9","~~","x9",1.58763684164851
"x9","~~","x10",-0.00049021610052707
"x9","~~","x4",-0.00426535463878373
"x10","~~","x10",1.66512645211953
"x10","~~","x4",0.112017611763703
"x4","~~","x4",1.68983593882563
