"lhs","op","rhs","est"
"x2","~","x5",-0.897054634776281
"x7","~","x2",1.04754525465655
"x10","~","x7",-0.342946801187985
"x10","~","x9",-0.336026707551309
"x6","~","x10",0.358445836131863
"x9","~","x6",-0.975317605515287
"x4","~","x2",-0.720800572492373
"x3","~","x4",-1.02667919368811
"x1","~","x2",-0.265914633201631
"x8","~","x1",0.289069336685749
"x2","~~","x2",0.732647339668806
"x7","~~","x7",1.26609500077532
"x10","~~","x10",0.432394994328812
"x6","~~","x6",0.134564102820624
"x9","~~","x9",0.56175578177792
"x4","~~","x4",0.427228317703943
"x3","~~","x3",0.958723142987807
"x1","~~","x1",0.0644453308841165
"x8","~~","x8",0.0631644574686225
"x3","~~","x8",-0.00414229326589542
"x5","~~","x5",1.56386946543423
