"lhs","op","rhs","est"
"x1","~","x7",0.159560774305845
"x5","~","x1",0.307889417402169
"x2","~","x7",0.996452782410019
"x3","~","x1",-1.03765216545666
"x6","~","x7",-0.197754841463554
"x10","~","x4",0.380532431588347
"x10","~","x6",-1.1692749795549
"x9","~","x6",-0.864674145231998
"x8","~","x4",0.187210869895502
"x1","~~","x1",0.0288388039866755
"x5","~~","x5",0.260945335486705
"x2","~~","x2",0.956016781755919
"x3","~~","x3",0.565717741390151
"x6","~~","x6",0.0475631472659031
"x10","~~","x10",0.996102074309365
"x9","~~","x9",0.57563109684398
"x8","~~","x8",0.0354405873596318
"x5","~~","x2",0.000749490968183618
"x5","~~","x3",0.00500666240328483
"x5","~~","x10",0.000912738361148801
"x5","~~","x9",0.0250020224457827
"x5","~~","x8",-0.00783705817507511
"x2","~~","x3",0.0278631111556148
"x2","~~","x10",-0.116139910904973
"x2","~~","x9",-0.0210806877153704
"x2","~~","x8",0.00489381049986863
"x3","~~","x10",-0.00550575236026599
"x3","~~","x9",-0.00334482299055729
"x3","~~","x8",-0.00122635220793209
"x10","~~","x9",-0.0213593727221149
"x10","~~","x8",-0.0140105362187295
"x9","~~","x8",0.0124670423430073
"x7","~~","x7",1.6227026557946
"x7","~~","x4",0.0220142654923559
"x4","~~","x4",1.68281991082268
