"lhs","op","rhs","est"
"x3","~","x2",-0.769463593266645
"x3","~","x7",0.786064030995955
"x4","~","x3",0.301283653213976
"x10","~","x4",0.484388178622365
"x10","~","x9",-0.125288262361509
"x1","~","x10",0.195219973924107
"x2","~","x1",0.567058556514512
"x2","~","x5",-0.423014054298912
"x6","~","x5",0.111740968022998
"x8","~","x6",0.126522233930953
"x3","~~","x3",1.39700108585824
"x4","~~","x4",0.333957702725221
"x10","~~","x10",0.151415034683134
"x1","~~","x1",0.0280203582826253
"x2","~~","x2",0.318904063916519
"x6","~~","x6",0.0108282912871247
"x8","~~","x8",0.0454020823006921
"x7","~~","x7",1.63833605280929
"x7","~~","x9",0.0417433597726875
"x7","~~","x5",0.0356124651266069
"x9","~~","x9",1.58430110762445
"x9","~~","x5",-0.0332860424160513
"x5","~~","x5",1.67868789118166
