"lhs","op","rhs","est"
"x10","~","x6",-0.148892935990147
"x10","~","x9",0.764961816515536
"x2","~","x10",-0.648559838491755
"x2","~","x7",1.08526851020155
"x6","~","x2",-0.234215859355795
"x6","~","x8",0.691874626980942
"x1","~","x4",0.905128736935632
"x1","~","x6",-0.165929427899152
"x3","~","x1",1.10690397104012
"x5","~","x2",0.813081424150084
"x10","~~","x10",0.780821230712134
"x2","~~","x2",1.88307030604244
"x6","~~","x6",0.946242882646001
"x1","~~","x1",0.750293809812893
"x3","~~","x3",2.21696077663911
"x5","~~","x5",1.50798972067207
"x3","~~","x5",0.131001577362373
"x9","~~","x9",1.74851639890432
"x9","~~","x7",-0.0952040255542123
"x9","~~","x8",0.188931055964326
"x9","~~","x4",-0.196595029972823
"x7","~~","x7",1.61862726011959
"x7","~~","x8",0.00917515601069122
"x7","~~","x4",-0.0951667859967559
"x8","~~","x8",1.62453622489235
"x8","~~","x4",0.181994333822534
"x4","~~","x4",1.67480513458653
