"lhs","op","rhs","est"
"x3","~","x4",-0.933670714863569
"x3","~","x7",-0.603898569873052
"x3","~","x9",0.788492595695151
"x8","~","x3",-0.0816289065244097
"x9","~","x5",-0.458503082581889
"x9","~","x6",0.611674545053115
"x9","~","x8",0.631557915645828
"x6","~","x2",-1.01069707905652
"x10","~","x6",0.836354723902048
"x1","~","x7",-0.158590243799168
"x3","~~","x3",2.73850539735101
"x8","~~","x8",0.173312958312851
"x9","~~","x9",0.759890219252025
"x6","~~","x6",1.15461445453989
"x10","~~","x10",0.656366307749975
"x1","~~","x1",0.0303628093274133
"x10","~~","x1",-0.0104434601276057
"x4","~~","x4",1.72532685069087
"x4","~~","x7",-0.0201637977178786
"x4","~~","x5",0.0468469226263365
"x4","~~","x2",0.0221450112322248
"x7","~~","x7",1.57703027024601
"x7","~~","x5",0.0954004343254681
"x7","~~","x2",0.0926673518092513
"x5","~~","x5",1.63416453296329
"x5","~~","x2",-0.162608640997249
"x2","~~","x2",1.62515950193611
