x1,x2,x3,x4,x5,y1,y2,y3,y4,y5
2.928848346286896,3.664937321534668,2.292062195161118,2.447842406342991,0.8812492648358925,-6.908972011323548,-3.035803632815863,2.918246630546601,0.01167431131447005,-0.6926522676354464
1.3856304151942191,2.0400672480410678,0.3348988159638706,2.1798600831245625,0.7084131878700299,-4.592976053671379,-4.2548482363199085,4.683696860300085,4.973529989429171,-2.067103878258815
6.242998992770854,3.154448050566861,3.778593267636275,3.2357715773354894,1.5178923897798406,-5.897355683390712,-3.952692443197563,2.5697997682850535,5.702722023764264,-1.4395946000530682
2.4363205655636695,1.9849692417531235,0.4766237814412137,1.8763589131844025,2.419814683789778,1.527456665898748,-0.7677238708943497,3.1083611315288957,-0.22562223976854645,-0.21170128027386947
4.846470097530816,3.1905360055978353,2.199410179165579,2.4937645130390456,1.9725800095938872,-5.202064752170335,-2.857603888247791,1.601130211340712,2.180407440617782,-0.23088399371225632
5.939930246976897,2.252370561942295,3.743816322415052,2.2514784682168076,3.2644083987393833,-3.6623448936810323,-2.2513049028216656,1.5256902200569114,2.2854899540782894,-2.7048048486542626
-1.0947314481844503,-0.20417583027912894,-0.914015395569822,-0.5277207777115072,0.9917113067123633,-0.46366925027492234,-0.11182170271842157,-0.3997845027869702,-1.2628406671125543,0.6882191660415559
3.291403260648366,1.0133510724763235,2.6918587517683634,3.09683096249692,1.766725528359578,-6.757182596940736,-1.248427052008689,-0.1362708137911503,-3.510075957617153,0.11675225306538767
2.6683865154039643,0.7488614003223373,1.7881083059606382,0.8580567186437347,1.1498647429083042,-4.5845892652733635,-1.3743899149590058,-0.8539199519959424,0.8471224123900407,-0.09660777970855389
3.7554578481483563,3.0266511818194473,1.7920827217248312,2.856868114384462,-0.9004314579489593,-6.864567394527348,-2.725030501188436,1.7009204270837799,-2.7280295744001504,-1.12585541262008
3.391933201376913,1.5340321887405999,1.5430735257719608,2.789461335942103,-0.9715401855002685,1.3049559635581698,-1.3340147963680307,0.23030720866717447,-0.26553585536276375,-0.868691426143998
4.953363414800339,1.0984025250973877,3.0200496625034723,2.587002152225506,-0.10508689541141214,-5.099330499755396,-3.7293998615314394,-0.28404657157759133,-3.039198994119441,0.8987073154275341
-0.5909478831725886,1.48567039461951,-0.31849499659529584,0.9809398757776842,-0.7291867549116904,-2.784640837175746,-1.0952514831095148,1.6377282234981636,3.0151028232756394,-0.9604230913255832
1.6989475914998335,-1.5002485608926066,0.8437021528039368,0.7032632477096368,-0.23448884819443738,-3.7692037565172845,-3.7208420124939137,4.137656167172693,6.600494517102391,-4.20092476682465
2.3839548972171056,2.44527803705626,1.0393366008474534,2.285661428542635,1.9672345537917737,-7.073939911427983,-3.2467199470825685,1.4114381219813383,6.689779927770213,-3.103316959222736
0.21279477322400167,0.6098306698856255,-0.5958748688896922,-0.2749072589238172,1.8434915697991379,-4.411127247164457,-1.2461499182988565,1.8097220992121075,4.148481369743408,-0.8798956908992704
-0.5698719400208564,-0.8717346042447882,-0.25819787587470233,1.088190101432736,-0.08432012373994913,1.486469244290768,-0.7459931995464238,-0.05204022452413415,0.8316472700516778,-0.06273866602553745
4.363920461480779,3.367804188105284,2.475576879576303,3.1868681937322885,1.9062439116933532,-6.627788914525455,-4.029107590828072,2.3024698521192417,2.2508409506017713,-2.229101779385001
1.0913430939766524,-0.06434796575635289,-0.04602547395099097,0.32547204564438315,1.5767793714038372,-2.1996700044581674,-2.1877040309378377,1.1538356041753934,3.489758779983654,-0.6761584662086543
-1.191002255409417,-1.3456250300584245,-0.9806764336234085,-0.9981817248596947,-0.9066090090429548,-0.4452045646614575,0.7287317245413324,1.5632063421044058,0.6250057709615696,-0.29757812731145167
1.7862419092562805,0.2226068617918654,1.2087296884263068,-0.5010436516328594,0.0448277446383023,-2.244569296268859,-0.42054052153164423,-0.8326343342080601,-0.8184156785695791,0.6829678631830286
3.6302621842735285,0.1663631364244137,2.792708009282849,-0.13475904905801017,3.3465632155729974,-1.6978639367137984,-0.7565719093277982,-1.2447668271067056,0.1839886741503582,0.2397456887869859
-2.7740432676571527,-0.6624303256107137,-1.4088683682982912,-0.15690898430256195,3.0297767027763713,-0.18279248416745464,-0.24986008663955617,2.2296422383881707,4.514697297280929,-2.3207749976696035
-0.15652449884099878,1.0618505496019794,0.03281526681239814,0.5366961869910396,0.9446924439299624,-4.619026890386518,-1.532433234731867,-0.4433347613552703,1.4390136703939378,-1.3087260385069694
3.0996372988764613,2.167187117234959,1.7952719750775934,1.0627870004478157,2.658703474939667,-3.72763682580767,-1.8899591083899088,0.6521967674087715,2.5592627658174143,-1.7264044400665934
5.9395946914568905,2.361800504965062,5.372707154203347,3.4207128822804016,-0.6630102162004569,-10.68125304810638,-4.050528293673986,3.98269124544805,5.5157913574689275,-1.5934585465157978
5.092666321877576,1.8300276365984753,3.3052015456601076,1.9687202299199233,2.2307301904435133,-11.739956558145995,-3.3480237057964573,2.3089785565376584,2.0822745971419065,-1.6694043876238212
5.7535167582049125,2.9644385960799475,2.414331161752403,2.785245573886082,0.051173028073378646,-9.948432318481808,-4.686400908077285,3.742206603970874,2.972544196976639,-1.6783309560664055
0.7779154254837144,1.4063927095985036,1.0250186045376863,1.6760432545127602,1.6904434439236047,-2.1964500488289,-1.5983650972735512,-0.12429761368194467,1.390790680031037,-0.1752998431253929
0.17024959397272046,1.0127795772796186,0.9442387915836277,0.6055068278130831,-0.6218631613958239,-2.396935280429574,-0.9354774585993056,1.6423264151154644,2.686389729609098,-1.3693459826406285
3.8219657546103147,2.628574819596901,2.0316329702576,2.8217143135595024,1.6374769841778907,-4.505133734911909,-3.322631041931903,0.1275869492702237,4.5480366872329405,0.23783286269161563
-1.6543211619597307,1.3245462007509659,-0.134588587578365,0.31761153196073844,0.963529223195918,0.45644979388144824,-1.040910216782001,4.066346119367917,3.203262402892082,-2.016298272824718
0.9891728201779348,0.5868511689951809,-0.5812981607398111,-0.42225055856949756,2.4375611865938196,-2.80994413364691,-1.5022700020391488,1.349983236901053,3.8878349002737727,-0.8742410802022818
0.5679834092906338,-0.11994215248933329,0.31447620213007027,0.015620771264742705,1.8085974055747531,-2.7807198007638743,0.45399630810416963,0.991404956231826,2.756200013426124,-2.113493726563726
-2.588046142826233,-0.37826200773069646,-1.147921263779285,-0.4346125839801802,2.056809478814549,2.4339494607486594,3.1292273254846212,-0.5708706707133133,2.0353768245985346,1.4380875534445725
-3.076500687588386,0.61343129946243,-1.0960159038862045,-0.6229541068460507,1.828873774389507,6.301858850597687,3.936193769711897,-1.1375586035567193,-0.7889581856346518,-0.4012588135872573
-3.650108710494405,-1.4547946791201538,-2.246035816378341,-0.5937712793915417,-0.5386884359885407,3.6202269886013316,1.8805560065421811,2.5562187867434627,3.69113610913311,-1.0703084478170972
3.2618004874096767,0.9090632524738491,1.6163009508459538,1.1277724787362011,1.2806674281941386,-4.503916686696982,-0.6520340978613643,-1.7241883332849202,1.8856994416656292,-0.3849586100380292
5.334892488340142,2.6976409344491645,4.055129332649001,2.9633876843643114,0.5413971418140893,-6.727195272463711,-4.724726185207,1.5462280456624373,1.9786987265912213,0.5231103662978118
-0.319026080317056,-1.869418092796135,-0.020290403005355395,-0.2399559232961237,0.5807227332180775,0.443412076341537,-0.870545173163882,0.3469310871402839,2.721024295350168,-0.12593284486896217
-1.7293568749643196,-0.5808397841780694,-0.9343912595233342,0.35800121812443697,0.6431480967292591,2.3570493005347286,0.19250209244952288,0.5323397260781937,2.25016911472847,-1.6016878940203618
0.6715500110999182,0.9280140451107407,0.5182996333284802,0.2769983132762295,2.1249988476053967,-3.81072146234959,-2.094992806617436,4.612621133344189,4.277955008030538,-1.044262862045884
-0.28092609290563364,0.394749068282292,-0.798838028611161,-0.5768872259127944,3.046358168833681,-5.623161837072786,-0.5732808001735304,1.5146081578010298,2.434938997083498,-2.256147169276779
4.544902707840343,-0.01420615023758613,3.452956347468822,1.4359973626502693,0.41082462947120146,-9.496475729326905,-3.5642989692053852,0.4845353290189494,1.7700417982088226,0.188536452300305
4.758601758936841,-0.03945950218612033,3.650536402966717,2.05276146368326,-0.19998107346591343,-5.280202689742231,-0.530549775909452,0.5155705891905183,0.009377072942990132,0.15085007050253896
3.2650225291040504,1.3822716545019647,2.342672680508901,0.7773306448125741,0.8863738120084756,-4.094135950117054,-1.8462129635091438,2.0293309236247628,4.189272754108804,-1.254484555138169
2.1373099985482895,2.133609361052407,1.0593066691985489,2.4198838407713925,-0.9896902684896555,-6.916046507385749,-1.7911461332692116,1.2122963259127992,-0.09708284237753549,0.49729076112091886
0.707533370371353,1.950844774700628,0.09758012176072854,1.195367572503383,2.8735514137644222,1.4730047665399155,0.21605705594943825,1.2502494235176864,-0.19043029276612802,1.250694113659396
3.3876552252054735,3.2129805925442656,2.455863790860279,3.11882293471606,0.7866877952756943,-3.6779205641885233,-4.121351451652659,3.6981695211485426,6.040517377645842,-3.7239308470536856
5.029940511434191,0.810805943895535,3.6133712866915695,1.2641707672321916,-0.8488180781237182,-7.443064245831569,-3.965783150534394,1.1387975442124227,-1.6266433562559948,-0.07337910940361843
5.573536160164084,1.3817339881606094,1.8035325056653915,3.2386595389005546,0.6637554322088184,-2.8205926096541605,-1.8142689097330642,1.3463635570481958,-1.640836524765837,0.4416381504640766
4.088787368324441,-0.020738773006998498,1.8214311177379237,2.3918157744333066,0.5437716505781283,0.11023028064135643,-2.2526775524415075,-0.7086149437906266,-2.6607817179164104,-0.2539893692834638
2.2971295775896206,1.8456811214890554,1.9294174918262792,2.617595528894341,0.667285994711688,-0.2407672891487198,-1.9988661423059961,1.911910803980427,3.646725341491955,-0.07675564551161644
1.6781533242348166,0.8664173738393368,0.6827984781183587,0.03850655579047446,0.840130458689585,-1.8019265269363203,-1.6105656499988104,0.20364940393337516,0.12053224488608498,-0.905820049209343
-3.734508413036339,-0.8700364739088607,-2.594403274145756,-0.9089913210531325,-0.13618756979366997,-0.1361283445017678,1.1478596887323205,1.218475813850745,2.6707404922455913,-1.6547015333307036
4.253600157258094,1.8956325410174046,1.754433478415289,1.6651307706212668,-0.3823545440129186,-0.6324941471824462,-3.2592516547654307,-0.7223851626889337,0.8940559254058774,0.8963588410837195
3.873777181341155,1.8824267394187866,2.0058517886631875,2.5097514687047178,-0.6447404332862913,-3.3865399546367163,-1.228888935007499,1.60572958396962,2.7628889835058565,-1.3808565191465103
1.3058233824651246,1.1130962217237315,0.19601930386204272,1.045542367484281,1.5526230021644967,-8.273141696309917,-3.2257040010048996,4.017676203601254,5.219706427368372,-1.6679069771581898
0.9704350619257022,2.26091789109787,0.7276631950617343,1.6991281135263412,0.14871091460683683,1.4806434753970399,-1.1395025602593813,0.22957825059692602,0.6216407499737606,0.7954879819941117
2.667075768316057,0.3867401745481539,2.186633502813754,0.9451983763491669,0.5966354170399821,-1.6540779269490562,0.6582352339435328,2.5550637440915454,2.985829356720028,-0.6024592797967218
-3.2474590972652266,-0.8929863364147721,-2.1609303542724643,-0.9550676845089607,3.080768305515159,0.4264475668318699,1.2135878132031486,4.6908797329058896,4.978835707383054,-2.1389408741955425
2.3484974384687956,1.9004291686754993,1.6820067494492663,1.42891046010747,1.0592389583716257,-6.159445123888789,-4.1947942239217255,0.9651428895093843,2.0907326407099873,-1.3005355296557775
1.162541821900103,0.3335385590314223,1.9882924678935876,1.7041601651060967,-0.06387434425381366,-0.4465548765168661,-2.418687609524179,-0.44015046057612517,1.180162266965827,-0.5374878242062479
1.0417783766186035,1.8324684174252366,0.23539273009828515,0.6064629482856894,2.225949538892293,2.5584478770981414,-0.10049391269912251,1.3511535634485217,1.5908509098254382,-0.6521260354412105
0.34089512793815174,0.18423397032356878,0.5339206428733279,0.29985715198309837,3.3801590608194063,-2.379801152563779,-2.773793428348676,2.6235958278612954,2.945485953651592,-2.194926278675258
3.7441567638049125,3.4462508238783864,2.1689111280318456,2.8382385454870325,-0.30242177159578865,-9.815950690004993,-5.115326942429187,0.5199733736882374,1.3279630493452095,-0.43991529359815273
0.3322729744227613,0.7333924516088742,-0.1325424901801321,0.9787685399154589,0.23189603391993652,-1.6189638679888765,-1.4774800593435546,2.1626696133175267,1.8535782188234937,-1.327357014343787
0.39480152568503324,-0.7027576209000561,0.917368037035392,-0.7782314060820416,2.0665231919593294,0.26782054155941837,1.244216398569804,-0.8530376565512109,-2.9968068131520798,0.47366069981565684
-1.6732229479613612,0.3134945546838356,0.20670745211057703,-0.7762948209024592,2.0636363284865653,0.8642896481890825,2.061882367420508,-0.2671710631629649,-3.71175857124873,0.38545905322953866
2.9346495819630336,0.2832098250724168,1.5923240773525076,1.4323419275489977,-0.9504989961075201,-7.294892941832867,-3.814433085714933,1.679326517467974,6.591439354358728,-1.5164821438467433
1.9130541153120602,0.2397197058952338,1.1569672522444159,1.4755389452925445,2.7783458552718954,-3.0190628793594123,0.39845642711045237,2.4133985025924165,2.4810782473354838,-1.555823160843436
0.46215780289539055,0.5054076793987403,1.2133500315351686,-0.07873244005573554,2.5757011925506186,-0.825492960777822,-0.06120011208691145,0.8348371752518227,6.895233935413998,-1.2713776975695528
2.592852669389463,2.469058905613436,1.3182899639349865,2.2736700103896537,-0.6887433251794819,-9.693707508273928,-3.783910338812104,2.0129101436586807,4.55971060789611,-1.8053293552637895
4.964851051005309,2.459612370053666,3.3902683677994343,2.939059400143499,1.7255207634419363,-10.108556389337242,-4.644052273648726,-0.1453933150072868,0.9603661650993576,0.2067262418242766
5.812134537839125,1.8563032232566303,3.2970249472706628,3.3627308984396675,2.8649100989027354,-8.291313041017144,-3.0898305327572264,3.693380474410273,3.6460984615822456,-1.709451880933008
1.521522085987315,2.171350735588424,1.1331820700109647,1.6139798037804134,1.943916677724125,-1.0681109765983012,-0.7689994572235761,0.2382452189747224,-1.4145814805243746,1.3981766241771947
-2.0690082680083552,0.8772880220442191,-0.8589981567631109,0.4827858312081721,-0.4041845929202268,3.602450323283507,1.7343804249347823,1.6601768067347433,-2.7225991871207795,-2.71738738311145
0.7779047767492508,1.590714173725829,0.2888381032202554,1.959107138754836,0.760122330480649,1.6149997971788568,1.0981150105049815,-0.6377461936589108,-1.4531635381660208,1.4238088103631532
2.710551927202795,1.800631720404825,1.8962870279354447,1.9145275813767135,2.1003164255925277,-1.069711795918981,-0.3137438785897061,-0.5839163245163289,-2.2134248418428286,1.0677145421032916
-3.7489756694123377,0.12070395926302374,-2.762886696460366,-0.8544215762842061,2.9632310093897023,3.671411317967061,0.9208889565416241,1.317141577010655,3.996998643142873,-2.30632425880658
2.5664992900675108,-0.07706319984098522,1.7306886232864906,0.9363620481769295,0.5761792441199263,-3.950297448182905,-2.3065271257680404,3.0132841392103673,3.7390712120399368,-1.480651737615068
-0.8977520672993292,1.3055705336204317,-0.04720530447329133,0.7862816245797462,1.9124184704366072,-1.0424961142084674,-0.7841444375966325,0.8914733435180684,1.3659603799494253,-1.04905718506089
3.995587168524531,2.9344434148503127,1.3543176576094036,3.249241078503127,1.6911842265886063,-6.244053811548855,-1.6551044843746638,-2.745141744430189,-1.192105965090844,0.23482351091746517
-0.8825568618351087,2.6445199887417834,-1.548133257205789,1.240837512685038,0.355406970739649,1.5907723462641254,0.01716386233312228,1.386897594240243,2.284724044961052,-1.229717291333476
2.371077736966617,2.5006174283384817,1.6295038250615452,2.3112497759540345,1.8758159578621858,-4.1402608768472335,-2.1532404333723036,2.9948619756141075,4.346790757707151,-3.3422696965950416
1.876089137563237,2.049101312061014,0.4222182814184143,1.619974446562232,2.7995256337353203,-6.21663854660829,-3.896325566359179,2.6693218208635923,4.843734247090465,-1.7573089887564126
1.9906777131841997,1.13907819203979,2.406510981649061,2.428494400566333,2.5834874891622324,-4.672925518139938,-2.1270583300759345,0.07468406531340799,3.9215248185015836,-0.7274536253124995
2.177301140393867,1.744234230490703,2.5330470296882233,2.0646890534843667,0.7886795422757187,-5.9552308313260305,-1.181097424841276,2.2440474619014377,5.886595297383353,-2.017825035811929
1.3285369292148441,-1.9550396551395588,1.5545336340205793,-0.7127717770140367,1.9555029770733223,0.7258224374636376,0.42559412289228155,0.28155212673001495,0.5995388535020882,-0.9573607552862657
2.1108841174251403,1.4454690990028727,1.2055138821737412,1.8590683949898552,2.3910764598185312,-4.420190058359797,-4.350029375608287,2.270880401602918,4.367398126327563,-1.350084598525921
-2.513546299685102,-0.893824574339822,-1.844038217426241,-0.5106675912606367,1.1431342529881947,2.2364144080719117,1.6560319638173184,-0.049134948870063866,-0.47279765722238715,-2.5667479334826933
0.34495148459042335,0.28175000854642507,0.6466132435906139,0.5092302003098037,0.6766220072939384,3.134222734657195,0.46634211758489635,-0.09384592272491799,-1.7342794543622928,-0.4203441723432767
2.5881693286568477,1.7945483593760292,0.5873063332146539,1.028119003892563,0.622002991710451,-8.92090113280269,-3.380519177708776,0.8356617376753028,-1.3064974452840794,0.3712325519555272
2.677934676732671,-0.6626955694549299,3.2205426280813354,-0.739767564152223,-0.9688313142766144,-7.202320225637792,-2.3881042005428443,2.021130049695697,5.87624694086936,-1.767659119823825
1.0060853645318109,-0.9517668684527625,1.226310308724439,-0.5036943195020095,0.9159111137827356,-2.3473108020819806,-1.4683766844388675,1.201818860756692,-0.7822817620103216,-1.208663038008683
0.16947974180845998,2.8259602615864354,-0.23576393922085848,1.4441487938999824,-0.19222138012922552,-4.560386391735911,-2.129930371224157,-0.46012926567896195,-1.6200406649233468,0.7448134075415279
2.428900966929615,0.6894429603842057,0.7549930372826044,1.3545043437431743,-0.828267729373028,-4.0241425225762075,-2.07590395399352,-0.7071487598474355,-2.2089753899303224,-0.2896136703005715
4.11449058016154,0.0688864117656194,3.2150655689722973,1.6472899336962596,-0.10821286437614508,-9.768332672666222,-3.512872791056809,0.4966116045602982,0.057233580484159004,-1.7800583182065237
2.483663181601395,-0.27416628409911564,1.4334723486111933,0.4594242057704021,-0.30719786356089873,-3.8602988482816456,-2.4710497315637507,-0.1829210870935647,1.319358284082248,-0.15396869178823847
0.46244381382335137,0.7620635218596323,-0.23720422498743374,-0.7558797330176849,0.007071781377670838,0.38721493884236624,1.5188488026637934,1.2083889296325772,2.0762397560151054,-0.5130246317713961
0.7344395304215358,-0.6981206866317142,0.5032887598447908,1.1150901760122585,1.9194760977546048,-4.884679269405909,-1.5603284194048512,2.5785989374841645,2.7609327154523085,-1.8963388351577692
0.9384644673015773,0.7261920874276613,0.5456501889500488,0.6472115135746925,1.3314422097741176,-4.164749311944552,-0.6375702454832255,3.0873542437457897,3.5656197483626286,-1.6877206332341093
-0.22658148551723253,-0.8623008313884211,-0.1797816830439092,0.07185988901807527,-0.12141168272376546,1.7959481868891274,0.36508855070100643,4.120582463887127,5.1570025544913625,-2.834539552260312
0.6908339103429253,1.667120407385254,0.7025318798947824,1.7308302188185118,0.7572804270115387,-2.6763339290405765,-0.537166132328735,0.9000997603995136,2.4202721118352484,-1.5980409446588844
3.650916732988581,2.797818399710178,1.8947182715420916,2.8169916514043165,2.6792441203307136,-9.795024402085359,-4.511899763447509,3.899899065576127,6.373651878864497,-3.007621634508442
1.6740266279692764,0.15904403714679316,1.086444129896608,0.7287329990115601,-0.5084751674984508,0.8675979110627577,-0.39263968488138024,0.4628467411255689,1.6770025987682518,0.7475953233574892
0.830222797354984,0.4282071624527394,0.7873307209437321,0.8396734771995744,0.927599550758899,-0.8097363373125588,0.679455709540228,2.382510669297305,-0.17185766582074327,-1.016335300816857
3.1364592143961745,0.5965327731764878,2.5462935337265296,-0.056602381055270934,2.0597139095666175,-4.799617180479291,-2.826472128076617,-0.2044362631216543,1.000178879310997,-1.4287517231285363
1.8061605707121393,0.6306433482074266,0.519507529448005,0.9068234402827979,-0.7421205300106668,-6.717975732241001,-3.5051320351486925,2.2048667866566958,0.19764814420251106,-1.0647377839764887
-0.6564008760836096,-0.023176986175671443,-0.6671818818602473,0.19834305493119087,3.459705827838415,1.489559313753706,0.8871971014961771,3.7702420772138363,1.7486584474713016,-3.352229905717972
2.52643474327507,0.9507020758958287,0.3232900738640664,0.7772465779959492,2.6231902322065372,-2.36027140180801,-1.4080811562520053,3.0191686070709984,2.888623997193637,-0.4526674176394228
0.8894437942179796,1.7729486249866468,0.08563998134271368,0.15924810408278312,2.9530059701350417,-4.856882290848688,-2.001079466889882,0.6718606393833965,5.706223652897185,-1.8114377389299305
2.5094148487871957,3.614898432399858,2.083415984866949,2.1898086762586013,2.313241451115131,-2.1105134598757003,-1.2522477764590036,0.5963592653791383,-1.5343396992373897,0.6741570717070915
5.869173558507137,3.0371119632971446,3.2571121844702677,3.323364503369125,0.14947003348737575,-8.262006877512913,-3.6255418014178633,-0.006560831172939485,-1.3599099703945259,0.8302744625729402
1.030300590579464,-1.629735630130292,1.1426457409002484,-0.7105583359596294,2.4258529558387485,-0.8600949639151991,0.9167732537875822,0.13203505672924004,-2.155654418149336,-1.6366762751877153
4.191132686647288,3.45832350188216,1.7541501938508477,3.3815219407284483,0.4029093065149507,-9.567616619104895,-5.3049593460802855,1.8341527548818166,7.3127340712674265,-2.714002308985933
3.991181661678654,3.9991857929513492,2.104789291266976,3.1166345846338093,1.622643367253672,-5.027148169954685,-2.5766992155831523,-1.6626894349735686,-2.0291244160600845,0.15138676588645095
-3.0335106491190484,-0.5745922343823693,-1.4214696051311078,-0.8065918707449115,2.377862485570759,3.5651753025485524,0.194258984935596,1.0380732458794224,5.768792754770801,-0.11778436197608626
0.2829822588998296,2.148438502868189,-0.5079617251560928,2.218533318734566,0.6107606319962233,-6.305928236523162,-2.185527853951476,3.646809529957864,5.227742338307638,-2.7300204463391466
2.3220526512513024,2.7353311361551813,2.246193747159655,1.9622884752093825,-0.7835311964359488,-6.854327299325673,-3.442327249951095,3.5078355357474127,4.643448434787053,-2.5712541243491076
1.9322396473841483,0.5281476730315329,0.8289224729605471,1.2215381074067144,2.2965921332208783,-1.0123233964621032,-0.649851587328666,2.31054845089907,3.5975815130176065,-1.3402757998958712
-1.6649233684559512,0.6636333517708899,-0.5702896408296111,-0.030365484623749217,0.7621740779228583,1.369726822674796,-0.029701382204452953,-0.5762049256010314,0.3138289042949758,0.03938778606051622
3.256725780857257,3.3175206730960967,1.148525220667218,2.6350610532784073,3.448333044332453,-2.8678600573096804,-0.6436424092302037,0.5345502928613721,5.898015554052963,-0.7130941480222229
4.940409894955171,2.4389739454341908,2.9978989316509743,3.07124952634791,1.4571433196479382,-9.466135577831484,-3.2491124759034564,1.9523668960923801,4.005619986349096,-1.2529759694420215
-3.314184063396036,-1.0741391679514465,-2.1765290014785577,-0.8694001701124767,1.0567674063683223,2.6103496296473265,2.129394565874749,3.5066981024490698,1.7955829116479567,-1.7500374040902842
7.7128752848421325,4.441180090044524,3.9570320616988988,2.9560233233355064,0.1113026754217521,-13.519267757857312,-5.250617367937594,2.7663232331722094,6.9283285136624775,-1.4771374571330997
3.706309971801693,0.3644209599709712,1.6697588797563332,1.0700511523379825,3.1513623005934672,-4.4764403610442765,-1.710353428026115,1.304720703268617,-1.7233939950743151,0.9366330187212282
2.0810790885677886,-0.052292006034687054,1.3301884739112595,-0.0477985428668487,1.230402713114116,-4.662360067626901,-2.567648990999578,-1.0592996418482323,2.331419355093321,0.4484410926152429
3.5192417650707037,-0.22284743275403823,2.4040847673577486,0.4798668061811773,3.4320985106202357,-4.481970617771367,-3.115695909357566,4.03202916432664,3.3231846657448565,-3.7623308424702815
2.340549197901788,0.9989857765940824,1.5870287808980112,2.3267205582532386,1.616260274137439,-7.119839689562229,-3.2565535536252277,0.5589051524876776,3.7959807401473564,-1.581249555013932
2.9142755999111754,1.049979425969454,2.623368170698215,1.6678684182566172,-0.10406405763386117,-7.1827698636101625,-3.3965050872297518,0.4098125561014053,2.6299146715560524,0.8485631787153929
-2.276556347520881,-0.29341471095233224,-0.990063948418687,-0.14705517502695853,1.491866675087525,0.47848092093827477,-2.010636369400034,0.4324898529884791,2.153984966458738,-0.1310025217163201
3.9867329546561736,2.2195567799140172,3.9204579486135307,1.7575989135753458,-0.6270004756774747,-11.632966414953012,-4.832075280288161,-0.006783926957287911,2.098398695639297,-0.127699886853295
-0.25354567341790063,2.8555795719890456,-0.7559588538754961,0.3152436244324923,2.627550971850693,1.6252927967249573,2.342996763176662,-1.979402471939351,-1.5336252806473407,0.5376696852254846
2.2037905421076966,2.4240189786042308,0.09617708375396593,2.171924170437701,-0.3156358448521839,-6.6786470379952165,-2.7770668715127425,0.9302568515350578,5.799752785012395,-0.6623790378416208
2.9289607521666663,3.4744688202197143,1.5346115095584119,1.915799500742294,-0.13507212352669162,-11.771929735673169,-2.657048504292152,4.343965827611033,6.786204461709402,-1.2176449534241391
2.6255116016373408,-0.09413737803214031,1.1819933944867898,1.0220590397975253,-0.9779389984424721,0.03051089303966603,-2.3568703283901944,-0.023363486938126454,3.771176970683215,-1.2970257905218068
5.2166932320415835,2.7360174878280596,2.649361547348418,3.263341524015229,0.314364162451263,-5.832120802031225,-5.550126955340878,1.3201554904652164,3.7135524555464205,-1.2381062913349297
5.185021929399897,2.6622281376491923,4.171832925932023,2.8958786531480936,3.392423147218482,-9.021159203161426,-3.6630496206439407,3.4159322156354155,3.142293472222406,-0.9421906640891669
6.7859245886643755,2.875211942916247,4.044897112323979,3.187225706402316,2.6736372725729387,-11.275780431084993,-4.758706000807729,2.1376535593568606,6.230486555762149,-2.891816292959135
4.671377100111924,1.0305958610120993,3.207071625321903,2.6582027557837025,1.969557020598434,-8.641632395678233,-2.8911326487548914,1.7583303611741696,2.4004245926327172,-0.5920686085256841
0.24415880418113456,1.406101108336379,0.06552530413318812,2.197515132737166,2.7980081836912367,-1.3179830116170774,-1.3435763174698372,2.7005268041120494,5.708752617706619,-1.4694757961841611
3.299676266410931,-0.5693843151983367,2.206235367781777,0.08089666866636436,2.861560081321813,-0.43098564945759255,-1.1800217002843616,1.5210795500138634,3.7058380088723832,-1.5515277145632635
1.9610051729773075,2.526034736022549,2.970941618163104,2.6206014515880187,-0.5854377740192962,-0.9394780126098272,-0.4016898594522082,0.7784233478593201,5.145460465371881,-1.713680554609874
5.070464443255286,2.220380439103409,1.8075776807758142,3.000243378977899,-0.9564769355334025,-5.043015733396603,-3.572369102673837,-1.2635514426812793,-6.231034740062466,-0.06941890354419183
-2.3041809516156313,-0.4172187393276044,-1.4375919538367727,-0.2126942139068011,0.4943092212923512,-2.5591498416430447,0.37594725725396216,-0.09002834505632884,4.116147643034959,-0.5417772022551998
2.363373267112491,-0.5704298397073023,1.937381263086172,0.3132615513476604,0.37866787882889663,-6.682790701037536,-2.223796663251302,-0.6430473815830138,-0.46447257953315146,-0.38986803606215686
0.04025332311365871,0.24805813825271322,0.9814578150411607,-0.09945788635075337,3.0118646670115963,-1.1380647498293095,0.37309211928466435,2.01655477458931,3.9795761921908475,-2.5521870623315897
-0.6462406096176992,-0.030005654362542142,-0.18690359685144903,-0.09305312708730806,0.2343857194740513,-0.6649637960848097,1.2480261239261035,-1.7096735466640376,0.3069050025578943,0.1700830999450738
0.42987999071670807,0.1269483376138734,-0.28200172695092346,-0.3089332513816334,2.6435696910474293,0.5386112122232569,-1.558245482018087,1.1079702099286841,-0.38001270857993197,-0.4568595515246842
2.8740362949988065,1.1256813390323603,2.2631259685031235,1.4205506504714793,-0.2201210758861799,-3.134768524636804,-1.0036639828248557,1.9649381299717232,2.271565622908085,-0.9042296209613344
5.025343675390668,1.6922656286293751,2.7092224549308135,0.7016517121822665,1.7593430188174524,-4.8216267945711655,-0.6746981466737012,-2.637060258670526,-1.2070537280696,0.2323925204862437
7.712270350437155,2.892925251810948,5.334225128561711,2.7422504089930775,-0.8917598262072645,-11.580148485400283,-5.382519908919574,1.9914916085391567,4.985226038571781,-0.9832742277012911
0.737032268689923,0.5091880830355631,-0.6093319407184276,0.04714195927708098,2.4014006533615655,-4.355084720120313,-3.7805036088654127,2.378232003726566,2.72779364452221,-2.851865045371064
2.6192502686758536,1.8762130389681833,2.3790924378821834,1.4393327910564615,2.455355275502722,-7.667070146254398,-2.8084739324778685,1.964549610794091,1.955399755597022,-1.597902286985011
1.3428447931443481,1.0710613161724638,-0.11422412222956586,0.9719806251705947,1.2748323215635136,-2.7839913938003757,-2.9750998216205145,1.7890461541145013,3.2254049416971053,-1.3317974201515403
2.3498486046263842,2.1383911486005487,1.2461919635018768,2.0250322289670057,2.3285558651668237,-3.9792226873288508,-0.39745269419431917,2.2873356729396135,4.120204549457195,-2.0909041037858893
-1.0784423946836252,0.21629451543868025,-0.7063417220785279,0.4407059666033928,-0.8201632174408585,-0.06668867316481686,0.8718832810286632,0.15239199162831896,-2.1364851268834424,-0.11539247157552639
2.9832751303311986,-0.4092772115339861,1.399088645147074,0.9081830121926582,2.423521178548282,-1.1438502989935375,-1.7491090476942974,-0.05784175865781083,3.1537847546093305,-0.649503699259698
0.4526829756933932,0.6399188721145642,0.014257821717244453,0.20712439879828848,2.932220082798358,-4.115987745984208,-0.47508317221202656,2.9809354372735544,5.3603237507431505,-1.338317009287581
-1.4721332583730287,-0.3397990190852048,-1.4267882890916908,-0.15449424141337564,2.930104616060363,2.9421309818857075,3.4565738089067177,0.48248076734509515,0.05720603532495287,-0.07968727798605446
6.7997368238791935,2.1981413854314296,4.873458742585015,3.0804334556667916,2.9679254527972425,-7.565048049390162,-2.6537791803028092,-1.0045894227210046,4.971720742926029,0.3779318160056887
-0.04798788961520211,0.1111417453784956,0.29734802351642536,-0.09612919761879779,3.2321895288964653,-0.48154080313342673,-0.7991151234885865,0.26171694137001617,2.58710353129092,-1.9752595513810591
-0.39919014155667293,0.969366404558445,-0.09515565660906232,0.4166289094540423,-0.16213697941867944,2.3115315821818463,-0.5208259280757359,2.2508188388007673,2.135380674221473,0.6829971643327946
1.11305258446121,1.4520873285772535,0.060845693236620396,1.3782156356780448,-0.2645508445371224,3.152698796191557,0.8474056584453612,-1.1306730264143465,-3.6627353497908266,1.2591680575880677
-1.765353274619866,-0.8723964583734877,-1.2495549892736244,-0.6151137869664627,3.248984768246366,0.7894129995987309,1.1819052494724567,-0.039574110404671625,4.378710026082048,-1.0274275829481478
1.367780433742149,-0.614654473998698,0.8086346639463133,-0.4988274321679802,1.564980835681407,-3.6125718475663,-0.5090736854277578,0.385271196829758,1.0136740844319607,-0.7421519137593116
2.190349034760502,1.0011457988688628,0.9016127320575141,1.4759342680736731,0.05939854218132168,-4.7436409791370515,-1.979993035572491,1.9181734357884772,0.33299407044042617,-0.6432684792607187
-0.6884064454204188,-0.694759159122966,-0.1182789531705328,0.08323492329236282,0.39061803861779487,1.816047286744963,0.07705735780895673,1.6444602787120197,-1.0798876555759662,-1.636992843456831
2.5792096922293264,1.776981893736816,1.1683252580650922,1.718241794976112,-0.591640663639788,1.260068563708397,-0.002215176288693943,0.9557936296505438,4.8301711739182185,-2.508989858412578
0.29793546796696274,-0.8574004897897941,-0.4017896854654203,-0.22720125491702448,1.238530179589707,2.553834819522785,-1.6785163477552532,1.0844727917363617,-0.36028027156889947,0.1068782840764582
1.501849464433416,-0.2959322835373716,1.3263553611464785,-0.8362988046488994,-0.8035296163505301,-4.499314199960783,-1.2747709896005817,2.0227829042763448,-0.596960710806634,-0.21340272892059328
2.3644548078554974,0.5633848034994052,1.4569207453880548,0.5833849711353547,1.955598950333318,0.639855614652149,-0.9768385096842777,-2.540451562701808,-2.491758729933479,0.7713269667845422
1.8134252640187845,1.4963025110207717,1.7747472212000435,1.9178289652774074,0.7769711466451299,-0.049125563209610146,-0.2413153638127399,-0.7829061086463034,-0.7580556188106651,0.420123036633455
3.2636601196364405,2.765578224966383,1.5855090009037314,1.6387964088268556,-0.9004022427845626,-7.177632391176477,-2.1508982000429793,1.2715259813597297,2.2296394520474787,-0.7845088153944418
-0.2835531867231001,-0.0973690411668319,-0.9935053180158318,-0.11118695201375428,1.6885290758901732,-1.7111223169851184,-1.1299617000343034,3.4564299642350367,5.192326335752994,-0.37903700509573596
4.461058858188181,3.177016283552908,3.0341522080303127,2.926340949662786,0.4161368022552332,-7.161636640907432,-3.669347683298801,-0.708629351921394,-0.9165158085686628,-0.25939415031338486
7.730071900495482,2.772037265454643,5.085075183546204,3.4213159590933335,2.4791830474483487,-9.811288701792645,-3.9020007988971557,1.168131731815333,2.2707134901693617,-0.44691532038660314
3.531751110312662,1.9328377644727177,1.1451829091863206,1.8869081082386905,0.5533207463895751,-6.59189881987016,-2.4199768210141928,0.1736569359907345,1.706969045456908,-1.1786008470179334
4.346457794932182,2.8346805667355177,1.8459761183357046,1.5026666174084156,3.316793131032795,-6.807057533114614,-2.357924761448361,1.4970050555261316,2.4019442823402697,-2.114706005151458
-0.3159939869956456,1.6358465367569592,-0.6399577054265599,0.5901363798194064,2.770268173986867,-2.579753680340639,0.21008499704494563,1.0578206474947751,2.5225077763369352,-0.7608349342642041
0.7637346821917993,-1.531601325991343,0.4260747527656173,-0.6100801230384563,1.9980557409081805,0.025306667112503733,-0.36368265664447436,-0.6156064190623647,1.1198055598588568,-0.7102423707914415
4.898095530222315,2.688900760693163,3.2575163604167323,2.0861013371300117,1.1986714718559845,-7.564320328797764,-4.976653945104566,1.3210415949034064,1.016158369574616,-0.8750634629365222
3.215635892759099,3.8602113110852594,1.5497292341955147,2.7017669678722847,2.8458530129671864,-2.2169006928034563,-1.7949622426766216,2.6594501150113294,-0.03149403271501423,-0.33551586487954466
4.1954749143409,3.1128702859565447,2.7215168755378487,2.78041227520366,0.19178044182952703,-2.3260902100584424,-0.7626450039929522,1.8445528561464108,-0.05156952280303497,0.8816047749882715
0.42915141652049765,0.7098112237019405,0.7044849687230279,-0.327921527578488,2.8589195723545457,-2.419251373288943,-1.8399724657916496,3.867584803268464,4.051890014649912,-2.4660551471714873
1.129219312618928,1.7602401781501191,0.5884450963892744,1.0760624715720994,0.4570096517622686,-4.1946501671113845,-4.304513998338218,3.0019248800290574,5.2326755293044815,-3.359298000751595
2.143178823347636,1.203874077598369,1.5472834272173877,1.6868059242127686,0.9551392309757332,-4.967699125478104,-3.609780324813144,3.999916270146536,3.978284604157673,-1.4825654604217855
6.500491130710692,2.7431971717079926,4.300976998288164,2.4032695832474853,1.4832162938028066,-7.630741618261717,-3.585112282780524,0.3589687154086587,3.1272713092054887,-2.0954910293805016
0.09343272226129053,-0.5033192998249445,1.4594768786258976,-0.2128366379209894,0.8742922573011063,-2.008136102991008,-1.0217154824008514,0.565629043808384,1.0141611735160874,0.3322787654773977
5.606318083413344,2.183020095646978,2.799371377631744,3.0237068788357657,2.918489939447462,-9.289660013838397,-5.960970915255243,2.1385590657344262,3.3738936737590066,-0.8605097073119649
3.5039526170721054,1.45758716072761,2.105022439904754,1.9818688397437372,0.5128314073768077,-4.616303119875583,-1.479407589007838,-0.4537875467630312,-0.07071070199950868,1.5663077774287415
0.6110402261557418,-0.005801233067796765,0.5416210164119144,0.48826722754099783,3.084306554239058,-7.150009615472045,-3.570529933963947,4.031525266035792,1.993903233969735,-0.5570326762506885
1.6575269911782753,1.0808037824979413,1.2800962315592308,1.9065848652636554,-0.44022298315825337,-3.5819071988706797,-2.0378906379231596,0.9733644636300822,-0.6411063774670428,-1.0416655780623734
3.298777692096088,0.00397947611201458,1.5308546428276655,0.9905564679383119,0.6662360750428948,-7.64043507519711,-3.20819683308397,4.078409163593977,4.017031980747755,-0.7459902914416527
1.8355512272016428,-0.03499474082228375,0.9935898900579767,-0.8959395692087673,2.4506514744823837,3.394624438911698,0.5141900326710962,-0.11152637278436961,2.140620975213514,-1.4028915066528451
6.211470645217035,1.834303061142019,3.2816503866725464,1.4138921554324004,2.511824204744127,-9.652024997949813,-6.399245978730445,3.062016014029274,5.423968959142719,-1.6233950517159588
-2.7057284155190966,-0.6177933740052025,-1.2176737390589492,-0.8278790987337943,-0.2975161495091704,1.8101969758689092,0.11384582856555059,-0.2853887833118023,7.455344739543846,-1.0366444971041897
0.5709216699188501,-1.0188119303146277,0.8771031121990563,0.21393424113579895,-0.612319252012554,0.3621990773096293,-1.3561515534075337,3.408787428822052,2.5197504588443818,-1.956263487579186
0.9121815510385461,0.3187702844022651,0.3070108122981742,0.1843334817088591,0.5418863020118014,-2.260269395278861,0.19751904905788098,0.061658373900332464,0.2597722922058465,-0.6813207280475638
4.170946552553514,1.3956148344309842,2.3899463785972466,1.8977459452680296,2.4831413758081227,-5.3376190637556045,-1.2968542626888435,0.03446586027477849,2.568444877439765,-2.2920200198734424
0.6149977962721028,-1.080375127741359,0.39245039305213975,0.21594357594617253,-0.5922966683726889,0.9862017165617962,-1.2386791391707328,-0.9029772306893664,0.9651817508865587,-0.33577053216823427
1.632564343146507,2.3509437426231035,1.4589314460219487,2.1067133132236857,0.028110703956109928,4.195649553709111,2.070553289687889,-0.14886906122343635,-1.9608867038016002,1.159716318733975
5.433880738876798,2.702964281888147,2.8545363238439916,3.242426561055038,0.36840509571048496,-13.257546072387587,-4.731720585861788,2.5783038268261333,2.366684609890205,-2.342680360657814
4.8320557087415965,1.8931121878301744,3.100489779507072,2.9889005795254544,-0.7523138186890073,-14.074353857258362,-4.619486934790363,1.1381804728743867,-0.44508592638267286,-1.019295530690752
9.591869074350761,3.0668994429028933,6.753938673973823,3.316707011143799,0.7508555595918416,-11.350152238428631,-5.757300436191842,0.22401677627902536,-0.13825213854924337,-0.18643069918826893
-3.3777266466168085,-0.4965226712503344,-1.5066891168239274,-0.36868095070859086,-0.7056344540689952,1.2281916047453225,0.42956514099252996,2.2327960861729905,3.7576828518500522,-1.2519466695483217
4.955900474710911,1.8812410558345365,4.151753109777871,2.3461358764306532,2.5886286214900096,-7.800601201179274,-1.730807667602761,-0.8993598487527577,6.406855040622109,0.11121778566908798
1.1755123623813597,1.7777676062868986,0.9316754540482343,1.0249002496071644,1.6344175757903177,-5.964272751867126,-3.5550270453527526,0.43921117920124675,7.240661496039776,-1.43245999074162
0.33492148024110957,0.1857349822953961,-0.45324449079244583,0.09425111054299995,1.205130600786974,-3.953799938064557,-2.282412937685752,-1.1779484361544514,-1.757842296050265,-1.2005773862689146
3.7797303491833696,1.9937720465220743,1.172042966211283,2.4290625326806823,2.8270628244729856,-6.839185640037176,-2.0582057326857166,2.892069216784428,5.833611971572801,-2.5560274375070056
3.728404398035698,2.0663336642862813,4.251977354359999,1.1652603475847418,0.8724363362580279,-2.804800195963479,0.06048556268612393,0.5318946450152136,-0.8999493827182977,-0.35483595238256016
5.827624805258202,1.8893381354033767,3.323934535862024,3.0485834465669477,0.5216639286148783,-4.793756117290291,-4.478373070048521,2.7047405876443937,2.803919313059423,-1.1181526953851921
2.520160617275127,2.948906053569337,1.166727975087506,2.7418107428520395,-0.2838007798410379,-3.6181806239339798,-2.0189949918710695,2.8960208774338314,6.687362782045635,-1.9120483795318814
6.653207013329025,3.802555050162061,4.216653823648146,3.419713173996583,0.3222931308783501,-13.851989801344068,-4.996171012606339,2.0338255953886732,6.909006685260156,-1.5076956175205745
2.0036710743205792,-0.24681795335921036,1.5777241577297738,1.266648141725757,0.14337464817312306,-4.233796352075534,-0.011123768158743108,1.4143251933492804,-0.48280340158618595,-1.8336652802323998
-0.1720951067627173,2.5669319354336335,0.6472357926893404,1.7841718165917926,0.09361098044451843,3.5625126413950206,-0.9706804836412144,3.9691526653039424,4.689084148701827,-0.5224579678352661
1.9516573810798596,-0.1891308183845138,1.2738254274568794,0.4372191993821348,-0.5728794254313707,-7.722134117323165,-3.3381414562605176,3.1991650757886427,0.8818085150736733,-1.6246503323684154
0.017268326100940274,1.889182436512793,0.3614633369472237,0.07614492776098669,3.218082585217636,-0.1205000323028218,-0.17248382697109443,2.748517667562537,3.1565446072218912,-1.4464827314692281
2.152298819584468,1.6806524352713612,0.42106837598569347,1.2098269752144915,0.4532109119252301,-2.5429692893207636,-1.372974682356694,2.3697390734893764,-1.3747876901461946,-0.5409910988011496
-1.394255454427868,-0.9404474067506579,-0.4829178008086817,0.22564031099649373,2.862612601235379,3.8233602481198146,0.5290158152761539,-0.314869330719559,-2.1219759120023127,0.6979127554611294
7.214121361352628,2.9570884476947654,4.5227625814424,3.4306729000306513,2.6907106129984286,-9.683994066646408,-4.679328006470708,1.366862738959862,1.5394535345438314,0.10027660821718211
1.4494309883183347,0.7993970415875095,1.2559922080933772,1.1663859737914453,3.37994263522636,-1.2519963599474715,0.4446447625975502,2.2989632469051418,4.8238624757165205,-2.978251007659799
6.721791258558471,3.484998176844781,4.13628068658263,3.3748326380484803,0.31449094458560567,-11.648588836575128,-5.358516662656053,1.720566332640749,3.544810558441564,-2.1863221150297725
3.1375034620615807,3.600250363150226,1.480284533001912,3.1362416764507914,0.8811973700565205,-1.255612194587632,-0.25804377640052645,0.26743650753461434,1.0268020464319203,-1.3418277890533157
4.451266121093756,2.0469943103821637,2.6770705069093466,2.523376437477531,3.2117953606033813,-8.340161442541373,-3.1710257939067974,2.9701617662912736,4.507862737160873,-2.4389957794580703
0.40504949558584685,1.3148013073891034,-0.24728990549177715,0.5820258090600001,-0.27509593227460627,-0.8130055221964028,-1.7629208878409814,3.2255508732454286,5.721829915999758,-1.830074266697173
0.0168803329396156,-0.15034318207157968,-0.02977539441212327,-0.7603686759163586,-0.8609904390169426,-1.4865964393985027,-0.9979092036097579,3.2344481516850214,6.291276821758662,-2.275140969846438
-3.551096290303335,-0.1818905125201688,-1.2139727568387102,-0.8010277386039771,-0.3891737224901778,5.090422612608669,2.9109396090516833,1.1326016094820033,3.623009487061008,-1.0138788672475403
7.217969287543687,3.593826706478183,4.900421626263141,3.431868443079251,2.1210529795363047,-12.39855036182805,-5.926904071466893,2.3668522308125244,2.619428047865538,-2.691091013240009
-0.4549140418222847,-0.5820081803744727,-0.5948523172005561,-0.0901495599679315,-0.8244498787815213,0.3954976656817395,0.6532692044305873,2.649765917108235,4.041800762018178,-1.1848486376318736
-1.3906374204690337,0.5328208635497689,-0.7238991280857169,0.6142685409397151,2.1518779319938632,3.776625202772394,-0.4046600330422858,-0.32986306303311025,-0.5331633263770623,0.003417891349532007
3.4888063500100266,2.2959284253236314,3.2426559552937504,2.7360684980455106,0.23479122971026367,-6.863529881189924,-3.850365771154242,-0.9191974917854719,0.9157371689192583,0.6471305750905525
-0.06514525765439091,-0.9967692425576563,-0.8357732155276575,-0.17452069165005313,1.8885955095125357,0.01852112681584317,1.713829223152712,1.5478372020740832,2.6821189754737027,-1.396664712431083
1.354707197988249,-0.6031547308046835,0.09280625884906654,-0.025735901340325773,-0.6522514919694906,-2.1022668274828833,0.5491727165115812,0.24098770264506797,-2.757087082349895,-0.4099504317683798
0.09453497565373509,2.615625487256676,-0.637282137587415,1.9750892261957813,1.5724122235529139,7.239665492291542,3.149256765659528,-0.10411792899335703,-1.9694820957591017,0.46953426002263826
2.6916741435132345,1.8344860986443319,1.2416961133940834,1.8305919502706152,-0.057615683263124606,-1.33117965492031,-2.5594778041391315,-1.7178760832234383,-2.382874088976443,0.025640517276904185
5.221792683753489,3.714928261828128,2.32882132116609,3.268371384277155,1.780808204420405,-7.617923918178461,-3.065497485688168,4.044965810031764,7.513319798722638,-1.8766982496561837
-0.332703313736103,1.556888974201758,-0.5505139709979933,1.1488081700784876,-0.6423453215019543,2.015054483500337,1.3724577995921967,1.4145599406014033,0.4702928295869943,-1.091483741182984
3.5105508905345775,1.0125654798450934,0.6640700373487164,1.7629002523076407,2.787577955242839,-4.202088509469492,-1.5056028427136574,-0.0394656885515875,2.1374942132255534,0.06220136349505839
1.0694168595773197,-0.8736965331095843,1.356995060179933,-0.5082499155905971,2.039407238086408,-2.9577214742728044,0.16760735652058797,0.7761763182706711,5.158794734466748,-2.260412306827571
2.5112621488048856,2.8141795475756846,0.10316865437014845,2.7523908272706863,3.1858852335552372,0.054161083451443215,-0.9747126446851586,-0.6860612735972884,0.3862374033066655,0.37554232465905574
7.833729881043698,1.5506256893720118,4.681320263843086,2.1897676325548616,-0.39178668265207306,-11.830160472107588,-4.470756851543234,-1.3849681527547233,2.5666112198783684,0.5898674402961616
3.3057153789100355,1.9807256556387869,2.221282515003887,2.2498650314668227,0.34502793775582274,0.32170268128371315,-0.49225857832265674,-0.0402379149929451,-1.9762580950551794,0.4073991104286459
0.6515151101365547,0.12017600919593831,0.04733389804398387,0.3859577853137035,2.520403926559919,-0.19877866187168092,2.0388650675923836,1.2373100172289164,-1.1737131029426244,-0.33085034978287176
1.5706479190604714,1.9519413800014895,1.8173129081801913,0.9068375091412668,-0.051668218653625586,-1.228479290533157,-1.1554926846281768,-0.23773746387514988,-0.40068225519025963,-1.2592353829496412
6.240832262478538,2.0457590745769783,4.520590631882954,3.344664209469137,3.2465011482901076,-8.75942110210296,-3.8931455632063603,-0.5414783356119169,-1.8067480727339436,-0.22410245885842028
3.2339189279745995,1.0587597537027844,1.211139619651602,0.7143135289847931,0.06889445698302255,-4.298522384728366,-1.8485999312686927,2.398116553377874,1.7468654490354254,-0.44793349858815007
0.39209209934380085,-0.6672147937404237,0.2509928187057331,-0.3638771885593236,1.188422420326504,-0.6532122686199728,-0.1324525561169763,-0.3681638045887104,-1.3212857077693796,-0.11849925324742508
2.2810166140554866,2.2028227057443606,1.7420431424002325,2.1385697297816972,0.9751884370130892,0.6160855264116964,-0.6411126036381487,-1.302737545405844,0.9531640343404908,0.3626464745178769
1.0744561897303055,-0.15909323005387782,1.4670056360067931,0.6352199396353015,1.326247822274531,-4.3778524807467605,-2.607369918990034,1.7005321047678446,3.608741725522823,-0.7929648666652045
1.0235521612264395,1.470407177529483,1.4329925841847668,1.7796078777805335,1.8655819991058253,-7.447881576808385,-1.906343701307246,0.1750132557744971,-1.6636393859495164,-0.2653822218931536
2.7685428229534863,-0.47755347059567393,1.125359761594196,1.0294390329710108,3.461237620297295,-2.629595090600926,-0.9346529457193113,-1.1761269154821357,-1.0118248197440844,-0.23228252338137495
1.5764237767712244,0.6534594747258307,0.8802259051335175,0.7465883306654504,2.401821549968308,0.0508339162640592,0.1768857181485507,0.09578554124919426,2.0289189391165987,0.44469358555019006
4.686458829815983,2.6043911166055222,3.2826083845425353,2.566873424522792,2.2973448081509327,-4.462935481147661,-3.9802996389507888,-0.8685885492757168,0.8847514467252773,1.717660468210741
-1.066891943051871,0.4460613954240246,0.19855572325455362,-0.03599898059692952,2.8475088085944162,-2.225022365473848,0.27201543984693943,-1.0543602564146728,-3.1395441022980823,-0.3223346452891899
3.2607159606498675,1.564569334420944,2.140303290182845,0.9656201006065961,2.653921212412278,2.2342765028536267,-1.5636422124393206,0.19514122194456482,1.2511351635157673,-0.18768629039409368
4.700079565454486,3.8390062124783757,3.3936607311210993,2.8998349356344177,-0.19619370156191884,-7.02051650661763,-3.7768091148490655,0.8587563584500049,5.46657331375921,-2.0248416750464777
4.1806189235611555,1.606368711359566,2.295460463994909,1.0823319334785015,3.013523357679582,-3.8377309579824543,-2.408146469908597,0.47418820167724784,2.0130390918038503,-1.3436435549610384
-1.1991197192944483,0.684152836896048,-0.48537745079548444,1.495841940055008,2.4017781162747323,-0.7313948216520576,0.21996590672687666,3.5701786928766945,3.281535492431281,-1.633440105301632
-0.9948237167437334,0.2418146717102501,-0.9616431384978125,-0.024320802845949396,2.926641047042136,-0.4552322632432677,1.5092625447790673,1.6180184035657206,2.9082607251994044,-0.9079345353480759
3.865111083337222,2.9318308928558037,2.5776635620384525,2.8308567783840806,1.6864916947897273,-5.653903558051488,-2.4042088998833036,1.233874426401741,1.5466353268932638,0.7843906484378442
2.7140255043298542,2.2619044945744475,2.262908290310151,2.75573694550423,0.7421298926383879,-2.649124876180812,-1.4943895791990787,4.235806227379733,5.9390021179653845,-1.9816895195325404
-0.8086908146559283,-1.2487811050678421,-1.1372089349968366,-0.1220036478420361,1.2809450473990331,-2.0980163859681022,0.05785944388617176,1.38871389084406,2.7133658720429046,-0.8843625057027539
3.455333104092436,2.1221154566033253,2.738152751024116,2.346607232901038,0.9633791060123515,-8.667303040044155,-5.08296635167795,2.436290953581011,3.833353361480058,-3.958474979351686
4.054052316231596,2.15260405136279,1.9310487913507077,2.5455506450707865,-0.24587244610418346,-1.9296501487546118,0.6060553137173076,0.5247815780382263,-2.0543444764993946,0.5455443715538015
-0.3444445867991797,2.084013029037952,-0.41319160027377116,1.5815671948615382,1.701550685874634,3.3214888230303803,1.1073679476553435,-0.3277138573403097,-3.811191087485323,1.3770747969392465
3.8643939980483886,2.9842078790077817,2.933679071061717,2.995209862911489,0.1653093928588556,-3.7076944393194076,-0.37209032006333254,-2.3595760479689583,0.32189306404491413,0.4697298737404858
3.0051705323328433,2.474262735532905,2.2018433349075215,2.6541327547208424,1.4673280598440894,-6.794538347227183,-2.7689430010771092,1.375986095497281,2.035917216537737,-1.2672206031366426
-2.0390312161015114,1.3141698484520554,-0.6379710439841204,0.6555533544749574,0.06872640187208479,0.381924714273353,1.0904612666640734,-0.7757305241757159,-3.0953114225539893,-0.7812891550346872
-1.9776019978296646,-0.529148221056764,-0.7954146076827996,1.0101224367832922,1.288674148417209,-1.4214237223053008,0.5425142150067166,2.838200644309449,0.07148512871339702,-1.4644312210611548
3.456139109179051,0.6536621108813513,2.3716509402298938,1.3506624390256983,-0.4989853315907725,-4.389821653996635,-0.7476635702051697,-1.3856478698481665,-1.076361128649504,1.1042266145171888
1.2629067663926998,0.7815612423283662,1.1596000396156458,0.520848746115933,-0.5643113325888853,2.004704363206454,1.431830280401205,-1.3564567274864423,-0.7704941085691281,1.462794990264604
2.270946030442514,0.15191883379697949,2.2471902940135724,0.9713703781834022,-0.5572351103218415,-7.054750552536459,-2.9481568963300986,1.9454437398034776,-0.23958356058329283,-0.9001857235092017
2.527472200123752,3.261938709242278,2.605767010362471,1.0276855947298382,2.3549100983303846,-1.9376504395222593,-0.5910473290079894,-1.5978493651325658,0.21644989330124942,0.3528909775365593
-0.4864805247706036,0.6746594513750469,0.11196712720915895,0.9915738409594987,2.425787193263727,1.2741708180230047,1.4379637544947173,2.7968022389226674,0.5164106840219476,0.3308915210770483
0.19925401119711866,0.7656041314069058,-1.1533511283302766,-0.9005068552802604,-0.3364042484952694,-2.5159210985934886,-1.4637317995254153,3.3655772732590803,2.8374022475091754,-1.7881751867203963
1.3886982324074844,0.44359014483996395,0.6631491879971644,1.3700052381967347,0.7302862837549735,-0.6367871784116648,-0.777112174046815,2.451119040483472,0.881310468636615,0.3524137791795926
0.10184954229037664,-0.4659655045748191,1.2962603037291942,0.8656176223809651,3.381146702024245,-0.11242488851856991,-1.02633495905396,-0.49373215368857337,0.5586285451783035,0.5411700227910483
-2.9230672746751476,-0.7569336065605943,-1.6980895609656779,-0.11791164022430556,1.8283755866499214,6.780290341818589,3.1919425157753425,1.8182710748872952,2.475409988836503,0.9000528704931954
3.3594898417972643,1.664724952310253,1.3697165338273682,1.7939402755593,-0.30521365983320525,-5.6534153523739406,-1.593330493212363,2.2534477763091143,5.637181254547182,-2.1424053732352397
3.691337161878449,1.5006802708469653,2.3629069801544245,1.8172700515204574,0.9121986054659692,-10.071772736068688,-4.505800295409732,0.7815336780247534,1.230079901949561,-0.4314779107228794
5.713587846612408,2.4034084342027473,3.4131445433394902,3.112651586470766,0.34181200090220987,-7.8340371082272355,-4.456950249485555,-1.0582383618690556,0.8578016615954251,-0.7186705679948155
-1.206692552517044,-0.854904423970881,-0.5241843360425242,-0.5634469070713778,0.564713280795897,-0.23585127678205509,-0.9340016884382032,4.288643680443975,4.681651649203401,-1.7599228782914078
1.2574549232061716,-0.5346618162774184,0.8706237771235872,-0.16694299801195245,2.7938166323368874,-2.1741296200702553,-3.112519372751403,1.2607774106665666,-0.05486595113626806,-0.24632249534196324
0.9609032980178531,1.5588725866398612,0.6589975848710891,0.9868042429696977,0.3402540115922592,-4.7307104598206475,-2.442243918455726,1.9122926647595944,4.1540493729394585,-1.9915982770703113
-0.5040860246352034,-0.6630621485179161,-0.1080004712449415,0.23086797775001533,-0.49188960920447733,3.892886841210614,-1.3899313361213994,0.7578293476399555,3.5628109000926833,-1.5915636622186051
6.138792801254017,1.7985296928299597,4.189061258861716,2.901715787434458,2.272503505538051,-10.327414217842291,-3.972505731475044,0.15320677379107228,3.0423702729444595,-0.8794745293259808
5.847888904299295,2.3835069833550446,2.1516338987132837,1.9450756978852919,0.47480216338561276,-6.427859691951408,-2.7292542568867,0.787187792453633,0.4320539960698881,-0.15370303507932376
1.7366873342068205,-0.5741565124864155,1.046721906974162,0.3972433287736721,-0.8234868470372936,-4.021694546707393,-0.2544455323386443,4.53675953122859,6.950581085664729,-2.0083762107143386
1.292100069650901,3.6666783675716452,1.662306744792572,3.1910102024237688,3.332489623535176,-7.827002823634221,-2.227387694864566,1.985967882119096,6.338443473347165,-0.702155931924466
5.409530945462517,2.556444531640474,3.8665946307867562,2.7607533157179223,3.299451024626255,-9.757315416158596,-5.266316892919691,0.9069626752108759,7.195034959620027,-1.9415220621821287
4.9012302075732705,2.9767487859926205,3.5654906667131283,2.7637181590656668,1.5609141182497814,-5.708502234662754,-2.988127775766275,2.2037233049028564,3.318533274652268,-3.3312296325796282
-3.3174593024360606,-0.6578998256674614,-2.6921304337861796,-0.9945735241672636,2.3423620280482935,5.046454904912377,1.182993380478001,3.286302682396434,4.745106408120502,-2.2548197860746235
1.5084078994455845,1.2685296960181505,1.206903129695958,1.1619135837112142,2.9010059977722866,-1.6103123423584729,0.05406849510720094,-0.22434415722150142,1.989933812222068,1.1779189471250209
1.420390137940924,0.7943221388515349,0.2947734858114689,1.0416499158331436,0.10067152108776689,-1.3992396189631076,-2.887429790359045,1.3340527788783927,0.5582157001479171,-0.6730877609884415
2.209636008395528,0.8325496968587903,0.8639609438958519,1.084636735816538,1.159903871060148,-3.0712654425272987,0.5831266771074688,-1.212748119178801,0.8677413175739912,0.9263906956212512
1.3129712293622748,0.2739847030687813,1.4053277493534704,0.9255644205123772,0.9018053459673585,-0.024643561162314143,-2.0178665632165775,0.8814052239248226,2.120841014744019,-1.0274149432771442
1.8285507503090739,0.29010881027705465,0.7634731196368424,1.0271534491583978,-0.05351447643649909,3.3046979279336597,-0.45697975762735565,-0.4597979384763513,-0.5980132592362063,-0.9061218055144648
7.282328563791779,3.029797658326415,5.377450453673409,3.2438990334615374,-0.8196779252929678,-10.166639345579938,-5.639705091859612,1.8076465056365223,1.0803623500176305,-0.6363633244214725
3.4618480681831283,2.3830018602639673,1.4675232318960474,2.5384932876619755,1.867125407478457,-4.589594070695211,-3.0961038766341167,2.2684740439643543,2.722776412809636,-1.650100079275561
-3.200082284757007,0.1647398317644977,-1.9741508175139848,-0.9946739506215339,-0.5449537860764284,5.58967704663807,2.8668615745081194,0.3469470246113736,-2.7846411442375247,0.1879610275565111
1.805322290723734,-0.40985642166778213,1.8493975136940661,0.559293533902961,0.3658392496283587,-5.167587004200455,-4.906373346139038,-0.40024075052276986,2.095556670260931,0.34981908428557
5.3834306932512,4.2482466364023095,3.427825222392911,2.53297751360387,-0.46031841273377694,-13.607928546883336,-6.845934976567017,0.8770672964046906,2.442907753854325,-2.3640506212927637
-0.6798932339500826,0.01198793031478901,-0.8630539587353582,-0.2960529853217905,-0.3128520943289723,-0.1077966080519479,-0.054736976627787204,-0.5509856021409261,-0.18618008671440267,-0.5010108945439171
4.600482263553302,3.151459012851843,1.9883581149687264,3.2909693121529386,3.1641628830716373,-3.7465255166401428,-1.4910375977357067,-0.9194711965818454,2.058307005287082,-1.0182234294400236
-1.3263031420787503,-2.8487544464319776,-0.8951186320980855,-0.586680785038042,3.0576470611937214,5.222624672879557,1.165793655389817,-0.7806753658258694,-2.202298029000016,0.20986373846555575
1.3795998188520506,1.8247672764920135,0.06743571323610884,1.4053263226266735,2.3094148502807257,-4.22418375266384,-3.955896556920316,2.8805650693666545,2.489145699589054,-2.19624264670849
-0.6610858098676337,-0.7592794304382396,-1.0968266102717736,-0.765687158381563,-0.541519785991686,-2.114984103728302,0.0946310720304897,5.870808430535339,8.388788234893427,-0.7633315679903216
2.58739751521015,0.3680768440211063,0.6625729807678397,1.6339450237310977,0.014017478438127062,-7.092431041353375,-2.3948337185162973,2.827422436505389,4.721025641525357,-2.8246885173900007
1.82767583726741,1.1573547456512456,1.9072064014253496,1.0959502656247948,1.1730121542985454,-5.012083632297679,-1.3702902347366852,0.05652838203095145,-1.7583868448783015,0.7830355300753402
7.511962145953828,3.4298937986996343,5.839344521194139,3.3111860361758234,1.4582250692200889,-5.414672700535036,-3.7166027617693267,0.3378575459241343,-1.8833046436980296,0.5841608940175603
6.9901610335519395,1.699542304986596,3.474288125754522,2.792230249586886,1.0366661139987356,-11.83025819652153,-4.118272556523865,1.55013603596462,1.0496131311831827,-0.47644026222760233
2.895795447027956,1.04489132781565,2.7458448041189394,0.5545028868281814,1.1616719909744457,-5.1748430877179175,-3.7998693399006096,1.6570384647199115,2.856510809744256,-2.3819836436384025
1.1572319138545464,0.3776905503462052,1.9599410417596106,-0.019932152927726654,2.4770058859950854,-1.9366180458152138,-0.38837764020515375,2.122337392803538,0.07639297838328972,-0.5004720380380911
2.0239252797404834,-1.9139910295076017,1.6124960453491137,-0.4743028539850145,0.4475364714604324,-3.174895616262166,-0.7414789837342005,1.6327078044560746,-0.8924491030063909,-0.46024137807593885
4.3412930990960925,1.5537817497145405,2.7379999603726906,2.627924801588885,0.28764713044654755,-8.395864097343132,-2.994959217454837,0.4577224894451788,0.0646096704593966,0.9668608539455367
3.2425841577226797,2.5402009845752533,1.6397865755997383,1.4877015961985744,0.2149034081722494,-6.889892512130492,-1.9068070705678197,1.038916540515436,0.287713188044429,-1.2808816156347673
4.384399069138051,-0.20484536430818368,2.974044398866313,0.6030706951566529,-0.651137702577707,-7.884988878856605,-2.468552809983878,-1.4512378181665397,0.7746208865240242,-0.4840546223934602
2.22319847555469,2.368783775810704,1.4617856868130978,0.4673266917242067,-0.3361038412469102,-4.6688084400055025,-5.514888049839879,1.9033170869891551,3.2894372638104223,-1.1239500759890393
3.759708433167683,1.3498383899770192,1.167260465843924,1.8072159155955947,0.390210687395369,-4.617654465806458,0.4106957566560062,-0.614372266390381,0.41482792778549465,0.3515100205345006
4.56018136669703,2.1270131497916474,3.3559362313188235,3.1066851456740876,1.6783613432080013,-7.947159417974566,-3.300713459170668,-0.26858996981589256,1.297093826517165,0.00816199346443693
1.4282962667183476,1.3515598376007536,1.2562702869794027,2.1860516496194933,-0.28746457106519074,-4.1812514170325406,-0.47153682466554037,2.402933167100599,3.0615418923122415,-1.8703215763165761
2.1171069243367873,0.1510319011752588,0.38939321116407644,1.015093083984862,1.9931521790006066,-6.021150991289446,-2.221586073954511,2.324426850833883,1.6753052064807856,-0.5617537000420151
3.686768779768031,1.826575674218507,2.4277277389472247,2.1768756059337844,1.7975063198658194,-9.289663087748599,-2.885601489333843,4.373962493001736,6.420664574885206,-2.4837055608996064
-1.0012796803881785,2.375870156311691,-0.136596281641138,-0.2154549943532511,0.4108845514605488,2.801034278248699,-0.5309707455936286,0.27916883379540536,-3.433594035861202,-0.2627469727251599
-1.4238841738061994,-0.9378626420306287,-0.9373905474720601,-0.21084757930789222,2.877373374513934,3.2447942627330097,2.592025376642483,-1.4040530237247522,-0.2769673795743121,0.16898112958897946
-1.6221257341223694,-1.6638620519338456,-1.0680784991164085,-0.6239641411538839,0.46033309143634615,0.5131250102983573,0.046382201614964425,2.3302506578173516,1.2221020335313426,-1.038054487406046
1.1361737804232788,0.9641778039758079,0.3964505725985533,0.5016614220879758,3.1390789391040945,-5.8935019202394425,-2.3358027586015457,2.2853502170083226,0.3274522720117877,-1.4082547752589398
1.6293496430910763,-0.9560572367186115,0.8739659534926577,-0.2429601518585217,1.2257208334912937,-5.822008491967674,-2.2456412432012773,2.13272065182542,5.567202960589849,-1.6630308606150968
4.419156446844271,2.0940068719511853,1.2311492858372475,2.004729836332037,0.14207838118899407,-11.374129389977893,-6.032100773512427,1.2479756647912383,1.8220787286277558,-0.6285626783289195
-0.6789875504678758,1.5910310495342386,0.01962559471051977,0.18960588228109332,0.147619224114951,0.6205248967735971,-0.9938968245325056,1.967974377969538,1.0354196597977368,-0.507961251507676
0.8501201067756694,-1.120254513963325,1.5669922564367444,-0.4109306730373501,3.307217896846752,-0.1541107422596809,-0.45044396831793243,1.0073899048908417,-4.1155150443833,0.5380343820192274
2.81894634923931,1.7687742919788714,1.6845993493986295,1.370853376792291,3.1444925061767908,-9.540245705256677,-5.330828822845026,2.3785184778689823,3.251496542382706,-2.7279669920410003
1.4197602243803709,0.45875457680966114,1.1506523915885978,0.2988831310433948,0.5477191660887728,-3.7599193816828596,-1.7165115827080797,0.9230982705001984,3.4973648102213635,-2.4508778228578327
6.395804042614658,2.5470489356714037,3.822038333954674,3.246278623947008,2.2862657008726206,-6.719224237520944,-4.715522929246849,2.1494456002450764,3.346744348216271,-1.0414431803904363
-1.186648021442595,-1.1449075743953705,0.03762127522565371,-0.08773442749837967,0.186684517857155,0.010916020109288382,0.919653447922287,2.201214203518122,4.946109998683628,-3.2159961999875413
1.07881913743539,0.7815141387259619,0.5211670452029543,-0.018332784615853748,1.6957840858226279,-3.9663642523207194,-2.7801024314196594,3.662981041157478,8.71443398921276,-1.591283676419225
1.5984709919390276,1.361487271230236,0.559440341277241,0.7122350306012784,3.4563135865130867,-3.0803624801381444,-1.9314776775808822,1.8802462941556193,6.208629251713827,-2.346659192595701
1.1618911998062582,1.141337127925526,0.8996331206341324,0.7948157874175004,1.052774414945374,-4.4058416263056825,0.4559089540846307,0.9333143514724509,-1.0676074181567163,-1.2275610258839476
2.578025008263111,0.6460872203701366,1.3916069056878322,0.8101429299505767,3.4264154514852816,-3.630239890084289,-2.6572247583976853,1.0008436129618976,-0.4666052571522904,1.3640547877686724
2.5017988127769817,0.8895825017180905,2.2375795989120193,0.47839125128740334,1.423317634896792,-7.164693483879896,-4.485030711530829,1.716061591034228,4.84976814223048,-2.839619202874468
3.0053966608716403,0.7986251537247467,1.7502134868772228,1.4742997404400944,2.6294766598374677,-4.533681987763069,-2.2755140046489757,-1.8441303524452408,2.2646093814925448,0.7402896785498432
5.646372146385837,1.7523868434076773,1.5383256501935525,2.6115834049516167,-0.8368909486365539,-10.380442509725741,-2.267709115875488,0.8633363916309562,0.9444935154317002,-0.8682340175724292
5.0374356983066075,2.503835923742341,2.7491702091682737,2.303481687683081,1.0645795394079527,-5.281365970048971,-2.3548810131730264,-0.539998496133493,2.343310003625588,0.9112071792052454
5.672679800302321,1.1761716559097715,3.802622813737333,2.555798526964545,1.9493148656830561,-4.976567152818868,-3.0007104078128863,0.19063100046787035,-1.070877841719323,-0.1874844873278421
-0.22381888801162525,-0.19642766953851432,0.12967886934258172,0.1455174748519481,0.9527464405090387,-2.3042790491239034,-1.9366717585503537,2.4780478520051146,3.4678314052834454,-1.7381828035655054
0.22416516956524224,-0.41004010846136113,-0.6249381287094755,-0.16847443165308262,1.2810138320719715,-1.006841754964672,0.04077782498805804,-3.2185460208355394,-1.5649197380852096,0.9362073908782784
3.7969253609993108,0.4670059570352856,2.8131716893044962,0.8312692803287609,3.461200596946173,-1.4673390333850604,-2.0160565786410105,3.980110755371424,4.901445425782108,-1.41689239071074
4.823856083976964,4.05661434779905,2.4405125005090675,3.459155845771389,0.6427032039867664,-8.070420271015578,-4.448991557248534,0.8704978617794905,2.828190597096666,-1.4053528559303745
-0.262595664214354,1.4509393091367764,-0.6674548807688818,0.9901493512876252,-0.7572931006870695,-0.09445608463966865,0.5557121255127444,0.341407408890217,2.5420378835820117,-0.45340693143631605
1.3131264655014718,0.11540460369389034,0.9938443256185205,-0.8015743789899108,2.1055484114374194,2.593726184357949,-0.04520068867607682,0.1711489718627217,3.468920248186191,-0.6146680330089948
-3.385709320510283,-0.1501775365776066,-1.7755997700058732,-0.057420270929527395,3.0828139976022078,3.772184633647796,1.0454114159740964,0.24901544413796178,0.7357267152802361,-0.8772815658592965
-0.25784086662990524,-0.8044400614019065,-0.414678359114374,-0.7014488275562781,2.535894695735173,4.506426012832985,1.3172917734308531,0.9003031624171443,-0.817126566789956,-0.05306291549640514
1.1971298845760576,0.7525646163578439,0.19163071634647608,0.4934047829460557,3.1027963329444725,1.2183958476913925,0.9876537636649949,-2.2849053796728516,-0.4368962397567658,-0.47054677307434445
-1.4935087211782248,-0.5456950821965473,-0.2361790163710485,-0.4491692546620468,-0.3311222412429752,6.614787188036342,1.9234230587675993,0.769238703808689,-0.9230837242795725,1.3333231067238183
4.184709947167209,2.9343492340113375,2.059090043697704,3.215574948759677,0.18292556662652837,-7.075739051495065,-1.3785882416795958,-0.8708944995776482,0.43385724593508274,0.44120088737720736
5.4424255121117575,2.1184642202481996,3.2412131045020085,2.1712660812384126,1.8160926378832207,-6.552082218366042,-2.7548095674302626,-0.4285477319675457,-1.421726045190884,0.853788379140792
3.3422988138559973,1.0564232075772528,2.129047831515734,2.8136472793845204,2.0623605432883414,0.023071173363835573,-3.013832954113407,-0.6414719686379756,0.5374198162514754,-0.6394302465884265
1.9641710492459419,1.101229072591166,1.1130530678284818,0.47056489335949947,0.334805315205845,0.3079764985116158,1.376883453312446,-1.4104585888148895,-3.65063629039641,0.23170699037556422
3.2506473643135796,1.9049780647808023,2.4647878765967,2.7947691465277775,3.2062522563268114,-3.879388224885893,-6.056618955972805,0.6477844132058694,0.02704647239637616,-0.8989930952756899
-2.488927656902632,1.0772913204903507,-1.5236098131790279,0.3783442264196619,2.407657478329204,0.4819732488378272,1.4656599572450477,2.015348481135056,2.2000366439403822,-1.2750917597624898
0.3520485006117643,-0.9536383168739021,-0.9791921084742442,0.5175120827382822,0.40552111869459817,-5.37158347801453,-0.9570140961449854,2.300549612889451,6.051772919621741,-1.8684055925768202
-0.5163784415293305,0.9520061530678705,-0.40222838570717784,0.5196702497714629,0.6477664831769123,1.460606076279913,-0.1331717096286334,2.462077286824428,2.5939173989874966,-2.2827377849318897
6.970131949267158,3.680371404728575,5.041589148464638,2.321917050067353,2.4075421748378143,-10.054576998698444,-5.393436260835784,2.5407646519901186,6.415254628222774,-2.0396329557031674
2.6679212223046123,2.229575948386857,1.010463260302002,2.2204103822343826,2.16741817903422,-3.998211396100687,-1.165322011699962,1.0590007519871816,0.7953078492773752,0.06450121889820222
4.07461405374347,2.226457105620667,2.8339968486768314,2.669707726146818,0.10360217453189424,-7.354599986846637,-3.1860549037203247,0.8450933182542687,2.307734465699211,0.11695351073330444
2.477363986102057,2.7575140749177742,1.2663481579330071,2.442146993556265,1.9268869112260023,-0.38240874515704126,-1.2470004996000805,0.39448965301388506,-2.39269164434573,-0.5172159567582613
0.11871852828502158,2.0830217612932556,0.3467425842373667,0.42064527015817266,0.004253375050321084,0.707872835529548,-0.4351957851594632,3.0063810138625326,5.269292764339129,-2.494021490486302
5.300426955433489,0.9940744775258475,4.022187041327878,1.312200226841973,3.302539376879685,-2.090818005504526,-0.8469866489557791,0.8672052132324348,-1.174085050518611,-0.5206351534647568
4.472442621365807,3.1172456898222083,1.8019417841184808,2.9924679953546485,1.149782355973918,-9.71427090973325,-3.6430223369154735,1.4145265834252827,3.2201649753850132,-0.9942649846645861
2.6294307383668154,0.9057356501473718,1.2718073869245599,0.9191547323418279,0.7055597445064985,-5.218624627559455,-2.244579187958093,2.010341059283415,4.019232385558519,-1.952483747476595
3.4390239809994223,1.7227357586809133,1.364316803266586,2.200919644594682,3.0842543698954135,-1.7716831486801885,0.04688821974067814,-0.43265830676854883,0.21491619897600506,-0.08345602783392539
-0.2850549523460816,0.2757234349986593,0.0778164694588914,-0.15478741223095605,3.24801083378565,1.3732023072160915,-0.6138460297323747,0.9936645278390772,3.3799940435449285,-2.0835276787663526
0.363064526959066,0.47755952297823934,0.07473102351609091,-0.43496204292072493,-0.6711676511428142,3.351315889813442,0.17382862571821245,2.1782681596115707,1.5489553359631976,-1.1733148341428756
5.391337418113721,3.2703715193317358,3.9269894212201444,2.99318311040863,0.0973434072977446,-7.56098531324473,-2.229244933044229,-0.12639291871453628,-1.2325314220856818,-1.1136833448181434
4.192456156658315,3.7190888867085463,1.5876807441089495,1.55626392212241,-0.3123167741690336,-4.320653215368699,-2.9571486136017553,2.36771587325995,2.538201877631202,-1.0625752973887266
-1.1693144478303927,0.010914839485244878,-0.8304623186235937,0.32236462325880266,2.965793734307169,1.4444097391207875,0.25557183040418174,1.0032093350254339,1.856537468523811,-1.7184359170916632
-1.6246226299762012,0.10914690805179698,-1.7309908119810455,-0.10399124312704833,1.0047757500373882,4.032520500931701,1.501352195258842,-0.2368880527439584,2.9871293483349213,-0.9203291329228253
3.138382677298397,3.6329915431186914,2.239543638487935,3.3656523971222967,2.753667003552557,-6.8276991375826475,-2.5351132751704117,-1.5506561843810034,-0.61523067181998,0.39100214492183505
0.32723642887613813,-0.2550867760723303,-0.41626917548881165,-0.5403005544977635,2.128215530569794,-6.313608793573382,-2.582899174596155,1.7106440499606024,3.7589753834687247,-1.3311351812283294
8.871924086521968,0.8929601160485052,5.401903319661423,2.7979629855026693,2.7438635708734385,-9.356507881991174,-5.731455674643149,0.934737501472,-0.8522388562295585,-0.008383287916221737
4.707008561045369,2.4204085819203014,2.666466522803824,3.0331559350464916,0.11453119303329728,-8.187578165058046,-3.4030778868553826,1.0769785431479393,2.4050344438535647,-0.5825384272487556
2.72878149439231,1.8308817974036464,1.2807795484746636,2.4383676133157537,3.102031769660403,-2.4943721833733985,-0.7413572032415927,0.5191670082530424,0.012173506100535882,-0.6270217539156353
7.4596843812965,2.958310610248068,4.874902183903883,2.608853715886776,0.32645660464322845,-13.29091133219601,-5.105252982614801,-0.21744087801486178,5.935903738323921,0.10554884800233494
2.9780385816852704,2.072159803144791,1.3514274544939848,1.062339709131256,0.6074538053744762,-1.0247275815629209,0.9459099868501664,-0.5412351962836098,1.71729606374948,0.8912273530850509
2.7191719412919113,1.0446363938562675,0.9368622109155809,1.2736005750095476,3.4357479959207486,-0.820998292422164,-0.7576001568973425,1.9987409392877988,6.531154473518722,-2.229612075497682
-2.5443046391970587,-0.021350566231870746,-0.754500605985126,-0.7095630440308226,2.0322595822658593,2.9230154979627487,1.258022315306371,1.5586858716900087,5.816295847013212,-2.0648534199921604
-2.6574867184613873,0.2372354847980479,-1.4204856895207543,-0.8662307435792627,-0.4024859656631927,3.0493545873857038,0.4619326030372586,2.2128694086954903,3.2888338242242683,-0.8379086934233679
3.2610117002006285,2.3789079349671516,1.0289371837749537,1.7904286619839382,1.2355218192351232,-3.943906250233457,-4.562119328442952,4.446319347426661,3.0450970348106043,-2.393086763064843
3.880140833645439,1.2847877272475952,2.5654330004693935,2.023314224802487,1.3322696376500223,-0.7635264675628322,-0.51663061745881,2.91529781313232,2.598689585638789,-1.8234942320165834
2.5224608419926366,3.1717961743314262,2.0313635396319167,3.424161638843591,-0.1326714207794325,-2.7155131097722416,-1.3582380943740309,0.49376170458602175,-0.4401505718062333,-1.024022571877517
1.4184665312215943,3.694218813790324,1.4620814846056667,1.6923866730706485,1.5811542503081926,-0.8232464695055026,-1.1370042464011227,2.0077420608292096,2.255927744299244,-0.7946087746310578
-1.1686295148315342,2.535662417903311,-1.1901992149469969,2.3136296298061603,0.08538641250418788,-3.7920318052240995,-0.6958010467174328,1.1282767037419266,-2.9366325606077854,-1.5037642349516969
2.80714149842644,1.5380559421882865,0.449701843571192,2.129189310950155,2.9163903945766623,-3.6175901299311444,-1.5823683939307898,-0.332576312619449,2.5707520905749393,-0.6182642001489941
-1.6518756729477662,-1.22328068126563,-0.14853326772534775,-0.7457308998521086,1.9013998734096673,1.074478364246651,1.9644250533927272,2.0127148218273314,5.0006496543001075,-1.557049574219762
1.6925631088566746,-0.2590873447260805,0.3300618301661186,-0.5325807808716143,0.9467087279557977,-6.259699495602469,-2.6764836886063135,4.030442483143636,5.601393350916361,-1.4053796079610477
-0.7242488934554465,1.0992787012641478,-0.4562255997736604,-0.1188824304070234,2.858054904222865,3.7233387648731546,1.9805748299610255,0.3292806051392073,-0.3468682208213099,1.2269583936824202
-1.3121479577174644,-0.5544647860436054,-0.9798697205648172,-0.5072531891066168,-0.6224540023335237,-2.4277891307616786,-1.298108004974443,2.696249618353425,7.0383887614747,-2.564898959293203
-0.22088481333596496,0.6124316783521003,-0.20308378155970103,0.7654408758324585,0.7025706753282728,0.3613866674589521,-1.3925297355922337,1.5056296903465798,5.463920835130806,-2.1601792777349678
3.4611608313831095,1.3938241408314063,2.230769126317351,2.2084088015371663,1.9443323507252357,-10.9228648673575,-4.747827004293365,4.445382752536884,6.873416338046126,-1.5867200077828598
2.36249121256608,1.9040898147742398,0.9888629880270762,2.3665691716039183,0.4701536394468544,-6.698577904482012,-3.3112621978831065,1.0566185431643973,4.559998627405806,-1.0104121083239628
-0.770784993396714,-0.6142645748181684,-0.8570463816547064,-0.28080026677093706,-0.13386719626079713,-1.0882882042153037,1.5274157051289845,-0.11180418793236734,-0.7996500103794317,-0.22330888468987245
1.5758229040894551,0.3510275529667901,0.6415427155800647,-0.44822805983877223,0.25670064891244193,-6.181849477078908,-1.0272827112859093,0.6849476693113139,2.246455420950917,-1.8150803583604689
0.5544646968173743,0.1938981684213791,1.0032859636569376,0.298359455607935,1.0742680708683316,-0.8994920947325786,0.03233263772899225,-0.44702798431104396,2.1383141952133116,1.6835241013796747
0.005269220739936418,0.5869642934963583,0.6111652119140014,-0.0022639394518937372,0.6619915833914503,-2.660707776225181,-0.050955220845306126,4.0550240436480935,8.655772926285314,-2.580506158698934
3.7224779643647308,0.4448241335078495,1.9826269322903256,1.416461555610331,1.090757354244353,-8.131904348174062,-3.82783880286179,2.2906119454900766,2.004057325794319,-1.2307552340442056
1.5587860295486724,1.105909520049294,2.1223066579247716,2.6549187686859703,-0.058978376849577296,0.5848398314227878,-1.0989079273819287,-2.8244671489702418,0.46552382383303653,0.9391875721482922
-0.5663701850523554,1.2712097640519433,0.5106767123437254,0.6320658252914702,-0.990331283819725,0.24887461675617628,-0.9819212675249188,3.078341372501016,4.853764051212161,-1.9063331576753142
4.520329829728064,3.13277834554922,2.305069114181752,3.208678738666743,-0.9492168031971504,-8.307197869276225,-4.346809042853601,0.09296399437194602,3.8871533273939667,-1.637718925097675
3.5870943127536776,3.2836383643996596,2.9354664252618208,2.7556230384136313,-0.6606123820895891,-7.655696929477962,-3.6960170249745325,0.2877320621556949,4.579588069496376,-0.5574828470029928
-3.418234428790251,0.19272665133091033,-2.128028979394774,-0.06460805414532589,0.29459956505835727,4.641389434608421,3.5744854937883233,2.7845836985339996,4.721660888474948,-1.4986901870363585
-1.125837274796936,-0.7807932584981331,0.0024849996522901398,-0.7461582672155265,0.9493101668620789,-0.9091122707896081,0.31065049609268136,-1.0920929720906114,-0.29153053271745366,-0.14353094951412385
-0.6560326840658063,-1.3228598359831416,-0.537420156713177,-0.8836431506520324,0.4313602233420293,-2.3309668341702707,-0.4230101680513489,-0.3832113738274773,-0.2073119841158921,-0.7550620675507704
-2.127580177314376,-0.8426605948135371,-0.051845734568965594,-0.5043295025727921,0.06392334990304982,0.6352417687313827,1.5636115160776711,1.700385191771968,2.8378470056881993,-2.549064772609912
0.8739580851673099,0.6000865366443172,0.3914134441852427,0.8955021278722581,2.1318657548852333,4.26289998608509,1.1871819004343152,0.04617234540676818,2.4872627872682584,-0.8245134859718293
0.6867493411042918,0.5398716227273392,1.6931371391277457,0.531079197608606,2.6732649031512024,-4.8711946157955754,-2.406665226329603,2.634757508904304,3.9948176940232565,-1.816976367191279
-3.8674766966515453,0.8297855621154709,-3.119774602921338,-0.3755070901253471,3.1559771177108518,5.294042314434241,2.4364553028203653,0.3314395165923165,0.20741088070789881,-1.5193208351434988
6.249908871435371,3.272392418135334,3.8732211392127223,2.4614390834147972,2.2012757626340074,-9.494700466598752,-3.208704003222311,0.37366526190330895,-1.435412996701695,-0.23012812215820153
0.2135607612083608,1.2151336085484692,0.2203047771536356,1.8458905561962218,-0.7902409186583597,-6.672165366106373,-1.1451947965406952,2.21717345438377,3.993321403095099,-1.434560931920935
2.077466829524662,2.0417488219770035,1.098711107870794,2.2432419278764297,0.18366631907031072,-4.575286854582104,-0.8790354445806734,-2.480906086569971,2.926030975489544,-0.2782369459574452
0.7322991201315562,0.1639614005297789,-0.46767833535993664,1.2860272926220642,2.578548047376183,0.6784113134005807,0.4499645954737078,0.5446450542852095,-2.2293100008198565,-0.2619024144344577
3.84277349890553,1.3145780328357353,1.960154521242418,2.00319510744987,2.0789743860642047,-10.758609396439045,-3.583739466009912,3.046001875700922,5.325716331222844,-2.850851233193531
6.649498832794086,2.510427668552299,4.0221496006743696,2.720957773145696,-0.14216861806555858,-6.497244898927236,-3.7374756203618857,1.502942938073833,3.7188863900347733,-0.5306389747853366
-0.3324352557748418,-0.42839000990947135,0.9179194417349088,0.041684078677101555,-0.6646008784608706,-4.903154521670102,-1.2963493125510932,3.8723071370011235,5.758548615259801,-2.449035209779752
3.347345289765012,1.5051205057590533,2.489156093686283,2.5819926360913756,1.2768093085369303,-7.152917106278633,-4.242266572366231,1.4375406390935552,4.517961189766254,-0.00035767457647103144
-0.10260067070898791,2.6189018499768215,-0.73270412248966,0.7961467472645261,-0.15908167430207898,1.2249207921091307,0.9110078526996224,3.1812566473735258,2.1769108898170715,-2.2689218002649323
3.5467698536899768,2.6393241712242776,2.426803100960886,2.946238551410155,-0.09020324802178337,-7.676770772845497,-3.2597768160897798,0.558544434428656,-0.9534611136047212,-0.07575060599225825
0.7885779215469244,2.275392021667479,1.1302519673497278,1.198493973334899,0.6825763837001919,-3.598498858094747,-0.0352559932932226,3.123658242197015,3.530711211598354,-1.9363927957024665
2.6323982562128867,2.4221134581675376,1.1962056307827673,2.7611241748012287,0.5734116380123402,-0.5260043689855246,-1.3082210246853476,-1.1222411215724875,-1.4654655423230771,0.7417074463908823
4.406425734658805,1.897024945850076,3.1465263093163194,2.8500837829449694,-0.5143797965496302,-10.891972691651757,-6.648744860864609,2.480070192475188,3.280133746358846,-2.333924312247529
2.216543774307359,3.126053172342078,0.8137352983187416,2.440824199433719,0.8302373856924712,-3.180695787980962,-3.517186353455511,1.8951098040662389,2.6520791968621813,-1.8413862110324741
3.1022363542476796,2.8632618105206276,2.780683300692823,2.3761124350822516,-0.09975598556607523,-2.017868476647959,-1.7781634450976032,-0.374766850607464,4.0089307616778385,-0.3676300633540949
3.106493456489659,2.1868794269452274,2.1414843135936996,2.8917356467370197,-0.7062788676799467,-3.999543873678684,-0.4427730798912404,-0.6057190439267743,-1.3668199993888197,-0.42284749015568585
3.9341878955051084,1.9355793764379243,1.8473278221468006,3.0587451279021876,0.07019092383559711,-5.177083035985048,-3.423857342199236,-1.1065635334121084,1.0453936227611336,-0.3392496072341673
3.4657010663889456,3.327362358912057,1.8776291879894484,2.6153202888473226,1.0162360618446065,-4.512489922050063,-1.1238992825843335,0.19915780235653252,-0.922062117877966,0.9370599796681602
2.6440062849382273,1.3405477549210805,3.0522262274241685,0.9904838670831178,2.3549687188107176,-2.926084523550072,-1.581683627659512,0.7299296056471454,3.01360133344922,-1.4487790419519329
3.582658120931131,1.8348771490552132,2.6728232966973087,1.7686589241656194,1.2559095721043816,-6.660143535495595,-2.4962414671095474,1.773586993956401,4.175681902888899,-1.944459670737638
4.765771976176117,2.7682685538388623,3.062404535200641,3.002649307873093,-0.28682915423846567,-8.87134261252427,-4.697597200489266,3.670083420104514,2.607449520344801,-2.404880881334527
3.5890562033397937,1.7325006113260555,1.9285529854731114,2.023713880905645,0.0065653953241324725,-8.079002798350214,-3.1937720775626914,3.8845130435473667,1.3859442097855272,-0.7097140351288144
0.7471832939613511,0.3908246971573697,0.4546645273080208,0.32724596746249746,1.6314014224653413,1.0593718262834906,-1.1744472918404578,0.5962669811095805,-1.4334359328215849,-1.0904347773487484
-0.7774949326589038,-0.9475288066642616,-1.3666270003239989,0.005571594169079264,1.7660565497971548,-5.139483738478983,-0.6514468741448093,3.0209054891769074,5.425785093072166,-3.0187532396458154
6.6822035305010505,1.3801957802776836,5.0354430278417714,3.0709131869820645,2.687618862618606,-11.018722487832722,-3.2295656554112924,-0.7962616973339959,0.809639620343927,-0.35849551198464197
7.504162410505155,3.5286790751098858,4.355962985891889,3.241970794578485,1.5415483818385587,-11.735882368255254,-5.400137608904098,3.3186853291668066,6.247978243338213,-0.8794997594227257
-2.7199170634681344,1.902675126382524,-1.7647760042442748,0.649895534003736,2.219656336684135,3.001509807492215,0.7833043153181183,1.8564445225908326,2.877624137707434,-0.04413833379505135
-0.11929053388896019,-0.5230987220736656,0.6464643990239402,-0.36987518229429883,2.7783858170808515,-0.5310230409676229,-0.0932680647293771,3.2424581926939493,3.003513157582647,-0.5500023322841304
1.3032466398489821,-0.5224531822530406,1.2274991292475983,1.9714483546380217,-0.09528157187198749,0.06268596920770442,-1.6226914585236445,0.0858716819201355,3.632736560051594,-0.9531270690924042
-0.21292399602531062,-1.0919935467653294,-0.16474589715937774,-0.5310060419882985,2.018031334821943,-2.7267029590535774,2.7985217426411335,2.2377627543680405,3.146626686488059,-1.3136645055648106
-2.739097773727195,-0.7131954854912771,-1.506003310147128,-0.1773545713766217,0.8066170563197514,5.294856244650148,2.3103976607508767,-0.07412232453506573,-3.647814716551584,1.3462015792594422
4.014558195295423,2.122094421063713,2.1562465401062783,3.0715648330330776,2.178893713335385,-11.803341266712813,-6.234884983323145,3.5714023521715643,6.402375083718192,-2.051615682613175
5.253975794494109,1.8391380402302713,3.4225221785917403,2.6824981233461913,2.6480602674178675,-5.849420545251335,-2.6455555044341446,0.5556583345101882,0.4871780719801625,-0.12792684599769413
6.374469441685686,3.4492671635679986,4.417200819505617,3.3980124838237877,1.5003334695254154,-5.792185251560432,-2.5245893063260665,0.35226364711888725,0.610073111760324,0.5658556128986172
6.645922464095575,1.7800706286781396,3.4841511251873705,3.2991436763545945,1.706076778590953,-7.537322352462198,-3.5704058657090663,-0.9479412540185514,-0.6712079169963894,-0.40516559161984583
3.926158689768355,1.8091341935986502,2.172396128537808,1.7449796412615837,0.6002578654127539,-4.315981088204005,-1.6354158307203948,0.15227611480238556,-2.6400277964983276,1.207506071456788
-0.7649730751924889,-0.14138046850748026,-0.8745400900355325,-0.4475682173765402,3.401958195198927,-0.6209193133698214,-0.49770258579119386,-1.040570374788294,-0.7550436327313155,1.2081384530366392
-2.875499619860368,-0.8129770953486734,-1.218071944572311,0.2650217102528343,3.310623198405972,3.2403358970426432,1.0619601796246327,1.9111763551092111,-0.9012431884460571,0.9531421006740507
5.681092411377569,2.10984756008134,2.8341346888172883,2.9841228742164843,2.9228786179629607,0.16831336147763087,-1.2282907003211494,-1.2651649203487494,-2.433387461795814,0.4177639401070247
0.5909336331179538,1.371921170703395,0.37100785066228276,1.0808968615378793,1.4120536589790822,3.491996614586428,0.004394203196680824,-0.10139163302612209,-2.892130694373558,1.1303704354125923
-1.4757539160081943,-1.1164035216093746,-0.9964019958377353,-0.80160272963889,-0.7276158955181196,-3.0868881964954396,-0.7306392930342952,0.8784829675426669,2.80381304097459,-1.4666598120263281
-3.995439485480892,-0.2653474994420818,-2.7490062028404743,-0.9296344293387941,2.1383650238236607,3.5328017264409914,2.1074294489080003,0.015613339700709883,0.8319556134711041,-1.4541115699668763
1.6195111428833426,2.701018958116117,1.429143129671205,2.1923273161656365,1.9097088075917261,-4.297361256762358,-2.6334422307965375,2.694806540061296,0.4032542998273527,-0.7413076296382033
3.7493697788328295,0.9932265599090804,2.8629053229512267,2.367565517692423,-0.8543416633796593,-4.751845691131916,-2.266925251808951,2.614580479336026,3.8971005827745486,-1.610566853770235
9.92329851213674,3.462097056186809,5.947349323504576,3.3043329127709766,0.600628624529782,-16.99808444985317,-6.890822213963682,0.9284084382263518,6.3362375250654095,-1.8599647710699825
3.869600524987969,2.2721698735161158,2.6914061770451485,2.5298432163787345,2.9489138671703254,-5.524999943963325,-1.2544336078787868,1.9910014032636467,5.461048121183917,-1.193947249011679
-0.39385693262006166,0.20032157539807444,0.017773446692066874,-0.7674556126066502,0.38559034289357963,-1.5239572250654216,-0.5395075433583082,-0.882326756185108,2.381946294252843,0.33632609622708176
2.9229377730225847,1.7050685028483448,2.079242926149125,1.3909999005566291,2.303693659462145,2.0070719891284883,0.3795843448721845,-0.9536843028990677,-2.4544794641592897,0.27064707488474443
2.4856487823813715,1.8328407016040573,1.4002580523725796,0.9452648136105186,1.153161948318774,-4.750142214794457,-2.201292282674789,2.016791941483273,2.7236753454140503,-0.7744384026346973
3.25656964394208,2.706549254949041,2.541713611820151,2.193925366968359,2.704179402410534,-7.341212160092013,-2.86389861610981,0.5282879515342174,3.5141857841108006,-1.358885832151772
2.057809901141879,0.8626008192384946,1.643708811897149,0.8510986204870681,2.896737329714677,1.0395750517126525,-0.08652478327795676,1.4342749824182681,-1.2675155139341645,0.11587278938991752
-0.6383176781316672,0.817672780662821,-0.529126368465448,-0.35620337593562434,-0.25020077448520106,0.1651052324360771,-1.7696948455286234,-0.5761251500946871,0.9694705102062458,-0.48467035984066287
3.137722513807922,0.8585858987028989,1.790298123588056,0.6562466183052078,2.8048048397900134,-3.1373011592113667,-1.5472855569088846,-0.025435747396127528,-2.6553420075683247,-0.9599562058807193
-0.24180041324542123,-0.5305117831357847,-0.49620003463273327,-0.5675561284679964,-0.37209814019279885,-4.916693237677091,-2.2899335012799567,4.28252163880696,4.9415630034560944,-2.0093859739974573
4.652194565744223,1.6907979337987828,3.5069241990533233,2.988889261259954,1.4827556175715713,-9.467866192871012,-2.950168074569821,-1.3000289563444114,-0.06089927197420064,-0.9094647040023783
2.1426430629966267,0.6883585240805149,0.6112293102079918,0.9523501279674138,1.0832192545201274,-5.939234468463078,-3.919714081486875,2.463433733392721,6.334951115754504,-1.5912466288176004
1.8432674316424826,0.8975186233994887,0.2772409743290592,0.34708381017230505,0.626703573007213,-3.7877807378146997,-1.3115880553991457,1.3088601106316196,0.034734759252260425,-1.9684730888551958
2.4910168794227547,1.2013531620341353,0.7194816194030463,0.6512757771804769,-0.13126382491797361,-3.0632312852503887,-2.5433624367643244,3.461207696601255,2.10738204422889,-0.6567385318107518
-1.8042636321707035,-0.4255633704347222,-0.8461188988962327,-0.06976256544607373,2.6538422562586197,-2.597909291202389,0.23845037451758966,2.4410001474642535,4.206688213253469,-2.798509053113004
0.2377016782871461,3.0178367242987685,0.1725446723390299,1.9800198494050223,2.3923825806716077,1.17269386157675,0.16496061098691917,-0.07684507339562574,-2.4894978145920637,0.8012000581150469
-1.1036218766790262,0.5540859420741803,-0.956416061378473,-0.21517208303485547,1.464062685773392,-0.19752475660336172,-0.4944158763394312,-1.2581173697087087,0.3356466517335312,-0.2603699369929929
6.616483918419219,2.7741078940416513,4.506205626618344,3.3957656904975204,1.0393017636452138,-8.383855665829424,-3.272984519957064,-1.2594409210474922,-1.8703317193381424,0.1682892677164533
2.624619951336865,2.2564838946094135,1.1919403105126354,3.075879234983808,2.086766820522719,-5.474252776444262,-1.752598517633087,0.8854566023651057,-1.2325530161183227,0.039599058291795386
-0.7395516081144736,1.9951268790259566,0.37916533637948824,0.7341238629421871,1.7722389359869677,0.13538662781473387,0.46319439205474655,-0.4700873320790983,-2.4020264088356518,0.15030115287493737
3.5150075806382186,2.143334062901943,2.5308752035174944,1.6695143057941109,-0.25608891986160587,-3.8117311955913924,-0.7020770103087002,-2.496617743689382,-3.834624303062856,1.7129970697859733
5.454640137276052,2.8940908650876658,3.5373582037023805,3.129083442717623,1.5138428907369965,-1.6882288568737045,-1.9277268542010628,0.1865415220717655,0.26368919383735495,0.7951641004376144
-1.0877709571940466,0.19077705094886255,-0.7393533973270648,-0.2675524501122395,2.4702318922140236,0.43963759323102947,0.8912086253662979,1.633923523329019,2.437096815726109,-0.6579303350740798
2.7527073288306,0.04362480661171707,2.2413128561506035,0.9317926825114904,0.33803582242365415,-3.4417149123060438,-0.7404674146605513,2.1970941029440496,0.05856608108130078,0.12095989352901304
-0.30809344424141394,1.1011969499734158,-0.23846299679320906,1.2783068532268929,2.7401079935703607,-2.1180777694802684,-0.544376774081459,1.7020144428288426,4.228179994926344,-1.108258786267161
3.430151493899824,2.7399902708911723,2.3754606344994436,2.0914055664346374,-0.19050281124842872,-11.780374780983774,-6.633693826403626,3.01567477434369,5.681446378461632,-2.0859788257004177
2.0014982246368955,2.469284042456083,1.700183175701223,1.8497993847513667,1.5373311892694583,1.7666864977186605,-0.437163857351016,-0.022394488709697402,0.19310010261183994,0.5380996414085761
-0.09590887109320849,1.2195118200071284,0.3271763340869651,1.6489619727962856,3.1540958457548482,5.748740952363195,2.1749618056987483,-2.2330928419649445,-1.773846740620693,1.1726752177606983
0.907944393073162,-0.6039237635616665,1.3602673454459673,0.08761700638168168,1.477321698292148,-0.8318411880960794,-0.6581112848317465,1.0360731360214772,-1.916492347267867,0.874017378177584
-0.10657589466561139,-0.6848032174743902,0.3008550155293351,0.5880584116803587,0.523545532734714,-1.18411571209952,-2.3272323946799847,2.320293640801718,2.534640844815363,-2.2638344624868654
1.6669504435902953,-0.6552574763123189,1.2370368799874798,0.10148043947386332,2.0577840175417568,-6.6388885366652435,-1.9594241385641191,1.5310397787248151,0.7946946024044215,-0.7045296709741236
-1.3017867344293947,0.21207311651551175,-0.9690634150781042,-0.5866410412019525,-0.6293774057267102,3.5073635996899792,1.5597592729852763,-0.3308760501328075,0.365948340069697,0.25165292616372076
3.7488072336188685,1.395264855067854,0.9355488027067105,1.0821196255400607,3.121263703315247,-2.2791838536361917,-1.9518532029219013,2.387941569584962,4.766996246857648,-0.5426974994471253
0.23815325819577035,-1.2509878909683079,0.5021337428839776,-0.4430901658649664,1.9670762627084466,2.131113658287832,-0.19493756162508313,1.1387792969073933,6.2972642138997585,-1.841587652319687
0.2277481439489024,0.10222385435683369,0.5259608302600642,-0.5099037108721924,2.489478303704285,-4.535816530637227,-0.730575088013483,1.695787490806857,1.5709574517294236,-1.4452585409805134
0.6454415665772826,0.14728505841004214,-0.24995739605208303,0.6992335996288286,-0.20448719231380041,-0.20712200152949678,-0.7982730211927949,-0.6428631971062249,-0.3300986425271237,-0.5603491014844785
4.459341501466465,2.860895541950797,2.501903006427327,2.621347920108207,-0.06162028775074602,-6.874857650411341,-2.552798042514895,-2.4117648267014946,-0.816598918954603,0.7976939873993977
2.2650639969934363,1.1813914609395455,1.2023440027092236,1.0801683075880737,2.6052655782934586,-7.533090628779365,-3.4932941622525644,1.7015104681860753,3.98075428038804,-2.8199076595199144
