x1,x2,x3,x4,x5,y1,y2,y3,y4,y5
0.5465436752763135,-0.1702684484864668,0.046355328599645106,-0.9681065486913468,-0.2625615948970288,-1.6568454902651917,-0.33442201868433746,-2.017829560068493,0.26217193680804435,-0.27343415485762235
0.2010558708264807,-0.5963772426042048,1.9318382715747981,2.1463346833000583,-0.31660827981474465,-1.1076886005916307,0.2168969197207728,-1.0509241958801385,-0.18755130067061193,-0.705908897642084
-0.7385029561431689,-2.3802857640543884,0.6274646550436798,0.9494782685805426,0.13953622007724095,-1.102645432733983,-1.5048110058775943,-1.7506593774783146,0.2068353320916301,-1.0412017577380974
-0.7349670170372186,0.3276364770950205,-0.04149047127278515,-1.1841898059920462,0.5727009559914659,-0.13100743653278185,0.5688570930583545,1.5321596925043304,-0.07927258910404847,-1.5854254886019283
2.970737718444736,0.4846699191850516,-0.6577110441817245,-1.7394855109894234,-0.41740479772206474,1.7436237545214937,-0.38353638882347324,-0.8404856700466276,0.6979072467964834,0.029341618217154315
-0.48103846054665267,0.5060374214614485,0.2573018916772329,-0.14760518703281217,-0.06382530519033543,0.5218375045107578,-0.08124698874075117,-1.3913696738123216,0.25280444835873905,-1.8248859773188237
2.2983766696754295,1.0242338857040394,-0.41438995085358576,-1.2898136449162738,-0.3876366802571666,0.03284886791859687,1.0389319720096961,1.2319867459321912,0.04859451749930327,1.6931907626078817
-0.9729409387937227,0.39705684183887485,-0.3680265318635414,-1.0591671099537057,-0.23526439022006432,-1.0081036675766428,0.06074078800198869,-0.1287685784768004,1.0704952441921802,1.6338799410707736
0.5501364655783665,-1.975847156437979,-0.18955478732651065,-1.6578294899160892,0.1560626234754809,2.31099132214022,0.49460117498711853,1.7481565876786416,-1.108038838901806,2.328897416012776
-0.9386863175897808,-1.2653803061689892,-0.7957567283433651,-1.7858293193227988,0.6246179583801725,0.9996331747901216,1.5864780130929133,0.9322399466857663,-0.21348812509512194,3.0655446065243264
3.374748784511583,1.977871666126981,0.7946147220689527,1.9274133518852403,-0.647879310285599,0.34540879357498755,0.4724872615252918,-0.4337482614488854,-0.14564313733843262,-2.12599638423371
2.7368504742817006,0.8750775771059116,-1.3992223133100152,-1.5260030879199844,-0.5778125132557519,-0.7317349535937652,0.10625453995222595,-1.4080776713495091,0.9187131500608718,-1.3845991990668953
0.18891195881524236,-0.05945143135026622,0.23625934061658008,-0.15378410772587542,0.24706479192204422,1.05689163683941,-0.7099385082140729,0.7931746771368662,-1.4395534434116164,1.5982381371904837
3.2026099978351192,-0.14817728838650293,0.013097558301238502,0.5138716801369803,-0.46238890715942627,-2.1815668433157347,-1.974555381929238,-0.15912603602686462,-0.35976822925614693,-0.2310768721111434
1.5461691488069973,0.6530604862336103,-0.4866416429514669,-0.42357211400680145,-0.36046972812902195,-0.32848226819621085,-0.5962742049367299,-1.4501351657353756,-0.7242125710174739,-0.8306481323704338
-0.7044339155311722,-0.1792964641933564,0.7687944885974068,1.0397144744502786,0.3795008089099055,1.5757428620142626,0.03860939667709028,0.4794195334292942,-0.9394513333512362,-1.7823892617520347
2.1710275711704767,1.8203270999727386,2.043924891627596,3.079763992132971,-0.37829163121668163,-1.4361517117494482,-0.4570272526495511,-1.3471315309174192,-1.1476375279924143,-0.005207366030147442
2.7856828552804194,0.12255669532090786,0.9273435229696246,0.3862410252446305,-0.5188203285851585,0.6008879152494999,-0.342063585189662,0.21341667873437467,0.912362633682342,2.285384077643974
3.2365707229460012,-0.053894839566128366,-0.6832107024643764,-1.1925203903460362,-0.4033093086430838,1.0728536941029734,-0.05616279649790151,1.215097629697525,0.1345417081915009,1.2842682552104254
2.5900320406724937,-0.07346735585319035,-0.8465499542848901,-2.6777960095670146,-0.4562679963231277,0.42701433323390103,1.9363758370331787,-0.5748065690329632,0.3485254003649305,-1.7016937514074884
0.20137949140964362,3.1894092763372743,0.6206218349234519,-0.2528034446461146,0.059004646544110535,-1.798519351563335,-0.5360901561957748,1.1405519728690148,0.7945912572303576,-0.48367879051308077
2.9737028960752756,-1.4901649891207442,0.5354090486942543,1.2372582009939768,-0.5407277813166574,-0.942442454625938,-1.3915741198808274,0.04565538413322407,0.7458688932032481,-2.713708546266028
1.6738649041284583,-1.652503447991357,0.36975155797302434,-0.30494364394072815,-0.23015303183663893,-1.005700087581745,0.30638280796303025,1.1368488968934858,0.42590827144590787,-1.6963249839651349
3.143062933115048,-0.4154597697719839,0.22206180179402024,0.0037900247091603332,-0.6717951718694936,-0.29560829952416,0.357798144476666,-0.8352654931493988,0.0575213411550408,-1.3559993439976559
2.939333180788631,0.6073812040387769,0.6654482862008063,0.957751255185218,-0.919348834087417,0.36029215571174733,-1.2262849268162628,-1.3406045944040226,0.39054920698301354,-0.6621290835223291
0.21599005028309537,-0.41125806127458786,-1.7943621275897543,-2.4437579116853416,-0.09015026008009695,1.453307869171009,1.0659912530023532,-0.2099336233108311,0.04080869019808672,1.127976879044809
3.040576390913748,-0.8917158962699083,0.4308582715578995,1.9238491468894618,-0.314192599328984,1.4189996469172255,-0.31743153554438136,-0.40551859947411406,0.6080675284694599,0.10138816871005417
0.8954631304632088,-0.6610815160633674,0.4229190384878046,0.939143803436055,-0.13806720171788922,0.43440740001958833,0.5144726276610571,-1.1223349173330264,0.4187799726990875,0.4796521420367043
1.8508788794013151,-0.4721539713211839,0.6981769957841943,1.9098149948316263,-0.527823288570182,-2.043602498661554,-0.7701973504123072,-0.4972120032894091,0.513514641945288,-0.4410705325634233
-0.45777416999848863,-0.3083837040273369,-0.00269604853965553,-0.5875787620657291,0.28447789576568244,-0.9195683195700558,1.1646933264716608,0.06755415673447684,-0.4610429858583401,-0.39474146000898885
-0.9782865259633701,0.2809388423499184,0.5476937052586741,-0.02807498276602301,0.22921672796555714,0.6989603975410663,1.8310482680645386,-1.364804676057417,-0.011835610039995791,1.1949079269602225
0.36530084046112976,-1.6978652239579184,-1.3802339388313885,-1.8386177857437185,-0.15307673011178768,1.8643508792073096,1.602246259488503,1.0501019798735771,-0.48228359910447693,0.35851410404194356
2.4879241734367046,1.229744488100395,0.08538719647721253,-0.13117982786589757,-0.6145228902852151,-1.9339818311311718,-2.481393986368017,-0.40619950581401376,0.7297013507782649,-0.9528086262524393
-0.46014759282970874,-1.127782403986926,-1.7891227941363577,-2.199976161058038,-0.4128223380662758,2.3421716005459463,0.11771252513902346,0.49655886318347403,-0.4487318392712092,1.682991711811117
-0.007069174785049648,-0.6485349851955019,-0.6954425779355288,1.1404687981416122,-0.0715640120092014,0.6286510898779064,1.2141796372205569,1.5723556708675512,0.7997044863514452,-0.5528339601006591
2.3235192153450055,-1.1552159647319513,-0.8310517875365387,-0.8100045532321013,-0.41291328480864004,0.022637885505722766,0.42500357798512195,1.696543927429842,0.4658616648249133,-2.0282447302042326
2.296844614937093,0.44590386961939205,0.7159592099493403,2.5867197515016396,-0.478381634233635,-1.5721845043910023,-1.6156413921566528,-0.6376146266352832,0.37327916494716995,0.26257597289348134
-0.09327053762646675,0.16837418541163687,0.4568247737573514,1.2922090968295397,0.1678927186927891,-0.8026261656163459,-0.313189179417995,0.4005585521220191,0.6910564869438999,0.48185521101418166
1.6580424397392086,-1.0522732331398308,-0.7382460419430525,-0.4917808223943802,-0.6227761466353084,0.8574996833207608,-0.7544770661873303,-0.4767417818058039,-0.18421798646307816,2.3784957911889886
1.495284702904911,0.3154772810837386,0.8382673225797803,1.4837453983444224,-0.1262742798289868,0.7063429398411674,-2.905183340792754,0.6407517974123172,0.3331198327119975,-0.027189340239537344
0.015212367082441114,-1.550996882698028,0.21782301580887795,0.30346969948884595,-0.008560766399694001,-1.0601676224792822,-0.8350697928345531,0.9910268633512147,0.399387120007807,-4.324654936525497
0.34539210279933474,0.4109094884449535,0.5021458366819275,1.2741562510102813,-0.3263241473384866,-1.6789923626960892,-0.42401039555990055,-1.924767489989414,-0.09723719141630928,2.285166673541284
-0.18392905145429483,1.3474532208771859,0.5657713864043025,1.4578903429002152,0.06335103582316988,-0.8726436605907912,-0.8287879468881174,-2.049767934635212,0.5237225206823636,-1.6597618293518013
1.134359108243355,-0.05818349403910159,-1.2235519481111043,-2.5083455279394693,0.06994570867675544,0.7430246752145273,0.8270060701208439,1.615068182477244,-0.14080928963593645,0.1516990463775529
3.2698318541281033,-0.5303560395947333,-0.32228695905698324,-1.55173170003185,-0.9787609190027842,-0.3883944333115904,0.051178257846592544,0.09230369062843358,0.5115246884875706,-2.3414990423059203
0.7670895927991652,0.009489561493341734,-1.736837167229702,-2.0200512819588994,0.0938723990543758,1.077738426487481,1.193247248481204,2.310144463408055,0.08957656462810623,2.6820241796982174
2.9485658146996485,-1.4877918761379887,1.3549057501283326,1.7012375764939083,-0.8867636765169683,-0.47522839647437465,-0.7370693882971165,0.6593241049488576,0.8539204236183077,1.5940644040960776
2.1500602686910066,-0.584215494938257,0.2865162988390424,-0.11492477692189403,-0.5525784357713859,1.391004268275799,-0.6061369937778923,0.38017747090413634,-0.2627110014628434,1.9598112742930298
1.5771890855410828,-2.251193173953467,-1.3359547613652163,-1.2319576848795601,-0.31904634114332325,0.45650867607678547,0.45652032230531725,-0.19611494999469925,-0.6000056661041074,0.4784597978251988
0.8143564785261319,0.6154612605067307,-0.8064386952062165,-2.0992565587462226,-0.10679952660265579,1.0493524318214016,1.160133275508276,1.0438462366753178,-0.4668349281484228,-0.43488478368091715
1.8768709734172178,0.09673922947820206,-0.6214287076591465,-0.9458705568481448,-0.298345188164446,1.217469907402593,-0.5377669222874026,0.974075846725599,-0.10421958943750233,-0.307709610615034
0.10129949912497249,-0.31592680119301214,-0.20529824611926295,-0.394675166957306,0.020552458856937003,-2.3786563545419455,0.645502617127647,-0.4557443563217338,-0.6473625830608926,-1.0109327053368486
-0.5829779945401745,-2.1500202475465238,-0.641655342041892,-1.4108195791552844,-0.023215525947085258,0.9078168282985615,-0.4339506927616085,1.6507402870157892,-0.08025103661931444,1.9414222790037405
-0.7738113949716829,-0.399672739845615,-0.6982869936997312,-1.670974833983262,0.3386472631467869,0.5311922861230556,0.5654099541432522,1.3958619634546825,0.31891512957317597,0.46459374821063626
1.3738040532972962,-0.39922186647789476,0.6119589844828095,-0.18072590281519768,-0.37246534774887646,-1.3941521302875253,-0.3869331401522301,0.17687107085350745,0.2841521564392579,-0.44264967359163937
3.3762176024589383,2.3803914032741447,-0.7005125359443969,-0.4517214340877782,-0.7864816943753706,0.19301141325820637,-0.33747977832742015,-0.7154559099539106,0.045745248788850404,-2.514679731890267
1.1630095396795541,-2.279648581771308,-1.1653852338019197,-1.3323294370732242,-0.36018081058285756,-0.07930211753432265,-1.0921593650529269,2.0285781946001413,-0.7432226684429387,4.550862619236647
1.0716020001178639,-0.4063258684491375,-1.304134333381873,-3.767923841320534,-0.022950847629848937,0.40754498734315714,-0.38186608290223356,-1.8983203406352513,-0.20817065132909687,-1.1394578676186022
1.1028747866660944,0.6814709919260314,-0.0738762210587584,-0.6819397375621128,-0.42613071299818867,-0.5344984783802369,-0.45112510983212306,-1.708469248311538,0.22823958910800085,-1.51770854361002
1.8492046216158755,0.31754371165411394,0.04011236593655803,0.5493936734002054,-0.22403761767346392,-0.008186390438533864,0.514816916163966,2.0428957513616033,0.0208758539913459,0.6501241342154881
2.197114599174024,1.2004697937030315,1.152508132272067,1.6148571302688182,-0.32463095373162354,-0.33781087841180224,-1.4554819163272086,0.24259171593910778,0.26728303364230455,-0.7209171468004726
1.5500847561668913,2.3088019952192185,0.987236145765351,2.364549075216578,0.07046406928517736,-0.7012710204603083,-1.333677763380058,-3.5349824125972327,0.9210780931102993,-4.9473625081602135
0.7346021124338151,-1.1542714209714562,-0.19100206257549737,-0.41061230621915623,-0.05382454116123242,2.6605953902784982,-0.3664299465871952,0.47394790550834953,-0.3354463329369466,-0.7341498062265231
2.425405761745914,-0.03671318188020731,-1.0305390384983966,-1.2608961742278657,-0.4576090885491812,1.3404594715994136,0.7243260550128201,0.16796861545009356,-0.3658359980869765,0.12665059415013277
2.170873153590881,0.7693973691743813,0.8947130082923891,1.2927096322293743,-0.3401366185737813,-1.3993961869966303,-0.9507824538927381,-1.3221832298215346,0.3762191478200689,-1.4165860453790193
2.553420189401824,0.9234819954189368,-0.32528724672825465,-0.8787788921358803,-0.4950882500312606,0.8643732416574098,0.8917302121369698,-1.2625234582515348,0.08230157423829598,-2.2950464491040754
1.1930934993063005,-1.0846794065668681,0.5669944339331713,0.698119214368159,-0.3001013096654747,1.0954215779986065,0.6605650967905472,0.3361148085778878,0.5090224472616407,0.5793040127805815
1.7299481742675846,-0.373649851708751,-0.43173387301093313,-1.2727150149973143,-0.35160530804082635,2.9463144408370394,0.7459435825517668,2.406073237774313,-0.1781271378055855,-1.1965845312692855
-0.2932951402538787,0.11899620731129402,0.1174440580076624,-0.2928642464987225,0.007757824235312086,-1.3015138961053003,-0.34714554824776594,0.3025145877304065,0.4515996472246306,-1.269397396303427
3.089421117250679,-1.0862918380648923,0.7753741612688292,0.3033107879298259,-0.8759833181681507,-0.05573091183730794,1.0897781710983037,-0.3774836590146864,0.4802842150090367,-0.33088828474249404
0.6308938730128075,3.473408359517348,0.864083807989291,1.153024567815938,-0.03924824724170145,-0.7031425922563896,-1.6915895096137001,-1.0724111560463485,0.9536272781173768,-0.9833767594662851
0.05322868517749746,1.487712803462228,0.3422963640124699,1.1923375150362079,0.1714302074975782,2.03233563572437,1.1294183583898607,-0.541660322914415,0.07257266836677011,-1.3665732324526716
0.44235568757122734,-1.3446759532459955,0.26936437943593955,-0.36869785484323603,-0.05112846726139445,1.8878384891238427,0.716509935356559,2.5103424265634997,-0.29467248372090815,0.012521353011985857
-0.5488056907462243,1.6367760153396176,0.80621850057995,0.8576838907927942,0.421425235541465,0.16354738695927776,0.14497699218459906,-1.1342066182194341,-0.3227568754902758,-3.401448740105197
0.18015478372089166,-1.2571785654357368,-0.9828169462762705,-2.438597734099658,0.012550446849010454,0.8438521643711778,2.7002486185446815,0.796833243239002,-0.36619429663761693,0.9555974564140417
-0.8613940500016617,0.22749622080395845,0.461097184072368,1.0674892052126481,0.20375631898187016,-0.6699847132432895,0.15679227840604798,0.5523814757962037,-0.11278069466014354,-2.274934166817973
0.7023932768523449,-1.071506038300305,-0.26993770999461647,-1.8364482274714284,-0.06332538783496143,0.7786371684654702,-0.6934896293846808,2.24379927789831,-1.2577799836811148,-0.4413131702271293
0.37550841577580507,-0.38708209112533404,1.5428791888935849,0.6112504100657118,0.0315356912819672,-1.0705610042649358,0.04418082198238313,1.5665028958640197,-0.0890084989802547,1.1844393004135507
0.5169031076965036,-0.5621253477388986,-0.016977041436418525,-0.8767266638173207,-0.09817779638206181,-0.5124088791676548,0.33337375242254547,-1.526003147562717,0.816171016814809,-0.5189684324206331
0.20700789566670275,-2.0446193953893514,-0.6622701132309823,-3.3724066597510736,0.12755571444540453,1.691264722405831,1.3897769986151813,2.136014074663981,-0.6728890532285003,2.9696073406191648
0.9620465994842815,-0.289681173297178,-0.8956912173425166,-3.669358902245258,-0.15653352753746366,2.1708095392957993,2.289239789223986,3.808561349778719,-1.510273727645062,1.3032538089187546
-0.4096758169420466,1.0830882311887151,-0.8262098899451026,-1.579905637092419,0.11400329183909938,-1.1975817586338275,-0.43103685039873624,-2.0191335803393016,0.7085836577939414,-1.539164437527846
2.4108671769779,-1.8194191196018665,0.8715433528692091,0.49272177437053416,-0.6504559791153576,1.0798578186169112,0.2282906395252092,2.4220979967288985,0.060081603422034155,0.31697454493242716
-0.03618027173678007,-0.5812364970258355,0.40395960477222886,-0.011411024463138374,0.1359058760709554,-0.14534257375698179,0.6085494469006625,0.9595095119266598,-0.3656646585554409,0.9652824751328363
2.9601568543285164,1.8225722793402812,-0.13052799915993352,-0.6714377356929203,-0.5666862948592182,1.3893047133803984,-0.5218682972057648,1.3381551477256752,-0.2558751600815088,1.327008174375127
2.1221847901489044,1.375705901332409,1.8838878708649334,3.8506531873294305,-0.8837359633584904,-1.2216736889188253,-1.5946178086722316,-2.148673326656927,-0.33989394497707837,-1.2962030396725963
1.4035474427382915,0.6218221160923654,-0.14735349006352474,-0.2674983008729898,-0.30667223272832644,-1.0938432042236457,0.5287884649393403,0.4817421628582985,0.1858423524646656,1.6645735749660362
3.3446554999067146,0.8999086257662572,0.18656438357726546,0.21874751656096425,-0.56159750089381,1.2384121347630612,0.24203307790938325,-1.1175716246885405,-0.27964619553267783,0.061455739935624615
0.8690663466746529,-1.0287772483364668,0.032895144437467626,-0.4249393710645965,-0.1004743571012606,2.1190421001970763,0.011206054920388092,-0.3173791333218196,0.4000542947998079,-0.08166174899435678
0.7441988853319226,-0.28181734633794464,-0.33103750115904557,-0.2878288946277354,0.1747158585601183,-0.17631663089881178,0.7698947877088067,0.4667065968282744,-0.27258304301400954,-0.6184917860564906
-0.45832851766780536,-2.1730118418679427,-0.014926856893398439,0.2507640192139277,0.4843091226690525,1.4094896843019216,0.8543127677883411,3.2238186906869837,-0.6504910727394974,2.107206892017742
0.3295269131426173,0.5402434261703254,0.6548221370673454,3.103185381274592,-0.2521306354215586,-2.042591679306022,-1.5207148940499726,1.6846611295574967,0.24071121458780054,-1.456127499404712
2.5579276056750686,0.10054022653614315,0.9294366506599031,1.0905046532065963,-0.3315167554134582,-1.9223030675169586,0.06015366863345141,-0.5764061973243199,0.15975894812758049,-0.08861525948376335
0.5736019754796347,-0.4290041111757272,0.17255910740146987,0.2494392702488516,-0.2621706439408009,-0.4311596933240218,-0.22970398516227716,-0.08823366728781526,0.8960611536038253,1.8979132080526966
0.010172878378314154,-0.5988735885527178,0.339157777580147,-0.16104282270182269,-0.29054052406359326,-1.0821059788489844,0.41433523082784746,0.8085808559775813,-0.5765348769099847,0.27490075614492476
1.6273081221654633,-0.7525443173873702,0.36241040450549405,0.3722632850928027,-0.20400406590866996,-1.4046613470483584,0.4916098180306159,-0.3845256577949172,0.08714208946294058,1.8523877266696518
2.164335568825659,1.465095061632449,-0.7823136911467246,-0.8233708762192636,-0.46573007769065367,0.6178713328004215,1.6378532691734038,0.3086618882547043,1.0777592141733894,-0.3510655898580304
1.1790521591526821,1.3611562146819263,0.6529438184663455,1.044451459858889,-0.30809353843843285,-1.0896759684603063,0.3474184998797521,-1.3467747560575756,1.13456679985015,-0.9713709976517065
2.2608751952356796,1.3554216197912032,1.1204401088732172,0.38686575907191156,-0.5082291780738604,0.6922544957568464,1.1260951824291257,-0.5547556902849919,0.004702989481075264,-1.1887246461992342
2.1460245377072473,-1.737922183296758,-0.9662136172579838,-1.0737409748775486,-0.21891746028577277,1.667776808391344,1.362930307793245,0.0024201854928178196,0.07662858689587967,-1.4798485283963085
1.0120000707512875,-0.9695560000317476,0.7392335717923755,-0.3094129464891133,-0.24188407399204273,1.3924184071567114,0.5719329411925678,2.085665176295291,-0.6913413959431892,1.2588455759083719
1.4021193598975987,0.6242666470638647,0.20540536550678046,1.4851905551774136,-0.3417523447644953,-1.5733408593877627,-0.7231605510110103,-1.8787798870236974,-0.8657450796782121,1.8227477163688932
0.2667043430689444,-0.20857630913973504,1.2026254357854527,1.245082671874279,0.2511655083637568,2.2154875712396525,0.4575464869404926,-0.7394164982571356,-0.4370335978593803,2.971093728186351
-0.9179475946179567,-0.0006028978517711566,-0.06721970769817447,-0.6280423729762258,0.299927827544482,-1.4236171816256116,0.6230125035227301,-1.163599739957195,0.10723769863325283,-1.982703459679198
0.9021746218014934,0.5381498730734698,-0.4235678881220063,-1.0514030831525285,-0.1394341339104066,-1.2656311871882133,-0.6607188714529066,0.09300730574985938,-0.15104588471869082,-0.6545539629518793
2.1089890038350076,0.6219959968992694,-0.4295650035527625,-2.0720493441152117,-0.4167553781429615,1.3955865238148846,-0.2385852010175039,0.4394029743374993,-0.008345091909186567,1.1535815730330425
2.130019131751407,-2.1581972898182875,0.6548300988870113,0.22229198490658159,-0.028652300315925756,0.46121980817028263,0.6130679237089113,0.201616677691965,-0.6167537655547009,-0.4461889014201036
0.04056449787814698,0.6359424998988399,-0.3463830446200018,-0.9394922563902894,-0.14954382331143687,1.028527904149584,0.7580241967020872,0.5081104996576308,-0.5958525892875819,-0.5789367314596544
0.67115271794183,-0.5302674819391897,0.687036895029346,0.6222506658212413,-0.31686947387784564,-1.332097747198988,-2.739549170133784,-3.764885521004774,-0.12604008406229333,0.0841123120726258
1.9568541499127443,-0.5251412094577742,0.35889043756205136,0.2200110108814947,-0.6752897526479338,0.7888886108269351,0.022982813904731565,-0.6257175349035005,-0.12595328521906385,-0.5463505735009128
3.283128181653156,-0.21096304497646864,-0.56033050530242,-0.8446189970288246,-0.9191988168043802,0.7642636806437895,-1.3446650025194495,-0.4914398140152165,0.07640049590871857,-0.8416768297239358
1.0294135456002294,1.22595436105518,-0.7945277701198363,-2.445853175737584,-0.2860165904706239,1.4292973013451788,0.766718097620701,-0.5386214044939934,-0.14221479849292032,-1.315276151477921
3.0788473406854386,-1.228929584294088,-0.9668555001851222,-2.099137929290856,-0.3531738346131207,1.2431909912054069,1.0922067002826388,1.413609618583844,-0.4178292950356739,3.091693227132681
1.9599555515904945,2.0355786430879172,-0.44073962044823894,-1.1559367643859602,-0.545280306226847,-0.14386432308623864,0.22819300034992962,-1.8199856755284982,0.8468605318641347,-2.8640107013366802
1.5231122350707462,-1.1559933495487824,1.0092103479920804,1.1294327891799008,-0.32801553179318005,-1.7227867150491287,-0.10321853335142661,-0.7694258521050102,-0.007985416191469558,1.547595258292033
-0.9600122123831086,-0.6462758837035347,-0.3076549892753182,-1.4823489145463773,0.16070927544344513,-0.2726951378620617,-1.3423568960904584,0.21847959746089968,-0.19023376350817417,4.5668895546972905
-0.46743402387987465,1.6884793356712464,1.1695666748116915,2.95236973278906,0.12300176653182435,1.0546823006062604,-1.1329321403854986,-1.7472910501775463,0.746017023681623,0.021086861292651818
3.4320798270568567,2.1183013961614434,1.4768979190531812,2.1089593715368493,-0.7535280079364667,-1.7210939450744875,-1.6509508791186844,-2.131540508498721,0.6732341427540361,-1.1408379510037183
3.0709593678109846,0.6597817667202003,0.8716085487023302,1.8893267425618168,-0.7422748398387868,-1.0716669665162755,-1.155531442837194,-1.1151315259265244,0.13128159184540794,-1.487205688750158
-0.3770307251789524,0.6680622914165121,-0.04071967439929364,0.7903289860077208,-0.2044089132720871,-1.3414668894877293,-0.5265044921344431,-0.8643577388323336,0.28233649723834076,-0.6402039211874873
-0.24291860932743115,-0.7002900993520376,-0.7119413430919648,1.0045872637193802,0.07315947376892211,-0.2532949401870287,0.6500707341297743,1.0739826138847408,-0.7335605150488885,1.8686965018024313
-0.5712607100943117,1.1271593053460256,-0.6480571133260918,-1.3115678313650032,0.05638817037255508,1.5226382827723681,0.26994044599163025,-0.9873458352133826,-0.3217203583067509,-0.2377551647499517
2.4558473120852704,1.3436608960723548,-1.525239499536069,-1.7437444884678202,-0.4983441558239629,-1.6362036596049176,0.8556611123582534,1.3167439301547539,0.8451053897207559,-2.5672584488053642
0.12918606190486814,-1.4059862081099392,0.643020426356405,1.522593975012599,-0.1747886083760312,1.1012049386826774,-0.7068287642401394,-1.0594862846522362,-0.7678890926998337,0.948331234152244
2.6564840915524726,-1.5416537011057159,-0.4315538856348599,-1.2014494567154166,-0.40686419185907563,-0.35993053965681077,-0.7532088853203089,0.7454676994067188,0.1233128727212131,0.49101350542710076
-0.7215383191883563,-0.6193573618104262,0.6590656124668138,0.7766742144252466,0.0635822860256137,-0.40327652130709957,0.06115632494025325,-1.6366286147601323,0.1012707828906706,0.44359783077303366
0.9451933683181508,-1.2842048803336534,0.2512678900850758,-1.0511480744756785,-0.6481872220964938,0.5411833465845743,0.5108653801398058,-1.6498394562516754,-0.07946705650951796,1.0181366269086467
0.8869562105138868,1.0917351079635773,0.6922950391217043,1.2370867344480754,-0.033389998891923095,-1.3782070126681139,-1.8004281200716106,-0.9445163716870235,0.7651098881908774,-1.7574329733768421
0.5253741947119024,-2.5747327893793943,0.2774824008866885,-0.06711745080415461,0.5211906023534831,-1.662806446651072,-0.7795965947406143,0.2905352050857709,-0.7685261162518947,1.4206757815038433
-0.2209769050430268,-0.16430309248463262,1.1740552056171365,1.3227263816432118,0.20577031038733037,1.0933665557868637,1.7308430307471532,-1.0368056785748208,-0.447762845007783,-0.052100278947514594
2.040702267179664,0.2906344027996628,0.26396787474186406,-0.6987753834309202,-0.19038983187606884,0.8222334672127494,0.6177945920976434,0.7982882130714841,0.22443317385502715,1.517518558366901
2.5946574996012837,-0.38772886959367864,1.7369327465495197,2.284974667476876,-0.3278987790290043,-2.6436298926038653,-0.32678474952438263,-0.6080078417444309,-0.3315542255630427,0.24914874207078933
2.5086288786055575,1.79796409782183,-0.5771029446870567,0.715625940409257,-0.464945174410008,-1.0192553380753355,-1.0514211404537184,2.347332324365733,1.3388789287250533,-3.0375454117677125
0.7320691878036067,-1.5792416283986952,0.8904772704633939,1.5641524559771371,-0.22358775635966768,-1.0390611733495387,0.047218511676578076,2.212742878794081,-0.27949488648295184,0.23268244177330086
1.9273361591735827,0.33559849844654227,0.6697995473146678,1.5391448648282031,-0.6135543809780675,-1.0567995477554286,-1.2137112605784899,0.15202372562861344,0.30942685982553814,2.396290447662973
0.5716346996366577,0.30998312953789675,-0.8511029037784298,0.25436880397121475,-0.32220510766132604,0.42958224235764675,1.4178401555862075,-0.09302203270767609,-0.7783214817154706,1.7563158164838224
0.5538323602289321,-0.7202449229833752,-0.19184154967894623,0.5759578990529085,-0.12731784169644367,-0.03510911308660282,1.3602354944907635,0.8321759342513658,0.715315439630194,-0.43655298759860534
1.2672798862619237,1.101909202172522,-0.10871818628326643,0.7850985966100238,-0.0722914967435347,-1.02266541860196,0.7677574316516294,0.19819857799630025,0.35177416678653267,-0.7537300168622995
3.427220233802978,0.025782265649039626,-0.8394919239930192,-1.0901004727319519,-1.0356126130303105,-0.7991187806670063,0.5242457917294264,-1.8901259560471209,0.7287228857920944,-2.4736696283032065
-0.6940059521588055,0.6853782150677435,1.0897977110347576,1.2909871711490974,0.16938770062938446,1.6794234708541593,-0.018370463983269643,-0.6847720815679964,-1.199488606861294,-0.1621195845861842
-0.3866578130174081,0.16189993211068823,0.6792432085304722,1.0537366803373098,-0.10067336933689068,-0.7870935578288306,-0.2461584399676358,1.9695929929923568,0.04972792790061052,0.8529573823434062
-0.2735848662232938,-0.39063872004780403,-0.20017316229553053,-0.1965808619623856,0.08621896303235739,1.500392867198102,0.9685476457547578,0.45483770334292906,0.12177138125500499,-0.5958509375466451
0.08585868735640445,0.20573994333606166,0.5820644782148221,-0.48031075123359007,-0.1506731250383584,1.7165035172509566,-0.1450971724254145,1.0749081285160085,-0.5070276015818922,-0.6029544158629079
3.3110551184535817,0.42191903631967825,0.8641178739542851,0.7868203442304058,-0.511873715987992,-2.065726399883116,-0.6741094009073125,-0.7761040448996,0.05498161851137414,0.9973319748953589
1.0080765427360645,1.3091467235939382,2.0616054299707205,2.4122915241232596,-0.2720664222575413,-2.769263319008796,-1.2238307655453957,-1.6080511987117734,0.786431350840981,0.5158108821481007
1.1823570525752416,0.6634381323788947,-0.770543788288912,-0.8207160366303772,-0.018175392055730374,0.6965937201561152,-0.05222147184318774,-1.2418339827092155,-0.8527816374208212,-0.8781305944551385
-0.01692093804426298,-1.0310219975761665,-2.1905601974506825,-2.5552397342719253,0.16366199689411812,0.5773810361243248,0.7466344221846489,1.1219027265459296,-0.174033836373906,1.8096873869265468
0.1157861449610118,2.2374205908452143,-0.1387289058705595,0.6927385900612316,0.15811994890325115,-0.15482246923587784,-0.13043761038449045,0.023476595318625643,-0.38985823877219894,-1.2906653952081928
0.7303221339921468,0.24726590546445917,1.128246568216818,1.2026350330571343,-0.24196142472994822,-1.7231565611173072,-1.5743663420374072,-0.4557442560931494,0.19141530957466177,0.15464800607446758
2.860799795227552,1.626631701029846,-0.8007882059278717,-0.32010450661321493,-0.9110245764559564,0.1340401970812073,0.942916514793913,0.14847474850678888,0.48799661751445395,0.8244207977345972
2.689294686601489,2.514147114207299,0.33995653479426985,1.5445567910253735,-0.9500244557835323,-0.879657661270654,-1.9697192953595242,-1.4521221202242525,0.7883313913610641,-3.2497317974137787
2.3821706920526537,0.18105121953482087,0.5097798328735498,1.4337651956423518,-0.09694431265119513,0.177787620135043,-0.9589195737787859,-0.3959261135333357,-0.8121568040908467,0.5828764429685392
-0.9971275960455733,0.6029841742176674,0.34794115122373714,0.4485634560525559,0.33762603421296017,-0.15795339240181328,-0.0021677976878791898,0.25144436950544474,0.21312011966775538,0.43849536021412466
0.3496781022714217,1.0765722760904033,-1.6081865057137121,-2.458244533090536,0.0011883633138356714,-0.5130019786791569,-0.3310227291799467,-1.1190532909640067,-0.05192189518011635,0.5534738297252806
2.1865579332212084,-0.6051309422472544,2.0611545865314183,3.259785543734406,-0.5020837400685143,0.2918401112192053,-1.8576522582793378,1.5257613046362346,-1.4384944078873427,0.5514198315983002
-0.30146689512194524,0.05771455697450182,-0.6230509888009054,-0.8702008188384397,0.1049673874337859,-0.7911349744660355,0.5945806293197127,-0.14730871436716236,0.5441447150385901,0.3868441521197501
3.356892686456362,0.4625794074894718,0.16527173202653433,-0.11143289989798763,-0.9346505837366674,0.5067461601389697,-1.2330762930754735,1.3440475597471653,0.23153019028946742,-3.061436714462651
0.3568807694369882,-0.08819994344626332,0.38409388925879395,0.1285845115448664,-0.04636727268905012,4.603621955355042,1.01126076449187,0.14449663161631365,-0.6024581880475964,-2.4246208012616126
0.2416634832302753,0.7530210519378383,1.631784861068612,3.410023193235541,0.12488048938099368,-1.5477319806524794,-0.9741202475432591,-0.4705634100385985,0.018304548160480796,-0.530656478835764
1.4612702481961568,-0.7394975307745683,-0.020140779772008507,-0.5353703457702627,0.13240017426607634,0.451503517092273,1.7366957746517293,0.1555965248615639,-0.5006535471399508,3.011135190868237
0.6380685910080539,-1.0130238734891077,1.254128277913181,1.625413353033985,-0.3280907406718512,-2.2674294263155277,-0.6773039623517614,2.0775965263424334,-0.2817359137331599,-0.7119159551215632
-0.5663694968612555,-0.13707233136446323,-0.31391543430097796,-0.07592266011733709,0.08582430201835795,0.1676846329041063,0.3260698055201751,2.0073744645414964,-0.640169036178609,-0.7856098563362591
-0.9683997027466213,-0.2754962395427386,-0.21752409914701423,0.44575793057737056,0.5148179362485279,2.2565542748387952,0.267332697587851,-0.119049288095742,-0.15763164847656205,1.9019008002440816
2.6579490917160844,1.501988137707453,0.7843012546111849,0.8947065099241729,-0.965523363888311,-0.2058520775613364,0.9629985414011204,0.6143391056196638,0.21220515270165244,-1.9117460302272866
2.859808444051557,0.1421632741570613,-0.14868844202144305,0.9260855084336949,-0.5016596598997827,-1.640588451297669,-1.667200863079027,-0.633033717206708,0.001333879721615474,-1.9254080488294565
2.546827341252836,0.5094127562188405,1.0340414343558852,1.9547797992017333,-0.1298579491321737,-1.1125525382012367,-1.3534960826849645,-0.06074275587982808,0.7959634017710342,0.5564019411103663
-0.6712940228722186,1.3524476132867536,1.3054086960944526,2.346991979946676,-0.44223630835311745,-1.3550045600062686,-0.6464584927372463,0.9771444320364033,0.8310060337100076,-2.891300034924854
1.6975945451431897,-1.05972538241057,1.2778360493160938,1.1569973474070223,-0.39955423497361714,-0.723996559315684,-0.5302852326669498,-0.3576692600886734,0.7764961523421405,-0.3218732019511952
1.9808998339944148,-1.3559723653755835,-0.09511510433869846,0.5259555837618478,0.01795274469071519,0.17378053934957427,-0.9864033113581518,-0.055793089440520305,0.10943083922114433,-0.41623230334088973
1.483977136426815,-1.0266533141410341,2.0488575251124495,2.0541172457045658,-0.18928628402596367,-1.8420378765144148,-1.3591695457622084,0.12769781436689082,-0.3053240652534898,-0.49482283754201994
0.6317405774722942,-0.49396088681561556,-0.5150765311442005,-0.6297456950058782,-0.3754709257615523,0.8720026100243722,0.8348668037649569,-1.1405049071264775,-0.5955296238548129,-1.4667994260910793
2.563219985734513,0.13044059950018605,0.9467734529128179,0.6000896255075479,-0.6627575484072792,-0.14587215091386002,-0.6784560217491007,-0.23941224395630523,-0.378239616515875,0.9134869754939318
2.2982660704652007,0.1111591038217045,-1.482028013265897,-2.7423113799904955,-0.7699288211884578,0.20506652391094748,1.9038742194239917,0.5570577150895749,0.2111090312633708,-1.9205574967899521
1.4672505586756852,-1.658717438983087,-0.49972511816304843,-1.6220077546205778,-0.14062821229679776,0.7798848203479302,0.920876083881902,1.9290938748439435,-0.8597836800241857,3.0165681028413607
2.451312089581674,2.8592835969878787,1.0459517631862556,1.8956214748915512,-0.7425129712590005,-0.8946773486719795,-0.5582827215425179,-2.339001577025633,-0.17653901001935643,1.2094433885345424
0.4006560237528578,0.9504782979952593,2.401972817412594,2.5000503831396497,0.23564099866588598,-1.1173235771064272,-0.5073443568435544,-0.41605667379808164,0.12282605528028653,-1.1014956334450678
2.919902836546111,0.3896536104569339,-0.13529498225920036,0.9722127186363717,-1.189071462437129,1.5406243098083037,0.6836212954540546,-0.9489156732243026,0.2970151135928147,-1.9526342621861619
1.6253365346735054,0.14189760740634483,-0.2858575209654761,-0.7578065749477308,-0.15262570107678222,1.578170097754601,0.4640273817600847,0.31028580094487024,-0.18104270738118022,1.6088774858439416
-0.8912865597435002,-1.5689400687222934,-0.024221012703097563,-1.6433866571892792,0.08162752951716302,0.5118185493633794,1.1758556155551434,1.8615011795634182,-0.6310680507819688,-0.720760055958853
0.0511033254143658,0.672203270787396,-0.261948128514702,0.20172826831615184,-0.12831210842712634,0.5447543615946538,-0.09483299304832647,-1.050393603926321,0.1770602712843445,0.3983349073908774
2.3440599848411106,0.1698680016584488,0.5929599637456265,-1.3174976359174089,-0.39745254524644735,-1.6112928077647821,0.7569432203552244,0.1452058102065823,-0.4337223147229938,0.19094986670998987
1.298675127509353,0.6154241374037653,-0.701349827689385,-0.2011469935477835,-0.2083205909734075,0.5004198807896021,-0.4602693403114766,-0.8531117857382617,-0.036416624700665534,-1.2532850483091649
-0.11608153233525942,-0.397402712874612,-0.3554776340033919,-1.3438412683617682,0.2570782481240216,1.4410380085793177,0.7435753186088685,-0.3208512185325886,0.5392555258958586,1.6265956190626587
1.9579185083785564,-1.9491245321223856,0.23372067467497998,0.4298045227548119,-0.32776254712400327,0.7798700144208284,-0.7588205788418133,3.0100672359928127,-0.3013581861467529,2.9183581082922214
2.184906405562576,-0.08734936677504669,-2.1279101434620515,-3.538891300765337,-0.31936744043017656,1.3463176308248095,0.03804266641050611,1.3883194632082398,-0.45326233924833687,0.7727496951524282
0.992142491872231,0.30539026178112055,0.7775333670967851,1.1591639709129002,-0.4939823612618929,-0.6824919009595447,0.6698647075087326,-0.9835467689684738,-0.35657726163167025,1.338981964658954
-0.9478396039209968,-1.0370550341093974,-1.4619981651474219,-2.3463153998293564,0.0916329307234138,1.2060592763928593,0.0656986582264971,0.12909527908223128,-0.5621678001648881,-1.1766734491916075
3.134277710832839,2.0731789846947386,0.6043171858039601,0.9509417184173613,-0.8333976839970118,-0.8258359683778254,-0.14293126673058812,0.7777157094957894,0.8330641838987114,0.18562620856479292
-0.7042846597198995,-0.8802071571994283,0.25620496114787683,-0.4824867005074186,0.4286911802546272,0.7894929043848661,-0.4523643003008101,1.917695279582483,-0.7010687722775397,2.560783119385645
-0.9014107597572589,-0.2990732956916652,1.0658442512733683,1.6233592643035308,0.5564162217113215,-0.01750481981398555,0.7553612393998586,0.7461732102312135,0.4603795913563645,-0.9325518879198345
0.3900071577217463,1.4309437411064994,-0.271920485000835,-0.11733358954683289,-0.3168704698173591,2.0229904879244205,-0.21799469890925466,-0.6890854913716454,0.5523841672547138,-1.2981316068084066
3.362338535536618,0.23268625609146626,-1.010986825364638,-2.032624323513254,-0.20104723358004978,0.6397140426628599,1.0350902559003874,0.31073655730810945,0.7089015912939547,-0.9911734927731024
2.3768521242542553,-0.07251215112910844,0.77525136682571,0.5439171615442968,-0.5053000381302206,-1.2264765387275358,-1.7495482448911712,-0.5048781853291229,0.8594392660841972,-0.630518810615329
1.4998719140596166,0.07465880854045663,-0.3531046714282376,-0.993141419105034,-0.3714006193182395,-0.2113206058409834,0.8157042718072218,-0.13220658306584568,0.32135596413901585,-0.5897399833524019
1.2883772996211698,2.7771830635092947,0.2992042644695187,1.3246121838519225,-0.2287550645204572,-2.4953690962694672,-0.5327933147435162,-2.1880485687706894,0.3990554667803583,-0.07413030640963095
0.2018924176856709,-0.16446216137618708,0.023246272384784095,0.19139462954294675,-0.343881661777894,-1.8599194589910177,0.2275673897660465,-0.6181748129680447,-0.2709082844590727,0.19102591120868956
0.24739588247119237,1.7075972520674871,-0.9448193736531839,-1.2835157524641252,-0.2508335978989562,-0.5086800868419425,0.15276097096758137,-0.5867184125332021,0.2331520861440557,-3.576017710920144
-0.7181098333979998,-0.2765167838256019,0.03693359666766203,0.6894755833240986,0.26201013670457096,0.6234523359561737,-0.2715774317578184,-1.1939564019989395,-0.028143201731896435,1.2461195656282307
3.27141263431315,1.1555867497218837,-0.437761250806576,-0.43407526189584045,-0.7361917686128912,2.0891053615703075,0.5983453767467595,-1.918194862650181,-1.021966510388321,0.366322576914467
2.4621893981744902,1.563702293277348,0.5072177930921381,1.4859921964328624,-0.27809927833807674,-2.2183994245843293,-1.099674194564223,0.9748651707076779,-0.451561655294884,1.8894869519161095
0.25410396461664053,0.5362820085951808,0.33491359491768463,1.8966904453991065,-0.005429661082882032,1.1029359397229404,0.21609591087760885,-0.9698155439462175,0.374158234559767,-0.8237272331138262
-0.21500784435613873,0.3819968221044678,0.25120375533562217,-0.88666841599173,-0.2646727053042478,-1.7762000226486683,0.41554543520471504,0.6525928293381937,0.926164121741188,1.011058363059606
1.3520616848916673,0.8935062502100313,0.10524870916932236,-1.7079046081948117,0.024306805863049927,-0.0006458719501123145,0.8959199786438401,0.8112259614843286,-0.33191189495462475,2.3833201919441827
2.839301285824205,-1.6025302153363459,-0.37757755204636445,-1.3066361322389441,-0.5747280734722283,3.0441130475397014,0.8947544195767709,2.0248241738571755,-0.5173612843497881,0.2646681439245218
0.027612666363548755,-0.6271577563187436,-0.2505431160234839,-0.297361238935474,-0.03416517419146874,2.191099640478188,-0.5705942297927129,-0.15061680087971951,0.20390776788775233,1.887935166467565
0.9909721163924614,0.9499491724626217,-0.2065828873265925,0.8472092872214436,-0.2675161457431667,-0.2538878353335223,-1.1212128201251383,0.5320155383968509,-0.2002477491847284,0.6355488660043944
0.773961564423346,-0.3251928727983603,-0.24269641950019152,-0.045333365652276046,-0.2591876306374215,0.9235559038682404,-0.08109377241671528,1.1387715594358145,-0.13101447065356997,-1.268672755054293
1.2261629479360208,0.5364011678403144,-0.45835928477016696,0.6879872967508098,-0.20405880780745697,1.4020757962221806,0.17320539726732187,-1.6160123389313017,0.14368732906225018,0.3320018276520566
3.3250198176225565,0.5772077343296466,0.3065747254012025,2.2186305523439565,-0.6622369242747751,-1.8765276266290492,-0.10405243832000544,-1.388762533338908,0.0732559387667403,-0.8860967180089954
-0.5192758176985641,1.2551129421340357,0.5432142268854407,-0.09656855515709571,0.24447418967243237,1.19705710979958,-0.6065213216155487,0.017044331332450507,0.04939426799351537,-1.2231414329141939
1.281061838112553,-1.3325779276910847,1.023189207759828,1.8223524288120683,0.016201348491010008,-1.5342532184152953,0.5216247199002219,0.8113777033984438,0.5455916709067073,-0.0013292750254530422
2.6255170854770484,-1.1956289311269825,0.5292260198755744,0.02917281829793047,-0.46885783405944226,0.7011281958774153,-0.2535217705814563,-0.4112105971444858,-0.1392573350180196,1.0445214413499355
0.7652787164523378,0.6449418259943261,2.320801334432687,2.0811841746987145,-0.0654908187230706,-1.144670314213683,-0.20180259741258966,-0.6429765250286703,0.24863515485816462,-2.2421273281420557
-0.04806831227215047,-1.5544924323601934,0.7299925310331928,0.7580835218150279,-0.03621439883974389,-0.43637635933612773,0.9259433918040146,-0.7003235083674347,-0.14689038704156063,1.264074498514703
1.2832454094340369,1.0748264432805523,0.6866225091704621,1.151128838231647,-0.23502493370757938,2.5390235667376,0.5974372238959886,-1.8984499746900985,-0.5516109473357678,-0.06141318769143979
2.6342442700732205,-0.32395139885026575,0.2833979727655572,-0.9054503449532743,-0.47373304359486124,1.0176452472372521,0.42580383364579016,0.6812139963755898,-0.25906222585061345,-2.4835239493787538
2.0307624169135594,0.2645105558970281,-0.9335448090752354,-2.139999910024662,-0.4153180131836311,-1.651588092191778,0.8556663941622709,-0.568420151162757,-0.5613096357644923,0.8278631857144894
3.370992603657257,0.007819748612155383,0.32378829582110763,-0.1999089467185903,-0.9613885267456961,-1.904240408107801,-0.3677074211543301,-0.5950883483727825,-0.16924188905212978,1.0865650700628373
0.840131958479992,1.343432105787589,-0.20789906913211972,1.230958710599799,-0.4161151385309393,-0.9549069932698238,-2.0069407397678436,-0.5663208288590399,0.044001682637715575,0.5213560394856985
-0.09088545253173452,1.0250823123126407,0.7067285178242433,1.750849724141172,0.21069929927431486,0.5460578679592716,-0.5357723472684314,1.4309851767114175,0.11741737959120763,0.7313972428738383
3.1340489195242,3.226081509266756,-0.7824980778971409,-1.3734135722896752,-0.5390961625649839,-0.7459274782037251,0.5973640251351162,0.6371706716051597,0.6941184278685315,-1.7651427987348076
3.1891955586653538,-1.1692921051439593,-0.984363280229711,-2.5633789438175087,-0.9055663074662288,2.093672462776339,0.5352878012677678,-1.6887884137527396,0.04994223761984729,-2.492917718034441
2.7715355023025534,1.1883780518218718,0.9592971250595641,1.5790021243903893,-0.9044479484975068,-0.4047815170732418,-1.2848823108426108,-1.8076002827203685,0.3132612418037947,-1.3931726598240413
1.9712081681424465,1.2527107191392317,-0.16374967522637474,-0.29644698581215384,-0.4215371920669832,0.36785342089559664,0.2516078827930007,-0.4101956909401994,-0.10575431191665868,1.3249586485569276
1.7438263256252853,1.4319544464951541,-0.7770912994982777,-0.7704924209749061,-0.9081129063788677,0.3954736401390446,0.34944552972630494,0.5824455221443359,-0.4771808259817153,-0.9349650541350082
3.00947621077058,-1.034308945372841,0.13866145364204663,-0.24235159766010175,-0.5626466454495611,-0.9692475514919192,-0.18351053998640096,-0.4182744208007691,0.2634895204768761,-0.45392996494060167
-0.11295225085661942,1.0563437184701765,0.17748712582990359,0.4982932759738918,-0.2990822290593469,-0.2812169823624805,0.017588676633373858,-1.5218827739066696,1.1097802749154961,-0.2674962278339225
3.2966614304364894,-1.4364084844131966,0.22787129629578098,0.5008203520117609,-0.8064684874602085,-2.0549185706041033,-0.7487937730801647,1.0566914911017142,0.30100344802346135,-2.529580345733038
2.7490349026945293,2.6769032726916233,0.8164169705097811,1.3206976458558315,-0.6937965585818765,-2.634782239435595,-0.7937119617059689,-1.6646615344023368,0.5160908140661978,-2.1329664790122385
-0.8317358042710907,-0.5801682437720493,-0.09959650917459364,-0.6304902616174384,0.17982780721305142,0.6394324335704766,-0.1619303124859839,-1.5181740391463645,0.5667219696025008,1.4357633136964636
0.741377787842745,0.651301549930571,-0.943022687692469,-3.2546362351844222,-0.25049235265697156,1.2709661241046675,-0.7231543475948278,-0.5736833004743016,-0.0757299139976146,1.387986361699691
1.3901775794470392,-0.40834377251666515,-0.07600343740671452,-0.4225476961118053,-0.22615954293336843,1.1036100598112886,0.2610317487285958,-1.395763650521122,-0.5153097822984399,0.8376873061733661
1.1934006002209943,-0.9925824596293226,-0.7690070787938666,0.5046786295134125,-0.13314593131291003,-0.606671891242301,-0.8111818592231438,1.18887932010391,0.6892668916940097,-1.6928661183663032
-0.5373936751501486,0.06204842068129361,-0.004780760640618353,-0.46656343330907957,0.20620163789717016,1.5535261707199488,0.8553557065874,0.9591397996347253,-0.1961451281697506,-0.8737879316880873
-0.828538378954717,-0.44622594752359546,1.136811848714065,2.859777107427709,0.00914599220960582,-1.477062497451266,-0.7348656855519737,-0.268254793875927,0.05519248960471466,-2.246068798240959
1.9607221713063212,1.7106284482851533,0.7854716853514894,1.5179495174008206,-0.6448133298238884,-0.9783021026225173,-1.6575255558143653,-0.4144354607583945,0.19851474913884906,-0.6197644115866048
0.270726235835538,-1.747218346603557,-0.8574836403619118,-2.4498701389520496,-0.033263930668924045,1.511356591383732,0.7034569662673402,0.046497967633753884,-0.21088838223125486,0.30969530774612836
-0.14023914301631824,1.187532607181272,1.362046642591931,1.868839186347976,-0.14783066626177913,0.19102619814324284,-0.9069429678763207,-0.8179248957021861,0.769675722507446,-3.9677135492762043
1.5866842721818664,0.24925475743279624,0.4687398884768457,-0.4124162515886972,-0.43732100803745083,-0.007755340176569869,0.8914854455961434,1.7825034166632645,0.41311755947998424,0.4865983689823718
3.444259362891418,0.3591310345024181,0.5868417509309046,1.1165191766049973,-0.8172244389607434,-1.4796979262751373,-1.1849140001786158,-0.08242065425327771,-0.3102293446568363,-0.35735231934664385
2.5575952160489424,-0.19352470818489514,-0.16152954226226052,0.3686986555994039,-0.5410445315052164,0.35537426117421117,-0.573511271260495,0.3154972302761997,-0.28754701400138855,-1.4477288789448173
2.5524550161077206,0.6637083834833629,-0.025004546850066478,1.24530058953649,-0.4619860304721859,1.3476348903147792,-0.8502038914183281,0.5676353499232928,-0.27843870742970717,-0.393043247136526
-0.7691585952516256,0.05630504849150102,0.48284494324310395,-0.12584069696694938,0.19813057577332954,-0.6234374615757805,-0.37425765149190876,0.4258614722706912,-0.5971515683521044,1.046787471817682
2.041721193626542,-0.8066726548208303,0.5800720804572665,0.7524619138706973,-0.500322426502302,1.0990496802659544,0.5622674057423406,-0.09879271244340716,0.2241360447044133,-0.8801967523044814
1.57624147497051,-0.5804826147338831,-0.4694998751335564,-1.1459586991534643,-0.3083987104977232,-0.5252074962826335,1.2426299029187173,1.5483896398251122,-1.4511533535551415,-0.016698612273015036
0.9334719066938353,0.37517198350263675,0.7215096488673032,0.47688041343316934,0.2173367603386561,-0.6312094876443308,0.6727730669607893,0.22384069197848355,0.32822607020918915,-0.8034093729754253
2.793278198077463,0.8125825285875089,0.5379671680988662,0.4624513089646938,-0.7939862737610501,-2.1779195236032223,-0.7229443107657681,-1.3875264265600764,0.9139367787314315,-2.787308765926291
0.016598907439661748,-0.48123363503212846,0.432975653016509,0.8169859482337408,-0.026416374934524235,0.40707901434238397,-0.14214019185885102,-1.294976739791234,0.34478086017583387,-3.0414696217702755
1.5865794691739166,-1.842528637391705,1.5790300256935441,2.549892475004758,-0.38059550275885157,-0.30228489484334153,0.9112218396826597,0.3847230267256055,0.5588186679571955,-0.5292494307618235
0.7357491474618185,2.002409916008235,1.840386018023862,2.649210582360097,-0.2769361337834778,-1.5387166299253439,-2.3605699778660636,-0.7474794368689746,0.5144712648897155,0.7505777354873102
-0.7542524854765341,-0.4521924750677831,0.9992885846064515,1.8190870327721784,0.1719086275771042,-1.184862222184296,-2.010929580601986,0.05782978225727817,-0.020959572590515226,-2.0481222782654824
-0.36480200814485697,-0.9353210186166199,-0.5697399305961659,-1.1779870920047026,0.39283189659843043,0.7836438459410515,0.05903227340576665,0.9002251053729617,0.3200035420157907,1.5546726631659677
0.2085174981065263,-0.25630161262158635,-0.21353549737297603,-0.5544035191574679,-0.22093727457623466,-0.5283827412956411,0.48307808739917146,0.4016231818742255,-0.7958181840230101,0.7612137772156672
2.828230600492407,0.07238705030687394,2.153210977975851,3.153015956984546,-0.47611462762738027,-3.8954623684874514,-1.4066390694598692,0.2509270272015156,0.7118294919999688,-0.8978539897602752
-0.5257766744370114,0.5018150344879417,1.118688768475814,1.4427486915352918,0.06663160193429436,-1.2719713935739292,-1.2082038336504912,0.7521915554692957,0.42214772579826987,0.057055500636695324
0.8629806497684804,0.7605280284024697,1.1950130880407759,1.5681674244900967,-0.6340335426205139,-0.5871041986557921,-0.7911745414177254,-1.0473211472556752,-0.09234251658433121,0.9187749699815071
3.108774421460777,0.9437382373962538,-0.22180483783259425,-0.41415757457288743,-0.4818994194988981,-2.1819190303183205,-1.42015163601808,-1.1495235776299784,0.3512350886990833,-0.4079318773400515
0.2774100906871968,0.3417522994789704,-0.23477964713868887,-2.221665066358084,-0.18785977166252366,-1.9122950552802698,-0.49717763509565416,1.2608816033149428,-0.26468264596326324,2.266206970795476
2.480465111331205,1.2952657729797856,1.2884497172924234,1.3972519250602986,-0.5180624140714465,-1.5525946606094396,-2.253152243271244,-1.1790569684206536,0.6577703353894881,-3.4722187197775853
2.7269646093234914,0.2753946675808354,1.2061877615739733,1.21120547914678,-0.6461786556901098,0.6792086140656625,0.31058421799212055,-0.49570956212047446,-0.3580502915699985,-1.3262429005253205
3.2752896081117413,1.248953600391264,0.40691764400039315,0.5296313834816259,-0.4874314587573328,-1.661351602534603,0.6748661025673776,-0.904283967441281,-0.08462470695972968,-0.24913029674349577
-0.03937376354240196,-1.8949677865916585,0.09080995564339271,0.4981306480009559,0.04745519583748829,2.976924457750803,0.7367267639805845,2.6836674301200314,-1.064185490388091,2.4794972513794846
0.09367531428897502,-0.3304624732766666,0.7129738616880972,1.619108699631223,-0.5160603963344154,-1.157257523966567,-0.5422146796000411,-1.7408276250852959,-0.2724702268772428,0.03793049816645745
-0.9757447412452285,-2.4503799133627764,-1.7273908543016596,-1.3725615084860594,-0.06746484819015526,2.471784313088315,0.955003402564614,2.133291970037552,-0.45996718196887865,2.762846348550352
-0.9463688632225695,-1.6930390219656517,0.028877368188923957,-0.4969539701619699,0.043669423522498016,-0.34172197303342455,0.2881497082017429,2.163528835483972,-0.03078744987150869,1.196601901686876
2.175614327085409,1.2512084113564121,0.19185495240955067,0.13044845519553047,-0.38492990992174075,0.32081730543008613,-1.063856256589549,-2.658262691574508,-0.1652281709089446,-1.7265562208257104
0.08228982810808727,0.8362742281201054,1.0553798382157333,0.6990909471059481,0.05736555568770018,0.8203168911029342,-0.4267817123109808,-0.3431094827575921,-0.28260066097892383,0.017421412065990984
0.8040524599443168,-1.0010080029600996,0.1551489326632654,0.2736120195798502,0.1972598725311016,0.3639307168810346,-1.600635014605501,0.7050411645706898,-0.3889364847395625,-0.11969349430613875
3.25885198799413,2.1713492652225703,1.2876449009844648,2.4572459030948433,-0.785352904530396,-0.25961626454389375,-1.0484520371355666,2.056423720539375,0.028704879694700917,-0.10299443781876412
-0.8267651223366989,0.5662646735127994,-0.8723897417056957,0.28550236194680434,-0.046641328762627235,1.139290279794039,0.11541292565964752,-0.05893954367571071,-0.19642763176938552,0.18654465271787743
0.10292628014451122,0.48910787509399944,-0.07857721637713941,-0.20897846346748855,0.34326255471582434,2.4041244977195806,0.7331159407473334,0.6739506517246595,0.060902764576873616,-0.0008290375271293261
0.5492016812424219,1.900435677271435,1.0093448640757738,1.888807960843218,-0.15796024715118018,-2.53444850638882,-1.2269118398159584,-2.1019512572544765,0.3345855487760568,-2.325342900042419
2.8428910498367754,-1.3400379827767206,1.1689079859909917,1.5940260738785799,-0.8725561612556421,-0.6477266678726807,-0.033388371658523694,0.754547136715951,0.09683830672661793,0.4448891420958651
1.1522240530795886,-0.05255069516804263,-0.22233976448309303,0.8965007896342881,-0.5184938436506268,-0.8958590049039185,0.7170536160629639,2.5074796706531273,-0.29993487550423,3.6703903015869694
1.4603708899919998,2.004227580171827,1.7246541774553734,3.0558299493305183,-0.3145920464626361,-1.7217846065072684,-0.9379851014139953,-1.633256048600973,0.8460221653901143,-2.35547714685599
2.2920140582786046,-0.11097936925773982,0.9755135068431956,1.7856479748560432,-0.38608295402965453,-2.4684908355553494,-1.3379795070791296,-2.360919335398826,0.9345143718531669,-1.9392184586109078
0.24347630107802476,0.21167828336294403,-0.5940960932264996,-1.4239619312061622,-0.039332565864345866,0.9601115675736147,0.6021819322173129,-1.9677482024643003,0.12039745734540322,-1.3303824224049543
1.009588691626318,2.6071041339168772,-0.057767093275591395,1.19693671336569,-0.40934038214779894,1.5416457516182358,0.8005106156809085,-1.0010854665631994,1.3677512775858935,-2.9067488904056837
0.9718561771982692,0.877468351488186,1.3100756981543984,0.9575627091424483,-0.08574717521207317,-3.9131265319845694,-0.7069697821446406,0.2064727662661494,-0.33975357923854405,0.20522076491840474
-0.5498947929492877,0.3013801397081715,-0.7626825615678899,-0.887124695089283,0.19429537744275613,-0.4444598204920807,-0.5577412096579182,1.0644021098556473,-0.22760232242561348,-0.5238769735416945
0.8456001638321273,1.393370714463175,0.02512688285259987,1.5988545430174335,-0.28816632352529287,-1.600610386485629,-0.8599924048767703,-0.242884252925993,0.5376545072728492,1.4020522673326759
1.6971492874724587,-0.4306356995184409,-0.4760288963745721,-0.08007301665163313,-0.5623816741335763,0.975463915645965,-0.15895423635703482,1.3721894157253378,-0.4883650217811965,1.6064609789598416
0.2380470233715979,-1.0773302273785401,-1.1253235566007338,-1.8765003084820961,0.07895595560429522,0.7003235273866385,0.39245481791908454,0.172014419700612,-0.16636617107669685,-0.30231560405066793
-0.11768106454622707,-0.7897912169158858,-1.2684500346246725,-0.4076409557362715,-0.25145397970445715,1.9018714078557846,0.6330770505273116,1.2357600290260837,-0.09155549606643884,0.8017651343251906
-0.978518940389156,-0.7544881661495693,0.31070952271281577,1.078379254117601,0.16320458796045095,0.7154800009317963,-1.7037324911044156,-0.6392844654092182,0.08683283386033679,0.2606555512266269
2.8673846965156717,-0.3477036282867083,-0.31927016626358673,-0.10674091941366359,-1.1512619491571146,-0.21194904476834678,0.3219266948298116,-0.22805955305365555,0.5719572660821657,0.0023183023261898303
0.38154216184741996,0.5285562904661234,0.7917147967702988,1.6768611597515624,-0.07977480583852722,0.04320998267668119,0.3445085307721247,0.636201497185569,0.4051621078516234,2.015822987770526
0.6529615066144265,-0.3887074968159386,1.9857252130493273,2.5304191104272804,-0.41613789542916685,0.13446593427651432,-0.5887127010004802,0.1831327632861437,0.1886016782164223,-2.1169362441041755
-0.8668132149174288,0.668622823505362,0.4912868543425519,0.649033329979674,0.16679537955752172,-0.6593287337124569,0.5108957762913551,-0.030315043640987305,0.9309594490897931,0.17956513108091787
1.6206449992476415,0.31012130922119147,0.013543943149255033,-0.46284322479105383,-0.10628108077590241,-2.398508396564648,-1.047741664041017,0.3859581025687543,-0.07275193926685095,-3.4024724710523135
3.197215343254282,-1.05569870672902,0.8368781601842823,2.2519905248450867,-0.6310378108716755,-0.9359290309023844,-1.5272292273449934,-0.8304917554989213,0.18815647815736525,-0.16301754822670683
1.6961235059220585,1.1579669961296208,0.0060951682332560375,1.4397049798916361,-0.3769606958959693,-0.6791560459149176,0.5090045439656418,1.428733948032962,-0.7743269686666723,0.29387743569474883
2.4007990988690495,-2.111645538527809,0.3941561208204909,1.9255007308378993,-0.4838184389160859,0.8476256472765692,0.46301004831901404,-0.036302604073694344,-1.4062787881590637,1.0420349798773179
1.2085280605357296,0.8098338561658961,1.6599127564179679,1.5567477024303735,-0.12361434506715853,0.16672727774829244,-1.9569203320105943,0.1110509894257532,0.40787000049555366,-1.7130549433377331
0.5326643579557,-0.2360312147972645,1.1030871392109154,1.0775573363489281,-0.24895322061662825,-0.2923026635451351,-0.008635711487787677,1.0195679852113524,-1.475688380153362,2.6317575664819888
1.350960191828447,0.340035516540347,-0.35430047172516693,0.3853629070943921,-0.5841909430074531,0.005873191827128088,0.9879004414206115,-0.1358768506624296,-0.330652861468056,-0.40266204975952147
0.6906377325179562,0.5093768085253071,-0.6158917523140051,-1.3975624876285124,-0.01846879927701458,-1.3963246146831432,0.7349236330599427,-0.21419620550290783,-0.3368104710344737,1.5960012675988349
2.593765888138596,-0.7227573308108779,1.3410428549215263,1.9185956782702085,-0.6698203667498661,0.3527472304762672,0.09524696107837562,-0.547535240826114,-0.4254988854813015,1.7557290152303549
0.7413291761696787,1.3541813750237441,0.4767637569850969,0.3843629114574852,0.15699335743143508,-0.5621540414502849,-0.9148073680419071,0.8534656794320611,-0.05591388935899962,-2.915273500020562
-0.9690486308638643,1.7746945699188557,-0.7494165258861603,-1.0249915297449061,0.44162404568867136,-1.6989409794086665,0.008785593447903174,-0.6568025088908792,-0.48468152810538195,-1.1889925596072535
2.6909581501995974,0.04947598720556055,0.6062855355329687,1.2604585475957177,-0.664150438337987,0.35131016597257403,-1.7881554000068598,-0.7216127414956914,0.07071850293303618,-1.023159842147634
-0.28571516828858357,-0.382140028200152,-0.4853297325055915,-0.6605633961435322,0.07753869260505361,1.4956097641391288,1.1127211800216317,0.6630023970231388,0.642729217780402,1.3182423290032226
3.1656732571337196,2.0069806732041546,-0.4288156107887594,-0.6015296439030453,-0.8001787774361444,0.3218536208724966,1.4246224617662933,-0.7040717284874407,0.25232217248152466,0.6190918525673057
1.8675612365696836,-0.7032904387909753,0.1356171259250045,-0.5864374313716693,-0.17355274074937982,0.9520193083763921,-0.03384967180855811,-2.13591689013745,0.08385919368754349,-0.8871585658768064
3.1584157312120817,0.6943506736745678,-0.30725609999670234,-0.8534905529162372,-0.7402753181200126,-0.5086297433295294,-0.3001315879946464,-0.20047266711717243,-0.04571120847153011,-2.075500104081786
0.39650196742512955,-1.4115783157113762,-1.0804397251418811,-3.301709769136453,-0.03969392429888876,1.1868656094310084,1.1514209599478342,1.1564228029874153,-0.43278769688285923,-0.164664969847944
-0.878351425755404,-1.2305507696339846,-0.26437717433258395,-1.0986920717220638,0.21748447840918403,1.4857782147447138,1.047465671231359,0.07042924848280585,-0.7197240268431977,1.6295932506574442
1.274604589366124,0.6229428828619069,-0.398447766549885,-1.191816382877273,-0.4645037505791905,-1.1763757272611812,0.573746136782252,-1.2572984551333513,0.8125204797610496,-0.3174634652093011
3.242698636863043,1.062172457203142,-0.9048449171412494,-0.5323618498797824,-1.3749542055757538,-2.5231381371349983,-0.23869115213863593,-0.32218570253333034,-0.8164930684318017,-0.42092479749735917
-0.12170384047515681,-1.209778224451389,-1.5974535494631816,-2.650096808142729,0.060359845585063805,0.23456283077971718,2.051599984772893,1.2744117382938418,-0.638665711046249,3.1669904465224534
-0.10876829389056042,-0.7548509088606525,0.5575537644126387,2.5215718437527346,0.023024544253585986,-0.7282435306313814,-0.6305705584399303,-0.9790005575755943,0.09210569938284138,-0.3371248495889259
-0.061512769161875314,-2.270233880561087,-0.7175893473626874,-1.7399748422248877,0.07032136200608172,0.19031434897469557,2.4140255395428896,0.4706284859209059,-1.0571752787842728,2.0243277794224603
2.819807347451042,-0.02208403437855619,-0.4296944242220666,-1.0575751818603085,-0.6019101583044087,1.5399576492541476,-0.2331334875220011,-0.2860303578697947,0.8396771122413126,-0.8686221927547665
0.67761780314629,-1.8568812308017357,-0.5722009755658634,-2.7136124401807686,-0.060118017439523226,0.43252977288019956,0.7468610131915739,1.9099862274132247,-0.8633764834180995,1.486336580472546
0.09054262483790998,0.5640222809717366,0.23153419806107367,-1.1137445232882903,-0.11306297716374845,-1.1854339752009944,-0.049710339463382,-0.007296287097987242,-0.38217892398160397,-1.8334631620628945
3.149322584489486,1.0181726463892933,-0.7390342522838089,0.13576201655541842,-0.49642202945838443,-0.264894145004328,0.1395302308804764,-2.667019245104952,0.38035880897650515,-1.4315191847966253
0.47084352658480455,-1.329211498930747,-0.31072376483176717,-0.35685593489904766,-0.27438837271949296,2.312069272296394,0.5704373563285695,1.2926944312843036,0.04551947977162648,0.23414108080923596
-0.6184526983566065,-1.2031205657713018,0.04696167373674755,0.9059501772110119,-0.165716391095941,1.3399032831781372,1.9392388119315267,0.011388833501760107,-0.32959729274935395,0.49247994197050765
2.04679929455501,-0.27755930012249025,-0.1363782023024997,-0.881724792361485,-0.10693747539602799,-0.04017693398287294,0.36424365423732574,-2.087886278589768,0.16227591829076815,1.478181538825193
2.166950407743533,-1.2669135168760846,-0.665253078077633,-0.384644714181169,-0.5925724139878914,0.44495824738768663,-1.0621398164563431,1.3589379664759327,-0.8626754731536657,-0.3095556982005719
3.068498281748493,0.6262618368565824,0.21950173284274213,1.6102868994250596,-0.7546459311441219,-3.1359189802704774,0.07863243163175063,1.3266675075383922,0.7650433807038961,-0.22832492349887043
1.7209993950983962,-1.6002577512403686,-1.5828115641360556,-3.577832217540915,-0.21818920979555995,2.0498562358522183,2.0259643452653244,3.011443112686588,-0.3606236423131568,1.5716829465856588
-0.7819723179026925,-0.5726547718126995,0.5416666860600364,0.7243908816661266,0.1787684019212048,0.2538666137688046,-0.019083837772716345,-0.14045139504459103,0.43288408020927355,1.4275069613235727
-0.8242338066611359,-2.394364108924819,-0.03538078857034209,0.16210737203670053,0.14877061790596055,-0.2307640327565941,0.3228988806646323,2.12109795338047,-1.0025844161897717,0.6516986217793183
1.062999626569681,0.2720442038355381,-1.1767969072935014,-0.14950314686816463,-0.40928176463915694,-0.18399088862368157,-0.8830189457025095,-0.5345052722292702,0.7638249361016095,-0.9079016185876799
0.47593440598408887,-0.963046545899401,-0.3763409672603851,-0.15618060083767804,0.015782178436866256,0.10834024976318757,1.2455818050017897,0.43393116298919654,-0.5644449897512043,-0.5191245437397106
0.6304377873963132,-0.9125918246966661,-1.8926184690248649,-3.0068699116165094,-0.015417873008461178,0.5191469466491303,-0.8221774424752851,0.6484537555987961,0.29921212962152066,-0.19229197244157226
-0.0597125374332832,0.9265464007615581,0.01513360255830165,-0.41242714908960837,-0.08884250597084391,0.5397310651729855,0.7182544520066345,-1.4142753143505478,0.7010592499560077,-0.5210231658013329
-0.33405568752318504,-0.3117766707913457,-1.8216603542009204,-2.920092119159914,0.15146484406040425,2.541793952376337,0.6927764744601024,1.5456374228406586,0.048805755841617664,0.13172551620149264
-0.19023301870738618,2.648782721651863,1.3638665666621288,3.346317863016608,-0.11223429883148563,-3.1202739342665122,-0.34158551027006273,-0.07814603000012477,0.00993946531670826,-2.7702958269272657
3.0695965408679076,1.2319856446635231,0.7606897238749045,1.063501622779099,-0.7853459348262166,1.3486160606271855,-0.4497356068462202,-1.4195684332403853,1.1491687609418264,0.4913047029836861
0.5577874015094328,0.9304750907587955,-0.018487202895731036,-0.5483001475175959,-0.4275217910901807,0.7680931267157523,-1.4232045952844319,0.054149876763170735,0.6581930835295877,-1.3325664491275395
1.088323087753425,-1.3104072953505106,0.1756830454910617,0.3395484676634705,-0.36577781399566817,1.5163182082137974,-0.7564362308066012,1.1590332153750866,-0.14451284662518635,1.8980047368308728
0.5861988845756843,-1.3698719925963543,-1.0523268332913305,-0.5978621136273778,-0.3092234789500998,1.562597190165257,0.093795064611477,0.6094942917696986,-0.3446740544220815,-0.5243098961650987
0.7886448324988169,2.2107036664422477,2.0856710278541497,2.600460411904606,-0.13555991741267848,-0.8318244583189818,-0.9763036389682274,-1.2345939417786393,0.24472900044434387,-3.68319479967251
1.9559114966928894,-0.7083024390610787,0.36116161510958456,1.8727192730397388,-0.4841282382391061,1.0767809316829156,-0.018990692623350618,-1.7307192369434476,0.5339137367539193,-1.1331440909956707
1.5847343178086115,0.2866180149958535,1.0254639024441452,0.16487231435783697,-0.23148029419054605,-0.9789753039285363,-0.33953292577418054,-1.0039664983294339,0.7966134222098769,-1.4458241539675083
2.0748667018309126,-0.20529833990116145,0.6669353686759506,0.01679946846437698,-0.18683324153391054,0.5802737298372334,-0.8779960445103479,-0.16137517363236054,-0.28835675257086196,-1.0814488511273603
1.2675693960277359,0.3761361573681746,1.4493293261257403,0.8975875915998069,-0.2590272460349222,-2.4640123133934977,-0.2550946853347837,0.8418510637855856,0.4450681971755213,-1.0019770148817548
-0.9285730041689112,-2.2584974189502134,-1.201869769259724,-2.492072074541085,0.5333109050855344,0.63427750246661,-0.16796378964762657,-0.5372614876759425,-1.1317035371568809,1.6682396144520357
3.395773709388381,-1.6115836643312973,-0.2356075235813222,0.6126343122911461,-0.38203312822058033,-1.0600801589009516,-0.5818449889132858,0.9925816701516577,-0.0010230092040127215,0.6814432368341211
0.9001058974754523,-1.2635519031453213,-0.7858665127657152,-1.8521176847298366,0.22114303164665797,0.3410420701527197,0.2958276603782247,3.1516862718958,-0.7100075031377222,1.4397152811089062
-0.2513605848591549,-0.6995065639762063,0.22087177730629778,1.7170002930140102,-0.13100924314655218,-0.6560463073005169,-1.0654472253506282,1.817196858405656,-0.9221918204513314,0.5236983137510635
3.0097204029091253,0.005740490555708695,2.107934171889861,3.6995501634231056,-1.193588910660766,-2.1466678418449336,-1.3783386829155473,-2.8684915973280227,0.6466010633487781,-4.13762507782802
2.908038739991794,0.2851614787065257,0.24767820881791996,1.5899775213251444,-0.7765230080312286,-0.34808799467060747,0.20113931747406608,-1.1269494555686663,0.39794339892636993,-0.5079948665709526
-0.22862164444742672,-1.1429539461063236,0.5184605500511713,-1.0325186616213335,0.061121040032647574,0.6536587205674539,-0.12052449877072557,-0.12298192429727525,-0.3920037796938377,0.7153365367996115
-0.9045737538402033,-0.6022146480548407,1.7678574429505938,1.9862258911717694,0.1285484590481272,-0.004418059486127751,-0.4713943053693933,1.6538879265661608,-0.7214949566632236,0.5141296635468173
-0.9150809097419613,1.4015326303338074,-0.5516794689727026,-0.12462646734900452,0.06176670002353508,0.7636878868278916,-0.7642472384425334,-1.8754231794274676,0.983102384958431,0.9645008477937292
-0.606937952702516,0.2645163112076406,0.2733394203212867,0.7400948078074397,0.24579985735793433,-1.9849886973251565,-0.2533932596142272,-0.8649624421319637,0.3726828352616544,-2.6574105257427436
0.2498371046691441,0.9159219025839331,0.1265938102298953,-0.6890366453205202,0.0417497609315776,-1.2366722386157225,0.9259411898153529,-1.3654772741454853,-0.2505607403320919,1.1352870121512997
1.176664020827086,1.08061555657417,-0.1321450279174749,-0.0788850244969979,-0.28314798968167826,-0.7547349060902095,-1.9495039954310247,-0.33496807364183323,0.7528767796194555,1.1999380099890842
-0.45757531333296864,1.1095855078702177,-1.1217622833812668,-0.4659168515279332,-0.002333308576842271,-2.2668779428801336,0.9195775337742736,1.2593917138316257,-0.07189715783392377,-0.018237410375574147
0.07772396230141676,-1.8198601109770283,0.09803673599287474,0.3448820748972011,-0.0899263050960261,-0.40233228247636404,0.4303156236525444,1.1282515807291142,-1.3517316448758447,2.2763145697460683
-0.7236396430095637,-1.1100148691277103,-1.1036390679289052,-1.642412732943732,0.2457365673561516,0.38538706518999843,0.7003314930292399,0.026305463010731556,0.05433722542298219,-0.5758456420501955
1.2507647640644906,1.5109613895711702,1.6605145709847093,2.2842482243795943,0.015605704549474273,-1.6393465782365162,-1.3026185664491683,-0.294181873211129,0.9317278392139521,-2.491414062731283
3.266892888406568,-0.20138536933637585,-0.10516441772941769,0.18594454410024674,-0.7055417983803427,-0.9286605761757206,0.04591108243202192,-0.7833651120330406,0.49032431851930985,0.1777339182657531
2.140893942496803,-0.2053909822342562,0.1869961248862289,1.4807456187155008,-0.2780383335961461,-0.3090901975837197,0.15971629883023677,-0.0775296411297085,-0.8543711133332788,2.629058048982778
0.4622337864476753,1.0020029521251352,-0.05445607476814618,-0.3853378772575368,0.16367288938721994,1.127322608765242,0.06680577318784787,-1.6685722619259635,0.19294648893603866,0.7397184688563582
0.3005372402831197,1.7316884147644789,0.7727246925120976,0.41130277015536604,0.10453827181579577,-0.005844755563105236,-0.8498872816816958,0.4235520959089298,-0.6038491043678946,-2.7441423857931655
1.7395019444233935,1.107534997012386,1.1810357740124244,2.2167294395628003,-0.30988706695824497,-2.6489295328332947,-0.5561330531819979,-0.664061020108905,0.5122114520782389,-0.8299242326991588
1.130505984517081,-0.9745928455449805,-0.7237356163395209,-2.064113303129035,-0.25579598061866915,3.3767164411773187,1.912019536614097,-0.16930865597292022,-0.10194539562978386,2.4997591406269994
3.1964198194854054,0.5569665679213539,0.9884099728418606,2.0931599375106185,-0.5195564511386314,-0.4400190301931063,0.16942978550215373,-0.047800408431332056,-0.11040151458709417,0.31516528293589197
2.020869467259005,0.03871536200896293,0.7549217738521041,-0.3716881365940515,-0.25732691935847307,0.5510440973880895,0.4103574668748378,-1.533870329494314,0.2507152035203627,-0.8611447664659437
-0.38845814865329187,-0.1503464365888161,0.5211364556164596,1.0598988345116749,0.19790483306941037,2.815225496678354,0.3330293528140494,0.6057602924630008,-0.00771718342197251,3.0272165010414707
2.4003270934055254,0.2686654396856504,1.2769570861291268,2.2082334263432974,-0.38287229742753587,-1.2308616406754749,-0.19279787390773942,-1.3257730863644048,0.3915943484928403,-1.3165420168660047
0.7544002445418039,0.6035532219999766,-0.014685037273995926,0.787429102295214,-0.13589322547324978,0.530548896382974,1.0421769705420394,-1.128178983367999,0.1720210021025638,-2.2714735476065573
0.29049525723452274,0.3345370407823041,-0.3618545327077421,-1.5957397549799668,-0.24825499149364455,-0.10478855034172002,-0.5548449436018305,0.1573329519282348,-0.16280133903791366,-0.2242070827875237
2.303229457829699,-0.9903691124684005,0.5632233238901947,0.2197596604122947,-0.3479892410614172,-1.746647890625757,-0.7373381783568093,-0.06145620962224918,-0.5907207152244106,-1.8280396750120853
0.32805625884307377,-1.241088335851045,0.5311406193791534,0.3239382091789748,0.10689247816180893,-1.4177509301013862,0.5931028660072692,-0.5062722969863896,-0.6188072337382409,-1.63607965860845
-0.8224095766102781,-1.120310848649621,-0.05409377703218784,1.1600961079807592,0.10386080992446861,-1.7018114751867774,-0.23575890334481653,2.413971712735802,0.4830561564283565,-1.8618349097868017
0.8950876888467301,-0.41841585702024686,0.29508524452932516,0.957255123366204,-0.25986180466114783,-0.7494347273708832,-0.5003325350079436,-0.46289760589206136,0.6069300159569372,1.817980226936837
1.7222789241205163,-1.9990262517642927,-0.5433734075739237,0.243128795061785,-0.04854979596221027,1.2031346817409099,0.31286438307879516,-0.30662856212660694,-0.4380202421284651,1.8397470374519593
1.269213671110235,-1.1085461327799662,-0.4998916418127781,0.1363133986759812,-0.47020894071639235,-0.3827371083289051,0.2882915257924656,2.3442218979981475,-0.6244396129668992,1.447463270365403
1.6741395357550823,-1.6021281501798255,-0.5739176739727514,0.6568529798858465,-0.43715347511861385,-0.41205916073458126,-1.5649920124849703,1.1324241282793919,-0.755610348128558,2.2322020715841857
2.7116250898252003,-1.6886029779125655,-1.9348735058364221,-3.509795381977808,-0.5149019741797597,0.35682409988367036,1.9129811545475541,0.682989659790436,-1.0827473053060805,0.8850825985540953
-0.8584327334325019,-0.12229219472739619,-1.753487440839016,-2.425021020156115,0.4421253291306208,0.604059689539111,0.8654258025346511,1.0586603051386212,-0.17219687118308818,-1.2567738036041496
2.829615976015691,1.6049166238660726,1.4189110518020212,2.0173663176630168,-0.6406012510131223,-0.7951608227499121,-0.512060707144439,-0.9355360992843076,0.3941211372003764,0.2511802040087208
1.33970190565607,-0.5069127394068869,0.6443401759607167,0.687059875013211,-0.3170615435288078,-3.600522189651919,-0.9776448901974555,-0.45712604894253783,0.4999958217284381,-2.5728892555218628
1.3635853869767152,0.6383153150811447,0.33443150502350494,0.40716514260149883,-0.45809995147085253,1.2979498068639752,-0.15458250596089215,-1.4875649150440748,0.9609621268336588,-2.172563371204386
1.2693926153372277,-0.7385486175881976,0.8297988549679386,1.66350280278263,-0.09973264514174608,-0.3687326829273282,-0.6883336289408356,0.8582601806785684,-0.08822161831554279,0.337288335626549
3.328222457354716,0.6572404855746841,0.24529411485179595,1.1538992382560733,-0.47605666643506356,-2.3414890729588893,-1.493547601673911,-1.4899030444366463,1.1092189853719459,-1.507726167000667
-0.8361006026572497,-0.841656599627794,-0.4932631225842875,-0.3622844114907566,0.5147964613915958,1.6576718073578793,0.6781993843764068,0.584079975031037,0.17813793043886791,-1.8427675949454745
2.4008206016127662,-0.10174261781752807,-0.08508485199637669,0.4316687475255073,-0.3072370863651832,-0.04393345880034777,0.1414130720666972,-0.9795003692209203,0.3199448157516406,-0.21190998274736988
1.0606199941249637,1.165689037441363,-0.2820443978416186,0.569746959098584,0.00445303343541332,-0.7346963372457643,0.6711752824086,-0.14061695052355538,0.3272155675408252,2.61940407796425
-0.5718339648805747,0.9403321610066232,-0.09378998498834161,-0.6037524724455083,0.0855004639172616,-1.0737355639548192,1.4280685311382506,1.068149314745934,0.16095216704563864,-1.0646723443519408
2.7045978647761117,2.301807160046686,0.37898669721685635,0.8360497486180274,-0.8200200284601968,-0.49959847314463346,0.2901915201398308,-0.531177226087254,-0.0952602644674099,-0.3451702483833335
0.3565347120271969,-0.6251070397807409,0.5701807848070056,1.1329902767258748,-0.3058208808799786,-0.8148124773615275,-0.08721793655887249,-2.7187580819578727,0.40998757896369,-0.6453761146082582
2.3665027157180756,0.852494486637681,0.20735926676206687,1.4812259263730998,-0.4100996873748767,-1.6964330319494123,-0.40248859357073136,-2.137072956295068,1.2074730090095847,-2.59274547258656
3.2377689202400504,0.8612436777836115,0.38730164104994264,-1.435519492346589,-0.6969138188954536,-0.1784642453163066,0.9594554524978002,0.27495898065304347,0.3270592528172619,-0.9486798448241456
3.227222007972399,0.9444034122789942,-0.2655326796913993,-1.0583262345720326,-0.6885685512215252,-0.17626998288110596,0.21421537474337807,-0.03599642991987301,0.7212905386930396,-1.833946713546482
1.448969939192268,-0.7803028864308026,0.001047575900184273,1.8785210246576782,-0.5297843164877587,-0.46101158702490097,-1.2182161768694892,-0.4850101573402188,-0.005926877274564238,-1.3844638680113097
2.8689450619876875,0.5873109190842746,-1.3846466091760334,-1.3376725949114252,-0.7443465497775773,-0.7802409154169176,-0.7194825315945411,1.0166999145304334,-0.04736049855947116,2.1890112379197375
3.0751428192333767,-1.5424587057773929,-0.9954171523278161,-1.496445152708286,-0.3176506056210954,0.6811181949818507,-0.05290395979181993,1.5397138125765757,1.1574334183144888,-1.6359913961637644
1.4933244173788878,-0.8186597124841786,-0.17450853527216942,-1.0582269682631835,0.22171492975436793,-0.9661508894508692,-0.006488968317669407,-1.3122193677408875,0.08713944659236281,1.477926595428338
0.2408831072640567,1.2512197427967617,-1.8568104202426035,-2.3884419307180886,-0.2035279909938714,2.1425395156399083,0.6515301750944529,1.218713280874129,-0.5888489708591784,0.04056257279461075
2.0356795145807958,1.8193656699235397,-0.8843611857166522,-1.2089117654810513,-0.21911941386142228,0.813072682216316,0.6658633215943188,-0.7581900609356048,1.1249227070933352,-2.2502727079363822
1.446483620054818,0.9263286768710403,0.42805151361199173,-0.15913354315393277,-0.23400605366829563,-0.5009683390595038,0.8269655948392918,2.1861264436070855,-1.0719780585821064,0.5510464363849041
0.6817492132315186,-0.18923995160895254,0.17242132309557667,-0.4024623525465954,-0.07614643739158153,-1.3494962863595528,0.7836988105906668,2.302148177196429,-0.9993485841945271,0.13637649174733055
-0.05601899260531196,-2.0788287989915077,-0.050552678472492625,-0.21028771016966147,0.2505583393234338,0.36741397982269247,0.3330488334782068,-0.2560412014371787,0.5866898391424656,-2.5915467031475163
0.7374316984382303,0.7008833341246868,1.179975776556091,2.3470590657330037,0.2579656703880605,-3.358270941466141,-1.4459413707585247,-2.1277110238418975,0.47313931441578266,-2.5390798813572255
1.01282309078365,-1.7402590320175073,0.924605755138221,0.0613070053287193,0.3489314734064653,1.1245939207599842,-0.33712474772337214,2.5355457876822705,-1.3017045367677296,3.4606996492638893
1.9001752970982966,-0.7233303780231344,-0.5696521278857447,-1.325210246905072,-0.19213003882630067,1.891758098611996,-0.6049257655134587,-0.740960015849369,-0.3965894883293312,2.556141100442801
0.46484957353577117,-0.23333233525405414,1.1216825962177837,0.7626777908285194,-0.15978387569259472,-1.9273358243992469,-0.522464060585266,-1.6531075524360899,0.7758878724435894,-3.7450359417038177
0.19910822451979726,0.7760402714924437,-1.0349155956986913,-2.9661779475580365,-0.5522673387029627,2.6115101529271163,-0.8472424127417647,-2.706376514427018,0.3693848837564411,-0.5237901578690348
2.784083983996183,0.28074193856039176,-0.11669419551012546,-0.44723320042796644,-0.47548020151156273,-0.7810909593345869,0.7014925115928409,-1.5384763522609557,0.5249730501999521,-3.456558622738267
-0.3006942681046655,1.5845101479471442,-1.0513636747260218,-0.46632105474412383,0.2881759352113151,0.3834450382036452,-0.5893769154473958,0.17624595575247023,0.8044709472216346,1.3550377864873304
0.16991203466630256,-0.6158796893087357,-0.24432478259412363,-0.6275927035145268,-0.19951971698770032,0.08042471551111008,-0.14816587444173915,0.18610660332103768,-0.3913074302920021,2.127722411463898
0.7866500660747333,-0.3444277038546748,1.337141151834744,1.371486010047838,-0.5105572176681406,-1.3209591685321795,-0.369919852449916,-0.6919106266428846,0.5123538241938514,-1.4180847794718738
1.5852044781046972,0.9200125930844348,1.4395400248477368,1.8168834483092955,-0.40765325347327036,-1.2351476090504607,-0.708754699078498,-0.622571527338201,0.2659043196687853,0.5780267825219131
-0.8339572899141277,-0.340331885105551,-0.5353977518572035,-1.0090489924718227,-0.07799280682779584,1.3027031203358876,0.2769527028931153,0.2862398601061947,-0.29913181103050335,3.7071280584729944
3.435704171925458,-1.4061107560540649,0.9092699188624788,3.0039704466695034,-0.6838172142831961,-0.8253456476435901,-0.8912529002740404,-0.14344592994313354,-0.48307378469846585,-2.4999954748862603
2.587898012968477,-0.4210186339582107,1.0383179812351202,1.5246233404772414,-0.8402483947952134,-1.3302729109437819,0.04164720736001524,-1.3157300439074104,0.4842408736464763,-3.148233964646922
-0.4271532575593896,-0.16269018647593494,1.0302755546178204,0.9473147207188247,-0.05534009745110595,-1.8424814856913614,-0.7188083646401505,-1.9210702975458904,-0.013149911188513571,0.12210335347292738
0.4563902042421015,-1.9702866670303,-0.2841143836187219,-0.40357239280568913,-0.18254015483191882,-0.7172552918087515,-0.7801318483838513,0.32589707382529487,-1.5887457303842343,2.947862861476233
-0.8055564929549172,0.2943307215634203,1.422972140784958,0.9941215388345296,0.042311273031213986,-0.9648877776250464,0.7557286888607913,1.6915180714091889,0.7912117915843616,-4.102546212000577
2.332204571610479,0.3894884730322464,0.4876950080256969,0.6808916697216285,-0.6562350932240449,-0.27604829649083545,-0.4132378518519838,0.9556626742371426,0.2258803880946124,4.0642788483966035
1.6109912374214037,1.6030067377731612,0.9702403934105401,0.5352743905641172,-0.2706795613604903,0.11791025034447365,-0.2747381671342827,-0.7058224073041461,0.337680716177809,1.8145017692579284
0.4801640382566039,-0.24386364122879242,-0.283574487275418,-0.4207912254920604,-0.20153617670181187,0.10676145027020179,-0.1249115928278183,-0.32470750970133533,0.04274824935370648,1.3253030818435818
0.544912358704291,-0.48857486285791735,1.388451970749281,2.080481370383959,0.023300944852590388,-0.9109695664974781,-1.3564107696821213,-0.3461480129002631,0.5195005067712165,-2.2715174093808828
-0.8001450843675681,-0.1874153072466926,-0.41151901347391595,0.4762696180227065,0.11277453856167714,0.29907796975367024,-0.49114278927359895,1.3362166670165498,0.3572804761550287,-0.476442297465161
1.4268368954398585,-0.41634482251933236,-0.18442260557256188,0.020223140707057583,-0.23731330361329073,0.9752859321028154,-0.5828026797753622,0.09354726519442697,0.08719130706986608,-1.439811794715406
-0.17033723289296343,-0.36115616850544785,0.35083715105608065,1.9165169747984205,0.2647548582899796,-1.0813404499882366,0.828679441953295,-0.6771519978399908,0.6438364697797566,0.04809345783884827
0.8553109303028599,-0.07799053003289512,-0.02983824744281965,-0.4372873724279013,0.09812477006473712,0.8347332219114578,-0.12206153068311704,-1.2322108006458743,0.3890869263445512,-0.5743679926667322
-0.5294515316384718,0.34412968903913765,0.08124815138377295,0.3921686779445587,0.13791131384265165,-0.18535154036651347,-0.1167679670911447,0.8671636213522237,0.17870025025197622,0.05107075490294748
0.9012029357178173,0.25053775129666417,-0.7802843798448932,-0.39839795354286944,-0.5130119880432433,-1.5433252572997906,-0.552996837203503,1.291812439785404,-0.3914522025459003,-0.6295445758456328
0.7074978184916063,1.6677288370413637,1.7734519817222043,2.902840638543687,-0.07182579299083394,-2.859049191932396,-1.8365696093900257,-1.7762557688336518,0.8680886453978949,-1.8826569734846539
2.350911586547065,0.3901550038869251,0.43385886037946614,1.7034441606489161,-0.777368021137384,-0.06911835484448814,-1.1627380439550559,-0.5664019834791095,0.3280815835713439,1.1363293655591928
0.17693896435186462,-0.3593716355293309,-0.7922315908161577,0.3791929620662781,0.06919188023162338,2.213315164102252,0.2362190280652352,-0.21413508329221465,-0.18454657002580244,1.8210130293789344
-0.5654330230735584,-0.2953443572447368,-0.3042691471355002,-0.42395549565062296,0.10450338750237397,-2.486784241429209,-0.9618588769268921,-0.20243007179139794,0.23315319672133034,-1.6591813075432074
3.326504108805479,-1.419828081474071,0.26169750026636124,-0.7615642082804718,-1.1196327813955196,-0.966422046714422,0.5530135188472551,-0.7142488279186446,0.3227340458676928,-0.8990703451695644
-0.2715977696269153,-0.3299318339386621,0.29669664264109846,0.4333107278277278,0.08534893182420873,-0.09973420964771584,0.915356124320786,1.9211683830733828,-0.2156525546112035,1.2323223468318696
2.1439322723633856,-0.8031342425893273,1.6575703763858238,3.7175410964814963,-0.4812808797599709,-2.4357460288240524,1.3472108010429213,-1.717655276522553,-0.1550779034469896,-0.02161052967669554
1.8982827165256957,0.7101309936331741,0.5699236637633737,1.1436658113455853,-0.46563303041011184,-1.0497871191865507,-0.47812114737588124,0.3619552003770263,0.30520657813644486,0.9243300241780384
-0.2678393373365213,0.8218297233133077,-0.44597836850897943,-1.195876657395336,0.4615346736302607,-0.26930258883124003,0.9173289045325781,1.0434976169591081,-0.2946833609193083,1.0071610221899616
1.5418448780192255,0.9110668631875546,0.1657400149751711,0.7901089674801219,-0.693571193427468,2.223226975549981,0.28766741691877684,-0.21721785299740137,0.33262149380698175,-2.552024765949051
3.2936527338601955,0.14230198540091024,0.7702840880490677,0.6410936539859455,-1.0302191970217351,0.3977889527007271,-0.624633425158781,-0.7062248725861338,-0.6367891986589642,0.3593465932024369
1.0509952584021498,1.6479381182144734,0.5140777105140804,0.7375909219105488,0.08340176247576103,1.7381105602918852,0.7395259178771053,0.2146770226334568,-0.2924958053519985,0.6203943537163275
0.08568242940386583,0.14135157014706887,-0.5626188242484191,-1.0495664356785368,-0.16469694875329713,0.3402457931775349,1.1215609958310988,-0.8965418348220526,0.10169294936355097,1.6018079418465647
-0.5568226837004211,-1.7041069308933923,-0.1293671546885537,0.23510144924414247,0.3745284636052307,-0.6977801258680578,-0.8164754949252575,0.40196946671177264,-0.2130831159774635,-0.04811443949521549
2.9442373288885633,0.134278427626129,-0.3969996614675005,-0.38225799881321076,-0.45206752869745487,1.0585872564068213,-0.656988744752643,-2.5601159035765733,0.9938559195173544,-1.2415684243174576
1.4298112719494869,-2.0229192738501465,0.6716999804370913,0.8367995474415003,-0.3086751509641903,-1.1727645374813722,0.7375681476869186,-0.29854086019164183,0.31428374120864205,-1.8794009295660892
-0.40753937175394617,-2.4182937939489255,-0.5980205372931594,-0.5127350009729648,-0.2051649347192918,1.539541144882921,1.4504523807985845,0.7527809244588433,-0.3462302272667618,-0.4774176195023747
-0.15991093963612713,-1.9612104324102286,-0.893768955468948,-2.989286089825956,0.05890704924164266,1.2983131826851224,1.7867565850339588,-0.6143295065982092,-0.9836794168798044,1.6091823365927924
2.7020714987084404,1.2028022895241774,1.479051803432173,2.627197557109367,-0.8708193812185908,-0.18512596370662338,-2.2275596598953933,0.4258699932730342,0.21360993497197583,1.1771835289505417
2.199023573368117,0.431485620598785,0.6502535145549836,0.11156186597155031,-0.7411772106184709,-1.5799517854177538,0.09214180210506027,-1.7638869558142791,0.4275601707806666,-3.170750019465519
1.1802181776135576,1.5809224423632804,-0.8870322292903082,-0.543955488646946,-0.08254484188574676,0.2894346009491802,-0.28267818430111236,0.9560516263654082,-0.588729303771162,-1.3158584819440928
0.7091300661750797,-0.23963423842574472,0.04246273430883609,-0.3504909507278543,0.17630328216020602,-0.7351169762478065,-0.08695756358269771,-1.8999126770735568,0.37934020750617853,-2.0975305169038716
1.0268569996142003,1.1807805007773924,0.4942780682545152,0.9997795109306253,-0.12403408917260555,1.719230139759568,0.5009767418586736,-1.1261281937941645,-0.3207019825648024,0.5285651253630155
-0.9123389468796554,-1.2786374722591822,-1.2668856118240432,-1.969135859682913,0.4721755115501779,2.8191136558669974,-0.3279217711873026,-1.0771867137048194,-0.8484854797493325,-0.6189474031370237
1.7607971035315493,0.4356434090018512,0.5104479598223208,1.2934548004447333,-0.3146287736857624,-1.1448487456081395,0.0838175347905231,-1.4769276201373625,-0.1697210008477241,-0.2186387311511347
2.990713738877529,0.026317798373503773,-1.1983072248683828,-1.766059478863087,-1.040807773433928,0.8614375415148283,0.4177809560417391,-0.35179026392866275,-0.857286157505267,4.257536611907763
3.171892925387226,0.4659238638192201,2.1726695210476397,3.637425434701728,-0.7533718067360233,-2.6352404161357654,-0.023152525298386163,-1.0482043395538094,-0.013169324890666375,-0.3614738932599154
0.1702300004193118,-0.08281478896753841,-1.4119240780368936,-1.9310937232227807,0.014810643289219907,2.3182493604962624,0.9937255152157412,1.644883998921989,-0.2680707080658397,1.8242507548751212
-0.6328279238180612,-0.6621877497579123,-1.0769957685837295,-0.6243191200956375,0.23725946111041551,0.3487287252473672,-0.7557429588722911,1.3817894240752726,-0.2847496241905005,0.4611831758451135
1.6631820046236867,0.2000351215247257,1.167647502808026,1.0310963939358413,-0.7190536662917019,-1.7428889132674306,-0.19611445204066988,0.029396965065817626,0.4281864118453074,0.18345961279432801
3.003476973812437,1.6223168697958419,0.27768674190355036,0.22058285006034323,-0.9014013622947022,1.4315935979056218,0.3991499725573881,-1.1369547006519456,-0.004532492636100338,-1.1886466033899974
1.711887640531236,0.23594240366482583,-0.5452133256079151,-1.1402379232728985,-0.6767057081673326,-0.06661717428277447,-0.42594525863868554,-1.8036705428078856,0.31370022404850545,-1.3058053918163375
2.8522682232686596,0.6727261681337805,-0.9576103285194553,-1.6347308351290002,-0.7611570659708646,-0.15221129570696823,0.21327278654065535,-1.6767888018208867,0.4004143689732028,-1.6748085430121
-0.25915680036380684,0.03173230585767603,-0.5783946118908403,-2.374637054633664,0.3643303065534174,2.4297723386085925,0.345333658861887,0.8906618379956321,-0.28393777992323804,0.22333793318377557
2.2506448924162377,-0.6656781180016887,0.19049193449246654,1.5179947014468098,-0.5748542290891865,-0.2711221905743822,1.584655181382704,-0.23177174397581302,0.2789413679255396,-3.73547046220205
3.3215744347292198,0.33643243503949155,0.7642873600478236,1.6118404288837223,-0.8761039522701072,-0.5024591248104864,-2.0558352787634315,-0.36418169599021255,0.39625012936971726,-1.469342805138162
0.06011407027137605,0.4287152939531009,0.10740800339434826,0.27206748523384466,0.13131678181255527,-0.6848575632169909,0.3508860952911946,-1.1472126091241877,0.7539700444676792,-0.33203473075960405
1.4143892027097271,1.362019426043714,0.7432269922521695,0.8412460423963878,-0.2455504020208567,-0.027178373107108245,0.49307179284868885,-1.975522248416718,0.2626094073059074,0.21368758800688706
-0.8767602196376578,-2.7880900423225703,-0.23151433331897098,-0.15475244949967457,0.5372876514250359,0.8155324118788836,-0.15367997335164557,2.04657028770328,-1.164335656302254,1.5398215953831402
3.1543543024778433,1.0375828874808424,0.4983037853592182,-0.5831754245551577,-0.6132727364140254,-0.4676037962078735,-1.3652467567204942,-0.8837870705505737,0.439340357143798,-2.5675396552447634
-0.6517904040931655,-1.0179273857774915,-1.4296728990938639,-3.0971952741333415,0.5329701597206518,1.9386619127572144,-0.8483692993988897,1.0050970375320203,0.21331190185899646,-0.49466119473613046
-0.8636466509120873,-2.0397345072441833,0.04359542887783623,-0.20088881402440792,0.3838762942774088,-0.5160020542275094,0.4847714017997315,1.7117401639929035,-0.08417817564140043,-0.13313619644238198
-0.7199915747176455,-1.3094573826724478,0.6025198546936193,0.726393120112795,0.5583266495520193,-0.22072623545852743,1.6606994131208936,0.7686188008890997,0.5024501562161295,0.6216843229435174
0.7576080398340139,-0.5724803406534817,-0.20399575508232878,-1.7611882027223456,-0.06749205263714017,1.6664307219073962,-0.4756065171047185,1.614861977832814,-0.8211070046411096,0.6331084376359821
0.5504298661756228,-1.1324306598544311,-0.29992179621442494,-0.5301837956873632,-0.39529916317870156,1.4327072271553747,-0.26016364198493064,1.0834535332706507,-0.42688313569570985,0.5013393284089432
2.6785880892249394,1.8249094807981845,0.7813111461775399,0.8831708533535643,-0.5020631545980235,-2.8563405294782545,-1.3339738820921592,-1.7667139367352598,0.40830666257056947,-0.2761748582297713
2.1238263416055614,-0.5786348418468716,-0.1426675818346298,0.4998263603270007,-0.09869441581400665,-0.8537906237774053,-0.5402857641902942,-0.14963071765958122,-0.09223217485404514,-0.5554787173814153
3.139152170774402,0.230850113592208,-0.4195935714767981,-1.0864071899124244,-0.766053201034335,-2.631389404798082,-0.6460925263812609,1.0208514207694832,0.33031340399488424,-0.5223234891332067
3.267431680275271,1.3043657317332162,-0.7950466990785656,-2.483467933089409,-1.0401996310544968,0.6156056234059318,-0.23493136214424415,-0.027235624753204374,-0.5765138102059265,0.6686338157683831
-0.5121029080309794,1.0583114866838221,0.010562988990706505,0.318358104521051,0.1987800934856527,0.3695543178235977,0.3484050459672188,-1.9940734400346565,0.4732690347927548,0.745237661877379
1.8052651182855106,1.1210336244001662,-0.2017261487252559,-0.7053916392436375,-0.36255670581815447,-0.4862668603471127,0.07871459675356497,0.5100624331890751,0.3784842727690678,0.49202972402901457
-0.9592693672167504,-0.3340969528673031,-2.636997547125539,-3.118075741204977,0.1980623666163284,2.3314929321276354,1.843702430636643,-0.2892193576353085,-0.06722897668373386,-1.0206623693128898
0.8780571326493356,-1.2023760026090653,-1.4002011450268377,-2.4102230311090556,0.21446974996685314,0.7852497469402511,0.027165735656479572,3.042211636538402,-0.77201625684489,3.3905214548715565
2.115711575597458,1.2717793728317555,1.8164123973274426,2.5140571309768736,-0.35501620985602106,-2.6093989407939295,-2.6378118389147334,-0.9433014318095728,0.0681491829720581,-2.815838559434838
-0.7725393216867862,-0.3338391497636677,0.5174962207849083,0.06728081339502101,0.17133543072736845,1.1941015609914984,0.03588030569220547,-0.36697001829886966,-1.4531781447095249,-0.5963521262583013
0.8612489251550459,-1.612310616649987,-0.41109452270134345,0.9146874521586078,-0.1904833370190238,0.3335334574768256,0.4630202958381339,0.3234696165471386,-0.1559025040751577,3.0499004694696534
3.376155962095739,1.2442204100629348,-0.2835141239615847,-1.261617921080363,-0.8336708467555797,-0.7856558853404543,0.021966373204249285,-0.6506470972314056,0.7768946949317909,-2.337985744251967
-0.2929598967375253,1.2030383942984941,-0.7881505283689199,-2.0810290897897694,-0.33872790352621984,0.47101759436567453,0.4047687018662372,0.24743170522034214,-0.42960284652263864,-1.2450733531713964
2.5171206212039845,0.30558685997308566,0.485174575866547,0.1856795462092059,-0.958851568217113,0.7395353528524049,-0.01836396982541646,0.839752300703042,0.3505192197157259,-0.29315279631723457
-0.11629827587546271,-0.8972842710860193,0.606528616647383,0.8400851642567415,-0.021181705862515426,-1.6745114067415767,-0.5156622836524947,1.382542319540656,-0.01867717184000094,0.828333129903436
2.2697266300529453,1.1055322321150003,0.4968979983106749,1.1738963680365355,-0.579568333560751,0.8431605889731012,-0.44843503785461153,0.37259453829577865,-0.33093786735387953,1.4187192461739837
1.9199366474014319,0.4656878763142421,-0.13187180206478066,-0.06043498020029155,-0.18103529384422,1.542950266438043,0.9732547521697732,0.20788825679794587,-0.1728662361601238,-0.7058367855262452
0.7924209837631557,-0.4579539434508473,-1.3038540465461987,-3.1924423152107124,0.14886358733693503,1.3981505029975845,0.9881385769311761,-1.828111424712734,0.12721435573279752,2.0322664188206345
0.26620300058622504,0.9138604377357212,-0.8680732313946209,-0.5421345421777278,-0.0043441187758320185,0.11243673782045371,-0.03136899374928163,-0.3451889508833483,0.6919173656941825,-1.6812889314079402
2.0714046640285484,1.9042512601945203,-0.3154343142499978,-0.923647753708679,-0.5767636985191781,-1.8495239095480982,-0.12854688176747736,-0.3254148539542607,-0.9321090261764381,-0.7637858238634967
2.9558165528325566,0.42240478742574206,0.2885913953138534,0.42640530789711417,-0.7711611816504822,0.7859545407400366,-1.3766096066074425,-0.12636922385176264,0.08726919309947084,-1.2161574744050598
0.8605671212420607,-0.02517472277186693,-0.8368943533015658,-0.6931487399071967,-0.19749054118522877,0.6139816872978716,0.5279146928618027,-0.775742656921178,0.5851050141470745,-3.0761169297869797
1.3199567162813683,-0.11532279995988108,1.6361258214584187,2.833485113544267,-0.18383293447816423,-0.41479254728153014,-0.19679306811756778,-0.5368259431138369,0.28865505596798974,-0.2580109217495621
-0.33655693789736574,-0.016700777151790178,-0.7499340598340227,-0.6040001705245119,-0.23013826596597406,1.8459984389442572,0.5386149383607693,2.499233256367976,-0.7441635493738866,2.7315493075342436
2.2624256410746493,-0.3320735276399461,1.1512927086003932,1.4552245353978095,-0.3967088028793717,-1.5560776488057275,-1.1159802932154017,0.8296083296015343,0.4355590580257816,1.177236266609838
2.694358399387174,-1.0482022131491417,-0.11619903791322288,0.02102326449329555,-0.5075753099770118,-0.16518473344242773,-0.11717206213963845,0.8920767666574392,-0.8721555510588963,0.9546005166354367
3.1649830864777613,0.12184583882739104,0.22933896285128502,0.1077770037841299,-0.6923937425721157,-2.6531500632764167,-2.0749614741467552,-1.8110766145023576,0.144765475104412,-2.6226829603624022
0.7017390806930235,-1.5803323920834405,0.012317599177369081,-0.8374549387926079,-0.3320519096768443,0.048536845309084836,-0.09331708898007153,0.870530881764431,-0.3089378506077289,1.2969213126969006
2.447937016451278,-0.4528107040052507,0.6219316647804384,0.9896772117716326,-0.8337733837653556,-0.9028157355847397,-0.08419589268939957,-1.1397166449663494,-0.6427250535321307,-0.7164865320676158
-0.0673609965996832,0.3912893748608556,-0.03699960616026311,1.7770632654981218,-0.22376087383244517,-0.2878046707311642,0.33173617431789354,-0.24318032353950828,-0.05667395254298836,0.7641414884677692
