x1,x2,x3,x4,x5,y1,y2,y3,y4
2.848600709547169,7.19545097186615,-2.809638117258317,2.761480838380387,2.8387319083730316,-2.6217334362284053,-0.6992627882581415,1.3286897898421002,-1.6348705541624309
0.9587302541405538,2.079692190580619,-4.620645033634548,-1.4558834553463185,3.0786044374242882,1.3812849913931489,0.24923921467058113,-0.18970832287063888,-4.039321705284377
-0.07815227529376378,0.4682674559173713,-0.8636749398736977,0.3165623794329589,0.37945654015181307,0.6311695103435513,0.6594084681154646,4.398093963163177,-1.975013778409346
0.7472184025378859,2.002819190221061,0.13318232659252804,0.13188900663782652,3.4021903429768265,-0.5932551904152044,0.19928859699548254,2.050357579098467,-0.6831661394511571
-0.9727138723567362,3.043455999979431,1.2245335697953208,2.4411005790933222,2.019106951412612,0.24314378844199697,0.40699710999404615,-0.47297897421181884,-1.1377467605347693
2.2507323900004557,5.063609583285789,-3.9686902398314357,2.208464102692047,2.7978482968485188,-0.006346577453530955,-0.612706552311821,2.5642784848413083,-1.7718452950718293
-0.6967959253616163,2.6438688027545783,1.0599412885032626,2.4275125539031084,-0.03334482612046774,-1.241583601485709,-0.7312534499503459,0.9766797129500806,-1.5408878630433673
0.28196324943891127,2.5965308294497698,1.239175261601303,2.5923219008183764,1.509558075513632,-0.5153640113603324,0.3009031617633393,2.574734055590067,-3.56431125679072
3.1415896072182354,1.426826426584471,-5.134951487262924,-0.6336574395859519,0.9121994724014328,0.7760541936598871,-0.013718730609918413,-2.1701398558890297,0.48965503648594016
-0.47139541711251143,-3.1886265604283754,0.6903079224799318,-3.079008938959595,1.3479949180914694,1.9191577116387306,0.6235835061454614,0.18736153791660282,1.9594050593554322
-0.2986915125452284,-1.5670973936112884,-1.3990384045330477,-0.7165575155815904,-0.2562996118039583,0.928151313813165,-0.1872476060562203,1.43042551601112,-1.932396308071773
-0.8682895601547982,-1.3079068785409047,-0.2825239803155069,-0.20272042473325366,0.03598715259396168,-1.999161399293133,-0.4487512376160674,-0.3345165303402222,0.8910483081530076
1.5480293766968485,4.082702796844583,-3.4996872136893313,1.8071630493835313,1.6210172245203314,-0.7549593492070359,-0.5013434956880422,-0.7364754637109163,-0.7822272618937827
3.3580538251710275,4.078788529691119,-6.775052017954885,0.22809929579548807,2.292377773045135,-0.16044468147893026,0.6999905822031669,0.39624054474407255,0.11778746526589672
3.087539889042807,3.0850193993306134,-3.4945496050364704,-1.5641469611715615,3.3366469682024515,0.7216731486068151,0.6261321210929325,-1.8455427981275876,0.8567545441176465
0.2737793141958287,2.160301852441816,0.20559351624067213,2.488983250148553,0.9218159863291047,-0.014225653610744848,-1.1102581865777643,-1.2327856531465518,-1.0878206497559253
0.4732048200163581,3.355950505258804,1.8048364623176305,2.756513588470324,1.5245872502884734,-0.5661013948675266,-1.3157135650339247,6.001775543146898,-4.441933124248353
1.9479564938130478,6.5510700503607575,-1.7646060106354586,3.7026187316416204,3.413554429055325,-1.4680255949019072,-0.6016266481842004,4.017584663668272,-1.9204872710813874
-0.6719505064404914,-1.059651416022781,1.2073106769980866,-0.5856630493164757,1.4226681301328448,0.5125623897190058,0.8171181077449741,0.4710807228734696,1.1544826196844362
2.852146603015221,3.346856793015923,-3.061285596136574,1.1783701150496682,2.217604698627805,0.07985599179116942,-0.6483365437260629,-0.6125143287745762,0.08095206579076208
2.8386945064592366,5.398343937891052,-4.916784187381928,3.810977592005163,2.835853126158483,-3.596095767764978,-0.611737430496505,2.914635109180118,-3.0230683242556546
-0.8734721223736419,6.3681807836961655,-0.3324179470413037,4.069986703347216,2.1536658097001977,-2.6321388097862863,-2.0820407758269446,3.764308287748156,-4.635253139427954
2.777869820345166,2.878893256674229,-3.1128558595461833,0.9435722354995122,1.0559273525227475,-1.2354145916566914,0.13841171126990479,0.6133937018013833,-1.784492074703192
2.9184018068751763,-0.7091854718202595,-4.746799383482682,0.7221468591207978,-0.6523086495364757,1.8887560638016763,0.55290519212774,-1.1851051616873916,1.5867634852579358
1.8058576281253989,4.013589536342979,-3.2193577975246193,2.412627295019451,1.2159839965499937,0.5678385202397135,0.45522560669565454,1.3568161446668576,-3.5550917618447255
-0.8145799721764779,4.086861541474288,-1.6266216995931517,3.262468563605266,0.6594223618517927,-1.335995414246268,-1.2400173124117906,2.1482554643425993,-3.2239206604580777
1.5777947561814458,3.812627833897336,-2.8462015040027175,2.0003930274547317,0.45654729742832156,-2.6448558155835933,-1.3061784778811698,-0.2731817502410936,-1.2444408201472554
1.8531894993109281,-0.02880636577196194,-2.6482711927357814,2.282041856128902,-0.7947838814103105,-1.312619086959127,-0.40446336537128197,1.6682112201584187,-2.34923133120912
2.019344442130075,-0.006494149231669244,-1.9505105838636618,-1.7381496328348773,0.5301514486115768,-0.16997927436697824,0.42291065744092016,-1.528527012173754,0.7398491330486527
3.388921067638125,1.4775716210526522,-2.274600637335918,0.9541564202688501,1.493269029833752,0.2789884598276922,0.01548344166442637,2.4576437719275677,-1.1664435373524202
3.1207192386433507,-2.1113997063778625,-4.066721066845919,-2.03518896899444,-0.387790908381883,0.5783031326464005,0.5355941298109734,0.8827520014584613,-1.2983896520742844
-0.732615457657985,5.739642252753448,-2.8773847335068474,4.139951989461132,0.7862354501717903,-1.8952222715865472,-0.30141973131366323,3.04032215433545,-1.0527145586281241
1.6264992182399376,0.7323427069686478,-1.7882140155684045,0.2461757741395622,3.325314932397486,0.31310042132481136,0.47659762228463837,-0.5810146261481017,-1.1209950588218536
2.2519128845279206,5.740501903143965,-4.668521647826334,2.2870364858376346,0.32578819749295795,-0.6208996587729054,-0.8065386966069034,1.1409595134353507,-2.901978862497097
2.5707089227926936,5.795592869792374,-3.6260715069765697,3.0117276103914574,0.32957672774274416,-0.8638273482152317,-0.16797304202136762,3.0974549161264933,-2.8005060195054177
1.5239522241105123,2.0111542480854174,-0.7949843960093693,1.2935577798106077,3.31613190095877,-0.8029966892375602,0.5626140926123325,1.7587114754369508,-3.2330569272698604
1.486734799695368,6.294864462838881,-2.420771272465021,4.0753874302480195,0.822908482461959,-2.5463311499313486,-0.2018966931606605,3.632728088386393,-3.2786782362150073
2.6229138192203707,5.323179512431889,-4.2100330627134515,1.5648894850635837,3.065847344671556,0.8323122876347053,0.6713375956923217,0.6948851490255467,-1.0999824749670655
1.4315199868179702,7.8233304678309725,-1.7251572829302269,3.1303838210725785,3.182696962512173,-2.9625850176228945,-1.0406928365045722,1.8223100216743555,0.1342855383093134
1.4331656969046422,4.874944058369262,-0.5628747978115133,3.175873875900419,1.6106876490834758,-1.1059648818371768,-0.3806930282204273,0.9456836798852415,-0.09649554258353754
3.4288930927122854,3.8156805537777134,-4.116088870836468,3.425122585399972,0.1767317403815658,0.6770463672423583,-0.301326542331288,2.178946321083498,-3.494820470388483
2.370324843458888,7.177012209744921,-4.74516525914223,3.3497374182780297,0.7979914080364152,-0.5647671877559038,-0.7630471099181855,1.522214270800531,-2.4584925933977675
1.4098969321758021,4.094641668961224,-2.943359316018671,3.6689101887137094,-0.5716117839469366,-2.3614920777498307,-0.3203723033418283,1.4646235016278482,-1.931757417165051
0.8097460586195995,3.943493402053299,-0.26619188210642747,1.813271172908906,0.14497135522408877,-2.5414660378230187,-0.7439686656938846,1.9983478091950884,-3.255464470610913
0.76224027382748,3.5584662886777787,-0.4387567183600854,1.3053222757735725,2.0224585675428015,-0.8111686303549037,-0.6816988554216751,-0.03705410792223551,-1.2423384192688882
2.6002980579382737,4.804863658670006,-4.947421372894683,1.4336595516914317,-0.05945225963501588,-0.8728713246526101,-0.1281030152565302,-0.5279529912249825,-1.5844706969246918
2.1030896969588824,4.054774104639126,-3.5772140771516976,0.9860377613847311,1.191917173151746,-1.3917023123797432,0.38444059509779355,1.6360174811733956,-1.0063183931747801
0.8277968014429116,3.851674069731647,-3.1443067095773585,1.1747849721636998,2.2833569646788496,0.6576378053211522,-0.153202375703373,1.8470692681844472,-0.6224692979360055
2.4842562382572613,4.116730718521045,-2.952914808537401,1.4213088327338972,-0.07171951714099023,-1.9907168803811008,0.39363428734917294,1.936301223839171,-2.215444367478042
0.6281379668887992,3.8686967504229006,-3.347026520620183,-1.3485276297734228,1.7771160792796152,-0.3366676031440671,-0.24525013674042206,-0.2532754259229842,3.2061093500694233
-0.7180138090337674,2.0412799073800825,1.0762010724318805,2.517708970011613,1.308989082911702,-1.3348133604867123,-0.6653156117055203,2.209548100179234,-2.306971903839772
3.359123278671179,5.245079724495609,-6.929132080150616,0.49836499341629137,1.8730614789138778,0.4531111197637398,-0.8746162649716854,1.134284015008324,0.7631420527343781
0.47483358803819953,4.046930069904425,-1.4177229598068921,1.159303046091093,1.5612510744100159,0.1248822796868383,-1.9305686355901732,3.8009833794271266,-3.6633744796620613
-0.23101217841834765,5.227570603301441,-1.2006108448003223,2.3408068836550675,2.810841618576015,-2.928481377434668,-0.5175268967150588,0.07353523373496951,-1.8277246870200703
2.977175956835246,8.612758967824696,-3.977507611479414,4.5526300256805206,3.000155441322433,-0.8559019972668704,-1.3955514094105463,2.459706232854595,-4.037456661385266
0.2480457765801105,6.564868508167175,0.09002725976278585,4.10502525017286,0.756148772634988,-1.7933744582422553,-1.8201228185064946,2.2149950130660763,-1.9342151278337933
2.858681679083356,3.360190901560511,-5.975278179812162,-0.6551920802336855,1.9190115395892602,-1.2125672118119193,-0.5125218500257891,0.31311230100594345,0.25705301702540195
1.8790470113475997,-0.5566478605001599,-1.8439629191026117,-1.7298652274306876,2.293540153737463,0.8543516872628171,0.6233900932757199,-0.3765365005052208,0.7478904307976223
2.628074164072824,8.252061944915258,-4.2760074093507585,3.4309258174563078,1.8905040862738325,-4.051456641187364,-1.2950721873639208,4.85148906197017,-4.03728109415211
2.4619229685042727,0.7215924659312494,-2.5025448248115048,-2.030348665307933,0.8838375828510878,0.677590419185197,0.21651473857831133,1.0558938645261895,3.604468987315185
0.4445343502637875,4.621658048643685,-1.9656947980907522,3.479284964555304,-0.9339042806883061,-2.840452818061627,-1.0443182717256472,3.293847110134828,-3.8646118124925284
-0.728131750299052,3.27157816512246,-0.1530470576146711,2.6691485870463625,3.1021338761063557,0.468900146569015,0.1439401675610286,1.5622770255895935,-1.0100712148386126
1.4341114335758212,3.5495621564863447,-4.5490827941560665,1.288113997720141,0.17800757041017112,-0.5605464382197567,0.19362544837914591,1.8089909988897526,-1.7281735890904186
1.2938773484939206,3.896747009418752,-2.2788257048123324,0.48354604088455666,2.3710021598115105,-0.9407225335164954,-0.2314645364624746,2.9784002836325243,-1.1841791542403624
2.7602556129934026,-0.49308425449323234,-4.908127573144996,-2.164651427244015,2.959504928129998,0.09265664215650449,0.10970481313677166,0.09804360977539939,-1.0755856756631421
2.3359224115284194,4.45549572738753,-1.5252939834985926,1.5130063208962654,0.3297679063969665,0.47575206104538703,-0.5203979703722823,0.048826564211151474,-2.622545537477852
0.5944221626429924,-0.9436083982952315,-1.3659673997016066,-1.7477711717984101,1.3214676573832649,1.2503344171014668,0.8134659949864171,-0.23553650444264357,-0.37138750802893744
2.2059734414646752,0.4038173593823484,-1.822229893232992,-0.8784411561250317,2.552800943357424,0.8886682648630467,1.0846526519132422,0.7062757512745559,0.9268205073045533
-0.8794844398350984,3.361714829318758,1.0129456393288412,2.3702480632437113,1.3997811650067846,-1.3521595373832973,-0.00792893224016581,2.457331735043237,-4.703546257036258
0.777330378879119,6.002513198597002,-2.859349437204025,2.9789220097491826,3.2441893966897783,-2.008362860155308,-0.37355390994188087,1.7515771929481563,-3.8163563981030406
-0.020082248317435436,1.0202746841144816,0.4192566393773012,0.24496446029836605,3.231090740127579,0.576589041059007,0.6273982630934443,2.335691681017642,-2.6354908544318736
0.8223677944508954,-1.3003137010083978,-0.5695312085318445,-1.2572757234020784,1.3758331013967804,0.8824853351130353,0.3747469394880598,-0.5476238425648121,-0.9712135471397326
2.6407708755008206,2.8418321877612183,-3.7023872232068338,-0.505886662992888,1.3571854158216143,-1.5313892918125944,-0.2972913376482577,0.0024845986424454347,-1.3207007456835678
3.0160086193066835,3.5302290720512675,-8.515199129002223,-1.7736908255273796,2.0938798926980784,-1.256392444051806,0.11802573784783414,-0.7615893845471314,1.552615642713958
0.03177383229413433,-1.9064335368084728,-0.7153378175838887,0.8898928851901377,1.3107391854765567,0.7826338493440919,0.7751806858636079,3.2396315602503556,-1.9042253815971553
2.7113486852212607,2.227740832224739,-4.128740795431065,0.6148648604711794,3.3207869004427426,0.5396066288481487,-0.33989853516526475,1.4966218286909299,-2.4771701933923325
-0.17934340488610867,0.44508527012947674,-0.44165549266938264,0.5720783080129009,3.218723264910536,0.7018683825222053,-0.15908747536720383,1.3258798315177005,-2.9398451058082635
1.699621893805884,8.649830384072274,-2.949433750090725,3.2018372080958195,2.081219661523225,-2.5525509452397657,-0.8107104014033178,1.7339840266040987,-2.4132832933379067
-0.8581660854243309,3.5706472215966976,2.3312058855850575,1.9189005700078983,2.9289421032594154,-0.19213564522830318,-0.8996793891495066,1.3946495929894693,-0.658765094849858
1.2112660085297624,7.366680674396414,-1.701605517527055,3.3220804672427873,-0.6024198449985236,-3.0123586902518866,-0.4773326227902011,0.6155727075366463,-1.8395707753341235
2.2202336307136163,7.902157995765127,-6.164113604668649,4.641748880783752,0.1627141789808193,-3.489669396568396,-0.9529320129319,2.660959981821718,-1.402144731393015
1.4875263517938455,1.9530527932104023,-1.4960897462789784,0.7746479939504698,1.216050221861864,-1.3353125966479902,-0.5085852503916075,3.3829131817100926,-0.4893327176358123
2.1072084178322266,2.199146168016491,-1.0518734965368968,1.5058905811310532,-0.5532476680591001,-2.431388705778166,-0.8969900093953042,3.9031318768059116,-1.9605244741315762
2.293775859717031,5.469690040417803,-2.5039007222775744,3.5516114594765074,0.2929677399484538,-0.8628388862049712,-1.2347905516256876,2.8919118709089875,-2.2294477782946664
1.1132269015251204,4.182995752357291,-3.7547434310274714,1.604406053769624,2.817120417129754,-2.2721163098154693,-0.30048792603827273,2.1418764054826407,-2.692876008970625
0.02011458656053744,3.367150687946596,-0.5703742607034072,1.6277247124395324,0.9625057735917932,-1.867146232624605,-0.39163186749349177,-0.2846871217316199,-1.462664308956123
2.767528086243432,5.284116308743597,-4.0525582173950445,3.494629917796474,1.3776258823264595,-1.877056035415477,-0.39065788976858484,1.3043808072875698,-0.07349438567913386
2.1224332163646777,5.49471965594897,-5.111921611344629,0.11616122347416866,2.7404277876159577,-0.9077956704812788,0.03761065018822212,-0.1167959244689745,-0.9691995218750841
1.0613737056076031,2.1463554620339353,-0.8912430996907583,0.8544084657011695,1.8737913458295812,-0.5392643372205554,-0.4180074016582007,1.4347272164474298,0.32503309468161934
3.38391235258939,2.0664225722500422,-3.9867506365281775,-0.2282310110411275,0.830017795067129,0.5359471974669635,-0.14005449320700386,0.05829694836334409,-0.2134790234953109
1.0360589633297401,1.5178166251164273,-0.8587427030864032,0.5584010226245628,-0.7404095140263611,-1.0704401832152943,0.13993186080324022,1.059695590382761,-1.1225989891490546
-0.25028805197689563,-3.747522800521084,0.6955353397424588,-2.0538696798690745,1.8338343282330665,1.0910528174939684,1.1912969927018624,-0.6441408599313422,0.9139633069685152
0.051626897911378755,3.0816961769153584,0.6043239192834191,2.828346851713638,1.7021826754144502,-1.484783179671716,-0.4707850110180366,0.8615944703024743,-1.745966468590827
-0.23021514523304554,0.3862047521934187,0.39253614384758156,-0.22407173098615116,1.0632953297609489,-0.9243841527621115,-0.38325662729076704,0.3179291704195287,-1.110229429573567
-0.4166929043829556,5.125732767847272,0.32134632397667395,3.514104324401937,2.7962206407599477,-2.590353569938983,-1.1561632049014283,3.1271593373883366,-3.3570419849280912
0.5806753058706637,3.092398748283297,1.8809939412736303,3.1236832780627743,3.0833813078297556,-1.3321502146215403,-0.3110432575877051,3.031339949176172,-2.8760740901541024
2.7074874727081144,2.8872882396076602,-3.0876729414053066,-0.028972295524346537,2.921012935742454,1.0771915350035466,0.7400366382541091,-0.5920537787745687,-0.9214732572780174
1.5628356036761928,6.516878667953464,-1.419972945006046,2.441157137890176,2.8518634924653825,-3.354339237656414,-0.23046728665562113,0.7187675426245392,-3.6741906675552634
0.9348013561468089,1.7647654155010253,-0.8956853155379874,0.08791265186105356,0.5372259492884228,1.423950712467041,-0.7290365679259949,0.2528501753470943,0.31336557957797995
1.1230990154881964,4.639591477591406,-1.361914943831555,3.0242025123335274,0.7853574810317576,-0.5885344107854811,-0.019295317832895512,2.526466067553535,-2.6797348146225786
-0.00983498025557994,-1.994755868711152,0.275071712760653,-2.5983579221840696,-0.22621982507185623,0.7839359675973785,0.11998915968580684,1.2008823727086357,0.4501477896020709
1.7636270458300602,1.7842439047897098,-1.5633035024899478,-0.5300779815983548,1.866834637771385,-0.4737172002959979,-0.16934649319427156,-0.01418492613267408,1.0920601170140343
2.865208800500121,7.482798728700739,-4.239657869535559,3.870201437320905,3.0369130928245536,-2.988804241018442,-0.6125177233961918,2.3985587788916987,-0.6894168106330832
0.5512813446553804,3.0950124810688733,-0.16662167689569027,2.0185884425104494,1.7106704535685977,-2.691725456266973,-0.2569853077459317,-1.1511895004644188,0.3881514539231923
0.3952683905928298,4.673756685522349,0.23740931189005016,2.967136547638768,3.2144936232926344,-0.0340682125057481,-0.8913238965491102,1.994253139813055,-1.748081743711644
-0.5345807346387952,0.5146904607529984,-0.8393450612853984,-0.9908902440904471,2.115577977622494,1.2622920029939289,0.7036433286375877,1.7434377272359511,-1.378263126047202
0.12116583224022914,3.1901423040860744,0.8810656877085148,2.5645385609256723,0.5095251088853561,-3.026891230958787,-0.7564537627822027,3.4563760304551563,-1.949105050686233
0.010589774704593324,-2.043122001926116,-0.9701926713653739,-1.1464695358055523,-0.5972783864599327,1.242034997029389,0.4741136110296222,-2.14847690600536,1.6073413737451634
2.1608953996650135,3.090487290087788,-2.301366491937361,2.339035085105322,-0.414780572478312,-0.2595889850626689,-0.2230491000514533,2.1468816100417465,-2.1345530296641217
1.6095585955899567,3.99182803741636,-2.7814939429208,2.749518370102377,-0.14542981593046045,-0.8341187990311076,0.38718100156442214,1.49055264129391,-1.0135910308696725
1.8516568534972508,0.1363604772014172,-3.078240344494151,-0.7380471686505902,0.44986258792342393,-0.5788580738534654,0.2314731078304605,-0.30112986684889753,-1.4740241113081785
1.2116105201061762,-1.4233197082054583,-1.9561234632917355,-1.6320432398187235,1.6829192222111184,0.5063243746712129,0.7950022138807249,-1.0596514330675548,1.4720697357882522
1.0407249184043788,1.8902163006607262,-2.965818092467502,-0.17844889626283952,0.4540670220984464,-0.5153185923942211,-0.16546144708465785,-0.44634333350726996,-1.455713173965332
1.1658804856117544,3.817655138467967,-3.634191961877947,-1.7154953109508122,3.187850322492533,1.062014891961036,-0.31918614264891415,-0.4769385537621188,0.5070368144249627
1.8204809039954588,1.3017521743509948,-2.4847290013845864,0.04451262091351338,1.761181541617176,0.32573551531471245,0.4815436571715202,2.641638929860017,-1.3524817992262308
-0.942020646497488,-1.7945371925589246,0.4160287145472628,-1.236854745458732,-0.8037875381778549,-0.7466873860830001,-0.37122191435849317,0.6961226582546971,0.6398830802851311
-0.9162654396148242,5.4768034613499585,1.434766552222312,3.9476482963443433,3.4037256401326177,-2.6466685198881263,0.005853789120712803,1.7719984453286342,-2.8935584983915117
3.1261110492276245,7.672335517994309,-2.214106034764636,4.333462273164733,0.6623851314859339,-1.0714910732941605,-1.5287124607379272,0.3591539657268834,-1.6950737267668197
-0.610128705886346,0.8509154069369198,0.9957596186309913,2.4842346495200482,0.9235990716035711,-1.4302324538376647,0.33348720473038995,-0.12207368253400319,-1.7872122625427722
0.22102699995603792,3.1463034009328057,0.42398723662710447,0.19846701043700188,2.980617397532397,-1.5014554193079688,-0.8558450345386214,2.1441934961540268,0.5526623500749022
-0.21717375107835257,4.371382928519563,-1.3452630641133205,5.456062616034609,-0.7971470338527354,-0.4032314848672578,-0.45229243405766506,3.4004664005836003,-2.069449763284203
3.04454130332603,6.452054893465674,-1.552806741957707,0.8804718254907609,1.1033859252113118,-1.3846753770930835,-1.2598425325974056,0.6303112801601246,1.347615926682451
-0.6860540951984418,4.001835137027568,-0.06259599178161607,2.3467158583162693,2.0385337375954573,-2.5886159533050623,-0.4220713485925582,1.9771621844485752,0.05404116659440271
3.294452400232843,3.2980423382900135,-4.167425241293582,0.16352042624991442,0.9014437388951877,-1.2451550920861982,-0.3533898593305115,2.2281633645119667,-2.146883620492096
1.8213131634872184,1.8172770028140908,-1.852500871325761,1.1650009553998089,-0.7308905916441799,-0.9519793390542834,-0.8485865852416721,1.3107916629859173,-1.7939606509966124
-0.5289860214184241,2.5886267528253546,-0.46033397387251457,1.7474830646306774,0.4120804668561713,-0.9658191873535388,-1.2763609348999234,0.7422460128901922,-1.564553369398123
1.5926829517639143,4.4088529072856835,-0.7326740398120842,2.2438957211867177,-0.22055438988082354,-2.344545961735616,-1.4514021016861234,2.0698367188991043,-2.5417342928824596
2.901936760127119,1.7494962829591478,-2.245116438479393,1.1284261774329434,-0.36872089798036245,-1.3257720661162298,-0.18036295340200226,2.351419741859103,-2.421172505038226
1.0962479234820361,3.359578152625015,-2.425187109322077,1.0435425411173045,1.8250085541396057,-0.8857450215369594,-0.3976459024602275,3.2060947447554176,-1.479575436722618
2.3335468952829714,3.5929858186924895,-1.7075462037371252,1.5036603280078138,2.8720813525822546,-3.3492587679992027,-0.1780848187555308,-0.5288677794476964,-1.1352472406530982
0.2140392425307429,2.3465942908037456,-0.9366163220975817,1.2525873118875623,2.9231535211353923,-0.12314561339566532,0.04109359997955516,0.5307682804724239,-3.011150471342471
1.5208306907282783,1.0569406174364269,-1.878819732479589,0.2716744791836069,2.429339950712913,0.4285095705427277,0.4612035605360375,-0.5233628061391712,-0.9696945467247242
2.3730768195226313,-1.2985845583416273,-0.036947773288147336,0.3714841871375146,0.36839232891019,-0.8609609316155288,0.5537847462436318,1.1502017210251991,-0.025340875970422
0.5578590846464009,3.7134385065601565,-0.4608256547855437,2.633895940143472,2.507543279382717,0.8336637037123598,-0.0826149575203449,3.1021265364514896,-4.956528942762677
1.0199375060522486,1.0739322640427371,0.15573528517079252,0.8558543683407118,2.608149074012916,-1.173108919242929,-0.3168493147309383,1.860927885602289,0.18299901405917232
2.8719010802649665,2.2787725924929516,-3.506062207208741,-0.6332685893322372,3.03454363492572,-0.9440044682427258,0.18662392995316274,-1.09159573579235,0.02255594317288778
-0.3521291232336081,7.070522036372559,-0.627699013552934,4.140043197657056,2.3699690124366537,-1.5064440677326314,-0.12334322514011825,3.815089796055381,-5.140033672080254
0.4812391143216872,1.5964760516063636,-1.7354494932483369,0.8016338000336799,1.8055933125466908,0.17241366345469855,-0.9469088366608724,0.7397986237003022,-1.021514154288799
-0.22717027828063985,1.7460776746743938,2.0061143174644966,-0.025383448258553105,3.0634135516308563,-0.65301934578441,-0.5960585800317083,0.007364326498186857,0.4595139362057997
3.448064322476113,2.6185923761673293,-5.144275103796356,0.20739239625297518,2.3263800512507107,-0.21584392239387012,0.0899304976909675,-0.13616888439538988,0.37942943985649125
2.886607996079423,7.307006042557441,-2.0997461437057137,3.1917387839012306,2.683152563603426,-1.2801831449412706,-0.18887031447046876,1.0334443374346698,-1.6019282595796152
1.9905890685317313,-1.7132604796515438,-1.3019736458255937,-0.576698464091316,0.12984121891161693,-0.6104808613855195,0.18973849556170005,0.962769868639066,1.6807703056726258
2.661256762917607,8.802523030954898,-2.9160932311470353,2.881867981939075,2.9458286755667142,-2.106090725808747,-1.4264376411251494,1.1545949842876968,0.6952510351645023
-0.36459582411340086,-1.530433499413324,1.534298674480635,-1.349381404985593,1.592313203204184,1.8104788175350917,0.8103227496793644,-0.5023624418131765,1.0127969522448415
-0.357005357370317,7.284027746094636,0.5225630121239487,4.900767621119469,0.6683733142632449,-2.563530751967971,-1.2749774164437546,3.6896138730021057,-3.046523083967413
3.3789499447138054,5.483251775034483,-5.257027100488699,-0.05148878120648804,2.956295647539112,-1.1838607534305992,-0.04072041592856512,1.986188741058987,-1.2890542519738648
2.6617367791127644,2.634371184061198,-4.066281810394024,-0.45947015128541574,2.079099106183492,0.3905330931679694,0.34641943172969764,1.531888043621034,-2.349916910692511
3.1670839353483977,7.554528160141468,-5.241554671814729,5.456500271305213,0.7060783851583288,-2.8176784725205977,-0.700498593427458,3.5440948299365704,-3.5814076355154554
2.8691362788687838,7.573136847049931,-6.480528197205282,2.9925040625858035,-0.21742476509460318,-3.12204898723682,-0.548055709699555,1.360170703792142,0.905070294689918
2.385589645799854,4.458245516738203,-4.254161985375752,2.2931158882745106,2.903377989034592,0.05661566121391903,-0.7196167094647644,0.3658747288199209,-1.6767330208147042
2.173266737610201,-0.05548616229921577,-1.9653394197796576,-0.4859449650675028,-0.800546740140803,0.5614181677299692,-0.5084096138022479,0.28072855692723264,-0.8782891159418521
-0.37927904767999887,5.178039312007694,1.17337066841386,6.1400713287670134,2.729348241245626,-1.7032518043027436,-0.5999143736959847,1.4825664293656777,-3.774594882250855
2.640567535803841,4.295538002577211,-3.8695274716822854,2.2652196588866365,-0.34287754277243787,-0.6054918595551559,-0.27487506326338895,2.4820574465128162,-2.5556720663160766
0.4025169847423824,3.380592589454376,-1.0610860124015198,3.9486294539703883,-0.9726546231312652,-1.8706916936921045,-0.7561861644802577,4.541839257469498,-4.092190240829935
0.22813765194885383,0.8708353939687947,-0.09911275571083207,-0.05417578463313054,2.5952309828715223,1.5730102087409514,-0.46522461390628767,1.0245968095776388,0.017753755208092067
-0.051327172861161174,1.4906596478375882,-1.7088548867827498,-0.5824107944261203,-0.10321899793227785,1.1260510093049108,0.038504751742961016,-0.9594878423292663,1.5366565945435333
3.360111770546796,7.090366395952499,-5.035337745117662,2.1963272135173115,1.2728087706283397,-1.4768191599939184,-0.9968059735617772,2.0125102290182397,-3.0634158278140093
-0.6713270592520035,-2.3525425070481956,1.3061942700775848,-0.4872706029919151,-0.8168335210885957,0.340714632049647,0.3514437433102925,2.3584300992421126,-1.6239675959484694
0.6942017384884134,1.3196674048728378,-1.1777381440332815,0.11149381346188648,2.1199020136618434,-1.730246638246006,-0.49620162947571156,0.48364278154273144,0.04528764196993326
0.8641316434654003,4.167645760179663,-0.44339271789904927,2.6497139987109914,3.3735463314820917,-1.1847537234854224,-0.08478996780803666,-0.13902476363257876,-0.040082253060745504
0.35558842389990786,0.027872743483604183,0.10329839388682845,-0.5944589358395449,2.4362693019870023,0.11021981989192975,1.2574311536332106,0.4020327699543771,-1.8721622878203008
2.7022444865195414,3.4184958317826624,-4.885482809293337,0.7092004564736782,0.33089251000209563,-0.9723042487817359,-0.20324507980442785,2.120334626592416,-1.191669624025211
3.420472295254532,3.765691280032727,-2.6385073447256167,1.7329728423068174,0.20275518376108415,-1.9283026155381364,-0.5000728724206113,0.30605631910713144,-0.260956535232745
2.2182607416380264,6.264904538658707,-3.303057887562608,4.1282321930380075,-0.8086802575439135,0.27559604809265936,-1.3356151666791447,1.6632319396968416,-4.652917978899476
2.680679398747004,4.686053559239155,-3.262792308385593,1.485877428554762,2.3625642382764105,-0.39090286818338993,-0.026359224180986327,1.478344195690032,-2.634167274629851
1.055140738880627,3.223045196770223,-1.177715594358679,2.3582076883007166,1.9301649318597018,-1.6224102831920202,-0.20495149044823996,3.6000113563220926,-5.59281652485864
0.5466452948731251,5.564486929726147,1.681791192717712,3.357295976836572,1.960049725200327,-1.3724791364568563,-0.7881315011671011,2.4782340961823155,-2.886441862214705
0.03836086649433312,3.751614215513591,-2.010083368196628,1.585111298453103,1.1582186493645459,-1.5066445707241902,-0.17497223347677274,1.676554348429571,0.33180700128402557
-0.9895303063238633,3.562449800369447,3.6872022911687243,3.0135093985531993,0.9028971719699941,-2.2694989253054185,-1.331220930484827,1.3923952767585388,-3.0084862661566887
2.4331249276307463,2.6946905680380464,-5.617901259870697,1.8383896808435503,2.96368366182276,0.5016004818582003,-0.20100668136722072,0.36768217314215,0.7483838975547749
1.919181948217501,0.48824169447599663,-3.790027223379261,-0.43603152941536627,2.1558750562118028,-0.9515913634514825,0.0440646895047393,-0.2766265986207208,0.8328784578333763
2.7816225916741972,5.894922125440471,-4.019750459312802,2.458006991101776,2.707926409641445,0.26678489485555135,-1.1494877483447092,1.2138814453904032,-1.3407454452884042
1.9636928587987774,4.347075662762725,-3.7198771556371053,0.7140637550026151,2.076130722351956,-0.3057331577900967,0.5818230554687447,0.21596250152428564,-1.5341758639280887
-0.48652959993404743,4.64391856669824,-0.2420105632925842,3.915067367555897,2.2567895060769203,0.44453043249494506,-1.01410265651491,1.5132758350843203,-2.3153888703712857
0.7054512141545088,1.0158547429367102,0.1305972105051481,-0.4993175169675752,3.1453399299015192,3.027232479785558,0.12002347679551792,-0.2809257338605454,-1.6316585081834643
2.060219075765091,7.914157397942801,-1.9698308175624526,4.600004492001155,1.5594241413288281,-3.3365291088629023,-2.367867442507606,2.547512497761456,-4.833601834755984
1.1064487397655696,0.4268823675864505,-0.9449096592342111,-0.892901068156234,-0.7854657927704871,-0.30868170500227676,-0.695952661374791,0.6736671117761031,0.1631526439217369
3.452362332160849,3.1670947147904056,-3.314543983860886,0.8145130944754653,2.6268425712075465,-0.5949628458976378,0.9291500169071858,0.5243700658790867,-1.366528355258183
-0.3133423186122093,-0.7481213635940887,2.5362943548229433,0.8215393061845806,2.4200574419367404,0.20855450691743682,0.8784492371231465,1.7728731672392493,-0.02913571950828676
0.5654392738733389,3.602102856230007,-0.09371579493887307,1.7777632511991508,1.0725418153975967,-1.8135795469913707,-1.4231762377794799,-0.20965051030739867,0.1450334246711345
0.1792021274711595,0.6614741120880993,-0.5423724580668754,0.5308401691022933,-0.42875668543784007,0.22718979225767277,-1.1167525505937583,1.014292209265238,-0.13198416000826474
2.0409260427169955,-0.14340414123506795,-1.3883347593968671,-1.0232536341222873,-0.9138732329543496,-0.4796813476733537,0.03332345800248385,-0.09160486313671923,1.1916930963562524
2.300244606336218,2.4722826400880917,-1.579712476452329,-0.7306688606691092,2.3040332246625854,0.04707106146221535,-0.07985316454844732,-0.3151498456507447,-0.8092138391365596
-0.3575709299823393,1.435235127426814,-2.7865707089480907,1.6047002858785364,0.16747088002846766,0.22415139669706763,-0.3108754528465102,-0.08878193904914233,-0.8663130350560005
2.3149859668647603,0.9553261592698472,-2.1229699749186777,0.3014990391220861,0.02745205439002829,-0.3488275864686836,0.6267390518321322,-0.19315541897917982,-0.6736456221312819
1.418083339959784,3.227533721982307,-0.9021500300530034,2.6151571650329837,0.07450721942025096,-1.9700418535104438,-0.9489536036691059,1.4279315479356647,-2.7557168440660633
0.6793909615821083,1.3324850901030771,-0.17912200430414318,2.8678613502479395,1.1112821959628594,-0.9302046032748118,-0.917575272413233,2.5004789167708874,-3.0229500875891056
-0.6892339994654125,5.861388648310112,0.8567229427775636,5.350178604212478,0.14178368685675102,-2.7345318265542646,-1.5686478517334097,2.803459386781167,-4.448803979869693
0.7630137052199686,1.3094910158984203,0.28548584875409605,2.242848404181502,0.06663956896020085,-1.2302314817634181,-0.4468268806254052,2.781476518270896,-1.1585296824036322
2.945532506336225,5.780608436609535,-4.143144526404533,2.3394465488245806,2.0727266419393757,-1.8816049835827373,-0.950033399410279,1.9743556291149966,-1.8641936949442492
1.9337033771170957,4.644712248248442,-3.7288113304545165,1.2804735927549307,2.70397050641956,-1.7903875142646162,-0.3981383552577484,2.3001854905526575,-3.02492792315329
0.7793019845197744,3.425647473379335,-1.6094892939178596,4.10135085762509,-0.8453904330515172,0.3733942230837384,0.1494965406976546,3.2238612956948987,-4.551649327370749
-0.8979911297938465,0.9142396221433929,3.288721641209058,2.134084706925797,0.27612890874941876,-1.5752800470201682,-1.0956572223436947,-0.7439349423992452,1.4094865990288026
1.5781624610722864,3.599237566300513,-2.3515967808270486,0.8808673090033613,2.222853350403597,-1.3272578670602428,-0.14960871240465995,2.839028096635664,-1.4996688179172608
-0.5798683776703739,2.2637070786943805,0.6642836409415934,1.9508873535873343,1.0889629292039005,1.7411447806500948,-1.0482408608158653,4.242180307975201,-2.116508966464056
-0.8115736848023873,-0.2685265852614325,1.589442083931952,-1.777664084221084,1.0217103490701294,0.521535491065778,1.0057267083439412,-1.3537340638064745,1.5073433102173108
2.672457471647404,-0.1449225875111036,-2.0330774586371003,-0.4918226816993459,1.350463654837677,-0.46684541105643707,0.42464462904299594,-1.8299049063315955,-0.6471286343080955
2.7216804367555945,4.8455383645191485,-3.629122239828321,2.49859919613791,1.9459345211298702,-0.3947493869760953,0.4595885835028684,2.9894348345066835,-1.1259891405008993
-0.2619502421319172,4.895201882614392,1.161693726573202,3.4745160799852126,3.207378883581402,-1.7946697075671567,-0.7694425577734709,2.8548616753974443,-4.667309074338607
2.942359050863597,6.901373001067467,-4.660071738819678,4.880553363091718,0.39397691417987657,-2.395141572540597,-0.6364900341203756,1.99113239380132,-2.556175913778028
2.992043740925397,2.962212354996165,-3.214954431970491,-0.1941216356344015,1.2120501814591202,0.8528565527617528,-0.3566884814907263,2.7973344586950026,-1.5132655924447669
0.7005326630302042,1.5456142664042456,0.4812162466301662,2.6548706348043236,-0.7951928670230393,0.6811012300860491,0.0749111701178974,0.6510412209531234,-2.4569505694181806
3.1272449402090077,1.5429506393108574,-5.325253036812769,-1.74702417355055,1.7236015225816006,-0.14411680492887136,-1.0795574328411721,-0.11859013942703023,0.21270162309308258
-0.1749395269984092,2.6992670134710695,3.1166341852645494,4.252395728404948,3.420476330868608,-1.2816046539525716,-1.1110117132649775,1.9804794452115333,-3.209354577380936
2.789030729126084,2.795294676018849,-3.991469862405916,0.7325014623097199,0.7915461609562171,0.5377366442981301,-0.7586669968624139,1.3763380317531775,-2.7430487172653955
2.3350989200199055,0.41806029399181255,-3.7957923816774186,-0.6731609066271341,3.3354013629102797,0.4667584494274366,0.283401823669899,-1.3467603936432946,2.6504792806147788
1.9943666555688844,2.4282319956248073,-0.7304301353973821,1.485556117372122,1.1725014041101196,-2.881739508946925,0.07461647716688981,1.62493466997987,-1.7174407982866982
1.3812903105582457,2.818161757697532,-1.183702932947261,1.1184280081044562,1.610439402189216,1.6643498358591153,0.1094596034645078,1.4763606639901354,-2.5412513306322615
-0.5162764365686607,5.466706404671927,-0.6397651134671355,1.9439760470775418,1.9742759463177673,-3.9355786673237962,-0.6145089874570253,1.054168663782256,0.6951598898377729
2.6273806872771783,3.627167510297668,-4.086229150307066,-0.6930625609023047,1.8027459700939032,-0.9920104408053789,-0.1399108902681705,-1.3534494240287558,-0.8383062407883775
-0.5324739751505616,1.447434066242196,-2.136305074291548,-0.6128534446191037,1.7311357431545757,-2.1943933600601713,-0.5710668306137422,-1.20118993713769,-1.7215076711551434
2.6785541563662747,1.8702432924012835,-6.898515689287619,0.4937497891766712,-0.910836102742898,-0.2220546189405075,-0.18406625986919622,2.5537799862691295,-2.75436584743289
0.33997215670616376,2.6205075899027315,-1.4827657867798152,1.6884598990119941,2.478666307159171,-0.10206372423622656,0.6011417438346186,0.24403444472865576,-1.5017846857865036
3.1487755723657127,2.4562111234738877,-2.906101856543153,2.1252502324061915,1.3905817764439727,-0.8005185910122907,0.5452392430208641,1.6270008216499183,-1.4440093766678965
0.9568572873880679,1.1229380263866469,-0.9612036803569427,-1.576318139674673,1.7812209946118296,2.0156737748149003,0.2363110698955709,-1.499271570578773,1.8118202929454486
1.295706870720156,-0.2797765781453958,2.246892900295441,-0.6526837588166455,1.6438653658118878,-0.7474294984133911,-1.0899275131716333,0.17580944350453342,0.8428865040583446
-0.7856823438953106,3.5358186271512917,3.624092161313035,3.2332787863758616,2.664024424924473,-2.1777245059509682,-0.43306879101692486,1.7974056986566376,-1.3969644416569755
-0.2404281156403325,4.324467344963288,-1.2207703379005872,2.6284234075912387,3.170705924230675,-2.1008184875049967,-0.47548379491968906,2.298517881494884,-1.0449605925306265
1.612888174074162,2.622426837853347,-4.081694473661769,1.9207514725534216,1.31343134702144,0.4395296354022656,0.30099436800667606,-0.021515687647764237,-2.045284083925099
3.0271375884540355,5.053962872315189,-5.665166430553968,3.0266576531831997,1.3741287173102572,-1.0901941810656037,-0.778155992772121,4.730781625487305,-4.87831625311564
1.3783206555904384,1.6830630389143004,-1.783679289206432,0.13061745155446952,1.9748518953254721,0.24818632091457177,0.020147158640189185,-0.8191570075935466,0.7038606579027854
2.1331285659954387,1.4444820488728156,-0.7648057964349158,0.24272846477324175,1.3356620725371133,-1.1082483935307244,-0.32916121778227897,2.0516507559971195,-0.18609484435601015
1.0747413660509895,4.223649681200936,-2.1041059204543915,2.3922229064862632,2.8747023571398254,-2.1504538363805272,-0.2833970422489691,3.526409386805506,-5.352111301131012
3.11568128481545,3.808252203707791,-4.455163636642127,0.25359216636031456,2.0648243264207955,-2.6161009318716175,-0.17265788108638436,1.457664783435744,-0.39823586450520326
2.8638851550518516,3.831969448361094,-4.633229877106828,0.973528027083374,2.638301943915824,-0.6049351505598903,0.10811808114637265,2.0245045591090136,-3.2092138412698175
1.3557972314686406,2.527804645032469,-0.9516697282346118,-0.23009493724855107,2.644283769141763,0.461075337914848,0.7324811254048624,2.20906909030432,-2.1340546264527775
-0.25608700286705177,4.514937364158914,-0.03929185623305561,3.985200146450181,2.4927656713360165,-1.192093879088711,-1.2203353543337319,2.297539015939288,-2.9133588641606063
0.7810270990715036,1.4002190781633874,0.16118355339695983,0.30107905456023937,2.6794163106316518,0.007303995615304093,-0.9086299094439683,2.2742835915633144,-3.4522458301424077
3.0086057426159805,7.011812167817805,-5.189011554764178,2.213817561032001,2.074124700730443,-2.1134968759755366,-0.6129126382339681,3.517587923754422,-2.6416267322425133
2.7382829259671846,4.960969122193173,-4.329096356296356,1.8597007148791072,0.7464985693423314,-2.033806643699492,-0.2699980358326448,3.3231798446031995,-1.811239164674675
1.7405549150554886,3.304321631123873,-4.264942689185328,0.01308886310955742,1.9147120998476566,-1.9488083916051404,0.15440036597625215,-2.491852544296524,-1.4137954939477184
3.390859118113524,5.158718532270944,-4.320995297205667,3.187985959893218,-0.11246221945215762,-0.4299580130570304,-1.0135046293188263,1.7667410161444872,-0.8670879834358697
0.9884890217898603,3.2995909007327473,-1.1686232079085495,1.6921908909457146,0.1984624631879517,-1.5126650258607557,-0.400565783532457,2.650726055824985,-2.6301547902753617
0.508135576147551,1.9870850839042684,-0.07981450953819995,1.30799653823734,0.330732231536055,-0.6992703601356307,-0.03468298426959986,3.2968097856747676,-2.273383824437859
0.11050708305685197,3.3691431666672953,1.6833887216447738,3.587485894204818,2.0089842674819014,-1.9417236173380243,-0.5748836363227048,1.746498612854551,-2.90745723656202
2.774426223127954,3.2103232968120246,-3.3022210005076644,0.9419528672369645,3.3089349817955673,1.3427215557318342,0.6108971494482746,-2.109556582900847,0.1458519040500993
1.140221481259537,-1.1424966493388844,-1.7092978217636643,-1.0518610717833063,1.1682458174230135,0.4686034473440256,0.42816176594801025,-0.7065557337373758,0.5069904407937381
-0.7506488979175077,2.3630600387196097,1.4525740097021975,2.097369745963707,2.0310039469855945,0.4297831262443427,-0.13203450863075514,0.41688188388416947,-0.8001832597491135
0.06323108609033512,-0.699940671369244,-2.936139342541384,-0.2538575765013211,0.46559492371853906,0.14382650438008748,0.2075015907162737,2.249094064968858,0.4036002931601142
2.525478752601396,9.130674956440748,-3.5595407780232473,4.858755169929145,2.503940325033537,-3.6834930629874254,-1.8977688991260333,3.7348281176187252,-3.035112348630693
2.7118403950389025,9.750278768417742,-3.3056648429767943,4.960936675098739,2.780399591402939,-1.5312671802552973,0.16106865797296757,2.6728971967859305,-2.5409788934693016
2.4039963624159517,6.752020970170794,-2.696093302006525,2.421274799002269,2.2958691834882083,-2.1270849241378222,-0.8500404368984742,1.7398775884180462,-0.8569045819580238
-0.36016089901469395,0.44071788990735594,1.8319552743889596,0.8927025900094361,-0.33859593965960155,-1.6833972204872398,0.0022772733674491616,0.6873180421721523,-0.7084607995725245
3.3252049072833323,2.2715764483011327,-5.172820293798277,-1.0704428280772686,3.141074318314474,0.4295315879468884,0.829186342338952,0.15627380876134767,0.48071616863508804
0.5338252545290487,-3.1378421083277663,-0.6983217454217815,-1.7691098245820926,1.4550184129805843,4.512062358908155,1.0485613797204556,-1.2369953650702483,2.0898587437735667
0.5744028723230021,4.4704571173195315,-1.3542230092937715,4.6411763925291885,-0.7071169418440013,0.2876489058651992,-1.782345033893251,3.1140401054276183,-3.1637260966251164
0.4792873132265836,-2.571680986532934,-0.5875140317404481,-1.407907460849562,-0.5586594443433587,1.6626634498069457,-0.1371475978137759,1.7265815362526458,0.8429843594330527
2.594127566309903,6.534992639844128,-4.397633619457807,4.652963377309097,1.414607644552881,-1.6796997491951449,-0.6133228898330454,2.9188953624484277,-1.5905134283099953
2.6235304834163906,5.171211553402536,-1.2808003511894173,3.360997975021287,0.23145608130629558,-2.0725469377845176,-0.6775318195026699,1.7621391726187765,-4.861060615780816
-0.9708881532834704,3.7208960982981787,-0.2188662994354969,2.1135613908035933,0.40754479780591146,-3.748768717892795,-0.5384955267728456,3.436869093065546,-2.828048472429791
2.3378772668849437,6.769406754574371,-1.0217184030037976,3.7612355773887476,2.8065463240027184,-1.1898001596629983,-0.8393812235382555,-0.9272979341930163,-1.6413071424368018
0.3741355223083229,0.40376125582362726,-0.698623011897158,0.2749868838200601,-0.15020451907092036,-0.8333750814423401,-0.9927365023177382,0.4867204024358839,-1.0560285856426035
2.0924781291023695,5.925030163586024,-2.0816012402704858,4.84900520162172,1.9797120979499092,-2.327286722104854,-1.0535375313227158,3.33073221388421,-4.5050959996748094
3.2622714243756823,2.3168849610466555,-3.090349494621821,0.6470362146969744,-0.8088776183634901,-0.10773442560610808,0.6227001710109833,2.5001032039251885,-2.7123589452331744
0.9771562220588881,4.654792010810206,-1.9907009760587382,2.8448555689818398,1.7788543682496898,0.12164140563772052,-0.09430405691224107,2.124581318762746,-2.3331465010751464
-0.4410491880643793,4.851305512142888,0.863003582807784,3.5942384548310895,0.5718578697994765,-1.8612399018944927,-1.2689632319506587,0.31431413743894643,-0.445670403703469
1.7410322804616154,3.2086718864288617,-0.8274086386014976,1.0633716953534227,0.7794678354648101,-2.7274767393286026,-1.3977303897597328,1.0297956478780024,-1.688928191260075
2.6253510353785567,6.607866944606343,-4.177487763862477,3.6121553668186475,2.581788131107938,-2.795192091428053,-0.605362189634177,2.226320881352153,-1.9240530404826997
2.124347041547968,1.4792372366108963,-2.1398460866126228,-0.7403554630572224,0.29784894850361043,-0.7672774682468148,-0.80247970598908,-0.6087308897862224,0.11277758733583897
0.10048577577193019,7.812744634585983,0.16783718972937212,4.5546881058193325,-0.3944330479445002,-4.194067688929005,-0.35986020643669325,1.6557080584346058,-3.6121105397153217
-0.4091087099655454,2.2746828916222217,1.7376396551678173,2.306763858603362,2.513436711224586,-1.1470428401066064,0.19014722177593302,2.0106380671721036,-3.06131310417158
-0.5775197843405535,1.400137030857989,-0.06584253558384742,0.3875479110398899,0.904323826605649,-0.9343078764925072,-0.5797978664668779,0.44333719888983325,-0.9945086818256627
0.9188878685834392,3.8594894894032934,-1.094946361210678,0.5505509632283004,3.22123453974854,0.7244646979794618,-0.7125000872924836,1.315001120485328,-1.9691633100229569
0.5549291173870543,2.211590173763666,0.03864954696384246,2.3480583906683448,0.9849100395001666,-1.6628394277263165,-0.10304521019761238,0.9116515099215179,-1.674366003270538
2.932001056432086,3.456299958447979,-4.07131075849005,-0.37201446940295035,2.909214160946859,-0.12186922232879194,-0.030516031317233433,0.9886449523552714,0.5978047317069536
1.042796752949994,1.7674556046593701,-1.640845102103836,-1.1608577358416554,0.22535647043940688,0.5183015210509805,-0.33240570400134956,0.5093519969018171,-0.37973987802309817
2.021233019399593,5.195449365278847,-3.9090347895461623,0.96547950674585,1.9372828170026866,-2.14024650013521,-0.6452177916740912,2.044613171969634,-3.0681027842753466
-0.043310884775791925,3.9137932847490546,-1.6257901072821903,0.5688648817076225,2.2819480661490523,-2.275134614962038,-0.1732647521227148,0.9089597890766246,-3.7356470023247725
1.0079491597746952,2.1659254206243173,0.24553269237601344,1.0668242701457773,3.194826379073919,-1.027917960617296,-0.9711987312944219,5.3493976032077315,-3.2064870065694846
2.5201185396450163,1.8733607535764905,-0.4661035205452988,0.27096760915174845,1.2398331003046352,0.8168939419106452,-0.8157864376110011,-0.8766277060777135,-0.9732415539597405
3.3892683609772023,3.0851883559001205,-4.675366890124328,0.45774268201322027,2.454539981538469,0.21912415287738374,0.037298764650322634,0.8778857095788352,1.9671156835217103
-0.3596958986458111,0.44033416067382214,1.3366248424905904,-1.4884358907418263,2.9090738453237734,-0.9103368653619812,-0.19551050671098466,-0.6646697351946242,-0.2983549616434535
0.5429029138408483,2.24310969436325,0.7518224032571561,3.103998213545966,1.7219687268708612,-1.3293159519649103,1.0348557038787618,1.5766669029791158,-1.4081776383848794
2.0196428613329123,-0.017525493825317096,-1.9964762253640747,0.07019652777494675,0.7668515547434147,-1.2295756449945918,-0.38997218975614356,-0.9726817256612188,0.745766804093846
-0.03737543026267143,3.551649803905537,-2.329712779288764,0.5879726803489287,3.4085622684435553,-0.2720411664462965,0.3221069649875407,-1.5563951693009124,-0.9914141641417563
2.4373126981232645,6.4219358062630425,-5.395840410584111,1.1799316980838819,2.9593685948398503,0.01114880748441971,-0.3807401026873251,2.0008673334514357,-0.7752667350225134
1.8180748508340883,4.409276097088416,-2.5082046960132125,2.004571983533432,1.2965540558122668,-1.2986119675539831,-1.7011152394756144,2.180477566218542,0.7777585366317205
2.16365088441056,2.7329946296829934,-4.350886800674149,0.40636616990457086,2.9108001717674203,1.0349783440049705,0.5025233800949698,0.7058252646340004,0.3128001785282859
0.7374502948989443,-0.8280389706014177,-2.8248173596289834,0.5467681175854202,-0.7257274624459582,0.350810609724258,1.3827049789554497,-0.04150385610730678,-0.45457408576675795
0.675793315178356,-2.9015671994646404,0.4451072461315578,-1.214607631688963,-0.3444406656660379,0.7137342687195792,0.8479976573471834,-0.6190514042866491,0.8569395221645257
-0.11843629599545313,0.40528127987882423,1.1577286631869517,0.22634026497452422,-0.910545475461033,-0.15800090136772085,0.13470679745235678,0.8792014395126467,1.4350538142437677
0.4004182157694429,1.3504769121159637,-1.3748552750718142,2.599878355566361,-0.04561528827774519,1.144226386242489,-0.09835438800056236,2.0923943737805817,-1.6971613442877114
2.95390383723053,0.24112762231326634,-2.3497685388321767,0.18216959896281396,2.8227467591326274,0.0933984409625832,-0.2773660475924194,-1.5208105723785073,1.9606626540005963
2.629261403875177,4.232211543228168,-1.6427588336395795,0.3024492593256535,3.3866693482215373,-0.18748907625288735,-0.44218199362999144,0.5499698053480718,-1.3660093224091243
2.1407844893243295,5.2640226348578665,-3.7343222349215015,2.9321046911797475,0.24258085704927712,-1.2418039291750784,0.23322185322841912,0.65281981671932,-0.399140015812119
0.6079449785855928,1.756869398628093,-1.1422684773506175,2.775840830537166,0.5993228892805016,-0.4617863348223359,-0.7463298220975862,2.54135762575976,-3.7259424206152243
3.2670231087532544,2.311968119429203,-5.3980429297395185,-0.8923310564179945,0.6855223397563555,-0.2539809167242786,0.5586204636460028,-0.9833113603225752,1.1007814931916269
3.1530338500978896,2.2218349037204335,-4.055587838022791,-0.42219820341794667,0.38332329525535536,0.4248127620141975,0.37600468811685284,0.7528759190202402,1.8326873308169243
1.3853168578473505,-0.14718638326608668,0.09186585928740422,0.3996648676882571,0.41122915121117254,-0.16399843139016385,-0.3784359855055708,2.561678913614751,0.11758138913609864
0.37171882008175583,2.3261374633795233,2.2722813103750705,0.33879920254332374,2.5010174222822807,-0.09491509338169596,0.24341184336205374,0.17985006421796002,0.8796091260888919
2.4768707759978583,2.501002466271075,-2.445838891270906,0.5657960007961169,2.446965235110089,0.27539772696716586,0.08338918733800615,2.2989525449122503,-2.9500692338464924
0.34900564265956513,2.0464851807665543,1.0544234591697532,2.6841776493944267,2.591599011450443,-2.1642873033002186,-0.7884464968508301,1.6307311698982636,-4.468181957093275
0.18349267575251837,-1.9501220033678837,1.2010854805297317,0.8499457911558684,1.8463163590883656,0.04553549068656726,0.8090494127824274,0.6594351567490451,0.5668147232955352
0.4040453729275799,-1.8409811671401377,-0.13069294603155862,-0.6257525523182295,0.32283648804067666,0.40459228995714025,0.014559740696922159,-1.449938114951736,-0.7255964988584196
1.9803600831200665,4.111158389994512,-2.5424525402982607,0.9446988683294223,2.247313365304254,-0.9093099835256553,0.1540989238255512,1.5056153909917445,-1.1486175605653057
2.768294257999493,3.8110980844685938,-2.5449758718171966,1.6415046862173945,-0.08217139373660498,-0.17068385149440907,-0.15920376597305164,1.140620650702159,-0.9845864612793194
-0.14108665993434955,1.0973053292094956,2.5091141600163223,-0.06299133390865633,2.070443945510557,0.12047364803182614,-0.3367631751646738,0.45460240751838377,-0.6146120073964049
2.0992948004209477,-1.231876178128211,-5.360262444817355,-1.4821631155496475,1.7123835493718054,0.3670175342203692,0.8457341492097668,0.32548606842825756,-0.10241772302386651
1.2322676829721688,3.8597071104403313,0.10211296997769527,1.9745962361641463,-0.9819587149779425,-2.1312117013621314,-0.398830041934661,2.096946453098938,-2.9418909370322655
2.3886662662362785,5.236591354655106,-2.5464576967731762,1.5083842164919392,0.7159236691047759,-0.568242943085656,-0.3816320068072864,1.014949090073889,-1.5406284224405273
2.817863311263499,2.304833739270587,-4.6765620457289625,-1.1290181836966022,2.935789694231739,-0.5465908329344229,-0.36953054272020297,-1.1733071453922543,0.18476674646537658
1.0691530504934996,0.49605604165749695,-0.7427084210765545,-0.3014332043741386,2.7740582478659617,0.28825464220126185,0.7012074942120188,0.19230849459056035,0.41625659115357844
0.4269329474230754,1.376072940042365,0.3475764858715831,2.5971514926415127,0.013682614035974927,-2.5139919739714722,-0.27948505784969396,2.1469850443453056,-0.9852990821340398
1.769101588765849,-0.752755149334002,-1.5115126651944375,-2.1813904126018393,1.850486590947317,0.29143634241196814,0.5422519246033981,-0.18261342546489412,0.4420829023673351
-0.015396673502150127,3.7107800320114324,0.26630621982835984,0.41702992617132606,3.2240626494678697,0.2462443480323106,-0.15713631314142884,-0.2807900980641478,1.0510207748420204
-0.6536332510237537,4.651786422937632,1.7386306242523404,4.858683086521016,-0.39971876486662095,-3.9104759008444443,-1.7735149584096366,0.7259443885613122,-3.870317170609741
0.7194560081953787,6.09339376428324,-4.483184812166072,4.4415669210465945,1.1458828092980213,-2.959976505406703,-0.39170596688462145,3.5158604435940943,-4.509293042468633
0.0034113379646711905,4.199625014611222,3.0334142332276652,2.4760746828310607,3.2456924667606604,-1.491600834098106,-1.8079381448765275,2.969776214334469,-4.239629211317069
2.160626403738493,0.6997146062184649,-2.309083069674383,1.389776218187848,0.8833202272654597,-0.522140123557685,-0.43267873726252104,1.7239805484936428,-1.5804759679078029
1.1828281241168277,6.9522459553814695,-2.9131118124205435,2.7367054244726727,1.8324637336745475,-1.6636006062411082,-1.4577710160548296,1.6840220909951276,-3.8247387797782175
1.580964741489439,8.987131010296679,-2.003172524761227,4.427589543388092,2.1225719275999575,-4.073844964809148,-0.8490679522401544,5.184294396258148,-3.9537477224102746
0.6323476368327221,4.0592150677272185,-0.7915655335539877,1.793935731591386,2.265264620199472,-2.4935509311652044,-0.6761719246726918,0.9256413838699269,-2.723586273622845
3.0125995462267703,2.6147026770330624,-3.88307608071412,0.5684303815651104,-0.14477051274335306,0.5921547423375604,-0.023163896401354658,0.7176913647596678,-3.343332876528217
0.9312135776573927,5.2033843027004565,-1.0079666518575114,5.097201014421243,0.7537392738089945,-0.6660298923446127,-0.7658744108762051,3.2412896538480513,-2.7358967679958535
2.125098807187773,5.640852585470076,-1.5734173332177972,3.6334864945239445,0.5627088722696636,-1.925280931859719,-0.29059123975559076,1.6546730835977637,-2.457961991822444
-0.5035667095977372,2.5243960391971134,1.1692265216995439,3.1845515005817364,-0.5470254994497297,-1.0958137855966845,-1.0610111041882089,-0.7669662847785474,-0.1845220989972619
-0.48954927532370285,-1.0261847860735613,1.1270522848413864,-0.9442024460162741,-0.39567957468309356,1.5788590160506448,-0.5125623171650894,-0.5246646899959609,0.7327903468669666
-0.31878095402346507,-0.9305260477504504,0.2671927540282984,-1.5521080218440626,2.6208843014870107,-0.6763217614961196,0.9798795527613909,-1.3235620403155728,-0.28752115728881156
2.94396910500891,3.5967139628280833,-5.958790950835965,1.721218693545888,1.772507951179314,-1.3429800845550233,0.13549086044321737,0.5213831603969481,0.11731011870838277
0.2949105172969333,-1.3539367560025681,0.5283025421831276,-0.9951093855059777,1.1582936890303661,1.5782942041308208,1.308026871954931,1.4082293393677041,-3.1137564122984567
-0.13925645247959517,1.7607150805469804,1.0581335360565527,2.9926185243937407,-0.7531773201925296,-2.3408965194141915,-0.26133202098311464,2.2625073228601584,-2.5878983648412692
-0.696723093902203,1.8415171242747168,1.475521979350544,2.6063694127038506,0.14256625071945184,-2.433295990541202,0.2454189185343223,3.614750426473133,-1.2490394314759923
2.286089852031529,4.972275467732066,-3.4925543465546807,1.5098076813352277,1.360261504061853,-2.4484302072920334,-0.043662204832906885,0.5199900370569343,-0.9826477613037735
0.4987809055763568,5.539443451147752,-1.3750831492663556,3.1577026144675435,1.0751972837105672,-2.989788130366348,-0.3289386544162685,2.971344264637028,-3.1943124101454328
1.7411859548586524,3.263739806545983,-0.4920674001912873,1.8620801824348212,0.6717518631698454,-2.208149823474205,0.5218599529528586,3.3713414398478285,-3.1765489591294704
1.6809318134379714,4.980861071051806,-2.6449428131510655,2.6651995552162715,3.0732666085616716,0.5792937586039237,-0.21803008837848156,3.4504939768658267,-1.2643632621319556
2.776745406270455,4.699669344411215,-2.420335998678647,2.4385719047877448,0.8233114819053746,-0.18419794748160423,-0.2463689375007796,2.836944563284284,-3.003706978683585
2.583651023070587,0.17441038522889007,-2.4839456421490866,-1.473073698194919,0.10949878420193548,-0.4957842992981024,0.7403769927370344,0.9596167517911799,-1.4602904714478668
0.7307438454539716,6.373812755642184,0.9538844428452375,5.640063154312001,0.6073520717860328,-1.8931360042839762,-0.4687715968673059,3.1298254715951166,-3.3855706648550696
0.31663739873075736,5.425617637060521,-1.5430269406090635,2.545617888250503,-0.6133901687616847,-3.0030893814589974,-0.8829860106547129,1.23031471913054,-1.0072637418818007
2.9792540952481565,4.181989298769929,-2.1913824141134643,-1.0682148877206623,2.387225666510548,-0.6949740912054617,-0.351873666730748,-1.8140389456576513,1.6864496487441316
1.6285175617220538,-0.414050991460072,-2.3456610931106505,0.2472757494303135,0.9185792920554732,1.4348816421959576,0.48474875936565925,0.21902620330589495,-0.970489671103903
0.9347410624802683,4.849390181951875,-1.2010861827829817,1.6586772107782353,1.3438994109472953,-0.5012839013002715,-0.6592178917949214,0.9301990700347428,-0.734696956736679
0.41743819963688367,1.1327637599722118,0.687121291019082,1.4329115760443316,0.9951898606123233,0.5197015162669021,-0.6543142925415051,-0.887960832967843,-0.20373727250344398
1.9475652982410563,5.153838523434859,-1.1213327723286988,4.04351914855059,1.396678009944269,-2.789940067837632,-1.517053984235765,3.031781279768206,-4.701533193582871
-0.7854635080956891,2.2003669836308615,2.0911945955107254,2.1110849772042335,2.098642535846858,-0.7096269416418733,-0.23700310994308815,2.205102814627375,0.24892638927076846
0.9534129897136132,2.3750823821853575,-2.1339360224868957,-1.6943270562717445,0.12966785730841623,-1.052519053341113,-0.2998346866885143,-0.7174384905342482,-1.1965706726246677
-0.48001683181063803,1.7385944815800545,-0.8280402237747966,2.5841367416158576,-0.10486195390690578,0.9462266375311399,-0.22381192917558232,3.0837024143489846,-1.1790707633335908
-0.2641263046370006,1.7800371840882128,2.1756307812127327,2.1788786447025434,1.9759230570539148,-0.8062933121496725,-0.4202951973841936,1.1960618929451388,-1.8233165065687373
0.8319153387202254,1.3920246968114194,-2.378025371498602,0.8972627624636161,-0.48682394154620423,-1.0146958409948836,-0.8020500020937507,2.64393573979882,-1.849868269253784
0.416613028121644,4.772816682477287,-0.39915828415450666,2.5779177742541486,0.2830169112058871,-3.032505438247683,-0.11650683196732384,2.324690407966143,-3.697308205636622
0.607751901424173,4.169265705210786,-0.27495901009690604,1.8008115849523672,3.1793634364875,-2.8675237097594213,-0.1526258742028809,1.0209272393389794,-1.4830395541106383
2.4227806583922997,-0.39065906583050536,0.7210299233383539,-0.3087247460652363,0.5263292588449153,1.0328192878436504,-0.10974944101348634,-1.0862633240632882,-1.6601029459537187
2.3404543295918594,-2.5558220849274704,-1.4527561636444215,-2.1273846718199008,1.1881598328246108,2.222566244446597,-0.059817518844573134,-2.8161256615257413,1.4886250287355205
0.9604231005252051,1.2149213607632596,-1.6333223704445867,1.1709674455496069,-0.7779709265211866,-1.153732969487741,0.5832992278788067,1.7894428764657604,-2.950364746041272
-0.31966956815030867,-2.523273506866647,1.504625904363847,-2.2305816834537207,-0.694745734496379,0.5773186891972215,0.16965807571035704,-0.8966509970797936,1.7471352168343561
-0.37654710653714396,3.3639117154064837,-2.243469886613376,1.896059894813848,0.6347645213142195,-1.0759165049414428,-0.565499903670185,3.0612703474073966,-3.1974410232985506
0.133492048113943,0.8972135212870848,0.6918802180915407,0.7654982527056028,-0.7576808620510564,-3.5052467525053874,-0.8141367160564443,-0.5570945371577258,-0.1916793669999259
-0.18553878261544088,3.325299097462713,-0.15559964507236723,2.323766033321029,3.075596950997846,-1.510743084828482,0.00890034825931271,2.800445504893995,-3.5342168348001635
2.61359218650843,4.985990458021025,-4.206828502641427,2.2914905318914247,0.22656480055524142,-2.044554454140304,-0.6468949421583273,2.1011514803129483,-4.764859400284293
2.755453898030504,-0.433877869833838,-3.176506735971287,-0.28666833690181337,-0.014200286543133767,-0.5994513711597048,0.18858871094818633,1.8268734067969783,-2.005958528187962
3.44839158009205,2.6962185133448076,-5.066963387237693,1.1262037272426781,0.07796833187965913,0.5068028762004435,-0.14432687689766557,2.763550431078955,-2.6475587443222746
2.6257740886613337,-0.546013072857916,-5.305500293749201,-1.255590430458172,1.4205051966289703,-0.539594894547408,0.9903051625052016,0.9091192738700706,-1.1197712130979143
3.3300755960357895,4.001049068414349,-4.1257691670043934,1.5198709443799494,1.3700338365113351,-2.4079294998693044,-0.7261453006035862,2.143471243714874,-2.947329513593054
2.473213343659205,7.950904840655825,-2.741069749078719,5.435134248357108,2.6351242992531216,-1.7144885009225441,0.020579895164239748,3.040902774637667,-2.2272450059052944
0.880939916336692,4.380488383763161,0.21194943939031477,2.6682127075739004,1.6595209888002507,-0.9917532345085539,-0.6422538379828675,2.1467675193589493,-1.5046506491491525
-0.5379924144118298,4.027981890330642,-0.20941557410005976,2.1399736337155777,3.0476431634882166,-1.7881114157075808,-0.16615561947333132,1.3081905733768775,-2.249103627318515
0.4794929000346606,3.704152914027991,0.13991637621806138,1.5952375532587835,3.323935933863126,-1.2259149494407704,-1.6043651579888116,0.40175006282490794,-1.3099870642201825
2.115281760576943,2.3583100185971264,-3.643336435765963,0.36628545387898953,0.49175253470268876,-1.5414041324870134,0.06694783742787516,1.3092333970347723,-0.27624569878105654
2.8213665919129927,5.701042684356814,-4.817681387828287,1.5168878438773497,2.8195874436383894,-1.353555123471407,-0.5135814334685721,-0.983181693670073,-0.423677670692004
1.444014800832425,4.696505688853381,0.38776596236489513,3.58117174100851,-0.4324714329811695,-3.8372264709895125,-0.030263857498257375,3.504265771954662,-2.8663403151991216
-0.15439948249646973,0.636062208550153,0.29599737743973387,-0.8764809946184934,0.6734561651915496,-0.43370142208790025,0.2634501958226079,0.3771164892025791,-0.6610362894527971
3.2176892957598495,5.773935489665563,-5.341511295876037,2.715881758461246,2.6557392157939965,-0.03391473814963997,-1.2119272354027946,1.5370521389730267,-3.495375886713966
2.399343352166215,4.629732014520882,-0.7301120651806522,2.698331953065443,3.124220103059133,-1.312457720166612,0.6082008532230523,4.974801824829294,-3.080915340282111
2.148261801305979,3.592238728604018,-4.286931232885804,1.6152627921307532,1.7386529282583685,0.35500577838468944,-0.45410933379556273,-1.767495704127817,-2.151698105526661
-0.1668479181682665,0.9524238864248976,-0.794692752193808,2.320738442250188,0.5290054537781792,-1.6988148997234593,-0.6650140818849154,2.217418859696505,-1.9844358987747348
-0.37898404706261846,0.04079639964847803,0.03936463966460398,0.7853271475668017,3.005762795050912,-1.5625615400259847,-0.9455996442761287,0.9708830556050249,-2.523002970823692
1.8867252780566104,5.798971931329148,-3.4368031725423687,2.507060603832386,3.1373959550706862,-0.514202632869706,-0.6927814696828016,2.501674881734531,-2.572015383273892
2.342581172300955,0.9461140985083019,-2.4685066617841476,0.8056803522491813,-0.6406754481208863,-1.7161590539722078,-0.09575629834544365,2.335737062873808,-0.7786898990502502
0.640194428096533,1.1809261444497465,-1.6039789748837232,0.8358074583321495,-0.2374046674871595,-0.34519148884641526,0.3959788416631405,0.04459048703704277,2.5453738826260643
0.8460457182148713,5.4030567082578935,-3.481347183616191,1.8172152445041172,-0.7441744635537884,-2.0810799121033616,-1.0948538731295718,1.3455648075254367,-1.382584085356286
-0.8371845306058602,7.575662419898182,2.473816200506089,6.880654652069713,1.9178376809251487,-4.598403292304412,-0.6590961648583087,1.0027654825771788,-0.8539959378918387
2.812058665496488,2.947098367135837,-3.0597813590630385,0.40424389854735504,-0.6611608684698678,0.37507271543216253,-0.30736276125914835,-0.7961474702323369,-1.3471118447188404
1.6934838458775925,4.82344778121668,-0.8899233879310429,2.566850506030258,2.1446261800505084,-3.3626101570321056,-1.6652374978524846,2.265355995225342,-3.489777791991748
2.915510092259129,8.781368534511243,-3.754455252416596,4.214731325686836,1.9592152284594144,-1.1856288393755763,-1.320078357251393,2.8966878208321996,-2.4111723463361225
0.8588352248075708,4.670105309374454,-1.9921392638829927,1.4149762434140087,2.5228334495784503,-0.380956619766442,0.4460822329430072,-0.5075300807311067,-0.9286644467401669
2.3082813779892573,-0.325433331577742,-2.5882213307443815,-1.3298750805692012,2.023636467749935,0.0031062708639300884,0.12168430575230296,-0.699526442105221,3.2505096601504366
1.8793077086855234,1.8479047252517786,-0.34224923928417433,3.4720916884944897,-0.2940985317616669,-3.579237057941338,-1.0188540392997099,3.350024900104488,-2.499233302052709
3.4361255945401323,7.62082527602951,-7.8993541044580065,2.6122945048840687,-0.93663060170133,-2.557374740719651,-0.0851857292461496,3.798274127270097,-3.9245104433767164
2.8134334649531754,10.337045633849268,-4.24938893416198,3.456774031268068,3.19365620470873,-2.454381336454092,-0.3947896297922906,3.1680347061920577,-4.17924835684531
0.07894614913997744,4.307668807300243,0.2167753855391651,3.425574144684007,1.9904493934005383,-2.5469908559956416,-0.854362357258256,3.7981278522354796,-3.00810465661679
-0.9445195110162223,-0.47643324180977564,1.58203511632307,0.443924208779853,0.6993423347855177,1.6194485612347793,0.817915665425646,0.1073236876766358,-2.207575492920522
3.188850518575614,5.552031284042515,-7.060933766248147,1.7868443080739187,1.2580958220917084,0.6142251189473409,-0.23331392521104516,3.2023827670221277,-2.2856397454252404
3.4393741743555513,1.6560624657919165,-4.3304362779369105,-0.03114298875569797,0.30503339024175213,1.532756435282378,0.7600384998976287,-1.3459146580102925,-0.3291501925209021
3.178555809038434,4.749219703554474,-4.833965283261372,3.058969056189916,1.2581207597620891,-2.224434887980383,-1.0438123074557073,1.5602350167911458,-0.46845370285053134
3.4089199790773455,0.8611989292244642,-2.343461147409741,0.3234371481378671,1.2422253325139896,0.08161670625376505,-0.12149408218230517,2.2377416299024584,-1.219576696023445
2.3958790810879274,0.9594016691209891,-2.4592635107853873,0.9449602041156591,0.028463028511757527,-0.6051675111981489,-0.4725273406567638,2.0677724347910287,-2.84535481922331
2.693966996889341,1.300980308109188,-3.0536938594493375,0.8672218222003877,-0.8954291277379834,0.14278317510658478,0.2127450991184833,3.1587265977048036,-2.679113317686847
0.1902354666752304,2.3659765754905617,-0.23418745890012085,0.8506971532005276,1.1226366420016105,-0.916129557562723,-0.724357622286348,0.3344263272478034,0.17385537938488116
1.9950778871160733,1.8005094344092476,-5.578597581246393,0.42614763739007655,1.3095727954192347,-0.14655520014561854,0.30203444455068684,0.757312172584116,-0.7151100186943383
1.7509184916076044,6.319462826812288,-2.501796993935205,1.1558623281102853,2.3971021320009145,-0.8568589957912137,-1.6928234518473462,1.3854442940808456,-1.9058997969291802
1.460239350094119,3.4717983389581217,2.9160820742424307,3.858039398684583,-0.06497623541744357,-1.4382603402997334,-1.8402062091333733,1.3895419069329105,-2.4912630623201326
1.4135733403531439,3.2913525514459883,-0.8069769898176549,1.6381282808037443,-0.202314430961967,0.3820522233938719,0.3802411050495769,0.10581710322295335,-1.0233050762242801
3.4398229943751213,3.9718329635205563,-4.241620365286127,0.7556697335236151,2.127566787977272,0.3469142978650911,-0.08263097690603034,0.9317485913151091,-0.2281560531448414
-0.6876285648365772,2.1318301220328766,2.425120258492335,1.961883195323212,2.538378345183799,-0.9879073863545474,0.3075973563609358,1.2963591172558477,-1.5646390722512982
1.005893269040694,3.965818679781699,-3.72343787798396,1.2823580340300114,0.0019346742783834525,0.7295912834957604,-0.8381850795975319,1.8449112825317528,-2.887936313556498
-0.010711524829447039,7.621522402223926,-2.0216326189716245,3.6988587067218255,3.440911059500486,-1.4245895320208302,-0.22567318798297342,1.4808298893384362,-2.1995063828498456
-0.30771379731269644,3.6218933705325975,-0.6789836464109686,3.85604756839157,3.1789928417446784,-0.2725877811395184,-0.9332477607687898,2.822455191076883,-5.040049348784579
-0.31527096329753634,-0.6655722968969089,0.46686582680074273,0.2686782771079489,1.3397886323271346,-0.5987882685170399,-0.06682171815999491,0.2712597938262577,0.01081042572585037
2.892203480372608,0.2385075154584846,-3.4024312091267066,0.6467200730887682,-0.19790929132955482,-0.6176956555227813,0.37781699915569944,0.4555438851723106,0.20671115157187198
2.7227054715820347,0.8614197044762565,-3.8031639096820244,-0.16999112844971404,-0.7339468801694744,0.9885959330976473,0.5089773420035679,-1.3444048217245597,-0.006021115767058659
2.5055382925802445,2.449800891213296,-2.939966750118487,2.669425579037556,0.23023726638087205,0.6822491836907096,0.20221320305991586,2.6012827769338167,-4.102857910567422
-0.5489650685463459,0.02995316296651862,-0.8986093561482379,0.5234298307433218,-0.5674966405441411,0.3616967665513497,0.5965480374688585,0.6254581224271804,-0.38767352355720897
0.18204759073354815,0.24813204601999944,-0.007899035874003424,0.17139067168461986,2.2021616327547755,1.9375375973264881,1.1283456301216004,0.0669009636593425,0.3693706562080137
1.2178384955585622,4.8641795128755945,-1.7286279719257824,2.710929072184908,1.9695207039588056,-0.6301038013695404,-1.0326961039676141,0.4172154950904019,-1.2228658207691059
-0.6988454600925165,4.5519792693561705,-1.0665877212305876,1.5393360925580282,3.258376810464619,-0.9950071690644163,-0.1310888475231886,1.967509174131584,-0.472948519600364
0.9472431033232291,2.143040819054887,0.4103717003697589,-0.018893144223994796,1.4406774152803767,1.0141524718580581,-0.1417013552651633,0.49207399868046253,1.2537139520247902
-0.5185391666606856,3.969023963654934,0.8009020713430611,4.576082762478948,-0.25947596236450987,-1.4456190578732626,-0.6565951295246933,3.9043321452571798,-1.9542711767941061
0.22700809572763125,7.11696194596083,-0.053063652123414136,5.808931664213948,0.10844292610921435,-2.5241024474406113,-1.565797628069796,2.766192008421148,-4.019303104517004
2.5379424742840757,1.3994689698302873,-4.78665175630146,-1.4844783495001599,-0.6972560016976073,1.27742947457869,0.9885934093038344,0.9281669627522064,0.8883721309720233
1.9541975509756564,2.6525665060167354,-2.0283821854513113,1.3777201488304311,-0.09813380491628354,1.494264230237041,-1.2448111400882016,0.286168701913662,-2.3403542298604494
3.130338631930404,4.57042800656572,-8.000620695053039,0.3134305583972587,-0.28744205585238736,-0.5034308831171563,-0.35741810138463515,0.696871162237336,-3.2302425423555077
0.09590015201229551,2.5801319641487597,0.051354655269255665,0.9199922382503833,-0.7502637958610845,-1.3996968207629146,-1.0357309084459825,-0.23381014223077254,0.9014115007488249
2.23729933567855,9.841655427404342,-1.4449522583298249,6.7696193180374955,0.6076925464532623,-4.077318082706251,-2.1766504573304126,3.0206180083925367,-3.5068760531530287
-0.18194148045208713,4.00968220400752,-1.251013734280698,1.0235710279111943,1.2141444765973701,-1.688338672644742,-1.6509658789143555,1.9277628883577183,-0.02267708756704317
2.079239750661769,6.639011692719427,-4.121903455897123,3.3411052994487545,3.3529095583177178,-1.6273101116401592,-0.577716506479976,3.031287542150694,-0.07698078872511659
3.305795620185279,4.886238784887804,-6.819799786890472,1.9970312761471212,1.7318597254122152,-0.24377563438453514,-0.5084678817414051,1.7090447094828698,-2.799720497860829
2.428622878647703,-1.5757374721717563,-2.298008386170655,-1.8474976349860794,2.200801904315704,0.5289944021213999,0.6226314082147876,0.38780633919703456,2.993155777556096
2.8500740167903422,1.62735994390358,-6.059607333437689,-0.16470686850888056,0.3860843257396107,1.206425107856015,0.10099385773337374,0.9040319517946448,0.28414482655617274
1.2789382883354943,1.7622392973810321,-0.721216825934542,0.9821351676244621,-0.37669355017082995,-0.6094639843815368,-0.5040572692594806,0.34673460934057054,-1.144848083999436
-0.37354522315055494,2.530971258882677,-0.9772424711245964,0.7970247425920067,2.331282331372758,-3.069373253079453,-0.20173203045644136,0.3777721700586497,-1.9707983054779319
-0.06485158649005163,-2.1003160927857443,0.8636550899705372,-0.11028705213608532,-0.4668179462969426,1.5128910663448778,0.20855272665637284,1.1000585743835565,-1.8845846603074066
-0.06692912405210705,-2.7972520247730275,0.329112116851686,-1.027468400449708,2.0579745964684792,0.3546523478964173,-0.34987569689583764,1.742903600714989,-1.429340979486045
-0.612978859759011,6.623616404295425,-0.730733206276534,3.924825832350424,3.3481223666760087,-2.269907611782555,-0.8846794631190462,3.0852069791093495,-1.9709692385865143
0.9569767943748122,3.516891019546102,-3.4941242674086785,0.41016532035096376,1.566678901040866,1.584866493982943,0.04274762416618521,0.9604338817068406,-1.2382598299690852
2.6580605907201185,-0.6062064377278102,-2.3911832325650093,-0.8725688460510501,-0.09634497855340196,-1.0956971367697321,0.042023555643870766,1.5514573794736701,-2.304453426562148
1.7318591166923913,0.9890834082115442,-0.7805178442551608,1.5238226629572307,-0.9312654715903205,-0.2297021083363585,0.10564514961402205,1.3063910201034434,0.18095889881657154
2.0902903592279034,-0.5965246628556373,-2.8602578190807,0.20300692351052538,0.5675552379784767,0.9307365059389499,0.5592895700960883,2.5526350323775366,-2.414108300059502
1.2390389199389795,4.428988384110025,-2.3486783228748576,1.3032939680929327,-0.7786793851628628,-0.43229674547877583,0.13252339034439078,2.489090163242965,-0.6537783052044891
0.9457756756242588,2.0854213662003263,-0.6422257560814574,1.4167332024696553,-0.5573755012688022,-1.4654242870509075,-0.8839167474448948,0.8446281689758064,-2.975717745581884
1.4530521325094194,6.6199594891659626,-1.8384501761392051,5.35641803480493,0.7966521569893998,-1.4951272921002579,-1.2349430878745584,2.2472965108372667,-2.1504310721812687
3.3850327889920013,2.6404972890221394,-3.929546570188006,1.7374514318613925,-0.7787787581468177,-0.4176700473249545,-0.00795099039382986,2.4483922645215777,-2.663546176815216
1.495252208239855,2.8308585196701825,-0.8575908257267355,0.5953208278936426,2.764495938381411,0.0828112118238026,0.22724933560465135,0.42565770820149496,-1.4893086204464698
-0.8977320128367572,2.0146201343880885,1.1485899806448716,2.7295594474210882,-0.3629073305233813,0.11899065616121296,-0.6481107126985148,1.5081719397662303,-2.7268167631448796
3.167160306395676,6.5644179430210965,-4.597325844285698,2.5148947899681757,2.3102495015908033,-1.8520371536141433,-1.7682523978487197,0.44656948271336416,-2.2483717789570092
1.75204910974649,0.6656614022791183,-4.84463956832242,-1.7849828925957338,-0.2108078383276658,0.1570683122096973,-0.48815055755481757,-0.48834858415612076,-0.17242372690773072
2.888768609477494,4.5275314689674,-2.502223434164499,1.437166773621073,2.750357819874704,0.479627772911738,0.27426071052336226,1.1055884303729435,-2.2388783995333044
2.281943007730928,4.219084859347481,0.19465106327700682,3.2068265826335587,3.303307309768318,-3.4639351680932924,-0.5776599527336399,2.197941817017284,-1.1839877896026474
1.1807899385362046,4.659770095229573,-1.1779674414749584,4.032069525260788,2.6037992343605607,0.24831285108710155,-0.00566422585055712,1.9005729014734147,-0.7216226425864427
0.47278655200708997,7.383673242995034,-1.2952877808881311,4.0423649577968455,0.8781929964594741,-1.8664751016746053,-1.9882225846693435,3.049274872436854,-2.4358593250932192
0.09711555258150484,2.2839260117508293,-0.9565470369004485,1.8666406686783477,2.5067526867116876,-1.618720099513743,-0.2994260975517004,1.3775318941198587,-0.006415842319854701
0.9905864031328857,0.5197407322597167,-1.8429917075192714,-1.9005122556233325,2.2822742180942965,1.5851753892291134,0.4175752376837232,1.7041100745865072,2.3947202587820495
2.6671776077987825,7.549771615681205,-1.436850940351767,5.144726041446888,1.3841994638107593,-1.1464454697429813,-0.9130818503160683,3.5845426666049836,-2.693701833073975
3.16760174396655,1.115153713692795,-4.730581455689944,-1.0241400300414534,2.4458542847837834,1.4786152614191237,0.6069897910426123,-1.3988102872795254,0.016043156611607625
1.3954605368611839,0.7800213785592727,-2.307467681680244,-0.1954980064734225,2.7408763941638825,0.03601502444759704,-0.01459811586546707,-0.6201799726404765,-0.9470114574372286
1.9543453807772755,3.271194222232401,-2.9892655617626342,1.9504334836817845,2.8450556496015498,0.4912137771357805,-0.03805285987122425,1.295040004174927,-0.7750925569304283
2.6073289980427283,3.63964970611916,-2.3426017617623796,-0.5737808113743212,3.1717599323384364,-2.721612923446115,-0.005986743425176983,0.9117523374625622,-1.8286545721430616
1.1261054738060916,2.1511710436259097,-3.206117864022921,0.29933371593262253,0.1917355651298307,-0.5244185646904851,-0.38531294393673055,-0.7341654466145977,0.7285958975701817
-0.23572043622985783,1.2827257143228419,-2.582155248571954,-1.6580485718608018,-0.4914375794067125,-0.4477969461306671,-0.8605482263948021,-0.2560076385019558,1.6054435253186063
0.10405850833348884,2.981337062938651,-0.11755654021299995,3.5814405354185745,-0.3751152962942851,-1.5628042307810037,-0.24985230341997902,4.310486133342167,-3.401027795041326
3.450909476454637,4.169829643954136,-5.24834618435898,0.964695588371948,-0.08128516238103045,-0.45142301307511856,-0.29000025430913084,2.7446049607984317,-0.6487278516187954
2.048115987877298,4.450449300197041,-4.0555366652496865,2.467808483460774,-0.1904760864099475,0.023638607931527278,-0.05213803959990367,2.061347195415121,2.117971814323244
1.1452941793309441,4.889767948862029,-1.7998733275321799,0.6776426972655357,1.1880137911847601,-1.236706542554165,-1.3864775841270365,-0.08920362023056638,0.7365033013040785
-0.3071712719210462,2.5735123766426886,0.9675582606240193,3.312655711345925,1.3128718909505928,-0.7909409761751047,-0.4153610099715966,3.1970665112204886,-2.012916582738176
3.4286870209404627,4.906883412006869,-3.3262684553060184,3.365633599294268,-0.22697707632821051,-1.476325062033796,-0.6981624975953628,3.3883636098295358,-3.3106737069302943
1.1912566606091288,0.29927990246318853,0.4041149576057989,1.9238846901653581,-0.8248473788470245,-2.173446088142692,-1.2339629169272364,3.073938171808372,-3.155404363994418
-0.1815978430448032,0.661130850520643,0.6240783598319349,2.0919678174609952,2.4847994686191948,1.5041175404470228,0.2951637405911101,4.146863415235897,-2.3812935128733694
2.5040378640986094,5.727949042506518,-4.50244386488098,2.156702849190717,-0.044917679253320575,-2.9475176484855674,-0.2190402790991854,1.3413555455060004,-2.418099619507614
-0.8341258497557575,1.1622360018279625,1.2443516002266939,0.7692320964946435,-0.5067278679439612,-0.7436518527128022,-0.4773640348849628,1.4366881957164535,-0.7663605586978186
-0.2969453907465561,2.6070177323031785,0.2214262781091258,1.7267991617748775,0.6017296217956514,-0.7956022932212843,0.05707633957125846,1.1486002911365505,-0.9232645150195279
2.934535086631177,5.703596375625537,-3.578141847254249,2.299515074754279,1.1396935372019348,-1.8361207730174414,-0.7714775975170881,4.270013151997711,-4.981836486481938
0.7191530462752669,7.869626450052493,-2.465161879342522,5.0201474648474465,2.8143238918963767,-2.942923017830002,-0.8270471857142512,1.9201584664840574,-3.60418289775747
0.6744084165884716,1.5723081919956094,-2.1828001477334107,1.422328918268707,1.9246929422146324,-1.1968979274710922,-0.7071029131225901,3.2969872319263565,-0.6238730579310295
1.7627053601818852,1.4019839724356542,-1.6475891557187847,-1.0715139177414597,1.1536029555322749,-0.7824124539575984,0.08604346031031303,0.5416804293125205,-0.3345574950150753
3.130901120004242,3.6266146628986076,-4.9007665229191915,0.3554710818529431,1.4933966741836553,0.41343382267853146,0.11730754461291205,-1.8448491017205444,-0.7928075390615242
0.8349452741195449,-2.361645330249478,-0.3508395154798521,-2.786604145077516,1.4693592175520198,1.9249393349908441,0.10670201355701886,0.49071081187591603,-1.2144474772063567
2.425873393378721,4.405761323584177,-2.655719814342542,3.125227290720165,-0.2485173847149772,-1.5925552375579786,0.49934496579161064,1.7836192539350062,-2.9010392629117416
2.605023609241844,1.0475463460596248,-2.078380002848957,2.1868637874385386,-0.9313427808702173,0.6695495633869872,-0.1205042069230598,2.517629760621804,-0.9091851101976876
-0.5349634545294841,1.6713095390022097,1.4316038450157809,2.1541632383371656,-0.02932194874139271,-0.9566974223357465,0.21836022713523778,2.810935170552523,-3.183692509392602
-0.2789359628972792,1.8284481883155308,0.5295498461298576,-0.8890288282011519,3.296079830059446,-1.6627363154868797,-0.59072884140612,-2.35584690220377,0.3701676559024585
1.5344397839204822,3.1938793852713543,-3.237279544571884,0.8892654601518885,1.7163518483917048,0.5722775345928861,-0.6634278495087024,1.711730052914881,-1.593963351811499
0.5344498063483543,0.08356128316964706,-1.7285827082679615,0.8399371090214734,-0.9574534268637966,0.43523546372987465,0.0178670955818212,1.6370700623729462,-1.667139377293577
-0.196556872036026,-1.3402360121603043,0.9750088106552202,1.6022463784908565,0.6787800675107403,2.321654016937182,0.03754266748452086,1.5799759384218495,-2.915171111050173
2.149479911309167,5.368810034579514,-3.1787027983181444,2.1989192919890006,1.5453182190416608,-1.9387000600713524,-0.06778177594441027,1.8960943102350996,-1.1633794045653891
-0.34338037237225605,-2.3683506997197092,-0.4259878591424786,-2.3902508002097527,1.7053992016890414,2.611347079733555,1.0205587371884466,0.6871613108899092,1.3018245220526063
0.7431378935355257,2.089279976628763,-0.8723993836167017,-0.623574793911191,1.1317497459365011,-1.737440814271979,0.4677043848705787,-1.2034216145905008,0.5317122945809402
2.830787494008627,4.784612176033761,-6.19408423239503,0.7417926353579721,-0.9101923112478394,-0.8607667769074187,-0.8879978911224348,0.45311029322818513,-0.2692087625254958
2.3467278076896356,2.805418881128908,-3.6676962272629448,0.5517653524322981,0.2824845788036181,-0.4997505972498825,-0.14454319724479558,-0.18730729910222865,-1.6419720564577516
-0.8900255041879668,0.5948460081535276,2.1135743136671272,-1.5014752601700743,-0.0053126106146500485,-0.534451469819787,0.037495443829506446,0.21781349222283541,-1.9450325210628747
1.8258802858689913,1.7108298403246176,-4.138425795279972,0.4194903143780346,2.454704990128075,-0.5548916799463048,0.5479144747116929,0.2808403223774012,-1.2011545696412143
0.4043656529406945,-0.43610047740665725,1.9818934853189716,0.08670582114539865,2.6246872773174794,-0.3193924651653535,0.044830257034999425,-1.3334453094089107,0.9153771931692143
2.646315346020119,3.6653767372753037,-2.0804303731257754,-0.9997483204444625,2.8492587455110745,-0.7663740481237504,-0.29812260508390453,-1.8551730171086271,2.0294524757936765
1.1461312979302387,2.3145651131217035,-1.8073873849131978,1.9862775147588358,0.11317437867157731,-0.5124027918277924,-0.4829926688885758,-0.49066042233945706,-1.3791615450383026
1.3162348916162663,0.7060416791865545,-3.3901265919646013,0.5000464580889469,0.5200642504977504,-0.10297969465208223,0.29737617040781256,0.025488047256594704,-0.6648368399020609
1.0718598277654983,6.712906087233405,-0.363265574499049,3.6705091249544615,1.283695861366485,-2.219654341368933,-0.11493134008159606,1.9098414937161716,-1.0017982597362993
-0.3541700235118549,3.5087042152257037,-1.1732191175357127,2.4412211937177117,0.6145419743062,-0.8675106464142278,-0.8022835090325248,-0.14481925258587158,-2.9777617960150646
3.2221141192805662,4.013071234596642,-2.883695502558597,2.776269467693997,0.1721926127548088,-2.8187085960231264,-0.7098980303646343,1.7751625954976653,-0.5397563320292988
0.5140384690508266,3.1504813329238672,-0.49468006376218276,2.4556656427269288,1.0465589031481546,-0.7990515298811908,-0.7704088885707324,-0.42189316322294046,1.6842707314096903
2.4131381514759034,3.3103665075545923,-1.7567919747669116,0.5770841196507384,3.064531026930288,-1.048914726933764,0.03771649696009439,-0.10573707005985045,-0.5496391244521663
2.8496207390817028,4.107239081532487,-4.946733584564452,2.250317110645277,-0.0996051389644419,-2.3672794204949277,-0.474445485864223,1.7878553469232576,-2.422943846697603
1.5890025635719573,2.1385349824487347,-1.573219836687876,1.3965686189673572,2.5823749979645836,-0.78811920766852,-0.7804877369799993,-0.30696328993182903,0.32919708496311795
-0.18105350005422804,1.9185248488616837,0.18437192057145638,-0.05775365217163413,3.034544945050321,1.0001320932103446,0.8051945085267571,2.5995841225583454,-1.1513248093956077
-0.05098560173501809,5.948371810537519,-0.22152613268109045,2.3076613572243727,2.3771070288976737,-2.830065200579221,-1.1510260908725505,1.5543636501654565,-0.8820559217587136
-0.21031001510684488,6.5133316837011845,0.32489435904545017,4.227558218990693,-0.8255081038781478,-2.962265029193161,-0.7790640352937795,5.05025804170869,-2.2634990552944396
2.8501332504776538,6.160061843924368,-5.012321529566536,1.776611875378428,1.6351884596519022,-0.23272564023548725,-0.7793164711439785,3.1345680413662573,-2.0487486963302857
1.9644921777971542,2.3959917367396297,-0.05262251848108772,2.828001871374163,2.097707901265996,-1.0184892312014833,-0.6973787228692229,0.1269635047176818,-2.0287949481104937
2.58178844137522,3.9820363027952626,-3.576458947271723,0.585097797964932,1.0695570631750395,-0.6113536001273038,-1.12688752543723,1.4085562770680822,-1.4705399753408543
0.8317538167230565,0.1420315982290485,-0.07434045705642159,-0.8296297688750944,2.3092736816747688,-1.6405337971516756,-0.9796640332529636,-1.0320891033390622,0.4087005360577265
0.5118262204835948,1.1226792296113037,-1.5105563766776609,1.2682272316363365,-0.18937191241969098,-0.6382012115938049,-1.606921751100084,0.9628686406873617,-0.8456169145110856
2.5223490021836916,1.804258277008008,-0.7824934146074966,1.0968081772839027,-0.04180493327470747,0.03652963421271943,-0.15683735845430608,0.9424702240186378,-1.6519001612035995
