x1,x2,x3,x4,x5,y1,y2,y3,y4
-0.8744599505193256,0.427536182947285,-0.7587418270193161,-1.0872278324263644,0.4218268192929458,-2.5146133635507955,-0.3677942279408202,-0.5692025288454232,0.9301950591354933
-0.3013722699782577,2.0248354131952393,1.4991438022005532,-1.3289965548764286,1.926937262668449,-4.0047086435882715,4.302927246772287,-0.13186577972930785,-0.5561592160988637
-0.9390857203842172,2.626568335847827,1.3528301918970815,0.4975690086894714,1.2004524655516229,-0.7290558341899542,3.352220017101915,-1.262646480935214,0.6551718638848181
2.5862388327260386,2.0830873858165333,1.011856295842782,0.5225809504371847,-0.8741309870943128,-2.870212029248523,3.261857886564816,2.796016705152193,0.9298278591715917
0.5927398027879305,0.46768597175127513,-0.32534267098501723,1.097243076284897,-2.3873737919554734,0.3307425105391324,2.0878393741272676,1.3798727369228272,-1.2409008195457973
0.0487546691663272,0.9218751826237741,-0.2906027206291711,-1.7034992985237434,-0.5280627240017264,0.8722776228037941,-0.1869557654460715,1.059583030922685,-0.05750576016318645
1.9046828664008544,0.7289441483343508,-0.3111495001717828,-0.1654912156239856,-2.5438376246278027,-0.29701840619906517,-4.858562423878559,-3.2268088467850276,-0.5210746245777538
1.1733348199989444,0.8889417171077902,0.747035283764812,-0.20658461922123866,-0.40310146552175885,-3.4547317802846202,5.781259660530673,0.9338138023821823,0.6211875401172017
2.647745859402648,-0.9688186129493351,0.24502687343360005,-0.4912344447479692,1.8017126483438157,0.7364664622508525,2.9020670465804304,0.5555722849238269,-0.9256817515616139
2.5239312805513436,2.103256889799065,0.13756400437886662,2.4985354450432933,0.2536972668626286,0.08786652888088264,3.34208575309252,1.731432188469746,0.17554626647167898
-0.36445477155771144,-0.4157908910632897,-0.844220942176559,-1.185999296830744,1.5150081608118857,0.645852572482285,-1.0733025856273912,-0.10082366676893555,0.7057732463340394
2.6237522626685736,0.2714075162772327,0.15620390539375645,-0.48705316152987743,0.17313581606009248,-2.233098383692157,-1.3729276091000284,-0.45833609132902997,-0.016566895005061588
0.17052695654346572,1.3177252229129444,0.5072762069361385,0.23965161215636022,1.9996745665517752,-3.012695781283816,6.335899259502691,-1.1732009639386158,0.3746173702286878
-0.7322377325231803,-0.6030133807497217,0.699475657040536,0.5364914037052194,-0.0007334156144932617,-0.22866272725449513,-2.2517018651488403,1.6608437185870335,-0.6295184818115719
1.7212055118419238,1.7379076502628719,-0.06336595975556664,0.31589043130592304,-1.2843125080307065,-3.7158484955523625,4.704803522960118,1.10095215756365,0.42216095332223014
-0.05009347565309652,-0.23389891715201616,-0.6588401180739166,1.7879409064650684,-1.4249395236355251,1.470583600900372,-4.3900031447367525,-0.3429127176703112,-1.6297515954414448
1.4863727610045028,1.525393375556813,0.951235080403819,-0.3485601832775706,-0.9827292661583968,-2.800554052826433,3.2199379834485513,0.8055416420685877,-0.6707454672325235
3.2479761041576873,-0.31415613012624977,0.6660098640753876,0.45391702835933456,-1.4822963277119978,2.023764673062827,1.4190940220625232,-0.8504777434762865,0.7345181413243225
2.789288910114565,0.1959727102673967,-0.9598017407422889,-0.29124709351384576,-0.030499445353426243,2.3516017495310884,-1.0106733694829166,0.44639616266419097,0.2887859676549757
2.227533779315305,1.9892473885888027,1.9144543984803193,0.10456626104059755,-0.20935626135758098,-4.5987073797556075,1.1009322636234966,0.3101385672082804,1.2508018612099217
0.9264952415827936,-0.8980840093137982,0.13707144524088094,-0.6009924722342052,-1.356921691785335,1.9909250847534101,-4.601432468089002,-0.95416074573647,-0.023925650324872445
-0.004740725802736545,3.124225398761954,1.4162440317308769,0.8692575999800585,0.7422259468487876,-4.363454083253752,8.14964227178646,-0.3414143315028109,0.17179495328196753
-0.3537309995118487,0.5401918774294139,-1.03060018755576,-0.1828180841320362,-0.12906845300488776,2.5453780585968957,2.2959720533542547,-0.6652404079752221,0.7484569214761955
2.734474559193461,3.029836270247956,2.052952470478069,-0.11457110692268105,0.8744418735307057,-7.290577191356181,12.213582490513955,0.7562655253493694,0.3275601825868653
1.8619972587369134,2.693835715443202,0.35484227020173853,0.9920171508588306,1.161764485877444,-4.779744565282976,6.078278080085576,-0.4994113467921273,-0.05863258857868419
0.7095626636197818,0.017578743763009497,0.210471073279209,0.24744149610849642,-3.0614331747198933,0.4417293604360868,-2.038915944644983,-0.2690367135410553,-0.6545317356404206
0.4679213772279778,2.5189030778947212,0.22317448097613873,0.22465273912653191,1.5804263759562884,-0.8165887647268877,3.5428764442003824,-1.6635542591766357,-0.4031577970525809
2.0816749210525765,1.3893075378835502,1.3325097398156092,-1.7346694020692497,0.11733527880726104,-1.18692374789924,9.119731847170641,1.2551122210795607,-0.7803516324809998
0.3547581982170547,2.0958001092099345,-0.06415302898626413,0.06383135729016168,-0.23665744290721663,-5.655163414819729,6.998206634863978,-0.6042675265566388,0.041608396396342014
3.3083770265940897,-0.45834684430947514,-0.5698206764049754,0.05058865580143081,-2.8875616985203174,1.8719592495930082,-3.9722965464324838,1.2897391292461478,0.7878605424611728
1.6520246053992058,3.137313277262729,1.227299185102441,-0.6806112375309948,-0.5615989815948738,-3.638230897802484,6.628468953969499,0.8799081935507258,0.16097497414206863
-0.2039102052898324,1.3090575021414055,-0.31177982819730066,0.6199927212007765,-1.1230776158116484,-0.5762276958898598,3.0241718284315775,-0.01440564244939688,0.7199638581994923
0.9538200248402169,-0.746364275489084,-0.09760632214910336,0.6131834982965044,1.1692205810072998,1.2974957722485527,4.378998617241285,-0.6943854001510679,-1.2328332676574563
1.1201827609673334,-0.4947593357982828,-0.9687684681801385,-0.12291266300523707,0.3107575297553443,2.1442685109714454,-7.0486645706856255,-0.2561374776803847,-0.3830033405051452
0.8107458736442805,2.849977361536091,1.5805267836109742,0.5359584696540052,0.4579847399006505,-3.078834777874557,5.884067073977572,-0.8793827165523674,-0.555565716222705
1.5769085678212744,3.2735537068529554,1.279943757622072,1.1095009062509442,-0.2902003562477034,-5.362232645478598,8.322759907059371,-0.8972973153107662,-1.2025901384966922
3.415529696341779,-0.035135400473505385,-0.4657607080062852,2.1928491099627947,-0.21770939258001282,3.4685157699801934,1.4013421284901764,0.20446785953980995,-0.520188852491895
2.8707915218636324,2.6709973964219276,0.4470547214940429,2.0100112995602633,-3.345653986918489,-1.5132214668050157,-1.6147194907406544,-0.7012393693632335,0.5738813196158294
-0.3389732827147489,2.473496765885507,-0.21715411480765096,-0.2264923094904412,-2.7129713801422595,0.5096621944815521,3.4529313341056396,0.47289613003190845,-0.7989220492206797
0.847118453396793,0.11459592091610182,0.41305354117709897,0.9120717572817905,-2.1324850132155038,-1.4948975462546752,-0.984279675981021,-1.4104108260516006,0.13512179051127973
-0.5823446780879149,1.966251201667212,0.9674209727713792,-0.4585875014860787,-0.05599887983418424,-2.0834976512797247,2.020522155790612,1.089695049535077,-0.8472026763571542
-0.9278039497455823,0.8847633773990031,0.11266844092916747,-0.6194192584239414,-0.09055632388190168,-2.8596280321605847,3.2087635231059073,0.3032070432082133,-1.2999749942678778
-0.9313926562749754,1.1703750993793953,1.4849780937616714,0.0843610652090261,2.6600136357435704,-2.857956981738592,3.577567429441206,0.7953311254894672,0.8126574272190934
-0.4384598666476973,-0.09622362105468085,0.029685206933733777,0.2400789926747161,-0.6246418269716486,-1.3913298379421464,0.4720068654742738,-0.26336071312385,-0.00034588528361354675
-0.161685736870808,0.25863949631817595,0.01567482514511319,-0.8472529972474738,1.8845375558391586,-0.1973940124122726,-3.452277331651831,-0.9004283626374325,0.4870490329234697
-0.5984659347355494,1.6829015018242965,0.5409306362640803,-0.683625736469286,0.6974002014818118,-2.328233402771988,5.497174447886538,-1.090132408090826,0.5431882739080696
3.1762085219181966,0.6748057265865266,0.21302734242839774,-0.5873463608397639,-2.5811633239063467,-3.5477269573380044,5.931606684059891,0.3302828984257053,-1.236849520819338
-0.6388207169919025,2.2672848939873114,1.1094051980412125,-0.48301414006724136,1.1481922679377168,-1.9845159056779769,4.178735251733403,0.5690651874654564,-0.2051033670603345
-0.2751802628110471,1.5805340490990538,0.5091251126479793,-1.4860175304025323,-0.8146902431696497,-5.862550165444109,6.910997104044676,0.817477643387912,1.5158008760518333
1.0476387611243498,2.636644948768654,1.1438343746246118,-0.3816777951567273,1.5846935214702638,-4.3504354183843885,10.224253749855707,-0.8228191313077492,0.49811524957966263
2.0347074632395703,2.627573690509712,0.22355780243958934,0.5290104786924171,-1.4331016095655718,-3.7860079853255413,10.160127080448236,0.7340548850666998,1.3623612481262948
-0.9778019318035988,1.6984536835716066,0.8961190988085757,-1.9346652432507532,1.1645006130863746,-4.50481209931996,2.717452973980016,-0.9200861693921479,-0.7829764404233769
1.5779642997460055,2.7858403616740794,0.6740723445034202,2.2804086152461696,1.9129989671347667,-5.4433741137337,8.101861548225338,0.3863226510666843,-0.8828377976370806
1.645043115500631,0.7185801371819631,0.3118180776829806,-0.36945504402994483,-0.2406035657513658,-1.2725766123445563,-0.06341985908890213,0.5428226335126443,-0.6802904088999796
0.20861993764731457,2.8616080056053343,1.2398640251163884,-1.6403735008031046,-0.3141085896607529,-4.440522209995504,7.184321031691211,1.2854954888001364,-1.0388109701039092
3.449880553886863,0.502225462678259,0.8924120362862564,3.021858193640065,0.16280980694389544,-0.3507952264296521,-0.7542020420556232,-0.23667595485793902,1.339857919328861
2.787184403499639,0.30584982208223166,-0.8234511076280074,-0.3801116657435575,-0.8341587639656394,0.9248235818941999,-2.0652541728269243,-0.08010665484570023,0.9505670028308882
0.6495899175076458,3.0461066573069164,0.4631131811111504,0.26142225676450254,-1.4370960728448625,-1.099616947955495,7.742780058843168,-0.03986762606199529,-0.836665295841647
1.844841163720723,1.6434031379209366,0.6274144271509798,-0.6913057479687973,-0.04074794092207985,-2.7439718048576647,9.296099475777442,-0.6679830863965035,-0.07963067897298268
0.14881346907064996,0.40062963859769196,-0.7930998043435915,1.0282588222078506,-0.6023028904000235,-1.1648613626888698,3.333899989796314,0.17359654452382145,-1.9876893544172003
1.0262848485318052,2.4170425238731625,0.701229136681111,0.03266083709149538,0.6023795738776386,-4.98844333136796,8.039180987447645,1.9039731795466541,1.0518592663016368
2.0680590396611582,1.000388073660909,-0.1984405176390898,2.3351272599025052,-3.141731000564725,-0.20033260130171837,-5.950458207433801,0.9939205808138304,1.1016030500247231
1.5172918607333674,1.279092066059171,0.08803144456052803,-1.0762674638561927,-0.9900170249879309,-3.5362158245476953,0.7337569201094434,0.5456765052390575,0.8404628977629077
0.49138751657709645,0.27136158439374536,0.7343821337737663,-0.5009451148390192,-1.7508798923498476,-0.8074700518508031,-5.9745169908346,-1.3127535485198667,-0.354617933049065
2.144768088724852,2.6823659132443196,1.815278124716694,0.12421570538156915,-0.9226503267212084,-5.656858366490268,11.523779420393225,1.1474765008916084,0.25342002064655583
-0.22349117207933433,2.5435409603811543,-0.1598228101383935,0.359792830151841,3.0115238599090923,2.5668676753319204,0.8646099073356455,-0.9152983574849413,-0.6948122998419007
3.177961820745378,-0.9987454499094379,-0.8668446666284757,0.3468172189394234,0.7561568447935881,2.8734194691974584,-1.8609435917689796,0.20400782975301307,0.5711192659886266
3.2523976415081375,2.4608917544744466,0.15488233007148583,0.22232805088094104,-1.6277647414284206,-1.4803066121763655,3.127561569870461,-0.1594614432976187,-0.038754732889260415
0.35770251324461455,2.17734331635914,1.0681742766000832,-0.3608991034145448,0.13317565676323126,-4.652653711339454,7.2559999419932835,0.44847626142115693,0.12087674564988782
1.2332265390070005,2.995052791292595,1.461839580784659,0.08535073641150555,2.3844219299482967,-5.545642212834383,9.606048193539173,0.5945323474035326,0.36988010704966234
1.4571436343715294,-0.8453230279985411,-0.1396412057620033,1.4638817401500666,-1.3652088053702447,-1.5831295297122203,1.6101629582916317,-1.6149597258347796,1.8432895336064794
1.0317969701598395,3.2841404233149696,0.6114704458618662,-0.42072724000727924,-1.9540476632725332,-2.1370069628389707,3.1665555679467694,-0.45593319376907177,-0.5859675235008102
1.862932206396279,1.7416795185655256,0.9297634369411101,-0.28927108264909757,0.9003210014786924,0.36024221581745697,2.7504867409136335,1.129410653146855,0.36748520249084177
2.273672683316194,3.008909673034303,0.7920433153745577,-0.36902215294478014,-0.05775445008512602,-3.971535901826617,6.4321690174339246,1.1983848026823596,1.2135937842309765
2.131480558100536,1.1662418705711048,-0.2702911517598972,0.5758985801840688,0.7665329281124634,-1.0020996006004794,2.7572976799433837,0.7241631285981566,0.21248438848427142
-0.7923452332291729,0.1966042785816169,-0.5617579320848065,1.3637179341689392,0.20243782571285643,4.306477570368999,-5.515615690066129,-0.14812784542786075,0.5906258878539264
2.069374499026196,-0.4510253938048512,0.2301588271120546,0.06873546225253657,-0.6532212360918574,-2.380424634256465,3.260468286761853,0.17397627025186396,-0.32409825146086785
0.9412961307672669,3.2970155518314543,1.4026132124573862,-1.5325740366409504,-0.5241655834620385,-4.278962290281497,11.575226772052032,-2.145701831297941,0.31361853668120737
1.6035355228473303,3.0836992273540025,1.393170670761976,0.5878380899481509,-1.4103707921400201,-2.283107359151252,6.823154659676174,-0.3723614729861555,0.9739897839851949
0.9384198020967711,0.9651333613300199,-0.13019487184593231,-0.46491021681043415,2.325047311318473,1.4757355428801617,0.19369865003675452,1.6260493726744143,-0.7169035703810788
3.1555340862235246,3.324717117655001,1.1726159927405044,2.5105495421029684,-2.851555424102658,-2.7621048310502325,5.863454459595638,-0.047003307690530405,0.16376518726957767
2.633440944255642,-0.29125632469160523,0.7122721796083962,-0.0548798197247538,-2.1791139430801114,-1.5507372853756394,6.306748815719264,2.071458212681341,0.8223116577111982
-0.2331066471200055,-0.3275205722074923,0.08629119586912568,0.5020333229723706,0.8981900944914577,0.9362011409548859,-3.2068752592195366,0.6496354753123732,-1.789676234820081
3.364021411369859,0.03260681510199315,0.03173611997122983,-1.3538144437765929,1.6021149464693647,-0.7203068947142124,1.4032199937446135,-0.6694966572703867,1.5586239584794925
-0.37272866247057657,2.228735588691319,1.6364192402353055,-1.9619836934483024,-1.4497816975883033,-6.166488879322422,9.488021766578521,-0.5169202243199127,-0.5886485942566783
2.5073318905089366,1.3409639129089803,0.4601800524706038,0.6558756818185729,-2.722951591623575,0.3198839423467905,3.342150036498663,0.09060833698389159,1.7118541220126957
0.6820724268118559,0.1942692507460373,0.262624045490882,-0.843198942327368,-1.2988191213563358,-0.24551820300227956,1.7060161127491194,-0.3194704849646842,0.035416764201582344
1.8367567962207936,1.8325665344578317,0.42989377606907464,0.37177556335711914,-1.233713668477105,-1.0677369361281595,1.0200388743105373,-1.41146223343327,0.6256106217543325
2.3931010786787614,0.7223592905419471,-0.1489895295251678,1.371627763835694,0.7690737429294361,-1.136874951237061,0.44402255723198913,0.6462298312114563,-0.23269179040657914
-0.47950846208952,0.44956114219186416,0.2270110460997049,0.8997788091356337,-0.7948765194588162,0.9120150251366465,3.3821942260632993,-0.4337873888470701,0.36359816888170693
0.19834961910098725,-0.7465786112470553,-0.44156341476401784,-0.6674802781969968,-1.7529979550052746,0.694530489736386,-2.593027063965194,1.3957847917985609,-0.2666461880523727
2.664938351070436,-0.9720337182290636,-1.638125022800506,-0.9813696038200566,-0.5201589885935891,3.891083115649868,-0.7579535631626453,0.3667982063558168,0.39750262005872117
-0.5928281284986082,-0.4011945443887701,0.619995476240699,-2.462597301550482,-2.5711081112308776,4.200624382779087,-3.904019559471212,-0.4320419381218584,-0.6958558407128939
-0.4285539989533439,3.250986760996831,1.8516068824301133,0.5356294706341534,0.2184553398384464,-3.6127457480969363,10.802491917347407,-2.234334389903803,-0.12753176120720522
1.695670031166454,1.3665726702916152,0.7909737331480196,0.21957918503693039,-1.850767544664824,-4.002926552405439,5.7971611886173715,1.1266590831570582,-0.9101116904992569
0.5758136201118622,0.2667558003190216,0.5228912483978083,0.6099768086963977,0.3192027716645409,0.47187031423261083,-4.086052336763465,0.5182609485111344,1.9195223514640272
-0.5954739721942119,3.0776083439113577,2.2875832325345913,0.06635930250775611,1.534453294086079,-4.08013198302708,8.808470686944037,-0.885427546553567,-0.7713644397514184
1.8217904773195155,1.9404623858280505,-0.7078581030290487,2.7307491138856257,-0.974760853738522,0.3758377816273245,-3.356393518275797,-0.8610243786458419,1.1706326573541308
-0.5741049903054767,-0.10240388173880621,0.5188123602223483,0.48678136716624104,1.2862029317020802,-0.22123042654206138,0.659013191157332,-0.5209726507830531,0.3193362727534629
0.5199712778050527,2.187486985618607,-0.40236746605088325,-0.7483321167285465,-0.021315003229511614,-1.4599323635809032,0.11793200613975063,0.23455886419692268,-1.5019958730084577
1.7753960744920256,3.0883594829080865,0.6338172848143926,0.3702548291603118,0.22586356923329404,-2.5254072665023806,3.993577461133844,-0.26417824612898533,0.21792035758599312
2.9973137839133663,-0.981789216340935,-1.5298950544823964,1.131875532818954,-1.5630980503991545,4.89519587421869,-1.530905843934681,-0.0708052751880478,-0.7825922796535659
-0.07788186602316427,3.2727683037344146,1.3639572127782222,0.7933517195962945,-1.7724824774859855,-5.696429188389336,7.668774832114938,-1.400852702645642,0.014057191659247523
-0.7885344059734741,-0.09282670357159617,0.5326786704810236,-0.6644208758515119,-0.739839352830632,0.22671656037837296,0.15282065652317145,-0.06126142233620363,-0.01682679765712374
1.0236071230560935,-0.6668703807085432,0.14019217498016032,1.182946827652681,-0.45634489015266533,0.38711793053045573,-1.0053974364891483,0.18430923279786723,-0.5082821307841154
-0.4097465614153887,1.704298996464889,1.3592706712589862,1.4305527276360424,-1.4625879706878588,-3.2546554779855996,1.771900349778691,-0.8510487737347325,0.24534338211375173
2.731732067343174,-0.9257291491439172,-0.19927488221556955,0.2644467780788291,-0.46020853955179986,2.2421464866763707,-1.1049012724736857,0.1681755883334391,0.6517066951388917
0.46244687039662824,-0.48898066616690805,-1.1071084460891762,1.7136631839156033,0.7682992000065549,3.8840857986496893,-6.655837943695559,0.3130418856054327,1.4459924901652659
1.9648630287553632,1.5146865178037485,0.7675064673225447,0.3127971881990838,-0.05301654064908539,-3.158538510074949,1.4779349177251393,0.8672879449668717,-0.1371507348345836
-0.4340233792969229,2.316779685018978,-0.6054718248821545,-0.10927717272130309,-0.36317046538269315,0.3375287322212617,-5.146517652402869,-0.01707800296229548,-0.7389201909078914
2.3081376124492943,-0.11082639688561313,-0.6866050692986523,0.6273201128201971,-1.8555786583932257,2.55670345313397,-1.6294036209220415,1.5172839414805952,0.29957031842509063
2.7191639669235075,0.1218940967130171,-0.24941114638878598,0.39955887175181715,0.3734955207935629,-0.28905251457988346,-5.228924064746297,0.4291117927500401,-0.3565294881525504
0.09977110964465097,2.562601646542024,1.2871730728511277,0.7225018386757078,1.492972421789417,-2.8536770703844603,5.7991974035698215,0.022505639791542215,-0.35466941728453555
1.1777125872493888,0.3037478233441586,0.07913456044206052,0.9656902917194465,-0.45020546793964056,-1.248638727976643,-1.6984298978178871,-0.1535354551074915,-0.992391278029296
-0.681810784714683,2.5304740705195505,0.7248779258592877,0.11088502595086001,-1.5543800903982623,-2.3313383821683487,7.72247434149702,0.22713895920330565,0.5815870378960438
2.5233426302923747,-0.6943025248631347,-0.22532327917687386,-1.5483306346020174,-3.4199047917015646,-2.1561768489034008,2.737726055324778,0.05756674547507751,1.3873838941244818
2.4608121917212933,2.7272014802082993,0.6683291912812883,0.7031597179364323,-0.06895791223775424,-1.9228118448728635,0.758854711974045,0.04997933815606026,0.6340892976366227
1.1253310422260907,1.8158981370134915,0.7132509712216923,1.0703572171702638,-0.2481681702955374,-2.9311355819470633,7.9088473963332495,1.2508595275411682,-0.6053390594926474
2.3215088450829726,2.3127094125753684,-0.10127528086703719,0.3521111982552929,-0.4226326280378379,-0.9840940155266225,-2.3421117478227647,-0.8862851617189108,0.25341127704478394
0.4873126258948348,1.0283990004038452,1.3153551793212244,0.10655091513154707,-2.1109967070773124,-4.566446732169295,8.617035136512674,2.3895637129358147,-1.3980225991064223
-0.9737169055398297,0.18037486267664282,-0.1813323874734627,-0.0018744917447904178,-0.6241774626638952,-0.7934816772340868,-7.774428473146809,0.9219226380180462,-0.4495120632216706
0.041572914765711566,0.45683084368567806,-0.005369272722804186,-0.7502859020742912,-1.6998716855893914,0.7364345330374257,0.6557331626820129,-0.2503555292325888,0.6020873472026943
0.5857525117310332,1.0467638168244688,1.0886150958968734,0.29862413376248054,2.6524782415792916,-1.3478609666543835,2.3712901430409135,0.3531659975391718,-0.15934871992334115
2.0981934186878055,0.8038237390399039,-0.27939039793996123,-1.008100806153601,-0.6592630970332889,-0.3454661387729633,1.1784826231953298,1.2789767403417611,0.014497169164785722
0.2042720985262898,2.9675232078956277,1.3532034837964229,-0.2933385152373648,-1.5993775583882963,-3.849848015032862,9.626158282557771,-0.5804747987016126,-0.2176965147971833
-0.5569633512613972,3.2395867111249146,1.1360753352181419,1.8738277230620757,-1.3796827420463313,-1.5037617153138596,2.960100968604353,-0.2593505101576532,-0.862600666505099
2.1255498944065416,-0.2749621043884971,1.2700107580566178,-2.0632802605178773,0.46027798323043934,-5.387018021062568,8.28175054774894,1.517570477898645,0.47426942059528127
1.9136643172210475,2.1986575404223094,1.3497332569368092,-0.3551170940744068,-1.2826435488594778,-5.008088158015849,8.805316360272183,-0.4908508812092064,0.6333803604299292
2.3072523573791073,-0.5742206578581752,-0.17261260608029344,1.030297693092906,2.3837832474671656,1.5901779962646125,3.230183552116872,1.189123675364677,0.01588027064876445
2.3843817148092947,0.4191623161552904,0.8852806043335537,0.05779428495868405,-1.1475500166846315,-1.9113419366766193,0.9945978103045845,0.7014866206414863,0.9380029921767741
0.10281516752341857,1.9924110126729935,0.2621594202651603,-0.3451890959771263,-0.3731662543023489,-1.3444771846424528,0.8874066934339511,0.43121532280074887,0.10857840009414431
-0.1276157882612342,1.26115958643627,0.7989785830622085,-0.9684646964195497,-0.30725536983709134,-1.542587225203247,4.978475460002779,-0.8405961635633663,-0.8732200907733344
-0.42385095700040853,0.1821440643403469,-0.042509735942354354,-0.6869418512522862,2.4763192484849132,-1.2108662587544416,-3.9397296103152724,0.7433713472331859,0.7186267183345487
1.5611448072376972,1.449484048616498,0.840386263295049,1.0317265952478094,0.13741503830637564,-2.545735742016989,5.502713210249203,-0.3655916474492319,-0.12420391864008141
2.1839894825321093,-0.31066939653833303,-0.24207056556856885,0.26281352165366956,1.2281571507755276,1.2308303115673092,-8.157187106067994,1.6064762653952847,1.1813619845746541
0.977489024966474,0.21311570351345188,0.7574147748130693,0.40739753298253906,3.116359514997853,1.6691477940111077,0.17309614207323654,0.5570856616731983,-0.05408010588543885
-0.4349307531160519,1.2887540934506094,1.1884618886759912,-0.2172877545954647,1.9717368447537467,-4.823993840562858,5.8076842966615905,1.6109798447444985,0.2969308944574436
-0.6522554388315969,1.2813306759188263,-0.013714012279789106,0.6132060518711394,-1.3288440089632232,-0.9891420122338166,1.9379116240051006,0.28471255650345645,-0.516870546302898
0.4142753147801368,0.9900708269243073,-0.4630537457528556,0.9532083272755948,2.399425630981652,2.683624334909976,0.7186113412218437,0.7383125085934339,-0.09388074012953981
0.7628610403696892,2.8921505221833232,1.254313427977565,0.9828028455489036,-0.5685409374809486,-2.38365988168133,2.5643176386318993,-0.9902613333815482,1.0842844072889202
0.7726809639119419,3.1581049572078657,0.9625842807652318,-0.8266270845222287,1.5193582805912087,-3.3709600825829398,9.064580505272135,-0.4147892093200608,0.4799263921539526
3.4061267841858163,3.3855601350096496,1.1285445719868061,0.2690180012685645,-0.09303242749005508,-6.416634784993475,10.805258122219618,0.4275275092151978,-0.3001120538648
1.4355138089602728,2.8786021010761598,0.9751722372699403,0.4365060015515687,0.7256916598398284,-2.0387711015565158,7.132016631528348,-2.0110476778096316,-0.6348460508542112
2.7654866624981187,0.4086941939333284,0.09804071811757131,2.3699884497959895,2.2906634670970245,-0.7451142470896792,-0.07064786725820627,1.2068701193273799,-1.0896716182862487
-0.7758861006521304,-0.48630672664259333,-0.10520930080313518,-0.23369838650881525,-0.4165920128766746,2.4950016515869784,-1.6351800526473186,-0.49714663617201454,-0.0287904165234424
-0.8583350816553755,0.18245078844063678,0.44860985135628895,-2.185723573315503,-0.20677952148638856,-1.9307866565427685,3.9671680154594338,-0.6427650652266949,0.48708392696343855
-0.575712844796185,0.29183203037015626,0.458940187800824,0.503495920167685,0.12728761870554806,-4.7094991992215505,8.816192286774093,-0.5545759694000723,0.6579373873460304
1.527234171830298,1.1155789121488149,-0.233936277034612,0.5090568827229537,-1.1296327889990503,-0.456963330444363,-1.9820548114488192,-0.3483247970569406,0.7961516537313305
1.1277711704413278,0.8779334048422254,1.129578402322951,-0.5001420219839174,1.7801125292793485,-0.7776074738914955,4.3593175437380385,-1.6974618605707275,0.3831837998720884
1.8699245137148512,3.260309472152123,1.9959810577936503,0.2569598004647534,-1.2407372499382276,-7.277796891733569,7.619477006115781,-0.6305632878188724,0.7857105376273837
3.3911992531328377,-0.5146806110224831,-1.1321883002425175,1.8942035171869596,-0.580777111689221,3.094315625518087,-3.7472402721866755,-0.7774996318664704,0.7773892618294702
2.487693183300557,2.515420869721671,0.6693749685815286,-0.7213227874205683,-1.1359535287280005,-2.115623925115303,-0.34015872579591755,-0.848448315800634,0.22848543292053247
3.4349675094494296,2.7515978275053277,-0.009940845971889711,0.46259834919217646,1.360880102277993,1.5907426811482595,0.35986866969182973,-0.0015717102319682263,0.7200094132217566
1.3518090881686038,-0.6004350846512878,-0.6895963160312172,-0.7463719327952114,0.2996249465338657,-1.3531044443430438,4.028679717128859,-0.24296957875252106,-0.24873278367862708
0.31869512360953256,-0.7365800580996936,-0.4673573680030512,0.01783215627132143,0.9727898941274153,0.5133048729695269,-9.58336087770661,0.42128575563160786,0.07266963901769864
2.894887070886368,3.364185324121128,1.0650393689683935,-0.019389473509728757,0.1898331599353515,-2.9141080401994905,5.7138089448028175,0.6790920288812179,-0.10530251638852356
2.769834522882811,2.000584441872533,0.5963199423069372,-0.22336238362469577,-1.2474001005118596,-5.802344367607704,11.265511787549173,0.9071305259394395,-0.13628261991545174
-0.9489025379643478,2.8236177573056906,-0.11415592734443593,-0.855277112755123,-0.21465804048285478,-1.8510560977020996,2.9484684271449844,-0.7037541280867997,0.21536063228165278
1.2465185443694997,-0.6654865081742256,-0.37440857818179235,0.5157014893443017,-0.8263248169031253,3.423218912675546,-5.359612658560126,-0.29523568200107014,0.8151494966541343
1.798428865206196,0.46311059775255514,-0.14630071865168612,1.5130312398080752,1.4149715361973538,1.6103543530488666,-1.9879615704905738,0.4513903598375629,0.3274114490608736
0.5118320897225188,-0.8436265774331345,-0.5701364340665435,2.128250783738482,-1.696643076287465,3.122022420239343,-3.6882045471858396,-0.34153135834484877,-0.6744730910656636
-0.5040638626097509,0.5831545971414676,-0.2663555926724184,-0.16044065700851529,-0.6975880484996427,-0.6803009003650518,-0.22835280070433583,-0.1893131187066982,1.6963564014336714
0.8861808670947662,2.2835422399988756,1.5678595349662459,0.09565261679473394,0.04468095447887321,-4.9306136720092155,2.535212562701214,2.1546446421195804,0.5588152200075927
0.9892195587412496,1.3039215137299376,0.5658844307821707,1.314932476625365,-1.6950615052017404,-1.0287468398626252,7.1664574174756925,-1.7213935286714221,-1.0096698120490646
0.0228901923251561,1.4253188872275357,-0.6865676452835529,-0.6715982409726011,1.021279728685872,0.5783965695642012,-4.03698656579196,1.0464604028811582,-0.13729672661781198
0.9528246405684409,0.605514118567491,0.5169708201156931,0.8772596399824754,-0.16931448024387222,-3.609587673781652,2.76970840993301,-1.0319127713901628,-0.7983360876516324
0.39145366531455217,3.4014713198230586,1.6477479018109529,0.20088922724710861,1.2834654561417767,-3.692599157417529,3.628455988459473,1.7150761953952958,0.35170479570792507
0.8970669769218054,1.8681102550594613,0.49697169001836156,-0.365804672413622,2.318134765474999,-1.724416187864989,4.668500646137157,1.3854399981370544,0.5076519776399817
-0.14405465234613912,-0.9183656704810201,-1.0486252596925345,0.7812845021341301,-2.3429549651834902,3.1828761693058847,0.4486758376645881,-0.2870846780761945,0.33042038773347826
-0.4256024471752188,2.3759205155438043,1.0746661818975256,0.2949541407399193,0.8549870654691707,-1.4913639292273504,1.4541725606979998,-0.5477619342616702,0.8613050897155035
1.3874044855313077,3.064680837260749,0.8199679904847763,-1.4264872310589705,0.5407408647441785,-5.6330961334784915,12.896068413498638,-0.5522874742360466,-0.29274603466538557
0.5682473331401028,-0.5347066325756483,-0.6602390075204285,0.9164310625571678,1.2909264741964985,0.3495747653450407,1.2630177843758208,1.2156852869193098,-0.09010881444843348
-0.1839403826353314,2.2428004755045934,-0.1518886933175725,-1.0618962897246793,0.6165501190289652,-5.4364217555659184,4.316572866262646,-0.6962993394591069,1.1298314489497785
0.6460764464491924,-0.39582537827266795,0.6604717351026995,-1.7069480077670869,-3.355973786460003,-1.0118904032919944,0.29556747500960845,2.086972771342044,0.6482938609344093
1.0985377550289597,0.5466385937924734,-0.7706899041472195,-0.9995203219498612,-0.6606394298613206,1.119443935982261,-1.2480860179140167,0.5250500289756111,-1.5015525122758469
1.292543840019841,-0.5269798806523887,-0.2173432806591298,-1.5261084998185381,-1.7134483475124385,-0.785522153775025,4.937655019460726,0.4020796282638349,-0.2693110962452097
0.3252411567172604,0.09642221077674162,-0.14910716344263109,-0.8131098960283724,-1.2261332728675574,-0.5480491900543817,7.1456418340502,-0.6678251041442353,0.909566685802253
3.1513752077399353,0.48635214842597563,-0.7110398472153274,-0.756223845930318,-1.9687527887726097,0.6711392849127172,-1.9888458928736794,1.4147624343964327,0.9614802415200469
1.574443223076392,1.4520731481406424,1.069438324934684,1.9571168275119413,-0.9614197798950225,-3.6581813960462517,2.7187633302275707,1.8100071291766116,0.17823206044970724
1.5149061091522045,0.7479474125063346,-0.08493863947734344,0.07047481854545927,1.548745270419788,0.4019924488554055,2.673803926328306,-0.9238371939786252,-0.8643114745912653
3.4033546178475715,1.561333213641459,1.429834726753231,-1.0944557491042648,2.6126710630554824,-0.6584187858614259,2.0154277168433374,-2.078244753151324,0.2644528646444543
2.8446032584855168,0.7254043880501024,-0.4821767232869943,0.5455275280893773,-0.2776657082177841,0.3044318445571729,-1.2406843976265587,0.0715104505169134,0.44458332960614366
3.3896357169802416,-0.8328448428533378,-1.1320473813485201,0.5830456408689813,-2.36903887188307,0.6073070896711218,-8.287469259454433,0.4834898695805987,-0.30781815610371405
1.6178993442849796,0.5749315695596784,1.1746208686583597,-0.48073414658674635,0.39152455842335393,-3.812130683777567,8.652346946933653,0.09616711188960095,0.48794609281072165
3.457207438717079,1.3090754197563812,0.5059195600776082,-0.41631991613376135,2.2486843589079593,-1.3322251923550663,4.32831044780686,0.23601357556109914,0.49758488420004915
1.3647697229794802,-0.9184680330984378,1.3342520118170478,-0.9404269083270523,-1.008405649664565,-2.1982197044874185,2.5637105687299764,-0.27681694196615736,-0.13107648379309295
2.1490392107312437,2.1183822715435916,0.9990317277993259,-0.8941461501985406,-2.5780401494073617,-3.160873110080007,3.8975248560566795,0.10193923670984242,-0.048323472980737005
-0.8261300354796249,2.8173326366261278,1.5239333177411432,0.12384112878865626,0.5014777007483395,-4.633142691184857,6.739780971511111,0.5911170817093432,-0.03343810536246713
0.6162724678139235,0.3017952331979701,-0.4292123326239968,0.9200171225725984,1.0472898195419005,1.319326674134858,1.8339917785415678,-0.2962509618509744,0.39469795422736137
2.170689681688392,1.5199096947839439,0.8082985781427485,0.718095664618143,-1.0337716330041946,-3.66750511672854,4.342325504603476,0.0837232881224938,0.014290197307700985
-0.030343632968372503,1.5090254462586725,0.902473806462113,-1.8063705546680784,1.665156467699349,-4.34474951151474,8.290564296299465,-2.2168466486587706,0.3539756668813988
-0.43968315635423116,-0.792263803474466,-1.0479342671835894,0.5614373398177928,0.36801151382492703,3.1239856113374085,-1.9095468904037265,-0.8985729742348434,0.8652185733557779
-0.14771467069351396,2.227966235414947,0.21707668236016414,0.5819722214348911,1.4655101605414498,-1.0497594893448892,1.4235426616367952,0.7549083369165256,-0.1038891075396093
0.23188554127034955,1.6943796410684637,0.4707767535973757,0.23073402765748785,-1.2725052624532258,-1.3824606481304222,9.243065707662177,-1.4943402137551505,-0.5632436173354469
-0.9903959788627722,2.4733177794711096,1.71157826596258,-0.2429785643427673,-0.7203787313858525,-4.890530999317797,6.273874220231304,-0.5140428829914224,-1.151153446551072
0.482718624182467,2.5576649565177054,2.2109958553663622,-0.26505744930917907,1.3844322479134337,-4.991627161559721,8.716760445658261,-1.1284823017042358,1.0531113191497314
-0.5107509193941588,-0.4356286595583416,1.1962584121015363,-1.3511237219629726,0.08091419953441237,-3.513472137255457,7.1100836356834165,-0.9126955420788734,0.7087672048785323
1.4458127387312927,-0.39620638753747917,-0.11791957627468341,0.296852951451059,-0.8785977763064218,-0.9330325026086901,-5.044232805273036,-1.470737963597474,1.0984998212603854
2.726593329622302,0.39861849394200566,-0.5215700231565517,2.7613574257766413,-0.1608922581136897,1.524303194762326,-2.66881388123259,1.2390448006954327,-1.0249694055957774
1.8904026732312453,1.1284420762235077,1.5775265752607412,1.9002352221852783,-1.2749481954171697,-1.0499792966265171,3.751236429232992,1.3679540752022414,1.57078324169867
2.393174044446466,-0.9976986903170397,-1.6294793129357001,1.2329266305304853,1.709935174946929,5.276303355952801,-5.72501205366431,0.42670070225758283,0.24182820398677216
0.6069190173313792,0.2904643386018908,0.27259205215100024,-0.6862216436739298,-1.980978541493309,-1.6470333367286658,5.812398744580739,-1.6394808572652146,0.3970188531950023
1.0758386540893756,3.2462562726168436,1.0542687779264854,-0.6577486637951703,-2.038258405658687,-4.022865189356428,3.9631570328684833,-0.124847149143762,0.48276740886179365
-0.6061782638013837,0.2656134571530975,0.18924172903561792,-0.32583094052420325,0.5954919392205673,0.4200184515426434,2.939870653375467,-0.2577712720285673,0.22590171579185517
-0.4268207096809462,2.582486748326089,0.6100622197147463,-1.2677340911788328,1.7800570508404312,-3.484853434990189,4.474319652380021,-1.0633052419510536,0.895055709685533
-0.9282377298131332,3.207678373546246,1.2567243432837536,0.7530153863536746,-1.708791605168476,-0.49058373808242406,2.5082777628656396,-1.6614091140882217,-0.6420291351170647
-0.5661775090530337,-0.14966934500471618,0.526860194218552,-2.361974727256855,0.6042107218833519,2.3762884257813925,2.2987778369554603,-1.069080386391139,0.1484345589356648
1.4895111475817329,-0.7446894838652522,-0.6079624709991773,-0.5127503491100688,-3.888367887315623,1.7063077897104462,-5.302687654533045,1.7494810587800034,0.4644636083704948
-0.6813475089419352,3.3493261604014757,0.6769865720607305,0.4855996164457751,0.2774358749995744,-3.1673904843764635,1.7906260058543735,0.2616282558940587,0.6892865405041732
-0.6286624574183484,0.36246022296784375,-0.15791229891744615,-0.46006028263921,-0.9050473946617686,2.4931859928422435,-3.0199602761394435,-0.5026957082122314,0.6147918144041725
1.618735101319058,3.3059328217630854,1.729122513608289,1.0786832560974253,-0.5157887724602724,-3.334390273729102,9.909005440494777,-1.1872583888492363,1.2492600647318213
2.478812012239749,-0.7543381323558704,-0.9072205292365774,-0.4067485108035405,0.49442747220474975,3.3503254664515705,-3.5500736471383476,0.8762595616716133,0.2667543665912045
2.3801819846608767,0.8195048187348277,0.37845271369266764,-0.2351430147474137,1.919941221858423,2.232084461479498,-0.32101884036281836,-0.7607369466356511,0.9003968001127497
3.028563637235287,-0.45759347288935426,-0.45933509446027576,0.3609770594291152,0.38342553251438766,0.2720260198121387,-0.6166804612145106,0.5346994907792696,0.938212555398541
3.2571931237654983,1.3988841343482283,0.8884044858940455,-0.6857063662570487,0.8254338649082714,-0.1505486169056306,0.8760155102939349,0.5844370525842847,0.4172510927631424
1.6200581979906747,0.6151689045481519,0.4215249186029519,-0.20462018661206918,-2.457061631411638,-1.8572256761347712,1.2012834043448435,0.7068099155925527,-0.27376716572769677
2.4001510853006303,2.7358575973716275,1.087681642221419,1.3183757895558903,-0.9383843165365761,-2.9623211873815034,10.913009858603221,0.2527969137281927,0.44898070916547733
2.9678537784097716,-0.35306685740581634,-0.5666378727855984,0.22076476955116145,-0.9029361868230883,1.3077832575624737,-3.671711156879806,-0.1381869498899728,-0.2011959099355254
1.4231918422508505,-0.6710089142364236,-0.047031980385811134,-0.5132393897973214,-0.07667404466034929,0.8772334508016764,-1.201641703325381,-0.3527868410271037,0.13044859680119292
1.161116479351516,1.9409306072945371,0.5921915608741568,0.3987324936691813,-2.160082808182826,-1.6646618752607356,2.6236065157925985,-0.6470785022753988,-0.10107509447093199
1.8185228580927375,3.4277047528821063,-0.07519849609688545,1.450239546796375,-0.9565536772837449,-1.3782925730300324,6.741568722510669,0.11534573631195377,-0.5853067704317958
1.8092538055552314,1.4630637812907334,0.46086981646582065,-0.5287502506554518,-0.1906843260653809,-2.8700212258733075,3.0307666416387096,1.7959370217251904,0.6352327593716738
2.8650014809487008,0.549064271370908,1.0790029715772402,-2.0064027634369594,0.9455259548404183,-0.47313348905583225,1.7039240459611635,1.0957402221709818,0.8782282584194582
0.2737765818194253,0.5725604975671221,0.030486708856374098,0.2529221341845544,-0.44539117105708054,0.8319662765391901,1.5864098655893357,0.9163568376012458,-0.7671963004812405
3.3425876428704013,1.1350426616321294,0.0836481543624219,0.5360396444903308,-0.12329919753635346,-2.158357693962998,0.837841415350566,-0.3904418446306149,0.2867897636839305
-0.5121934113716129,2.1006539653791143,0.26582174273958203,0.02800223240047561,1.9289527352187388,0.5670255491855151,-3.006354897141489,0.47342740123704447,-0.47757617277622877
0.8057618020839654,2.645412276390756,0.8212341310990827,2.032490949976368,1.5005354328053016,-1.5201489559110692,-1.4268618965329658,1.2556745927056252,0.2684033304316782
3.2975430059240898,2.3020800821906358,0.6582555973866826,1.3516033628530195,0.12075230536093659,-1.159015354384715,2.0132201248706267,0.8129417914586918,0.21681137153762453
0.7463572452543217,3.146524336089386,1.1251524252575353,-0.681677510922844,-3.6331628895186316,-5.78094134278752,2.8250003847283565,0.8631605726332985,0.23936574422096696
2.507700258961968,0.897993611046604,1.2349020400112947,0.00849117608893948,-1.6844258118858362,-2.756353592232836,9.10490930914599,0.4039897726838498,0.08348334519458064
3.1768312887493746,1.4403728932768844,0.7740121229665606,0.7769221940915524,-3.4086855773052314,-4.37551643198401,6.4505967420260415,-0.07003736228191837,0.17906361129508133
0.90406382896504,2.26950668367993,0.7876112533739438,0.1382885664262062,-0.6652821758791817,-2.849670570528955,3.9407658067986997,-0.7490930650387447,0.0019148732880753469
-0.40199810595223917,-0.556124503122152,0.1083739760570657,-0.04903600966726626,-3.040649352261493,-0.06800357694217712,0.7036777654030137,-1.409619729347065,-0.8624564598114086
2.483409008620565,1.268118837936278,-0.02108987847958077,0.8883799177475028,-2.53795690352883,-4.030259316867228,0.6468313990218046,1.027684076526774,-0.5975726923518876
2.44081248638793,2.3287963966548797,1.2963028533798866,-1.604159016587552,-3.1221903919021865,-5.827103458108016,7.18820872405829,-0.9894101441224181,0.38896416224829966
1.6011635281671306,0.5949843181069294,0.9167460469291764,-0.43245611641784604,-0.31311720374189356,-6.308972849778391,6.718988894373416,1.2218806281512127,-0.5771964296404501
0.08760226338568189,0.6273970893648944,0.21173262141984167,-0.9021805528771365,-1.263690430254347,-0.8169571187914176,5.748462001035008,-0.44794106838228703,-0.523582148907431
-0.0037338362464337527,-0.914924938743615,-0.9712208407258055,-0.04273487937113802,-0.9558157793674409,2.1649223531151454,-2.9935223486673794,0.6605129432396674,-1.4349820601266057
-0.7294977081277859,3.2032542041671404,0.8805728240189727,1.7544436807525536,1.3391437329602458,-4.421066316411046,5.874591358850827,0.6326584046835222,0.38718116590094015
-0.23994984278296827,2.8849514836886323,0.47061738493459365,-1.0861494574728525,0.7465649700130764,-1.0112270231233242,4.314639521509769,-0.6764352200010929,-0.7632633564711281
0.6679897552363587,2.917019991094147,0.6735335911537441,-0.3791736204252037,-0.8365076384691469,-3.3252376099606975,4.816861634471769,1.79456751874114,0.9398282448669257
2.772940778169639,0.07851186730029247,-0.9669608253867666,1.0233887612108794,-3.1278465554568573,3.2348611563120775,-2.530885630031987,0.13469381158515603,0.40537015844945257
2.6074625363996944,-0.4491438211961435,-0.5850036003429031,0.5352466174147555,-0.21714846550216335,5.450657176698732,-3.420380880927958,0.47939440164832725,0.40386197710195193
-0.35472113717902,0.23552208409581765,0.5222237935698121,0.26522053943870944,0.8617600436890837,-2.8743332966959385,4.189455865708739,0.28746269775442584,-0.22483562629235287
1.1383753005962105,2.506542042396365,1.443328103975076,-0.16779641997178632,1.0055199589290424,-6.63279516093953,7.252784973901679,0.19834529238827786,0.3425603473120524
3.292456950016101,2.986487167223772,0.5784670223851062,1.2710101058328258,-0.661335011049511,-3.551675634932121,6.133114288601856,1.5917980205912672,-0.13403666779299706
0.803951863425614,2.1784567054148174,0.87666486933878,0.3146953352848939,-0.3217847550162333,-2.6154028089733514,7.715623784036146,-0.08694734381068428,0.6955402828385376
1.6395712676768786,-0.6530998074589144,-0.3129329293542322,-0.1328197210092868,0.8436495397857473,4.627672717104259,-7.38114274647516,-1.0673040961238534,-1.2310591271521711
2.9797396623657098,2.365467636877342,0.7209652679977744,0.4687532176203552,0.3585345270784607,1.0778286535618504,-0.05604446596979651,0.17241481286252558,-1.018875039792594
0.7061700619771849,0.6378584273637524,0.17372216143005323,1.0605485088768547,2.7851053508808894,2.184965360935108,0.7310763955519319,0.7857122061488038,0.1351279820437937
0.13088472713825117,1.058124858621892,0.2669014374299434,0.9371440605715597,-2.593228846456436,-2.4653234208274624,5.041685304653949,0.3306675525490591,0.6760597833358096
0.6739438162423028,2.06134309427244,0.6239855679173725,0.892022424645773,-0.08796039764031145,-5.114542306415896,7.583492892082895,1.0977178144560764,-0.01636628468519346
0.889783234500584,0.5110347760294056,0.08613588755728296,0.7076999386038766,0.01896690154842946,1.142018715036342,-0.46199773917132436,0.5136543394012105,0.5983731185842402
2.2354629372712216,0.5504531288024124,1.611925890177979,-0.3988067109931845,1.291302681704959,-3.573607002042979,1.8751718742621033,0.6316455307984772,0.4246452857485642
1.0261773871306645,2.0053649233922384,0.049715898960255356,1.138767582162562,-1.1683402614673255,-1.6071472687877622,-1.9933672299392313,0.4230379507662175,0.49620698196616986
0.7336509808343905,-0.6995544176565839,0.46947925082255526,-0.31368758824547804,0.8184788983601207,-2.4653080735536372,3.647600503191285,0.7019652224336363,-0.28379810755968077
-0.8206457013296728,3.440606462036386,1.6596232169306357,-0.4076230088610206,0.69241127633522,-1.6481380882309284,5.9296832675596995,0.41792948341935365,-0.13387873320176152
1.1304779531306206,2.255352259129219,0.030472402960083078,1.0442059006567501,-0.5096416047398792,-2.6469923164294764,-0.6707726428979672,-0.08882935781719864,0.319604797158615
-0.8053237131869935,-0.5773098329533339,-0.09835926147295505,-2.265038747974002,-1.225932350712924,-0.90469961053068,1.4482454188429355,1.0288736802848883,1.7075400079684218
2.171727866884282,2.602134411633284,1.2200814607745694,-0.2163148132749957,-1.2780097888241009,-2.5298989305280553,6.891771048112389,1.43240746180147,1.121668997964132
1.7973171424081862,1.3970975259469105,1.164250211078242,-0.33808631406117284,-1.924123404287264,-2.26006985105097,3.0989008335802897,0.1517219673445732,-0.3722447678724859
0.8568857831778303,1.6001328262328771,0.6028445390113593,-0.3294597871324973,-2.0113903789828407,-2.9599453837894254,3.9731475619484553,0.2548320130491764,0.4374350528475301
1.6007156838366337,3.264588129216351,1.1633532407627711,-0.2771626866420966,-0.5741116393882278,-9.154678695790713,8.14544572354434,2.2101001328430128,2.3252994768900863
2.101652266514103,3.337095349651517,1.1638045152802994,0.6876458168951013,-0.4504659408168007,-1.0660188460464806,2.520574980622791,0.7844763286146288,0.4279316290300245
2.3136364069307676,0.061689340762548284,0.32258114825298523,0.40185954180135625,-1.4250501429051585,-4.6416700528118096,3.359252159336834,-0.3453712240862369,0.6572759326344588
0.3686019534767975,2.271625422231166,0.6347916444712621,1.323992317975941,0.15261751529825776,0.40156554173286474,-2.166793685230045,1.6254852374608366,0.8356151660814589
3.0360199241301373,0.6845710653378003,0.5591221618618231,1.6228435863826702,-0.8011963629513571,-2.8145057658983665,5.99209149485397,0.03376567213661025,-0.34867325237018576
-0.46326479537327425,0.6228795183899898,-1.0876739170556342,1.2848975339071127,2.460349642526894,2.8681140174141357,-3.104520310878558,-2.3314844890176922,0.5730129041822692
-0.6787451615030442,2.3827841541679406,1.4510020430993413,0.24080343136164312,0.6494972743674196,-7.2191705261269465,11.178519150958522,-0.3209652506253839,0.15284878453518694
0.038901371306809596,2.7537791392239552,-0.05572922518322665,2.5324955002905365,-1.0779801599259529,-2.9977708687976294,4.051327711042349,-2.0630750644140203,0.5867282972431933
0.2942719265327205,2.8178528584774107,0.6898065008272076,0.22438025505599885,-1.123266505307018,-2.8172954678496733,0.8921263842529883,0.1548961653240644,1.7224119842354786
0.3111984487891639,0.2357918601704394,-0.7039220065325162,1.7265394195670267,0.16617727214697317,0.1297517641395156,1.2462315050747097,1.9606750355480849,0.8407607252455435
1.0117283976542266,0.6103387015517303,-0.8322358303497769,0.5427729852284358,0.4629795899944596,4.563722154282881,-0.7825652479457408,-0.26809751830254874,-0.4994070528480489
1.9037437465018638,1.2270468703057826,-0.48061450015707124,-0.16938247085997118,-0.5855818585651881,1.4806630516951051,-1.2692707670307883,0.7567451601981499,0.3293700288032261
2.3755135084347945,0.9175075382762781,0.45573474203030295,-0.013975868858229153,0.08753016445530047,-0.42684360768769614,4.167421255498091,0.028561921438335736,-1.7914032544201408
0.5685000198306527,0.17303890486600415,0.06993010920722723,-0.163155867846789,2.8475306219383256,2.4456907525695755,-0.5788472407066783,0.6920419511214784,-0.13291248047716284
1.1225224937871725,1.1752944014265636,-0.5621557146880403,-0.19676453357038146,-0.3539743714138434,0.535072833687026,1.0504861656087083,1.0413503335063312,-0.08145687723338114
2.2654841302194098,-0.9154560442960803,-0.13098481827494918,2.075643232037886,-0.42623240472954405,-0.8730987566759105,0.6641007137669008,2.007284458702374,0.6026832389039593
-0.161772554462697,-0.8692941396317004,0.02017048020919926,-0.6272706686952778,-2.8307594154818467,3.071375619225228,-2.0613517819183285,1.0396144195243038,0.05396887874227023
0.8960998917181255,0.7429215685486108,-0.7588640098324589,0.46290390692455013,-1.7171896495016397,2.58270273855866,-0.891551275741925,1.1851161469828282,-0.36551317808981043
2.302115399569276,1.2955316523110962,-0.8305498576342877,1.0244559854911275,-0.8350083847460043,0.2479991636809542,-1.2552229428629649,-2.6771289725108653,0.6760766382567985
-0.9646037175180249,2.828541501999255,1.5938205573740167,-0.1214507523403886,0.8943283789652073,-3.0202619116781992,8.242022938618739,-0.809379563363279,-0.7488105257673422
0.3197501727853873,3.2541605242839875,1.641814184673539,0.06373229712721014,-0.8636551114512382,-6.3795840181190115,11.396395585547932,0.9167692747576666,1.3533019111979947
1.725133538378691,2.761093301282125,1.7995278179333134,-1.1209371870022677,1.0536997159881285,-3.8733489207015444,9.318879804939549,-0.2566619314852788,0.26470719663788
2.2969194743863093,1.3880516531420777,0.8068782159240615,1.0808500131876897,-0.35019112291032406,-0.38680044130724434,-0.987267579980343,0.6519165867964307,-0.8099486523780178
2.7732264176194645,-0.6931997416936013,-0.7743949707596847,0.7803501633958942,-0.2243776225363866,3.6404985930936915,-3.8313718998267263,0.10251243251387954,-0.3896939871890831
0.5618504268346605,3.190625983070788,0.19434308271136436,-0.8990829812294325,1.0680889436750078,-4.920944759650233,8.598066481056723,-1.2039003876778644,0.23135553392500208
-0.21691683759768854,0.671658408224219,-0.17767989954943247,0.4847477630439461,0.31833350176795583,1.8205509717209019,-0.0516335150522752,-0.7712556414061921,-0.32155362069497767
0.8887982640146406,0.9925604750435917,-0.9336228527307515,0.3661398266464909,0.9019367092529378,0.6466890686207114,0.5268400872573973,-1.111318363724597,0.33865448717369023
2.9069673835765784,3.0041897891469356,1.4965185435618515,2.244020422777343,1.2268516350245622,-4.918426072567814,11.585138669142188,3.030805785802273,1.7147663829589004
1.7298526794795062,-0.7062151033989739,0.027240385677344436,-0.05070672871179831,-1.3954493594511983,0.4341728194991957,-0.851383067692691,1.1711213930902142,0.0928053385669454
0.39132908368479113,1.7449754402076483,0.38069522551396495,-1.2429568059360654,-0.04385994416188045,-2.2041197738883938,0.7080591974218212,1.8215337971886552,0.11518143094840629
1.1560330313327087,3.307413772059266,0.8963675187280458,-0.059754291477266075,-0.8800370549443101,-5.269581636493793,8.691354369412174,-0.1616148834849977,-0.60910382778958
1.9910480173372003,1.6435290462459466,0.29236007535274317,0.6917329659623035,-0.4722962676925301,0.34933031311654283,3.377702636418801,1.2434577867656365,-0.3837209873088862
-0.39247544118086564,0.9063430577815175,0.16533036994182534,-0.4983975647284503,1.1941054828873114,1.4624185571971786,1.4079313563001263,1.346463417488267,1.1331876904062892
0.09233580759804028,2.0910880738773407,0.5623651604353361,1.0274252722100359,0.909518385272242,-1.3772499513166356,1.7734419120691838,0.43424167534290614,-0.4272076652848254
-0.7713970078488968,2.8941532582663982,1.750032649949969,-0.06169768677041135,-1.2887244009170271,-2.5601214811434403,4.473894304390976,-0.4239647232135322,-0.49974253019584886
-0.7171084448692258,0.3807287450112442,1.1378968186716214,0.0821947191031051,-0.6064272421429912,-4.040664956693552,4.1340067079028024,-0.7790380938801553,0.3928045955661633
2.545886990694678,-0.7730220594175606,-0.09697807695854467,-0.12840888980434617,-0.5090256392560707,-1.5378106009599553,1.3170760767683904,-0.1515086908832326,-0.5924121204714577
1.0160510054211023,1.864657761637174,0.7326157476502817,-0.22926237226814422,0.034834120489017024,-2.5884563546449533,3.8731252604359137,-0.6732233982305385,0.5217226019379745
2.776551984525271,1.7061573956809557,0.6579533800690044,0.769638160319782,-1.4683238950052788,-3.2139089234907607,3.0712757100669643,0.6821821222227453,-0.040997168823349715
1.2378004566917924,2.6219011388673317,0.5470431949163873,-0.2878350455402587,-1.9419211417928253,0.7014307707074945,-1.0716821224656443,0.12772749750947088,0.6386729437730311
1.2029193658115283,-0.865123326420661,0.03797648569471091,1.1445951377885064,-2.167182308781222,1.2899978182870326,-3.0552632793060326,-0.19012735132355976,0.028164967617354472
0.15759386719852242,0.34325486185829246,-0.5242991461710587,-0.6476830243391694,-0.6965828411644028,2.522037533417616,-2.9425615478104383,0.5083494143336185,0.2880856062677632
0.0753775169305324,1.1841623434568564,0.8747648948542494,-0.011585626156323702,-0.6857883302673045,-3.3672603567746253,6.720737664291931,-0.6433419554631277,0.44676745388148037
-0.9081504303599305,1.4094459901480159,0.06242109296275343,-2.2070661473159934,2.4740083068190772,-0.9767731655004427,4.500654102619529,0.18437879430558135,0.2212082591698051
3.1488824389397863,0.9217298090255097,0.20055440640605088,0.8038808404590041,0.42787931935898565,-1.8267687880295178,0.17776544007762984,0.17550931048804524,1.1138111052104593
2.050294636874409,0.2773236658210576,0.29783826855683004,-0.7425050887910335,0.7435475366173688,-1.692214306733209,2.1389296489588685,-0.07236265217133914,-0.11979359932549569
0.6370679813106521,2.32045010025054,1.8098270672435302,-1.6709996226453678,-2.1539628509324658,-5.152595592519967,5.8372105103170995,0.45082817684461307,-0.10576112748448584
-0.291145367010767,-0.7164853261173318,0.6696802819787127,-0.47735537081650925,-0.9959001457639468,2.2768833907293637,-5.793691552496933,0.5047546119717861,0.5383577080491341
2.1643989234451775,2.3108341242692947,1.1982623813496673,-1.4707745773125125,1.3411152494300254,-2.404849954452084,5.907621406435398,1.7836781424676507,0.11499164432761971
0.2489724425116182,-0.5002927585616661,-0.11631141071520627,0.5359081498722058,0.3252082992294495,4.620013275886994,-1.5083009041968467,-0.8402094569934364,0.503630968903802
-0.8716214367324798,0.9458550488393416,-0.25227079929977747,-1.4540020455420954,0.8355934018466608,0.11748209546796662,-1.3981303766716362,0.7299174718343334,-0.2117494924796678
0.08360010990875111,-0.9570832284610508,0.8238442908311819,-1.2053232754559278,-1.1183298792123202,-2.396755787299218,5.605746919030121,0.029414123749763293,-0.16980028855914894
-0.6941379855137011,-0.4155456639701448,0.2628203077831459,-2.310689321291906,-0.12860785871608874,-1.5514275706450116,2.3182063447325394,-0.524840593669929,0.7424053597366835
-0.21343598295266875,1.9581590108000149,0.6237308650571919,-0.5729880685084516,-1.183574832639839,-2.1997274257191357,4.90894183243978,1.0824002138741813,-0.29994340882708953
2.9846431566960407,0.5851523032060741,0.06160829979358723,0.39008530930734714,0.3784355057114825,-0.6357433475984211,0.6685589634631155,0.6618640248923414,-0.149187394308155
0.1699492172841035,1.9368600631879764,0.9723680715783799,-1.2141069030805012,-0.7568780185167462,-0.23876246875762464,6.117193246828975,-0.8399338606622141,0.30731155422328116
1.7196929697074181,1.545361391735352,1.1703632091571683,-1.7007159955946278,0.11532815011075513,-5.200724988105642,7.861182415097657,-0.2488209435414322,0.7924041198414993
2.170420643504731,-0.7543114504705682,-0.23202536839386761,-1.394131041326112,0.3058589783426278,-0.01372380891060676,2.389564139391784,2.114749906101458,0.425523538772254
-0.502839807387399,2.5368388208837502,-0.13493856162263695,0.2942971407123121,-0.6232891056976642,-2.9843812729245895,4.123826385648803,-1.4311910305786908,-0.2628323722703753
1.2185289247935813,0.5654432430268894,0.7445668026126404,0.3474207140744742,0.5402736376078454,-2.67068472501213,5.1031060012464575,1.422557761922147,0.1276838741015552
1.0794279452423048,1.7117002174853129,0.711529786888229,1.2079967978537656,0.37544945556579035,-0.6148543406895506,4.453726387567474,-1.766510697012992,0.6033236750992625
1.535029346156783,2.8834360920823725,0.680714148004852,-1.1412584615602999,0.45704290598458003,-4.599732326711903,8.15417144691987,-0.11346527189875644,-1.1419019983670509
1.7122997268133435,2.604006494147121,1.3475301973086766,2.1162533676039854,0.16840452404764572,-1.764118832956299,2.5596643419752074,-2.011402212583065,0.33388478203681515
-0.7864464789083483,-0.9751130955037697,1.3943484799077333,-1.3410325895719741,0.025075666464339855,0.24364745806678267,0.403753510614993,-1.3317757612517476,-0.23780852153825624
1.7370056416912134,0.16849746576683633,-0.4288174097545507,0.20759721666132458,-0.19999114084060576,-0.06678649212746951,-2.5474662801818826,2.164419158202479,0.8313861770397027
1.311865236343535,3.216182496152122,0.9415258748617111,1.2905826898052948,-0.986025728388038,-2.9721345498763654,6.979944784994932,-0.29813561876327327,-0.8631553817863667
-0.2792489001316123,1.732161298851766,0.5741180201383702,-0.6459959549361992,0.9402003198276622,-0.7040930928019333,-2.2942976639513377,-0.9254514166500424,0.6557847780755298
2.9752906110045156,1.2396280782041256,-0.1314521690308809,2.426926135750935,-1.9392870299091747,0.049731537333098874,4.367163006126363,1.2501103373416624,0.4552145663856274
-0.6579702192524479,-0.6845964628575156,0.24326952634993237,-0.3328990232206474,0.13337091870884452,-1.5364391729613596,-2.927256936382534,-0.7809281872115474,0.44279619405836074
0.3754754650531189,1.699809683770738,0.6745258462505772,-0.3918673204054759,-0.6077886665938926,2.734534349353231,-1.5848330050886676,-0.54709031677067,0.38826406380305106
-0.9506706884402198,-0.7655109389582525,-0.656774180308554,-0.3994262179492285,0.8257078457475698,0.9913211872328027,-6.150116245151414,-1.5257449700770696,-0.4063072330656478
0.6289460067380406,3.3466943705165706,1.3559234768760322,0.3561237966341825,-1.105731064466365,-7.495816725655488,3.7364529084336566,-1.5991423190060088,-0.3166178352640606
-0.3687122941790627,3.1533194234901645,0.7055624662402972,-0.04547521281990694,0.17478362973510983,-3.688243403950045,3.7179438297799376,-0.7680102926803216,0.5216690359944466
1.3507451503918961,1.9118402523983478,0.24152651169820105,0.8095320413114959,-1.1040251475719813,-3.304357855473458,3.432667769235148,0.8172291164738086,0.09620735656159045
2.8066354835496226,3.176074226543008,0.6475049537088169,-0.3931457437112934,0.038477955010937606,-4.96269036213572,5.479957996622146,-0.09699278245898713,1.150875780107316
1.7896821035844788,0.8654908466608568,0.3547710167355828,-0.7964109364064268,0.3626078929309089,-1.6538664862678654,1.8244312944900236,0.4189212612799001,0.2300525023162643
0.22976581515076866,2.2721837232641757,1.5824389309430398,-1.310404231683642,-0.9435657363822919,-5.631101002792549,8.712486462827144,1.8106990753318697,0.7370525268298642
-0.6180162159307534,-0.8633990558560005,0.3109289617592878,0.2042453910448136,0.3664357880714941,1.2642860577939503,3.542749420210576,-0.18219012595813097,1.3625632787012514
3.02656638972592,0.25813791600640656,0.307814634702003,-0.9320375895028612,-0.09529474992942118,1.5087678835598202,-0.532126564324578,-0.3481113507401634,-0.35286293547574005
-0.20555309253951914,1.8549868673169088,1.268346556739472,-0.027626739831186905,0.9358697611201369,-3.4132138284125704,6.744583830660646,0.8140502827304132,0.2436074664311566
1.306346981836128,1.6547608081202578,0.6147205015497712,0.18389760501069335,0.8144903642784757,1.5565036188997847,-2.0155647010033575,-0.828545044150878,-0.008262175935230676
-0.12961635678005912,2.0696296041160105,0.1508639478034926,0.8725944872699835,-0.5536381442318523,-4.107166164792028,5.902010682612183,-0.3824435464954576,0.5233536487372439
-0.6805809459716051,1.7727518652628178,0.28166082462770975,0.6720878880111114,0.565118395393949,-0.08613497451441798,1.339865787442427,-0.9347488642614186,1.4117979253602382
-0.9422692725672365,1.7480858089674172,0.16713081652899522,1.9002524387518471,-0.8818812607641701,0.6851650221668777,2.5829362061302445,-1.4247821455468985,-0.5648771530755199
-0.047025190300040154,0.9167719089428414,0.4256986413145363,1.1007474129462291,-0.12654203249972484,-2.018018819098295,5.318889794088767,-0.29301999971330656,0.24650225213602592
1.4413300458608087,2.3184813437505007,-0.25856809941370495,1.0234779652422457,0.14140782476289576,-2.1132200510040953,2.743652322508067,0.23801851835292318,-1.6126081493983184
-0.14351301990113519,1.5533766175458634,0.5918887240454342,0.8996789820814874,1.0376485939444071,0.20814785791576035,2.2681179257552206,1.152444757150015,-0.1424840132774061
3.044574217788913,3.348496402011085,0.9645136659113607,-1.1342459248651318,-0.1818737861852227,-1.9009159598494274,6.381297988182645,0.7900361870426065,1.2877043074793102
0.21088315787610545,0.7844529695271467,-0.21186815185531488,-0.82014321411522,0.0002383660418230601,1.0902951623258386,-1.3248210864874304,0.6951432626600791,0.3634114195041863
0.5652848506548565,-0.9457804908145883,-0.39962981880114273,-0.2561189358925235,0.037697303720056384,2.834692392718779,-3.452725921231744,0.9832026176229575,0.10592818737111505
0.6453427814378432,0.19271530356997357,-0.12468995812293815,-0.15382645018809538,-1.476549650925122,-1.330011991378313,5.73956661473286,0.4207842037559038,1.5270551606490157
2.847857836477374,0.5394455139563612,0.06580107520263073,-0.10628033001698704,-1.8321404565384753,0.18190380361888492,-1.4214028299600114,-0.7523367854310841,0.5348723923368655
-0.5258332231428656,0.22317082051267456,0.36819209542027087,-0.801278501231828,-0.17765294424256284,-0.3241943734866426,3.3471241478367832,0.7624174771357639,0.781947241129504
0.9300053861983513,2.492729118785753,0.4937876501696728,0.5319249749203692,-0.2480766808460906,-1.4712539893668435,2.6851301173666426,-0.661736022071456,0.09775194447848615
1.7885261291210792,0.03958268863287784,-0.4553090658927048,2.607944499166907,-0.6536047777800317,1.0865188974484263,-1.6414278104257352,1.6009916281027985,0.35557387957443526
1.2146615683750115,1.0594176517228395,1.0799381764153444,-0.5423816546298832,0.7439940376692694,-1.6069970463110128,2.072883073747097,-0.934984063421486,0.34221486952678054
2.2823507600711643,2.3199041269289546,0.4025030816297538,-0.5179781579525664,-0.9525642328449846,-1.2884722934990829,2.1717252795684714,-1.5714163842787352,0.2086966942147487
-0.7328752712543969,1.1524153132363,1.2527252701083587,-0.6720982582032866,-1.9375179143187091,-2.539273532141047,8.508019086784898,0.3162366535955001,0.14617010200286504
0.3350247207521855,1.5649861134985055,1.1159440492643276,0.11417867460908993,-0.537175149937924,-2.3933189344900914,2.6193781737622297,-0.6567863592406351,0.35811932851877876
3.4137214038042627,-0.6628941202564234,-0.10741119401975,-0.7660703424410763,-1.0880100437117668,-2.4996003267121596,-1.7570032834050986,-0.9969832504234182,0.0944194880918353
-0.6483846877034944,0.36497396720268993,0.11220801843684602,-1.2132504414485044,0.9199213426457997,-0.4170186255762659,1.1417297518157348,-0.6730598585613311,-0.8432801946933872
3.418869812558065,-0.46754048047817565,0.6293696999627967,0.34933926707852714,-1.0543919258468233,0.8841702360867699,-1.8489755981127138,0.25123502413640153,0.4750079299137514
-0.8286781394135972,0.13899471978216082,-0.22711311622919156,0.4842855488417479,0.17816960542157287,2.3501991439483216,-1.6631429653997507,0.8967005630723206,-0.16183290659032656
-0.36426725799380444,0.3279687168375811,0.0006371616486085946,1.0397716105223633,1.8144227962069037,3.1864806883577383,1.4501289513282913,1.8430565810001565,0.32043807132347746
2.678994263492998,-0.2739533948268962,-1.2962979413695475,1.4690349982891289,-0.4450850667005936,2.078403839061825,-3.6978035312661155,-0.6212574789613643,0.4382007306438375
1.311305987472196,0.0035919152583319125,0.19080166744931265,0.7063511092123699,-0.2808422928337125,-1.760432249854156,-0.13948783696571665,0.9586044200335491,0.06370449866363122
-0.5100344723502592,0.5879300249217527,0.1726592177132351,-0.017138458517634382,-0.9458393700773977,-0.22787603901858455,1.719929891501827,1.0743841933794451,-0.2767146906646836
2.351093573241349,1.2236419541026224,0.8445647799816424,0.2271496741664488,1.041027329610801,-2.532250533519546,3.4474061986058304,0.47844211901854167,0.010895042368760887
-0.34950891155451236,0.8649821314852852,0.39913024721717155,2.274676557394838,1.4785715373011346,1.0522593684544033,-3.9774254589369527,-1.2324422245905828,0.7690340293811792
-0.46639869252277877,-0.9353456603058383,-1.8173397811621923,0.7775241078278706,-1.7690955098673673,6.194179858395332,-4.330000707867388,0.6401164062927448,-0.20708450191528371
1.7781894344810354,0.956469964368402,0.20536816369490232,0.6047505667031533,0.3885579393198145,-1.096364220202532,1.9376463035091538,-0.711950941014623,1.1038080933987664
-0.0014960704931284985,1.052768810215298,-0.41679021150698076,-1.8848679488109323,1.652376709549441,-2.4240467509380714,0.04392022149436614,-0.7589613335544068,-0.5650899277531903
-0.2970628545513978,-0.9153245050103427,0.311596681442436,-1.1178358261355628,-0.06012631144533827,0.7829685881688642,0.6417755008197159,1.4346304793909426,0.696581293836525
3.153452991382724,1.4871319185266025,-0.30706343656661894,-1.6907301754925184,-1.2128045132402203,2.123853077111626,-4.647321717653773,1.092838992989842,-0.23785364694338218
0.26729160332835744,1.5859237036435387,0.10059562608266556,1.368683173597955,-1.2245436537837933,-2.2621629319637937,1.387082255790884,1.1014784004541172,1.0268604089428672
1.9362745561379282,-0.6523218206032497,-0.8200017621362468,0.9154429246251045,0.26339820630619065,3.088200538346319,-3.5836368618084817,-0.1048129374400053,-0.5502859347443931
3.390640653471544,3.17219256635424,1.217080230496918,-0.6498205123487654,-1.647290788436955,-5.598695882182458,7.252793538439804,-0.14120913259256707,2.099907912519921
2.296768428617436,1.3819071836002057,0.26730832520262193,0.030535089928356064,-2.8877941612684768,-1.2106696676394195,-0.4734745681947221,0.9511397172492451,0.09616114021250503
0.5005036360527759,1.113935411402911,0.8354556431246599,-0.03620468030581234,-1.290091550557691,-2.606612726080125,3.3314884324127236,1.9889007884230312,-0.9231995883801364
1.027635188307519,0.8736478661518903,0.023185393218566885,-1.0964455379439855,2.2440165176880478,-0.35891101473783615,-0.5084221221161713,-0.28066524994619124,-0.3207386911881936
3.424433363079764,2.4893619488378724,0.18745945453907242,-0.9169318260994093,-1.2527462102934916,-0.5149448126424028,1.477383029529975,0.8497008983751615,-0.2813668908244937
0.3650809044268728,2.3688603129463175,1.6446573826466244,-0.0663650056104879,0.7305031975037948,-1.3772015741551848,5.7963211131933265,1.04430833578134,-0.385031722893495
0.5910548845946391,2.306753780590306,1.1528520603473777,-0.7144756206510925,0.204551109001784,-3.6295596095751406,5.524074560018944,0.8777077708011122,-0.21516835591712535
2.8140276356338236,0.902801663159182,-0.5216032791362096,0.6246955501894068,-0.6849784394617784,0.5031287498759434,0.5219872090946049,-1.882071943835201,1.948476140710411
0.2617867993657008,0.7637360909974482,0.6715472630353245,1.0543245310327856,0.9456228874218715,-2.660889898173358,1.7396672993876867,0.04920648059672142,-1.3236078781752736
2.306099075288546,3.1768448298469423,0.6978547053284818,0.5879296001467904,0.5965916131344053,-2.568205537827348,6.155002199295769,2.564972418476364,-0.1050329833382675
2.509663482483698,3.2915807050099124,1.0371924793048342,0.05855114371218134,0.5216458249675715,-4.392296090723038,11.845902600363921,0.6700112458343086,-0.6635455563269645
-0.7908399212579398,3.0795714412065003,1.1531101305200848,0.23629538399429462,-0.3829426716169995,-6.355419353529459,10.522608377150544,0.6427725243103085,-0.8719900835932991
2.6938369335438486,3.262565552077697,1.8195602026006386,-0.3155988989627388,0.6714819163607577,-7.557762344086671,5.101624236939969,-0.5025434845090755,0.27261137304324035
3.349507037730632,1.8271619169243483,-0.009529066387539198,1.857271915899308,-1.0521884047784484,-0.2841308363800188,1.710621888001218,0.6583921271958659,0.3985673455723162
2.7836742859590067,0.5458020824593208,-0.1348011894095516,-0.6166691060830315,-3.017032844092475,-0.4648470186027842,2.6261983323275837,-0.03830000066055761,0.7658122420946493
0.18253167930458858,-0.8909197072280628,-0.979397664678223,1.9478429968482005,0.9965385289220744,5.558487628806276,-5.156623401900028,-1.3680727004008506,-1.7220824804824524
0.7516651689527398,-0.12701052375084032,0.0172084730851626,1.8171229810920044,0.10799133983930605,2.3013303147459983,-5.917202131934548,0.5328921269230409,0.10837563177874078
3.0914554398387804,2.269320171119817,0.9316370605492175,1.323927942293076,1.2988144330472853,-3.8617974970732423,-2.6046855754879825,0.9426922671447102,0.6268718011905471
3.223191537802526,0.6194221530816342,-0.2588191838371072,-0.7461398198999296,-1.6843258664158471,-1.164120276128975,1.799798877634048,-0.6351840824763242,-0.6735299622813223
2.9280540048638897,1.8551557596034218,0.2881707098827231,0.568889780866165,-1.6725559436286563,-1.980605677960497,3.4060259149023673,0.0748240263590893,0.34849787106849645
0.5807280890042557,-0.682127036755315,-0.07141515830499279,-0.6276991310670412,1.4146203750019688,0.7040229534924083,0.7276418946391607,0.34964246217309924,-0.5226115492689215
1.170106652213339,-0.08613054996689284,0.3801977153654831,0.15328463938080697,0.6801047658643465,0.3206079137561398,-4.490421031124785,0.5488175461427762,-0.3230939693746176
-0.043820033801721725,-0.4459316801088785,-0.14880137098154606,-0.9444698603695961,-0.39205302164297084,-2.9752152586839458,1.6976779173204648,1.7332010545353105,-0.29214098491945223
2.8511668561171186,0.3077648134381459,0.8910845605046274,-0.3623782103581245,-0.6221820464750556,-3.0689590588229727,0.7262679303107946,1.3205770871752773,-0.49417138493418067
-0.8147421412306809,3.010770825303112,1.659237148222738,-0.6204204147254254,0.799336898475486,-4.695764031784311,12.19147836284328,0.2713323350445094,0.5250741405537419
0.0022239323263306687,1.5871486225256728,-0.13197101367959593,2.1796976463573423,1.080139781914754,2.668870228164751,-4.092138452684941,-0.5710689264965918,0.7465227728887143
-0.4818222160799246,-0.3827921941381607,-0.5035751588889689,-1.4665883848738803,-1.43637823410123,1.7346448281317621,-2.483548272962551,-2.0736224563631858,1.2303612297709399
-0.7833530091193149,2.808565489698815,1.2401629769973743,-0.06326620948443455,-0.40941299193191993,-4.888130719394784,7.868367544561163,0.8082938044701736,-1.7155613582285674
0.15881587056205726,2.1463959428762984,-0.3674217210923101,2.1909119828895447,1.7990497619528794,0.35923745412251407,3.2274002984689023,0.0387609357863692,-1.0982871154885974
-0.4781868014787978,3.1950600123264508,1.0882042363099902,0.5332120892390206,0.7897105675510547,-4.907629198225878,5.013860183908548,0.8889477958131955,0.2615492577728772
-0.8930431718658702,0.22515841333356024,-0.6542709257854826,1.30805576986727,1.2564097201119806,-0.17544452183738157,-4.303496194204219,0.4867671553601403,-0.5209313970232569
1.9933960541043256,3.0042722639212425,0.9003894054722018,-0.8712977592727904,2.770053464253215,-3.0941692261596043,4.676481553500604,0.29945161004562204,1.1776915950469575
-0.7516135821284422,2.744225021043057,0.34100016652254855,0.024894692297425865,-0.9267669094973509,-1.9466375239022768,4.977607922235531,-2.7965557517587065,0.5531893840077635
-0.9895488589081987,0.9815834523705351,0.9722476868149874,1.313651514018558,1.084286584304018,-3.6040690286188224,2.5669367423277265,-0.4746130654614852,0.5602908888052677
2.0887171208209514,1.3854231729590674,0.6374281829824167,0.019698286418948392,-0.5273074646983983,-3.9140786290951635,8.678370377320688,-0.056605884702238984,-0.4649858381623145
0.6092643721848265,1.7514843462781524,0.6826547054393151,-0.3646627089056979,1.3138290828126182,-2.1036791646566653,-1.451490475979544,0.04741979513589859,-0.3131049539164865
1.8446843626602076,3.4192665332173764,1.851509042097303,0.47709589262859403,-0.24630317564451065,-5.068274979634292,9.128070184262896,0.20225788094912836,0.6423554076605401
2.69691592601156,-0.24190471914330236,-0.08020107638390679,-0.9599615817267426,-1.8667105011399137,-3.8056089377985085,2.7757335667553518,-0.7214979172686953,-0.370900366238813
0.3757544122537886,-0.9602986996244697,-0.75619585309429,2.060399774993517,-0.03436316673916374,4.53180362571141,-7.1483862477546065,0.10237850719316119,0.5833520209301359
0.6765861069018921,0.6047911158552337,0.48424953993493913,-0.3137135989248446,1.6311449371396207,-1.770968012145814,0.1181910226638645,0.010657521502254672,1.1129605266809306
-0.5131653340013458,0.32074919117528045,0.9644493418706048,1.8696218163106746,-0.9695353074285615,-0.048369353033171025,1.4563654667951054,0.03086421219002038,0.4108125751716504
2.444961844810867,2.3443519992863155,1.094839351571699,-0.6688694048474877,0.67670293567907,-0.7605063077488696,0.059135754821907055,-0.40109304706215754,-0.16836503447861798
1.9989261012921924,0.8300246365298476,-0.4884247739029005,-0.5983454853170826,-1.195053575870475,-2.056217431275342,-2.32106238054579,0.45189740639801923,-0.0037817907356357625
-0.7743015658058252,2.2795892255167955,1.465686166733656,-1.2416887437006656,0.6447885230166256,-3.977321860356814,8.327173132611897,0.27352463078123423,0.03576606740580408
1.2730892052462441,3.0914687135575276,1.4669678503815917,1.6873902671446328,-1.2059439374576741,-4.003045272884806,3.746008943668124,-1.0958575214048203,1.272228341867594
2.2682068691763795,0.40421537733395185,0.4140979185635459,1.4444457181060846,-0.2415808487977965,1.1169707533485829,3.2450191013260197,1.928341257927383,0.15711718224238158
1.2994881973878951,2.8859378071193817,0.5493235659071414,-0.10769506117065414,0.07120994028399638,-2.4194018057861384,3.1097849530718706,-0.8170337664554241,1.4117208004890245
2.7402833813730245,0.7004226654471308,0.3591090247198616,-0.22146360472624543,-2.914580602193753,-0.1498844078840631,-0.7066892686875728,0.22350638600924372,0.654851333091006
3.339474376299534,0.616290880178936,-0.4056200415907696,-0.11418189703756215,0.07773347797545563,-1.7735974081306591,5.395163566566101,2.1367337717865067,1.4751949734891574
2.7153397677492963,-0.4536411566511175,0.7942692201784294,-0.22176031710623267,1.3652762190076766,-1.9084827505437036,5.796847965042239,-0.10646720378950553,0.6526072178108215
2.434757718295171,-0.1943311693606975,-0.34096451872863015,0.11255614100191025,0.3609696582412855,1.0213168035720854,3.011088786572921,-0.935402101609683,0.9388882046297106
1.6474946206423597,0.3125988104995947,1.4645865279634618,-0.7863974140913227,1.207812392733165,-4.721677256123666,3.662048077820752,0.5648600992783764,-1.4554026268761977
1.8400449001514017,-0.4370012078942275,-0.6621889464509658,-0.38860397297250165,0.4225825594958014,2.2548809592174184,-3.840660006555373,0.699222052397168,0.13903056374197786
0.995270107559866,2.119849820284081,1.821522526957252,-0.02329342119142942,-0.10065451765520869,-6.209953508448983,8.376620235225394,-0.7662919568806665,-0.7957941687612807
0.9739261243845285,1.8620067320384823,1.0007787337630467,-0.5114773325979116,3.2162174512757313,-0.45534809389052255,3.1462751758427454,-0.9795861258667804,-0.2318327156463554
2.113630306779361,1.0920095462783874,0.1864794528292722,1.9768718931613396,1.891678037843279,-0.44437580472329774,2.779654544117279,-0.18182115864582463,0.35092460174886775
1.4614117169652796,2.344805860508948,0.36318734256873997,0.08332324917366644,2.2425547551680034,1.041763173028961,1.7987866892785285,-0.007913143344852682,-0.19892445466418185
0.3478287008346934,-0.21844815697792075,0.5391293090728788,-1.932928632903166,-2.0400348577477914,1.7108411891540132,2.707585540874594,2.162936605990969,0.4045880641544188
-0.12506249186738927,1.7693959448513383,0.8386532594184825,-0.24176166028722254,-0.18277986435992,-2.8890916889108773,2.188109710224689,-0.6272855969012799,0.9723080756110216
1.7958539077132465,3.227479334210032,1.150477962820402,0.08719119096188184,-1.6074820782639005,-3.2433702620569975,5.546225643348784,-0.7228364203802415,1.1334347074541318
1.658510242064259,0.5742910630042792,-0.48229520146002247,-0.9454228853781589,-1.4145686265887067,-0.06910318957439049,-0.8857603006825892,-0.41487939743062807,1.2384233914399443
-0.15646252405134897,1.607310790559521,1.2649721458155891,0.1239072915045661,1.028531576623387,-3.5577289913776644,2.8082129364145234,-1.6196620309466232,0.261078707016363
-0.9201401575667503,0.141880399390522,-0.2070742715754438,-0.019641523758103407,1.1447324479944752,-1.4866547385076634,-0.21598072836815407,-0.2782319488606773,0.6751960910531899
-0.6250027984161481,1.3234852766145941,1.3828523577356284,-0.6837133845258736,-0.7610004203774174,-5.820277710508265,7.372402795981641,-2.1116548190105298,-0.06409216372077911
1.735337872820053,1.4057446799787576,-0.002703607541283126,1.1994470330195943,-0.841336746359854,-0.590815776591592,-3.6468597635775883,-2.2013913484815717,-0.8647229845531378
1.3532009824890254,1.6080391274195334,1.2679314951137217,1.6993798306188597,-0.9837255840408153,-3.7996145079547476,6.179076699000074,-0.15769126318895024,6.681177878188477e-05
3.222873813081609,0.46691551395435815,-0.281799987128322,0.871218781963903,-0.7213321038310769,-1.3647282794455708,-1.0802147949566228,1.3087731103837443,-0.5140495947712717
0.9049705208987111,3.0360659154994227,0.677188652399719,0.3458504481134839,1.0822402899967363,-8.783893221501199,10.475107453188896,-1.2366855763501698,1.6712218051740775
2.395553216788533,3.4209818924712163,1.2800405909416215,-1.9258810167724112,1.9175195674614716,-5.532623873039059,8.677170107036869,-1.5351776069712693,-0.4654521788370375
2.7236712238629504,-0.12776625664745922,-0.6997030572614371,0.08983311912895862,1.1211957840605398,3.8212435301210257,-8.50298398815327,0.046845975264852624,0.45394490728753456
2.307491497593843,-0.1772778595648301,-0.6037381883118172,1.6362021532717788,-0.71855899760484,1.3003113084909756,-2.002421640348447,0.9507780759655564,0.7724918919029472
0.9161011424872745,2.4256360543409015,0.725733737109763,-0.038731142992035464,-2.647874480609854,-6.019740533047073,5.628363178780447,-1.0728691071473846,0.8467182690140321
2.4749273810435994,1.600468827930055,0.46759839765278066,0.3586667506621303,-1.8783163982252113,-2.8749360522264094,3.195190931683935,0.9828655101652414,-0.2764566052566669
2.8543647098207967,0.7252112758285385,0.7562477722265757,0.1773412601488188,-0.6523183861832361,-2.4861169289562772,1.6402215453873346,-2.0132139524685426,0.21545430543956448
2.180319887128015,1.208791296337698,0.09953040418065434,-0.6242859044376832,0.16254132540244476,0.239703289561163,1.592556127005846,0.3667720785262703,-1.0581957191987514
0.5136743453807417,-0.9604999051404364,-0.6186574034186265,0.02963508552263396,-2.515496450589694,3.299106137195839,-8.597730368004505,0.8330862215724432,1.4243889033048907
0.8973365268225693,2.011899663344851,1.1691890557678184,-0.02213895083526701,-0.4737596563482327,-5.517955873737251,4.538977977774013,0.7896078577412063,-0.2719877787782244
-0.20106570555890457,0.5970817293165533,-0.38559695743347105,0.24886226851556817,-1.057947573346489,0.6195035907773642,0.3754706553350123,0.9186109281088668,1.546269676471303
1.664914314841078,3.4327395009546375,2.043150217310319,0.14584114599598025,0.8967565189583557,-3.5228744655969493,8.816514057326087,1.8437849987521289,-1.0209929920982588
2.3852054587184366,0.1263023197079154,-0.6746869162994126,0.7766699838856704,-1.1472225397247364,2.2342597564310362,-1.5015762138467141,1.261998143709019,-0.34068590308847013
0.38209566033834563,-0.6250869826140808,-1.4293331793075679,-0.25791860947605916,0.9308012682661551,2.189097894376071,-0.3815203766366495,1.2755429560068565,-0.009177654899801777
2.4260895578047417,-0.9150933599244109,-0.4917205689412468,-0.20835336325062837,-0.2907472035962922,2.9889240014528684,-1.5556042695445753,0.13631334102959847,1.4692835372832436
1.770696606646267,2.396902311628597,1.6136617197841554,-1.4146704296762749,-0.7398509549609205,-4.627767762147568,7.556981821161241,-0.7742723320712498,0.94954025926127
-0.281121141310992,1.597835600787509,0.10703881220119943,0.08638424822749995,2.720250458918051,0.15979898960633143,-1.8308367273618038,-0.8306533545886281,-0.7099765744846552
0.20179821283251664,0.7020267795226389,-1.460597206571721,-0.23458086732281477,-0.4353187665178955,-0.9407940636365848,-1.606735726137142,0.8968768245646437,0.1300157709174813
1.4472649434607838,0.3580917358379958,-0.4904587415087046,0.04452055027616976,-1.9075730297472262,0.7528759446736688,1.6713380099046025,-0.467997627216993,0.40325706963921354
1.4409603919702967,0.5033184321531541,-0.04130075470148428,0.36956153189487423,0.7283638227936711,0.7356246384677019,3.8939117229044524,1.5023900236497436,1.3167870719238473
1.2353668336995471,1.864088094990123,0.2815695975637542,1.360205580648798,-1.9581511405841274,-1.3997000930611034,1.5997285229374187,1.7040150173119621,0.22410386839281166
-0.5326597324910132,1.79007430921214,0.32609910992138486,0.08900175519414583,-1.1282433840912658,-3.019525571252844,2.6735378047344036,-0.4329041810247689,1.2395634995461733
0.47243200584775,-0.3987025939965896,-0.5500187169403747,0.22691642856212677,1.5933999726068377,-0.6728926735246679,-3.165545427979916,0.04761054312308727,-0.14520542522219176
-0.42565115188951497,-0.3234211667705641,-0.2681269868409059,-1.0225505617689337,-2.445016528247811,1.0474981732220223,4.3032559542234745,-0.5230465591878153,-0.45722962810090745
-0.944203187925699,1.9939320867662276,0.4893136554450222,-0.28199421056827895,-0.4891093611697136,-3.0392937481060565,6.502482290777768,1.1250119702724224,-0.8865363940101759
-0.6774317763680221,-0.07945367563918582,0.651735415815828,-0.8584482314342201,-0.8468186621261428,-0.37687612389749603,5.619860410785126,-1.0774328200432772,-0.2239405541075546
0.3586276463584681,0.7276241380492754,-0.5980657674571277,0.5708003570388843,0.37625007244734887,-2.04123256239229,1.0676192505621689,1.8917745706600633,-0.36755994973740047
3.0550145662702333,-0.9081844739841836,-1.671747053370165,1.6131407311209924,-0.47118887406277526,2.8762327034385526,-7.318851743705497,0.4116615000436124,1.29482028096632
2.031905301426771,1.4390259778926255,0.24334159409564915,0.3607574301336929,-0.06873994540017696,0.2198956705017614,3.439952419785866,-0.2249219560109904,1.225440818583726
0.08623816354365665,-0.7739235962076355,-0.863975067576753,1.842768087042652,-0.19782439074066657,2.1564543651676225,-2.042110155499717,0.7572393156739752,0.6997322422001764
0.09697155939548252,-0.43109714574205293,-1.0188841404877467,0.49038160375753964,-0.5793554067243305,2.7671111188149133,-4.552817754985707,1.4305957301918275,-0.10413251898843312
0.9425525010978899,2.926763534130755,0.2494872666927731,0.5158902175468594,1.3219718540086625,-4.928323118008731,8.29718387202904,-0.7100797701623408,0.5753019474706367
-0.660742926893584,-0.61314518029838,-0.30722745048429395,-0.9477428455998184,-3.6382728363148202,1.693420958902655,-4.54018981564701,1.148362171612594,0.1916931305897582
-0.30404055658081364,2.9939194868624837,0.6270568451899048,-0.5192272867940141,1.7779410421625377,-2.142361026906117,4.8282588525999754,-0.7499044109183957,-0.6516798059148675
2.7378399015107378,2.565601454221453,0.4326519978366281,1.3992128186878006,-2.186580465035134,-1.3048454786883248,0.5449452151126571,0.9298048258776335,1.0816625219115956
1.5376527467845378,1.3049106705175841,2.0328118273932714,-0.349449511515525,0.5154644481648711,-3.466508605168564,5.520594862223482,0.28064955940887915,-0.3165698992466716
2.282566436384179,1.6654264227521276,1.0032566469466726,-1.423078282120755,0.9199545784857022,-1.5579330094393078,1.2480040425720955,-0.4421958950157344,1.2936852404171184
0.5789866415665927,2.110561246034489,0.914993206884052,-1.281946137011857,0.03768258668552477,-3.82125132776153,3.7612145848567895,0.46344267553417073,0.6671537508604919
0.8580870667668319,2.3957369163344517,0.9079363515266171,0.49864435903086873,2.489330606765068,0.02736021820071266,-0.7987635597530085,-0.968971701885975,0.25463651516579416
1.3451462802769028,-0.6007340562044626,0.29876883913483365,0.418000451669339,-0.33742973354810873,-0.7393749620911328,-2.737329311060575,1.5775418732869295,-0.2208374026153058
3.250160498903573,0.23937204745641494,-0.44079778387206997,0.6824047132292956,2.7354517831617513,0.7101245858067957,1.1493286990288134,-0.008945487048807182,0.28977696472999337
1.8686344636409116,2.0463581768962644,0.40660902573549146,-0.1117957039407655,1.3163218491502677,0.9601385373376976,5.703236456737763,-0.32449554239716016,1.0207491997538876
1.75919687630517,1.6423705483117699,-0.04377564860617991,1.0344403331556233,-0.5640739813921137,-1.7070960416413254,-1.1647717246812719,0.5121545177102589,1.736346141786368
2.5003606156727707,1.392162813563674,1.624452924147862,-0.3922711697717075,-1.333772603834155,-5.471582598459082,6.6526573926708314,0.07109639184237226,1.009424366895135
-0.766453901253502,3.40072389616705,2.202445425115481,-0.6423247859956741,1.284470497486313,-4.58915387050043,10.015976572176896,-0.2817608898160068,0.020321669581435685
2.059455739429124,-0.4965630364231821,-0.4924363417484926,0.1706658362402283,-0.4583781745234896,0.6590880085888906,-6.669153942195303,-0.7664999043901974,0.05951277024541681
1.5866670074930282,0.010925575149744127,-0.0013683926897471999,-0.4196406779895466,-0.6915209551632593,0.7183721098406554,-0.45577449726115504,-0.032806965185887216,-0.8546242113345799
-0.2883922936167227,1.4470785039167775,0.7751645023876977,0.3019660957164778,-1.0151782215691456,-4.797955761056724,4.390621370118589,-2.217348340612807,0.052869277153853096
1.5394260861178561,0.7631204767513848,0.2585909064873864,1.0109254952671765,0.5916052928038584,2.615529794963333,-5.649475791327378,-0.808787494951441,0.9368390781818233
2.6213795003198084,-0.5422983299937756,-1.2033143338647618,-1.0042798942555928,0.7424651292762194,3.4146261599603585,-3.0831126756294385,0.41376480325145304,0.25516472864585577
1.3249673432010893,3.1322412219026177,1.282371014426962,1.859873305186312,0.06380729416812679,-4.621769561104651,7.943754841475568,-0.07262117399701412,0.43309814540476305
1.3533298432616894,0.21697675920626414,0.8981004507335474,-1.1853110872301016,1.6909597619948797,-2.921645920891702,5.695873050259932,-0.9485036954162862,2.2569282466253577
0.5624498639465378,-0.8059259825666654,-0.8068433559922494,-0.3628057009065612,1.601445677908991,1.6497493952997357,-0.0006849228008673491,-0.20992027684244258,-0.39274418248295356
0.9478416130012597,0.1574260434514727,-0.3719389846989901,-1.2172856620438253,-1.2514164843092292,1.4540060350001252,0.42665934943513006,-2.0254821311578604,0.3192386981687269
-0.49543386796747224,0.6329263562542882,0.5738783117193729,0.7917767617810989,-0.9450244764219211,-2.060731614488568,1.5367908183572254,0.2948996359185949,0.865884566275075
