x1,x2,x3,x4,x5,y1,y2,y3,y4,y5
1.4776457735406043,0.23655194455410639,-1.7460215438967108,-0.03991900083904652,1.4882201806550448,0.6481389634581035,0.20051750791931275,0.06021392008567683,1.3994464510190976,1.3498770664554927
0.13808577203409556,2.324601099264527,1.0908891136763563,0.33609673148263225,1.5905707162766927,0.3229699183760947,1.1507383251222782,2.487295560523904,-0.10529560451927145,2.7895193785926704
1.1402840795188252,-3.313263891529816,0.09138423642805256,1.1088468559249427,2.7784622189398274,1.2328477792151085,0.7190961507048822,-2.075860395344996,3.2741660801271246,4.066703643280611
0.5415976846964925,-1.169164493253748,0.9970512478914407,-0.07119627873450728,1.192605235324765,0.40841291659520174,-0.07577612705838074,0.6310605324604383,0.44236402434266137,0.08674995741465877
3.0381165411369437,-4.8281593326959324,-0.4315648700172338,0.2056465412541758,0.2867848164583149,0.5009168840826363,-1.141464322905731,2.820494122900735,5.816711336426108,0.7597667636288588
3.4147357984726616,-2.6770027378410983,-1.1955814548544113,-0.2762588579760404,-0.23800466658900532,0.05481561243480215,0.5785833327513846,0.4008037187967343,6.9616312975087045,1.6346700261747196
-0.143742040857887,2.055937483064836,0.853168971010616,0.1166152206263891,-0.3428866504135055,1.3217478384034744,-2.1412967495376454,1.2332352566749045,-0.16639860449371469,-0.2668341263988808
0.6469935978494461,-1.3371295849076328,0.5673579391376977,0.30107561964922697,-0.5605463169618918,1.8018376137862693,1.066860881952127,0.3045788018260238,-0.16485838151227705,0.06804113354565508
3.3334517332610893,-6.570547914595231,-1.6133858818838875,-0.35348735239609386,0.7245641237081697,1.351254896478749,-1.054926239241495,1.2081122442624308,6.763855268789156,3.2950894737849508
0.9201101364747282,-1.192033618970727,-2.52226546284062,0.612944297319757,1.8302623635610344,-0.6459554391210476,0.0776584161941925,0.26918402973291017,2.6631109831816153,1.6972914626567823
2.3632624017342825,-6.010347461896453,-0.23338022406613923,-0.008291289982971992,1.026063625773924,1.3905571331959925,1.6569893183429016,1.7374872930069787,2.3141024245371478,-0.35685552602518145
-0.7902092144389333,-2.5714200396714726,0.46210008854001977,1.3852933111661083,2.548595069076318,-1.5296843438110461,2.8564282275724517,-1.582973950897308,0.6083252277783906,4.726091043503521
2.9970580462191667,-2.3463067528630237,0.23365380494429047,-0.03217251484944672,0.10536111326026676,-1.223884471898498,-0.5316979794504219,0.6960714220052201,4.8226013396314995,2.4306095935565883
2.1934897509959987,-2.5597795544950133,-0.21860913564483378,0.05275627536697508,2.4342264982741733,-1.1014982403790439,0.3488115822681244,2.3846672483825198,5.757207792639237,4.159127624676361
3.2025797528052733,-6.267300328520377,0.23509035182539273,0.09273204926771617,-0.23904978961250878,-0.24323175714209905,-0.4296988491876641,2.9634185497284538,4.5569239938262305,3.67088764607068
-0.9191063610005018,0.6536790520857023,-0.6397595869269456,0.2090151006122246,-0.13829858624511782,0.3029372337130921,-1.1813744053075481,0.6627750329232501,-2.164396646126325,-0.24854867606526665
0.8549802578281456,-2.326866712801255,0.6338125651439046,0.39433063121126943,0.7434791943414143,-1.0511916680123092,-0.7730749358995613,-1.2168393123835826,-3.031416082203161,-1.511405215228554
-0.8866437085471517,1.588032250480399,-1.0365799169928438,0.7233551968446484,1.5933322235268812,1.964305508183985,0.3584872240855308,0.16792466966255182,-0.5899731271787323,-1.7691671385419716
2.4443852478791053,-2.751301630728174,-0.6474169190883006,0.2560309022248848,0.7262164455118771,-0.32059700824858317,-0.42611151099574623,-1.4221420920333423,2.8596561960324967,1.7437316452706424
3.1547970463069444,-3.0517707630290243,-0.5033504524111363,-0.3578538704904297,-0.7208508733889452,-1.2091702626696357,0.0029478856282870404,2.5183007611716404,-0.398028891292312,1.9021669449673
3.2709207969338454,-7.255182706905292,-0.7447762992897541,0.94682939014338,2.474965033493172,-0.7441466632851524,-1.1325450568094435,2.5687648666068834,5.036987497442561,4.668958806734847
0.8146948345115934,-2.1427748253351706,-0.3310645700257116,-0.16740364958329784,-0.33056856080498187,0.1069031597161516,0.8494954758823354,-0.17852606557964362,1.3005463456264303,2.0452324942535265
2.863758704607883,-5.096810678933064,0.037265303489103646,0.1114768736038111,-0.26204956769598486,-0.6151911295571089,-0.40602218804685164,1.5055041873318509,4.948284865998599,3.3359648646763573
1.0448329008595958,-1.7964833900347887,-1.098468199206082,1.067649216623865,2.856396170090805,-0.2836291427480221,-2.453467291949246,0.9310796775813442,2.8524890622416565,2.879050882869721
1.5793233242715616,-5.031271998343998,-0.6803798584771423,0.07832806621979382,0.020284107291567377,0.5554800239587084,-0.7466558904934931,1.9593886806978975,0.8843353032494524,1.4874094380989051
-0.17053132094703372,1.3730523039904594,0.739583842443525,0.4908548247870317,0.6841229864573213,0.05233064023614961,0.5419785799497118,-0.5008152256863657,-2.6579312735622738,-1.198629306334394
-0.5841442829747394,0.0003709139178104271,-0.8222448514491782,1.1168590802931104,3.285105632073627,0.5546194533535881,0.34575244781356923,-0.31895897844209087,1.0177354724542267,1.265056818054419
0.04558573883860517,-0.6131468496838627,-1.2003588310299496,0.958391364586524,3.4446300649557546,0.16995081672974094,-0.22229033059579642,-0.7263244462591689,-0.029670558663457136,2.6220172010248577
3.46301869282851,-4.256130118696547,-0.5328482346523479,0.45086377981734765,2.166285167142559,0.6808569537600561,-0.3411823204165881,-3.697834208874556,2.502849669633876,0.2984534112927483
0.6430869807289923,0.37799514660595546,-0.9574334618900536,0.46040440625223156,1.350036990546558,0.8025026470978622,0.11645697132383898,-2.498005468680419,0.8318456979164708,-1.484968365518822
0.20178109964625013,-1.641340156571709,-1.7341661991522537,0.0272322246992173,1.7750106356271957,-1.3533493783799082,-1.6909425924737012,0.7595360993275246,1.5033052285183717,1.930896077043959
2.9363732628769075,-1.989202007741827,-0.48439448424150855,-0.3226563091561014,-0.868503607657352,-0.7436392159664156,-1.8453234441215296,-2.1953259564985097,1.0252863340468072,0.5619271905908454
1.5797636406829025,-4.279741328100094,0.3059252099748614,0.10773008547407392,1.108389905264469,-0.859942089524059,-2.1856853014445385,-1.4792678458961168,1.7717156546928186,0.38366388377745986
1.6595323779038305,-3.94129013849678,0.6333208933898582,0.05744589974269375,1.9332552244364236,-1.0961021556900568,-0.4165977617613981,2.7510504389174053,2.165974056185995,1.9498543412802634
1.9550237589939319,-2.142400736186901,-0.02643493136242715,-0.013728049695068311,1.2477786335394754,-0.7623123679471858,-2.8093385390511356,1.8953889330114098,0.6708038261322319,0.44519544200169625
-0.4066167663726554,1.406388596109574,0.6519744685053392,1.0475357634833993,3.451057371825465,-2.1453352735585565,1.6248178921702519,2.2061058193528806,-0.2048889020311776,1.659318833212742
-0.909090074189932,0.3443162962919037,-0.7731128612830338,0.008685254771733085,1.398142251791263,0.39087633830295776,1.2778996764473447,0.23620833664725718,-0.8023980285596441,-3.379064535347914
-0.0559989211902675,1.9632252280025426,-0.588419731236797,0.21691880567298968,1.3816032320035303,1.5239192253896237,-0.36270528667866114,1.3182758651418265,0.8415666378997869,-0.7146823661142445
0.8237197383236312,-3.591810372122835,-1.080889497269383,-0.1298887549936755,-0.11120686761158127,0.13738750620511286,-0.8761189562340087,0.9447862945726218,1.2398227900049725,1.2704975797820068
-0.1813641570528779,2.590511936828564,0.08683972978547962,0.25894578617940783,0.601466662313263,-0.05732074665428298,0.7099016177789963,0.20635427316325924,0.27074991415708505,1.946009271994799
2.6034545395848174,-4.12082529582957,0.4137326568643111,-0.12721119226043934,-0.6714962450601687,1.7103177012463422,1.7429700964871255,0.7010182689598696,1.9225952160024988,4.186222528212798
-0.751167388258552,1.172635394151339,-0.4377749015586485,1.2049226137889122,2.3663396377424464,0.00791973887410194,0.8468985785373337,-1.6338601542711226,1.6520133686471548,0.0038153103676397127
0.5041716147326627,-2.881604310699841,-0.2036473455408725,-0.5298362522636048,-0.9713816214494824,-0.9128627261285791,-0.1302973045351654,3.2989373310340238,2.7306115317033433,0.7707081033118652
2.232065557998664,-2.225561497158585,-1.5459585491657926,0.5600041294268342,0.8373454832901197,-0.21317149285219997,-0.9831064228505815,1.8696405576856272,1.4947356560691785,1.955294940412603
-0.7984161128535623,1.4238102947299038,0.9463733245453014,0.1513414144810793,0.5089421590510763,-0.34772372160979115,-0.3736986754573545,0.8899015693049072,-2.286726322405079,0.722476845228992
1.8487339258738489,-1.906337575064351,-1.3231772537277309,0.0340742144275612,2.6040577042612365,-1.036273170812199,-1.236292545500382,-1.815204185166086,3.160117984714846,-0.1467128923054345
0.6579002411805959,-2.2940894847223157,1.6472325165673545,0.2937885908638513,0.4798995410235267,1.060585482726289,0.4344950220013051,-1.030658166732766,3.4498488400403495,4.313439048949391
2.6261179359317413,-4.731637200811326,-0.38380512842423303,0.28662761885753774,0.7747635125872501,-0.2700299926099085,-3.39179542650334,-2.1134238186611745,5.632036699567033,3.1855638074067674
0.8280062103524977,0.423078064993069,0.9142037473629737,0.335907611363234,1.2162277207681025,-0.08543681208899512,-0.6053533792391204,0.5891220517589579,0.5744775406452091,-0.017154447025241635
-0.7244213439630955,2.93210697077634,1.1997651168017434,-0.21187307169277797,-0.5008145376839888,-1.6004277184533975,-0.7679250919781327,0.1484306805224737,-3.8750072277891,-0.6571211375067174
1.4340437873264333,-2.0473897101899268,0.08437013192242347,0.13731093971700203,0.9897251922355563,1.2110601534676417,0.6378560890780192,0.5571828766702615,4.806829171841041,4.156980671393949
-0.07135047217304258,0.19818193868272996,-0.34349051036098566,-0.025906088893299203,1.913725118073888,-1.327383649410351,0.03787432625313584,-1.4601115100937339,2.9117199476423306,-0.26687778969213194
-0.06509144955444068,1.9268582236156366,-0.05902076881531923,0.25884439945533966,0.3607637693124577,-1.3389516234411978,0.042393390700453774,0.6669131583981032,2.5663095996161953,2.8094974645926074
0.12498155968855307,0.037141318971796136,-0.8340675797572119,0.6328549767147761,3.3907735091132585,-0.8381792101824914,1.1415977971441467,-5.127426178618814,1.0887143894715372,2.626737332524573
-0.9627654188531695,2.6245227292605313,-0.9176969493880042,0.5924195454323413,2.111132918786066,-0.9082489242814082,-0.5043479169421965,0.015318448462344762,0.5112070944625642,-0.5839615475204972
2.7473228640701657,-2.5118881735088645,-0.01527467764732801,0.9484991123816986,2.199431018782345,-1.1984470455516363,-0.9085517625133261,1.99802958520015,4.140735103331768,3.607546644274075
0.9988833336981162,-3.5702609914061587,-1.9716882000903155,0.27625611314879017,1.5494717544811478,0.7180155181506263,-0.43101583160838164,0.009699875257838086,1.2566827123508775,1.6669286368863916
2.337572504452756,-4.988207072774975,-0.4967183904268191,0.3374954965546854,0.28716666139915326,-0.9361384861255337,-0.8247000197419697,0.22073236481604164,3.4289237712003287,-0.044779399233927764
1.8767451202920933,-3.503928760818916,1.1320111993843598,0.28009353406873,2.4315441864025855,-0.3872748322000032,-0.638627596968244,3.4510192658365257,3.3849231176588748,2.5594774900334807
2.9595087586798607,-4.194808937349052,-2.3323648780371533,0.9376700533787269,1.9316835022168535,-0.8128145605075382,-0.1787190935286902,0.9575766850657051,7.2358755576005445,3.2806696344206556
0.11101693150573744,0.897645577250121,-0.03842917853824617,0.05010544782896886,0.774851093797817,-0.9086740323358672,-0.41261917704115125,-2.1592791156396256,-0.5439345824077494,2.055343415812046
-0.7550815742581614,2.2669907979787722,0.13646114572327284,0.8155747527389323,1.09114280554273,0.5057559532088892,-0.1403800596610703,-1.3081510966447583,1.6015445782898157,-0.3629800752866388
0.6028263286980797,-2.0181426746133746,0.21336776897553755,0.04284948217054208,0.938653248418214,1.7925260586743523,-0.011385033979944396,1.5273310280159897,4.050738362562917,-0.6680540907165705
1.8946864572515216,-2.26710178951595,0.20020513810246504,0.19278117715091847,-0.5661807774346513,2.2733439993853093,-0.14778257913209017,0.9055441142240567,1.15766318017479,0.9417008560946173
0.5817957433723211,-1.1124892415575285,1.4545635107151225,-0.4590176228867733,-0.8286427337394567,-0.7717253469459759,-0.6642311814172042,0.002274422819468432,-2.283489122259808,-2.494191072346816
2.32083006067517,-4.140831459445491,-0.22673255121049027,0.2527662801017422,0.4393458812933917,-1.4470471863094931,-1.1422006120655166,2.752885905772238,4.8790546550476535,1.733107565927447
-0.15685266560708144,0.3881709941220957,0.5433728504875069,0.8216372184328691,2.2403600745221572,-0.14829329347748665,1.40012886691355,0.9707076218001702,3.4439691879592385,3.7994536622869024
-0.27702904073174484,-2.4508968594694815,0.3065554686139999,0.3055261755298534,1.8623234950695462,-1.0364773372784892,0.9542736132703679,1.455157399455007,-0.903035241789294,0.13479724073243027
-0.6642122801965301,0.4049720721453172,-0.21607759199880183,-0.14826935480421655,-0.6332214014416507,1.375729978687822,0.7908375922666839,-0.008911931525432185,1.0732698131200298,-1.232853260181978
0.9916681002959877,-0.8535469034525275,-1.2497943977436838,-0.2755937406612589,0.9052384361748578,-0.7071053223932312,0.07952052535809,1.038311691059306,0.7934712577741478,1.8567131349558152
1.5804777757181196,-1.2414419011090594,0.38286793884465664,0.7437349623316856,0.7974617733501408,0.15991338674546296,-0.27777437465131816,1.6348131609704855,1.5658485230036072,1.3420028798885248
1.2660437717748398,-3.017094202684008,0.15828476129683627,0.09698573295303813,0.14509236710396678,0.5170620247999941,0.489885037680453,-2.111521604731979,1.2977332430625028,0.3607861909924652
1.3649647292592912,-1.6571009517627664,-0.032977393323375286,1.060336024217877,3.40627556902502,-1.9189285966021796,-0.6506787971622461,2.230165652772387,3.402564551533777,4.040889632768389
0.10955060605834799,-0.07871951303189621,-1.3574435574285761,0.30533885413429046,3.020715330375614,0.5566088809858867,-0.007879561793347242,1.953258732351286,4.245425151710654,1.5899148039457072
1.868620289023529,-4.495623836274336,-0.7552865136350436,0.7747422122182948,1.9705733378087031,-0.6697534684893558,-0.6810172383002783,0.0598950318841798,3.0232354313280263,1.8727908313242487
3.1662668316068743,-3.425621155344087,-0.19997890681145025,0.34473915805444577,1.3214426196425557,0.23027975307368737,0.45596010005311194,-1.4177401379758447,7.442888457512218,3.216447690446042
3.396259472709313,-7.23503511492921,-1.6454937235497373,0.8545549617852787,2.362738769522547,-0.7624760788396523,-1.0983029372160555,2.7291477799098636,5.048158868202446,3.1885642303536557
2.082943474395735,-1.4714206974263937,-2.438380852922333,-0.31674814956574143,-0.6949699680818644,-0.006204861601695533,-1.3714967061102132,1.1882933622739833,2.0174587954949006,2.5528090641330023
2.7805064418473164,-3.8380792640823884,0.2903865595646558,0.8395100895154658,2.8429907497687608,-0.6878944174737696,-0.6189761587714152,0.5626223020047819,5.4993826829505075,2.6389787659709407
0.15158640689879643,-4.411662846890739,-1.4491278098647087,0.631358814634504,1.7484821096998733,0.6604439980156659,0.10249186498773823,0.5824059474417159,-0.26253235133792463,-1.0823034603269441
2.801436433452029,-3.3894706490320354,0.8891531469082617,0.16170543148111893,-0.39202557947528405,0.9014502866645627,1.3508340587084222,2.798448683907995,3.3446101310517236,4.897219776637689
2.390221902300969,-4.565764213834521,-1.8867389511898471,-0.28123791680491755,0.05877493411400159,1.094306578517269,-1.2770073986343187,0.016280012846689097,2.8601968613303086,1.3343635913446916
1.2265672967517363,1.0404845790801436,0.30366487398428865,0.11036418486948397,0.02230922059996998,1.1604398460783192,-0.6314381792586863,3.1630904093212617,1.4817256327718829,2.246973799905569
0.2478879741870672,0.6534800888798492,-0.8645568116649807,0.8566855249234788,3.4119811031839484,-1.5196630610753232,1.563785984771477,3.348066286794567,0.5031460882058054,2.693971270037136
3.350601989877214,-6.460911515271742,-1.7580844863910223,0.6266656101725562,3.020944734545913,0.19346364842351527,-1.8553140779161033,-2.5823056834906275,3.3002177812434237,4.783790542246485
-0.4734806493614865,-1.0816086587294562,-1.185596129403466,0.7934511440843106,2.4736992889927025,0.07155207077236325,-0.14551889000908794,0.7880537882390248,0.3599153749446382,2.175119820275215
0.005109364336920219,-0.9831579032703229,1.1060989190317976,0.08033965968952365,-0.7209800410933142,1.949623942201092,-0.5402663457920105,-0.200247908410756,0.034451359692033334,-0.6361023466685951
0.8675060226274329,-2.778149929692949,-0.41271104302952033,0.14265889826193068,0.36641341506395686,0.7109180959513813,0.2741339381735619,2.5382457327570913,0.533001780869285,2.3320815381529916
2.3785335447616234,-5.1655244446851505,0.07435635281643439,0.5033004858604263,0.7193428544394134,1.1659234529152789,1.2029771097279258,-1.1966480194131557,2.0929083905144124,2.780088288862802
1.7538387134759126,-2.3406244855134686,-1.817298590401985,0.667663048291705,1.9847510022021067,0.3020132553923658,1.9040356183902618,-0.3630093718709176,2.5416675520636476,2.0319095925302566
2.2140050988051985,-2.7097299422235257,-0.45272464272124685,0.06546980884599356,-0.307641035516131,-1.7086111320365664,0.3034070593901332,1.8529169895433513,2.0550458744905407,-1.6433450378302945
-0.7675066411015758,1.619683790501515,-1.4801091400905457,0.27968552770383376,2.930294406012497,0.6389187221573724,-1.9505775378342545,-1.7920506669040828,0.22765312462354492,0.8568466123217193
2.581954178565228,-4.3034841198609515,0.630328804057387,1.1820476536550335,3.3065813138799482,-0.6183150173864349,-0.4740674843065722,-0.5303031179238913,6.225412791697336,4.617142045252912
1.2267309261045458,-1.8353584288772002,0.37548808110331294,0.9397955508979867,2.1595096008421826,-0.9717641989314078,-0.44176354566855114,0.45876254882464046,0.896423467683251,0.4553367961747962
1.2698015681815011,-2.570049574051081,0.5203082218377146,0.36053091736739135,1.4382586209298291,-0.301252364333654,1.2027874823886187,0.36116138204177883,1.873209014728485,-0.6530732565586448
-0.23347382543129847,1.1202025322408105,0.2060961776784423,0.1882228573927198,1.125797056577261,1.8990826978966806,-1.3794676036521758,1.8505268832580293,0.028497821760770536,-0.831296554343933
0.17615115612706633,-1.0163700073349873,1.09599086245559,0.6070228543121631,2.882371241995848,-0.33668101115766275,0.6274631961976457,-1.7233124204479344,1.6733660731842632,1.430952517044656
-0.6587182757292294,1.7332442207188452,-1.527602949827501,-0.39213939900255423,-0.5065340980315222,-0.2753638308605169,0.3064814387424121,-0.010353241143758019,-1.098016022374043,-0.6771611658142108
2.9185608366980977,-6.873337716373972,0.3898506044365522,-0.1879594387854767,1.34165471575829,-0.7104060473806273,-1.6243496218254359,2.325671173265673,1.6222548665157812,3.098123677151818
1.2442146589771657,-0.8766821713352463,-1.8612105250015631,0.36220415162078545,1.7765119886817384,-1.3592612632442589,-0.9543607135443262,-2.889433009352063,4.7469064367674125,0.6740465041754052
-0.16121483988981344,0.003921204196799531,-1.2960280644939273,-0.5024546932061832,-0.5882044626455467,-0.8917259548441081,1.3375915725683514,-0.8749698531951071,2.825222639255945,1.0287326237710064
-0.22736849057537634,1.5265283514455026,-1.1771157774673788,0.25136877657347934,0.3504204864053426,1.3542744460131528,-0.40140084478264954,2.078201080079829,-1.4792524584300226,-0.9082022710093923
0.8779599119563237,-0.06516084024758054,-1.6404474248401855,0.4528418168570006,0.2893409463321688,-0.3940665281912697,-1.253339433531747,-0.937808546887311,-3.0348541776939344,-2.081306751463386
0.13580740139287406,-1.3309334488389284,-1.5867753825897064,-0.10456101988640185,0.6137691082032095,-0.1379974868519858,0.9181910108763385,3.357689698625091,1.3292154595433507,-0.1691422061084631
2.1999486525431022,-2.2248191888208533,-0.2396301431958838,1.2094331473005655,2.1981455647630868,-0.41076888340244694,-0.5964322119650912,2.570536063583256,2.9966229609734403,3.718584224726852
-0.6926014399591933,-0.8759228975339991,-0.04670875058711377,-0.2532560812246036,-0.8855958156431417,-0.02067183645147508,-0.19290900941014197,-1.2576180604331348,-2.079087602323298,-1.1549637433058841
-0.9647071212356045,1.1334218166433243,0.08949887752909534,-0.12786661498224622,0.8006093716455489,1.3434956818964796,0.07554078874926366,-3.279535844057012,-0.35541918046890647,-0.5804515772725792
2.5360485245870956,-4.484707051587127,-1.8656537766225818,-0.18986278832641906,0.31483802950105155,-0.736272107634319,-0.318185927291554,1.3406646758336223,2.041777892582712,2.4464503847333923
3.36560415906758,-3.464872685713525,-0.9504055529941587,0.8990431562945688,2.941390254901459,0.1291974479810355,-0.8203952103122936,2.3244473137152077,5.566358107641768,4.341041979222213
2.1607051868190297,-6.395871599059607,-1.0784606872317315,-0.16158795537358364,-0.35202038889323606,0.7845996642970723,0.001221554201326884,-1.8699162098231727,4.32501229694788,3.334420960175904
3.3801757362284146,-4.159270927150435,-1.2029590623575568,0.37395424437462543,1.8604952552952576,0.13444335079013847,-1.0621028013594505,1.329730411358681,4.858058817001702,0.8422456514841666
3.462142423243616,-5.103844950235834,-0.13094036430004466,0.234898560555862,0.08370017242857108,-0.8807905466445713,-1.196134579048659,-2.3471733320888584,2.3622496116306015,0.5936333979617308
-0.04172943910229954,0.7629215294974179,-0.9799363886954854,-0.13680583628589582,-0.44500887922741295,3.3482286891272857,0.5057222595080557,2.445428631210982,-0.641974807587915,-0.9578828508672916
2.6108326633746217,-2.350928823812173,-1.2421846531989365,-0.08351090660217841,0.5807425067106948,-2.4148300594709555,-3.9882897288886836,1.1609107909918028,0.9870219522371263,3.1141456002334573
0.013172261801294605,-2.0852111805322497,1.840829564604577,-0.32897741356071736,-0.3942604462606829,-0.6188724123246763,-0.8628505068732321,-2.381605152490856,-0.7739817191016509,-1.918474549426986
0.8979297013267071,-1.4678559927404171,-0.46264633378146114,0.27555899428978214,1.6379564816856487,-0.679927245412924,-2.070163175876376,-0.5568009694379807,2.266106287733664,4.514245379947492
0.940567379803622,0.637079697633536,-0.2579198487366893,-0.28968175327740864,-0.9337138725557474,2.4192841847913162,0.7743006898639097,0.35345502745466223,0.8937733076824664,-0.8081513606595114
0.6043620634095193,-0.4164765604796357,-0.33361217968036216,0.10120327473846873,-0.7556944438364632,0.15020172047013544,1.2110641379571871,-2.632478209811792e-05,-3.0834125018159178,-1.7337856405511154
1.3026927650409705,-1.5227563991166264,-1.452534733269934,-0.22943867479215913,0.41897576906658274,-1.3933737855294155,-1.2477496596866704,-2.2902748497985543,1.6070358296732166,1.3424217659210043
2.0714887145896768,-4.189465321128402,-0.8319340693556913,0.39283597205422993,-0.5936834922608679,-2.324188214673552,0.7328477582253413,-1.7759925275760167,1.2692857616123239,0.48619185613100147
-0.7141930704729874,0.659049018952429,-0.7526287584944313,-0.23383609117301368,0.2564101364473932,1.5101327707465275,-0.05688960281340641,0.16538401458643012,-1.1552694729086084,-2.746345888104031
2.9958559449597693,-4.60663517185125,-0.15108316450450981,0.5706493439391255,2.574228025768937,-0.7404484177209161,-0.39933855973028765,0.14834207233053012,-1.345204757861141,3.0459826530313996
2.8986043195581557,-4.903976636616896,-0.5846371106348429,0.139234504736746,0.5777949150480326,-0.050863600911037476,-2.365397636138339,1.869883880539691,2.072410143870162,3.7066059645370744
2.318890103389422,-0.4552367976433042,-0.0984102258839919,-0.48410449293305047,-0.5680469288146528,0.6301020747838764,-1.0380306282209402,-1.1283901969261774,2.4934776012665365,0.17111026647188832
1.2897729674075702,-3.8982675893777547,0.9514590447896505,0.9969386318118617,3.008070715727615,-1.1484049229767952,0.9485770779719437,-0.37801529731355443,3.6117832871844437,2.191160640731628
1.4175062569658468,0.39993512129378556,1.3184047145725788,0.5957186349593804,0.7745613635820581,0.6754848858615334,-0.49515651172321,-0.6153968042958561,0.7577576563187248,1.4191771816619245
0.4739877120368743,1.1547976542269949,1.8949624859167296,0.17435836766632443,1.273482337993757,-2.219933844259836,-0.21050121348025563,0.2534001729156948,-1.243733277391847,-0.6766512958945737
0.46009502595845175,-0.5052133918314999,-1.1177079892521788,0.8616805804096134,3.0527213095295833,0.3609595361913551,0.7230659443523572,-1.0815662210776529,4.627091467394063,1.6495867120280718
-0.9451892165713779,0.6636906994395994,1.119856224342366,0.13165660064324367,0.9829962843355267,0.37535945831723205,-0.14240993109153133,-0.5768732366030385,0.49239019387327354,0.1979761458478709
-0.5037444573086154,1.7528300589389627,-0.9591596465150012,0.14831798918053796,-0.00619555370567626,0.9475866830596791,0.3352055109069527,-0.8480968005361346,2.0851039331139707,2.747475546615479
-0.3015823642956327,-0.34546992118265507,-1.2335809697902973,-0.2753591355164812,0.5506414047881769,-1.7307856079093067,0.17383997819132788,-1.006214816575833,-0.7600934107316822,-0.6364138565461395
-0.06843436177129547,-0.12456267914890665,0.09336682226457176,0.053837147220080324,2.2181623299089313,0.9334039115092861,0.7484854096101311,-0.5712050715077989,-1.9063942188950922,0.17446582784389478
-0.8911860999960907,-0.6160050783790941,0.9386076153561667,0.7001919164807666,2.645424527226503,0.347171178588321,-1.135292556954571,-1.833491087544665,-3.733054211398218,-4.471418066624117
0.8238165282354069,-2.4034508795109932,0.36694163820872955,0.6803811315814666,2.3006486298141424,-0.6672595367578382,0.4504193313198499,-0.02342687102111437,2.1455991208491847,2.987588415414526
-0.4087317155439789,5.2806240866137095,0.4839366033415168,-0.18946205525609716,0.09730535316985311,-0.08195050315902919,1.8422149051213532,-3.4912432826381616,0.9926077952454881,0.06751342799904836
-0.4366992031500807,0.7713209130080871,1.3381328762355897,0.5873470384582966,1.4365098137325734,-0.36149105631614176,0.4837083150419269,-0.6315882133886624,-2.264040649702993,-0.12239415654265909
2.0912282791691936,-1.0259434343740426,-0.12702198450368998,0.3083391086395619,2.2194074392774925,-0.29716918397579867,-0.2074505971474711,-0.41869407981588325,5.976877512605723,2.3742200631251666
0.5088154338621469,-1.8326419488605201,-2.457852701928324,0.8827365193128804,3.422868379199169,-0.35366230212042715,-0.5412371971819774,0.05903464789305631,0.229218519178779,2.3088338665523946
0.2786741954475882,2.3119175905181093,1.367097332973882,-0.47426406807719346,-0.7157259034029062,-1.2269073164579056,0.40526340968644314,-0.25402888338175256,0.8872265105003886,1.4362174909557428
2.8586837759139168,-3.6718414079249757,0.33576274611139195,0.03166178558205977,0.3939574550769731,0.16488092699978718,-0.1735158001196176,1.5751660294228305,3.762561201299786,-0.43154975416048014
0.6746155378620042,-1.8524863220358023,-0.7929180965672699,0.8000266806199793,2.5105279453280382,1.0132356111515357,1.7269330585130152,-2.691151489227874,1.4204365091092814,2.3290629486320524
2.2853698319466123,-2.3424707856521745,-1.5789391616070056,-0.3032052436891292,-0.9774864239913854,-1.575247280498447,0.6382727425138219,0.15120514520630238,2.666377136134719,3.0895554994985575
2.3671824988589023,-3.9010554171032346,-1.6983535473802547,0.14077933081418406,1.2195017533545385,0.00922903424504734,-0.3036355667980092,0.402031288796447,2.403773640497743,3.056665252677746
-0.5329570517691978,2.519729353919352,-2.262708814726625,1.0518886101681688,2.7097250656899527,-0.05381909236834956,-0.2921678277492869,0.2237037952035099,2.624959352450914,2.648433895735933
3.435813161669076,-6.884431741177648,-0.6851975757653872,0.8097592106942683,2.6622183539503923,-0.5645822846095786,-1.5467716405208787,-2.857658331238239,5.064547769389487,3.92779808390046
0.779587013744965,1.9615537682052477,-0.712518493213883,0.7866483082914425,2.133831267000831,-0.3220914612727626,-0.2975713493877989,0.7974441827505822,1.366130278836427,3.5149686517230547
2.9514205427991476,-4.657664942140767,0.5108552046294813,0.9233300355537699,3.452931552126631,0.31041116221618703,-0.733698625311633,3.1756695667057686,3.7466504659477784,1.292900425139533
3.247545963201258,-6.439840138521855,0.6496803848141263,0.07052448843463135,-0.43520712327458877,-0.455733283071426,1.815658915501123,0.4174152372972819,6.984825702693003,3.2797930501956687
0.032029529037540305,-1.3125536511745908,-0.8030657060961736,0.9178426257866795,3.05873137863673,0.2992470885565036,-0.29659135322672936,-0.1703960359858105,-2.581730181977827,-0.6252696463732106
1.2565103188761486,1.1755272304613453,-0.36285775622098054,1.085244405471688,3.449385168150802,-1.1643066411755858,0.8691621069303921,1.6940152985816235,1.1601881154217208,1.0164546978383386
1.0479634661397488,-3.6608905052930374,-1.1431685272507437,0.3816246316711674,1.4798768348785072,-3.097696680798825,-0.08746531212656118,-0.42542031310666834,-0.4560332731917497,3.211697677391053
1.453942596864438,-2.799096553298606,0.8862561434556855,-0.14346574038440552,-0.2605347082555386,0.26285295419784477,1.7579929586217298,0.10406282239271954,0.8896589476344894,3.8000176216848307
0.6360746069107894,-2.6957531299905777,0.327020393286325,0.01890022603328468,-0.25509083416275,0.6227521342917852,-1.5312919699408718,2.2449491476347427,0.11180868835072921,3.2721086478627712
1.8844395209931033,-3.3551877386438766,-0.3816932478987015,-0.3985502657909064,-0.9159991615346085,0.9685831938063685,0.7865843359504289,3.97826890546874,2.4751886252908464,0.9456387340825978
2.3641673312784213,-4.166329835795102,-1.7654961874352486,0.6668345920420642,2.1899904307823674,-1.0363029252118139,-0.3051848955157161,-1.110294736214908,1.6341986266842392,2.4470347553632776
-0.6988766122644918,3.693812197130902,-0.692465704403058,1.2235182871013988,2.828362058525255,0.932850035355412,-1.4350787340570845,0.36404543628429026,1.2155037799943034,2.754590673606666
2.9659943164328664,-1.9262558435713137,0.8844584328113307,0.10834739513958211,2.0699009718585577,-0.21219350618301966,-0.47190868766746574,2.6397110158390835,7.166210249740962,4.221519611707482
3.209495257557797,-7.334488590889456,1.1043050904387548,0.4858740609436993,2.430127997315006,-0.2573668954088013,-0.8526537629708486,2.0181842652620325,5.916263325688858,4.20212160326966
2.476298060702864,-5.6262334324013565,-1.3378145724889465,0.5073190966526817,3.335234815227401,-1.189441600871575,-0.6216815079395311,2.9140585433792543,3.9468482606890136,5.257354349967806
0.8217364245781704,-1.567866384506387,0.34933140818283354,-0.12854761630752948,-0.8618539624690139,-1.9776370642787306,-0.5021066284220339,1.3091238915444154,-0.22140352812993003,0.8899286023484133
-0.3208515387782085,0.48722083073129796,-2.6361881018689077,-0.3524428501726195,-0.7571543895922781,-0.3971486204835188,-0.5626719037325403,2.57613287512305,-2.1109367649561235,-2.5524958003408127
1.6451311723124604,-2.5316301486915442,-0.2890082525808181,-0.2879773222722035,-0.7253308195197125,-1.7566982915132308,-0.47889275254383135,0.5563924911104241,2.4235477314290748,0.0003300255848473488
-0.7579655052752081,2.871437477036705,1.2329663272755558,0.3214648323841212,0.6907566039486741,1.898687335081616,-0.9311306639793863,-0.04913061127075537,-1.7108079364246078,-1.4302682790987675
1.3783076118725544,-2.6160493460453855,1.1726549164556144,0.506452567944858,2.4091362214868726,-0.9228004237094763,-0.23531838002728225,3.3115833895387783,1.4448568296641322,1.6647645960467359
0.0639215300384457,0.18165349504858905,0.15289941600764154,0.2789154248436541,1.9838057009480163,0.5819896454504062,-0.007221549364400334,-0.826728666397714,0.6775416033449667,1.3412103841860685
1.23005679851429,-2.029379976363951,-0.9456396463872063,0.46220423298647695,1.8705145922436688,-1.1470650461885703,-0.7160707242273701,-0.33288708474010437,2.0339485272743367,-0.14965905308506977
2.5610325358588195,-3.2422318392816996,1.1985852284938474,-0.34324425837851,-0.2980328115179768,-1.710242143694028,-0.6571214078618656,-2.1522108812509018,2.1078956923990555,1.5679686878663155
2.659692181713554,-2.450661026026161,-1.714582896054677,-0.23391048638037587,-0.161214691203866,-0.33195145718479313,-0.6985423847501765,0.5890219208587026,2.92484975592302,3.4991821427566734
2.5016520460155056,-3.617252711609174,0.35430266767550295,-0.09993728491217864,-0.748673136959036,-1.4219620529669257,-1.0750632550631491,-1.164415802234686,0.7599872434760098,1.7359853355164965
1.0740998421647574,-2.441515117096744,-2.1570825198811123,0.5209537041035531,2.332040369872455,0.20851284817810303,1.3220613843044422,-2.4184039203590406,0.7128361582946722,1.6751306868075173
2.574864700908844,-1.6853936100921112,0.7446532854039409,0.5792808348534229,2.5330609365847363,-0.4533129674194253,-1.3771758340831444,0.8931086953368994,4.59283641850389,2.70607359935772
1.3246301163087937,-1.1031478390731437,-0.7808430752799346,1.1262918162460238,3.4398763455194246,-1.002420741213908,-1.4273802718672715,-0.9309854920325084,1.1356322919675346,2.219203450892334
3.2936253326831206,-6.550885364450531,0.9405887584878145,0.6398948510288717,2.9434844880297475,-2.406781234627568,0.13008400376433601,2.28594110719229,3.618138130547678,2.3687773071837306
2.2522267574005648,-4.124161108027122,-0.3832066837149069,0.34194407703792146,2.1253266613720796,-0.08164875471626443,-1.2815856103845893,0.8122013057017438,2.640513933589473,1.8164284006476041
3.260089894662303,-4.069976237445114,-0.9669590240690189,0.8983446862816519,3.101552183571016,-0.856299525150148,1.6667761632169236,0.8018531766508719,2.2503828488852333,5.268529888689006
2.0352068009110624,-5.194213823367916,1.210748714978792,0.2801250950699292,-0.018936676066442115,-1.4506714755303287,0.29608672524519314,-1.4851429766050304,-0.62186781323919,0.6871164525340745
1.3133745262504073,-1.9705364875352542,1.018077999331706,-0.24229779156164186,-0.6389287269737716,-1.1098210793215197,-1.366435522820079,-0.1987012011485068,1.1258175142099682,-1.2698736441762986
0.3261079196513508,0.27113865419477917,-0.7117401402315753,0.20020437568868488,1.8044446587765117,-0.5778214800379637,-2.5245066028700562,0.11501400778550142,-0.137801233334709,-1.2380293124599941
1.5338709594768196,-1.8188304755995781,-0.6193011862401011,0.38629282631761586,3.3372322060909116,0.5555877640552558,-3.317815272512137,0.035382365343602624,2.1162821550292077,4.031348585491794
0.9505520477381562,0.6286717994910599,-0.2989285457969919,0.23362493347054591,2.0397660243698192,0.5286961942577009,0.9970878900447946,0.7255440389143233,1.442766314885908,-0.031144078575277734
0.40584221120753705,-0.21623709366288502,-1.1013087544921132,0.008785321498979252,0.7787846019945954,-0.314429787494802,-0.5077358173713463,-0.3221579054194159,0.45419194082379866,-0.11024633806745732
2.4592727691202163,-3.0750296693942434,1.2258846604974334,0.2535646145475698,1.9311844216503689,-1.258166602149982,-1.9831374652960487,-2.3438599105511138,5.664433696216184,1.9878852819968906
3.1187565707138383,-5.590183134697033,0.37186927610038645,0.5108660074324267,1.0520315295349691,-0.37042668710904203,-1.968010395073221,1.8172172375519382,1.6207726515936889,0.41176059965602274
0.2594747947582574,-1.3371671060718588,0.9578651422420915,0.36954169541039533,1.4775916758298755,-0.06811280494269031,-1.2401815967120542,-2.3241655678390254,1.7117001729165444,-0.8577927749541382
-0.057153730731131946,-1.0304422019823727,0.6824792011720474,0.32085693391048503,0.849939346664079,-0.527822513733871,1.6022678017308793,2.242782162530625,1.2033855767503345,-0.1767104869398315
1.8930030594219356,-3.104267952657124,-0.027613801722265126,-0.14889103062609846,-0.7642412878609579,-0.9743071931043172,0.3443225379256896,0.5107111738720727,1.7814745628332993,0.2127661297665639
0.8621976730338743,-0.860342585062065,0.5484702272802415,0.18127091361382572,0.028091757353554847,-0.04140436770573003,-0.7557183393166024,-2.3341270913262204,2.292718985630484,1.7701557328695474
0.6710910168000581,1.4599089150876907,-0.41124708311314623,0.3291573940480209,1.8957204812536186,0.8068167726058765,1.0760855775001115,-2.1401522888881406,3.976416555515068,2.0511222328648806
0.6569287442788083,0.9289695686159466,-0.1622751826713967,0.7299413189668308,2.9355833295780824,-0.43853246758534636,0.3237879488570745,-0.45987400831669967,1.2410457161776316,1.9663496442977815
-0.9965309109392295,0.3632851858017707,0.057688094122633954,0.09935241507468744,-0.4710651387212009,0.31530562614415203,-0.5816243242786452,1.037638537921669,-1.1991032422820922,-2.999096599909891
-0.8105648021518387,-0.844255184410583,0.4875682066615454,0.3819100285116173,3.4436791444510657,-1.1801996196919846,0.5970559638708307,-1.6918474138852064,-0.41367136319853914,0.9777020888419794
0.10232751516452088,-3.021286802982857,1.838306246159904,0.9940746118917266,2.6139790487714363,-1.9479513778375699,-0.957986431739719,-1.961706959057364,1.3069666831955462,-0.3889667777513336
-0.8889032149970452,2.0184009115764323,-0.8894175807646338,-0.2998163930186062,-0.4128478805693774,0.8277506835539495,-0.9514281603911956,-1.0026590682726049,-3.0547212604403873,-0.6921458244004808
2.3129659528731814,-4.458770915879592,-1.4212241123733094,0.960454117377258,3.112375891371353,0.9704600617896827,-0.8966297470054383,2.156070331541064,5.247445436616838,3.27544496184292
3.2464663948212653,-7.595004987094294,-0.19748914183694932,-0.18760253615432815,0.21070534337045133,-0.9448331261570715,1.5521666058233703,0.4219701864978252,2.5381485356862292,2.090482754160792
2.060809812680934,-2.9528166311084116,-2.185213736333317,0.44114981558486405,3.4184794070296363,0.43317619534277696,0.32119586289093827,2.003202701783832,3.285226503399209,4.751228604288328
1.0899210303773632,1.9783058993485105,-0.11319170976449341,0.22502920296337645,-0.011336369494926335,-0.4253439906356733,1.0475847667762785,-0.27971229417773197,2.917131889636547,5.625609846605412
0.3019690279138174,-0.1892903335223231,-1.1141396084865518,1.1098704551890248,2.5573315330491653,-0.5631185917328194,-1.2438117319679516,1.8113400736340264,5.698701061395879,3.0460089737082896
1.0730342263429886,-4.226576245232097,0.9481007323897975,0.3953687994294698,2.9361447913486325,2.0907433963699984,-1.7972965745099556,-0.7533674782119655,0.6716475012516014,2.3452317568837246
1.2424634125044336,-2.757470076987683,0.4007574193304108,0.2846212455246489,1.841539626073478,1.2836768344374425,-2.8705085136824104,1.8282695609739237,0.32023346572733646,2.6452449572771393
1.9148312387532647,-1.7619091166402894,1.6588540204297637,0.43464484663473085,0.973215616231234,-1.3443421263428137,0.2660901261562731,-2.2456308372868503,0.6971836837459702,2.168790836202061
2.8245558455951363,-3.8258526548432688,-0.3881340824685827,-0.015315368771656512,-0.8799718586068004,0.8695176932306652,-0.825121634038111,1.831231737531618,2.927326452744124,1.0076647451681107
2.813866880283764,-2.6064529307407263,0.5481218476960584,-0.18904786032087392,0.4639107151740809,-0.708254424374809,0.1386000062696683,0.5270804365114732,3.3060624811893815,4.33156880998085
-0.9176258936463315,1.1738896336628195,0.2653159584013803,0.14862255212979514,1.6342689995189597,1.789916727534526,-0.4869343561322377,1.341828490850268,0.6129335684632382,-1.0915023942588236
-0.9151904682579959,0.06935623229553962,-0.10052704384670612,-0.07754188779759956,0.3384309455145431,0.2190801945753429,0.5840613133941994,0.602467348400233,-2.3560859284823734,-2.3774532492467593
0.117074675454091,-0.5994728882721188,-0.5900494363167181,-0.2344078805259585,-0.2770213554824693,0.17545652505830084,1.0240525952790593,0.018308976280994836,1.3495779408870199,1.935608512417637
0.8537224162265931,-1.6671523238734778,0.4351088119795622,0.604536916751383,2.239890484661855,1.4512486402798928,-0.18189265820329642,-0.35375644419704005,2.563480207451507,1.3123397371256265
2.647023400283762,-1.834971053979864,-0.8161379461016486,0.5419929975880753,2.3660105507008766,-0.7735579543215215,0.9814858697209943,0.6316612145524072,3.908097199293352,3.830992365825418
-0.11998259696374702,-0.055207948372631675,-0.3603679487456283,0.3203139833742336,0.9922864380054743,-0.3082345779973718,-0.4716744632086704,-0.7011232861398875,2.208246541046425,-1.1687319871147164
-0.4781262540944945,-2.091482335504025,-0.11093906559172576,0.03528051422479848,0.6594961642708601,-0.1835144036107278,0.10902302585861383,-0.16202491631955795,0.15502041866974758,1.5511566448755412
-0.1520313174781035,-0.4212806348800272,0.1829811627681595,0.4156483926158662,2.1232987049238568,-1.097446090957528,1.2381783795657892,-2.634302936649536,2.771808421607965,2.9474024104314465
0.9253267116892403,-0.8690488192798189,1.590576753480235,-0.12280135977152672,0.24299541799485747,-1.0829058624314358,-1.8751394815355311,-0.7718350346529427,1.4165359020754087,1.3518095229496085
1.81982310109482,-1.6769305184716923,0.03854103924557231,0.054500846496264424,1.251920410428978,0.22033086994516962,-0.09547284464185109,1.1430838647002548,2.983207811197167,0.15031254445540376
0.5595332866866649,0.552658333718685,1.396771835398443,0.08500737950994569,-0.4355168205521589,-0.7868061842490646,-0.5231201367821005,-0.3831554415733104,-2.7625398118978683,0.3259265406231983
-0.41795680663641654,0.6397894620394856,0.7764919401815755,0.5387768518410603,3.04359879719673,0.7578433552310944,1.4964710239463717,-0.5683866114644118,0.2885109121835189,2.1353851793413186
0.8119333059573133,-2.115627062299354,0.6047992655076545,0.07425333744414825,1.0076918785334796,-0.45003256923613066,-0.7384399750387239,-3.2395531057144766,2.402491356798332,2.4771078282489714
-0.5840041743834542,-0.9537734374726189,-0.013457117729503108,-0.03223319845502554,2.523018559877302,-0.8819817349517401,-0.73607765666356,-0.1828443500926597,-0.39871063813494234,0.8917553291674638
0.29104409551832555,-0.3131972366591174,-0.2352235307745405,0.7448719367355148,3.316516762197474,-0.05781369346903444,-0.8993264098951336,-1.9022096669193258,1.158753862119604,2.368262519187882
-0.08164936246018017,-0.37072848677182857,-0.8659567497147332,0.17376669154743654,-0.20379445897846304,2.7542895631174042,0.3372442690094652,-1.2493464272805663,2.1774420104455423,1.1421597240162045
-0.8703390439163416,3.2157122110146585,-0.9638467046319348,-0.2310695137968999,-0.2994834217248259,0.8589463786322387,-0.30022736126933824,0.5048982371605787,-3.355273295786663,-2.5540752209749744
2.842333101356514,-3.899465306816841,1.3379846765359793,-0.4828620433925726,-0.8844731970707079,-0.19940186510996694,-1.7138615775434238,-0.26800385560382367,3.499774308903635,0.4716174923366152
2.2642617761515704,-1.18688114630614,-1.4575523740537344,-0.050468279510599685,1.2571041818377884,2.139885344589418,0.6635104391253459,-0.2948985407562852,3.8086220112027953,2.6117090176115574
3.301844951570893,-3.1279380152461096,1.389173897310749,-0.16730821752928837,1.2855893400487437,0.6324499991276282,-0.5916090220551067,3.477874347201276,1.5527098747586057,1.0502604856713953
2.426939564428762,-4.300164404704052,-0.07698931745698102,0.018885039539664205,2.2771577689425113,-1.35976289872256,1.8870454838158306,-0.784156802480557,2.1879311126141916,3.618065387988876
2.4983458593829844,-5.601557768105949,0.30955086298039125,1.0950464903721182,1.635352643404969,-1.3274567759774134,-0.10369925282700221,2.86514680225508,5.585710179515349,6.018342569906428
2.191016798266618,-5.145428817700729,-0.7937282913743966,-0.42026240365137824,0.16414672603588665,-2.167431467103828,0.16452913989622234,3.670308247085917,2.587769846988658,3.16197170553255
-0.9805174409037831,0.2561748223161738,-0.12350354403426814,0.0314094807486822,0.5661558886646854,-1.014670161801062,-0.9189718790670002,-2.1088838273687203,0.4386338252560744,-2.0414654729874817
-0.29776395846113557,0.5609714747722051,0.05705574366118751,0.17984579996434466,2.7026682661333816,0.3018858844072625,0.8221591123919524,1.9293288382057205,0.27323173555761315,-0.41461897021180794
2.3699828938633902,-3.4628747933746165,-0.4518160133079663,0.39001828211671496,0.9261206788793674,-0.5713312981961302,0.39749175840487605,1.7809740132365028,3.5268368261126297,1.1472237518526152
2.95305223101221,-5.302505970364133,-0.25699807349020387,0.7280517418299983,2.1758751898375737,-1.0509018551734672,1.0136191772060632,-0.25947488419291836,5.312633670617039,2.1267411893523156
2.4654332977425972,-5.180220598694872,-1.051198902196773,1.397236709901091,3.3551658889270657,0.2261472128393307,1.2171727810060642,-0.26733918498653003,0.6650774502658907,3.0337890507747334
-0.9103124199938385,2.9609848871999405,1.3423225436244184,0.40514767901448184,1.4844725706093698,0.1706607132226164,-0.31524413628192016,2.559752014635346,-5.462917660596078,-4.529935710805282
1.8233831130187355,-4.750738784515791,-0.35812167927831484,0.14424958584742376,0.5202057694267312,-0.5518709400904424,-0.48053071574630196,-0.8544124743213095,0.2382381364781186,1.564253096875321
1.561872979488533,-5.367548670516092,-0.4385157966146557,0.22761495208139093,1.039705557465648,-0.8126382961087146,-0.5367471151686534,1.0042388836345681,3.291031624854278,-0.520961486757622
-0.8658783973717048,2.6307395366019737,1.0279381951381685,0.229468205061653,0.7611650803136907,-0.36854148865427144,-0.29748558262665176,-0.5219380220470206,-3.375765892795469,1.4489321540184994
0.207401864213955,-1.457847817467961,0.5379593442484577,1.0674288967390586,2.735613559609096,-0.0987776724554344,1.573961899983177,-1.9204147395908608,4.8261656964475375,3.394549722490353
-0.37340742909840086,0.2059640322444156,0.463810249792067,0.5895145133917602,0.31666029413188923,-0.83522716030459,-0.2821336920797294,-0.5327782380930207,1.2280495480669935,0.436771224027715
0.048311670687896324,0.5944599166927824,-0.5020195396585038,-0.7691438405109496,-0.8547102952715138,1.2065976557758504,-1.3517004916217363,2.91854189728935,-0.2603053206705705,-1.0546914625909163
2.460762833701148,-3.850333225593989,-2.1155399778819888,0.27735102080896523,0.21968781224888012,-1.392395574995167,-2.1848675828225055,0.10341195718921022,1.9265607278982066,2.908036715257226
3.2104199811113503,-3.489392448523571,0.8401696878860578,0.654266915759681,1.379100697053861,0.07935409901888413,-1.9240903225772037,-0.6298350839273877,2.5165209120150513,2.9497127995041565
-0.31903606774257354,-1.1703564341282802,0.9471547774414008,0.3442968023526825,-0.29109271284632887,-0.40379919206468085,1.2230667444631944,1.167501476621392,-1.9648783687143978,-2.653135686456805
0.5533130364660412,2.4847951415849745,-2.889764187926151,0.07868290589171405,0.11285512761049432,0.8074669866694417,-1.291496395668549,-1.3089332333805404,0.04301722472162939,-1.812790575166616
-0.6900989922852571,1.7811125394285112,-0.5157243382204162,0.38733983388614307,1.5504533677129215,0.7994404064441909,0.3699359929903115,-0.6921064889793488,1.0143646478371842,2.1141120001021774
2.3249336317680025,-1.850891447432807,0.4067649177292009,-0.3353690792424933,0.45059701002122265,0.5934486217807828,0.08951549991663876,3.7730824796451374,2.525673045969352,2.767259155977963
0.14684194765031933,-0.049550409634536066,-0.41129766649956756,1.4139159087355644,3.2413937094550427,-0.9714015272418565,-0.9998881867440675,-0.9961404268249094,3.48426054720676,1.0376655920416553
1.4892164098533565,0.09066945197327342,-0.18515682894760005,-0.4128071408940288,1.1388079557707487,-0.839584599095897,-1.452917597541095,1.418771031492884,4.035029549471264,1.8807250712872874
2.4153030270112583,-5.550799306839072,0.19038076690978215,0.7006622059443833,2.9512381428161034,-0.8777437826998716,-0.2698685569888872,1.0021544191813871,3.534319304350683,1.8427773422762304
1.6037608717686531,-4.532618009131111,0.35193087061560463,-0.07426451978379227,1.7016196866459246,1.446530376681936,0.05105280573030037,-1.4988471938233425,5.5366843311008695,3.3874142545828576
-0.19917907736457885,0.5469351059138082,-0.45669872500460634,0.5811990959883686,-0.08364740392907755,1.087052388677699,0.21349636129506364,-0.4588879654476457,0.20081208187263966,0.8798639880437766
1.6274870461470266,-6.104100656960031,-0.2903538093383856,0.08946500902130727,2.1851320409986568,0.6770642832243668,1.4114411378885803,0.012367811279590349,3.6354564175218824,3.9950697526848593
0.7755619546207722,0.10978748516454008,0.7755775501941291,0.7622106887290333,2.8751865712948588,-0.3534561751004913,0.4233171122486188,-2.353715149274798,1.4693759319748554,1.5623595493269893
1.8292039130987487,-5.27942419235819,-0.1305098259920044,0.4986158605307656,1.254211452202692,-0.7667582925265715,-0.42710912409465285,1.3968167422656017,4.059144600754659,2.9545132453753764
0.8574136932616714,-5.0477105590762426,-0.07575698813569026,1.463063731946096,2.434447078529072,-0.3260868342928188,1.1063396314501859,1.1348700671552137,-0.25282360247668345,-0.5598811289808967
1.278923327222131,-4.68778644510629,-1.213437288961807,-0.729977225942966,-0.4841767891635118,1.3521834591884065,-0.684684498306117,0.560641958310848,-0.1776583167029614,-0.7967491799470965
2.902165123810266,-4.464076357379244,-1.0910486787912148,0.47432647858636595,2.2403634252057403,0.08683882324311154,0.7667514202761156,1.384057517473655,6.498823139069894,4.132331580303962
1.680303937970912,-4.2464024740648805,0.3279531425584176,0.18578570509778947,2.325812136783349,-0.22156900744434505,0.23843473258785025,-0.5786685373401038,0.008297596467830681,-0.8581790573248147
-0.996047030562247,4.190109388741185,0.7141721761159366,1.0929537324762335,2.9162783824717495,0.2101972134638715,0.03258218588652996,2.1294263788271164,-2.1514839655406743,-0.8908098722132234
0.04734336287232499,1.6131120378165846,-0.6835865172216481,0.1578612871234437,0.6332394489084985,-1.5314438356115572,-0.5364734629520729,-2.030073371766691,2.28496587685256,0.5329072382972324
2.702553706951391,-4.699021381820055,-0.3429943801918505,0.5800789460378998,0.5115323399212912,-2.047076749090198,-0.8279644911828791,-0.8506501269561879,0.8254274923558935,0.1986107762860493
-0.3367420141608958,0.9251580825721897,0.38929966574326247,1.0245600855393397,3.3040849747927465,-0.18394345183232905,0.8225528321885658,1.7141113429596837,-1.0393463400449154,-0.7638997200655244
2.8401246735691275,-3.934442578924684,1.0652127237985107,0.03337936244898046,0.0686991010318565,-1.219447962655154,-0.49261696134564925,0.4326257357353104,2.0135253701157363,3.6256088670081574
1.9170588560070212,-4.704114184163345,0.23356708892047734,0.4919683697925405,2.9309773208520626,-1.1710412521322593,-1.3643703214341991,-0.22582137344634404,4.383518478856616,2.8543085155614474
2.2071039832034955,-0.4589531832359527,0.5111701786369062,-0.08380202450532531,1.5377897230495585,-1.053323087889741,1.1814750398787184,1.6475700986790451,2.180582852857925,3.2184158386413353
-0.3138287476926106,0.8057353998258081,-1.90672192145575,0.5306749552222639,2.128797004239957,-0.3131921640729212,-1.4120404640282764,-0.3795193132871941,2.302737798875136,1.6681577955193412
-0.609630414933532,1.6998687616180723,0.25461014521611286,0.6895135008686736,-0.24340115156430575,0.6429805930576549,-0.08815008938850022,-1.497453304302995,-5.299414919646443,-0.6562617479979492
2.4413197779212465,-4.3845889936090705,-1.1427644483641684,0.44146124257088826,1.5594882446089158,-2.0157090140415086,-1.7204829258294572,-2.362391484022871,7.554839928814855,6.290088799181998
3.4244435860643536,-4.807777305343196,-1.7178297955511193,0.7646470463470956,1.55561156607074,0.07327999100230909,0.27702920131107767,1.396057509347875,4.472723267485183,2.2515884630849685
0.7887778781689541,-2.6064750222946014,-1.244746518092671,-0.5062108295079295,2.1093812398638816,-0.798863136632581,-0.7290844583611276,1.4973920641710778,2.211512886076732,3.389425606870245
2.0825268960995245,-1.2884188533782728,-1.4286492243202147,0.997857442413269,2.9969165166674054,-0.20993171664983967,-0.4084627364760732,-0.40853998672958747,4.148931868169505,3.2843406963677855
3.457656065731899,-4.389441767786237,0.23243469453272345,0.6015975504381317,0.9867289841368345,0.519888848823113,-0.0031544963308437757,2.3292736411590322,0.9920703864080553,0.4645222519887081
2.1751126593033687,-4.986214594777651,1.1264842047451036,-0.27357659050632105,1.1807865906984505,0.3014846181876667,0.10851040998422463,2.6574202177041553,5.667986619396741,2.3207312029057316
-0.8617739825344399,1.2865801967010144,0.10449045021303127,-0.13882928804103778,0.3848270533593967,0.05042903070447313,0.7705679032029725,-0.2619796746107342,-0.7526208852119688,-1.4300630894942943
2.7542861140857795,-5.419167260925312,1.0690565030537196,0.1617077932186225,2.392860212322213,-0.42974751699626973,-0.17193484029344003,1.0870788050530844,1.3408552656787631,4.243740072038225
2.9322938055635843,-4.661124127079069,-2.662467973666315,0.3437460495991996,3.256013373123465,-0.6180793715471951,0.5606077113796546,-2.7336106067434303,5.505059327441636,4.608251286140894
1.7013354828915181,-4.012548069074964,0.7970943059784995,0.010749446017108654,-0.13379546126350883,-1.785593624758678,-1.0292103202889342,0.5904272208656248,0.92357442432911,-0.7941348836263975
2.3358686007101115,-4.086057776095591,-0.9426556612875421,0.27834736585503783,1.09083068770006,0.488992109666609,0.37535140690663815,-0.5684136154503691,4.8126772227954655,0.3812702619049452
2.3674401663352165,-1.5118023289805866,-2.2942005041274856,0.8234415071700071,2.456769065161062,-0.29221136881234355,-0.40443417294952455,3.6102362611495127,7.3594899454360085,3.0055186091926913
0.07466847550909828,-2.942303698481629,-0.7008965165856185,0.823596068407085,2.57306697022011,-0.8658782516346183,1.1532737893453413,-1.6290489243097943,0.5723109334579273,-0.10414811663580714
2.1697069136736973,-3.057225907697137,-1.1776141823780522,0.2502644858949086,0.28258001929039,-0.39841954030072013,-1.1482062192092368,0.46190184078950264,1.689865531225645,3.4188949880236095
1.2348082247850476,1.3700657209353682,-1.6058290424276631,-0.04735188273360467,-0.12176882074518747,0.2825873149099701,0.9193955145183023,-0.8366272603458378,2.7179535289254124,2.501482209183028
1.2097143634960181,-1.3822718931454283,0.6975835003437343,1.05047862346316,2.955776447058149,-1.584339229838241,0.4069840723567205,0.5745199797046147,2.869115895107502,2.361037177132326
-0.26262372192480266,-1.5120041236795072,0.5244957439276589,0.8157832829297235,2.8855591202900426,0.40438230777413897,0.19524695264164085,0.2761286718102367,2.811918342329612,0.1741423648584351
2.6320136193523505,-3.3741047393474615,-1.290889324382049,0.7500486842759039,3.4557095361618853,-0.18266980255500376,-1.5710390406582968,-2.0402595011322413,3.7841613716989606,5.183345781098315
3.229493908760312,-6.493509570462467,-1.2760717229178222,0.3332309061302271,1.3309906952053416,-1.0284301342037556,1.2509771556284,-1.039517381028152,2.427301814050435,2.8271582925341576
2.241899763037236,-2.8047129357857488,-1.4917049129000228,-0.16034241310748,-0.7282454200641131,1.0189434249637401,1.632554105736091,-3.1127957835905473,2.14071410260127,4.499464192369208
1.029706200053111,-3.450888528952774,-0.16983297093114305,0.4498899151263804,2.1805501686288564,-0.5771213151441158,0.22727929061417368,0.6227205321734801,0.8415588984180661,2.25092509128822
2.1910900208995483,-3.3327668810341406,-1.9356216068316237,-0.460526972293851,-0.7136679888518225,0.9440752703781338,-0.7004372778552046,0.9878107726236396,-1.432371883643656,0.6210145303427971
-0.9505862545531195,2.6597820773453518,-0.27559651616804576,-0.05344179337604669,0.35787530537623,0.593879307388202,0.3763502504593614,-1.7295686115052655,1.8105978981026591,-2.9252671625923865
-0.2575101371586185,0.09314730461455732,-1.6286863600636523,0.1311211824733675,1.0425305485489345,1.6040342493875281,1.2557864160699876,-1.6213233385196475,1.3035991486436438,-1.886531619337208
2.398238625934558,-2.254379679906051,-0.9920755369145925,-0.1410923302659232,0.11417928877647543,1.632915088725927,-0.06206199682735704,1.7315270294631844,1.6990917821612967,1.3313691844756168
-0.6464459535902092,1.8981175594189252,1.405190247216373,0.13554812024558796,1.1868488423215795,-0.6379874373731966,0.9711280117547391,0.6728261294849226,2.5133001685539083,3.1754608780133786
2.2737109976522665,-2.112232143369889,-0.18053261795700687,0.6298889767198743,2.736134477785068,0.013268397308001945,-1.2683924415510837,1.5472966155313777,-0.08955102010762772,3.0180739167602058
0.16379773444331258,-1.0373418232793763,-0.5589625319362821,0.0019279877778380083,0.640701276944746,3.0495431996100235,0.5787292771367785,-0.929039699558391,-3.309163457117651,-0.2491251176212499
-0.09171399413704939,1.6123522914099897,1.6289200988269845,0.6000142939698205,2.1471643825678055,0.38720475411062594,-1.5452929428284747,0.5678417489801779,-1.5881291438832552,0.5097382516758655
3.225829625402728,-4.281936717645125,-0.6624841324486013,0.5721361272602491,3.0695012089605944,-0.43491629197208803,-0.7409209218435816,1.728599802625455,6.538959359192537,3.4801597134958824
1.5492110781244572,0.15651983542110115,0.5663402058832591,0.8881297818343665,2.555771997000503,1.4133213478886848,0.9616451633180081,1.2107586729611468,3.2867821841338394,2.4697160584268607
0.9502302171754593,-1.6602004823057783,0.971818228297363,0.13689541043956197,0.04076262695020594,-1.63432617854797,-0.7677054869882765,2.6936363927341995,1.2963455072750767,0.7054732746056045
1.9990291415798582,-1.5636909595471824,0.6784689576929592,0.3037671191210807,0.8085892364690512,-1.8129498564628848,0.4004689132606744,0.6758087528404232,2.3455354799545387,0.7693838455853419
0.4046544246384649,-0.0677911321215081,-0.7337174264229782,0.7448200898418494,2.9756270014212367,0.18989140316339087,-1.0843062245265345,0.6151386091798546,3.9264671695221613,0.26293956259542994
2.337273789069011,-4.056449099766226,0.8541354370874714,0.3555043923099201,0.5603110453205782,-0.04965477984144495,0.19559327205857507,1.3390529954987005,4.702413660349055,2.3903772530745937
2.626928199675557,0.6691117599880747,-0.8119299529620426,0.4028039255393699,2.2831763179522326,-0.1439227445704439,-1.3008676338781802,2.4617931736473166,5.129473678466492,2.659498535350947
2.898037085163785,-4.309248128184474,-0.05705742536376732,-0.253335019368195,0.1302130112078148,-0.5589723328399507,-2.1026862777347377,2.4707968633802904,-2.4503306877462303,0.4673457123647887
-0.7303520712198939,0.5574723871410888,-0.7351091086579236,0.9372118880166668,2.876682391566588,-0.4549904329546833,-0.7734194820179362,1.0153153541971098,-2.798171207982742,-2.6153093168770125
1.0613889924762954,-0.6026301832980722,-0.7507284240969566,0.40001718125851143,1.6824109730390742,-0.33205060099550565,-0.48132726533363485,2.838473354007169,3.3501874099631674,3.90918942192466
1.4248596544860752,-1.1833456155038116,-1.5970626707644933,0.36179928417763135,1.8181311829867104,-0.4138968466700279,-0.16313324902767365,1.889735059947027,5.799558627369773,2.959343085315871
-0.6969138840665478,4.557291189284462,1.0290915852213243,0.2668324421379477,0.2467627001846766,0.6954071828640019,-0.20835867329168573,-2.405184907671326,0.532423994276533,0.7016937292652723
1.5709035736175196,-2.430878040304194,-0.5234575250982032,0.30700729134874205,2.58333821393311,-0.29794086540631387,0.14666934369454832,-0.7194779920201095,4.650515481246134,1.4246791985486105
2.0970768562021287,-2.8764034306531157,-0.18838880730144783,0.23693074724261426,0.37455887584210923,-1.5652177074907418,0.4267251728154655,2.9822213868824456,6.372452897119704,4.289342542607338
3.2398749384004484,-6.307034719150873,-2.2942424508863515,0.8206656352821494,2.6685753870225732,0.051170685228279056,-0.3085289131567674,-0.3949295788968003,2.979961849476437,2.013973958868515
-0.19379916259621033,0.04953833980756851,0.6510421636954424,0.09458041001062985,-0.8995291685883681,-0.46310639690687794,-0.809002504961937,1.6072634440200588,-0.5446174187556443,-0.8459203123679851
1.2791112482552132,-0.3090613349360626,0.3022500565642869,-0.10390075863899415,0.8727241416576952,-0.3699785658266308,0.2097502346376024,-0.6139424579842373,2.1939385923367984,2.5694507925633863
0.13276145645917525,0.8057939987579442,-0.5841442521484759,1.0192249228312686,2.6930247429572947,-0.05759615900677058,-1.915304035894559,-0.18211958487873411,-1.5540201795539321,-3.098677964624922
3.0290063337867776,-5.968602063952102,-1.250193893367023,0.73139189447435,3.017751191273013,-1.6409204370012629,-0.4198713844879612,0.6437720426141927,3.851167912193268,2.6504043007988267
2.156789481022037,-5.024675282438015,-0.7241304709977375,1.1504786946751546,3.3826587873984355,-0.36247262849083206,-0.6754712073777313,-1.3951632162673255,3.084965025740705,2.3152332678301817
2.8907582560180236,-4.586355063133998,0.14234749769491278,-0.45169867858801216,-0.7436068220492207,0.3459721346244583,-1.3871896356580804,1.1120953526931487,5.116961718403264,3.891467506402939
0.28076253637964355,-2.27581693154015,0.8784618622153176,0.7003125942183971,3.270914720842253,0.05380180442308055,-1.4332916509501357,2.7369774526434494,2.2460911578053766,0.6916164750328736
2.4997842849759104,-2.7786827484806897,-0.5402501789279768,-0.5732759266719749,-0.6195140865494493,-0.12880276855190684,-0.5743489960775319,0.20278765876463373,2.3025582696659916,1.7165539276599413
1.0898646514074826,-0.3593822105574547,0.2188744554663481,0.4178760887989548,2.6070282515445764,0.5685718151246791,-1.5185820787448658,-1.4604491028498086,3.3732453855834224,1.2890784531051598
3.213142469869547,-3.270873449645344,0.12665962627593802,0.9426943220655191,3.1208900298606697,0.8566690708462298,-1.0727519402279113,-0.2935433022318968,2.2225203520268173,2.729269280900395
0.999156105916071,0.7523882611650469,0.48848761231406645,0.14523038331496108,0.3560298267181501,-0.6649497753649916,-0.9618787344345209,-0.09648825563706565,-0.017834770195303995,-0.2486000328718192
-0.19414567569040686,-0.8810602400235841,-0.671893291981911,0.42971199103428753,1.6569781307895166,-0.40405409896250344,1.6145323072698108,0.7189492091217616,-1.4348551852872546,1.1766020805361914
-0.9721691283702321,-0.7127441403681772,0.9840124065554322,0.6723268645178687,2.5225732707294997,1.9697596545734593,-0.8879106502513534,-0.5911964303301832,1.2623363614307692,-2.044646729659223
1.3290845720766629,-2.676956778050948,0.026480191592817216,-0.35023853779702147,-0.20565384919553642,-1.5243998410463684,-1.6490151912115176,-0.5024786125914472,2.0962011462585224,1.2857888509183566
-0.11431385989726506,0.4692578436566053,-0.3231936858813542,0.3381895972175432,2.440268900388009,-0.030141510677603234,-0.7296973159939854,1.5763278632794864,2.123434831485871,0.44547471318001974
0.8466561984513399,-0.7616241296968919,-1.931620163263352,0.6238847326481259,3.254349107063449,0.6721424358555722,-0.02597374330312609,0.3081614438061271,4.275534398860374,1.562679438846489
1.6704059581327555,-3.889220592775842,-0.09790983978351704,0.2895685893979824,2.2916037027072087,-0.6954387567123798,-2.0053283477448556,-0.6844728616801158,2.0275039368674532,0.47518800353719437
-0.01834732720106569,2.628573912391267,-0.7337610642110722,0.7056468914248677,1.6391577585184725,0.08869226306625955,1.0808442887740113,-0.9213812570797081,-1.014146698245535,0.6537784823099881
-0.8602780544683789,1.1766471978574369,-0.010875933486255526,0.365844682652083,1.5436090045600266,-1.1577288750153172,0.7026333090414342,1.0058643072563478,-1.8720070525721535,-0.6230855595026283
-0.3258396120509929,-0.06802362062600928,-0.11238293985102242,0.48289275154775774,2.661365565678098,-0.5642478392116256,-0.9747915080137585,0.4186792928291956,-0.7651647801818595,-1.6149848028419536
-0.8790178576982803,-1.286562452552239,0.9482838965800361,0.1124773639848374,1.2985232036673744,-0.15445895471889942,0.8244472750026183,3.0053824224800207,-3.577630541603741,-5.387695290137417
3.1653250819278007,-6.58187058656686,0.3084731041011581,-0.17680729372136014,0.10000210830166845,1.4759855950915746,-1.930173266657512,0.7297433702480144,6.315837226766224,2.682646831390651
-0.8575083735772333,2.7182471863899873,1.4941065491499943,0.27083668607254235,-0.746778499862402,-0.5316161497543633,0.5129094497451124,-2.018019355986607,-0.8340311287234781,-2.618072204090339
0.5179478252181229,-2.9572477882565757,-0.8265732408900641,1.1524527143839924,2.5598466813808947,0.44498638954921005,-1.8341294024376642,0.1752099913441552,5.324543837681967,1.9037363559964242
2.847705918765029,-2.3845863074041516,0.3687060650611171,0.03965712154412948,0.8447132031387854,0.08488714720095358,-1.1755347765757584,0.9735524012228243,3.9099583002347487,4.191019910133961
-0.5499758017772279,-2.111056407118752,0.9175594266021736,0.5231331267150382,0.2998485388616592,2.297367733587787,1.283379406269255,1.2235655449536085,0.4434459497821195,-1.4978402873078436
1.998751310229574,-5.098719135328724,0.3064523031052791,0.13430320953346314,1.8648242663021612,-1.6552167295254905,-0.74114215528291,2.041908983922414,2.6430334895178227,1.7395237052550647
-0.007413046289800551,0.3564490729585305,1.8610966932837854,-0.4057871518115171,-0.6298544713912426,-0.8345382558221864,-0.7912462749192101,-3.1926937054115263,-5.465752861473085,-4.558564404490441
0.34881047904427764,-1.4779461379107404,1.8155311788462594,-0.3276111456934436,-0.9477580203052075,-0.2924094260959359,-0.6678519534498264,0.7236980735656634,-2.1170427217340477,-1.2901017856584693
3.4350032036564535,-6.111842683335642,-2.275390391744569,-0.6095876476030017,-0.8869790446343306,-0.9261984607449076,-0.8044165354617376,-0.06959882502171987,0.6122707209084981,1.1981591083220662
3.0568230525314357,-4.891965577676532,-1.0484978078183933,0.04116224540237914,1.4745942127484617,-0.1273513046882185,-1.951898915633913,0.44429518973158283,4.283440624278879,1.8188236443180652
-0.29278872172485026,0.2642443612041679,1.6688316423158132,0.5869400874155479,2.806301470669219,-0.04672461419530982,0.7595762226181547,0.8336788999481929,-2.1896391267315476,0.26290663248126844
1.1016023161493087,-4.3872321755224455,-0.3430906425510594,0.7024790833475887,2.09721967272806,-1.792367712897447,-0.6334222499372422,-0.43875892662136917,-1.3094954294992536,1.9102376984195015
2.386241967435032,-4.275279575729598,0.9940530703706035,1.148750725137484,2.6028866950340594,0.45960695161297965,-0.5109727330429802,-0.9786504373446345,5.479035611796377,5.131601970782079
0.3824715256432265,-0.3323815263306004,0.6161666634888748,0.047833324369139,1.4103835343202844,0.9317906752621069,2.22679064549599,-1.2907088169062026,0.5448216004233196,-0.08828748117582308
2.9661509196538165,-6.245807638655351,-1.9766700738687963,-0.1959318297503996,1.0562522969171768,2.326657500088904,-0.9347972474760029,0.9744227706589247,4.320487706762602,5.40374966274425
1.7931444450349328,-3.354029135790024,-0.2527685661306559,1.1381108975833987,1.945669465748141,-2.005153548277365,0.3056975880686788,0.4596131061638587,0.7029217822750276,0.02612580653008345
3.1911159714406736,-4.465296078052898,-0.835244607094397,0.37792454344613596,0.8061968700615865,-1.1161989377713741,-1.646555133666386,1.5616014175076753,5.251853577881189,1.5735544581193546
-0.6110105473158738,2.3934263352964575,0.6998953779023946,0.09928029139129892,0.418942905268777,-0.5679193052008125,1.725703936289905,0.518383918557821,-1.4867702288555225,-2.812080103653815
-0.48124091298393123,1.6099219110271605,0.8502942515122521,0.8429645740221063,3.005111366252045,0.13877673125777726,-0.45218816166584475,-1.87064757650331,-0.8541944541651709,-1.1239623593521175
3.1085056490823746,-6.241642117862535,-0.08017204303111601,0.4067784449138199,1.8752582341618358,0.3491768858475606,-2.2192268529763037,-0.40649176944424853,4.184852146916427,2.3747614208989316
1.4884902303438592,-3.084654539874852,-1.3914395820760892,0.6606987869389883,1.4599813563643038,-0.26330404310904265,0.3512285137602771,1.2594560777168304,0.6445034622245351,1.4449884474190453
2.3520327547616775,-3.2187199490733875,0.15257602939459133,0.09402517211059268,-0.6522912203561524,-0.3144930867110357,-0.9700866541668365,0.9364901124807589,0.24359309018512754,1.3878791826603523
3.187949878376897,-4.1499803702166655,-1.075822614391212,0.1716893641516888,0.8497277694363303,-1.1603235694258047,-1.1858168217581402,-1.6301059216329352,3.246420350868455,2.8300859314665203
0.0072107413797710684,-0.4502399257138326,-0.33742993468038823,-0.26901254427521315,-0.9951973122817522,-1.3944490018646458,-0.7225822850836566,-1.481002776671597,-2.885764749972351,-2.9188976096767423
-0.7949948742984183,-0.8373718891142985,-0.4759116060125055,-0.010105393975807004,-0.48496956147756054,-0.687728679979478,-2.008975628702095,-1.376559047117179,0.2820066635181109,-1.377357743173186
0.3972526294773211,1.7697210537035397,-0.1770441927365979,-0.41508051760171794,0.1877536830162687,-0.4710389911880653,-0.5413704482072155,-1.041706506299225,-0.9584613677899538,0.7942602589797745
0.1809818139766377,0.47078595122192735,0.6382576833797101,1.2082940278215353,3.1598536917772657,-0.10198859879288291,1.1496891609241575,-4.904295609953854,1.7530528323455474,0.23665119303015258
2.6495141261158857,-4.207840217437456,-0.07172185668309213,0.29608434854350063,0.855153746477491,-0.17755734193559897,-1.5298980615848774,0.021613104744379556,6.1451693143150345,4.41439176224388
2.838325570052817,-3.7352748417016697,0.7454461653487064,0.5136061041858904,0.9336363529157576,0.5840335267250878,-0.555963360519537,0.034539923718677146,-0.8469276297272829,-1.1167266020110937
0.4596857664193015,-0.47052979745144413,-0.6430403932486665,0.24600455744324962,1.5667491209409796,0.6538366516035458,-0.46471292103224016,0.029868609881055948,-0.23596012604538208,0.945883254440308
2.9848043558635835,-3.717184289296063,0.7742821338388935,1.0724511433883672,2.9305753020804186,-2.2669350360566165,-0.7979236642474627,-0.6162432977139433,3.630029350489833,4.317941554182795
1.3084243815505197,-2.372682722644392,-0.8343013593765147,0.06297773545140732,0.9636811946486745,0.4645715187727087,-0.34476279001349086,-1.4073800047048914,1.4502801690635265,-0.5772079644193635
-0.5520300776108553,1.1960586936770847,1.3576177385625918,0.09665834740678855,1.5677269882131393,0.44629790929787894,-0.7130558484395061,-0.29227205811955365,-0.7002067777358261,1.303166272795937
1.1910019945027455,-0.1839088177424559,-0.3352737503819927,-0.519273834997044,-0.9782103674308035,-1.2916062998692657,-0.803072834550162,-0.5922118490812501,0.7264241853850815,-0.6070061886080407
-0.7788796260359889,3.044796605840519,0.2870270905763482,0.4151813251371408,2.7802400167649064,0.31503401706020284,-1.47656381630686,-0.41114553943923426,2.9834545669890256,3.7539659905434806
2.565020065546985,-2.7183044497773223,-0.0903486891908789,-0.04731875308816543,0.29442319119351446,-0.39530871052329586,-0.7112339758049877,1.4377006370352536,2.42623668016758,1.2316958284149702
1.5302113364370524,-4.8873067882695596,0.06534176057092723,0.5759021851980556,3.3048764166256923,1.213884056436333,-2.2815857973805223,0.5948130272065487,1.5398010550903414,-0.8083252480407639
2.5664202567963064,-5.12704693962143,-0.698799604534731,-0.3212274711178128,-0.7095069323670913,-0.2972012034321072,0.040029654350639966,1.4131469361917015,3.4166891006586444,3.446037003826611
-0.02720601043267179,-0.9551467315574675,0.5535687175663335,0.15671902337292323,2.535911866282001,-0.09786795482525071,0.6355485041344936,0.6936840942669862,-0.737237081884018,1.7901002989812234
0.9754883492360198,0.6837951978583594,1.3428920783023368,0.4688983221370554,1.6142318998922307,-0.738499949663833,-1.1983317273955671,0.6951769393340355,0.9691852358122757,2.612732141381212
-0.434179612160675,1.9977308609501256,-0.09278033486140913,0.4151490729172295,2.7955132620524568,0.623098652830209,1.3027467590014232,-0.3994060861009405,-1.3885232102048748,1.7411523708135315
0.9708895395964992,-3.202965397673,-0.6593145095369922,-0.26132047096187744,-0.8703296275052477,-0.8810535384571527,-1.069455447865719,1.0975873032446353,1.6086998094519709,0.604576642435203
0.6350663894637236,0.7840422910099845,-1.3980276634165403,0.9985054266231109,2.7552618224536327,-0.5935227406882332,-1.5037098821583623,-0.25522662146290326,3.5884732236647015,3.2437799736110375
1.1756300129656325,-1.987764503638728,0.6498205201403979,0.742313251076868,2.992035139465143,0.42303265904796217,1.3140299627068097,1.9904657204725247,5.148830155708794,1.6461262917814614
-0.45893719180495773,2.783128857324214,0.0620890738373498,0.23005049749662307,0.5415869081689086,0.7830761295700469,-0.9208015399557631,-0.10087104899795973,-1.694699695002298,-1.2763611775245498
2.990433215408246,-6.700005716624269,-0.6127481888275699,0.4214629564538245,1.6179822683574554,-0.6499109597759513,-0.9418942744554075,2.7376460149866513,1.0179969154772934,-0.8091893491850777
0.27213882850807725,-3.569761002435854,-1.910377530476316,0.9177224913799955,2.6431520995379745,0.5530904593341127,-2.663101212655987,-0.8594042916496454,6.688848520357752,3.8089303552457903
1.3566975302237632,-1.1066405827991932,0.8875041995890088,-0.39866200652884015,0.7816927196044945,-1.4428798318192502,1.2131058561445212,-0.08472124097202303,3.5877761272940556,1.8526291811739615
-0.9789041410544627,2.0734740815787784,0.35617477955884286,-0.2720765650686338,0.5631802949579316,0.6666003085513441,1.1929949061961362,-0.8714269306804445,0.47173762620474374,0.4515014043349223
2.3445255651530394,-4.438228009399131,-0.5879709445976468,0.6015327924552875,2.9394834177263025,0.765753700365156,-1.4519823690940066,1.7935192356121268,0.3320283815258891,0.8823156724586425
-0.9706146841462007,1.9149543110436766,0.6159570227674456,0.853848111744058,2.5851015108094653,-0.15623317401424192,-0.9961454822385575,-0.6246251296564201,-0.3471046110948841,-0.5006407997680402
2.0741886082253607,-0.09100103814230007,0.21355788147260113,0.20787568712589533,0.822937627388578,1.1307672619699356,1.5255862591748532,-1.0606802951659053,3.6381890644847563,1.3468091967186677
1.5193314865190062,-0.7899771733402604,-0.4892256275359024,-0.6792218156155213,-0.8874402891203371,-1.1689420871645049,2.119181574214016,-0.20597599265461342,2.032565597654785,1.4609032245558793
2.274403582606944,-2.4926918867511727,-0.15140604976926364,-0.25378604005021854,-0.08752378810217443,-1.1919695034378204,-1.265299439720966,-1.5070225782859734,1.0196128435136929,0.3405075671888603
2.8017964928973766,-3.907630354397162,-0.3627739804937253,0.18136038144782513,1.6165690079729265,0.26707827150092056,-1.5371417533102656,0.8163760710864862,4.419137049986533,3.105440781880764
-0.5509017764215727,0.018194258591404642,1.0949812604866747,0.14140905757835728,1.0507816236698178,0.001438082023489884,0.3360052291641876,-1.5673875240673607,1.9398839836885573,3.723308069873508
3.3216926428878937,-6.478958726563381,-1.3192329771829614,0.016939952736088146,1.8432258437444133,0.13826325004981965,0.5053259404242223,0.2536813335183911,6.561183179034628,5.151235265495671
2.594365779914729,-4.532138585398503,0.3788884778854735,0.35446625375223195,-0.27809606884712235,0.7720268510124948,-2.3044305367534887,1.5448032003068037,3.390857725809572,1.9034804748916427
-0.43426344347448087,-0.9195846606113375,-1.0187077736366423,0.45240978568124673,0.40344043150235653,-1.77856560375948,1.6723758417593106,1.7519641155402759,-0.2590261018309217,0.628812842994912
1.4067702472216679,-2.926454865302318,-0.3950943222052291,-0.0289166760295051,-0.5794638046246916,0.42140272034392023,-0.16580655238309663,-0.1384615588547951,1.1957863014134662,0.7204145938831702
-0.4835425930197752,-0.027970760893910644,-0.16910900601008655,0.6966729787302902,1.563291846402922,0.1121526671868055,0.0975254239801173,0.238308936617553,1.7210432218406515,1.5596161549862044
2.0311924510966937,-2.164916821017172,-0.8198624713972926,1.039983997935985,1.7712727110203619,-0.7921486535371611,-1.76015061885695,-0.3871181272043546,3.5717027890711357,1.7554290234581673
-0.27043455076411027,0.9147262802989942,-1.3474740237089624,-0.17318042054623092,0.11734343839668426,-0.5194287581948295,-1.5941910447892855,-1.4147710403118723,-1.7924757050822384,-0.33245762322757344
3.14877203114626,-6.945718107163135,-0.6312322604940523,0.5701857422158055,1.6154807429324807,-0.4752279686041513,1.4414137711080441,2.898411583649682,3.647235637553111,3.5551823111972625
0.893044506339997,-2.4566425712424036,0.009302621695633683,0.022410681881033383,2.8378291372706164,-0.060288752304268556,-0.12950596114694837,1.3212244792822467,4.594934285922607,2.959875975265918
0.5654926381394925,-1.0429334961246803,1.1260973657393543,0.837507610957509,2.129854695561082,-1.359446243253407,0.7733978528575828,-0.5690990239135894,0.02615039744073433,1.156531125105098
0.6018822556854979,-0.5999287613094594,0.9196387143154908,0.010845507900201522,2.468485978541746,-1.4473329731873077,-0.24763746912355356,0.35279892550054687,-0.5170753444999237,1.2652736284444028
-0.029999821792647707,-2.279766017966673,1.1790063136380735,0.5088848731344816,2.0188095487850535,0.4673107766152338,1.1479422204848126,1.7394346327567953,3.778624237100365,-2.889448255815072
0.9123414448775427,-1.0089038357587479,0.08551041304148867,0.101488233774737,-0.7309422140224641,-0.06155424020329922,-1.61357615515907,-0.3413570648508751,2.584502547584371,0.2996532861762465
-0.7171571776209036,1.787186252269922,1.28857837735365,0.2618570181524414,0.9565723817289005,1.4137090865325566,-0.5538306804700455,-2.658496554149624,0.870573425407339,-2.9228364377840794
0.28187487792630295,-2.828602279297295,-1.348222372360798,-0.0903496545763836,0.7712104768723844,0.25643204834839434,0.2395314001075142,0.3188604799243189,-1.2199335412239398,0.37619161763228753
2.615443700371031,-1.1352764394298267,0.6535355263969602,0.677099622021667,2.1923242549712265,1.3464312499463924,-0.40178338703734195,0.7072713886055991,3.6572140648986005,3.152714701379246
2.1064784104944785,-4.7468105659868565,-0.4319195307242409,0.5251166386358394,1.255130655505813,1.1148821522760592,-0.11366132009244621,-1.1291192997421655,2.1871896018373005,2.518577747371775
1.017589381938504,-2.799928681765147,-0.8499843602443019,1.2325250857494108,3.313058144670384,-0.23921368264207726,-0.6819026903928891,0.6424743390797454,7.019168808143429,3.3966411306102033
3.3452451031951753,-3.132346889442585,-0.4796190299323751,1.0639186069100772,3.202148336434952,-0.5844087154948496,-0.2694993878921761,-0.8398709500040455,2.512457325852325,3.521418352590452
0.6008898637972493,0.20281178294895275,-1.168152401231086,0.4950078462949046,2.341406531960974,0.45128090501521256,0.2470829914533303,0.3367748331378281,4.328736017698844,1.269509225561224
0.13411803871296568,0.45205718235323483,-0.5120916714276025,0.8635077192578059,2.9275106303068563,0.09030714419764768,1.8491285314271433,0.07007874190310924,2.1311100634352957,-0.5393512293732734
-0.682383570381172,-2.7711001145165715,0.37319972261960804,0.21773445665043456,1.4295325739552127,-0.4114795141252548,2.5468592169512827,1.338835482728467,-1.1462583029502156,0.5439853964149314
2.8190700464017735,-2.4955322369818633,0.1277732452865741,0.033757473017526914,1.2424218124210151,-1.295892214517519,1.507385649064526,-0.6128719045733861,3.477274473341702,3.541398861568243
2.0830210259844075,-3.575094864549094,-0.7747380753227344,0.6612587598464503,3.1125073041650886,2.1509627208219206,-0.09344359305961968,0.8508969788530895,3.2855380093405104,5.8984577697036045
-0.677139914153321,2.3069308661263612,1.8889951322657288,0.6573324882991952,2.6568219437540845,0.8691161595289053,-0.0556291527566481,-0.5639505630646637,-0.6589685998418493,0.5633896103123386
3.19224849613384,-5.735902175984471,0.7629900845229397,0.6879109923009648,2.0726037623247433,-0.27609734327809304,-2.143955664947396,1.8239517979761042,3.821791450299327,4.84885675801341
1.526186345066697,-2.2293132394580417,0.3118984454392832,1.0102524928103638,2.8592238645270163,0.5506467348963276,-0.8993494884088439,1.9558608127023585,6.086472529602949,3.1934635414883603
2.8208002553063856,-4.210126606167469,-2.0042454504864966,-0.3390551607941336,-0.6895718510307338,-1.0702822637228393,0.38729334556690537,1.3545589906816695,-0.7896415903354455,1.0187278027443833
0.27255838709603686,1.378293172587164,0.01052816978070516,1.2726635627711473,2.530230376479738,1.0174854994729765,1.0187001846078454,-1.6440324135781035,1.192150618482622,1.6204292590573721
2.404174356304044,-3.5548111260093056,-0.47800269199113476,0.29430993525805227,1.5652104487445597,1.1967093673737028,0.5363940188158816,1.2156289539801868,2.0993384594177273,1.1457925229781782
-0.8857249779275284,2.1944689558130066,-0.9156011978101554,-0.002729242032482744,-0.33300355848776153,0.8171694160888338,-0.4463694689891982,-0.11948946865749789,0.18333486383086983,-5.224636164266642
3.463008299878644,-5.506088364562306,-0.7136388744532514,0.992150598061279,2.9853659822533247,-0.3027647825000668,-0.2515563303788472,-2.794143900092336,4.2485411324956015,3.8789215445335063
1.8162220545427759,-2.918129041919629,-0.44685665356077,0.544696893943054,2.419054807250421,-0.20342712523955098,-0.8116082082687618,1.7952492292963886,2.517773562059606,-0.017123198116777483
0.7786949248514483,0.8912975125147198,-0.5463033721710838,0.009127684281603215,0.9342083220133615,1.3563653201861343,0.7882592717215837,1.9528616357972888,1.671878427033374,1.1363655188799513
3.442459846581748,-5.713175279442936,-1.7502030625010319,-0.17186145260929092,-0.9511680483395076,-1.1501747914586749,-0.605529070346104,0.2709243650218655,0.8933613573452592,3.947342155361484
2.966303408506936,-4.727158773699911,-0.2662589264453842,0.5375493534271466,2.683878269311687,-0.04936895581712414,-2.0015461629143507,1.506630083490107,2.537644377481923,4.976753896712224
1.8456707126494583,0.40408036074622594,0.7895604459476001,0.44001662530153485,1.3668710184204498,-0.48072790478499905,-0.24632811750054512,-0.7157999263271801,2.1207896084503615,3.9920590800116442
2.4464867761789013,-4.111163536075142,0.2407371188467522,0.715560516613246,2.9008787079536695,0.3009831841857864,0.12248820126503439,0.43599217474854696,3.837393139920281,2.6422598157058275
3.3857923926311466,-4.778480019970219,0.19038740086943476,0.21805655767125462,0.22052725222903358,-2.371418609763594,-0.7202649360776844,0.13662029038546686,2.810412290762523,3.5533384832084813
1.5796293134961523,-1.4398314693897714,1.0216109400384992,0.16100272207333113,0.3862544609830014,0.13491047440714854,-0.455725275923373,1.9315155481384383,4.282934642606584,-0.9447092522557494
2.496917871366824,-2.7231017104001416,0.7972342880914528,0.514934722986206,0.4811301224517164,-1.8127049723077004,-1.0309923334856816,-2.7679428920395086,1.3412042194540081,2.3894933678559136
1.0095549177307954,-2.9727473625957526,0.3986068948148062,0.6565725018969873,1.1985882920967912,0.8482074755880511,-0.7132360378870328,-0.5495205591988318,4.821202754564558,4.659464554332918
-0.2679571842285531,-0.7909111862997259,-0.7513417730950167,0.22529506749901046,2.2916887328780695,-0.25229783566896424,0.25101528041262533,-1.9307649377136848,1.1119936221890372,-0.02950541236884055
-0.8109621136404112,3.6195701122407664,-1.198019074529442,1.153134409401813,2.610233579950183,0.7610282292041728,-0.3321634593265789,1.014477403207454,3.6787881633456267,-1.6383376167991393
-0.7599022236975026,0.8888124679472469,-0.37307091588500113,-0.03537718221155551,1.7367293995743238,-0.46083838719216763,1.5655728220174654,0.08281575687563326,-2.576034318107318,-0.07578666045288007
0.6751661549597539,-2.837671438550102,-0.933249963043968,0.8993473141464565,2.6025440599532264,-0.17860094157655945,1.1146351032323556,1.4674710537585003,2.7609007450060266,-1.3109721571645423
2.7196145132571132,-1.8902287756429952,-0.8002690757523956,-0.0643602039402253,-0.10848724091890283,-0.9337194421058416,-1.6916623851612396,-2.359872555660953,3.5177054895213273,3.897562125667761
1.005971659989942,1.361826355008799,1.0822140214072842,-0.2439925405620286,0.9233606396025422,-0.47856845810169285,0.6739717428509114,0.7748786838183549,0.24182100276796825,-1.7013757431598329
0.9193217482205731,-0.6950967270976431,-1.2813783095778535,0.3324197527673796,0.6145122852658942,1.9467982437544622,0.36949197164359093,-3.1942827164361294,-2.3362016494016844,-2.5244199638102987
2.42900020406863,-2.8109594536014977,0.04059561429200982,0.690130461637354,1.3424792159472756,-1.5520032609523082,0.36483368637543423,0.4630589672096402,-1.2611796327761295,0.07804026383376933
2.6605121864802856,-1.5417562044537119,1.0742533396838507,0.5620300718763735,2.5229018822400984,-0.976898289076445,-0.6437093966137721,1.219511700322355,2.342678122851777,1.2363365107812365
2.4559150691076614,-1.932952306190527,-1.531817893989934,1.3308597157066455,3.0297987471897754,-0.4543273654475397,0.9773481149065422,0.5262589774974943,5.605533610203231,5.980659082910596
-0.5532803032413325,-0.7830105119698169,-0.05124322923408718,0.7082460023852355,2.441435381793301,0.313643875106033,0.1871055813420177,0.7110029700893445,-1.1838824716793073,0.461921849290741
-0.9704576660961732,-0.20724256727146612,1.5121789697171566,0.41539439868992256,2.643845271761373,-1.4446546448142819,2.0578544640237437,1.5649607923767939,1.296871644585218,-0.5692236469072771
-0.35086690092424055,-3.290715823447178,2.0403944784132735,0.83521286230919,0.973835604370664,0.6475117550229198,-0.7684972095326297,1.169750698579466,-1.1900764150887073,-3.0555742611394208
0.13681794138464487,0.4968535232000435,0.44230899556314274,0.014605890535172538,0.031307789446374246,1.4083310747338178,-0.9890007878601865,0.23860303758367088,1.4501025812995256,0.23958474078205222
0.30924789355641824,0.17265655366899868,-0.38632180322234755,0.48387144504858315,2.4040799507831725,1.0216814054301757,-0.34755774522454624,1.4626884393285562,-1.0345171934779418,-0.8542063469595473
-0.7379716357851801,0.7334548313057088,0.49547039426397865,0.30480064557040937,0.9217254040276,0.7113916832752941,0.46541828939363566,1.661940148554432,-0.8834831823433201,-1.1921200291244358
-0.1064058911388388,-0.625960220006142,-1.1204612346976612,0.043526539953045236,1.0009896890728727,-0.4928396651726893,-0.7383630890116022,-0.046840102575883044,0.08666237062169513,0.04744492449002645
2.197288276957396,-4.2493864233087875,0.8080462645578496,0.6483623590149713,2.3270987511942867,-0.24568686238459583,0.010883176177704804,0.7747373017244329,4.603879427333809,4.557869876257433
1.091190370298058,0.012058446129880189,-0.7081495881361844,-0.559634010055263,-0.3826119512407199,1.1944489655023112,-1.5988183431421295,-1.987852810420435,5.091859727584291,1.1897097733222095
1.6350611771922758,-1.2424412913304395,-0.6925914769672086,0.22311406247505325,1.6415299207082077,-0.7580185253942535,-0.8711930831208501,-2.4032465402108767,-0.8204410745323957,-1.2426717505784555
2.885087062160094,-6.857494120001356,0.560642194250003,0.07154248290578716,0.4682484711013162,-0.5458549699933837,-0.7800874904666708,-1.1562067111128234,1.334970527851441,1.633144332818159
-0.21310550569589648,1.9630238018271922,1.1248898034638444,0.6534168764637507,3.1241883313935555,1.7583470344343302,4.273346626172065,-0.19561503354132265,-2.3327331339330213,-1.8565262933564757
2.347846262992742,-5.313377376280697,-0.3820646971738966,0.38750083488306747,2.520129703205223,-0.7895287583934687,-0.22784446100633834,-0.10692356485203172,3.567165392625483,1.8923071838130858
3.2352969036618067,-5.205014640918204,-0.3201750317461136,0.10565849469280293,1.1340612484563959,-0.4151343343833648,-0.31869449799171096,0.7213782229568839,2.405954468863091,3.748098794325711
2.454074388383559,-3.1357139660016977,0.5029225930113169,-0.12176040896227772,1.818583228457805,0.048740454349564755,-1.9221356531690814,-0.8812269264470104,5.391570814535999,3.719477046930689
2.97452833657558,-5.454229627525094,-0.38323351192781224,0.13221623209521355,-0.36839333373366545,-1.2304823184394182,0.020313007534127743,2.0627057156942823,3.4277463180092167,3.2058766728977113
0.558909761038721,-2.2390834957657257,-0.7101079450633627,0.5797626867478718,1.7585192292127005,0.30155750767164186,-0.4734305995958797,0.03226513828660925,2.377189142051363,1.1864832833044396
1.0982914004733582,-1.3263277019142714,0.6822723055375377,0.38001055115614096,2.3936898862169,0.016241436481403415,-1.1210520206374075,3.805423435020101,3.469091792710633,2.8620654422396608
3.0925914566808217,-3.9540597383633798,1.0581061678318715,0.1830282291202258,2.039097455948381,-1.0579204078523443,1.9583571544724552,-0.08373829114968295,1.9850612907761067,1.4807988262725629
3.2472866526693727,-3.8291928145169596,-0.8890778425079915,0.8964150126434096,3.376274585152334,0.11786663627839389,-0.6700812068746786,2.1440080701235424,5.774129300983301,2.959966359483678
2.4628602558055097,-2.9093579538263605,-1.0414058104730453,0.19276170449011773,0.10559675375194733,-1.8557325531581943,0.03895827983852033,1.148702250165116,4.19795695343389,2.489243116756578
-0.5597155437483313,2.8983529567296853,0.9507035786468421,1.0236359074592034,2.8276179524223632,0.15271037535068144,2.2994741071056537,-2.305202407068744,1.408621109767503,1.3293270071540977
0.6338879161936275,-0.5081604654941583,-0.6568850841890432,0.34770599326609486,0.39258222332417536,1.2522962838533285,-2.528949942349416,-0.8767049257677865,0.10664569301687588,0.29514489282000467
-0.3558621063723071,1.2704521660202297,0.29259815825931634,0.24963760484960837,1.322990039494031,0.012689628135501119,0.3230172728068006,-1.1757555083967743,0.24971756479956198,-0.9331142470450191
-0.4656549323442244,0.4614100451999272,0.3731127624051718,0.8065704866541029,3.3823698759129863,-1.520163013574797,0.4349249530363688,-0.17277391611937234,6.108790940208148,0.3190739081458389
1.7324658023878907,-5.493961471766364,-0.7137414790756327,0.9945453254326573,3.317208792999118,0.004658915943361541,-0.5157362312719986,-0.47274927078383466,2.112715307993951,0.4743255190294365
1.270553204762383,-2.5220054231325957,-0.04201421296022912,0.5282164068482611,0.43878402418940765,-0.6268964128726568,-1.0118733435534186,0.5449735364524573,0.07133994904337859,1.3010240184877215
-0.3288239715448563,-0.4581385514410508,-0.8400387671405458,0.754494586365506,2.2389359462002068,1.4649381414638951,-0.5463278152686487,1.0944418844894783,-2.7241091792489383,-1.8382058398361638
1.2990823185242397,-2.4953920941414243,-1.6111688488465064,0.5892816896889829,1.3826157660992386,0.08247759811566281,-1.1031188293113918,-0.525238688986575,1.2249198129268168,-1.131008111026801
2.620605850907774,-3.8279540036347313,-1.6303563129658105,0.7560886162475894,0.4131980428863409,-3.0122285187839206,-1.014983689572083,2.197484010823838,0.6060210823035928,1.69655231534215
-0.08018879264422707,0.3459231507695971,-1.2531023235878567,0.3255259302237672,1.157475949055415,-1.007862521017682,-0.13599756869313862,-1.887016053545731,1.1578792076874982,-1.861110183557284
1.27342262651438,-4.332816341819665,-0.10359768305527307,-0.4399094807821806,-0.6445475511016634,-0.09754002721938246,0.5922299324010755,1.3685065878944465,1.2160912913412758,-0.03729525619291918
0.20023380829001503,0.8416451371060667,-0.9237609838451097,0.6368238369136163,2.024841023237486,-1.2688174285098899,0.22210860187349873,0.7537695141508621,0.7502272153678955,2.255164125402885
1.249486026777808,-0.858594574277269,-0.4713442000817668,-0.10156893167836857,1.1947567314010263,-1.8273556359954444,0.263197596525552,-0.9292406035226385,4.548558843753416,1.9486543471704534
-0.7044294223824374,1.5995339727267879,-0.10831454140586319,0.6757766557862936,2.6233636367573157,-1.349865892585653,-2.1314809680486917,1.811259246473559,-2.7290036501596293,-2.16541330897416
-0.07197622618677224,-1.9287516916679108,0.8057547472768309,0.8003673047921195,3.184833283039228,-0.32514786350341746,-2.2666084554055566,1.116082307500508,-0.6782517150137224,-0.6267005684432532
0.6137680182798941,1.8782960926787393,0.11259155451423358,-0.1686496971917974,-0.9671670704389257,-2.56062831970517,-0.40125308622276273,-1.3455296469308307,1.2226885353383872,-0.18876359271616275
1.8364278096423288,-4.942609803776272,-0.7779096789412628,0.29128230152558277,-0.1601046475812754,-0.6666973900603845,-1.0439151407526301,2.260572219264045,1.4978376556913522,1.13322600187803
0.3332711993282793,-1.7345541484661773,-1.3445174036229723,0.5230869218742155,1.166147427781985,-0.7607079833728011,-0.738232693590378,0.1542423630865485,3.7739088820219786,1.6139678918345362
0.6479663893335443,-1.8437269849154228,-0.3904293500138324,0.8117258849392243,3.007382933166749,-1.4621437830384878,1.3832644976869097,1.1869412778407598,-0.6374430381317752,-1.49411549567565
-0.8333244864579602,4.287530757501353,3.1189903299673203,0.45465955071677666,0.32987138471007404,0.9780094562113331,-0.10674422389567448,-1.4156082474277831,0.5212562388316999,2.032961203638771
0.34038861946006627,-1.5566706894393283,0.7363000039004278,-0.10868440528423673,-0.6401558648588723,0.5823059924554953,1.0213388267976848,2.131062447651783,-2.7223699000602943,-0.4226749791647191
0.6711352769148466,-2.2477338711035637,1.3952294784795676,0.08370224967160339,0.39710312400020875,-0.42273638372124256,0.24480099883404396,-0.4259663828967758,-0.43317690172935364,1.9221416479823636
0.026305691221685246,1.0814596751874137,-0.5360652479879847,0.620889466769739,2.823532829523703,0.03116225684297281,2.4660216846346494,1.899869218347246,-1.3816175126366461,0.04962626486853938
0.5821117087072532,0.7471741006988945,2.1313762421579114,0.19188569720432527,1.3187810498071353,0.518943585901508,0.9604111771080002,4.062671461999252,1.550450395665956,0.7265554247746067
1.1377794941186448,-3.52598209379815,0.3892876393086448,0.3088523027799031,1.0018616110750465,0.49483307474228405,-0.5044186624111668,-0.40582377269262326,2.4383032300949297,3.6570648928452
2.5628155119978797,-3.8449321070080793,-0.8011466522609082,0.36526462683519556,0.5732420069203257,-1.4658402983443826,-1.2687696654391183,1.2663778720059709,2.8112600200597813,3.0284228199885006
2.395794433647586,-1.8167681579223718,-1.38896284991996,0.5441953749664019,3.1842736218880185,-1.4773976127305888,-0.12510977259035325,0.24842009676416626,5.271905915724982,3.182383432454218
-0.3108528067670522,5.364396539644282,1.4205426967400732,0.1670986246132783,0.1600513970248687,-0.055347630555025396,0.4025876319304798,1.0491726477401322,-2.9715676853338184,-2.4646418982165597
2.768508761874997,-3.616535690017766,0.3618322662476758,0.5864097680652146,1.953981909032731,0.31793432801083804,-1.7476348230664867,0.6635636789322814,2.0474882568864157,2.369673442662129
3.1692873766502183,-4.457839052522013,-0.3821655899379454,0.3195075099333826,0.6868306900992147,-0.07126038632614029,-1.6955168360875117,-2.1675797172188123,4.355171873335843,2.2902125799357624
1.0371048176531854,-1.7131315721843146,-1.4334049427584745,0.459645555519218,3.3328609182760545,-0.8724445650184867,-0.6858353079110034,0.9390527050358646,2.817807361225756,-0.026713590877938564
2.8459013182203896,-8.887744668691933,0.8494997882829054,-0.10396815039730488,0.19352071406976923,-1.3627967027251544,-0.245014425990323,1.962347465226881,2.017140873188856,1.906855320589388
3.3702343091622664,-3.9429016583875396,-1.0978192300927714,0.19347563209383428,-0.34847223672679006,-0.5969819315475243,-1.26524639997321,0.1320650957831117,1.7302738121357806,1.5639096269566575
2.305271373242619,-3.401987208615912,1.52197712469796,0.7367678020995374,2.178737643392533,-1.8622485829645723,-1.2720410847875046,1.2410582249411215,2.5157294102246004,1.2227390048379445
-0.18923225578943248,0.8611526380731228,0.7630040350902326,0.005803306305755165,0.7678306882775094,-0.9019128749666248,0.8540511506822,2.876681738057555,1.9728855303519857,-0.5158649371853972
1.2887056030590731,-1.315206730504191,-0.24797063170424688,-0.3390843587007841,-0.7999785070266691,-0.3571591455373224,-1.1486845436042594,-0.33613400315213665,4.181447509962071,1.4587208643381964
1.5878859157424623,-1.5095395860328549,1.538516920444125,-0.21428754221406102,-0.27773792637169525,-1.2217908141172564,-1.880442227069147,-1.1301745801380807,3.4555175209205102,2.2597455941860765
-0.6633069773958122,1.7114107583804938,-0.05686123859239397,0.3795034807152739,2.0122952427671774,0.5906844854572015,-1.3533876837876628,-0.09150610188949948,-0.28445100494102327,3.4572597317972544
2.742292620448018,-2.7237113401336246,0.49713174222373036,0.5286714347693567,0.3162818345598555,-0.4683521883067606,-0.7768591029273383,1.0057219110037448,1.8279835030598788,0.23876997224088958
0.6474829596349283,-1.2476189256928567,-0.5027333224149946,0.7591917908012858,1.966696800480792,0.32606354391336967,0.18906722150965707,-1.109715724166275,2.10890385749278,2.54564099821307
0.856213142279612,1.1984180850761659,-1.638217001080603,1.0184960689017941,3.31931389474789,-1.2363525376953586,-1.989420894933429,0.9035704144167622,3.249140355235596,1.3136161655740846
