x1,x2,x3,x4,x5,y1,y2,y3,y4,y5
2.586658892865839,1.0165798290439318,0.13998662460356762,0.29878093355994184,-0.2774193463566239,-3.5685478414047305,2.834766306281255,2.975159873990884,-1.5986210569146548,0.41674060107854743
2.3665319407048275,1.8958891116009378,-0.7216519545324478,0.30578875020902196,4.385747401511079,0.49901139869721445,-3.973556100168078,-1.3553278234140418,0.6271084240332613,0.20720172442703075
0.5092327854154439,1.2391398230230979,0.15792209614567054,2.7318488497532782,0.3503499272361858,5.911268987136774,-7.708946137800133,-1.4575734578272181,-0.4203293433202739,0.2505671975964344
3.423670670351152,0.30074832694789677,-0.8351086841684143,1.7302894008010656,5.740319703326717,2.13536795136365,-11.88448099407115,-2.0339701308364093,0.27528439218497214,0.01771612311056484
0.05278558241116715,1.5894149811205032,-0.2821120955198485,1.5915964842607528,0.8361488387867221,2.7139140707520335,-2.3746663115681628,-0.7566559529914438,-1.6319817580890574,1.0204885828347523
1.897528435132016,1.856653392982944,-0.28581989109559935,1.5749127098093192,1.8066994599135067,6.407971136341915,-9.991657644844848,-4.898202489113997,-0.7894356432484021,0.7064599091386872
0.6291388839601062,2.0447824394713594,-0.0052974858605603905,0.8439763500154596,0.8151995138121501,0.2551044089601233,-0.8069657966906517,-0.6273644735914272,-1.6627093480742183,-0.05023181442929373
2.7896769275938746,3.3776839387279756,-0.010284859626992852,3.2347151603847593,2.4092540040502435,12.98177245362784,-18.243540539421883,-10.164172199128547,-2.0476723093373446,1.4988931746402738
-0.053442850762574046,-0.8728680945624817,0.12381524050968985,0.8821918938494251,0.6001512273307333,-0.7218132678964262,1.8938058478080737,1.4129156927306132,0.9152972955979848,-0.7285390143158227
1.6091413062353501,-0.9101182152514734,-0.32815858965088995,-0.19205542788085295,0.6177148349573136,2.3280105910072457,-2.383888231777083,-1.9229772545785995,-0.6212266015130772,-0.224804694538052
0.1708684657313897,2.920727349067306,0.22488933614873782,2.4262234036081765,-0.004281698263980247,5.493635367289025,-9.278988339885842,-5.271881776710644,-0.9780773636364917,0.7874155497623734
0.9079358064312213,1.5844267448056994,0.010578629208710319,0.3847344731853628,0.6606057238314933,2.591988927520913,-6.395887652384844,-0.8472862149602778,-0.5760979514861414,0.2004569473195952
0.6825037410328654,3.4543946194092747,-0.09868489235057132,2.0118269726026914,0.9429873186598283,9.429100915557962,-7.05706940766279,-2.2869760688860175,-1.8096570486741341,0.6489537326863747
2.7482322609459864,-0.5340304007558409,-0.5361246437264466,2.9113198755831813,3.1645516035554477,4.800729001653153,-2.6234398341119842,-4.784658785014772,-0.09311607471697443,-0.09635133623106909
2.145299740206001,-0.985385750780424,-0.4460432588189562,1.9798882766936718,1.8634914703677468,1.3137624524829945,2.3231043387353365,-1.2930604114302033,1.7498566456939377,0.002523477745566086
2.1534105277791378,0.911345876258413,-0.3416263422126121,-0.6161137977028436,4.647911407984969,-0.971914306431841,2.8861289081730037,-1.4568125646543542,-0.8690379683919213,1.0546902517559595
1.3392663486573677,2.059683604708537,-0.3587011309795414,3.1202528155141502,4.430079855627942,2.714906445288355,-7.828222196148876,-4.032343415270416,-1.5362114894525325,0.7996277504302729
-0.2629247855502843,1.2942484165384691,-0.2696258774215381,1.163183831324615,1.0445364162659565,-0.345174430113663,-4.107828589576889,-2.4703345829217644,-0.03513039909116289,1.3119049934076805
1.2106883335320866,3.3794749575326897,-0.261255906751881,-0.4899530726371222,0.003081473627439713,-0.7346369129611945,-5.572998078351405,0.8308698061480617,-1.184951611391196,-0.10478560304009077
0.9896316763689337,-0.5036380479434566,-0.3463721409246815,0.05104413830929322,2.4227937231522594,0.9088780645708359,3.0485706237806265,1.165714570247954,-1.363765103223744,-0.31078125477425195
1.2095013117195608,-0.21862553053448175,0.27658299280338033,-0.04865334663190457,-2.1106650623779126,0.16522863847236904,-2.103489412965866,-0.10087002601753015,0.48477306686861027,-0.29461990033283975
-0.45751250693170453,0.6592361700845357,0.4167425720564045,0.36134264317206344,-1.3493327278814296,1.0703317353598998,-10.042600043438219,-3.495709161631613,-3.3336820116953425,0.7920652273403727
2.071247000164283,-0.5426667122720614,0.028600779617963756,2.9830214614552486,0.7824937984693173,4.673047438935264,-13.69567796141083,-7.2283704454177835,0.5892310865571376,0.5575877139439687
0.25070726757371053,1.1807882849692,-0.22513893024702958,-0.7320517836191429,0.8923443337043124,-2.326799931032011,-0.231586576336839,0.07788550682570194,0.9711643294553393,0.2460745377842415
2.5560964488846007,0.6426150266138659,-0.8877679788129305,-0.6309379032618213,3.7319283985798966,3.287928373519576,-0.8092670019949484,-3.136021160017829,-0.32419555148418155,-0.2906855348752717
2.5894954416286566,2.3703990041995335,-0.7081773704845326,2.3426330497640926,5.029216091565832,2.7662894004006784,-4.274473842785555,-1.561077092362061,0.36987512293380886,0.008367914183854352
1.3101720566776849,-0.528011630268625,-0.21562708446357925,0.23524135685710146,0.6898475214039205,-3.839631447415685,0.9482090058077702,2.7602886343080466,-1.0547268793034716,0.40320846545956357
2.935196203752269,-0.5682031576512978,-0.7307861680478582,-0.151258686257153,3.893274177741552,4.13287680190882,-3.419071704751622,1.2545085558670115,-0.004026909480363328,0.4160298477371791
-0.3036122047413178,0.5750064157083716,0.18197926883923765,1.4111552794571396,-1.9887486679781636,-4.568750592987984,2.504265899172049,2.8131860856563184,-0.25467340248795456,0.2431324303976264
0.9215976105328814,2.136085811191801,-0.4954759167049903,2.3542953512251255,1.593567017246819,3.188961909833006,1.9594088689094258,-1.660672228311972,-0.6203996877363693,-0.4191594127800669
2.38716693166774,2.487921083285203,-0.28691194268843917,-0.5767987284383147,2.3167608694498503,0.636122690540659,-1.2674126155971466,-2.957835945976965,-1.3476071003978785,0.08375875482741098
0.3077992918949497,-0.7606187787055978,-0.1864971202689614,-0.4968201980470077,1.372623950865881,0.00819655770490374,2.705903184067581,0.5807601780070735,-0.03913025141072113,0.7519339626381526
3.4606407095474285,2.113237986463677,0.051566113633955475,1.9603780386378045,0.22015736644131056,-0.07613092079309125,-7.912223160422995,-3.331644363528365,0.05761298694431982,0.4065423093609984
0.7594131870484919,3.0900743223411737,0.06943498891580735,1.5040799716108793,0.40816975296893354,3.975761157079809,-4.458518775096887,-3.143547673941628,-3.435502369208775,0.5506696927389184
3.122033538232893,0.8723391457073466,-0.6585987700039379,-0.4420155091234582,4.360628173800996,2.004683215942627,0.24755512513363653,2.6414265931642547,-0.501385321711527,0.023500758256923018
-0.5215724594344333,2.1709423161541364,0.36509106567965327,-0.49611891686793064,-1.1227789780261048,5.916604995635693,-4.998051458144355,-1.882486496630344,-1.3314385350773699,1.1136123732059213
2.044659897787648,0.9364665423032448,-0.5229364872016202,0.7951846353683618,4.814763827621926,3.730251126445805,-3.8511846517147292,1.4383935775051697,-2.827661345045711,0.34265921054947707
3.1367279876886585,2.29726552765075,-1.0451264140827574,0.9295385655521313,4.813606743071185,1.742923227891293,-5.701911495595446,-2.3733053485406344,-0.37815587699702,0.5386511225152195
2.7160109591328117,3.06347623100275,-0.6438207439549098,-0.47884699315919355,3.63030876819618,2.5259162445348284,-0.48244896571796914,-0.7912915625820657,-1.2729625203429515,0.5487460251745273
1.2244639160410071,2.3774494408590643,-0.2520814826937881,3.015518872504585,1.4041276123005995,1.9592323282507824,-8.35806099336517,-5.915294215090021,-0.5559228269571173,0.797387261957597
3.2298464216533596,0.13392254163086603,-0.4012947996217823,-0.3363077829664559,2.2644502744602693,-0.07252097028402416,-2.1555025182343193,-1.599855683415026,0.7217443631435077,-0.16675012472068385
1.6678976137649664,2.097729929433495,-0.0744716325353783,0.7410773080698079,0.48187096585770184,6.819373434015635,-9.180529372217638,-5.784227698034698,-1.767017992860805,1.0121618310948384
1.1807527085553629,2.7139007133556254,-0.45153642376324876,2.3065884255571323,2.6257924902185894,4.902054085370764,-3.329172871020072,-5.6577337114339,-1.4215030111140434,1.1452104453641074
-0.2042967774740142,2.4589906175637655,0.1456791159458133,3.2468798345500396,-1.0791597571150853,4.8399706821929955,-5.045955319420837,-2.8277567280275657,-2.4470108054418582,0.20320150454551394
1.118694060361464,3.003575357955005,-0.5396237638200683,1.0170036001209808,4.2820660668073005,2.670089871348193,-2.278399071968771,-1.6298547523455855,-0.47991493065303903,0.3300924000284885
1.475714003508183,-0.6849826153098324,-0.4834229643248563,3.067176316445628,0.9890808709162475,1.7707224791597649,-6.7174596586726105,-1.9612972456067626,1.7706285752102828,-0.4300545217102695
0.8091089297895422,2.324849953728976,-0.6342702252192033,-0.11257529507242647,3.1737761986433255,4.239211915781109,-7.458325953765018,-6.18744244933896,-1.7038548980018366,1.0908523079893586
1.08779614178576,3.3979694108738814,-0.15864402838465533,3.1244169940399598,0.8178468198129332,7.5288084302334255,-12.704537986796428,-7.761898767690154,-1.413489890754529,1.5318932698015555
2.914160571690138,1.6095056801365155,-1.0887922756976185,0.6971039244278845,5.190637089258032,3.517472135858327,-10.427610605484944,-3.2745535332172686,-1.5785545538414802,0.1170667629860365
2.274095739410669,0.9524610766239789,-0.6327243307561681,-0.1434721468598934,2.2741944298898624,4.131877770639495,-5.176544008949935,-3.306686829838475,-2.312140172613935,0.04941459622983881
-0.8677744232473756,0.10774492318641804,0.22442028210365092,2.1078105952529183,-2.5230052836008947,2.383846695543869,-2.8113530396610003,1.648160840611938,0.9565233386254767,-0.15752111378716668
3.1160675923562353,0.3930536065112973,-0.6070704251357641,3.3909315808802605,3.9093656078154475,0.18491103268689302,-1.2668248618643898,1.902059232191945,1.1171220715441146,-0.25178066329724924
1.3712543149177137,3.042118414392931,-0.4412988535886403,1.4213192200371334,2.3536673966035337,2.894357746904019,-7.409742064929337,-3.4792384641945544,-0.06325604384744354,1.2627620119554668
-0.16460443270439828,2.528496869845769,0.12328284208914073,2.6263057776173864,-0.6890890226756765,0.5514005559665844,-7.454941942988423,-0.36918369292981,-0.0687968865248012,0.8573030754332079
2.6395329985829075,0.1346649983576398,-0.4727436780848974,3.4268895557093124,3.669839928188553,3.098853841935652,-2.2337600845104566,-1.4952780907719905,0.30699928908029345,0.021725258702617635
2.950327172540498,2.688289775321525,-0.6444527711560659,0.08842296483342205,2.713179384230479,4.271629533706204,-9.831449111511173,-6.240736117507164,-2.8092773712270613,0.2157590525118055
-0.633142484389851,2.5642649704287996,-0.12612301948072852,1.93078348257106,-0.25139969955942093,3.69497942508086,-5.55971588398555,-3.6745018422378948,-2.476618506650443,0.584712945537496
0.6757050426868638,3.0939540186224868,-0.33243646209997946,0.6570008399976186,1.7167244606164076,0.10847265164248787,-5.649088975466987,-2.0974966150626786,0.14206677925199762,0.6682177450301678
1.6037444823930374,1.4380901573475553,-0.49605299834602845,-0.1907710287345734,3.1049359672596553,1.8657216389743843,-2.6651299783159432,-4.8437000329346835,-1.8422512638936903,0.21418204630581916
0.30526207768091296,1.159433984240997,-0.0727078828538046,2.675823324964853,0.7489033160362317,7.474865443257406,-7.476929486689352,-3.4183367587493083,-3.0417716554877114,0.19189778249588574
3.450361147909474,1.0842189056973242,-0.6530345093260533,-0.5461738905349427,5.080885868010533,4.282898538740513,-6.521783967673839,-4.251555072759757,-1.7507339108384015,0.10127948903198236
3.3469270253624206,0.6436433398042809,-0.5167130789452585,1.6412570952084273,4.269726376540346,3.901333794790506,-1.306388516927231,-1.855537903178198,-2.251518391418959,-0.22544403811755867
2.100546711888758,0.8797525563376927,-0.23656687797906556,1.2028233484714304,1.9036322752353236,3.1182746697380774,-5.020991442602527,-5.553799048295649,0.43170902765459007,0.57971342021835
1.044085972922185,3.015764661762529,-0.5432036053641598,-0.7446011004459488,2.61663174333274,2.887273641774039,-4.087427551004563,-1.4752120120872134,-2.536838075541639,0.16547748954933336
-0.34878248490872954,-0.7186445535306378,0.020837254033216297,3.381327433680606,-0.37194850204468116,1.5176195615949368,-3.5643374907487453,-1.1938236222827132,-0.4451342765850137,-0.098572252747043
-0.7657743347429796,2.9261213325738695,0.1646745757482024,1.1121778776620723,-0.9551536815946671,4.01959754068503,-4.834012923104911,-1.9987858118373927,-1.8001751974828348,0.20378902481210928
3.060056598897474,-0.4224255081366399,-0.8390777104685652,0.7246832598864899,3.5637179961091174,5.6610803362653765,-6.353970306637036,-6.083063547186342,0.499170222621631,-0.47667680214131253
-0.14323918746704167,1.7518363221169828,-0.04393754552406651,3.0920575848185816,-0.8238922776964793,1.7176180555448721,-2.846751303392197,-5.025400127016184,-1.0447349921132765,0.2573480742806945
-0.3591083091542633,2.6857927182301347,-0.34173739975375433,1.935766821455624,1.2920823357103597,3.2535037285697483,-10.383930012019299,-4.772740456345381,-1.0681502731255992,0.7358237339962689
2.3576632717194315,1.3239858331180998,-0.20186692198965292,1.9103190125793876,1.4728868394117502,3.672473022093176,-5.841755726107932,-3.6376590886813407,0.5849741745586724,-0.6701490322230325
-0.5517748063397845,1.237724852847208,-0.11013203988664401,0.22223167706489466,-0.22751964802029415,3.025795966274073,-10.110469025823331,-4.817361941864562,-0.2937583601457596,-0.2712305006368373
2.2980600046592476,2.4468709965809397,-0.25042512061770716,0.5791023418568657,2.2324264056926424,0.2618605268448726,-4.136858960590545,0.4632048771590008,-2.5476066225054255,1.3145678338723688
3.334769735565578,0.2074227940653508,-0.8938951267087584,2.3212915184874965,5.073153825163069,5.949949696422397,-4.911668053651207,-4.5363239140208265,-0.17354141268519513,0.01816101765243627
1.8509463535417972,2.6399073230528414,-0.3671447071199431,2.1706699861351786,1.5743747418156686,5.134354761819479,-4.793278303181318,-1.9318250884920012,-1.2761826483010887,0.25352381540225966
2.9829610648933227,0.3093710126315463,-0.27289242837576516,-0.7215087778753266,4.027952218645697,2.3485841668210465,-7.8322944187809185,-1.2198000374813724,-0.34164649828315524,-0.4304941991756673
-0.2821125492889097,1.3654457134750984,0.1317350204509864,1.4571252527965446,-0.9032660010803218,3.35288139484595,-3.8813047317379916,-0.20348134063963155,-0.6606112661651415,0.20695116679701145
2.5130682017192867,-0.6725509528511863,-0.596935722302702,3.387409584368898,3.044610426452882,6.1285703592554155,-3.8513990486366216,-4.42640568724833,3.607528652372439,0.12443796086929124
0.037394553630571314,3.147130817102208,-0.17087040898852218,3.0442912090224175,1.1881509220927473,1.2792848288439458,-7.744046213703239,-3.864499980101245,-1.4169326787922163,0.7027574238264893
0.8666758096929046,0.2915658087889397,-0.29908702488813754,2.843842842125594,0.9790885116018331,-0.27580332727532775,0.4305155018552911,-2.530342180701986,1.269215533546404,0.7765556132054996
1.1047625310219216,3.1478148424937995,-0.12297674672074949,3.0685522321965015,2.3200750981515683,4.2227018908949985,-5.453023011034068,-2.956891231735078,-1.5344942818899032,0.7054417359538054
-0.2926984364830457,1.266378710959624,0.30823602411671275,-0.22388116754449472,-1.7530381883474104,1.7460226020981595,-1.7100875426753501,-0.897750318820359,-1.6476610940018444,1.0128139369069822
0.9794411618916259,1.897682193077551,-0.4691644844570486,0.9834622517168918,2.378978368711786,7.470029302225922,-14.496659389456777,-4.636586158893965,-1.38928359289351,0.08343848762730384
2.7849024206396726,1.2841050619987815,-0.5015722317305197,2.544082803878839,2.52347327633059,5.971230948924237,-8.265596811829049,-2.363862335480526,-0.8690029221227429,-0.008457218016912533
1.2740986640178735,0.5934177714144979,-0.05104676426567055,-0.3948882356855049,0.9095017570210122,0.6362951101844373,5.6949996451978,0.9863751700352612,2.091835158577085,-0.18500823158609125
2.5836468054098067,2.548577513192523,-0.40012637255383865,1.0149699745774012,3.1643571300215054,8.18012522971037,-11.872239865801506,-7.002103290417689,-2.3323493377953097,0.9176974704034219
1.15129840421329,-0.8621841630336792,-0.09549133990018577,-0.267965998168194,1.7051084584207914,1.449606537772545,-3.173587966467161,0.0021021854769167625,2.8571911404834767,-0.09884180343517462
1.077934012739735,0.3181747948914524,-0.36874772902978853,2.8546771536014424,1.3186675422181668,1.9580300194730353,-8.696375016161813,-3.3966481518916334,-0.31761342308400137,-0.0555950571116282
0.14863738463585507,-0.9733220224896443,0.29927464273344784,1.4175883364212907,-0.7623288360058682,5.022729261350443,-8.779155349210875,-2.7471189306132846,-0.15769243628561597,-0.10798273300368062
0.10232867429920178,2.8772987355028796,0.05536020209195883,0.8949320432522898,-0.6640557366499241,5.068031978374368,-8.707331172895106,-2.507359287789489,-1.0878923440238513,0.4772958554550441
1.2822866521564902,0.6512022746456527,0.4240156575954225,2.46501833992141,-0.5172843442612526,2.6158838816862406,-13.598876221646426,-1.7392739864517062,-0.05229391405633712,0.48298978871035825
0.7586612088487916,-0.7347996552403775,-0.27110621032128107,-0.7210447541748511,1.6044666796135691,1.4305383536247684,-4.464009285320853,0.6583807867562357,0.47876326162472876,-0.43971635396828407
0.43234111802849995,2.4456442452769696,0.012435707543058566,-0.7638382967905699,-0.11033195266390422,2.9406474616479104,-4.881833684044414,-0.7825004024673414,-2.336151090878249,0.7618431927828176
0.4708690368955488,2.9306785202906056,-0.04645004649395397,-0.47955643248413815,1.118183256413332,2.102395813468995,-3.3578019775586165,1.195063248052567,-0.4141548281643441,0.552905622692018
1.4219167672940918,1.0685796892177968,-0.20908366001025455,1.6426173043790957,1.3131353091432754,-0.2902343800014946,3.374714516000173,2.3839224120411235,2.788563481981954,-0.11298664852538742
-0.7954066356123211,3.3546112100064587,-0.0812943405143325,1.7222347012777148,-0.16556182204052025,4.855716257732732,-11.066534821141651,-4.439104534034317,-1.5716144565071823,0.4086996137842462
-0.8840887062493108,-0.06755679613557919,-0.08510831925347284,3.2174233607113925,0.2929851775266274,4.9401044718822575,-7.832843633565297,-4.460364249043313,0.20993982138633432,0.8843287140888894
2.193056524505074,0.556775181284062,-0.0555500205402746,-0.9129564731654015,0.3383189084945336,-0.3901332121365554,-4.368999112122808,-0.844115078783966,-0.9547001656534819,0.24886357801155712
-0.022109623652968313,1.1056698193796257,0.05344589506344986,2.3767517834974288,0.5763041844585456,1.4493655765473203,-7.440226709916451,-1.6017844011720135,-1.1450733416563104,0.03386133510560963
1.914758568807275,2.854308870015493,-0.23166050388413767,2.1842249651220866,1.1192485505824226,5.662334069181783,-3.197911941916327,-5.633980425244723,-1.8483639286213787,1.032448009058214
2.713563688575791,-0.17747371428636838,-0.7490497648071487,1.9162885289740736,4.662302633304508,6.75421171913853,-12.705670907332031,-6.522952041436296,-0.7966194627154974,-0.3105448172265996
0.8549078356725264,0.11485634140320511,-0.12322085075229765,2.415796981016256,-0.07717336404403943,1.550096815451948,-3.4949950878234826,-1.7599927701880829,2.684864211118124,0.0748708721111887
0.8420528191547842,3.307145702482935,-0.6573460372524232,1.1017947107078432,2.1509367867756204,6.74971115616489,-11.584622171341744,-6.244558096614023,-1.6732131831049215,1.0993302137061096
2.2129020677963798,2.6399199268351876,-0.5678757167113193,1.4295739711673803,4.102580007177624,3.7690125982801095,-7.031094382206678,-4.135079447794012,-1.0348801413337807,0.14386263232237365
-0.488317588647461,1.5416816878811503,-0.031381587910960095,0.6790131175102907,-0.7155191615385638,3.5668697084503505,-0.2728681036556728,-0.5947789686154232,-0.7759168937854563,0.17989313811730473
3.1527745647181886,1.3408267304876902,-0.6325762579970952,-0.03143266592226868,4.588893900619361,5.467736184262834,-4.835688382616482,-0.48735345151383536,-1.5218502368061237,0.012581488377072757
0.7649440634425497,0.6438902668005795,-0.7409383297879798,-0.34543980266540053,4.723935350617539,-1.588079088724805,-2.4741137112478326,-0.5511967154380287,-0.49810500318982076,0.2390140937763762
1.8263908746734558,1.950392611256564,-0.3404778230064275,-0.3423157513943169,2.4661149742795065,6.848158659892684,-11.511633014997877,-5.909751091792658,-0.7390954632973045,0.8351743504886582
0.22168316603605875,2.2096069385032253,0.2950667164015265,-0.6948730024757457,-0.5706569641954773,-0.9892730825680159,-2.58324882380621,-2.928810731502325,-2.4809363466438983,0.42920885200114867
-0.5681520464107653,-0.9787173096748331,0.20981486728458637,-0.9371237828899772,0.5286067866826862,-0.5503948739016279,-2.4898250053638007,-1.2762569942149442,-0.18758692806456678,-0.4509207760012083
-0.6581364446943945,0.7795766442243002,-0.2592261667059313,-0.7437129721737421,0.3195202321815909,-1.0110099971119506,4.729158602250012,2.016817254305467,-1.1321738513177784,0.4234413022578627
-0.6311613314375331,0.3082274728332446,-0.018701743417655885,1.4876946708947432,0.11216068431199391,1.8534855989307975,-6.683897016018097,-1.2730940057202234,-0.5276459279208248,0.23584471975489765
0.8109601712370054,1.6160972762847097,0.025468750442481532,2.1648218201889406,0.45746587126879473,4.833302642993557,-6.115730620135366,-3.8231461549628043,0.6219509588426964,-0.29228334763372477
3.0698128316649163,1.7699806379856993,-0.37265600780821634,-0.8719951182877631,2.7049244806506114,4.309781475842132,-5.910832188413524,-2.3368854421258947,-1.116382604808165,0.08148500431078569
0.3697942632471456,-0.5097339646285379,-0.1084115356267244,2.3326957994564266,0.3328435864925281,0.4317586972073233,3.3722165024653306,3.066513629238294,2.1473926414760403,-0.5825560384053079
2.2101909431881204,1.0534435186202415,-0.5036574026763981,0.8204552558163261,4.0319376218053,2.3304946886967914,-4.146269549406216,-3.9488109866651806,0.6373993120224473,-0.3991959922867386
1.805741877617534,2.1079452075825436,-0.4785629776864733,3.1036738409833635,2.5822580182985813,5.9714113190880305,-5.326486084085345,-4.245058232448542,0.7592194719731105,0.5043681279548632
3.415216134390632,3.1278395438081033,-0.45193919707478303,0.36074761790737075,3.3846528794113664,5.8291956898652,-7.967891194653144,-3.8772697016304196,-0.050333271324883855,0.34356261332827887
2.4506401019044417,1.0845491259323192,-0.8301058740548747,1.3582421783257193,4.777358903100149,-0.45368794128217504,-3.8784094459609952,1.595615156703273,-1.1553635759331793,-0.15212875517068866
2.102970676475829,3.3482971359505047,-0.5551792818789025,-0.7472092712581138,3.4925462807959806,2.5527906621118275,1.0675876618254307,-2.634416654029463,-2.115145623463019,0.9862713768515143
0.27645400230868633,2.1789630012017596,0.07444482169869776,1.8805881634758808,1.1867213599654256,6.573870979617993,-3.3808078587567807,-4.7248509053501895,-0.8095804309310588,0.48637440180915914
3.3292246487899018,-0.8442189591028415,-0.05276856098234144,0.4502872221361296,2.0371012651980975,-0.9664669804772179,2.956755619966712,0.08883440911970508,2.0894096838700027,-0.24027666825830996
1.8578387784364883,2.5892467373167873,-0.20947304747274517,1.7780104339913367,2.8863791971496187,0.09161171948552482,-2.9038057346707307,-0.658161929229873,-0.8640400822289602,0.6031911550236388
1.7658122519772843,0.9029836356579266,-0.579838068223449,-0.5584659316237761,3.663321746923063,2.487758432133859,-1.6349610787017848,-2.319852185565052,-1.1624424340879242,-0.2803625266840623
-0.7481217751496414,2.591261929480227,0.28891036945753107,1.655875213636877,-1.1208974973973884,0.9258456478266899,-4.454150283456168,-4.576712294888901,-0.14177751849876152,0.5531553454875062
2.1135620361179774,2.3930184436827204,-0.5218347253014819,-0.9660366826918023,2.716995014787275,0.46843696770499654,3.831723720926522,1.1191207097317928,-2.362070944161735,0.34788299395384503
1.072949344523762,1.360646872761857,-0.38617451349823595,1.0364372708106053,2.3983118526036087,-0.7113086770367564,-6.610115992286587,-2.425193830371956,-0.6493625691130807,0.08310566718979788
1.042287614337655,1.9660033918091306,0.013418797372954126,-0.7501033614545334,0.738222914926364,5.385310209671348,-14.159158308411005,-6.6515336601668835,-1.2232308897820174,0.3426393834699837
-0.514471870229908,2.4713306006622506,-0.2940848929677841,0.4248388898711304,2.3586234712768683,4.302560064792519,-8.558634575525723,-5.075856522452488,-1.9124591634136647,0.5880215466730979
1.5298616395877955,3.460212241171182,-0.001293465564172126,-0.36286635322006844,-0.02557916539311586,4.695537849013585,-7.421623921679021,-7.104416977045849,-1.02067974709805,0.598720799592785
-0.694880282262949,1.6152683582634886,-0.39042059336192647,0.2791565433528611,1.4342751309546387,0.673763709935304,-8.903126291735283,-1.9722667906249263,-0.1575452092131,0.848456365255614
2.327278555254707,1.5214566807806884,-0.052447329690403374,0.6705818152191954,-0.46712730300842653,2.3472547772895034,-6.30022261625327,-2.108775341284527,-2.4614619111842617,0.013921261256873992
2.158694749400664,1.1243660201567591,-0.3761146280346169,2.0483511130722745,1.8403358149888478,0.15082908887101076,-0.4425622739964288,-1.5466895008436505,0.47255757478608906,0.8105536751022286
1.4418290032305774,-0.9303388395550968,-0.32482333560919946,0.4408856449215919,1.4199761455385993,-1.1528556832634023,0.2562482173814318,-2.7272261733656373,1.043675824955867,-0.5302289691929951
2.0067844212230423,1.0295159760893644,-0.6389029790725047,-0.05039648367422356,3.1217700198122484,0.6631598234657474,-0.9925550973032937,0.8360484172674899,-0.9223978997519773,0.11737536695757557
-0.10838088452341466,-0.9494448552830383,-0.1991243579120645,-0.5829278516281635,1.0843225477768046,-0.1663426414211602,-1.0282550085904394,-0.48430784435771335,-0.1183023615334185,-0.4486255522151466
2.872072636027234,2.5983167543137973,-1.123803478540809,-0.7872406115583489,5.936709888276873,3.638529165998132,-4.6993861163441055,-2.272389908844033,0.03446115530544591,0.6802257058461622
3.1136914087651926,0.45378383076396456,-0.5056192414422839,-0.9101451048321835,2.981856897981603,1.3314223559327445,-1.6384883401779997,0.5783321091032212,-0.616946504195233,0.4167710468731591
0.639971472175507,2.8794219854853025,0.3151991787039977,1.5920741569267496,-0.9526496584073083,-0.5374618041391253,-5.173143489276033,2.238682492515075,-2.1734721859017996,0.5180289210247908
1.6105752794512167,3.324896625917816,-0.4430128319968714,-0.7350352487903855,3.040063033541492,3.076427237119061,-0.4444735569482302,-0.42989628720492723,-1.4610981082157333,0.3400032312773148
1.109958870192072,3.4212183085810217,-0.05512423523726721,1.1447220842029773,1.471593884411303,0.16935666355577983,-1.513221271380616,-0.11138028685862778,-0.011912371647171072,0.6212382715771453
-0.33530516388337905,2.3178208807027483,-0.14781034918697783,1.470728060857562,-0.09045278000375126,7.85125525690322,-7.965976014362134,-5.322707435224425,-1.677804878510457,0.9543076133481643
-0.401600654743664,1.514137104307172,-0.02477799625470936,2.1810971071609866,-1.7356587640524959,1.3899669926330722,0.9734171579348506,-0.47210655377138855,1.1917015995503908,0.3779689484506313
2.4802672199128057,1.3395437287085699,-0.4025349027699024,0.4713803279818576,4.023886385910141,4.188911323454422,-6.900669142410404,-1.3834748287728713,-0.6452384452022437,0.43353559160625127
1.5230841079389785,-0.5445899925084963,-0.2566689390870909,0.756903785424617,0.9021419089160848,-2.181069382619821,4.022737794360983,0.07938516889636804,1.3077527622049767,0.09616775491796985
0.992639099218168,-0.0008536895389904542,-0.05467173756700541,1.9471356666940118,0.4951902138971612,0.6668015495979875,-6.1742725167521195,-1.901867860213162,0.2205537270690373,0.08916896174827696
2.1206153292649175,2.2151944588487575,-0.5091688752480396,0.24819757036267087,2.9793270292482226,4.408429951493838,-6.463495188750727,-1.439309310911312,-1.9149134569070232,0.7120942631233307
-0.4242595036724449,3.409387133827054,0.30965961049973934,0.40804597302144807,-0.5797521288031555,0.4975703308878665,0.537035424561808,-1.8124896741202252,-3.941751640309863,0.9371483469432285
2.1511578399306037,2.6152263375804754,-0.39275975081899916,1.4964309772836453,2.4996627408342076,7.393337993930514,-11.00700987628164,-3.93408943205494,-1.329451717048494,0.5067216696384633
0.8785951849051048,0.9968126924005132,0.17150027279536326,1.4593607241129765,-0.33548195112402557,0.6052606856648374,-2.331572946872466,-3.758923676706705,-1.6814839839847802,0.8117302853560188
-0.1685334461396597,0.6589020331324089,-0.05541402044945377,-0.7530229907797644,0.42044031103500945,-0.7870169931584393,2.4804772391550567,0.8783061615279266,-0.16193797188927495,0.33871977264913633
-0.30452704275716824,0.08100414703727599,0.23469618928762745,2.3735126871876604,-1.4850158889100846,5.848059941396486,-6.2935895078451765,-4.029572912855541,-1.4298983498889823,0.9561241196182632
0.5811657208167456,0.06510687569479878,0.36052291699632477,-0.023039546797876342,-0.5942985060538569,0.9831609230895976,0.5194178410135974,-2.597326966119918,1.3485948301843171,0.14171779424684178
-0.14282404060012255,-0.5274784260337093,0.05245479830675943,1.3784675366695684,-0.1629675404274283,2.87784458327081,-1.3866324998009718,-2.888182965413732,2.4004720777048356,-0.0989533038597977
-0.7505321415677296,0.07850066937304345,-0.10695302234744786,1.926355383743802,0.742598397156817,0.1403942675485761,1.3955682442532473,4.51733630999985,-0.4744237303456901,-0.5165771325712832
0.5176045673570371,2.1830335600169803,-0.36425271689162064,-0.1999809480602871,2.704883627218366,4.0360289587337395,-7.1398958636908505,-3.3627475727023084,-1.7070659427509596,0.5863014658120826
2.744898123748242,1.8136209491877997,-0.7254349206884095,-0.11864782908622595,5.487600701712795,4.204487212153069,-9.097039580100233,-2.35885946692477,-4.364434809326622,0.750623206855199
-0.16557449432680715,3.0750626370700402,0.08419343476131273,0.8428213100492272,0.48914045679459967,1.8204768792796653,1.2029998177293226,0.07340097929628253,-1.7486191913892366,0.47595742157272175
0.5639658060894917,0.12085414893675694,0.008749992434838713,1.1059693686083922,1.0276164244126944,1.333921565223069,1.7545913630662138,-0.6888718047631313,-1.2416857700514257,-0.03658808660761398
-0.9261910329180991,0.8401608875007858,0.30809789478692395,1.9596496283076403,-1.6705435275746277,1.967581227233736,-1.690197161421262,0.3023786163898696,2.289834524533039,-0.13242564666859913
2.8584505377201728,3.3575556915711458,-0.5868481142353521,-0.8258209976301657,3.5389842247205157,1.4434968010515876,-2.0865461800742535,1.7129770293313473,-1.8036398341133189,0.26752468285868175
0.4324660831407112,2.442955118950193,-0.17827659395742612,1.7205056362941775,-0.6982191579226278,0.14411433060985135,-11.181410755779124,-5.431780690278857,0.20635187721625048,0.7185386207216129
-0.06942644477597881,-0.853221175236266,0.17870760732059035,-0.1586340978473718,-0.8826923377205849,-1.087036810357044,2.897283755421164,-1.4008859830421723,0.4690408853330438,-0.6008300738082104
1.9945069200439987,3.181574719388446,-0.11115664760558078,1.2352437524226523,2.6626902213752586,3.989603044930125,-6.452995392694345,-3.889639481981215,-2.2633775220117287,0.23014765388229833
1.6222789867580283,-0.3334523250574858,-0.6308141949746879,-0.21915055188624,3.6928670360446247,1.3938748426157743,-1.0829227744359098,-0.09433793434202742,-1.555958868392406,0.1655434247053336
0.20869745395555417,2.420292623008476,0.18953841019028697,-0.29804993192635165,-1.2898562660426882,1.0064149667117812,-0.10555985355271957,-0.3279603605319735,-1.8199400690015932,0.2616167863630397
-0.5660305119557457,1.3645621381263822,0.3466488351820699,-0.41689636430344434,-1.4425962490875552,-1.2608156450428607,2.786044933852703,2.246643770488357,-1.0901597811832189,0.16579222334387406
2.273696514036841,1.587565988418758,0.04729189442671167,3.346888349323165,2.112756501675075,3.0970247738643266,-6.784551353418413,-0.5955783181484836,0.15983209077062155,0.20603495025352234
1.6152935732352267,1.0737988303536259,-0.2924612880296464,2.196096546304484,1.5108968187157124,-0.22532779380454138,5.010587268867317,0.025707958383648394,0.7378971587294407,0.703988076488046
0.5132627098957128,1.3819780283254706,-0.3724124107552802,1.8809755758100866,0.814671365488908,3.631207858554002,-4.559382001482416,-2.851048813451433,-1.7683404399508749,0.249276636389094
2.035892181432079,3.051063136789886,-0.12812744330865147,2.5551976282443416,1.0312498078826355,1.959648132974271,-4.413149110759856,-4.264194706090863,0.1496815560337199,0.438577938763102
-0.8985092710816915,0.5377453350710482,-0.11108823542916016,1.8899776066533485,-0.3136310812668172,4.225167973470124,-1.6089051980270812,-0.5306442115993069,-1.3885495453690693,0.4983766037310941
2.084105432230247,2.5051038992304893,-0.43176625133270247,2.229965262074799,2.555380928022704,10.653299820279162,-9.830208819137445,-5.883377004493692,-0.9140006358689292,0.5929195343268342
2.729034669284278,2.2544641663407767,-0.016171320204000514,0.14132959455681204,2.1680018298461285,3.3679767042361757,3.4210748353403972,-1.1866331039555174,0.41900975491061077,0.0873504708860606
0.7694832130574729,3.1837499725294833,0.2623901003674515,-0.5518030026139925,-0.018415244772685038,1.7194726176874124,-4.818122322400442,-2.147404851415178,0.3967066403550583,-0.06704426570070378
-0.33654064533769745,-0.6352129394298246,0.6071091575353355,3.351959861332926,-2.36812359547328,-1.8293585880165024,0.5964938889635176,0.8388189538238717,-0.633221520269698,-0.5918070995876535
0.2978149484391597,-0.7239120443160874,-0.23075117815829532,2.6525206607195857,0.4591428596919584,-0.15863962257370856,1.6501401396578501,-1.0224492049703862,-1.949407724271159,-0.4424714924612103
0.02215756815810699,2.8053235290217975,0.4241306418410515,-0.9748641896655864,-1.7517466016320522,-1.8053526331325453,3.3085614336016613,-0.6589216096538345,-3.2652815625780613,0.2614548919123942
3.336768041756356,2.848998482099025,-0.9274860548734036,1.5471709599220507,4.847723598747354,8.068003400667969,-13.155183944097242,-7.530707146169472,-2.085485007570923,0.8364978171298708
0.9545984205464899,0.7630016987525883,-0.3633949591046994,0.18898285445339336,2.2900652202954856,-0.4715197058553042,-0.9379999866166406,-1.9649297987429044,1.9011993610994389,-0.04368753571799465
0.2918378264495134,-0.7223274812859826,-0.2690025081902053,2.1102752105075337,1.1572383735426954,0.9299120402334939,-5.226576134387976,-1.716865254904267,1.3269925614692246,-0.3159852663073633
0.4960726643062596,3.04376182775877,-0.08787221124551134,1.5824758754285217,-0.7805111329739164,4.850254030223066,-3.2256139271017172,-5.44867918219132,-1.5052566590622005,0.49529157927300843
2.120228943570009,-0.8724951830163528,-0.15835362590722737,1.5035184944302316,0.6366378749903052,5.303189202616783,-10.025325353195486,-5.340310033598925,1.1882971492562608,0.5346972053739619
2.283128389407941,-0.1535751270505038,-0.5047688371732376,-0.9953929096696592,2.1445783921609274,-0.14051297477994906,-3.242773975251187,-0.7074938435771951,1.0003524023138912,0.479838478963447
0.40591170020118716,-0.40769752600392106,-0.12928711674912655,1.4929988608189353,-0.22060790771855168,4.715804910265874,-1.7200695015777907,-1.578646170698811,-0.47846941056004977,-0.10811845892630989
-0.7652689848948712,2.5255841802511436,0.38842097513996054,-0.9773070164924925,-2.25870260561338,-2.3633402195091673,-2.8727756318790045,-1.5884733987151483,1.0486260304803543,-0.057144700795751784
0.6040031546992477,0.15184342046290067,-0.11267418738631825,-0.5975282694379986,1.9822064996771365,-3.2892043770896793,4.76144727337826,2.327471310421539,-1.3314143630081898,0.12010940209067891
1.155406091465784,2.34000892225475,0.19169799949754224,-0.3677136563899561,-0.07333377439713697,-2.9027716589126222,0.8377588360492563,2.3860343105610093,-1.31199316488876,0.4348849451252578
0.32989970062194174,0.2955206211125536,-0.15007139089683325,0.38574438737881067,0.2973415959231318,-0.7063794631233365,-1.491072688350144,-3.8330869977797297,-0.30105148217750005,0.19620576437853327
-0.4467858957445159,1.8645952798102572,-0.07087864962245277,2.540230327208013,0.23105105519332655,6.882585657408664,-7.884188929163642,-3.1503298875605346,-0.558930504425559,-0.15646453156411888
1.7219273435123315,-0.6807359304395075,-0.25328632148063895,1.4206485571384708,2.662423381899272,5.093496945600185,-6.671445195707978,-2.0926208118855003,-1.1950291988023238,0.019611474496949822
1.711538716263962,-0.4938779395629651,-0.7085660854265863,-0.8813356042970953,3.2423994342376443,1.0161661167105174,-6.632794946414354,0.24585775963140788,0.4302266241609199,-0.06603202084895757
1.8816687233168743,0.03042345206435315,-0.5488207689488793,1.4523155645078836,3.7433231946743044,5.96534459544966,-9.964182133919516,-2.606301572446884,0.2523238556043182,-0.011965338587170271
-0.007854869375029438,2.400870335726322,0.1014125111865381,1.459436826021769,0.510066631560378,6.815889935910771,-11.034999697260165,-4.803661568414891,-3.9107585566392253,0.39188055923588855
-0.10122657305471072,-0.6510950318306944,-0.5680229518570261,3.4347697848312286,2.073371979675634,4.185123375651984,-9.398828191528512,-3.9935169796005074,-0.8988000694990261,0.20249222735002628
0.21081770553442758,2.2414425169798635,-0.19452295325719474,1.7699391588424587,2.5222183822817215,2.1069126427531746,-0.03148178867061002,-4.318440449351488,-0.009752646585827862,0.2898260540202079
3.2939571788254334,1.472571002258853,-0.48345843740878025,1.036802528777511,2.689670256528392,7.970580356842673,-10.658725872835156,-7.045516834215807,-0.35197143545826914,0.01931919451297418
0.34504411424748094,1.97096236131366,-0.24903817028832548,1.0200885657596093,0.6806236452664028,-4.416561431768903,-2.396770694692079,0.2797492151876966,-1.4879151836939561,1.072369122104839
1.4573839955718615,1.123651827008112,-0.1825676420956225,2.3179423414742217,1.9421950399047285,5.172957342131479,-12.177234130556936,-1.3464292503095945,-1.2768452937058505,0.14850475872601993
3.0985966789195434,-0.36799242085709005,-0.784717690968792,0.21779693520006171,5.758690840657048,5.485094066767738,-3.0668041815180707,-1.2261920068234096,1.4660720692620262,-0.4648483588220819
1.4072001649853147,1.5856354155059522,-0.11323730282536505,2.5658642837448458,0.8351991689395132,2.882348469579141,-2.9700853100150146,-4.0863539535355,-0.26531165529336603,-0.31165744984629057
2.700937058169425,2.3952339683094945,-0.6071082978824359,3.322590877138646,5.068063861550102,6.1769389453091295,-4.094120643815146,-6.024095860878456,0.13929429222205125,0.4512822256617923
0.7688798352903272,-0.47711970041803775,-0.4214103956659871,3.064966031277071,0.6287243612654346,1.1268306477835706,-0.5446174583396657,1.7731795701367852,2.0649648306646298,0.16509322347436667
2.4041520433356864,0.06356586892755556,-0.5211689360668469,2.1849983179481693,2.5732953245972467,1.1102119158228017,2.7713024595304407,-4.643452404863115,-0.7034111526047611,-0.040367774227552916
0.5885456531621398,1.3619984156193157,-0.32688923322896474,2.484770357483996,3.2538576949997533,3.778402026646658,-5.04941938346971,-3.078713635602035,-1.2659972159548647,-0.1837100405346277
2.4172589312434045,3.0670661992067396,-0.43717975298231243,-0.7410133118918778,2.64564360392257,2.0285620602229475,-3.0637910455366604,-2.706824036145035,-1.4551086738820622,0.24152532151685732
0.5673546527287496,3.178457340260336,0.1974766709654706,2.519572309864692,-2.424265998555057,3.5138980329717926,-1.1982164865557343,-2.4903979157867524,-0.21668585467222212,0.6036572982333183
-0.4478063938415704,1.5666759283797602,0.1490701293144585,-0.07140364417417777,-1.6827295438692658,-0.7105540360079693,-2.5246121991126307,1.0831300727226951,-0.4142296265758856,0.29800976334387635
1.163949563933249,3.2283624627143475,-0.07461016965018973,1.1925137315396315,2.5782353635756676,2.17588753552807,-3.370029523416983,-3.9631065338818496,-2.2655088863909985,0.5266365271271363
2.2055291896367417,0.7979039063850617,0.19194101965375202,0.650712756481344,2.2222556002050298,-0.569841240130704,-0.9310317397609911,-2.5788649418113465,-0.10423363290393006,-0.3506229308064389
2.6492622458133783,2.976439010860219,-0.6438525511011935,0.08557272061650223,2.9998878362044596,2.8579934351651017,-9.973998937066469,-2.9303449161320447,-1.0057602951038298,-0.17323065870907903
0.8444387398852131,-0.3008215408670406,-0.18121794626995882,3.0085900448947376,2.0382003988413224,6.740199226533228,-8.060087655828287,-3.3498054040926584,1.5281545726530605,-0.7939567719451568
-0.8243487966013415,1.91760196665052,0.11499619319549079,1.4438583885632612,-0.8290410679705084,5.158855114174638,-6.004501586732264,-6.09579571513414,-0.1542072423396903,0.5664314313194109
2.4922785873806332,1.9272385703398878,-0.6882589639901306,2.6117466888364054,3.640173128796207,4.721839703067431,-12.172743425293925,-5.728830745308279,-0.6906050284065,0.4235348496356248
1.8247466276315887,1.0377328572849507,-0.4191972085545269,-0.9960486791994978,1.7201678279463333,1.051684613502255,0.4444734345394554,-1.5465218275901376,-0.7802472882389146,0.4968266852920846
3.2397218166642316,2.1830879690380716,-0.800529465900148,3.3197874496391826,3.151511254237953,8.390915818056675,-12.01547606622106,-10.598743390418363,-1.925324377383288,0.7489010999668153
2.009237915331863,2.471626279116949,-0.06054644870598596,2.6911476690042746,1.7570502565406318,4.697514716674348,-8.389169431047405,-4.177307305652269,0.4461961880577352,0.6788412085609088
2.1435688784241824,2.3273679881461025,-0.7778554028218634,2.0781041919292034,4.745420916383512,4.161858736358331,-2.4617498672338183,0.24444663054564758,-1.5710581284259821,1.0722273355436716
0.2963601564099292,3.2848098848783085,-0.19641919451135822,-0.23756389885577112,1.1975011690809976,1.9355080393805884,-3.9491238684470895,-2.977960766022298,-0.6429350149512755,0.40530848105341416
1.9508225317224448,-0.4281052584234414,-0.47174499691123384,1.6461938466552382,2.7909421973161703,1.7361644125313305,-0.22981080007914034,-0.961755342685708,1.8692264381283015,0.20028571525101338
2.440997175793862,-0.24045571166286372,-0.6422469154207917,1.3147174503302392,3.4367696203819493,2.4115041396586765,-5.409369155429496,-3.2686247406268016,0.8345226680347948,-0.3842109459351318
0.623867792742109,1.5622671429436443,-0.4595516101569195,2.3557572360150365,1.7232753497292894,5.01876963591861,-8.756988731584178,-4.42468360031743,-0.38438395842300965,0.7293074193074642
-0.6263522449354558,1.3184720325351278,0.102935126499166,2.0598008306347837,-1.021546112529145,1.0627758785030088,-2.01978567071221,-3.6512251954874504,1.3632724815717532,0.08384924822965718
-0.5922711205741056,-0.10043065665535966,0.34058206486967535,2.0324787045718953,-1.3525010456374251,1.2081222236236546,-5.540892067840533,-2.172180678155006,-0.07636445496080879,0.15000007485795777
2.208232221631979,2.0884361088480423,-0.7072748925519313,2.457889243268968,3.766546770524743,1.6179893410814008,-0.21798936754425124,1.4474232970637488,-0.4871074715007211,0.30917468559159467
3.3191035040107675,0.18522285352469692,-1.1125802397086313,1.5135550903631922,6.288856352282157,7.007957901936897,-8.611005047036436,-2.5085475705539952,0.836790754251413,0.5099066926461027
-0.6300761318128043,1.187539755578845,0.22384138743915438,-0.7967643588644986,-1.2473857812967277,-0.07177577843556326,-2.042497969497545,-0.10462759680794587,-1.422090830151888,-0.5717418066188342
1.5103921984677258,0.7550383955846243,-0.07810698851879731,3.2722153021647626,1.596503172033248,7.384283456826312,-15.34150239288189,-6.040159893185984,-1.9984444367661935,0.09487155349248988
2.947377853860371,-0.9072233508533324,-0.5697113683584325,3.43936467778987,3.9777269414391494,4.014813620580451,-8.624831488568773,-4.6238758153304005,0.1741800922318264,-0.8616787233601149
1.462654645059371,1.8952417049420145,-0.3615993321358213,0.10109483761104388,1.9686799158885828,1.7604850781530499,4.77123905255867,3.0760748009371515,-2.153517430223302,0.38886492636695724
-0.9718189925721996,2.4879712251782253,0.4472829809298831,0.7055546806894808,-0.653790354911354,3.611273897077507,-4.429966784171272,-1.8760187755389344,-2.4486796768573402,0.9203260958096365
2.753758404244772,2.9372644604067357,-0.11348782242858078,0.23401877615571332,1.962719783311662,7.426920947636883,-8.122837904962104,-5.3715637830054925,-0.35994782717514623,0.5900592910865985
-0.8641703446124505,-0.38382191102023,0.02923132071651463,0.3586909045106035,-1.4723422772047525,-1.2734626495443793,4.514229845495239,1.2953814918655933,0.6898706625985771,-0.435620299679196
0.9609836367965505,2.9321768901516103,-0.05170552584623053,-0.6365850238547318,0.7146940361523859,-0.4704715953982017,-5.3612769593387455,1.582440216050028,-1.4942538791349114,0.05281819391684236
3.425856930245436,-0.08582141668122822,-0.33191052383053415,1.5702392028427363,2.1032120807086723,0.05133619326170358,-4.069997748591353,-4.151132649796802,0.765524939848043,-0.043270231157536615
-0.22406864538344184,-0.5103239785947751,0.559600060253862,0.18703091079205092,-2.6432034704603935,-0.42887121022709795,3.6010901974428693,-0.24357346852507689,1.8003262022224888,-0.36153723855722064
1.186181187203239,-0.3038864815252297,-0.5274406395131467,0.9323952946935801,3.480188180749446,4.490130698635415,-7.993853494078647,-5.718464870403802,-2.8132969939752863,0.1892657404886296
0.1525417623750145,0.21825335899292075,-0.18762369945561502,2.1460270054538655,-0.09585653753908156,-1.4829762244460336,-4.246295996321587,0.08524335061157018,0.599992076199198,0.15002540780223717
2.8831303890032594,0.42816589424435025,-0.5620825712168677,1.56875138970938,3.137988016712969,5.582330832504209,-8.824283856878996,-5.6001946707510015,1.4139103205925398,-0.0607909022816299
3.3308719309416874,3.1448727065526336,-0.9904602017961494,2.623563115059811,6.956785232522642,7.87331037723419,-14.566798567681646,-5.00080074268795,-1.0885134392579991,1.3535622781164727
0.7139401640827181,-0.059725675667586686,-0.12817959219547112,1.674530419803586,0.3610687545037033,-0.10510954775393744,4.334506557471043,-2.696829146054368,0.8908965301011131,-0.09141071471906496
1.444673839569727,-0.17394500534004775,-0.23321576832709442,0.580624393312744,1.7131604864366823,2.9414840075783473,1.8866746262042517,-0.7828222372122076,0.1791964605910501,-0.04514210773289471
-0.8478024681459371,0.014368387190676124,0.47792981425659525,3.028867713232592,-1.1625116101991355,2.0647662052223086,-2.6742475667659846,-0.7088429624888644,-1.2580359871922524,0.17714423125831477
0.5264295287239573,1.103972693937946,-0.013839192652516543,-0.7288178681302251,1.445259818875321,-1.0700356460926101,-3.046253316632015,0.9088184506038448,-1.2203744157348746,-0.018945855426760798
0.7077977514981986,-0.19369704830656875,-0.5412207440597554,0.49583732991213525,2.7286256050993503,-0.9932038428566691,1.9204443258651187,0.12893830754102842,-1.3987689421347218,-0.1281678287122849
0.7215071541892155,3.434044041786178,-0.030859931151557957,1.211977571954761,1.3277411497225535,-0.3021058490630074,-2.408904715265037,-1.4402340399108438,-2.657973943884458,0.896763185154811
3.365741898658049,0.20296691548902368,-0.7457430205118701,-0.45782940667006067,4.991881826987461,2.201688828258259,-4.240591069476693,-3.694841615751236,0.39242562002870474,-0.3553780475279828
2.5859466116341934,1.9572053977599295,-1.0320592350479691,-0.8582379380771115,6.410429577575569,1.213384920156127,-0.22192614104493735,3.181101044610995,-0.052995893161620566,0.005161149507474934
3.229397569074931,1.980303472312456,-0.7695036008561089,2.4098864196270466,4.7773427831189075,3.1355535033518738,-6.046334940344555,-3.3004338148766954,-0.9982627239588032,0.7012090378061726
-0.9076182426375804,1.636240781213198,0.16812714011688482,-0.7941141461629951,-0.8340441500419931,-2.136482186471787,4.615142420966995,1.8396668253410207,-0.031058029809399867,0.349493007000185
-0.897263468215616,-0.8518062954038647,-0.17640600474865006,0.8909393412280056,1.6875536319731024,-1.4809869108680318,-2.9432773357817785,-0.23707788737357782,2.10292329385325,-0.7265090056930529
1.5914079577836868,3.412137279188017,-0.2457179202717725,1.6649823673399728,2.2013495261260037,5.160824803697446,-10.926256728964507,-3.1852164171942494,-1.676888741753347,0.3094638754862087
3.227244181764638,-0.6556184023601096,-0.7137461832497792,2.7142346146698433,3.861534624613985,6.178395910398688,-9.561196182927304,-4.081092457081053,0.4541110059113095,0.15405574141143683
-0.5751452442987555,-0.0801426463361481,0.11395658432984578,1.4490435590889534,0.5473687772398229,-1.4700606271010668,1.710940061515717,-1.3805433836613108,0.617391320587783,0.16277695601515713
1.5804348754711013,3.367366331342023,-0.4855967065741582,3.133933997666043,4.098010167939146,5.379930878483502,-11.3528825628073,-6.047330115177522,-1.6157100639432813,0.277041213003363
1.7802411080063805,-0.4223573951666655,-0.26075358666071075,1.9073302240835108,-0.6320901220233828,9.008033819337761,-12.265056702970544,-4.4581432429865835,-2.1002351548436273,0.9445938477084116
2.919636511670292,2.014273054990519,-0.6724038465613728,1.757486730891919,4.918009039523495,6.074673162177589,-7.53783856895664,-1.8202717043815764,-0.5379759697249273,0.1364676653272323
1.2680381572241646,2.7986621819187265,-0.5545292377094548,0.5390605281423748,3.0372727357167455,1.642388300450699,-9.844811558571005,-4.9484925514213245,-0.9916051371866624,0.16337205358905604
2.797349730606568,2.5468898031221565,-0.42806050205042817,1.6046698540560809,3.023488728495208,6.623234461359642,-14.943430348547402,-6.524743490975634,-1.4685551547811158,0.5965161717389204
2.2205911560349447,2.2648341935031135,-0.29913208096139066,1.857448891741694,2.2309541387929093,1.7815775731751968,-5.9291473645101185,-2.5234862372027504,-1.1373284322412607,0.7578069762040684
2.51463929466065,-0.2729670196510161,-0.9957815575550875,1.2572248223474327,4.471621420919652,-0.4046949485576421,-4.3955678626544215,0.5824653816649186,1.134889602471058,-0.28747428217055343
2.6470064699779585,1.64101326373493,-0.3602935113790737,1.2792439266387752,2.959568039621117,4.902350051802627,-2.1242084677574713,-5.826603751290958,-3.529006000085516,-0.2614393914016517
0.6012448458012143,2.9498286375529057,-0.31758669043366644,-0.9236629422345197,1.8164798098954889,3.4022948063753353,-1.5831297027472777,0.17083403619984888,-2.8523576916429967,0.42695841780950394
0.5621818159192262,0.4678530555402698,0.09295738223456163,-0.07596988450855946,1.9826800118347259,0.14279220724330283,6.053808505120213,-0.5757236349629216,-0.20353562986635376,-0.4795431403470415
2.70507714648888,0.5376067185556341,-0.9524213422190216,1.1069567745694298,6.435448055326206,-0.10380307186873461,-0.32384868028973646,-2.5033581232416595,0.04825403425381025,-0.01727563741499326
0.026302504474974953,2.797710837074523,0.5136937455163062,-0.029959740433822546,-3.280033255884421,2.704721409747482,3.376084370997847,-0.516758906878096,-2.6643557549995514,1.1473398288392278
-0.4503328307953983,1.3279163538869083,0.10413352745006112,1.971864503482606,0.19905915578616937,4.644555435606321,-6.554222427433819,-4.856753437377044,-0.9031728298046284,0.3674490931895741
1.8761594895568354,1.221704799268704,-0.30195919472318944,1.8055763540971421,2.6089939313530492,0.9253131445890811,-2.5369805738878854,-2.9009200155830297,-0.3534251761838497,0.3602643512601562
3.283739416029886,2.1140385663092953,-0.9862135777747765,-0.8766786280808089,5.419514369091912,1.5607261028920414,-1.8799459290482172,-3.1177234138733296,-1.015510114807709,0.33383366055488256
3.2083280769695985,1.0773881155422598,-1.190982943090351,-0.6305002724210597,4.751786665012877,3.2282540907127464,-7.962512176332924,-0.18154759884509186,0.7348810171273065,0.5204036256717034
0.5175266797929103,0.7537303837972003,0.11356184106667923,2.812373084383147,-1.5020729606565557,0.6563445806801324,2.6387192257787158,-0.845700610909454,-0.45944502589087655,-0.10170829793290637
0.8001217138286834,2.5492827814433086,-0.5297496322789229,1.2292020957603254,1.7593508189311104,-0.5526037085540667,3.1588329422255845,-0.8171217554605301,-2.373843625715374,0.672644270693836
1.781876455776434,0.7981990241861789,-0.430176316912762,3.0805463754868816,2.803958923787628,4.208764316637591,-7.279847728694792,-3.501354091966376,-0.9992493085770929,-0.078892389840408
0.08029424387577078,-0.013818265665414997,0.35437272032419853,0.4214106968788238,-2.3123882803560267,0.3895688788525843,1.3966826079098924,-1.304912690889311,1.3442863943597505,0.5644335506930516
1.715346988808705,0.3892030346536277,-0.3220896454785084,2.0684247324128875,2.82071006863776,5.814633987787934,-2.630849388806631,0.845668519740771,0.4584127512639841,0.22111736558986306
1.6828426144024733,2.125547890679476,-0.6189275510359585,0.5550623329032462,2.739938645577321,-1.915930725681713,-4.523566820650405,-0.9798628451535618,-2.381932679127716,0.30573466132717697
-0.5955190726777764,1.4821662299041334,0.3063399992209017,2.0718604756041317,-0.5489989286363955,4.799539068007143,-3.9212386699463844,-4.808526474388176,0.4178407415413901,0.2974598432620321
3.3725327374297382,1.2575043788485067,-0.5691078320416035,2.7264967423679365,4.9074449363579795,2.9881485739443465,-9.444003162043023,-0.11317005502206245,0.8571070169860528,0.45793004859091635
0.9731160120540263,-0.08789161856592986,-0.20124698260776883,-0.379219494253635,0.9714790690777301,-3.7668105879957707,4.232309232330634,1.0794955753846782,-0.6514714633120668,0.23826177150201672
-0.6027439534572225,0.4003664839762786,-0.016078372980228628,2.7691729473913167,-0.9123133499594718,0.19448686591117903,-6.841477909487284,-1.4960531638716716,-2.1898749435269877,-0.4189399886990635
2.7280222285395115,1.6623060812771842,-0.6503159883347778,2.421420615861928,3.1882652207763313,8.72030260674256,-8.877766868766203,-6.516330864121189,-1.2515232433725174,-0.4322952593875366
3.3065617265637393,3.3531031906046262,-0.6512691770930739,0.3904125035821877,5.403235089186531,7.333061340233016,-6.554251021314583,-7.210128141809076,-2.1944320548218244,1.0059856360176072
-0.7827002428214699,-0.387031522670481,-0.2861714883548128,-0.6205290174106155,0.19056868028645588,-2.888431831638078,4.831574176195993,2.8595130021738138,0.7349911541692692,-0.5152947908679779
-0.041618472315471666,2.7743576269584347,-0.4179871788768343,-0.9331345817086119,-0.25688569968763164,0.8828033779495825,-2.833613055665232,-1.2947285766537702,0.11598334316268233,0.36056625308105206
0.6687442474935275,1.9449179314309686,-0.3504479033874108,0.9772808590272704,0.8009278573835812,2.3173945010411154,-0.6105510009417153,-0.9090473291192207,-0.9600041788928411,-0.23202610127513065
1.907238489802375,3.229379458162062,-0.23434028721081124,-0.8348707154270555,0.9770356870547766,0.8885972415485417,1.6111743845970312,-0.46212541517584205,-0.034391547924235155,0.8083256667399802
0.7971662922563014,2.583376709172587,-0.009030371271264374,0.44861458779471364,-0.2137062210162159,2.694075396386879,-3.965116113809449,-4.102359444072102,-2.512503287427542,0.04050615184467544
0.4931161534391604,1.807212541444705,0.13903346344653336,1.1627188749721489,0.06990746721728051,4.518428818976361,-1.269436296686234,-4.81645305709297,-1.8714816491696022,0.18206540241652203
0.12995222405002105,-0.6848600152022786,-0.1435899647623495,-0.5129841057979618,2.128513940147076,2.969634121044063,-1.9779731396919051,-2.733196741506011,-1.9586055409685987,-0.8317713338079201
1.0115874398456608,0.948010913449669,0.30965454981180657,3.202221791466548,-1.5056004525860975,4.701100591305671,-5.700635286457664,0.3803281545462327,-0.14768598784138198,0.05957281138098369
0.6673937344617273,-0.15781433293710057,-0.2535956441479955,3.3803448257205,0.22871543796952934,6.099664288155111,-8.432074317847075,-5.384277257211789,0.49212040674313734,-0.34655133306367375
2.483413103838322,1.3603731984652034,-0.7364885603233301,-0.5514506115094291,4.144351697495098,0.18181479005790357,-4.078898663534254,-0.6838425077207546,-2.0126953454234284,0.5346547674239627
2.3674017205411677,2.4500277588198087,-0.1338204823713335,1.8349057311724217,-0.2740010866054439,6.969868962894492,-12.724995917550858,-8.092714983368761,-3.1812049150211044,0.31788416865944386
3.0562482483193785,0.07228502058050457,-0.7287821768390654,3.4060522042466133,3.3884655542135866,4.451006027406193,-9.448482770133683,-4.714133783594175,-0.6696023012733969,0.6825033642269013
3.3964100039907086,2.438425129368241,-0.8957599426170484,-0.9554009600519531,4.080067296402767,4.061124448472423,-1.2011291361137513,-1.1799417471155955,-1.008386050863905,-0.046266460326700315
2.3879028889689144,3.1474492477656577,-0.46744963834906883,0.8887596187925964,1.7407674927842316,2.8766280145863936,-8.091908181772137,-2.0425148914050384,-2.243375673276775,0.15197355103975901
2.1689085512184865,0.8088635559787809,-0.08684118284317717,0.0478986029813675,3.010170382335912,-0.4817755153815444,-4.822713580561355,-0.016727638281428536,-1.235069658862585,-0.27241057193204815
1.2752738370505736,2.8379428934346302,0.37039466906211477,2.9354870404553473,-0.6475334641123293,2.2910957029626844,-7.905115817623075,-6.445047947931998,-2.263635277793612,0.05194387871355226
-0.596612996445441,-0.7874548392974078,-0.2822947687969557,3.211027646588506,0.5325205047268666,0.12661773387994985,2.1085468140029637,-0.1806270714126789,0.57138776861146,-0.31312679164718915
-0.3901422219428159,0.5603183748643801,-0.27984417475289286,-0.01066877260230592,1.242522533648766,0.3715874807485715,-3.35295551524662,-2.0939443517847414,-0.7616942823144793,1.294251903983956
-0.22404439343495564,1.1211929209753455,-0.21804335160723642,1.7088888168630811,1.554824275366663,1.3582667367866659,-4.771122184857473,-2.772708062506047,-1.6130313782428365,0.5091572061084799
-0.1993511764367114,1.1428098862307943,0.2903569384541461,0.24418107164663283,-0.873725940195563,-1.9129798036660957,-1.8736055776344034,2.407041626760372,0.10672254160201988,0.48370123240962665
1.641710461543942,3.187788798093086,-0.3952038296729133,2.4274222130162566,1.9241029185546392,4.807353899677464,-6.392961494017865,-3.06172153216778,-3.9456427497019275,1.0115510301987904
0.5291904337770681,1.3686361604992916,-0.19686953815980665,0.3797219048461653,-0.15490436785963665,-1.6177849296950977,2.838189800791861,0.20244083609232,0.46038583062672156,0.9012285347597886
2.404049413298753,0.315854167232849,-0.03361595101223517,2.276048699232152,1.2001417080651484,1.3084660928848908,-5.56816780649475,-1.480389294805659,-0.483623650680298,1.309147887466163
1.6053781189612,2.5245094014691647,0.014904994358556044,1.8927166758819824,1.1694257990623944,5.00435962346756,-10.728781151122977,-1.1180810298749877,-1.391305722066451,1.1484436552354638
-0.3565655110906216,0.12059975580616622,0.04677105918311287,1.9417542076336423,0.141070632554702,-0.7435898077935117,-1.4173883304989796,2.171839287695127,0.28831412165053427,-0.19208036570427067
0.38279395010238937,1.2232788161594512,0.10237302963379162,-0.12738897734606058,0.6224867205385233,1.6633678590752994,1.5268856723283712,-0.6255911871791873,-1.586361083326885,-0.23717764906757186
1.7533905698912733,-0.6392127156631409,-0.38962992014922965,1.7609205390064724,2.2280809490328086,-0.21562285546412197,-0.504781608967042,-2.626934363607452,-1.3894551941501405,-0.34714940722324666
1.0543419910619631,1.9533080932119953,-0.6944823789468089,-0.8161245259506111,1.975253119460869,3.5888683499936977,-0.27317265756940445,-1.8728858965507005,-2.5853669429971418,0.665363135526802
-0.850422689553519,-0.16200721318131617,0.4013495588868166,0.5072256689560686,-1.4114969269560058,1.4552516466181684,1.1656452270137383,0.7816730043932634,0.6708443078678887,0.06817273326541604
3.3037954442257638,-0.05183002842742135,-0.7775341677313222,0.21941780781274955,3.710198726619578,4.430642453686741,-1.2449313952742487,-5.246408509769043,1.3418180712158159,-0.8852782334088852
1.9315421009455704,-0.9684377930445748,-0.15888936529244752,3.2442982773725078,1.5298458980853082,-0.44064846130996416,-9.286048386837102,-3.5587321980242406,0.7178611777098001,-0.45123895666814673
1.516245747990899,3.064881625039276,-0.13089130305430963,2.9593362717042297,0.5426194422044255,4.883177839316834,-12.139112850248663,-1.982972865282165,-1.057961949741144,0.035354818463647346
0.8984956777077298,1.8314831683395827,0.22065232236757862,1.7389546499753332,0.1959442274031853,7.876696562538049,-11.004076801750124,-4.4656177234455425,-1.2595634182614774,0.842925491645295
2.23588104699539,-0.14295340530462441,-0.24002447953694472,0.6248984702739329,0.7453439333588369,1.0502379325766287,-1.4540355332355874,-2.2605138632680295,-0.5215775966870346,0.12435447733304908
0.25429424422905567,2.38807904091893,0.4006690889159566,0.29939162196920477,-3.1393692134306788,-0.1830159888698657,-4.879335141237205,-2.141173624456433,-1.2830776107976845,0.14174687894871196
1.10322209753652,-0.23482225641667942,-0.5326154484548269,2.987985903221953,3.0217035265919314,-1.2574072007169645,0.770202750126348,-2.459244908346137,-0.04435465842768241,0.3040416463721849
2.2932413472351576,2.653348040664214,-0.47998205030385427,0.7994188948286121,2.1284923198812704,0.649244725297153,-5.03083668614749,-3.0449097741720585,-2.552511887818156,0.4185749058746056
-0.8179127184310624,-0.8392790035697778,0.4790048599660383,1.5469553826426234,-3.0960721972822345,-0.1022629819458476,-2.706200930604961,0.23688762632670368,0.1069002198854081,-0.222522517627292
2.2826741885121713,2.825682868895299,-0.2743438873658026,2.892587310542316,2.0419493388958903,7.743748829125902,-9.400375485502494,-5.656227925693989,-4.267493476950172,0.5677600110524388
-0.9553985399434609,2.360298111500374,0.04031672566159144,0.21786652539431484,-0.8857755035106143,0.8236593564994243,-0.7813106558353309,-4.703957018065887,-0.7879409394835719,-0.21116902410164043
3.1502980362319386,0.8744901290809737,-0.8136417494819459,2.459341508653282,5.007620820514571,5.751237190346349,-5.264945541131183,-3.9627353901831257,-1.4596064146647785,-0.6859281255274797
-0.910065435156436,0.3416270474166079,0.25072708615356737,2.8596612416171716,-0.9697416413931874,3.088930273752578,-2.5087396708426457,-0.6430012710322557,-0.3830335145488576,0.06005578552164371
-0.860476273143904,1.3572038838141816,0.06614929813748024,1.9125247171895428,-0.7848490205863131,5.06726152452288,-9.814738613232764,-5.7124023508763955,-1.6579017757235361,0.20614887258263703
-0.62484173655404,3.4112469145687365,-0.37764102995935456,2.5540124164062785,1.185887073859797,0.6907603074752349,-3.23841710066704,-5.189975476036186,-2.345157066804708,0.6973393995089295
2.4174481615929113,1.7950470207107556,-0.4938717462512496,-0.0010470267148275925,3.6671301678700483,6.395490169688034,-4.817377932941277,-4.025348576015334,-1.3060273086475886,-0.15509203127977272
3.392522804206335,0.4703087313444232,-0.5674991377626265,3.3526702811344595,4.781296667746211,3.403381178071193,-5.442156671181957,-3.840172325039346,0.5345439534572953,-0.5953430444486709
0.600728409990716,0.4922244617084408,-0.45974718491557565,-0.0685565249992971,1.85044802750697,-1.0454313429593012,3.600531278367615,0.7975525094006232,-1.6135112950406463,0.4028989009023539
3.0002842973340655,0.4276443783613919,-0.5166349144211708,1.481282186636427,3.410889307327405,4.156513487585764,-2.947550393061796,-1.3028487265343447,0.9086372241508033,0.6236914067493196
-0.7540262429205238,0.6340359355262821,0.288907347134359,2.489112957724111,-2.2452214695682513,1.0630465164427736,-4.240857656621942,1.9718100035408221,1.0618224119361612,-0.5113330089017946
2.0628344371808875,0.47127558632179634,-0.17173518121061762,2.016680794176327,-0.14360640492299756,7.022546764861698,-15.240234827442311,-7.042723236702242,-2.9164499270995994,0.34894132454766247
0.2231000725218466,3.113742589009581,0.03261079682345578,1.8316868787123433,0.3651343412188022,3.6361305837003446,-9.782553880196689,-3.498535147443795,-1.4934548976986703,0.1744114143564603
-0.12991802745929037,-0.555537047281335,-0.055754705235348215,1.478201554286728,-0.9806116715873655,-1.8817429132876493,3.371598636520862,5.433827646670121,-1.8771712124095496,-0.4096404757917559
2.433631516810657,0.33468760591019975,-0.5851698043307494,3.2286633983028326,4.4804168008293885,4.313116956098121,-12.988395299832517,-3.1570565802661608,-0.4868786098076485,0.3894563010734671
2.3566759130013772,1.8657692729250197,-0.5258578126450795,2.526378508148416,2.6614998860009282,3.8444209530271856,-8.594961652280386,-4.775650120655969,-1.2525820482335233,0.9760843275979061
2.4013086119338207,0.393522400808217,-0.1619612977008188,-0.6421185536171568,1.4291195525363416,1.7646649503119702,-1.884573430972971,-0.6986963915795898,-0.490198221716216,0.2674866590678653
1.5179456701082454,1.3085970348106222,-0.10179363093004168,0.5598653648055729,1.3504689923765472,1.3166354985321216,0.9304223410519674,-0.9494893332040366,3.2454120736565546,-0.4035011428663963
0.2956415844561653,3.2709764582624006,-0.3416672177947639,1.1659309522325065,1.2943485917730402,5.252120924225112,-8.199806624721424,-1.1967563125700655,-2.3169576503550724,0.48873599443530225
2.7221597810662064,3.2330577753000993,-0.22837245472590215,-0.02660856394856126,3.1582447080835463,2.121448601947068,-3.6908072444537128,-5.571260948547167,-0.9148932278066083,0.15008700115508813
0.05456642783237631,3.41674250399718,-0.03264059774508413,1.033052414366058,0.9015608962784626,-0.01542496803146376,-1.6205934455980975,-1.1233578763619518,-3.158445149494086,0.6924428202420949
2.836133437735556,0.9790094126780831,-0.7900793691181017,3.095623395628274,4.891078949121482,4.440616361075982,-10.684343795773424,-2.5869970695150624,-0.3842901947409032,-0.24226090013555288
1.4897306649958715,1.1401284389739397,0.037391031857479246,-0.5493052250479331,0.7093685661381388,-1.0016506102591491,-1.4483862202297035,-0.07292568791517606,0.22486570649295423,0.23739253312260605
-0.22581969487054787,2.5994849047543678,0.05832765417912824,2.336798059835551,-0.7229440839969242,2.3170265086281225,-6.169062551106523,-1.247217072194169,-2.2297668269457236,0.6353006166138198
2.519247625263269,0.1998925674258123,-0.6216880227798355,-0.6294148724245628,3.965952241189345,1.2186446952818561,-1.242183792890843,-1.2419730612905258,-0.7189420971513096,-0.05886941543318391
0.16876378552722393,2.564840580802031,0.406709361233376,1.5020050384126677,-1.2459930396226049,3.644187371524021,-13.536033616456155,-6.051516568503684,-0.5330680494068691,0.9801309516835169
0.29438878547738123,0.7741777717700371,0.1599429554359257,-0.5829915102002974,0.2533644322680691,1.1699511621780285,-4.585970744111588,-2.0992730169045073,0.5636920198234305,0.14158740255650118
1.0595545744774895,0.9310405959570556,-0.4709385699691855,0.23402884083167974,2.945358647160152,1.7674250769479283,-2.844280081955535,1.7240003243307918,1.246360506897295,0.3459768388862855
2.828694274729787,0.3449701775562122,-0.6039869888147146,3.085885009543512,4.287006152906911,6.256275487845768,-10.110816912574812,-4.921888088092778,0.10250040112715769,-0.18748999746247233
1.281227587234099,0.4697916477521358,-0.13530014540679977,2.438438293918078,0.7621336922739872,0.9489093630963297,-12.306186915462604,-2.950220032715481,-0.5302783679005733,0.6141980458887925
1.8009216763123277,0.33514147089682966,-0.2299500490925569,-0.7701863168987605,2.841232924637365,2.7888694599217816,-0.6088017348387988,-0.6279373531988499,-1.6011294337486024,0.04465546232961426
-0.08432707485720625,3.2958257316023545,0.16829206096528798,1.480392737371886,-0.8719799275075604,3.3064814641210205,-7.8164567573238966,-3.9931709395805175,-1.2259905606079422,1.1659473370040891
-0.8762293265563756,0.823624935699689,0.07660436321376435,0.4645680820537317,-0.8235693217695572,0.5840838208183627,-0.4837747619149795,-0.8372886957007369,0.5063168198056641,-0.01641236367836816
0.6042634004210456,0.8545087485339593,-0.07146584981503196,2.81877862641562,0.9420325159456565,9.714627912199463,-13.904645830107086,-5.428505055306633,-1.224924288386141,0.19948417012337089
1.0172287139670586,-0.37146528105345544,0.11209003892813664,-0.623231884230416,1.0749402149959928,-2.93207666405816,4.9711728074107535,3.272001851569063,-0.575935368718322,0.2626329377553931
-0.03694657903363985,0.6571645658045795,-0.3689923619686138,0.6958982394704742,1.382334742140406,-0.3475522944835173,-4.763939580461878,-1.308130791985514,-2.167366819700423,0.3142458880359205
1.4910982661874344,1.709510569049224,0.040240233839406926,1.3696031963738151,1.6718684424269734,-0.3157220122610247,5.400584893081232,-0.9369966446192738,1.413817270775879,-0.18374675464321719
0.9223562350037346,1.7007478286246522,0.14797744689759174,-0.2997030055106149,0.8327385038579528,-1.9709434073495695,-3.388461448767128,2.2163762820476487,-1.9810572043594052,0.9192870693319939
0.22034035986658718,-0.04747122553616456,0.07887295554909989,0.6430705598032118,0.9221852995063154,4.149209693511106,-9.613990330466232,-3.8156277881789995,0.200279197058801,0.2077879849626136
1.5348012723634805,-0.026284522385938924,0.07226801922199406,2.03715036421454,0.590213762363896,3.2521755930586513,-11.263041452366952,-1.1624288937014364,-1.540029471571975,0.10709175621605287
0.5389895193154286,0.3005106696355495,-0.10332213480356314,1.6995435499908065,0.42343104765038736,3.523846037027427,-4.972719187872089,-5.112604148777026,0.26333562616077444,-0.45686191620245314
2.8783362922978966,-0.8882244263364298,-0.5699683994297613,1.1466203227980314,3.012213659592728,1.0403362215795882,1.5989526205937508,2.377075493147071,1.1869571895964914,-0.7444779243771545
0.380600031859355,3.2224744846192594,-0.0037777663916870106,1.8489678375461311,-0.20393675682952003,1.8872390620749173,-2.578417699055933,0.656373155310882,-0.8787911860329287,0.025686917214052606
2.2128356127194024,1.903468185517967,-0.7119350486357355,0.9315330195159992,4.761915317215201,3.5309543756911252,-3.949288457604103,-2.609521934962796,-0.1289815886164285,0.759653773969023
-0.8836820281725402,3.1054163979465104,-0.1778966915975347,3.44749522079469,0.0917037163383493,7.455787271078317,-6.109287782724743,-2.6553709478096095,-1.634787022893243,0.658726323219134
2.9808928886566033,1.5218202673147014,-0.8231508831041726,2.202351535089289,5.324605827711828,-1.215618991886864,1.7025706252123631,-0.6826793448656838,-0.7378108583077447,-0.20847324957659824
3.0088227344626235,1.6903684440635773,-0.8908777250625776,-0.2652184205673017,4.311683309047972,0.5211593406655142,-6.8890130993637095,0.5052459150334626,-1.1685210861295905,0.16242698425575414
0.3459248233631722,2.9603260158312987,-0.09302500114051565,-0.43324732938566324,-0.3128893591548553,-1.0586243010961505,-2.1237968063649237,-0.2857430718979154,-4.007710258705158,0.6832418075543131
-0.8774024336846935,-0.17842925307866842,0.5704546573961318,1.5087557203075233,-2.8849574702598755,3.218431639114746,-0.8429334636775085,-2.884895243364083,-0.07967719563071812,0.1159347892221506
0.6847654964159762,-0.05562123142027631,-0.09445874616884303,1.7409021994909346,0.9135097045819575,2.6237707424803363,-9.652463846967297,-1.5195209164255084,-1.16975330914614,-0.15628175672721598
0.08970991937602846,2.4810967500995686,-0.04342765378001036,2.8767958614072815,-0.8827452231905225,0.5595965241371195,0.6802793467312296,-2.6778115136707523,-2.5478131653381766,1.112614267156817
1.3394647988065733,0.02861409906210155,-0.0005006688512712122,0.4659979164717234,1.527043209195519,0.7725357984141259,1.809762767089858,3.650497056871012,-0.3098338969547594,-0.01735846535645367
1.999011863598466,0.4843685799747639,-0.34359032217926727,-0.2694926060210241,3.2615701113782793,-2.6298479438372224,0.31167215821720795,0.10283206170698223,-0.8617481436322476,0.019071256240003696
1.2663133629184444,2.9155992725218964,0.09610301008629855,-0.019517873949605025,2.797742187500669,-0.3793368455691428,-1.1167747188710382,-2.1996332480522636,-1.1828540011337918,0.48075864250232253
0.6225448094997152,-0.4707269841801095,-0.22230776380845788,2.933239142988179,0.4434863258503366,6.367341129965416,-9.532161853810498,-5.432483230703904,-0.6972499760517572,-0.0991691972943081
0.396258332474436,2.161137106618165,-0.025440854549796877,0.31232294780912695,-0.5530834032470189,-1.0217939248839485,-2.5582503468673155,-0.8445666956111186,0.08497559574522984,0.3873130251651145
1.9980193063063116,-0.29851834867211857,-0.25328766667868324,-0.9628900898038624,1.1104689213454568,-1.0833251701787368,4.749047289387312,-0.3050472810225222,-0.5115454839680801,-0.20702088210965158
2.2388762321951376,-0.6506479150936162,-0.30082215628146686,3.0598473486467856,2.2413614966593816,6.327417718927031,-7.782663358595224,-4.376419622627614,0.10019373920878617,-0.14693891152191765
2.417329451407923,3.1393412694804503,-0.4968729554587026,-0.4997373321969336,4.002656869778349,4.8586795083472,-2.9262324879812396,-3.859234576460687,-1.489396350227067,0.7159047570719737
3.29038859742841,-0.8348148475964052,-0.5430199713225865,3.4170337175137657,3.1967073442494227,9.898681571027222,-13.008612489937002,-8.72473728618866,-2.3492056743012846,0.4223179641131337
3.4311296141769443,1.161337056972601,-0.42306032020224804,1.7436186570671084,3.9441274045752595,5.85232909000515,-2.5786551831692313,-2.9977187911768026,-0.5876185550247275,0.704202492477267
2.689380943226117,0.6946505763255861,-0.7264387734707964,0.44116788023017883,3.4306136147729243,-1.293181044357059,-0.14353924356721137,0.27713574044269706,-0.26676698726999887,-0.1953653360627178
-0.3963645192387113,2.951203901627917,0.3641750960774734,0.43380259205897564,-0.5955876787771511,3.529623112028472,-3.771732693092563,-3.7985875181033006,-2.442257227320087,0.8005487967315202
1.0879565016965542,-0.8181945060271489,-0.4880570877702398,0.4005569469850099,2.1462645225220083,3.505062903058115,-1.335035592864523,0.34100569799174585,1.4741211275705157,0.3265591207889405
2.4686239537040233,-0.15109964206523263,-0.5671798099612096,1.254970525754365,3.456061173907365,2.8308720634179707,-3.5113242524447745,-2.1993788597929953,1.843823455107983,0.16852317096050184
1.6747910054135482,-0.7368112862845677,-0.35424103337818114,-0.10183314120309273,2.4561016786966947,-2.837581433338051,1.8748345450858244,2.151448377028364,-0.6275903567687593,0.17783793354225957
0.4558298747789131,0.5358516421672506,-0.12763868990622035,2.441622832732963,-0.1460116669362827,3.5833263393806742,-10.740475337402446,-5.316709255282199,-0.15616079007528075,0.5289040911254168
-0.02097363780443906,2.5737927586454137,0.1947650080500628,3.3236794040223074,-0.37824400462876273,5.415166352377524,-11.690262370258964,-4.8174767420863445,-3.3415612459719757,0.7208632157451828
2.779118603861785,1.9962194873397503,-0.5177087571086941,-0.43954790172254743,3.482071224798039,4.430088984716593,-7.841195198720278,-2.6757356967366666,-1.8336185290357303,0.23907074260851507
0.27330292163610514,2.139263414264945,-0.5818063310352134,-0.029330804277012512,3.3637020935123596,2.250931861934896,-1.0741674516921969,-1.0155842463702007,-1.3280914698806523,0.2175405691064169
1.248771625761946,1.1634136371143207,-0.345661674129049,-0.24040492586995654,2.5885258739468395,-0.32256996566443474,-1.6432937480661494,-2.2075643959435527,0.10048396618897472,0.09539298360285729
2.281344120120181,-0.177265524255657,-0.1861229156280117,-0.45377068371267537,0.7327614636242666,0.9654729672187223,-0.2725507196940572,-2.3898098897212274,-0.27089958071026954,0.01691073844789572
0.0547869368194942,1.012456693233681,-0.40092124259874146,1.618279052123388,0.06078919576999288,3.9867474036463753,2.2815749104482688,-1.9345417057594019,-1.2605057715883425,0.6625953100011942
0.9578187114606629,-0.6275390403756116,-0.37997820606500393,0.9873819568595876,2.1550286638817844,1.4008762854489947,-1.6484357717016853,1.9275119263509866,0.6597688788010687,-0.5111810144705682
-0.02010155581130635,-0.40973167005298305,-0.25362127282966895,1.5255374021957855,1.2329290657834433,3.969523487488768,-9.627559199744615,-3.2585273792353755,1.5396666502818295,0.03796391378806523
-0.3826727975847023,0.9983982802581077,0.31630288756545244,-0.4568412667566416,-2.8389047856576273,3.5146239354724638,-6.986267735330492,-2.9001448583502287,-0.3814805406607721,0.676154069588018
0.7797955276865893,2.418562373240689,-0.1653654007633751,1.743128253831101,1.3377655965529147,3.4568967009878317,-8.12166796679885,-4.743208271419312,-1.3346140172605603,0.50376793129655
2.647068673364778,1.5653233437050131,-0.15035336940512148,1.159369124226695,2.5510853863378764,5.538156631890952,-7.4623965292362335,-1.4351534371160304,-1.3465900526090577,0.7034869111086897
3.2557485531400596,1.6990821975805916,-0.6513566393632005,0.42294862699470426,5.535834915178785,1.4496971984864273,-8.009357312472282,-1.5077984411694922,0.4398077871998637,-0.18821292305966117
-0.128601493035848,-0.7118461107253761,0.18642821891137273,0.5914696463328635,-1.0922559329013561,-0.5205860460598251,2.5039157403666956,-0.04355258113774707,-0.7094190155541789,-0.6385613224227488
-0.59108098213179,2.3820609265601203,0.3014928170272229,0.25684362234480385,-0.034952299669790673,-0.5549997818319621,-0.6357940914716944,-2.5790976069709965,-0.4904374798279809,0.2122658461652375
0.34616841903828877,-0.33417648125898136,0.18023400499063805,-0.09559621238430871,-0.8939386072945928,-1.3595480638042494,-0.6821578163280506,1.4565679452464617,1.4512847855820963,-0.16708969493027556
-0.2569616429904239,1.968371649009621,0.06490888077205235,-0.08021817182318025,0.11300952072430141,-2.423823223951022,-3.3425940047611924,-0.13837392251906944,-2.0001473253962163,-0.14301313487722145
0.5235891600847706,3.305858116235317,-0.2300461604876225,1.6853730591192195,1.7940828081447941,3.243878702819935,-5.344879563485232,-0.19275049922741108,0.1242989898860043,0.5163122871385211
1.0704579288519018,2.356925915123143,0.2133845344081081,2.475481529881612,1.2512657651959322,-3.376652276437101,2.4483497953599667,0.3831978071820057,-1.644644082526721,0.7940342708872936
2.667617639272641,2.394638304658544,-0.5275608327865915,3.2612754211268697,4.0841000671762,6.384364541870243,-10.616761548607027,-3.0875798355354824,-0.09047964981696177,-0.15204599975544342
2.6080689487224937,1.4724899859801424,-0.31954641403352324,0.5688982473827102,2.857085244050585,3.8921201990557,-7.411719026055158,-3.3812329944838093,-1.6232310646777763,1.0894500139635062
0.5807044092584364,0.6408024944286173,0.3007402159910049,1.9947607994038665,-1.43928698001803,6.856612544614719,-6.153965857359493,-2.714247017991071,-0.9152137723905249,-0.46180964985261624
1.2964367923540507,1.4718199464729071,-0.45281551526842273,1.9943937980188964,2.911138979279127,4.994915631423515,-6.246590692994466,-6.01670827546582,-0.3454285936632552,-0.16391003297450324
-0.6271649400691777,0.8765742244043788,-0.145878028616436,1.3038306246630924,1.3810949967559047,2.199384093010511,-0.7615010478242207,-3.014847170857673,0.8807030742622489,0.07175501170372928
1.328565211046722,1.1973325835937132,-0.409349513024456,3.4636782534713957,2.8738944420744867,4.691895813642416,-0.23472524459856237,-2.590384147262154,0.2588925696309504,-0.31396868846725134
0.17253672052949942,2.049632371029304,-0.25805649870761493,2.364811541732655,1.816994638356405,4.572677311196019,-3.9060250933293696,-2.9909978182534322,-0.11898072948284377,0.33919487938919984
2.0108593295183397,-0.1656011682927495,-0.08282439681597119,1.3297326723842722,2.825493102524298,-0.39116564157009837,-2.3734137054142055,-0.8324676642313558,1.147048740462073,-0.1252654553015589
1.8985068296857657,2.909827453444523,-0.31450894340871866,-0.13196429269812093,2.400927323244534,-2.62641967558407,-2.7856717692909467,-1.6676901016385028,-1.878810021380198,1.1440176388841938
-0.11200215678028913,0.44007050254847724,0.13027342495355598,2.848555244725205,-0.8138522496959193,3.807840872929065,-9.05945301592819,-2.127614878472483,0.3961405639050669,0.1721954861012679
2.482506172023983,1.7328932442673919,-0.019501182971540684,1.2100639883168833,-0.04114236574481619,6.83177034890789,-7.402596133577422,-2.9659516937685946,-0.7614081841548817,0.13050214064751287
-0.5312898341206684,3.1154313216501865,0.14571667470464703,2.270053311891792,1.1470260113278912,4.700521624747749,-7.399848334930333,-2.172051653373999,-0.7539592441968552,0.32009653795316745
2.1440649829077087,1.819154217737398,-0.25926524029815784,-0.6274227011832401,2.391089625536144,-5.215486918507997,-6.603514542552954,1.4575582315366826,-0.6708959653239566,0.43328023944612876
0.4987950331823985,0.10914504619257248,-0.6340813532390591,-0.2848663027322076,2.2899299423308985,3.5844554514997204,-2.1856085163761056,-0.5944162069572583,0.46149898284810414,0.08966658950832768
0.3472771860903854,-0.08017361701467307,-0.33599125479620584,-0.6727951195546131,2.8378920122267,-3.1796587026848595,0.6035442327580198,3.3425003821066035,-2.174266005796955,0.8239697343276815
-0.3723042023159361,0.8986780242611145,-0.023674218571139268,2.2026569340389965,-0.4282022684684464,0.1728986863419611,-8.603299820170465,0.0407181852852333,1.4200487179430228,-0.23723081560101195
1.1248235232089883,1.0722696436591632,-0.604758642563356,-0.8460010231695458,3.889878424038376,-1.690857613958059,2.4371360418312555,-0.3461834498150118,-1.2865467245565434,0.7765101372685583
2.431467064449375,-0.2178855029960982,-0.33929822871830095,0.47756252574847635,2.3843781977336076,2.2510635972392925,-5.509083048503446,-3.848303093299683,0.0030007191495255436,0.4370116843795533
2.396613707379822,2.268318566403854,-0.6986306019204446,0.2286073192655953,3.162474370948661,-1.1572060197572958,0.9657032791900289,-0.47419116734183087,0.2795798127757856,0.22070940932379954
0.07822473657725149,0.10233685568489914,0.09957335891598147,-0.9174216640249726,0.17754986937072975,-1.4921934315207863,6.957218352603089,1.2518835397977766,-0.049466833568926075,0.5034388096674336
-0.05332208420330986,0.2913421240574223,-0.1185239557486176,1.6354394434361001,-0.48846801609609086,1.4667986618476039,-7.053757763337614,-2.6027911237311523,1.0388174907362955,0.1888633970058414
2.211425637979824,0.9234477583547163,-0.683323421187966,1.8584234510433162,2.543905902149475,3.4224238364336155,-9.136597514804349,-7.440928421382078,0.2472219265265505,-0.15537995866685805
2.2369352070216406,-0.08072324857872837,-0.7468122925384368,0.2792301868536562,4.528959720262782,2.1505043942904436,-5.476310660836467,-1.0894249730971082,-0.6237424869209978,0.022952746327180144
-0.32275342484604763,-0.49311084333475985,0.20091128316931225,-0.11615324987599573,-1.2933189269993788,1.3467086938174295,0.7028567483872186,-2.6501509363943407,1.3082547963345499,0.18501025531994247
1.6238399712395672,-0.5925417361174957,0.1315979999809066,-0.4348564859516112,2.131839483838755,-0.9677813039553498,-0.7150704156652679,2.167532746602767,-1.4504652030669352,-0.13481595747344133
3.1259793706090804,-0.44746214930820827,-0.7156775120772422,1.8059735135248012,5.437104889688046,4.77673241779206,-5.786522411350372,-2.5259127382976505,-0.2988644025107906,0.010427493070646434
1.983341876108791,1.1193530318069356,-0.052525744132273386,-0.8647464059076224,2.6716959860572986,0.8336430470801504,-4.251691975923321,-0.4637898399585839,1.491972231593957,0.15442891282189813
-0.29225227666455855,2.8178471488548724,-0.08593412395423887,1.2944260881904714,-0.38880887626561556,0.32419224480658715,0.41247897751865936,-2.413983076631131,1.698019603902628,0.8960815550185448
1.6654709458973183,-0.8859105219864034,-0.4493685387254806,3.1799945347331926,3.0045594387446846,4.5975677525709795,-10.873757714314024,-4.238426029687323,-0.5301675707758172,-0.7826397141014838
2.1542855201463773,1.2001261742491445,-0.6109660975376501,0.18679403212159484,3.161016320263019,-3.3546355976530897,1.7000659245334189,5.061411288890152,1.390050539438202,0.37375450779304914
0.8897249148706798,-0.6094494603974177,-0.1604021497719264,1.6857441729711824,-0.7968474092506707,-0.1264020744785841,1.4852404650416802,2.972852479067369,1.3888197702320042,-0.9874476810578984
-0.7142390796636413,0.07592635474779907,0.21621282921123874,-0.5272101785719451,-0.5380617942892005,-2.1765428447714195,0.4205693485447294,0.6091510145369212,-0.14990346255047696,-0.377139577130056
1.936220810291784,2.839633154912124,-0.36738095970046214,1.360973931344915,2.092956984044284,4.401299156339984,-2.261582311392605,-3.8542705909856974,-1.869891062317154,0.27975817522521723
2.2097102253246095,2.1460840306412647,0.09844216262830581,3.0233631177653173,0.5275329907043516,7.753028644854868,-9.472201966931081,-3.6798063285575027,0.3888883237915066,0.5741685762698748
-0.13001628659814135,1.8487583552723805,-0.3612106247816117,0.4480854931866425,1.7846543160547308,1.0638029708067887,-5.422185874189487,1.174578873414967,-0.15070030425630354,0.5040268714654232
2.796318925731942,2.6447282818403077,-0.4343281288996055,-0.03883694435270768,2.520456420305264,1.0726518316102955,-7.880101959561074,-4.987220850456057,-3.3202289941901153,0.5749269094993645
2.940472635232151,2.0915031645964555,-0.7833643118776431,-0.12613282309010643,3.690917612901611,6.192291003177225,-5.604938277855954,-1.1512962529735289,-0.8430856927746289,0.19622075996849228
1.9357742758628982,1.7952994152999224,-0.5728191465839831,0.016609962032394288,2.2615941762944893,4.718581258935017,-3.6043161294414015,-1.9873522059958844,-1.445266202507935,0.41312398303009973
1.2330421166735324,1.4676431230814897,0.06830693390373312,0.03137767348798026,1.256408503727261,4.2769066640468605,-1.3622660215562226,0.33754704387349205,1.2947116716772675,-0.13045033807839412
0.958295812855771,0.6628131294387536,0.18890738174218286,1.0063408606971849,-0.7720583405796357,-0.9664054867191243,-2.185909654011925,1.1099940731391,1.0218103203176185,0.013983387603974358
0.5966126881309404,3.2265008714218277,0.026089582052005976,2.982989482823169,0.5649192922313162,2.3264717436565263,-8.863780123537996,-3.498676083698033,-1.6051623641023418,1.502914518951758
1.2560587733001403,-0.6549300870137988,-0.3687449136565734,1.5155311135748755,1.396780390674692,0.9257418472001467,-2.4195671581272054,-1.4257525801071114,0.6253526120874568,0.12334246141758072
0.760400211948679,1.5570559684793905,0.12036436333768154,1.7954733096104993,-1.0239573566043787,3.6291273351849567,-0.532305052645115,-3.1904217922919633,-1.581376282516381,0.6345026230579633
1.8941171655798654,2.9592875000374788,-0.166394832852811,2.3842640247743687,1.770965562546847,4.10317355009769,-7.730495047859651,-1.0882450602554457,-1.6245290904684822,-0.07710851921560934
1.7619865185442745,-0.9989764946293979,0.18318556254303647,1.3799083266909977,0.5196290943370235,1.6256423916559448,-4.995704303773797,-2.9722007915717845,0.24046663144937738,-0.3209849250439954
1.758920749488937,2.130848016304203,-0.2623978009406952,2.9437754340871245,1.308228473212695,4.65456012895546,-6.4263249594727085,-1.972399195014026,-1.1656709928763815,0.7200014753447048
3.332201457244091,-0.5012002378021658,-0.4971302610130008,0.7557884357817837,2.2554315826879145,-2.6021869257078465,-0.05412456956227185,2.8761462676159377,0.13149011323237092,0.10511007212307422
0.4608194727928794,-0.4888766273769828,-0.37757898808783397,-0.3937129057583597,1.2857647750453003,2.6409557749261516,-6.581928162922497,-3.016770424256717,1.4477620630556811,0.05899726459197159
2.6080205405444543,2.2207870137954124,-0.6675232280404082,1.1721780675597167,3.525738505271328,2.7715128586509894,1.4374673945714675,-3.18703721955851,-1.7395836678126289,0.4146385671111072
1.9795325691978487,3.0297687239128317,-0.46993550413560387,0.5862499543017179,3.0484054171025585,1.4749353879563616,-8.208777170971722,-5.541706156352346,0.9916191669935617,-0.20903169697584928
2.4707372790774147,3.3782887360254605,-0.23077476182369716,3.2845545248384598,2.8107565672862007,8.450780959834798,-3.972858117693636,-7.007741546308275,-3.0837255527710523,0.40676312280923776
1.691616139908814,3.0647930140903243,0.33053451505638404,-0.1720965776586466,-1.1384081260107826,5.7876423791014515,-9.867729104472748,-8.834790892617612,-3.5002932279994394,0.1832949577985334
0.7996230548790157,2.379678569134365,-0.14337453637092273,-0.4475095362585806,1.1988112829171533,6.003665795678153,-6.740085431232883,-5.250777552941607,-0.06257932160020885,0.2530507697517438
1.4857165660953777,2.600659788190495,0.05705362937064359,0.09312617870352535,0.3758941712594523,5.024101911284136,-5.38244440272787,-2.6638080989988566,-3.057490329913249,0.6703885724515795
-0.7071733882805044,2.8213783877167833,0.2743678255903179,2.1277892189411065,-0.9837780977699697,-4.161031119389347,0.17702439986292395,-1.4411312493926856,-0.8508044643121326,1.1610635603929658
3.2413938169955374,2.028485198756178,-0.5960332079683556,-0.6819519463313832,4.857594681228271,4.578116995065939,-7.688162411638544,-4.133472903516136,-0.601314786531866,0.3151469241774901
3.1740227388099793,-0.4657035300786032,-0.583946793000353,-0.3764287758205268,3.626751461941169,0.8720966527808085,-2.0224933386917034,-0.8223623515238041,-0.2878804898357046,-0.37566262084823965
0.9892283544717047,0.057366350341867545,0.2627052790775986,-0.9006440543549415,-0.42030009703759713,0.5948367480725848,3.187704228681091,-1.9244858710037887,-1.1480920983150669,0.3539861502165915
2.4548706940733953,0.11769646302824,-0.37573751500702124,2.0256798878228435,1.89690152888473,5.734096475870616,-6.411367280720012,-1.1056405021734916,1.1431209043890054,0.14496311354345598
1.6291526446854547,0.6431761316893176,-0.05707895711551023,-0.7873646082077982,0.26129054019133713,0.3114667541864047,-4.189351962530201,-1.7663977041341865,-0.9284629056008342,0.27747588709542187
2.5716914610110146,0.8651945919840294,-0.7878398748147936,0.7863992453028688,5.099773240398156,2.8880754834123756,-5.953868128683604,0.16891693654000228,-0.2773062308423585,0.09864949696290966
-0.7803192364025595,3.150542815477973,0.4986299297179225,1.5048634330746982,-1.4903400600766066,0.9606778791903916,-8.364294987289034,-3.815620995572922,0.3589288785401752,0.5610429467136787
0.049942905192176035,-0.9008501647494088,0.005228126141364368,0.2389870959195668,0.48858905968137284,1.243246472362806,-0.13257002155901776,-0.17945796184534296,1.797233960446671,-0.3010308258038155
2.3703121763553505,-0.14255773103776725,-0.13101650300341547,2.536196959601089,0.4884015375997983,4.245831591985453,-10.274277119033806,-5.574386445751025,0.86558580701614,-0.37484418673955794
0.44680161921742645,1.2380443888958945,-0.16004666915303437,2.115056286891018,-0.3861587275933252,1.5550521896705893,-6.471158085870838,-1.6525543705484154,-0.4933658179412492,0.0026679984306444927
0.6641356359505732,0.8836326468004572,0.07473082428284651,0.5036360852689814,0.9043734543648727,1.4018358850395138,-5.920208002440617,-1.3497445670264954,-0.5866065270362899,0.0935887270847471
1.2482561562810766,-0.989479062320853,-0.12145169150945766,2.7714932526856577,1.182373257586024,2.317876120435822,-3.197837741968283,-0.2950147174749377,-1.5292126153890737,0.32655046818889655
2.3542660534914095,-0.13746729307140515,-0.6638229205567202,-0.6080210907771662,4.1744287207966995,-0.5551798599353313,1.0483845075691092,-0.161140592285816,-0.7974348787062617,-0.6688301777825033
2.53956487640623,-0.4234158141548021,-0.5692642344271902,1.5121976679101485,4.8819669132089745,3.9274299172711746,-3.836513729086594,-0.9950609045464526,-0.4254557219101411,-0.32494950181094673
0.6874784617704908,2.756019935238052,0.08672262909622533,-0.23759534273389493,-0.08193531749238758,-1.243008157919269,-1.9602778641513852,1.1862761009682674,0.9091763380014908,0.46911975286062113
1.9784550281166555,2.09471139463652,-0.39069767284233187,1.7833780463948248,1.6233493688380007,6.139213130572501,-5.62466633511435,-5.130148319668622,-1.6169999535767436,-0.2901905343874862
3.0915733931282547,-0.0019214027574577797,-0.7523566840243413,3.2563430521342767,4.440528935125888,6.467032427646022,-7.041671679389472,-5.042528573931557,-0.9520540129648909,0.3961698231590761
-0.9444004214602642,3.2340178295305932,0.2105403127974463,2.054934805784117,-0.20806669282080395,2.8800320090823126,-1.0833199566475749,2.355874154952909,-3.0359088434471104,0.8343931340899782
2.0367889410119795,1.2854068580219589,-0.48158666010041157,-0.6517690304772529,3.9588229725848754,-1.6137656982999355,10.49401014502841,2.530667556285695,-1.6303477716352455,0.15917749202615503
2.347997103605709,3.159020227804181,-0.45536564414627234,0.9399056271485895,3.538261858455815,1.5661349480603113,-0.9965946442571896,-4.550913209255241,-2.8854164170793575,0.4977070493663801
3.237679098336617,-0.35564742845932373,-0.9307841698925925,-0.8262211622607942,5.51498875937169,-2.1151018067785605,-8.329569914602953,-2.1034775705205453,-1.7064870447094562,0.05022213268504777
0.18462459100757078,1.5749086014888776,-0.049025239468706544,1.4015923260853071,-0.9504114707074449,3.2986837233289465,-7.303596891794209,-2.418995060646791,0.7462990261073574,-0.22513882389796447
0.8931536682071803,1.8944199839715061,-0.591926946978441,0.38571888623757156,1.9093690519468645,1.609166408606986,-2.400461194250228,0.28367600528516423,0.0246090116483082,0.442648096238804
1.4990821674150596,-0.8565531958373442,-0.2266246310568905,0.8517657943665546,1.3789395799770847,3.8637261005741816,-4.630131230550685,-0.3360344168369571,2.142438271544234,0.00035976352769707547
2.5424450359710815,1.2513803451580134,-0.027775667991574382,1.8034290059637241,1.3816928191892475,5.307949583243951,-12.156802119022611,-8.566606303275607,-0.6612349528823511,0.3902653868987202
0.7307882500839571,0.08032946044048583,-0.5872858944828986,1.5832387031910713,2.565075445259235,1.848836932904835,-3.3446584319266495,-0.23965538254989782,-0.4392569876075979,0.6664117362608695
0.7189900932374214,-0.818344492966761,-0.5047272530225319,-0.9940397029905769,2.8819688468937446,1.242021919091095,-6.12661954924873,-0.18226356123742393,0.20417698116176924,-0.4863175227976983
-0.6786104497299571,2.2636575978239546,0.08899117650824488,-0.731070409130639,0.3681979633091264,2.750594851964359,-1.4813200878101687,-1.2361018086417275,-3.4207088939837047,0.11182767162095193
0.14519526901452728,0.17331661654172748,0.30347863590926,1.3242069205644018,-1.413387146639281,-3.114368119492375,5.928628412536901,2.251360006640053,-1.7559555057899756,0.16993604948183968
2.718914337540634,-0.6804428224800252,-0.8993351685998652,3.109781486870448,4.6827219260906325,1.313939669734177,-11.469054228478429,-6.50934065089017,-0.32701576896496565,0.5717589617967617
1.9868858940471847,-0.7427843796394467,-0.41398839371903984,0.8651727573763872,2.6722948521349315,1.5753370481970577,-0.9600263698653181,2.285206458983159,-1.8471323534095312,0.7303628807807625
0.34850582869973445,2.2204004707385825,0.1602783763283275,-0.3078480168798394,0.3140264638341614,0.0004894195359934628,-0.8228729362655054,-0.11861119572507678,-0.7584229108062681,-0.13703490898877277
3.210191123737098,0.664166230648622,-0.9559757177915025,0.6008378793174249,4.051863613410461,0.8227956724390335,-1.438764357117722,-0.6257959309608356,0.6382825506607002,0.15553812022381833
-0.8916601664780075,0.5464478264053716,0.13117405500303847,1.4000841227605956,-0.8947568720945773,-0.8106262144334183,2.081021215215432,1.9490990236908883,-0.18791647577103265,0.148391450946439
1.0416269045607534,0.5938511990222208,-0.062136464290731566,-0.8244897202327056,0.9116919927682178,-2.488179671802136,3.2203378154566087,0.3474956593823904,-0.5936330551448562,-0.13654840493925244
2.8663127639688,2.0445583906776146,-0.9900605369942135,-0.20688834359591357,5.165604858362448,-3.0720025961748,-1.5860671809863087,0.11834679528045422,0.38655696408809526,0.5386324451656556
-0.8129963100309876,3.4142773671409845,0.6955372498889608,1.0259856907959826,-2.8177009112568783,3.1266163661569983,-2.7544631615205875,-2.4211174707617915,-1.5368889840142523,0.8665436185348797
2.9911113384285306,1.4841646550389673,-0.018887792254572672,1.0575442886664916,2.6770145519487274,1.8689604019972663,-5.720359479390462,-5.249546386133315,-2.6666611558008326,-0.1789777092382351
3.013014650409514,2.847606179124081,-0.545058544078012,-0.9213092500796118,4.185550983648214,3.5594543270229853,-6.175895809463252,-2.5139142934286696,2.1852062319788326,0.7174344272971813
-0.944759384308951,-0.9217585723871884,-0.36309190456449275,1.1049417292095467,1.6086577479286557,1.0165112401544558,4.923193695250293,-0.09085442558976137,0.46059027741691083,-0.5314177591315289
3.071435564216552,1.274192914456644,-0.40230193851839324,0.26308352882658426,2.0923239997179426,5.380045426277711,-7.675060899734461,-1.6699413777440801,0.14305327837446813,0.0835961850706459
