x1,x2,x3,x4,x5,y1,y2,y3,y4,y5
-4.002388722121775,3.1036570798163705,3.2376647389636277,0.8838190650272468,-0.41579820043389,2.6808184739500382,1.502034069595229,-0.8178527969242957,-3.528303858293345,-0.9874899043803199
-4.341521975893505,-0.3237737241349725,2.1151304120710437,2.1552459362016356,-1.031082799850916,3.5379478034221363,0.9789557638971037,-2.4164661285303564,-7.0015561559773705,-1.79412841137106
-0.37043028252863963,1.1267023480728362,-0.2790771252181481,2.0424740961053685,-1.8056381506905563,-1.3822276906130608,0.38327750647839504,0.15448373003222932,-0.5190335716317691,-0.2737428188654607
-2.350063508512815,3.2192097627156215,1.0181476748156006,0.972336352821489,-1.4029297379453645,0.1678988350417996,0.9811229066454523,-1.1862032185374192,-4.2399655815373904,-0.7792600517464829
-0.3357413042863602,3.3509813240363107,-0.05222202823344624,3.155377297680433,-1.7288510687123568,-0.8264440793355892,-0.07816466931124542,-0.6417737648236589,0.21246871886520247,0.11429042841653947
-0.9999425844064816,0.2300303276687461,0.8116941898065624,0.18190538541436618,-1.4158895322945182,-0.15448634786611715,-1.1093466434387755,0.5455171565235982,-2.951630894013685,0.14466775720052655
0.08300312892914283,1.4261785155085813,0.4844522788193675,-0.5904213261318471,0.6782864731889031,1.7424353550714795,-0.07096030468638789,0.5204077938300021,3.638781241295794,-0.2869622370499338
-2.3292636267085296,0.2758605161540786,1.3060533280644746,0.7315851506428506,-0.6082115810929211,0.4444684639667108,0.9641286103122847,0.15437490457364259,-2.994348607324538,-0.2299536220815509
-3.8925989640547334,3.04565541092758,3.2517287914445934,-0.2796858710216794,-0.5211889411276709,2.004230801806165,0.6220904401946855,-1.3043932536947354,-3.86610771939571,-0.16831771298172915
-2.7342194996622746,3.183643233475519,2.2655316366396745,0.6679007873978815,-1.080391183434334,1.7363846588953877,1.103318279743307,-1.243298780474715,-3.120987921774642,-0.45925564435546506
3.1403909088417588,2.0299019492948323,-0.724478796013158,3.0783881272336284,-2.343239097995915,-1.3435839970989782,-0.748419497729531,0.5745312635244089,0.36794699130946956,-0.35981118394626765
-6.6752449221229995,2.569394930585207,2.7933901011101083,1.7629796145564742,-2.3426991624606384,1.394395960662831,1.8027142567314753,-2.5096599190372078,-7.6869249720489075,-1.7330790540475514
0.6240306311394958,1.027627688280123,1.2656149624912296,0.6701436534888845,-1.609090392392047,-0.6552418771031747,0.4317937229922426,0.1208580032673829,-2.234859895067265,0.36075236986992054
-4.809535463515598,3.355346864193197,3.4281529266621815,2.255026148255471,-4.098938400692732,1.5890717563835532,2.062748807104413,-1.2707013685071482,-6.9347812077649404,-1.9309543298409748
-2.6867637765852326,2.7367220714677845,1.813613305020819,1.1998324520247015,-2.8611901205220343,1.3852752267009782,0.8225688424325373,-0.7831985754027134,-7.4517976641441415,-1.728271023570707
-3.5285962381871814,-0.9382900685829841,1.7432905286071771,-0.6202334926805031,-0.7316839703766512,1.3925088830332033,1.177253273585565,-0.9457762498546053,-3.715072816744829,-0.44307442624835547
-2.0451077805851505,-0.26133814565578173,2.4783692315160057,1.4694160298752066,-1.4780115607531643,1.816070952468809,0.7690428430764228,-0.5006546396876869,-2.5015082769405717,0.03621232059560506
0.5759558822013195,1.8341083147765822,-0.26224885528417285,1.9451531423550459,-1.4591101531847388,0.07120365554308103,0.20106765195260232,-0.4375550472177518,0.33498204942593773,0.04298656939635011
-2.8970367504673535,1.4773536537307854,2.9203514770829893,0.2812541333903562,0.33186728248782105,3.9467020744342696,0.6654790166626923,-1.2127428629142776,-1.751160471053811,-0.7611176021761187
1.5784921715592364,3.275040162751483,0.008522356571003531,-0.8338485347138764,1.6000366259199508,-0.34994762782127203,-0.953961036216778,-0.23566735465720795,1.3548139904952656,1.2320677886744411
-3.484401298682365,0.01731076272722243,2.0912910274562377,0.45211320642615305,0.15364780951279366,1.569148923465177,-0.5335037541730326,-1.272599539028132,-1.2000732851257823,-0.8293999159290293
-1.1086887259354052,3.1447612424537787,0.5538993095555991,0.580087857617112,-1.0272634825393754,-0.12166448074290141,-1.0010905323611596,0.141839442820882,-3.508420985392053,-0.9466184865465824
-3.179503813490207,-0.017286554506885543,1.1341956355218636,-0.6999066313792488,0.9734484837767575,1.0190584017246662,1.2903170275147846,-1.0407905247596831,-2.4485767596379513,-0.1419535862681161
-2.759725474095604,0.6744554139124244,2.521816404609166,2.5460436019412556,-2.7756342102609284,1.2893272113134544,0.08155773844119912,-0.22559174745332675,-4.849003338602414,-0.9144119421837714
-3.237787081184499,1.3719620716125482,1.7561385935088896,2.4728046043716296,-3.3056454022162707,1.8544813302166665,1.213777091332773,-1.6987630343554205,-7.093184498414574,-1.726620820662251
-3.1872225454183636,1.3683708443526914,1.0531498195074316,2.0816748420530633,-1.4318125832493853,2.9786531954675697,1.6236813344154402,-1.0966996099227329,-4.217789281828317,-0.44306310415204236
-2.1723471736020077,-0.7913133414971658,1.2089674037850395,0.469910307558395,0.03761390509832166,2.7710141893814435,-0.2780652832498691,-1.3167948614383107,-0.07056554364075396,-0.5080801545456096
-2.1169194402837763,0.44390741221481966,2.9852704215104926,0.01997109833712618,-1.8389697322373748,0.7517915412925846,0.6291910840213563,-0.736893925785111,-4.896043897091454,-0.7151919797903807
0.5904095722831738,2.2211976412149705,0.3349448931820336,3.032846116022866,-4.196375571916778,-0.9747220002252623,-0.28283134750344674,-0.30687900583078115,0.01563541782085892,-0.7461765751318626
-0.34157618675925105,2.424602284054339,-0.7444753701957549,0.9704894223707548,-1.0032147041780783,1.8295893183590692,0.33978652565613005,-1.7265752258520894,-3.288987194058096,-0.7386353149716861
2.6256626304637263,-0.6113519952381858,-0.4773927538641537,2.606999698831338,-4.442476070433473,-1.361844004870942,-0.1962007212810017,1.6328165325859498,-2.5189653228478757,-0.6986906892588174
-1.4574173846842238,2.6886464739280758,1.4411073804101453,-0.6391148770480286,0.5976716431916624,3.304757530761467,0.6644362608421405,-0.525426219309031,0.17469274149496172,-0.21353375835830954
-0.8355570347521509,2.268019439076703,0.299729887657729,3.270517224686108,-1.00241110834027,-0.6792936638499805,1.4294140091644274,-0.9862824439922312,-3.998366396243641,0.06034388218805811
1.3499979024522575,3.463378434453004,-0.01028150890604973,0.09221862228261535,0.8535391352821968,-1.0787123850423488,-0.8337509617530078,1.0255939705537565,-1.7713840512376349,0.5076751494306444
-0.41093259081575195,0.3612483169328451,0.4806609846169052,0.9959237022558913,-0.7259665888173783,1.7470008111136575,0.26677535218293236,-0.665746059775862,-0.1243005591681754,-0.5650067548168051
-0.4393371752480083,1.286700762435336,1.0441411966141843,2.1710713795738417,-1.983928217680552,1.6435106545552514,-0.8788920695153684,-0.8869537046353447,-6.368119972721897,-0.5039556902115246
-1.5048655116804737,0.19376435515817003,1.9012506964099831,-0.49245947259599043,1.1696864421602984,0.824527640985526,0.13917176511978036,-1.490103115559925,-2.6510227118362497,-0.18498968749909284
0.6222581312092895,0.9465179096931557,1.6451590771299833,-0.6496750647572329,0.6196477548369451,-0.16083288532712336,0.9792440023906639,0.6340253244453766,3.135105382647141,-0.036822394824238575
-1.3482238047226005,0.26567920820244884,0.8380067860253511,-0.06973839340046317,0.7917079367706239,-0.2225709778677294,0.3964000744494713,-0.9981137995302776,1.6864871048745669,-0.3191745439341743
-2.346480657743335,2.4148925840642366,0.24181531852739613,-0.21648549721039034,0.9347764511693922,1.766493712275023,1.0575883255349503,-1.5888461772288272,1.754958557419065,-0.29791722795103687
-1.200089182369574,1.8043845507866805,-0.26952248750201935,0.017442548016985304,-0.6209415586128655,1.3670882242253053,0.33162696176813533,-2.044734612841143,-2.4172034428954383,-0.7737381766357848
0.8522115701767399,1.886678297046907,0.19346512542105865,3.153073074457704,-3.3750278571356853,-0.08688994514548923,0.2850491274209547,-0.38568609206701,-4.731482851114818,-1.1583261801673075
-4.0531047961306435,0.3183788342710596,3.05407968659245,0.9646335192948945,-1.5859297009108648,2.4402324096160917,0.3166194513193983,-0.76427662803938,-5.961404832595718,-1.4360748046372667
-3.9375579849910025,0.7837015721379443,2.636530548171981,0.8045971058788361,0.5207856560204736,2.586496573407934,1.9563950803514303,-1.9060132708855535,-5.280614879683365,-0.7880941802724251
-1.1174116303850108,-0.20182997013345771,0.09692849285739169,3.02917620334443,-4.879093518705709,0.8111345035870566,0.5050102140916403,-1.443421773414253,-7.574033977804559,-0.9156828347980588
-1.7725087723241517,1.602681649768951,0.07133214817562616,2.9091378950500753,-3.465140860604449,2.0145303936003045,1.0998313066039296,-1.1979934662970235,-4.9549322568317455,-0.31654440317689714
-3.1908857488107154,0.5868453748623257,2.837296173637842,-0.7811767579529076,1.2316209341474322,0.0031731655910198775,1.4109058497365556,-1.2065186483114838,-2.5418410560335767,-0.4140933701564578
-4.594258423433032,1.7894975399578161,2.815819116673338,3.374927765630133,-3.3504170318367037,2.808102922286464,0.6215532176601866,-1.1419838871343544,-7.765383100196176,-0.8074830810178639
-4.841857314061986,-0.3682534706110888,1.5471350269207345,-0.9566148519867,-0.28230401040695374,1.8937168933714121,-0.06415955731435674,-0.7304105673763531,-3.915591376298744,-0.8540949387454712
-2.2460102067272407,2.320475973880035,2.1834564620856347,2.5375624450624774,-3.1143941270468716,0.251601960860553,0.19462325216633855,-0.6671369412674676,-4.433716106320027,-1.125487554029409
-1.0129837930808108,1.479407292418534,-0.3722720385177142,2.345740377212112,-1.4188903619627034,0.6488202990793808,-0.09681388071293878,-0.9594707677046337,-4.9629186029632155,-0.2671678249492536
-3.909273627536243,2.3795040696657326,3.2579636534499565,2.9943078103260112,-2.5984790299637144,-0.08866047255611154,0.8451423459666171,-1.204225163492141,-9.537202573929054,-1.2949736251881454
-3.0359404807410426,3.0432327563529107,3.243736781811238,2.4562753330658635,-1.276241063801676,2.336771771416638,0.4544313732026968,-1.4308376199835722,-3.1883445546662115,-0.498103032375818
1.933479877735389,2.5691605368824706,-0.266691836137009,2.8090856363251886,-4.048321675070444,-1.5483376253103127,-0.6930662152352137,0.4714335213807805,1.0822087324431262,0.13678371171734707
-3.527655658184332,1.2571782842715549,2.2695083386129062,2.192316314793054,-0.8210108207059221,1.2734969222548198,0.971476271056674,-0.5925784123451339,-7.216961226476059,-0.5118039287403523
-2.692129155476169,3.0570352779606074,1.541330352567294,0.8820668888584926,-2.057893383729921,1.8497624345299584,2.3500505982447946,-1.7511593988684777,-8.035714043488824,-1.4426838350790154
-1.8256669150310554,2.4845355034791883,-0.31477512591438894,2.2636718743735007,-1.503507197592941,-0.49843082437449393,0.7762560390479888,-1.467017498097556,-3.365971294353544,-0.5153771181009967
-2.157803043654656,2.6228933643601793,1.3253541145837677,3.130973962469037,-1.0968410208684973,1.8632915594110813,0.6495092879650277,-1.9462519261086684,-2.7554814503644014,-0.8485917547884954
0.5005036597582481,2.159886044082867,-0.7920326518000819,3.041091225695551,-3.1094661602893496,-1.292935965673768,-0.2247470993934926,0.6182660801400601,-0.7629312412153613,-0.6082036700345193
3.0296770462109612,1.2301107661106832,-0.8177856902606623,-0.8399145768690166,-0.281019822688962,-1.626828034052806,-1.6012411146234626,0.459740138087388,3.0257873872430925,0.7097772181398492
-0.716911179967835,2.087269263306756,0.690282938922721,-0.9187581696327269,-1.1412852767156818,0.5058471631714033,0.7094304271428971,-0.617070075428865,-5.250822153425377,-0.5849085454316941
-5.15524232532416,1.7421960681278876,3.230597704047545,-0.8832020892272318,0.38153086741810216,2.468108714945435,0.9247624449111258,-2.351175735764026,-4.182548442461955,-0.7983418443343938
-0.2887970567302804,2.295840299319987,-0.7866656330450909,2.830155246115238,-3.813957867286161,-1.0157696776461818,0.687981434681592,0.5696484771628212,-8.046317090570687,-1.2585841383661633
-0.7254501004021626,2.76007389802312,1.8899438773025707,3.0526240342472386,-3.2637918010429066,0.7649828018719175,0.6209970374774986,-1.2540228020003545,-2.219742180197591,-1.1225156786677664
-1.5820630202162214,1.0596563662934764,1.403407326144786,-0.4302026782115552,-0.782290884856501,1.5476116803271107,-0.6755563612615695,0.9352998908322379,-1.5752965898541083,-0.2779627868966224
1.4027855404103617,1.4389233778489383,-0.8188412986702033,-0.4446295328522548,-0.3328307669681691,-1.7007055707180863,0.5353386966051302,0.19534989276589143,-0.7916448236531364,-0.03826194279979749
-1.8854963431802334,1.7321126318691378,0.8569541334136117,0.09900452920200276,-0.8715848766049243,-0.10267088119734721,0.43259361984382727,-0.27912112586085697,-3.6925375783812786,0.45030903790049787
-2.6552646950835728,-0.5634414633310629,2.3629652552566642,-0.5814634249395674,0.1840710514788829,2.0949458154012643,-0.4716074507379952,0.24485682871983014,0.2876912659978266,0.05744967085797653
0.7591218950550177,-0.35633461378853093,0.612964289170129,-0.42615714037847086,-0.09663433341272787,0.36751002556600487,-0.950102746913607,0.3396206573827237,0.33144860062213977,0.27657687188202507
-4.143042346632082,2.121121394393618,1.1448499440528006,1.4602106969788702,-1.3972289263216717,0.628552792584613,1.127926631110212,-1.611345514380338,-3.2538170309512635,-1.269126126842762
-4.177352144193982,0.018505111804279384,2.887622747055048,0.10400814171748252,0.22640814298919054,4.064872944778181,2.471961579639734,-0.9780498305647795,-6.225586468549135,-1.36428154997131
-3.5881506520227906,2.394173820446546,3.2679143827116617,2.53701297920299,-1.4877520690335901,2.7540923170578386,0.7986947727760011,-0.332527609589106,-4.60474949357081,-1.3890952798007763
-2.8757720374552442,-0.1818749337787552,1.1258225025508812,2.243650502423793,-2.3757534317012983,2.6113166354477126,0.5541429070762172,-2.960656662767106,-10.093510269829869,-1.138009169203883
-2.613098708968804,1.977784666403815,2.6302128888227596,2.415961147081381,-1.2510891795988681,3.3837431879741304,0.8480308017199033,-1.3850559999293157,-1.5490010727337638,-0.3338832880586256
-5.616865440114782,0.2660018751991382,3.227023707929737,-0.0826235423837145,0.03096470173232057,1.811496847396344,2.120030773265932,-1.219626461074938,-5.513167592663063,-1.1974532292153603
0.22798312008854704,2.327623713989221,-0.6781860621689857,-0.5778141841454112,0.2674146234489603,-1.0315611617409037,-0.20166404904774526,1.157001384306276,-0.3723850249364572,0.43606434597197197
-1.4012836516826268,-0.031887216504679516,-0.9417121461165681,3.086776734750683,-3.3926189960727506,2.4786619180385,0.7592591117214091,-1.2481366251420056,-5.078083774380104,-0.3841174888595988
-2.0343990540232433,1.19795702148543,1.1773127199956397,0.4389148752381047,-0.048861272122235816,2.314076460707248,1.4669698587816138,-1.303229532582602,-0.970554347192229,-0.21837863624793968
-0.1868382654939115,2.0557261212588216,-0.9695396470398285,1.135401520892565,0.3514475899791767,0.1519983702740718,0.4259231433354558,-0.4165239667029477,1.8355674720912156,0.05360432854769717
-1.9388422195684256,-0.41163328618126227,0.6798664236237595,2.887826328682836,-1.5765558472398988,0.6956991895810529,0.5086314841671532,1.2517021574458054,-1.3312573680243758,-0.26762319209706914
0.53122512029391,0.061277222128373054,-0.2930628224731241,0.5719620882144278,-0.7460347008883892,-0.7491757020178962,-0.5706354832662683,1.3020763445638854,-0.5524509402999929,0.007583389533159887
-3.5678539387484975,0.22498545095497757,2.518823799381578,2.984728745270994,-2.5990597127917803,0.7496742363307214,0.28286157485914043,-1.2379764627385985,-6.5572315103917775,-0.8522289570236683
-2.385149157266093,-0.009268193358742294,0.9215219555500047,3.31850969061896,-3.120388563991727,1.7554513862326606,1.3941011331216493,-1.2868352248826407,-2.8400512579219495,-0.8772840276449596
0.04724592510417583,1.5507493571574797,-0.3824727267165914,0.47842683567876754,-1.230400513612536,0.10187063182529539,-0.9902816634996368,0.9368473456530413,0.22742941634776903,-0.4209072743606157
-4.700686876100591,3.104426105110072,2.9173391320665147,-0.19329509982320747,1.4958777757036283,1.5005518794949855,1.7722631172255345,-1.4379253606456297,-0.7880766826503978,-0.6633520489198321
-3.5250828362541613,-0.7174371507709971,3.0799982834834276,2.5474239969805446,-2.6270248971895405,2.2018244697364384,2.2752803723634996,-1.7970965736715843,-6.054763193313891,-0.37227900411602516
-2.0410050761045233,0.2745090429206265,0.5880768552949542,2.6948183804853034,-2.9748935155308676,1.538482834399368,2.0783550891949534,-1.5397866347852123,-5.6268277500222466,-1.7229797729403653
-2.72334837422801,2.7645414794879644,-0.4848788799430441,2.2520782761123375,-1.8828302238669288,1.1915027208365971,1.742570643430267,-2.252944666900465,-8.144604225940087,-1.3057822666863252
-1.4929680833336625,0.7986137766868384,0.2915707713661402,0.8372031967287932,-0.7629812387761382,1.576183974974274,0.7652313477808997,-0.36861346020510294,-1.4263862046387747,-0.0960978597989046
-3.8152483334622573,0.7351765281128024,1.5692685517959122,-0.43479403110941983,-0.27332867672529726,1.0733679562557539,0.18998392889978102,-1.193597757766291,-6.229747006967648,-1.1505233141109839
0.24654976176851762,0.8921314043146296,-0.41661296184447927,1.5258420944560949,-1.0726906230731115,0.8805713970470954,-0.8144769392920281,0.2774321006588842,-5.766976719767723,-0.771942463375563
-0.5956336561663222,-0.366932250656796,0.1749528428529472,0.5968450354393351,-0.2562105507732153,-2.577632024763577,-0.7731010125164757,-0.503885189950065,3.194199414031579,0.22739234228934455
1.3544191194758333,2.8458736273288867,0.9885428180071081,3.223988744242119,-2.848692081092359,0.1706275069906279,0.033190207509079445,-0.5922400172186344,-1.2248937795256176,-0.4374011945639067
-1.2258040132313484,1.1815735226249071,1.5838525217910493,0.4997176068144713,0.05585797703915083,0.5471602860000262,1.881573421347508,-0.9207456994930581,0.05409469147994117,-0.0753001655482253
-0.9266656739059492,-0.8073082213408591,0.3755131531878897,1.0653398127744813,-0.5690296624923344,0.16387111038711621,1.0190923744560825,-0.13496714215728836,-2.414272048509267,-0.1613486707437305
-2.697171199982936,2.0158716396514174,0.4892635363792608,-0.04841183190913101,-1.1381735660658672,0.15611688740789775,0.5041164717324671,-0.9369744215956426,-4.327490481593425,-0.9459920307732429
-2.5483696594546688,2.5690875474455788,2.5830797962462344,0.990213406083277,-0.0002626858550877703,1.8040772035412866,0.49233732849436074,-1.6799916297118556,-5.3028164687671575,-0.8058044744599556
-0.08826584061075789,0.5860523428395785,-0.5636877930056693,2.5707373023718,-2.825939920166475,-0.8593728956294981,1.1892362396466913,-0.2965278474333581,-0.44825305222078315,-0.5471886137991989
-1.7144215026830707,1.1549263766537758,1.0462114506748614,1.9721803867826448,-2.0858845403663437,0.4025145611342418,0.3626332768136592,0.39040957156118705,-4.283601034802246,-0.8690208680690076
-0.16612201421811565,0.518861862348527,0.09815618536881021,-0.8478630753968164,-0.12287919731052252,0.8840347499849095,1.1367360410630682,-0.47822309483184866,-3.769898490714981,0.3354114862508171
0.3536547496152747,1.7375646045989868,-0.5445631297378803,-0.35745564460489543,-0.050571410267944567,0.5388978857263722,-0.2799511002864807,0.7754262479708293,2.5678559117566113,-0.08565778775555466
-0.5017606201155116,2.564808514869045,3.3372361158625976,2.2767709561948775,-1.7052191357508286,0.575916758187236,0.9510477792976216,0.2196274096307507,-7.094717338844163,-0.42458365335055953
-3.454761650359635,-0.1370715412490784,3.269676436197064,-0.5427523362345155,1.0670983359802622,1.7097910686920712,0.23987755972970173,-1.8851543555191952,-1.274802378376521,-0.31618803620125147
-2.7091926547272203,1.4978135475039984,1.2368890142083853,-0.2665432285619185,-0.22084364432599923,1.3270162017530107,0.924667224451716,-0.7906678366300328,-3.9958091881602775,-0.6635583643523515
-3.7308967740918075,1.532462732421482,2.427573634586232,3.033449076672621,-2.916726310227461,1.7039166239548056,0.6791005865407794,-1.6101819257382124,-8.693672716985763,-0.8158183599854929
-2.2284198616208264,1.4483098945783572,2.0831351914341636,1.3776082715856828,-0.31020827497398884,0.26816020519738637,0.20735581212553547,-0.6653906054735983,-4.070529385630205,-0.07795200409525493
-0.42399977571167846,0.6938761763257426,0.8938807215929618,1.761609242927085,-0.5868877138547763,0.7917192898155272,-0.04718074487183222,0.604597940583075,-0.7546939496987366,-0.3628121118870552
-1.0727949386292321,0.03982921399011641,0.8094773047165562,0.289846565324104,1.332345577413472,0.23443816882419832,0.8873146711274319,-0.4339396694538767,0.16013275223806278,0.04908842446381994
-2.1984859224188633,-0.20505497508499926,1.7209034279426674,-0.8767889597659299,0.2052377278569211,1.0509009567275065,0.061815699171740415,-0.9555123418564375,-1.4889022754386347,-0.16915952664594303
-1.975276055474101,-0.1941595145424998,2.6527487696206937,1.1720944871747196,-0.7317184320509187,1.2130153883717025,0.5486443035413413,-0.1219921824444825,0.8196506122092253,0.12205290100085614
1.4042632075725514,0.2756985363345599,-0.9715836854118346,2.7596226325095468,-4.068237150620511,-1.648345099784825,-0.2824266348690917,0.8658209611331937,-1.9066609587572847,-0.06671556793662735
-1.2087207565611675,0.2782992700316378,2.726566419058213,1.8751905634483452,-1.8095043402406983,2.4295744787586417,1.1259674196106855,-0.28995717120971554,0.7773342644687388,-0.06136983233359346
-1.7864924986614523,-0.3714091897878655,1.073185311280925,2.914772537366601,-1.6812505173102883,1.1797683933083394,1.0583458859694297,-0.8117099169409057,-3.021392389010436,-0.8725085205353459
-4.008847930462937,2.6650322730547313,2.760451828390941,3.136111742162109,-2.481405396034392,2.0611455858878194,0.9953680566318297,-1.4569405301789744,-9.32446646529182,-1.6334793369354434
0.1297141824663775,-0.48355683116469705,-0.13494882918312245,0.14722022300108017,0.5964021702034638,-1.4156819909697718,-0.009668035119438423,0.8092321368295542,4.673439844230595,-0.07853388639888846
-4.876372865018959,2.292630265910201,3.20850601916431,1.1629104815131268,0.017787635950058514,2.8134025916521623,1.1966371108888163,-2.84605902455876,-7.292054147832589,-1.0392600376246404
-2.6914859053771876,0.17670818405799782,1.8708596278270173,-0.10678566080516771,0.5063701910698372,0.3372405770396518,1.6230892165586703,-1.6722627262490346,-3.572077487288845,-0.16764844783152133
-1.55678264944465,-0.1989873749503468,1.7347603405762824,-0.5536636771586494,1.9730612264878724,0.9959678441902978,0.5965369684770726,0.017827281007436305,0.4206854332240881,-0.07609550468021979
-2.795080358762835,3.255675950337717,3.3865054286706435,2.047398224460257,-1.5306830223429544,1.415484581915193,0.0613444264042722,0.04793763551543525,-4.950179140687184,-1.0406182706103881
-2.2269112816275616,0.41178373680190905,0.573719330491751,0.9267371337516801,-0.06537771225047277,2.4922198643384443,1.4364521243184463,-1.337632137795559,3.176988749696131,-0.2024521296088609
0.7339510021241065,2.151964718585624,-0.5826782487442637,1.6893677967718195,-1.783792126101445,-1.600392698376715,-0.2835704196997666,0.4943112939978513,0.7265365062872047,-0.24749420463131627
0.16330528778356848,-0.657308907627976,1.273305202763062,2.000851617486423,-1.466906337813702,1.1779097060314183,0.7122098112014748,-0.597401651942441,-4.328416388890647,-0.4641476448493811
-2.2496192553520884,0.09341899536149878,2.0282343966686693,1.598014568250222,-1.0476200718446953,0.5339855278726082,0.751230695577811,-0.4205901488655874,-3.058607725531665,-0.7655330096627848
-0.3430813825985717,-0.17538141969112264,0.26409919944284876,2.026314236538291,-1.6542870637020635,0.6312841209905349,-0.731953664302611,-0.5307362545293701,-0.4479210886438929,-0.5658220415202505
-0.8877766967340226,2.0872174903389324,0.07208454171076228,3.056072926344428,-2.237606544608022,0.4631283660214003,0.3307288448459198,-0.28556158669294546,-7.302475183679601,-1.0968788060793306
2.0021374656962387,3.399190177782578,-0.02210811969521309,-0.3714068780292795,1.1719272579005229,-0.41165123929105935,-0.1590651961943568,-0.7556512748849277,2.3424027394511215,0.4818443109802145
-0.1526449026237675,3.2076041640309656,-0.41523875298934576,0.5591048477055505,-0.5470891018942505,-1.2152182722907283,-0.07662108871309138,0.9140852587518083,-1.8677481510061242,-0.647540080716105
-2.922214273890631,0.9075097779480377,2.996768790067538,2.3511568940707037,-2.0299441516944663,-0.25862233648739286,0.6518227500666692,-0.1300704062602201,-7.2649522095440835,-1.115239977875615
-2.473416620060659,0.6247022787967509,2.8757663639921587,1.150378030652536,-1.694102420291021,1.576906568206734,-0.14085124411844532,-0.017592851753810514,-6.252268824392113,-1.0779471084570482
0.33282154740669334,1.2196405630200529,-0.14281513008850255,0.7812007108756993,-0.030546977095880216,-2.1492809019479693,-0.24597525887823543,-0.5243507991169314,0.6356482202885692,-0.1614047919175901
-2.896620564323793,3.1596234989404612,0.9406208084087555,0.9866602791311034,-1.3157657682691175,1.431856229953379,1.0308073746461912,-0.022700696598779387,-3.3611273346999853,-0.18978091712731834
-1.4563864996362588,2.0894206221275295,-0.09226634550580115,3.265516654294161,-3.674126939377099,1.3717381189800082,-0.05462727981068499,-0.8352965231763737,-6.4344392431753015,-0.8921968261473033
-2.142168145353854,1.3440536995247276,0.06595871174111823,2.7516340300334803,-2.9554588232667762,1.4099293902017085,0.9694443722298193,-1.066650269603969,-7.342105832507701,-1.3997869622618457
-4.92293468753768,1.209770572078038,2.207825868168867,2.5909292134603286,-2.447345001683573,1.5909665707124372,0.8989201421699516,-2.4576654402026703,-10.947565576734975,-1.4720542848220832
-0.9405024515712013,0.837959229744387,0.8737956395740116,1.1102757433655834,-0.9577929348925932,-0.961637425372488,-0.5414380493817479,-1.0934170593327899,-2.108486952401,-1.2458904850821846
-1.9358530305773114,2.48481770182842,0.6318169869740684,0.5517146117270337,1.0697010065111974,2.454814255908917,0.08425821280886905,-0.36916346834191816,-4.7032616119102375,-0.9628834361208918
-0.6011860795431484,-0.6642374800651998,0.00538316142121098,0.03308359167596864,0.6391299206866115,0.8912707468361315,-0.379406562277093,0.5988512517770429,-2.609330693153044,0.13814293383721166
-2.5744225398495026,2.5057564213222308,1.2668220443076619,-0.4626254765319451,1.9249346828688212,-0.6225900061709513,0.00324563409019117,-1.3825133934389833,-3.5711346795338286,-0.14351539598281254
-0.5660945734773222,0.750175368876169,0.7318385739082589,0.594219438135936,-0.5918414125730647,-2.8357601901526714,-1.0096017115412936,0.7423866665507243,-1.1047608460784184,-1.0540373832853842
-4.911271961970896,2.4961423872930366,3.4194372448429284,3.240584415709373,-2.7787527477706657,1.5639265271355656,0.8664094485283854,-1.9471497558324875,-8.196413113790875,-1.351756672463669
-0.5179786623639677,0.09843350268498963,-0.33030256235710853,1.7402948989018725,0.9800201332236861,0.3444341011374525,-0.056690046502013876,-0.40064245110512425,-0.49121438425862585,-0.22637909662261854
-3.2952986049496675,1.9606952526816723,2.6893228792885226,0.7136189582504109,-2.1054425610924152,1.1134650465979177,0.9045015371858991,-1.1919862775789152,-5.883851537406713,-0.5770592050798883
2.518966931173047,0.8710061884339757,-0.9138859629381527,0.006583746854081252,-0.7844836590032105,-1.542457410086861,-0.7132223827712919,0.5594070539839034,1.6964260805479805,0.82814028119645
-1.6229940438771704,2.9182891010677627,1.3590818443687662,3.360708064486027,-3.943552911360268,0.12493527496940342,-1.0523748594449442,0.6237700566753018,-7.898852700180748,-1.0749050792393624
2.612153501263126,1.075738715362863,0.1266387765922754,1.642061387667363,-1.262531646490271,-2.2845364033720275,-1.4117622295339953,0.8753730182451391,3.750235466763561,0.18979042587550332
-0.6797841529350082,-0.2943532550111958,0.6296925387035619,1.9439369865553702,-2.0342907904109517,-0.5035606196484499,-0.18679137889205402,-1.025971436474455,-2.5221554315221413,-0.4457794734989494
-2.3269166572034066,1.6666477178905161,2.1471056780338595,-0.037640269088069944,-1.0377392006741815,0.7674762295293303,-0.3203521991900314,-1.1656069975719843,-3.2558611785064824,-1.0828458803641334
0.4723908830037776,1.2165889250896678,-0.8604021813751275,0.921830828923099,-2.207890347487769,-0.8998775091555176,-0.05682415746200754,0.035874517025709686,-1.554959762060872,-0.38985205139426016
-3.8303389306914117,0.7099439575834992,2.645830019538958,3.1545694300982765,-3.0358339180883323,1.3260023421202607,1.702885606774088,-0.5319333489422965,-4.510692026875269,-1.6685620884248535
0.1555122141549073,1.4102730180198115,0.8761710384520061,1.3029879594232727,0.692042953270895,-3.295666885364537,-0.2488174181923677,-0.12442422568742836,-4.0794422153757015,-0.8560293240054723
-3.2395420062214955,2.7422108025241605,3.0639865982681798,0.6904059265228488,-1.760415203550631,-0.613414868301673,0.5498217102539943,-0.4374918439829895,-4.517845439264621,-1.1595383220815842
2.1318125943429647,1.02644837068339,-0.738562777998724,1.9796974955453304,0.6123093441997748,-1.5088383356259585,-0.975661117822053,0.13124496277295214,-0.27281690754201515,0.2180731314250592
1.0610242037893904,-0.548497049581511,-0.8711359982167102,2.3457970716225907,-2.0518363654722434,0.8329499404250148,0.5813336553022155,0.15634081002864716,0.3053416967193725,0.8143216256504631
-0.010292250666805827,0.1365924199149149,-0.10293141438511211,1.926229015620664,-2.1556486916076993,0.9350631326249961,0.7959361811822322,-1.1677327559437904,-4.426588642503834,-0.6265932362692908
-1.5519314847570356,3.317706452711091,1.6041993218959139,2.7193090329562013,-3.3672370241938023,1.5687972420064895,0.6853752067983655,-1.153092928152753,-5.325865342460554,-0.8380232138849737
-3.8813029600590596,2.470319827019522,0.83872197686873,1.317662449088055,-1.3983741336712012,3.581198891080445,1.513861978453196,-2.521413885463402,-6.817341647425323,-1.4794819778719916
2.283123124114235,2.221025008544558,0.005424245728784083,-0.8503297892735657,-0.05012591419763261,0.03158411605350464,-0.23327562003759703,1.1984836707819828,2.0021859014202104,0.1526929005763504
-3.740020309645431,0.7327952019315274,3.095515715084548,-0.9796073764123833,1.8542895259403835,3.0641531193455087,0.9760676825558641,-1.3651223697398078,-2.331800707670122,-0.3608729658871527
-3.7678709353703472,2.389853626387916,2.244164644831592,-0.7330758626095037,-1.1868442265842538,1.7241085097088735,0.9705244945247896,-0.9660529154815283,-2.867172230783421,-0.10750873419710148
3.0442454106152463,1.291520196091155,-0.6081895872689371,3.224223584901618,-3.3702849402039408,0.25494193028588974,-0.33630574150419307,0.4284828362420058,2.0968054512241623,0.032477230730228
-1.0218893194043162,3.0735069964079162,1.2322689876601594,-0.8880452412445256,-0.011469764606791007,-1.1123887512224273,-0.2252878702922192,0.0013079446164957938,1.1158867184671486,-0.09661672473229806
-4.982606812283247,-0.7002231323430611,3.311848112540418,0.8367447937710126,-0.9185752090773828,0.807092207476164,0.8250724274827692,-2.3650760483020843,-7.342505164541284,-1.545737399322999
-0.05906226374744215,2.316255611315306,1.1946343275376057,1.0424379059204139,-2.0857056943908088,-1.674724897998616,0.15346062067448543,0.6169828996487672,-6.838751954840961,-1.0754893816205693
-0.6389081920657184,-0.5246545135127161,2.796172177457523,2.1627513180656877,-1.0872190735074045,0.506555179108191,-0.29012785691898807,0.19887434518499186,-0.6415675445623342,-0.011601966155947331
-2.9069290284316907,3.108954049489288,1.8160251091157766,2.607711826146894,-3.251298447069694,2.825903196327169,1.2814706605599344,-1.2666833402420425,-5.345260910360453,-1.3210342729245295
-4.445852144399351,0.96928574175862,2.663855525558375,-0.8977336295014855,-1.8377781221155078,0.2942928459546521,0.9230192498583076,-0.7470159892589925,-7.991340827930714,-1.6748052059209526
-0.5452804380209237,0.49763449709719065,0.948075036330877,3.350891139509625,-2.3358337089962733,-0.9919214978583841,-0.4418725659040296,0.7283332570110423,-0.724046145231831,-0.30462758456298783
0.4531476154654363,-0.9409533825312455,0.32339435220530444,-0.636439028392771,-0.05209399056178763,-1.2396523182124024,0.18282001776324727,1.068036467384638,1.7681203894804647,0.08161099414965994
-0.8972580373744802,-0.8754724315413205,0.9886585330748459,3.1851475577227015,-2.1232415867345127,-1.6756309664615245,-0.13919395660443468,-0.11007789459411424,-1.279036294039448,-0.3952859777421651
-0.12024909747408663,0.8504556510047654,0.30950253293761554,1.011935816470095,-1.2857440918591492,1.5092646835599988,0.9334983331431508,0.6840113271836955,0.3623373462726016,0.2654384454209387
2.568585597046311,1.0349913386347707,-0.6087970406580046,2.509992998672903,-1.5198528163874292,-2.8361604987351994,-0.5897012904085375,2.0807649050929418,4.1971766209520265,-0.19145623253480407
1.081013708882377,0.4442507754953213,-0.23500254611265203,-0.9547488090044097,1.556203047591235,-1.9884898781688078,-1.2536824353661926,1.0993691039697822,4.432685040444113,0.7597125687371252
-4.308554531855212,0.777891100691636,2.665266925501978,0.636713165817002,-0.6581022180849168,2.0737750135600046,0.3329198861145262,-1.1896162160609656,-5.0415490355435875,-1.1351929452133556
-3.105161942784736,1.130087501347556,2.603734066497758,-0.880602549425051,2.2670910980757837,1.267578641647338,1.2044983663664515,-0.12073132210972287,-0.06653219939332267,-0.12423923788838805
0.006794686630550532,0.09013719869188064,-0.518274656775773,0.9328884693824107,-0.6473076407998776,-1.4097656190623375,0.0473820856056294,0.574961963673354,-1.433698135583033,0.5997726648269687
-0.4720100297261554,-0.8531961095522493,-0.5063190478925735,1.4442093717029514,-1.7314198969034165,-1.1965950773784058,-0.7361247104189034,0.5767424436234498,-2.0184548105228735,-0.24668773069130817
-2.0904908729567895,1.030631821416364,0.22871443298652006,2.465687280707936,-3.159035400600543,0.9491181869593794,1.7544133436528104,-0.39847160332174336,-7.695861289232053,-1.389685942801738
2.9431338717537954,3.012979658897952,-0.10415626376138465,3.3430039431024747,-4.005653228991569,-1.9325899812325105,0.5157131763648102,0.773165363420016,-0.7108090112342622,-0.2461635541514252
-0.5499169216010368,-0.4191691017450677,1.0862730430925147,-0.8509439525897338,0.16447287013861694,-0.668635235592808,-0.9799795911079198,0.7130244760027216,0.40958939882693735,0.021553367557365633
-3.5581387474966215,2.6437805277608595,2.5113511869510727,2.188015503899451,-1.8146361793716368,2.3255934059245646,1.279763748848258,-1.9188955967588643,-6.007062768995964,-0.7015176493937263
-3.500787077369555,-0.2509925209018742,1.0531736784146117,1.004613176348983,-0.8500699990526093,2.8141795742363898,0.5637372348495234,-0.616568819424645,-3.442334227671606,-1.3500586501287841
-3.3808513256551076,-0.340856531171852,2.5110172137911233,2.1907682128798016,-2.1343474470791404,2.5025533717604374,0.833055221940646,-2.0454472300636772,-7.035997468743023,-1.8562213890288521
-1.276139576836887,3.2894462313836703,2.0317133912020005,3.375648120603185,-3.2937507115995928,-0.6536587549165827,-0.02273804967199392,0.032744553609311534,-6.512826127345984,-0.773610363539014
-0.14357782188328283,2.4385934089621117,-0.011673182050577435,2.4938722042915176,-1.952922046714898,1.3609358425099105,1.0480746449563092,-1.6063773725895403,-2.4070972358810105,-0.3018096598252208
-0.9375030177478183,0.5113394521857901,1.2744674794636905,0.4212841135414589,2.028803755002046,0.13090442454150125,-1.1097558469159965,0.28131292545051445,4.450541965800793,0.3011835542725064
-3.142917537377628,1.0695503507499802,3.21766710365441,0.4996339126992537,-1.4078977606424095,0.7114810229107843,0.9361149387450387,-1.3612554389280687,0.9005185190994369,-0.6415087741702216
0.15747966540175187,3.136935093823303,0.12427036945497738,0.39662891708499104,-0.8233750751389608,0.25833255454943593,0.20855101938749926,-0.05972761612911432,0.543258701837511,0.4546089913141125
-5.38904894428656,-0.9444314126310013,3.2472599951096868,2.968417109070971,-2.680366054505719,3.279893927375916,1.7330068103348157,-2.424983863818641,-6.278928949606858,-1.633973829992049
-0.4519717515591918,1.615689621018931,-0.4546096277348328,-0.6181390402508322,0.11896678266841888,-0.07186668526073,0.20378928471991192,-0.46392475942505634,0.7867017232817899,0.20924260434563294
-3.560089185423806,2.5441231577518946,2.4367968034327543,-0.2508468240878132,0.5269997807904974,6.118250379768613,1.4053902515640304,-3.297160581659376,-1.5841413680261787,-0.34364295352810453
-1.4817517637698165,3.344434052195222,0.08374004584709183,0.540770661830756,-0.29992263207904907,0.24491952976418807,0.33632414100691455,0.856246700855016,-4.760740862430299,-0.07623300393673338
-2.2691007201667523,-0.2732146064911658,1.8723927925001158,-0.8461564481575267,0.4995540076478276,1.9297239530169767,1.5410237179881083,-0.7708679369748416,-3.5335571035910376,-0.47445064533980014
-1.4567102910578804,1.0078012212151362,0.17464583138209733,-0.6634482724906974,-0.03059157672652874,0.8914759724404441,0.47213776490028764,-1.2304724275047187,-5.11154502648601,-0.39333721849281733
-0.2649345912001684,2.7302536322132585,0.4988446227544805,2.0629518361458254,-0.21824830935903863,-1.3869506419731423,-0.4476543381553499,0.7341062048136149,0.4987953701227412,0.366058566189161
-1.2940920477680733,1.1697347381084797,3.0744128386162215,1.4728234341708921,-2.6160138232160026,-0.5910198548329828,-0.451580398815717,-0.6132198358805785,-6.998982038164865,-0.9168257338958041
-2.4225197874915847,0.17806325042011784,0.7053626178855472,2.1682704866314855,-3.0597022577685875,1.2356530032920376,0.2841992479704567,-1.4311601586093916,-8.007796343796743,-1.3515368006833541
-0.6360943733960457,-0.2591487672910425,0.11205315559335993,1.3925317819818952,-1.2630570112111024,3.0302163990591646,1.4268455070542818,-1.2198381107256062,-2.4763745275422417,-0.25991902728360966
-2.8575122573892657,1.1733844474505304,0.6183187660371221,0.9447546962634397,-0.5713484202429004,0.35277308136838936,0.9087858261591566,-0.9307795662276559,0.39246285326783004,-0.9499698964895796
-0.9101458296489826,2.9681610616491243,0.7504450315231419,0.7715859053024534,-0.7066254042996141,0.001630676339382242,-0.034880760235708894,-0.19131347775313112,0.5343940262081058,-0.4852395209177629
-0.8612793244531949,-0.5005182177896905,0.6142195964289121,3.299906834015637,-2.0527101562653414,0.4521402032181878,0.5494963302460872,-0.8736380022945718,-5.283422269041216,-0.5554886630261957
-0.661443744293242,-0.5504450789680173,0.939804224475125,0.21265302903649919,0.07325968778190324,0.09114745437316435,0.04421374588967038,-0.42236568335050423,-1.2969433818715475,0.14208812104541743
-1.0016924455092275,2.738272916265273,0.8395169934477207,0.5670658345368231,-1.9754069712772913,0.6167301282057941,-0.2927803929491973,-0.9345495332980613,-0.11806436381217433,0.09313155592612182
0.16883842119492412,0.11233070970416903,-0.32958811023662615,-0.12006810187028405,0.8574863848454984,-0.22592440853545728,-0.5119239558141919,0.43127383237680084,2.587729515908033,0.5049129106094187
-2.877627049011593,-0.5545867694015565,0.8997787899063481,2.7546288957533536,-2.0168877923949013,1.1385595165598477,1.0180370197693744,-1.6896338410876401,-5.072596771153998,-1.251379009562169
-0.3036339968714605,-0.0007078556286874704,-0.18615123251202415,1.2769244900894918,-0.3651872619858543,-0.6716291397530549,-0.5725539038799524,0.29255032022441024,-2.054379365978287,-0.6729291955293527
0.17021361253752823,-0.6810659600826634,0.6072822140438614,-0.23297499474878436,0.9144834050935634,-2.09611163821922,-0.11411162465738876,0.16845606432207233,2.8969206935605243,1.1116483143936269
-1.1192908978601386,2.4205142395751973,-0.46651360129000763,0.9824389445894928,-1.1212923762681355,0.940346818087261,0.9643748363729613,0.15357401526456155,-5.269557386407019,-1.1263719331621214
-3.093739812724291,1.753453263450881,1.4962477791480042,3.22340601932322,-3.5526012837017076,1.288925325440837,-0.05366602987117785,0.043856091271321396,-9.323248333197013,-0.7670010896004369
0.9015182540159395,2.7421771337456926,-0.8484416404295809,0.5405138664260136,-1.942232502001472,-0.4135550113568919,-0.7699243282936071,-0.09258386123132407,-3.2076664259918717,-0.3844661319333356
-1.5068720049082625,0.2489938552449562,1.5239579256801257,0.24869323660836518,-0.7889643370570991,-0.5066200938899842,1.0194930503347321,-0.6212415669036923,-8.798374231460082,-1.2222761276430125
0.5009490461612585,0.6961006587615239,-0.11111733892171938,2.016418811913839,-1.1830679612662158,1.565719825201286,0.07787684923228833,-1.1907606412701897,1.543729545736935,0.6090005913542589
-3.005696172286529,1.8662266404876378,1.7780041736048378,2.688846271315427,-3.1270420746570355,1.7571144418972389,1.8261278661334976,-0.7129869024248203,-3.878523818714614,-1.7270668521838284
-0.9850288753135739,-0.8339343459983954,-0.03851983812812898,1.603674803064334,-2.628284817358237,-0.8732991664387457,-0.648282669284242,-0.8500221127440185,-5.089561272500475,-0.8478707573601884
-5.32046508561946,0.034987160925640914,3.0392281814584186,1.206018721526973,-0.512952709150378,4.327251150331081,1.4802690801266396,-3.373639159892405,-7.3841095307342846,-0.40292070374288425
-0.817134980252688,2.540245931733997,1.3019921042569305,2.3038498639374674,-0.9926939347282394,0.9858864765498034,-0.12363820828798072,1.4741894158843565,-6.0481174209282145,-0.17387603321030481
-0.05278714627259348,-0.14795492950863287,0.5756270035609912,0.32244444699467323,1.1729266091797885,1.9560067501287408,0.5928020337935194,-0.7108055162171776,-2.426731021235721,-0.19860976531728752
-1.14879049408217,-0.8244995348342343,2.2319985061255565,2.1800937218585448,-1.996345323169051,0.2915910897996131,0.9245771230530304,-1.1352036200150573,-4.231961269545131,-0.24508352118043045
-0.2886208618907801,-0.8226468385658547,0.48896346099642196,-0.3180663287014819,0.15500900775464738,0.3389928879233648,-0.6168428929266109,-1.047041700822488,0.5369768608852299,0.5600304977256819
-0.9596414911990562,1.6038937695857944,1.0732748567720582,1.2277486680366954,-2.104747175280997,-0.029538849159321853,0.4567352681654194,0.6592869948194741,1.9416165133936913,-0.013790181284583813
-0.38119243097746874,-0.39423775117587667,-0.37606179306235565,-0.7944379059720423,0.7245249937454922,-0.6442701804592119,-0.6957221606253369,1.3239949305157002,3.1188255558024083,-0.11665308284203549
-4.177879321815361,2.222532712946603,2.9350018537389078,2.14228889525097,-2.4657856498839945,1.5668301939963545,2.2212565642161217,-1.2983293616288174,-5.81309951144226,-1.143975507037205
-0.1234368010089259,2.376170708905254,-0.685459809265831,2.606912828707426,-3.532673577521313,0.32990935253834375,0.10484876829779874,0.034934688651726095,-2.9048969992358478,-0.5866414974319238
0.22274459679004072,0.4529218114429956,-0.7473638038289648,2.8946287335313663,-3.01740087361119,2.0727515211247947,-0.08157082495238405,0.030124909326608638,-2.543905483441743,-0.04365101258226223
-1.1529678036827433,1.892062709042642,1.5720144104182339,1.6336435444519037,0.24076389802937526,0.8882040368029467,1.270344638520548,0.4881271828836705,-2.876080510429823,0.14385834698037891
-3.9204559386373696,2.7579011850377246,1.147675294792326,-0.07909665303261348,1.1440388111678195,3.5287756410643225,0.943959784358539,-1.803321492743365,-0.6278998142346087,-0.5778555419110811
-3.1521105173558968,-0.27760515965888233,2.4446218626465215,2.0302247439468517,0.2405438206938936,0.9911658942926214,1.346926432786638,-1.460623529451854,-5.5270935481279,-1.1953451058018618
-2.6821998766282187,1.9045738368245595,2.8817275166252756,2.474336280566555,-2.853662649288635,0.12531005893582714,0.3140773251974751,-0.3487378842388967,-7.401650371622806,-1.4493116261517696
-0.08867268752733469,0.6005320814734654,-0.9156352455050278,3.3622227754984912,-2.9988805185762435,0.5687018348839833,-0.3549855984257039,-0.36781398485617056,-0.16454315057893043,0.07039527937464929
-1.2742677239603928,0.8194504094221369,2.234989219987318,1.2415768080895595,-1.5029260770951673,0.39896052196443366,0.2227267408588814,-0.751731247557797,-4.192455201280384,-0.9442361080328064
2.417717708452714,0.17364921019682056,-0.5537657593483611,2.562388994459805,-1.0975277158367711,-0.9717424765814364,-1.3567452415952161,1.492581248498553,4.2183644418133435,0.8055605119387359
-6.040650013076637,3.334246099585916,3.0343772564723857,2.4796958539862097,-1.4198372831067982,5.017161275166202,1.4705623067717488,-2.2792485205587982,-4.361972494875495,-1.2706731652609864
-1.625945033101322,2.7595478508104634,0.536129763422432,1.6858294408094556,-2.863271331379242,-0.7306828206253115,0.7524218841797076,-0.73973372829881,-4.278231874676709,-1.3027650635178976
-2.5468589888094306,1.3939263101279113,0.7762205646119955,0.8011667696087732,-0.501160208956874,0.5533521262237628,0.1209689791377533,-0.48184377713885485,-5.105074402072432,-0.5078004792991839
-3.636127096382307,2.8845836965627525,2.628464563887398,-0.4402703902276127,1.490933588970848,1.453230007129782,1.5435324420419183,-2.6295261240191503,-4.138217229493128,-1.0710715917177778
-0.4892950497189819,0.30304576863056454,1.1141742855621795,-0.4670242678669233,-0.7914975678556583,-0.061985478497791124,-0.7997534514451752,-0.3318692386157534,-0.8609907619714179,-0.4675238583529876
0.25433379018488067,1.7371924623655381,-0.591640047820875,2.8178885246746774,-2.5570749324911497,-0.6684590372888156,0.7375619925439615,-0.651621522987746,-3.8923582968847903,-0.5605714022187093
-3.637414644289512,2.858072611650407,2.5465838373393797,3.052486314176263,-2.521387538973307,2.929428400799251,0.7091770705933054,-1.639360150245909,-5.847796850467611,-1.1060018751652352
0.6320292702109945,1.4746778249784342,-0.6068506980679942,3.2753181696354083,-2.296485753611178,1.9857479399219007,0.42260447436118953,0.08662676841665813,-4.745389498538756,-0.2081810059480887
-4.542953921791359,2.024251141729653,2.7499388227167687,-0.20140234110387611,-0.6959657544254276,0.6241735331401375,1.8714543192639495,-0.9130418921511162,-6.792529550865356,-1.4901846657749251
-0.505504719781741,0.45518042289675376,-0.2826203734460754,0.3396026110902368,-0.14203083952597795,-0.5892014494668729,-0.1460692140041696,0.3295739637600448,-0.6918925763905748,0.14056413178164273
-2.7782166035145983,2.595259027426099,2.6017172568924596,0.7584179464800025,0.2945521056584989,0.41537618778545915,0.7603671809068341,-0.9197584603626582,-3.1049397615220182,-0.08184324261099338
-2.905643298728847,-0.45232340810130234,1.3578699659364402,3.1737581079581743,-0.9335857958789999,1.6305237872708376,-0.3771375828741773,0.012288866355837723,-7.502775298099498,-0.8781335073986173
-3.484887579775086,-0.8055426045492444,2.5758069036214972,3.008880617053241,-3.629461412168494,2.388978184729453,0.8449815944686867,-0.8723801322182346,-10.13399524696114,-1.2287338493437399
1.1158558281999338,2.5306306710465325,1.877529394200145,-0.1766248801049256,-0.016157320640169875,-0.9359412767701295,-0.7444793676684214,-0.7965701822731697,1.9703687869761937,0.249440142156458
-0.3384943235387287,1.683318934214729,0.5347423482112958,3.091375115136156,-3.594563157556582,1.3096480123773075,0.796622820690619,-0.1437120980578176,-5.136641835526385,-0.9556393805302708
1.0606295700503658,2.932658771046609,-0.9851113384208502,2.188077384967459,-1.6154148354487636,-1.620582846347256,-0.60927757247583,0.8534888476738867,-3.3870100523059965,0.03361457750514997
0.9152177293649345,2.456019825512981,-0.03181391970315961,1.307506140212722,-0.5324552815334067,-0.33030790192864723,-0.8477042724350164,0.3886160828025947,0.31893690074823366,0.12441071607109042
0.8518299136700058,0.8166549248285611,1.6560435102886526,2.8952467178697647,-3.7119494310859107,1.514063692496787,0.6865812441499811,-1.2337453453892981,-2.5422226120595015,-0.1763081792632201
0.10102961464921378,0.35949310442207305,-0.7397222909723478,1.1583006634982853,-2.145610764397705,-0.22543141955130305,0.5085380435982313,-0.08269700125918136,-1.0010272633584167,-0.09297704771290874
-3.2197130674556456,1.0208383942692012,2.8245543361332053,2.0720699104679405,-2.151689357929489,0.008706729621328124,-0.06738687060294472,-0.3812881302118671,-5.725094729503552,-0.46412695717147473
2.0478588741376256,2.77946223121166,-0.2941155140321442,1.5237327027526795,-0.4292394926703396,-0.816642722645839,-0.3995565249906637,0.8251631407448731,3.509811942573457,0.8566893222893337
-1.7103743821472057,1.0338281674710714,0.4477811338653632,3.3082247640176803,-2.782120564214939,-0.7834062452047004,-1.601624775604651,-0.10639862247349095,-7.6780349113908635,-0.9377079499580104
-2.294498387919572,1.0961023909829546,3.1627303446202895,0.28157960158725825,-0.12301928661387829,1.5286904100289433,0.6080573063149093,-1.2237418963027193,-2.7206467763426163,-0.577093313318732
0.48468897275573786,1.997631069669782,1.6077999583060483,0.08857361629774685,-1.8472424894855162,3.404591383254364,-0.004069395243449573,-1.0592032431849066,-1.693113292436327,-0.6008777385826276
-2.9306389132481327,2.2769791759581546,0.7219846877507643,0.6095544929185683,-1.5190933708735412,2.2076519914342283,1.0561430376238268,-1.3418690317211546,-5.611091769273934,-0.4772462305412661
-1.7397635104009455,0.814937208263671,0.7732012341248702,-0.20806331253633992,0.1381521626517242,1.243465137463811,0.9173846531452254,-1.650393193777876,0.3678417136330156,0.6009551836071793
-2.5618180438901366,-0.9578465082524119,2.7998506158014576,1.7122700242825122,-2.7143492864778453,1.831689421862651,1.2724930687585443,-0.03866240152098697,-6.254375663050362,-1.3779207569474994
-0.3494400510969317,-0.750590460945874,0.8686971590375325,1.6968978350434787,-0.44575444266896586,-0.14587778163374715,-0.34421670772242663,0.4921851980939164,2.3890800517687802,0.23673573858151487
-2.7285029172877473,-0.0003210529202969381,2.882450670200375,2.208212963520842,-2.966725123288916,-0.2702192496201481,-0.11394626666623302,-1.0599899544721068,-5.551989797769098,-0.7305036699299321
-0.8734534236356877,1.4863727792733434,-0.526432839441072,0.6890288333531882,0.16155467007771276,1.4089591494472622,0.12815254106953108,-0.5937212396586146,-3.076619757919844,-0.4030388372107775
-1.16482084991541,1.5874593476259617,2.2760293084553327,1.7861396909050624,-2.266533601175507,1.6418334617783414,0.14760305267580134,0.5149192948529955,4.162021247839956,-0.25948744700179605
-2.663163358437416,3.4349896190249902,2.5566918257044873,-0.7716064751172905,0.6151444910271961,1.0417318700809843,0.8044734683342903,-1.214000620149843,-0.36464970917531847,-0.9510731660479429
-1.2280862647798527,3.0035214697604227,1.7971691585428458,3.0818265099668576,-2.988872783436888,1.2231215081720719,-0.0027023744550096697,-0.4615474047610485,-5.034791713807097,-1.6705283066776526
-3.969311446265744,-0.4591457412089628,2.77171892398935,0.951851655946022,-0.6760632465376759,0.9058547266012279,0.5709248580176185,-0.2453431280204928,-2.1489215641931203,-0.8990896527076528
0.6043093596527023,3.332243713996845,1.707013257665205,-0.21303154050151385,-0.8995057684989533,0.45114842771698926,-0.6598792368123261,-0.4880768015180873,-1.6224826461998956,-0.4976266120191536
-1.7944877050603145,0.8493053942784756,0.6062404376631871,-0.9006981674151175,1.8006439778517396,4.095572893525381,0.8952051132963798,-1.5316795780774366,-0.30595775900844124,-0.5364109792389596
2.5310570551764524,1.6941476770084911,0.36235806344825927,-0.15484484231617823,1.1341851835429435,-0.4329771666333051,-1.255642816603692,0.8966834880056673,6.149757039873121,0.7191253765145682
-5.414456477599931,-0.8293873295574525,3.3853752356442257,-0.5106411544262701,-0.05011169792276436,2.657915743125369,0.7416590594522208,-0.8841329130101839,-3.7145014257806013,-0.7911301045832668
-1.2726908024176073,-0.17123184446739526,2.580190502970403,3.1485907710806806,-2.7807402994753994,0.1899564948709265,-0.2100905693890644,0.011126742419603033,-5.424242897693852,-1.240577613531482
-2.2222339848057695,1.3873983711308266,3.0155785752155273,2.5841432960295467,-3.3468065343293394,1.7628513410267197,0.5740698893776075,-1.1821165095746005,-6.097247994231436,-0.7750111897200426
0.8630247809310116,3.174256193697615,-0.8304734041217351,0.5482765437766199,0.5697918860123304,-0.008261293620160315,-0.7466534159185193,-0.1820344082103182,2.1148618726845063,-0.09398562708553884
-2.742784104652251,2.4380663383063204,0.6076483374000876,0.8057179533415793,-1.5922993210934986,1.6962317800170128,1.2712413066489194,-1.2094329893430658,-2.22602675168845,-0.9598842405842262
0.524153427792194,-0.8041851063961433,0.594110029080348,0.442622376667849,-0.7867028266682353,-0.4664805373556551,-0.641564802318587,0.3687414234955733,1.8782984491198162,0.25763688142660573
-5.876819582868706,0.8732370336666919,2.723604481650801,2.359113414672026,-0.8400361640744227,2.1240383274305827,1.734859967670648,-1.1931490406047098,-5.4051919351837885,-1.1639434803574134
-0.5882148072343883,3.252632544919445,0.2923546675657489,1.498505065574716,-2.309854234586506,2.4142310086731613,-0.4506688694062539,0.007754242651428294,-2.031170290669613,0.03832639096618434
0.7071976333924453,3.095563672392837,-0.16473652661859395,2.49485910884734,-2.1588889715042274,-1.9988742377229562,-0.28769453359260855,-0.16111159011430093,-1.1531115276250692,-1.0797292056431869
-2.6616046806490963,1.9329256089110665,3.343005124553412,0.4746995197332329,-0.361875761770647,1.154658312694382,0.9558329289663596,-2.266402505217058,-4.200659633402276,-0.3158619840865104
1.2005817367940383,-0.9499810974445908,0.02944805152370744,1.4078872119908934,-0.8197145882874884,1.1568295357929115,-0.28276184048075326,-0.4552004366457571,1.238527957539135,0.11801558446525537
1.665236824707774,-0.2679916422220967,-0.16451018970374842,3.0144784409498806,-3.1768198644134724,-0.5738226748385842,0.6669119837970752,-0.8329816589565475,-2.3451641329475064,-0.13936181072557402
-4.516803345245174,2.7403860796379234,2.4528786397145175,2.398339207072937,-2.2245932439738114,3.913453350598846,1.22868217286236,-2.0605866870370146,-5.0506214656435136,-1.4089711355542303
0.11132203158585885,0.7476051274456064,0.8865709443091323,2.521369808562059,-0.5182713581372504,0.7440902218471028,-0.4165615829088613,0.16257885165999514,-0.3259842930973944,0.2068688666268635
-3.4313773271910843,0.009468895761300722,2.401368152529662,-0.20507102292394674,1.3267262090725425,1.9407716436145253,0.644218082484115,-0.4424923149248891,-3.281331113830659,-0.8323992549658176
-3.8166032189870944,0.2317818130276188,2.321299841873915,2.6235898805888773,-1.7448135790666,3.345919182744022,0.5519122542386098,-1.210516428976099,-5.6476512258613845,-0.873132596683132
-2.9668549848993107,0.06611265155901713,1.5860514065349358,0.46683222517453427,-1.4891452905065605,1.5934343740754742,1.0406844061082117,-2.0488716975467227,-2.5293719795102647,-1.3511970797906945
-0.44027233960874024,0.14272825503561282,-0.7653546949711698,-0.8902527161109806,2.6424486892270496,0.5967326743170367,0.6647834362520952,0.5316195350272264,4.969978794408948,0.3609268371995026
-2.897833022366738,-0.994744678564432,1.4091932935233005,1.8384809573591872,-2.589234185092354,1.491933997120804,-0.4084168175513605,-1.1691234992750996,-3.5963304151954834,-1.266271151226194
-4.12892437576471,-0.4620442239027204,2.551882839601879,0.52485575480232,-0.5375961589202372,1.7094419837290005,0.966914160743786,-1.584499906257181,-5.255211322077445,-0.8557800900710898
1.1349170853336663,0.12972664547983825,-0.488458741659049,2.454293895923281,-3.026722103140298,-2.8278654286303713,-0.6401821237392735,1.468316046703749,-5.157410930594341,-0.6609462299743379
-1.7967115248218994,2.933593250306842,2.0615015021500667,2.7694371037393792,-0.6382955193337237,2.579168936936529,0.6594647086154136,-1.3424684750504334,-2.5017450789590896,-1.0659707302406323
-2.016221501800205,0.49996710129246846,3.44271534532142,3.1689184165743383,-2.4830776751608385,3.10806981178225,1.2744339711295165,-1.7265426186843036,-5.336504667205439,-0.5258688057492247
0.7272146582216694,-0.5562982118339268,0.3664068048277749,1.0572777085564007,-1.162291501324447,-0.1652554629493327,0.030309043078531134,0.13159724291333677,-2.842543837820504,0.11521727567080534
-1.3758676290889238,3.4396108436040365,0.17106221706946045,-0.6404459148161057,0.4710657148414719,-1.082035009977071,0.6704122576419874,-0.47092281539199354,-1.9939578737623695,-0.22084445683267884
-4.040633087987951,0.8423892635521215,2.031264955326254,0.33583354533496323,0.15552340954072708,4.247683522369905,1.95245536329821,-1.3081628974182766,-4.64719368385826,-0.6353188009850473
-1.8931004834889038,-0.14842390926925997,2.120317119874684,0.35461583481952297,-0.36908683683649124,2.4378683919205533,1.3166348067841633,-0.20647448664125737,-5.724478028244567,-1.174835239596689
-0.15857716960586749,3.245670661163678,0.42421849554280566,0.43691076147792574,0.24594068064888977,-0.16636105267784448,-0.16872527133792575,0.42891169603766427,4.90903210837705,0.923155403206544
-1.3568536317821105,2.262164083781314,0.3096092571358666,0.04527368629517614,-2.7090262319379597,-0.7972920916630658,-0.3873829378176244,-0.36889497338938104,-3.053099695293773,-0.7846737151239097
1.3825844905296985,1.119788258019505,-0.35588100804395506,1.3461318107618059,-3.0096201810913286,-1.662452873383047,-0.08813658599413415,0.9981466301681442,-3.8364806165706637,-0.8086931132312685
-2.8925598881455015,1.6248619452077757,1.8066372939851343,2.799312111401096,-2.9249915871080523,4.9552653383282586,1.8714636015164,-0.46329013205895864,-4.923619828296104,-0.7314017442127201
-0.7466083373201553,0.8350359828027847,1.7492342264882668,-0.016956091102359183,1.2477560033966244,0.7965553238942883,0.6839987952724257,-0.6146828554983117,-0.20835966426353175,0.1379817154978851
-0.7816908905702193,0.4355831220882671,-0.04972394268682989,0.3256772809640538,0.1678692549381999,0.984435241192001,0.7911811405844749,-0.29331945581532043,1.4969039611177275,0.1288697984152263
-0.029400123973426805,0.375179226628678,-0.4892116509055636,2.7532449161540535,-1.4972765437356697,-1.1311007291197042,-1.2084903112592689,1.0845826059476924,0.914840993417742,0.1277359729164138
0.794233004175069,0.0217198577798825,-0.22970241397623814,0.19701914513591334,0.8717382069985568,-1.1607339831400143,-0.10674621906758582,-0.38397129805127456,3.7735455576812074,0.1098861393694649
-3.0491001866822036,1.5695181496768882,1.9080433228480103,0.3134570038299367,-0.5172439405617898,0.982017899494617,0.9980928555223116,-1.6103391344190332,-2.787648241970661,-0.9123176194012486
0.5578367324177521,1.5011741800111413,-0.2073244647020429,1.2906189288574157,-1.7333857732622113,-0.25294064026807606,-0.360867098918269,0.4182316902283939,-7.391544419978797,-0.7707133573886841
-0.12712113187421353,1.5420315044341861,-0.20413920114906914,-0.8019072368513177,1.1061727062885518,-1.3720179126472258,-0.28210409434609307,0.6664171728828887,2.1426030022253935,-0.25522309259741205
-1.4023861891585911,3.2168773732134097,1.9953866704195629,3.0039641728304973,-1.9204220791228401,-0.42135790833725695,0.4152053921268683,0.37932179225869184,-3.2463779162656277,-0.23712394561764108
-0.8068163015289417,-0.0592865260705141,0.5239601100984921,0.6241257513118221,-0.9846344394933044,0.43330553797850924,0.29608156107226746,-0.09079188509810825,-4.7241901714102355,-0.315640421727139
0.03281709381371343,2.5329404213896605,0.9161686599838772,2.1187027494689885,-1.8105057110081162,1.08720876621802,-0.8485471640539007,0.6853790398570853,-4.388822742107867,-0.39260924787903856
-1.6730665776160611,0.7274893488561502,1.3064648862797124,2.170433384131412,-1.3487924035667118,3.0556524704670607,0.40247311067073016,-1.2416397834430468,-2.9507141347214563,-0.7862544690469967
1.913000657549775,0.9645902910600836,0.4614691194180571,1.3728455461597666,-2.3820374176401096,-1.3355359099048596,-0.42068735835574994,0.6357440524993171,-1.9730270931563068,-0.1450974934599191
-2.585196045011386,0.9834640300569948,1.430337312995769,0.18117371543513916,-0.5162431307412516,1.6579577210870775,0.5598854547840351,-0.3298174441943226,-2.4367373991126824,-0.34728919043946
-0.00734372765447798,-0.0732391473574896,1.9401933117061558,0.016088674387867874,-0.7540314200395746,0.6591792836638025,-0.7980343149474012,0.6529591540599707,-4.193913302115974,-0.18495473744244995
0.89912376371538,1.883912256969829,-0.7691289591996956,0.01621054996946869,0.8371761725111623,0.09747388855741201,-0.8601752097252825,0.994581509977158,1.0862050930008365,0.3394910821172466
-1.6558974352667217,0.053989598600458155,1.8940551114851294,-0.2977623726870763,0.34138950542733415,3.126137541727207,1.298307144815249,-1.742366807073127,-2.021242717169779,-0.1239149875157716
-2.239829500198648,1.4712910864761932,0.25867254579895405,2.4329191338141,-1.41826458257728,2.1163070043280747,1.3171409220238472,-0.4003928573115056,-2.682953429661391,-0.37615027173195165
-5.33636673813,1.0609005113642485,1.962069408789882,3.075354585599846,-2.1572642076167035,3.823056545696795,1.7742394825626309,-2.5393547061156587,-5.157993688824186,-0.2679517416971701
-0.2659592485743882,-0.06789918787582061,1.229575271297572,2.1935673821724975,-2.5632214860498115,1.5523627799367985,0.5595033777521826,0.4592065160137045,-3.3084949349491883,-0.4063500029136363
0.1652724726055811,1.6747602635580994,-0.45989752240481574,2.537156824221707,-2.5118570942289526,-1.3687491909781104,0.11420852074841055,-0.3700294965610033,0.6835956846201825,-0.6253715197097258
-1.632544853836872,0.018823478501642787,0.046626437202334614,2.678480279433403,-2.0742198531060487,1.8577870727945016,1.1271146073050915,-0.7025382610201024,-3.781332414387053,-0.6415669358059827
0.6658697163308902,-0.4830212108015046,-0.5852799700252055,2.8839778363831345,-2.2298714322546846,1.850164185117599,0.23573537227451552,-1.4674900995954383,-3.1320174973107693,-0.21403316273300269
-1.1495996652054437,1.0813049182101668,1.7908688087247744,-0.3692473204538187,0.5881327555962028,-0.012584027973817191,0.33368597785566434,0.6798333066668681,-3.393502016778839,-0.4915846008945625
-4.2905829326230105,0.4582850247865129,2.459137806132326,1.499193472154805,-1.6153498677285638,5.94125156414971,1.0053219048677196,-1.1391949308398257,-5.062040924067423,-1.0410721456966492
-0.5407872637408607,0.8061566837287879,-0.6240549223518339,1.296467378297077,-0.3938444888332438,-1.3564260958287804,-0.6050062921379822,2.189285466033155,-4.991791082915263,-1.1394221911728102
-5.244677703934936,0.10995138717627428,3.384671468021642,2.1424231502030877,-1.8730269984473324,2.525366810713589,1.7179661851376122,-2.8319514167969566,-10.394933570346645,-1.643404680120665
-2.8899777960926287,-0.27279339413189496,2.2794768994735963,-0.36717856519838565,2.526219076895736,0.3810955520639619,-0.4837582079805256,0.1654614355202425,1.6444564225659568,-0.09563576007024026
-1.0409629404924186,2.351946382130311,1.800752034602028,3.007688717248289,-1.9155794222794877,0.3952375688159905,-0.054490762366085785,0.3819784355700729,1.3382433050429516,-0.786011649114958
0.046833980407594726,-0.1732536451943525,-0.14096396840457137,1.5960492483508242,0.4067081309624481,0.42966150501146577,0.7057196028384765,-0.07983327291766586,-0.30915260981126824,-0.012334663513826727
-0.5710960952333974,1.5990961362687814,0.8616512638635976,2.220824646871746,-1.0845174642133155,2.355150367087485,0.3262926856839951,0.7491564977457703,2.7561858912389177,0.09529292819196454
-1.3355117557603227,3.249075653743513,1.080175165808412,2.3605109210824553,-1.2480548553582531,-1.9455850891513204,0.34842086992199706,-2.041519188763711,-1.7049399837055499,-0.5138292796376348
-3.3695014415114084,1.7854828001101337,2.081793271407943,-0.06866965853228069,1.1874764586208992,1.9389280895132102,0.9950585304566909,-2.074063115057528,-0.7631868990678126,-1.1268411786685546
-0.6748395142606991,1.4487377747653154,1.3879713672495444,2.9235246415726173,-3.2786812066572466,0.30528900839342454,-1.0035164128859786,0.5619671235363158,-6.18904813036342,-0.6251289174996648
-2.2780310869133458,3.4278423435808048,1.697206719062533,2.1453755641547803,-1.571267170979407,0.5249778887910823,2.214688482822179,-1.1984013871494104,-8.076533651331232,-0.7304274943844044
-3.547670091819049,2.7242995966921506,1.9006736532757587,0.7809168435009712,-0.5180210900360881,4.30897935750057,2.1180655878197943,-1.8907865051519694,-6.428332721647356,-0.5846339147678703
-0.16240260826299674,3.4292592326547267,1.2624187391634254,2.8542232925447966,-2.6271935822164,-2.0761682583747896,-0.23946940184507837,1.1303491898075795,-1.8073221157389134,-0.09750785918424407
-1.7809729439178812,-0.18826116363623735,2.403383034385016,2.5215560229789538,-3.2887989919712384,-0.12786718198455582,1.1512593452732458,0.41284602407050225,-10.100926351551117,-1.36431460153188
-3.4529287578094685,0.7856782763763972,2.997784617645127,1.3591305837698666,-1.8096763663594468,2.146119886710602,0.9355165959964069,-1.6246418674537295,-9.104429936911345,-0.6667042459596169
0.7835112810266794,-0.15942252084742758,-0.1395455509825122,1.8364333300896578,-1.7166099058791584,1.7869276729353725,-0.8758544458869758,-0.800168155899071,-5.285863291943069,-0.9627510301065672
0.8404137605123111,0.043459903145988354,-0.7728488222521762,1.3786175379053542,-0.3368894171133459,-1.9999716291859038,0.3759140607189609,0.18431085812492892,2.7002160740871917,0.36644402123901976
-2.6395161183989284,1.5479029809854348,2.8337550369874163,2.626160675827338,-3.879358770728483,1.427950024806683,0.31051785661239073,0.09549399663557069,-8.44136504317612,-1.1741190642963324
-3.2334056899322268,-0.5994829694821411,3.415188625091167,2.4362785988590887,-1.8886777128686283,1.041949879449244,0.9091743006388022,-1.2658202903316287,-3.018893790117752,-1.0228846925874178
1.7882882072660236,2.6308240381821855,-0.6378039413650045,-0.3737221809499933,-1.070994697748668,-0.49875155005102706,-0.47674319800532494,0.37430069134509875,1.0906052957208519,0.01441250022791301
-1.0464387735368603,0.19429579439406663,1.3936361845023026,0.4703452143483402,0.24537276035968558,0.676603648837699,0.6974516876132768,-0.11913321628234448,0.03449516910046069,0.07898483543581236
-3.556935771768861,0.04358934023352701,2.2757885024351676,-0.46454917404222895,0.9073544798850542,1.8046409864537005,1.6996302548532771,-2.235989983779692,-6.711159463134148,-0.31770413793857044
-0.21864307720342313,0.9625447095389097,-0.12218273194131979,3.1584326188959464,-3.618699762201362,0.301202030268784,0.5833238383714664,-0.8851947934588072,-2.225648020999885,-0.8255238659478235
-0.22661497312750545,1.4269444295138558,0.24286971152993364,2.7751171872533043,-2.401396877045604,-0.7761913372123328,-0.042499762499699084,1.0749418702481421,-8.590769198748555,-0.3206619762558769
-5.392233095640453,3.175344015227502,3.277875156024801,2.3996361919568425,-3.0024255811006455,4.689930518894403,2.8395431450714415,-3.636432963105746,-14.353444270734084,-1.6075452159274708
1.048002469008861,2.3971855866100764,-0.4572104971470936,2.222813172011136,-3.2016800797894183,-0.38869151577527794,0.3921796656250929,-0.08915903296030826,-1.978978460912194,-0.5111415802448737
-3.399668260280279,1.0685366212708374,0.554519909698477,0.5827643825277402,-2.0457835035836,3.6588354124826195,1.9325860013375586,-2.006289786297971,-5.687253690211399,-1.0017730649773977
-0.5578714019194411,2.4329311919463086,0.7278763128382235,-0.351586198042687,-0.3776713833872751,1.4808641895997967,0.9916362441910402,-1.6639681847521681,2.070034922468433,-0.7236704226361429
-4.52794414919898,0.07623278963669389,2.32515317571315,3.3427387210248574,-4.225899576513444,2.530421061489636,1.61108571135165,-2.2001465314032203,-1.9974959571059383,-0.9761386679015776
-2.702124965932266,0.6034100534400815,0.18346517438749532,-0.7641261061164057,1.5491579106345443,1.4654304269675502,0.3120373136994138,-1.060172557811867,-2.1757748603589535,-0.3444073598228835
1.3066582178955235,0.3744919451547235,-0.5236414474642201,-0.2251568924287708,-1.0427765150290582,-0.8551816380803909,-0.645482389964249,0.4846270095294984,1.7785346581809744,0.1594957956396876
-4.9394452382342715,0.5296733087635332,2.633324280752904,-0.4575749750837773,1.7504761996489544,2.9036207462019283,2.6049812428847714,-1.3261550876416937,-5.671626840864827,-0.41769598915806966
-1.9304394414848531,0.8195048195573031,2.335976855295695,-0.8777504962408288,1.1589432420093697,-0.4167004389216412,0.14266260120159774,-0.15859332036403623,1.0622983554432603,0.36991766863682696
-3.2839094583493975,1.5050121173885347,2.2973595370010047,-0.6708598070114882,1.6386282862577923,2.259564265157655,0.8163276871310045,-2.455511219164956,3.965508555869576,-0.2923618177507044
-0.0973062341091313,0.9907604133677494,0.6986515301899154,2.0858219499277344,-1.355847925108591,-1.095828017802701,-0.21771041671806057,-0.027788199758967333,-6.478773078815506,0.21086551695649902
-3.782101162181523,-0.9968598979993638,2.3727263653307764,2.219064957729901,-2.160676672483403,1.5212074978514472,0.8523402258322762,-0.4913363293691178,-3.343333180594936,-0.8974905072536894
2.4436474515151003,-0.2909260564084166,-0.39594372916499465,1.4718897300092255,-1.250686284830211,-1.9684938664881877,-0.27181296230512364,0.7615814752737342,2.301052128495973,-0.27583734718406655
-0.9070146608427051,-0.7803966765089596,1.7389650882556027,-0.20397221000255938,1.525086847524735,-0.35571679126765976,-0.8863262861809678,0.18700877722189918,0.4615608200973733,0.32956195113100006
-2.6770237481132,2.577346046579002,2.20677570981848,0.04580743569507972,-0.5347986775650849,0.847734147212437,0.2949082302935798,-1.5722006576499963,-7.284475231199639,-0.20232039549618439
-3.1418745726688733,0.22641183695477696,1.5408953879637983,0.4140899597405656,-0.459982230397567,1.5912051072381377,1.4891861627871987,-0.9559481996996617,-2.550238211219784,-0.6742452214763995
1.4606364316635057,1.367390601919348,1.1163538740497794,2.2397724043548917,-2.0116265883422737,-0.8256194802326733,-0.2780344178738984,0.03930678606489163,-1.545113472402508,0.1313686076720967
1.2853069178556562,2.5321239638650797,-0.1534341657974735,2.8762467824401505,-2.3286861988530125,-0.559752878919691,-0.269293700218668,0.5311440400325449,-0.1843940012488685,0.30393645296295413
0.35778135531088745,2.4328387922574524,-0.21546974913048367,-0.6091866926348235,0.5627754175055234,-1.8568785762365911,-0.6199939443790786,-0.36808262690653787,1.4153074374738253,0.5929519114892813
-0.2678508569564767,-0.6637551294168651,2.6994693966702537,1.5204701084442664,-1.2601207940682138,-1.2839489252793135,-0.8031854106183496,0.20991075604841192,-2.4083043708723055,-0.8004394078446073
0.6935611792182006,2.4573120744372563,-0.9619999826040692,3.405792904573736,-4.271542433935809,0.4302671513985973,-0.4960679210920932,0.3950814533285045,-3.232881327374657,-0.14507717595489578
0.479135643506434,0.429850420228151,0.41712384495841426,-0.5677984293063764,0.42932627336426854,1.4671574287038056,0.47742672569814065,-1.2122444525412095,3.30903736757889,0.5396947539492242
-1.7902586023349176,3.447379121032702,1.8932454835345314,1.0771709470115933,-0.7064209535053998,-0.12052054504669663,0.42673923439432493,0.166021334954958,-1.6617123113087655,-0.24281269050590404
-3.8277680318932608,0.3223762372015919,3.2975712031371165,0.8049685072915014,-1.7523151655950953,3.27183840437644,1.7056954136390154,-1.234075566501474,-4.244207340114949,-1.7429329031627123
-3.370612947445681,0.9680027337483379,3.4219545444788277,2.6986597917652695,-3.3266627853147437,1.754547093488212,0.8345291158907644,-0.5108193172052079,-5.9278139906170635,-1.4813711874962234
-1.6883788824918415,0.2975187850429126,1.5943891647200363,0.4779434838488297,-0.38575910205496095,2.3427632342307647,-0.11870018757655681,-0.932736748942281,-4.688057564913234,-0.7444379699763243
0.8976042801656287,2.133528414033451,0.2726053737687524,1.1317510294895912,-1.9591871594707855,0.6271694032693953,0.0010231795821110566,1.1912738483126064,-4.566201549924898,-0.4262104084145858
1.8443139774546553,0.30784831989104555,-0.6398695796597822,-0.3493940519811295,-0.41770962551660273,0.10784249367163001,-0.381292950449622,1.2482860588913682,-0.642284640029845,0.22817364163861764
-0.056293140346805465,2.4430806689564113,0.8329929509197509,-0.5730273210423755,1.1509701704185493,-1.2054974035897288,-0.8486095053143697,0.879793720614107,3.270728979756357,-0.328001664205675
-0.8854031466340866,1.152226053192798,0.4229830100419447,1.667071590316353,-1.4027165692344101,-0.07825861841893472,0.1041936642513177,-0.5694683861049179,-2.1931005528721332,-0.19315654407161847
-1.6439256285112454,2.2607043048436157,1.023239974965585,2.2175124596107376,-3.4230206207363176,1.0024651239647893,0.4040816029424499,-1.9105663025056112,-8.308197827696416,-0.7938947857310485
-1.8837078864848824,2.759470561072965,2.0191895585830695,1.6058894256631584,-1.35884866158554,0.5361615941511413,-0.21336375946585165,0.9975213784302146,-0.8567606326093374,-0.436101532000709
1.8895876860650538,1.9867294463747753,-0.6071295216032452,0.39254366998758794,-0.8944336274789264,-2.2344627804536783,-1.5726760067529302,1.7165983769054367,0.9993701392747624,-0.4408260772165113
-1.2537230227910776,-0.5540461359973632,0.04597068542568139,2.474335430006744,-2.1636092906530333,-0.42754780333597264,-0.8572240862782661,0.3990684375738539,-2.3066134553749316,-0.4091199553308045
-2.075218448304368,1.6454698257512779,2.0474052389679813,2.2969056394106864,-1.1330677371721445,2.558586135684206,0.6477750242310233,-2.9140074446286595,-2.262703552252104,-0.4823598783262466
-3.4930389470563026,2.4118177541696335,2.5148799632373535,2.8068747141469146,-2.4063239975860005,2.2551386890003315,0.5152566724654296,-0.776292923846017,-6.2363892593754215,-1.887419076500908
-0.5056318501453834,1.7439295702200437,1.2189475868262298,3.0694393342952466,-5.316578172077781,-0.3866506847773228,0.6520461554313106,-1.3045785922850872,-9.140021295772886,-1.2446637772737752
-3.7524017808769448,-0.6906272948331886,1.9873533498215856,1.7993494041539742,-1.265189918598891,1.4704843564450438,1.1440705618547422,-0.9741542250068369,-5.090425869114828,-1.7772414734605542
-3.5895705071579984,1.539633183589813,3.1936972436164623,0.3110506950060714,0.7685309479238362,3.2737347235688046,1.807698556226534,-2.143430695494163,-4.626173790252422,-0.7232334767169821
-4.3024889047515655,3.153200203399715,3.201655043057098,-0.5097123780570454,0.9683863638383784,3.85024347818545,0.7510249153651755,-1.0276275678241125,-4.078933016764237,-0.4528806993937135
-2.7468098895252955,1.8030326844201143,1.1111612931791663,1.1874458463353417,-0.1290270493141736,0.7750589448464887,1.1764094839104624,-0.7516557284120742,-0.5335584349579869,0.05520349163333136
-3.2896403844330364,0.6442989849662197,2.4715033930075583,0.029432210471265652,-0.061884159544395384,2.7751703979981466,1.50328934204848,-1.2559832930152524,-3.2821266653889496,-0.798728235246876
0.5426123763261848,-0.853673359180738,0.6234141753732476,0.0655812385189769,0.37514897951636716,0.07634740249058021,0.599913032914852,-0.5915284791903883,3.6181098454692107,0.683098052970631
-1.004236725984198,0.5052998364059123,0.5616852871866742,0.19517793962237473,-0.39920752672799353,-1.101752082514585,-0.02487444475909108,-1.0018223923412226,0.5690684176899237,-0.7331035730962168
-1.78387461039946,0.9441191212481719,1.349719997181924,0.16634671544783552,0.44726467673642833,1.6658198127636752,0.9538499930678862,-0.6829436273449245,-0.8531429531197736,0.4482672915740275
-2.376823512266831,0.8797599527866238,2.4331442014649687,2.673237320812618,-3.5277350242597887,1.2976484841702378,1.624161849262304,-0.9163679492906619,-6.226048588061871,-1.7542315578688605
-2.5830838108370076,1.584052083227729,1.0155867772716225,1.9068836372392455,-2.1625347831144026,1.523782286971973,0.4497801677331312,-1.7239749639651047,-5.121133866592147,-1.5575751593727132
-5.6015448045007785,3.2402120213737087,3.4156407330473657,1.0983559462218824,-0.19313707224743165,0.13778410302788258,1.7768926655273178,-1.3282144562737874,-7.978317029448282,-1.2192070849320749
-3.791689931709108,1.1028596795588004,2.6301406827147993,0.7452749397975975,-0.3267082521166088,3.446426181703161,-0.06732511013787171,-0.8889641210129782,-6.456601239187654,-0.4746988495852732
-3.2646802987253998,3.138142306935433,0.9920991461909912,1.6725873084349776,-1.360198577656055,0.5496047265880417,-0.14687419803502844,-0.9480859318454271,-3.3576672113859996,-0.3644398441334999
-5.885986616364328,-0.0492576555804457,3.067084264459563,1.3800321313309238,-1.2421542251909163,3.954253870323573,1.4574885585502606,-2.672774165734959,-12.03092340669619,-1.1155852018007535
-4.427941057613872,2.3725134482515466,2.86649027057816,0.40668664277292166,-0.8070245915600541,2.2597687047674557,1.4359571303652416,-1.883640871042653,-5.712450780988863,-1.3099637680594818
-0.24372686890838677,2.2391249517888965,0.9009702569822604,2.6079349152595954,-2.709252227393161,-0.8459132871566354,-0.5312199962738355,0.23090588551494,-1.7363296312930678,-0.1835517125727905
-1.201220458211116,2.320626449093222,1.0570640821548674,0.18392686615225373,0.5495578721338183,-0.34157484837428037,-0.6174608817394481,0.4402352557094498,-1.3893195907519749,-0.5676411419522327
-1.333136668480165,-0.1269279967214626,0.12055940770458795,-0.06506235490923185,-0.26995450095466467,1.7822306814431434,1.0955762094787964,-0.8097984617186172,-1.0165673067283092,-0.5367852652525036
-4.122307573567785,2.925227250879056,2.6529266637837483,0.44171925681866075,0.6400922325895756,3.9422283543967023,1.8217010235729527,-2.1242376476848976,-4.160505099933119,-0.9210267446593355
-2.4342644121436763,0.9668198038789408,1.7715091841965558,2.5577427181133103,-2.0109576064159733,1.3479986768484342,0.5575523841142697,-1.02358705630467,-4.566208143605306,-0.7869978486234447
-0.7031004606917031,2.893263130154493,0.08669108481668375,0.7891808121091264,-0.6340867408733568,-0.20885023560510552,0.17934428040777664,-0.9369449041318315,-0.903584402061148,0.23534899122263978
-0.22003553271042514,1.127545178894196,2.18109560445615,1.533444955074582,-0.3033446194394401,-2.052931260829769,0.4711666182635029,-0.5500047982054147,2.3266359808587422,0.10942215815687528
-2.7968801475582463,-0.6800365309101546,0.9215796624905537,2.535663582066845,-2.879007468024379,4.825420554737158,1.1015777816909382,-0.6825511392370083,-1.5107337147365638,-1.2738257623850593
-0.08850119095438748,1.9858061909057207,0.2861055341896481,2.9264684657440503,-2.1988822861920765,0.7072495284032233,1.138536583151319,-0.9955116199228414,-1.3986084958177813,-0.4435642148332348
-2.343606409772627,2.0110652863680114,2.815078180593067,2.673986870366568,-2.4057499672218374,1.5390230358451824,0.7837530574026262,-1.8268079818247913,-3.9678471339039962,-0.7551186525969149
-3.033054231969225,2.3614987203368747,2.309098881248882,-0.44851805032878955,-0.22835579379693932,0.4989899720117157,0.16164637742477883,-1.3160478229913046,-2.9386702122918216,-0.6296132138317311
0.17733777351678207,1.2382249621418508,0.32882494148113706,1.655380551201152,-1.1665353996282375,0.49278234244513347,0.17619529414139684,-0.3948263336176423,-2.036199492695028,-0.7345971860414926
-1.9332650990250646,1.4463804070252277,0.2848400188856193,0.6140682840477627,1.048458919429594,1.6536556760742056,1.0223710568063429,-0.7532525929740493,-1.178396690853656,-0.4727750648193306
-2.2118109782920223,1.8609745068143346,2.166427011990279,2.613424774424465,-1.7739316899318036,2.1213816550642224,0.4944826164510042,0.03411269752202064,-2.565323793963331,-0.004824628484751625
-4.237292073539054,2.2692219749146574,1.009255315251893,2.3645860462219885,-2.160688713817195,4.22361658739351,2.087998145117672,-2.3926090458882014,-7.410240297041617,-1.4029586368476772
-2.063083854074881,1.0113563383632678,1.0627224409201697,-0.9926114751906647,1.8799120757821493,2.0008075440912,0.8289317026193254,-0.14160714266800759,-0.63465429618079,-0.3066535479436861
-2.264319974738138,-0.8939899815754374,3.0604407700325034,0.7695937473734384,-1.3362467818650803,1.3904436675610807,0.6998165526305259,0.5152402480737158,-4.097905917478338,-0.7462545633916517
-3.3663442929445413,1.0315681590352574,2.473562504717305,-0.612426744292732,0.7093292196114702,1.7736001383175206,2.252718058955048,-0.9420205866498657,-2.2847207834082894,-0.4832202463061177
-3.127623741092004,0.9044502223468163,1.1972687583363162,0.994247615346403,-1.0566600685012215,1.266918977174727,-0.30365307029494426,-0.05751340989858552,-7.682653567855496,-1.197723668188361
-2.7105595121869213,-0.4278651612248985,1.40472297596038,1.5281856233916282,-1.9725398851677538,1.233445660376938,0.4023282333210306,-1.8289748856995809,-5.501799456398057,-1.3142500811101452
0.6718570559499791,2.888757264803897,-0.8859855668663609,-0.09467623138754966,1.7057014739982197,-0.5510012887579991,-1.143063983799682,1.2043732679664882,-0.31163846166084075,0.26087454808642796
-1.2325191324494023,3.3484744089647425,2.274762507150342,1.0910457749323714,-1.9891014321403364,0.10059301875448112,0.13279200176706749,0.7271624088575258,-3.1204083562049822,-0.7841066658261724
-5.923276645373139,-0.7030755806649462,2.6353587363334436,2.011247367354341,-1.6608824430617837,3.4546923000743055,1.7077952269573722,-1.643410974055033,-8.997097164835733,-0.8273030552049024
-2.2089576384016105,1.9723044760228383,1.4387075731846215,2.7816834378405972,-3.8100917712800637,0.2975614936016674,0.5618375821876919,-0.9725409192544774,-4.2381996500169015,-0.7466192955456185
1.3736193409562103,0.24482517922555536,-0.020875055354085736,-0.6470075239788877,-0.3007130735368043,-2.25068724040056,-0.11878122925253072,0.5503722813474649,3.408569402756765,0.4649712516552259
0.8365292079850715,2.5985073479440683,-0.18714199308516566,-0.9519427842711895,1.0319194312046427,0.3434336252758458,-0.30663591381751787,-0.4757361597757037,0.15204575365947848,0.5509891019883213
-2.126470306249986,0.8352863044160517,1.3751461355961383,1.2393558544938714,-1.0727223114526572,0.7751677402397604,0.7880919978649022,0.22646080830166074,-1.1490404479657153,-0.8151929002837198
-3.109432137025356,-0.2081395198126248,1.3750308913789815,1.8599592869967063,-2.8407057747865614,0.539928174570117,0.6748005407649299,-0.5466779883504119,-11.3886819034084,-1.4937111806775698
-4.340364918483116,1.921774411796242,2.087121770677377,-0.09097762922353958,1.566077479926044,1.0824725954576395,1.3221525942241887,-1.636387457529729,-6.734881834996449,-0.9338421213575152
-1.416915129889175,0.0662146289222767,1.4409374079210506,3.0991337775789116,-1.6796174569595061,0.791621699775361,-0.9753172878573969,0.7996579504294821,-1.0040245169526278,-0.5795539664851053
1.3554817881554213,1.411265068349568,-0.9207421091223487,0.5790311154488776,-0.7030398772629057,-1.1502096118688274,-0.41851234569439333,0.12975332196813202,0.03761647297241938,-0.3615523494674358
-2.843868337904399,2.014979028154645,0.3768154378073518,2.973061865168509,-3.578259717692299,1.4407433559266247,-0.17610623446283738,-0.9881968032218106,-5.589371247161524,-0.7442148402782472
0.37680117168165317,-0.2740239455245551,-0.7334814343314304,-0.04537528396822832,0.197581571319398,-1.7939159798276245,0.18324557108155562,0.525939709206592,4.989839119423501,0.4022924389047714
-3.4137063554854525,0.7835724192630211,1.365681319828759,1.5895275454899767,-1.0185470731533413,3.019810523892237,2.026278323725302,0.3700564902283399,-7.214290125236385,-0.3308806535442482
-3.953864335438989,0.15585690680870745,3.20716905873046,1.2790184532279252,-2.222929318793795,1.2052065313618723,1.9474363521451703,-0.4158937961628328,-8.141358706468449,-0.7881573898051702
-0.833154256418649,3.303241667442509,0.6576975513072596,0.3948935188853302,0.301952191748649,-0.5889886894790852,-0.7088480387527685,0.29196057625882166,-5.022775159272601,-0.0945062162987716
-1.7724044346573984,2.834102895317931,-0.33029877387740425,0.08053365741560103,-1.2872670413559428,0.6557201919669177,0.7758412347580378,-0.5443887314802296,-5.388844968390515,-0.8576534901518774
-2.5096799677840016,2.214651284661943,2.3654168966119427,-0.10794008470072114,1.2265459959803175,0.3997891425123173,0.7441907299272492,-0.05627769682214699,0.5197699139914801,-0.06757869089280108
-0.8707157258995418,0.45229666072950425,-0.10998820686314481,3.2769278824768557,-1.3573037496325935,2.1201304614533045,1.0512964634648547,-1.4122458808819418,-0.26995771326339657,-0.5065288069204048
-1.7835399963803147,-0.3470484361522497,3.3418595920313017,3.0439682437381137,-3.880526529591307,0.3182715005673943,0.6782283037484447,-0.1852328563944116,-4.42120320085453,-1.187137235836175
-2.137209077252031,0.45683055873510936,1.000652576514672,1.7392489891845102,-2.741499611472396,0.21057631839570645,-0.09393679492078409,-0.32364935754126667,0.8648289694147104,-1.0882654763649726
-4.12909203253783,0.6123688755644936,2.9372193376442737,-0.6082639595352861,-0.3373236615637418,2.532260091459948,0.6012200239953956,-1.342677611911133,-5.43131380004194,-0.6048143010752073
-1.6257066932085351,0.7163462767898436,2.327314576620448,0.4317106081731743,-1.8761906302184026,1.4081045682940763,-0.4115878839405251,0.7617743839122252,-3.122160320075836,-0.2277700736399162
-2.581524449245718,1.8085475751789937,2.621670097087219,-0.0015551880665979345,0.5865065552555332,-0.14087167475721377,0.2724031329719274,-0.21393878598793678,1.2035735692231702,-0.3670271675086816
-0.05867699439227627,0.39347686872923915,1.7621989460901886,1.9937444419424906,-0.9102373199686797,0.5630298915501559,-0.6461493739048481,0.1784986024822037,-2.744165997105636,0.16408641382451605
-0.8336096243744181,1.6327428587095651,0.22947362341199873,2.4702146244626015,-0.8100914203091043,-0.6411234659040551,-0.481952335389685,0.23594891020317982,-1.314698413099892,0.003670213002893663
-1.813554740202672,1.8772004427789932,1.0241309860777723,0.9522011255134764,-1.4942843328943356,2.0481045378972422,1.2481819211976342,-1.1202094376427272,-2.57818807957814,-0.4888846306583108
-0.062144889921086716,0.6048180540412984,-0.22112706739730248,0.5896337922485397,0.38780492968765556,-0.49221704915380127,0.07712901696013744,0.26181276419534366,8.652207612524093,0.3474872883298516
-3.0143787349179307,3.3223039059557387,2.315745579296892,1.6214355867459016,-2.7119594559519458,0.43556769056843314,0.224081072093231,-0.23279667866061457,-6.202304835441325,-0.08546467895074944
-0.5048246407173664,3.2950298417590256,1.8342164573418418,3.3612097035356694,-0.7112584645823704,-1.0929240527629887,-0.873351045451912,-1.2068672014993453,1.3946661815638501,0.24379133198216213
0.24620547327443656,2.429552410072405,1.0375545444158343,2.1328982533533924,-2.4039146644740828,-0.8512661341843062,-0.42035948727617345,0.5599760831712286,-4.691907339485851,-0.711352732419973
-5.135008454964028,1.9444029302929944,2.6802138501558312,1.1129434636236626,-0.5563557029158972,1.7985847330230786,1.442220458508126,-2.0549694745015485,-6.777111919510825,-0.8118946974457804
-2.547462849662307,-0.881126068522949,1.4123470541417458,2.1320621860483095,-1.34403559787995,2.509191831474815,1.0377932847519649,0.2833890491534743,-2.434580117123436,-0.17712767293950452
-0.036290924654995664,1.102403021631416,0.9954103100769407,0.1266367238714654,-0.1292196997961396,-0.5303705813079235,-0.6101575348061942,-0.7385772641463786,-4.667186786065857,0.44763640356746165
0.062490767792874734,-0.17878291831511883,0.7151929727829234,2.4214401472019222,-4.287537002820524,1.4359221247623921,0.3791590541288126,-1.081734050959124,-6.183540815900182,-1.4463721301329273
-1.9279461902867978,3.4615446724199836,1.782849305758532,0.707651169622322,-1.0149013786717311,1.929990603995553,-0.13241169343924467,-1.589933615527217,-0.09538946195446918,-0.17749665153957817
-0.8623491293225262,2.37426003733279,0.8001034337205704,1.8330660489686625,-1.815926048908994,-0.7854551385055564,0.104241346101492,-0.33056983702663667,-2.82892467303874,-0.0918421034672045
-3.3693794098278524,0.39427543406236776,2.4786517626975026,2.239492829933321,-1.7188332384971299,0.4546311161901574,0.9601030426113227,-1.1749630205717527,-1.5715821658133071,-0.8047326734452227
-0.6437813296296706,1.4241189534825764,0.870284459099165,-0.007436424985948542,0.5086314487109028,3.29964343561839,-0.05748000594657365,-1.209053820563983,-1.4562348316092233,0.13724229434088978
-3.3159677906316176,3.4553633275309332,3.065869531985398,1.7159994547676236,-2.517017429041206,0.9471779841429779,1.4973929965376562,-2.039297649336478,-6.5797572097274,-0.6217720905141538
-2.4564884640094613,3.342874437400954,1.281149897747444,0.521616940298647,-0.13841872018732318,0.9828535128895277,-0.35272085129144654,-0.38875151288983,-3.605957289155535,-0.6904114937430534
-3.2623153362604858,1.8244789007885927,2.0671067238273784,2.5739710197782366,-1.4313631281077088,0.9941043233966611,0.5673543671912381,-1.9530654049302816,-3.615736398386259,-1.117904846209876
-5.274385009964465,2.781797839534536,3.186050929394752,1.0372216171817041,-0.8768957135301566,3.409508982818287,1.996141505114779,-1.201746677917608,-13.832571314514993,-1.6999313270329526
-2.61286255303148,0.0005185424395577343,2.6423184739777734,0.21304650847065032,-0.8861426400128706,2.946921321671439,1.261648705423008,-1.6191007154995285,-4.528852729161286,-0.9915493707274099
-1.982694648642508,3.3653954677287024,0.7242982231771502,3.441520082987518,-3.506115541958116,1.203616980971479,-0.08272213636273885,-1.3835022806753963,-3.4941248448867204,-1.8458974929029308
0.42885131379945285,-0.5490433427339123,0.14349638365105055,-0.06999072943445506,-0.6977983990440209,-0.6326322095027171,-0.13928025346181097,0.028841468130601556,4.033755755811451,-0.1471091789645288
0.17608885396388235,1.714678122183916,-0.8344432478396222,0.03549866953112857,0.22883154664418964,0.49863989967400746,-0.014405112173683827,0.5206098070866851,0.7710907156006455,0.09766843811772882
-3.4260510156684743,1.8114180590861455,3.2879259941614345,3.352583455346746,-4.645258786195914,0.8041530919249542,0.9587077561133488,-1.2883689678259318,-12.249396041074318,-1.6074013193956667
-0.8725257271725242,2.127712176405088,0.8643542622002318,0.8524577275873633,-0.8362351643162529,-0.12032040898482965,0.45040848260819766,0.0646656046660057,-0.772844177706699,-0.3737439823447842
-0.4781880677511659,3.4264704931999157,2.2941489714252277,-0.37241416840240993,-1.5762118121160424,0.3408011947542632,0.5284186313050503,0.06775691353294556,-2.8734591168911567,-0.6217055091917991
-1.5766196640724148,0.28652073354106844,-0.172473799322449,2.9338589977681653,-4.276922693711181,-0.3178009614954984,0.40798924381328217,-0.1763983287392367,-5.098012046466966,-1.1249076445521817
-2.3926740566960962,1.4349705099593493,1.2829439006052725,1.5872282261915887,-2.3386473866434105,0.16768675197777183,0.6851847377445132,-1.4113985897660508,0.457260156534444,-0.5818805511780428
-5.297506158501156,-0.3588301378187445,2.851051222940989,0.42136053693941267,-1.0654985927067988,3.42067064934054,1.7783462151184206,-0.9570396974481346,-5.5204213169781875,-2.1177055271896457
-6.088650948539081,0.7771825002118764,3.1169657925911336,3.209241572702049,-3.691930723954031,3.8126005006986214,1.2364828781709587,-2.193047207496586,-12.155511740728473,-3.0055731188763746
-1.847341459326337,-0.10320220879059494,0.2221010889325763,2.926293282135043,-1.4321095779505406,2.017049067149307,1.1688620350974013,-2.0553866297542,-1.6064893195600531,0.11750876186689296
-0.7785775887571065,-0.005463962409471224,1.7882512071539196,1.395426977834389,-2.2784859024673985,2.0161321650456676,0.25322137566122477,-0.4904600651004763,-4.061971272214246,-0.2372300843008139
-2.64201688653054,1.4609250616606957,1.703568214032794,3.1464681905799052,-3.132657150469369,0.7043162740686899,0.6010313723174476,-1.9795771861951335,-8.116308405925489,-1.8687411887248904
1.8420021687811061,1.234645069721089,-0.7582007861060269,1.73123046952185,-2.421779545091566,0.18744580403904443,-0.4773575221059764,0.21490833652179078,-0.6659744429370072,-0.20878192631244089
-4.564945307902768,1.538175240247294,2.459747214285459,1.7291346929146316,-1.9219126398959938,3.39469683762176,1.3381573914355889,-0.792451048396181,-7.357284608899456,-0.7108224571236913
-2.969822725390814,-0.20675049306897486,3.461710680926367,0.41237826875525396,0.06381823180339684,1.4055848776741642,1.7051531893189238,-1.415006483525911,-0.25305320602366965,-0.4951660338661166
-5.6557473561281775,0.9948270561089996,1.4597751411932829,2.695524661188078,-2.513685401215372,1.6578615944210984,2.5026179908512556,-1.4557985658390042,-8.011576818472872,-1.5821904787795353
-0.03447997551143355,1.781594406686391,0.014319726640202424,1.2303172775740592,-0.7218438580381704,0.4192518019065593,-0.34699738912421146,-0.4715065395549747,0.8196399570682176,0.4160150146192478
-3.840067355344019,1.6572698785010358,0.292770407024574,2.932477056332048,-1.8337747804316404,3.0762908741205823,0.6199066938152147,-2.2757632670919965,-3.3501773752312323,-1.0611041069066627
-1.701258421714378,0.135254930780476,1.8782005012536374,-0.9302133423855657,-0.10742244563066881,1.4573793792092953,0.7186595156417338,-1.9410488013163067,-2.0832904124535894,-0.2976635219012571
-1.9537171861952065,-0.21160381489750435,2.063584699471912,2.5866887439798103,-2.2205118353887454,3.0918024179352352,0.6195208948505272,0.7799024204300451,-1.957891682247404,-0.9207609895081367
-1.396850513763998,2.9573214659375084,1.3340235065227062,-0.6117995309253513,2.6612655746616736,0.9034745999150113,0.5842048916015375,-1.1232302798014135,1.3302945297326363,0.07108054136245523
-2.594077548786019,2.541670641587596,1.333091416790551,2.2879420178441205,-1.6515381282640784,1.4903848455541246,0.27391540162941713,-0.0486225056937862,-4.27864187129184,-1.4349725237440039
-2.4890726466217767,-0.03205649685940337,0.1385707642792744,2.033299591885989,-1.6109700797894395,0.7560480732048666,0.7508868661256145,-0.9543586312300971,-5.857878809575923,-1.2156804207756031
-1.1701761185442117,1.2009424298202362,0.48678283965666624,-0.7112153996752171,-0.21567360295655524,-0.32383460527841257,-0.4794195595519647,0.34199025425203006,-3.897930394598076,-0.5621743347672163
-3.213803338784158,3.1672734968486855,2.7213965731349945,3.306051981574118,-2.1752536421024278,2.348999846652573,0.4415383825717729,-1.4472180140551476,-4.177308092225155,-0.8783027220842584
0.6937665888133705,2.9420499318721496,-0.6903884485719693,2.2987644987560376,-2.3727618071393217,1.2613865528939765,0.4157811578437831,-0.7736063494991041,-6.0229019495300475,-0.4976864004477625
-3.013736073608299,2.1690979784625175,3.38134537116815,3.1230514720593128,-3.8819356795067335,1.793471186994632,0.7548261474198866,-2.473657301098371,-3.202226151218587,-0.873655477599327
-0.6317159042354024,0.2648498415113021,-0.46710585858732534,1.4386921181271584,-0.1493718279440754,-0.7834749403020593,-0.3570576608499186,0.7507181987464003,-2.8790152553785218,-0.4784757967511327
-0.7049673550329894,2.1351892759073636,2.0386909781909917,2.2799345236707427,-1.4144241401936881,-0.15060133549626997,-0.23021409116179006,-0.0929509408335104,-1.0893110600186104,-0.9192345453983394
1.55535517404021,-0.7079715841251666,-0.9869671731747898,-0.2548379533261427,1.5994963531137019,-0.36632514159862584,-0.4676033813755928,0.24913957650296542,4.025283412483195,0.5469781891286679
-2.118699286114009,0.6178166185306484,2.5622776850763356,3.218737519933665,-3.076889685402862,0.015706356416593625,-0.08137501068738512,-0.8351003463694247,-5.059275979989939,-0.5585364198052534
-4.015134166009065,0.8324682055527701,2.0949817792637666,0.053117994420036396,-1.6721391101888992,2.8025482815451506,1.5595791388510145,-1.0600279873026388,-3.1028669429647278,-0.9334624232735647
-1.644877888390711,0.5667210795967321,0.7611904987962435,1.4555781960185628,-0.7105255070105304,0.84010505025342,0.06751381655679221,-0.19695699032825362,-4.32564825631379,-1.1081142900262748
-1.4583672128676588,-0.011155739020273003,2.2872963613583788,3.2386634252238897,-2.878640040828595,0.588181805147234,0.7301140882849304,0.0910719206041204,-6.279500771746956,-0.41383166525685083
-0.666500408768903,-0.7150188683403478,-0.09952283111193438,3.231949534877379,-2.305326305173207,1.058257894277396,0.8030277452695159,0.685973034882294,1.2728784222789193,-0.29960369337463516
-2.4678384416493477,-0.003734977092760161,3.014560946292348,-0.48116022867441866,0.39997218592690864,1.3840004447207652,-0.7501667169327727,-0.9460216368801628,-1.2867628626488323,-0.22448122859574393
-0.7820082674581775,-0.20200809699124567,0.04544794803249408,2.6142007851718403,-1.3741264610781418,0.6940129401662636,0.6172319347779182,-0.5772016367000166,-0.43886660195991123,-0.5355336964238342
-1.329973048629703,1.7725579058184522,0.3197389821891321,1.0755056724927088,-2.2075907876935434,2.8770640904823956,0.6137356570867977,-0.9492094648852265,-4.158587434763545,-0.6660979041571309
