lhs,op,rhs,est
x3,~,eta1,1.279516889218303
x5,~,x3,-1.1155684633661975
x4,~,x5,-0.8069887875375642
x1,~,x5,1.3029347306700387
x2,~,x5,-0.15503769213982718
eta2,~,x2,0.17033674482774003
eta1,=~,y2,-0.5447449941254018
eta2,=~,y4,0.4511181958246464
eta2,=~,y5,0.2969460740903035
