lhs,op,rhs,est
eta1,~,x4,-1.427293062032073
eta2,~,eta1,-0.5986753085746421
x5,~,eta2,-0.278584139710849
x5,~,x1,-0.289746498664925
x3,~,x5,-0.686478621937768
x2,~,x5,-0.38615871471601837
eta1,=~,y2,-1.6306333088832803
eta2,=~,y4,0.9114218416934992
eta2,=~,y5,-0.28256750138074205
