lhs,op,rhs,est
x2,~,eta2,-1.12792423421508
x2,~,x3,-1.5720405942276776
eta1,~,x2,0.9211202021447944
eta1,~,x5,0.9370832039728486
x1,~,eta1,-1.4851608188146144
x4,~,x2,-1.3766155896664518
eta1,=~,y2,-0.8459602760001296
eta1,=~,y3,-0.42960866264921616
eta2,=~,y5,-0.9102950219309152
eta2,=~,y6,0.18195215140489862
