lhs,op,rhs,est
eta2,~,x2,1.2900820652963967
eta2,~,x4,-1.6067263815132904
x3,~,eta2,0.42495141076956416
x1,~,eta2,-1.5718350387952014
eta1,~,x2,-0.1991803583985618
x5,~,x2,-1.444596083427048
eta1,=~,y2,0.5462344409016218
eta2,=~,y4,0.2605506614228966
eta2,=~,y5,-0.7781059527691405
