lhs,op,rhs,est
eta2,~,x3,-0.6982828065758344
x2,~,eta1,-0.8368728663782885
x2,~,eta2,1.6173377077948494
x4,~,x2,1.2067965378849423
eta1,~,x1,-1.519564782420224
x5,~,eta2,-0.9190026668026817
eta1,=~,y2,1.379690050466545
eta2,=~,y4,-0.3649465481704497
eta2,=~,y5,-1.099945216984819
