lhs,op,rhs,est
x3,~,x2,-1.3222694684060854
x5,~,x3,1.2441553105078675
eta2,~,x5,0.37363566411471966
x4,~,eta1,-0.9382197165618513
x4,~,x5,-0.5527092811279111
x1,~,x2,-0.7035860312233151
eta1,=~,y2,0.5847385006618504
eta1,=~,y3,0.680785099379745
eta2,=~,y5,-0.5577340115316978
eta2,=~,y6,0.5306184526462505
