lhs,op,rhs,est
x3,~,eta1,1.3173928466012588
x3,~,eta2,-1.0673774774295746
x5,~,x3,0.8760295140540545
x5,~,x4,-0.9597431136085861
x1,~,x2,1.1865060840726431
x1,~,x5,0.23488909508223257
eta1,=~,y2,0.6792771505703038
eta1,=~,y3,-0.40220003977968577
eta2,=~,y5,-0.1884855665223621
