lhs,op,rhs,est
x3,~,x1,0.7395054316542948
x3,~,x4,0.655273086612247
eta2,~,x3,0.5065590878706027
eta1,~,eta2,0.5012187337060623
eta1,~,x5,0.31735113619275146
x2,~,x1,0.4916989082770754
eta1,=~,y2,-0.5647988282961566
eta1,=~,y3,0.377885266897405
eta2,=~,y5,-0.691403170152325
eta2,=~,y6,-0.6961938166679651
