lhs,op,rhs,est
eta1,~,x2,-0.3320137426385912
eta1,~,x3,1.0045565867033637
x4,~,eta1,-0.5828212437152656
x1,~,x4,1.3739894088481202
x5,~,eta2,-0.5789088606046527
x5,~,x1,-1.5371899989961806
eta1,=~,y2,1.5776388437285975
eta2,=~,y4,-0.6472773309365939
eta2,=~,y5,0.4988575876654482
