x1,x10,x2,x3,x4,x5,x6,x7,x8,x9
3.0579504786325877,-1.7540338953191594,-0.2220705083444233,0.34371370817793745,-3.5337364194311496,1.4474954535401008,0.607024251005668,2.754076083302863,0.41231217297920747,3.098087102965515
2.3162021958122105,-1.2137215935470922,-0.5004555362942884,0.4377297674238846,-2.243422970997637,0.9801816175965642,1.9705856193540354,2.3424248552252296,-0.16130876290963655,3.2798041296278626
0.8225183088497634,-0.2076846168235604,0.9156121615221332,-0.9305691453108857,-2.4024421902278736,1.283722467942241,-0.1855862873260894,-0.904387399832272,0.039417533217573276,2.1119603647622505
1.441523279693719,0.9653946905657795,0.12052988483779217,0.6750167952779937,-0.38535619356287665,-1.663427231423438,1.2324911919798018,1.331911454495291,0.23555657734502694,1.0068065107773574
2.080615296947231,-0.2378231883001119,-0.4748623508804528,-1.0809393869165789,-1.4528533032454987,2.0522554242036377,0.16668124269802287,3.092041819331068,-0.15925712974282463,1.9579213303512666
1.6000085102614499,-0.9998442022260426,0.5383401174129614,-1.2102079302370716,-0.5962169227003677,1.16637108887915,2.382219744702372,0.6099678989028152,0.10427546765537236,2.321955424018787
-0.8791060433906113,-2.31768161320534,-4.363436368042755,-1.6671498826872917,1.2891232140571751,1.6104970862187769,2.0074619983328206,0.15210455591567418,-1.4256267475599929,-0.8942905809347943
3.3439802492651935,-0.03826385392371458,0.33989942077377394,0.16276103776699363,0.26763448337286133,0.5778406242142782,0.6429249328526443,3.2899181385756444,-0.4385589509639682,-0.9569342293652648
2.7880184919119615,-1.551656820139393,-1.0478123334676748,-0.67146306579993,0.3375874031319974,2.7156658760899726,1.9462408836045695,1.3544094246984297,-0.11484755766924437,-0.9939000281308689
-0.37702571631766424,-2.1606030829638043,-0.916222707749121,-1.8392609420477384,0.9190851816462728,2.706460992737,2.2837921754025436,3.232176558945282,-0.39304430375815824,1.0534887440996017
1.1979054826819926,1.776726991334689,1.2274614209189656,0.3840211705462566,-1.3014949013195225,-1.118708385507145,-0.6836935604523939,-0.732718303990596,0.1946881928652681,1.4988796432509406
0.8266573145121097,-4.736849337509579,-3.5124734582860615,-1.6037914470251011,1.7392033531792328,4.875594368196983,3.1033812233121587,1.184861423488694,-1.0752447481402931,0.46882514095149364
1.3105715101196203,1.5643689352949504,0.7217834072431395,1.0917041416506192,-1.6696718835707043,-2.3800259267080888,0.7234017868108684,-0.6635057549712513,0.32903591224092726,1.7125256552991335
1.7826880029595888,0.6024256805970628,0.727382988583663,0.7464295069531558,-2.7104682512342975,0.033113453219175436,-0.7195021237994992,1.5287904350653712,0.30729639618551086,1.363987709283038
2.490541647900688,-0.30142162187388816,0.054645664725175666,1.7482193719754264,0.2228150835035796,-2.026938947704665,0.7287109925379718,2.8676642251968403,-0.30521237200143364,-0.5520281820318276
-0.39148051281600804,-0.4637574572780886,-0.039796306050312265,-0.6793200581350127,-2.8935530576555677,0.6117876249012961,-0.1561821216455218,2.2411909784543824,0.2520998869386371,2.7311791354719563
0.7678019935781679,-1.8263908223093372,-1.6232774947539386,0.791855154270429,-0.5799090547314565,0.01802394878430386,1.273472596898786,2.1212781308829625,-0.9440277451383412,0.4607871596459989
1.0255191711237281,-0.19237706070697605,0.3379101096958238,-0.3166228841496963,-1.6439768549012468,0.9279821884363771,0.17344557471341981,2.362948899041216,0.42028755624561115,1.2905127573404211
3.214985693609325,-2.655703039613683,-2.754762625051007,-0.4233529495558943,-0.8814112834227033,2.82961935974778,1.9402651750106905,0.3503334745840423,-0.5759964353876661,3.274133156118852
3.1987965841270674,0.16581226254753623,-1.2577351494130897,1.0464519496477793,-2.3654317356882557,-1.0712623880710375,0.19065896628926016,1.7000457892580116,-0.08500069172907608,2.0057889055882394
2.2568956406682767,2.864896311243933,3.0146535860787935,2.7219566861021485,-3.2750323436359245,-4.311654306356743,-0.691841287057563,1.4949347834586213,1.04224792906568,1.821460377256706
2.7250151818874464,-1.1193130083353857,-0.3817713775223878,0.5967265188085176,-0.6804009343528254,-0.19888123290923412,1.7541209667479531,0.6131765625967105,-0.44935497840934413,2.41080184271942
1.1900986126676685,-0.12167649813886026,-0.5841035385300657,0.4011688176785013,-2.4294305156899627,-0.6067515564113982,-0.13066810913565696,3.2885807280183004,-1.0244343792242292,-0.3797116009606287
0.6957240753451388,-3.1805781749553526,-2.6443866963327856,-1.0473149431305464,0.700516395538521,3.0640065295286445,2.533894668199338,1.8076898983071414,-0.9308226705148398,-0.13478004173242353
-0.17997134308899254,0.395638622386528,1.3399413765859343,1.3236532884127923,-2.6790632043857974,-1.6567053659982536,0.2228582902841929,0.4559039350600649,0.3935478866437726,2.404894104937954
2.981007493446821,0.1323692671380995,-1.1235609541451697,0.08940253381266972,0.12996813302816168,0.09981117096986326,1.0640399830161997,0.6004029643711466,-0.8782286643066533,-0.547338184214008
-0.5510993969960907,-1.4357707315846948,-0.3294534929284401,0.4946341534790825,1.5156548355997146,-0.8684811895873826,2.1263094161377905,0.13451892419528222,-0.10066737742099487,0.4974785376930304
0.3616062561539939,-2.8058918763691922,-1.934864310955724,0.09407493455907846,-2.486865658676083,0.7934806874507847,1.2187667174124828,2.8781558378343717,-0.7637086844092384,-0.02182000147247498
1.9859530994854655,1.9600105263378171,2.170730561948285,1.4766428611841347,-1.2049891219377993,-2.554502104623305,-0.04998483932324416,2.14205635101956,1.0827429299624058,1.2725359865799075
1.2426323541257491,-2.444849266577038,-0.9035238064684229,-1.8530694232976326,-0.7401405141887756,2.856946422153513,3.455077035354612,2.2273155729246246,0.2705175537568696,1.3860467984304794
0.7413612852855154,1.9235407802603208,1.9212769906633822,2.291309816700909,-4.1274703958663785,-3.7290847201154134,-0.6158179453191708,1.2284660022498497,0.951800599759029,2.2141646381594406
1.581537889957068,-2.63511226418172,-3.6789005764275373,-0.9672306670831703,-0.4806847745643772,1.6327265876324426,3.4414053590884173,1.247844654941022,-1.7356557435266091,0.912821250442934
-0.40348083472374907,2.1640132522183286,2.155006284548449,0.47539553292850334,-2.793705096233691,-0.5829643222323686,-0.9078725329864372,0.36391141339482913,0.8131011349429541,3.3944362070915783
0.020946433864108327,-0.07099254554235696,-1.1699913512425217,-0.6623966341646819,-1.81330282409888,0.6985034990349569,0.818800681556815,1.7277212440288285,-0.3285998439790241,0.6244286401970489
1.6191433001538118,-0.809402301811875,-1.4169951834916716,0.2915533788051334,1.0074835352412295,0.3499962592110936,1.3524473246896518,0.30389231125077787,-0.1736213390381735,-0.28105828979755765
2.830341206858465,1.3895164602129644,1.6722137399577575,1.3594927503690877,0.02299713261854819,-2.603051940251842,1.348761352603458,1.9097811909009708,0.003383956141654248,-0.3771123211509597
-0.7472479934395205,-2.7223224330934883,-3.1795085017847557,-1.1038515066523167,-0.3237613348489945,2.2562980133880055,2.701207832434242,3.220291623954907,-1.2991691523558777,1.1015003724155545
2.8562553678487603,-6.203664486412157,-6.065602767832579,-1.5882535770553983,1.7349001869931344,4.7451959518791735,2.8649542442691804,0.04829249726652529,-1.7580421712898053,1.3976696631297951
0.26579327247997075,-2.45530447772142,-1.381225176145117,-0.17609963841358367,1.4391367257895773,2.2174731276281276,2.47596688138391,2.7808801532934426,-0.2838492924050921,1.0104673981517687
2.914797398318025,-1.041826178184028,-0.717360042032806,0.3323270639809674,-1.1353243897789895,0.7616114946133501,2.2019196706541386,2.4644179354692417,-0.4357947823976866,2.350066359685234
1.9706156464402689,-0.12318383987665246,0.7512328537765112,0.16752328613226525,-0.6028258692822811,-0.13630416877624982,-0.7538645169348797,-0.6867990775606782,0.4590911328768516,-0.7268393443079518
1.2263921320135025,0.13735773001529586,0.2662704713670994,-0.24100036762696292,-1.8408404738969353,0.5569894331995474,-0.3377114732120654,-0.5470567398283961,-0.048902668194382624,2.0402527532368815
0.8367841929042916,-1.8199004530589757,-2.354215149100151,-1.1069330142460552,-0.9310793806331286,2.487927881563172,1.3133661838284452,0.7523606928223303,-0.5785280806237771,2.212025654401667
2.9848471103640333,2.29511233749927,3.3376053758426636,2.528744847845271,-0.9608774015778022,-3.6236875037341876,-0.6357595703500456,3.4341908992280974,1.1056979469918597,0.10786972295182129
2.960643681903366,-3.3414421545330955,-3.7381226078006806,0.27688871382651625,2.9850395036703112,2.5115834976731035,2.3253286652192755,0.0888004443005388,-1.830896584446413,0.42465920856165784
0.014367258354167411,-1.1913133661644693,-2.6792291433242745,-0.9577727024400907,0.01607335372278723,1.7790329062545185,-0.6465421370439959,-0.17545032028853436,-0.6219917742185787,0.7275972052564688
2.998281764167695,2.2942294032444357,2.033644481399091,1.2404218250574384,-0.09932395965406834,-2.715588180388377,-0.9989736992305941,0.6705222842145937,0.14805496935775592,1.361198852256221
3.1371973982005015,-1.4926411879360846,0.04837145645983354,0.6818052687007452,-1.721834128826907,0.3095711117768935,1.197634535873703,-0.16755063510769086,0.029707324784029748,3.4356965592679645
2.3173353499052203,-4.219362405085886,-3.2128995749847875,-1.2325615909413004,-1.258905949848107,3.7499208497221894,0.8032543821032798,3.0177249835778417,-1.3036020136105435,1.4697014699256146
2.6279857400126767,-3.7667009041585024,-3.2801640545060473,-0.9812353578902899,0.9842358283378316,1.9337289083990357,3.325836615853733,1.8985285948281971,-1.1163828143113008,1.2024977495763158
1.2573401062927596,-3.286484330181358,-3.7604816219663384,-1.2139396993671072,1.4543900366236784,1.397901524937496,2.046670224851156,2.5951675955827453,-0.7665369809923928,-0.918708936749546
1.0029215180040745,-0.9139964509707088,0.31444638741982295,-1.1446164895114372,-2.569650873623773,2.7622827571397033,0.17399971565485162,1.3383621453866072,-0.7795397514976908,2.3986090394441217
2.603746501537652,-2.723086243897209,-2.9506795254416396,-0.9334106106056105,-0.7005794009406414,2.6222805525753397,1.64543899151538,-0.1600108152374149,-0.765422796607946,0.7530521141108295
3.430471523977781,-4.645812136873508,-4.389425448543212,-1.7166412737400036,0.7381487440329711,4.276746845901895,2.8983577412846464,-0.9937801932758068,-1.5683593542326664,2.4125111011158795
0.8664572347810637,-1.1432639298536613,-3.033338847255162,-0.31822643419339425,0.08072377647697561,0.6016755956082932,0.8393921803984659,0.8734158810252048,-1.0869953374880492,-0.501600486364852
0.17912822784943128,0.0601014156753378,1.4786988048384544,-0.43962295779100524,-1.1901009004895529,0.485760511952037,-0.20487972260703757,-0.9686408685547445,0.7887789186247162,3.2823325614467906
-0.4478366979292029,0.6480215373655807,0.35624178336007,0.6445429222108395,-1.6476780094232988,-1.5058885868288248,-0.5447738268482651,-0.8172563024234318,0.05129689455746027,1.9158870690136633
2.879198688335584,0.5290397490734353,1.268989520808347,0.07712009885488871,-3.5802611718398056,0.5194412371538905,-0.8758404381944784,2.737519065156018,0.19228094147420233,3.139210959546711
2.0666022589480857,-0.46771613104635756,1.0252008420854362,0.888042500791884,-1.6684250648566188,-0.02764299288030082,-0.8615157251905448,-0.8406223578194091,0.3178128652458232,3.0451272342819973
1.573980243064876,-0.201131445783155,-0.3801800486351966,1.0447320714238038,-0.2594457558825791,-0.4757010194519067,0.1254396557476931,2.463402186401965,0.04598916873131181,-0.7480076436677459
3.3948259236299467,-0.40351650597432287,-1.6185276136031967,0.12877319136574167,-1.5919807672528665,-0.982625282671924,-0.9212722005292375,2.3111935798530916,-0.5275640193173442,0.0028824735108050614
2.4691718508950977,-2.6849968101269304,-1.7932330946127442,-1.3528465163761743,1.9387820185060947,3.708222726706574,2.8797225519269802,0.7808943854099539,-0.17866059042285654,-0.9063877204863156
1.5824152394453428,-1.407784328314616,-1.2956061710591462,0.9468259890988178,-2.004687938107214,0.2718129488131102,1.1495535125882332,3.3364335922584694,-0.8803152355518097,2.6070262738593604
1.373662330501737,0.9123107134170514,-0.8697715201259417,0.3090831427618567,-3.4090882280958685,0.2163169084680483,-0.9375394386591657,0.8757220438119038,-0.40484663188277753,3.2681835478082366
0.1606156877535907,-0.37833427583151685,0.2891249723214982,-0.2474789725338172,-0.7515364308185224,1.9506075135975416,1.8846144162491805,2.8920429588765417,0.24163954598681758,0.7523351184080678
2.0825352191718407,-0.44418558410649556,-0.8825588554997179,0.1215356913215758,-0.17490695924762956,0.39067499945357953,0.3792209424657573,0.38489735630113464,-0.5488179462604499,0.7715901999834396
3.446806188261365,-1.6587518934309904,-1.625406822227916,0.4072696715025591,-1.1915937353714876,2.1803000549021276,2.675788864457182,2.8032683835046326,-0.7898044557841744,2.514025636085324
2.142959079015168,-1.025737994641406,-1.0313056363016724,0.9185018591645479,-0.6801683471413038,-0.1966540905689471,1.5217524200747543,0.5242255627212216,-0.4479229529225604,3.176546205916951
0.4993099628790336,-0.3366083852442908,-0.4690914968421504,-0.22547752579367827,-1.3708222114315696,1.306466199795104,0.4592389338147662,1.681144034391843,0.09704655915184254,2.041919952627919
1.8838898118975576,0.25121138480561195,0.7696559015878076,0.18711030903392675,0.10424109824682203,-0.014009955007301301,-0.29485087982149494,2.802814689812102,0.12116073295287964,-0.8088686670894124
0.1635891461813601,2.348167442097452,1.8173607747313862,-0.01441697193792763,-0.7062180553700947,-3.1820848360284417,-0.7528593885491027,-0.3285252824028545,0.24750849193852661,0.7047827851147985
2.2610754400523096,-5.572020529595151,-3.0827464735571697,-1.5642488381662576,-0.6327528408152925,4.764074732350134,3.202673731582066,2.7734283095187324,-1.0636901925974398,2.9538704558377944
0.9794841422842826,-1.8523841736018571,-1.644971140369184,-1.2188268496853971,-1.3900483150287457,2.2602936284880464,0.9313927968528266,-0.9741304418068208,-0.7651667918067497,3.3306909371651585
0.18331165543237726,-3.012542967439393,-2.608496777430114,-1.4711832718284716,1.4519433994771362,2.8852933520587,2.5864745486970784,0.4888298246169436,-0.4390063192077005,-0.21565902750978772
2.876707268680412,-2.726320592731498,-2.548336428393547,0.07269339168010996,-2.232048481922157,1.2400665417220162,2.553877226203211,2.53463038370245,-0.9776549966782813,2.508693117876442
-0.572990459437383,2.125436025838875,2.384343716496784,-0.7358424064894272,-3.9063418735800104,-0.08712752687220783,-0.8732564662424789,-0.9359232182275655,0.8132345775554224,3.181138298828209
1.146754472391624,-5.746300707291034,-5.56670945052974,-2.9078578218467572,1.6676344082389347,4.396852484913662,3.447859736092447,1.6162261697458713,-1.854862086798653,0.7564118134014706
2.574939276955354,-0.8186289645567894,0.22772390767240808,-1.0087160550567345,-0.08927365208119198,2.276096629889568,0.9113296306238767,1.0258529858561243,-0.23684337727174437,-0.5632424516237464
2.1979873022345524,-1.9423685287425374,-0.8510848597228332,-0.3496572249571664,0.2143797196334315,0.044019897033624994,1.2593047656619403,-0.44786698613192255,0.2601434644294162,-0.0949350529825177
0.805921616226275,2.374773976917406,2.366523404599463,0.5963499955451966,-4.250513363288812,-2.2712875435208986,0.003699986671365618,1.4879952734824542,0.3458341100832178,2.1600684660278557
2.778674329488947,-3.330071307066127,-3.3973089761017,-1.694062046592529,-0.5258958746687095,3.6241957356152747,3.0540662922131405,0.5599500892071818,-1.1969341964011584,1.309312804814177
0.3536847727943875,-0.8586427670826449,-1.3917731250991525,0.04073983241160167,-2.0023660452388707,0.236293941367036,0.4631946718672051,0.029267261977303338,-0.5091017572508084,2.515045097034585
1.9170009607482013,-1.7231428384617602,-1.3220330783877787,-0.26178127123085904,0.7740294065993796,-0.03315036078165502,3.261331284497361,2.4922433045496084,-0.7436307465362622,1.9596572237519525
0.2348200291853526,1.0012635575231212,-0.1381930014695228,0.6548208323890234,0.4104139158519591,-0.9712610083290157,-0.1062743900496036,2.023019366474168,-0.1126291838343806,0.7881783742312107
-0.7977460394595635,-1.25398980706874,-0.5945340418403154,0.5302602143411586,0.30481252612275594,0.9306591218027966,0.7455841731541986,2.4295686578852074,-0.3313035896067402,-0.4965122302909495
-0.5840722062723163,-1.2202107757193708,-0.41982008346939664,-0.7458189122826405,-2.3999646194355275,1.4135950924011256,0.4915250335018888,2.5359143984100676,-0.523828655741086,3.1219204462554284
-0.5574564572610006,3.086419895306968,1.5978772733308426,0.23521049777983577,-3.7327975720934923,-1.532929689012891,-0.752096546111904,0.13483083229496762,0.6006555861995627,3.449122620784838
2.5848995507878096,-1.560511807244313,-2.732240620589288,0.6230791343733206,0.02689883108461416,0.8292248538173215,0.39116752026459123,0.5968704567167318,-0.1414575500932911,0.5322659754886863
-0.8147966131166133,-2.1414895390190916,-1.875740935305172,-1.3752479715797754,-2.4792260334181013,2.3004108086208106,1.1083672327540435,1.6916401597167,-0.6078405272319385,0.1430520605555219
2.5266124985394063,3.920896648207487,2.9380707208853836,1.6547962267367375,-0.9066889290895399,-3.956497808913417,-0.29214893935632413,2.9415703602727543,0.7903563956351951,0.9227476575513331
2.4842559643074615,0.5472835731761836,-0.8999161745142849,0.023979329626471535,-3.0568021691534657,0.16120982595309974,0.29932113075922717,-0.9676501297268827,0.09380787309479303,1.7081066426787999
0.5646959913687939,-0.028094100396780508,0.08532799620227809,-0.15946790933032018,1.2367174028842158,0.244026775257872,-0.1815238514366645,-0.6805882488065693,-0.17413618595562186,0.42877336524169474
2.5879241399725648,-0.24328962236491777,0.9135265517819349,0.4919361132045391,0.5765932318607502,-0.05906752242312634,0.9386444293425829,1.2240502043226869,-0.01286658050540189,-0.3960457150793314
-0.5265196865769926,-4.043224864083634,-3.680364146894217,-2.220990113321641,-0.6096005736251533,3.4652346965545466,3.409302754803477,0.6983837114303224,-1.241455507067543,3.2525175977584055
2.0357156872723516,-2.2223274802974617,-0.812485160827754,-1.5186920723026645,-2.5786070427446823,2.293955898061057,2.5927877340884966,2.666219062419371,-0.3462843967903484,2.7667254894743496
0.1366275238834327,-2.5272017370151474,-2.6663368088231385,-1.5343619899029635,1.0940506327866897,2.705399515413536,1.7649597998893451,2.392441042788173,-0.5252621862206055,-0.8692895753490574
1.6079565326848022,-3.2071430665659637,-3.8314113043083213,-1.312391652371047,1.6683354775699417,2.448758914086848,1.499149056717124,-0.9409424044746058,-1.788475330888562,-0.3918023168863112
-0.5660134196472442,-0.6306192064159306,0.21743136418169737,-0.11034963792209398,-1.0715039660081438,0.19794961107136197,0.2223181780437513,-0.15074722713019506,-0.012850217739219282,2.6009523246348727
2.2218164294028546,-1.0266963835373668,0.21159112319150952,-0.2741929204241367,-0.5911347188053122,0.7440132156000795,2.608279718856803,0.5057920781959879,0.9791403350844999,3.3087104125508207
1.146316627804139,-2.2734236407488533,-1.8711076021176305,-1.446069856944074,0.0811725626298865,2.809334284662884,1.7261299528994551,0.8380946967566405,-0.6667967068052305,0.23377578517946063
0.8841188128760966,-4.0083550745711465,-2.9863239873001652,-1.2756101788615835,0.18547770462258018,3.0182349017444414,2.545018327514953,2.0171536580055016,-1.0711605460821827,-0.01964956176479682
0.9206167670228935,-3.589221737709169,-2.9560104519011308,-2.856126997118575,-0.03554775444517233,4.12658891447309,2.44146594747169,-0.29470922252522336,-0.5301654321132704,2.5613326974973756
2.2061751466816344,-3.0664558537052664,-2.4692463803208238,-1.1781448628312297,-0.5069530301820068,1.3446077396537917,1.250456084066545,0.9511424994635007,-0.9205850348796023,1.1072385067151678
1.0500926534148958,-0.6719736372453751,0.8655100140445193,-0.806940674324931,-2.5680859232361426,1.8798260008303371,0.6857640647400758,3.2573672013690045,0.6542914094648272,1.5902219804284834
-0.23069297653457588,-3.0560428315631203,-2.6909919286632147,-2.7902731953375604,0.5779528252911751,3.490859891007764,1.8352527562085141,-0.030268612063034772,-1.0392541765076597,-0.10017993758015864
0.8856206561044093,0.21164897165191893,-0.6298639556102675,-1.1713626302804079,1.5013071894702754,1.6115491797738295,0.05322123726517214,0.8746968573174558,-0.7036294120314965,-0.6559894191200222
0.3002101750185533,0.2037287825662813,1.8026793026960957,0.46712645777614725,-2.3470568816807247,-1.1392418477131532,-0.33380264329431986,0.9371594958007521,0.8251204091199896,1.4274312235259048
3.064698955340262,-2.250336066403906,-1.0918834489791016,-0.6504704745271057,-0.999958903549222,1.5143773208758526,1.8757011418422405,2.039283794094264,0.007281361336390253,-0.955039709871178
1.5697699977633919,0.5051732550004935,1.145407226158307,-0.6923261459181902,-1.4414514596393673,0.32640136972843503,2.0200719225702017,-0.4620868560538586,0.9785802812801744,2.376780854913157
1.9101574381177855,-2.3922433923875155,-1.9599482260506145,-1.3119418587877667,-1.0310217013762353,3.351352774523739,1.6935951418313757,0.301881246801891,-0.6706255962047175,2.9720946434837208
0.8353274229509378,-6.027205524634859,-4.914503777078907,-1.810076759709957,0.6206807522359195,4.341672182254446,3.195739409079832,1.5493867627932216,-1.6855003956260393,2.1210096304473147
-0.2276205670350121,-0.0022433013774758037,-0.05267650154889604,-0.5254966254120215,-1.7281419227561154,1.3652370603775172,0.9710032347723752,0.9031910453947993,0.026965450284390027,2.005132322042495
2.1804279947560192,-0.9143452859427628,-0.17414476143058027,-0.5610700969465144,-2.5644198897733843,0.6297510684466049,-0.10113883012905933,3.119130901776903,-0.14905157495316362,2.376155472205248
2.1958201863592515,-0.542762661841061,-0.6173230980111154,0.4908399644372714,-1.6860964861382772,0.8297569761206338,-0.5305598775896736,-0.22479257843571177,-0.00951283403777799,3.325815390064169
-0.859042767866013,-2.985987473682182,-2.7716863232414624,-3.2268181558398754,0.3024563464614012,3.7562116831047985,2.4988792478994255,-0.07073247096122992,-0.9006300495842516,1.938350483286381
2.701348566870619,2.017002740625003,1.3572538732030501,1.126331060767666,0.006229431233826355,-1.3531752554357188,-0.31197740881585545,3.0660220121557344,0.5382050602060846,-0.4880413792752014
0.23417272944925793,-5.03343031046383,-4.334646523693765,-2.0033364847563218,-2.622140622928513,4.380177837167685,2.949458503229859,2.6357116920964754,-1.2432112428794206,3.400480958887387
3.026485971746612,-3.0052271360846703,-1.8853348637746112,0.4867655901133282,-4.648098236234691,1.56440288870331,2.1079551093246325,2.336584424661277,-0.14686462183057902,3.1643875580982224
0.42966815228385613,0.9601508116120034,1.4223268602956494,0.24835835178341012,-2.759096850150696,0.15048286361986815,0.5229669335755589,2.2432192175107613,0.2932978478181148,1.6300113872447453
0.7939603306841256,-3.651152130969745,-5.396004940618785,-1.756618441377454,2.6914612979750814,3.3021703790220167,3.1963313959567294,0.17006556500637693,-1.613568329229826,0.11987444379532963
-0.2298974151587545,-0.27201059439800246,0.5568577338897832,-0.45123253239913946,-1.0721032525462966,1.788330028950578,0.5133411263074112,2.9177790463184117,0.21695314701627505,1.1039649267823903
1.4867482126523188,-3.1128819596491604,-3.7594995889523317,-1.4843775336262994,2.169272626054872,1.9300802319282369,3.3493778163861068,2.030080328763019,-1.1665100489922435,0.13180440058969478
1.1486491226020252,-1.401935127989212,-1.3906724102475638,-0.48320035963236996,-1.2760372888593527,1.5149689723554982,2.5557470860777607,1.5954152328703781,-0.7879304097497681,2.46174698477929
-0.22718505525357946,-0.8732444107602135,-0.2387133984707205,0.573285620218869,0.8471829856488189,-0.9054874664846955,0.8765622635469159,-0.7242803386437737,-0.7735828407367195,0.6479309226507382
2.429414456718923,-2.7395779327720327,-3.811869915836551,-0.7644190913124616,-0.81174811514605,2.4658322215784274,1.4421849332443863,-0.6836352187709138,-1.034892854532094,1.2797308359388389
2.67576705474244,-1.7740910334981708,-1.3844971487714441,-1.4382917949231113,-1.964014753845853,2.1904690431088354,1.1494115023901235,3.3569665200264405,-0.7939242775130859,0.8810205562013196
1.2422442694678342,-0.49682126126619935,0.053409162341986616,0.2515886239174393,0.27940512918683413,-0.6380334468143803,-0.45203851455140753,2.6820550980687083,0.031302186840269065,-0.38187300184097783
1.2829288840817599,-1.0320444201661743,-1.1417970813580653,-0.1827105095139473,-1.0244582060717413,1.4672504267087838,1.188706308572526,0.5625644863362154,-0.292248210181039,3.4059444086516146
-0.9759859224698522,-1.1133418225526497,-0.9815143367081105,-0.8295274887092681,-0.24166811087667284,1.8278856091693336,-0.3995075509395989,-0.8261122405638579,-0.789345707069548,0.0521286676954964
-0.1455624361305874,1.564488533610143,0.9863482403584194,0.27693096346709956,-3.109440542001515,-1.117382047795333,-0.8521698279142413,1.7506008219649583,-0.18672079281046564,0.5282889676413371
-0.4154461150206802,-2.302007130973249,-0.9545987058419922,-1.6696269785036773,0.057622299869815374,1.8014498815729205,2.4136455892523445,2.5307165870294637,-0.2476402257729221,0.004123585508936767
1.5732339366881032,3.058403465609543,1.0561502728390728,1.492370899466398,0.38768781333157,-2.0199132281339205,0.2084330816472708,-0.2541265524421078,0.10507389470966419,2.959567420284705
-0.5982219998080308,0.6673037963219193,1.2671490761012414,-0.6564092918949789,1.4911351912236268,-0.8404201173781034,-0.6111769886154427,-0.6353382952043543,0.34982212430088905,-0.6225786299245032
0.20592502353689346,-3.92259442766235,-3.4522761293817967,-1.117673259393781,0.7488428469044706,3.889992926551513,1.8822953082875369,0.10163861356307535,-1.0057281573592427,-0.35335018142757524
2.1563325801611244,0.2774570693408596,0.33677462820026327,0.12440365458201191,-1.37378589573987,0.3290952596470197,0.6140313896329548,3.1894957433769795,-0.1146865833328725,1.3358034705664013
1.3598852742197787,-1.9246409269969957,-1.741186282407154,-0.9762489280956619,-2.143710988704036,1.6484087227624067,1.5339838020928047,0.4914557970236697,-1.0146595250152093,3.3072085202159958
0.198446655958614,-2.6768153390478493,-2.3166942920150446,-0.7708335426307704,-0.4895682752653929,0.8252626541512257,2.819658690848464,2.305307533144366,-0.9203155142939321,1.0332984826754092
-0.11365429715650432,-2.8431833758802565,-1.727514286485501,-1.3969392701525574,-0.17595258041967912,3.1969381198794187,1.180083319316323,0.24353319352709124,-0.8748314600599527,0.2919522067897753
-0.11852043574810678,1.4116060291123906,1.060656118622073,0.48844403449316054,-2.3191689412281926,-0.6966104382692511,-0.2060243032934045,1.730990188872731,0.47530000990923416,2.003031750053109
0.8167448030206825,-1.8464942099602981,0.210211980311345,-0.7742390901346711,2.296794633746528,1.9943890464500706,3.0214410431712198,-0.49884485575954685,-0.33109801415044327,1.069755584965542
0.4595426391013435,-1.8222654042558841,-1.8933726952657346,0.03317939475860757,2.016957459665968,1.771438937968772,3.1537333481879184,1.2526690217746808,-0.771957298171509,-0.37453981209313103
1.0728727487771756,-0.32941613519398777,-2.226149745469725,-0.42749739169623047,0.6549398977135907,0.5594583489674217,1.7756784419557654,3.239085030402486,-0.6937241548690083,-0.8149219859316464
3.4582635399256683,-2.319679878664238,-2.394662356297073,-1.8499417333564083,-0.15732761036511106,3.1181655159269113,2.0110565655549286,-0.13469843920967195,-0.47073679797256834,0.8049968032327321
2.606397988618046,-4.2133344829614225,-3.9299610896020147,-0.6522407350946725,1.1658427212290707,2.8167693190057697,3.377369200717692,3.0385711249741103,-1.0189869045969544,0.5925907766800751
-0.07061542335621862,-3.0642397458292323,-3.3175141455387473,-1.682843223771972,-3.1258260791503987,3.1808876519250164,1.8855234003621164,0.5156719333197695,-1.3392078629306934,2.018329539667228
1.5299799022139409,-1.6665515188319744,-1.3946215199676881,-0.7696291705025073,0.5521104976865324,1.5644237056634474,2.1201972183489164,1.5998660804342015,-0.38492969708039054,0.9070385939007255
2.323978630599648,-1.5725756926457883,-0.9533615929125709,-0.6271530787744624,-2.0919617000466744,0.9143271287519135,0.5599452341374511,0.7293218004614588,-0.6037487169313246,2.2261833936291366
3.058512086088572,-1.909775788734293,-0.07556654999211444,0.6072100839226735,0.4678041934063646,-0.2994171327771365,1.0510477579046782,2.0242034135427907,0.5645572247474789,1.221665875639069
-0.12287600374232677,-2.132566518086227,-2.4298164519304577,-0.00047005592273147156,1.4732263104810817,1.9426559393791885,2.83351418246694,-0.6917205452921513,-1.0371012956234786,0.18816971044361863
2.8122924596145316,-0.8711761786590576,-1.0295303223279695,-0.01123180252566025,-0.6870280147750918,1.316759632648267,1.5993780178517825,1.6800363367406206,-0.6580570972658984,0.5788794211067438
2.1750488032421553,-4.236371967555791,-3.18475079121736,-2.077177357250896,-0.4430668911720297,3.5882704956692963,2.4150561780322812,-0.6656539623184696,-0.9645216796336381,2.9449535293339455
0.41050482014225564,2.839087712892343,3.6041506827382133,0.6717493316292416,-2.630439214378684,-1.010544507361926,-0.4405217137060137,2.8483280278209993,0.9701836450784422,1.032458952307925
3.216788658144141,-1.6851105098989045,-1.8299826711760754,-0.6354948951435683,-0.5164217461827912,1.634360313648557,1.7298104627974036,2.85960526857912,-0.27870280225716404,0.49835668957518076
0.8298352821705384,0.3011689760125247,1.1492715427896618,0.0020354188024546693,-4.075377534228339,-0.5835658562289411,0.04379525888083813,1.8854904216480448,0.44693542384728907,1.9247391469591308
2.027038032247744,-1.4282884814807828,-2.4216055442412925,0.039144262991044884,-1.681801286805026,1.3064119143078698,3.2405335441779135,1.99367204390821,-0.6555671335866748,2.675532832381416
-0.5048714861445138,1.8271421548836135,3.182451268263531,1.0776294309600323,-0.9980618453149057,-2.0525732347815784,0.23091224218487527,0.09923491708869747,1.2161154403456447,3.0678368320823157
0.03049989847455503,-1.635167524354978,-1.9201739500387878,-0.6385913189486123,-0.08131475031917954,2.6690525779490497,3.244382742817364,1.9396828359830507,-0.6579316372330869,-0.11694932811605674
2.9903109827055756,-2.959562841202152,-1.6228250125105017,0.20266687030249025,-1.6613150757243444,1.4095975617140553,2.402382633450887,2.590640796155595,-0.8226358617199103,1.5110843394788933
-0.08122116905468724,-1.5208661569151531,-1.863040589232631,-0.06919995248147442,-1.952049583437633,0.903730877387618,1.5916278091058143,2.8123719437952697,0.1715903212092938,2.7243846411143906
-0.0740139561719747,0.43738713602456614,0.12129351338746033,-1.44728679104173,-2.1164164945738277,0.9974205280038185,-0.08772723188956599,-0.4767634410579671,-0.43584012900855496,1.9171728168173363
-0.057257924693065565,-2.459868036629384,-1.619618639591148,0.36296315069579144,0.8972224522456043,-0.07874349372331661,2.1777893947580313,-0.600378382294295,-0.6753703001518464,0.6289362658730637
-0.27406691409738304,-3.3420949094546915,-2.970851270590827,-1.0324462992818164,-1.4823622767067133,2.8827763676814175,1.5539381692053595,-0.8301484958390158,-1.1238580685488697,2.124121929156979
0.031637326768351626,-3.6190619287934847,-4.179777310956251,-1.294331117558128,2.391166619580397,3.4432821325700744,3.411677738054169,3.086828189851868,-1.1460742381331113,-0.3230300863743837
2.541887571109664,1.4976377383600123,2.5885218755312964,0.7159749346164065,-0.4158705829466433,-0.16706808722728106,-0.8966206283587543,0.7547791744643959,0.7145988990355285,-0.7646560241668028
1.7645863926675633,-2.11916346658597,-1.8920958683046698,-1.0160329473526652,0.3856783734261813,2.907884690429633,1.5668915641381158,0.25831866267558756,-0.9221657131271783,0.6742158833186056
-0.6480091628049858,-1.0316522632673206,-1.0864953688545353,-0.5884126480461647,-1.3219040827237467,2.008911618936336,1.9037494851775971,0.9641364055109685,-0.3062116953882749,2.2496140550528825
-0.7975407079570526,0.5062514612324934,0.904018658882266,-1.1518748719515888,-4.254791896392367,0.09826474532397991,-0.8409003691556194,1.8977295022675746,0.5180464919082429,3.3076098867582777
-0.4004064266844958,-2.2871931742818306,-1.6352890489797824,-1.1544707164501333,-2.200217506492603,2.653789656091403,0.9400846498072364,2.076327808333275,-0.32097563280820135,2.6943294058709872
0.8767001860072365,0.3481030678814027,0.8765310254142218,-0.01360858059463825,-1.2674630607547646,-1.5737680890142847,-0.44737415365485844,2.7940643126317473,-0.02823261864919295,1.3980485025239267
2.934593894240233,-1.5417480242263768,-2.1903916148324063,0.5786284077262855,-1.8105380395122848,0.7850390666717013,-0.019367028787996454,3.037478456412644,-1.1557424826289902,1.6748794413623935
2.247315932869682,-1.7268867593168542,-0.885544220188613,-0.9933204138747356,1.7213297832202228,1.8199698414539605,2.392290261936688,0.14742948656305432,-0.5147987196678185,0.4842525791019363
2.2520604136264266,0.23033164192641037,1.580330595501512,1.2277349151517916,-2.785521425151268,-0.21307539041367535,-0.46584014574874877,1.8230215122407727,0.5572914155809641,2.538576869484775
0.8296841706518887,-2.182472581331011,-2.9565674229606773,-1.054004003296656,0.6213329516922339,2.907456880930097,1.564235032880994,0.295480126835326,-0.9207810802131374,-0.46062311218612206
1.6732527858809028,-0.419396667666125,-1.1323511774738695,-0.021338524581586443,-0.4333585489386166,0.9598527807432601,0.9819348541073389,0.7906782308925555,0.008219394794316161,-0.2551492010389069
3.3572281604964767,0.2379559354208081,0.09192990155098046,-1.0044516483457855,-0.7556014073574515,1.080873080541823,0.9062379170614652,2.2141357978597758,0.1114579833908984,0.34462307604611286
-0.9784434118257495,-0.5884094632178665,-0.8585078295144267,-0.7817735050245518,-4.904863178925469,-0.3134964940308425,-0.8378314258236284,2.6867019814030284,-0.9241597638836873,2.8817275766887307
-0.13524892431777757,-0.6363733422782557,-0.5457715326972146,0.13625508860610033,-2.52089637212035,1.1897951744967539,-0.02333017483364841,1.4970720673258673,-0.22874371000284074,0.24079665202447287
0.8894204474630554,-0.9976157197980124,-0.3877868095884735,-1.2706107021266433,-1.250278358049754,2.1999570696969877,0.9700691049887766,0.1390964610078802,-0.21371194789556822,3.3347391496166434
1.2597068092113175,2.240953259406466,0.6337914570899876,0.05891393450104737,-1.1978810288888349,-1.532393179251035,-0.6384282674872213,0.6541476701169002,0.17943054232771805,0.27689586016026513
-0.08380636280289122,-3.3056633101575263,-2.9534340441989597,-2.642681134252645,0.4395729350196156,2.6297717022562046,3.363794988454483,-0.6595498342314166,-1.5391828868648285,2.7639994619139685
0.13036567527793674,-2.6229083569070744,-1.9515088491873522,-0.6956003662372409,-0.47721024394773814,1.66887189633322,1.6813196993965733,0.7593493103638853,-0.141654760217916,0.5505399032059954
2.081284876068699,0.5863810273502548,0.5833017955526822,0.36699015831830695,-0.052819000189244014,-0.7539068627808607,1.5616601922267352,-0.6130112539940702,0.006269557899886252,-0.31262065998909927
0.5538834265613886,-4.53332297406385,-3.151363675509463,-1.8225241809143238,-2.037757746196001,2.8635835355133175,2.082190656663225,3.3590293630823744,-0.7955918978593505,2.7315236416324233
-0.7842485111995585,-2.1364760387982016,-1.1033014663427114,-1.4537643105126716,-2.3279918088673086,2.1661915473156212,-0.4026535040953845,-0.5222106641667462,-0.6942435595547629,3.0097873161969195
2.4494472745895037,0.8803594713837269,1.114235109380304,-0.04336447230709327,1.6100671810680116,-0.19310847642994222,1.1821181698281937,1.0731445551864778,0.40610972847281507,-0.4700419906069043
1.9232526056631554,-2.025468207968505,-0.3658227896592911,-1.2666368328204223,-2.963241209310053,2.6798114757571323,-0.032167066396405763,1.1600583348519171,-0.4937920333441514,2.92191456500159
1.8120162427165178,-2.2906481183722414,-1.894701484598533,0.43818195708935914,-1.0529997231475214,0.9872574431605253,1.7222247344821704,2.3918415241969644,-1.1431441886106537,2.393532460110409
3.177370196147513,-0.2733322522722625,-1.1134440109476629,0.7185182411569241,-1.2656006805635802,0.14626513936638458,-0.07210382189906461,1.8237979770299342,-0.8120978774219472,-0.8608660126919185
1.6831205683459851,-0.0711608289887875,1.3253084360272058,-0.45299994890307616,-3.0597097099201505,0.1643253706837872,-0.2850886363709485,2.76375190644851,-0.19668341325308683,1.663937727811727
-0.5731724125087462,-0.853993464351774,-0.6988292845885223,-1.9630071923573797,-2.442686797991258,2.5945194335079425,0.262038894879304,-0.3875636522657665,0.23467931471606263,3.4554555928798063
2.5533091953893305,-2.3080210385523374,-1.5912507874370374,-2.0591431117241696,-1.543966804142954,2.7254118043193247,0.6094694370733285,2.0355851623637515,-0.6471818831626439,2.7128111097868755
1.7782020756788106,-1.1755288332495626,-0.22967800877211436,0.11451270655130814,0.31267254933667643,1.3100616351755678,1.3443809704867657,0.2321478538472741,-0.008927046355580382,1.838015488708808
-0.20103271175657478,-0.664572543121937,-1.0037833263907814,-0.5745963829928439,0.7484519118698107,-0.07362229266922138,1.961138732637119,-0.7805586734641591,-0.6777560996532314,0.7066664864711112
1.799303389836763,-0.43062685704149767,0.9562679093576864,0.8261130094463273,0.7270470824601164,0.8207677944506042,0.8177521702413872,2.262783734697199,-0.07043762097838129,0.3944147612833493
2.6519677340157948,0.6216813538233935,2.229610330521296,1.9579895101335292,1.572592594847956,-1.8646153497177358,0.6800535914649579,0.7551574997615436,-0.12506516647071966,-0.18317991155377011
1.3914827660826248,-0.791923254696755,-0.18206233526796872,-0.8172172214828771,3.0130865508298728,1.5550322251175368,2.826799445275435,-0.2902225719601227,0.26501116654741785,-0.9278007689727887
3.2222735296305762,-0.6246233417760855,-1.116742570558495,-1.4265070518533889,0.717534845850483,1.6761472496607097,1.4495647049881977,1.034465726561458,-0.4534158148030716,1.2668420721387488
0.21643096395869454,-2.0612099584533894,-2.364020361411976,-1.5887848344691122,-1.3036885271829524,1.6880972538127914,1.2752099109352883,1.3271603483217271,-0.47806073909576907,0.49009512412350054
3.3776851206681977,-1.4517605101817974,-1.2668015184963564,-1.0683533696280167,1.2891752583615175,1.7778008592902406,1.845297887200843,-0.890505736444948,-0.48237092047284436,-0.8973899139404299
-0.8655440190135706,-2.7830720054031604,-2.4708054755694344,-1.3622588931397006,0.5682662780644855,1.6901675563049274,2.8506860529964455,0.29062901188938617,-0.24719470591523968,0.6857428810130721
0.5810091831616371,-3.22909246033623,-2.2614554244316265,-1.3841653209060365,-0.6123562688109765,4.039282926123214,1.0243631518457814,0.9151520135663596,-1.2077762026370442,2.364694640326362
1.6565701042179648,0.5373971056375014,0.6768595533496581,0.1306808585355928,-4.409278506038448,-0.11668941391759864,-0.9364889742037718,0.01918353621566693,0.26521958397385853,2.1906761333475084
-0.720454638102492,-0.9197566667539325,-0.8050176323011008,-0.5864122803872703,-3.1981724101310762,1.2069089313583112,-0.3255692676340324,-0.458512531027663,-0.07718659178769802,2.9362884898553308
-0.9168849872136043,-1.804060744680576,-2.2561898804088805,0.3307902179032351,3.075145946242755,0.621791060987829,1.4002023714584255,0.4526819139588236,-0.9380795406817022,-0.7863041911887503
1.1126926021928036,-4.489539414903739,-3.848612935981668,-1.1455627202403147,0.3046718419291894,2.6975608612409983,3.430456659593516,-0.4056492378518888,-0.7168167915138023,-0.17228925970543052
1.4663531277112525,-0.7905937647980972,0.04834322564518928,0.930961004034052,2.7580294185679737,-1.423261158582229,2.4297381818357993,-0.12480025079414037,0.7896242870572256,-0.4046644888773152
-0.2058827304837546,-3.3010784470773444,-2.2857531353876896,0.006063444873238538,-2.063413030566269,2.0643352051416373,1.5918321495083574,-0.8170019313148634,-0.9352344715600619,2.635920746001461
2.1839543031636004,-5.566980648496689,-4.6769606996466475,-0.5727245185107176,3.5483641499806082,2.666615579463605,2.850336854690694,-0.9946356511576937,-1.4684110416668508,-0.07398565130292967
-0.5305045394300483,-3.084574937006811,-2.6710808306773206,-2.077877377241106,-0.45184068478247763,3.226837830824149,3.0487178322908264,-0.2544800137862344,-0.7725245564179514,2.0683028901817124
-0.08643705408656788,0.5892804328129164,0.5010321775477248,-0.20278861435846973,-2.6640832032817463,1.3452287249652612,0.6507339004326436,3.3895015390868766,0.31323744630884526,2.930093477804398
1.220342260068576,1.7676623841611079,1.3053613908284696,0.48778087767796985,-1.8382943356027963,-1.2314066351140973,0.8125800998450192,-0.9206863905747706,0.42476905891695843,0.5675616828165957
0.6424095438988184,-2.5279649361203336,-1.6154684209100623,-0.9430636286745174,-1.3932511996927641,1.3829086275862816,2.2130225444628415,2.82078904317576,-0.49095074857049015,3.1859079150390643
3.01075776946609,-0.3769651899016584,-0.031102786718716215,1.2730979010841428,0.5905899410966218,0.87429313749069,2.1990651469507245,1.8791710639969734,0.39254804178529196,3.144634399550193
-0.002889049434881774,0.8818108572890111,1.0191129368491227,0.05394014135562589,-1.8255751272916019,-0.314811055113261,-0.44121068990065593,-0.594384244677808,0.0729396647029707,2.907132055673096
2.1233594449533877,-0.41180098579176944,1.4435722804253714,0.11282279093390085,-3.807982951676153,-0.03744048888716824,0.5495811788361293,3.2847805561928185,0.5933557631588043,0.39268136940710274
0.6861968889343155,0.5014606915634348,-0.03439226482160003,1.009033308601382,-1.7030737327759211,-0.8791381189465589,-0.7002454052291125,2.912938337165682,-0.02695892302980127,1.0363975035557944
2.072478897172096,0.10602429003717756,1.8461213740579103,-0.14466465203221213,-2.497097290497769,0.09436143233820134,-0.042974853846199035,1.92180603452301,0.8060148404892551,2.913686719048316
-0.1653735892554773,-0.7782220339873496,-0.974929024994156,1.226790052281387,-0.18715115346891853,-0.4052578633369385,2.901599559362863,1.8302696646067997,-0.020647843433719296,2.442093575847033
-0.17515626556325337,-0.5532863584174185,-0.2663287107837254,0.15717491587678117,-4.00963447515814,0.4726587283998981,1.1145797623322422,3.2551650473983615,-0.15133296866502383,1.8762703265261789
1.1610964501630714,0.48136586903948464,0.617872370972386,-0.1449107818766512,-2.166758431034019,-1.133512577074061,-0.726781176947453,0.5509647382785985,-0.17451493071860358,2.8449211412520783
2.529596533730984,-1.0710047482816123,-0.040713999863823555,0.27127085507032545,-2.1635659563399288,1.5034171116509487,0.23316831040627695,-0.741956541885666,-0.16422399309665892,3.329902525009204
1.8473136956520886,-0.7417038390613188,-0.6818631835600466,-1.0823811380140111,2.6272567150739388,2.6357210561648237,2.8616243940405512,-0.7419567542482386,-0.11532645928515566,-0.10412845807580073
0.21882123150550092,-1.90385407411464,-1.9814080006575434,-1.3616723618645823,-1.3692071287303695,2.429262138269793,0.4768920320369763,-0.15283689493646468,-0.7630200188416715,1.420164695621807
-0.8195394888535241,-5.51661922548768,-2.713146523147855,-2.049801536625863,1.1797349984653391,5.0950950030254845,2.5424880159972743,-0.3904137279036698,-1.1704223876311766,-0.5137620804861731
2.283950248330054,-1.3054891939437958,-0.8472138575146255,-0.6300625524813154,1.3260175740744484,1.035544915800026,3.37449626251275,1.77595048599489,-0.15105912862175339,0.8045467589758679
1.7655949957933434,-0.16511434643877143,-1.0278416677325086,-0.7604539803783579,0.02033380064569207,1.0665326425040418,0.8526624142930741,0.29153846847872655,-0.288428379922232,-0.690444375288237
0.16589205951623986,-3.1829085899106517,-3.8793743586050864,-0.6873105716443951,3.1162167467279565,2.3635070909177553,2.477162084837278,-0.2846160605364183,-0.5098797926969313,-0.716870063927997
1.4702857509508926,0.9038396952538306,0.1809691867780843,1.1912085518330442,0.09378048330857502,-0.39154121541196546,-0.06700433392713812,0.040121732662150356,0.4451897153187275,-0.019772089771801893
1.6870962376713052,-2.5685039719522402,-1.3163917534818845,-1.1795589098703598,0.6424789326101349,3.617640275907699,2.457774560142224,-0.4452372146983048,-0.882922789552525,1.398743590540985
-0.17275692810201992,-2.19397490263889,0.20237088045980806,-0.7505217572844209,0.1624773628651539,1.2629663612793713,2.2230679875586277,0.9032610292413794,0.16699919401470384,1.575531620958174
3.202839139018362,-2.6788730328975947,-2.5153982409985507,-0.8130728074021805,0.6993182691675919,2.260019820544494,1.8107460973062208,1.209014083490111,-0.47978143066097195,0.07632544671933861
0.5428684708159652,2.7053463915269016,2.3336084250348166,2.4179888551009823,-2.143480247916551,-2.983140636677967,0.08269093716957387,0.21111952948192214,0.24389587604658647,0.9208757226282167
2.6853518006173838,1.2986023801701132,-0.012350418675693057,1.145887883018195,-1.2446233376069984,-2.0036216110629295,-0.7201430323608253,0.3463133857759,0.323738286238706,1.7287248720146717
0.6831104278435955,-1.309024349666363,-1.4919655808741785,-0.21201166712969305,-1.2083232719033465,1.7071242343488993,0.32329443782735523,2.1332979015972064,-0.3897946953362037,1.4179704531148691
2.4242475628622913,1.8611079943568538,0.6064088979833615,1.0476268226417413,0.09737187824819549,-1.0754429789381164,0.8022986771775973,0.5371451695223206,0.5428445707898708,-0.3699923716234823
-0.7838339121996125,0.37818238472926047,-0.6160488781150055,-0.35569105075233176,-2.465113464577596,-0.012550104629259831,-0.8326771653909216,0.3865509736785959,0.19547119040190858,2.2024953217232817
-0.6572518070193918,-2.8428098749128887,-3.723408243654953,-3.4570070306786733,0.5034553187223682,3.987092042194168,2.266192276208549,2.156597747118036,-1.0439478319738402,1.7032173316009223
1.4279079781565174,-0.9858804595221738,-1.1910660589382236,0.4050912820685435,-0.5737741350525289,0.22934335635005224,1.325650662635029,-0.7376790567776188,-0.6261298071937984,2.2178636678008448
2.868750798666143,-3.215631660890829,-2.0923350965569196,-1.2899472242524563,-1.2064715071900123,3.5028280980686324,2.2777636662326777,2.2193400054742094,-0.30180980279207803,-0.052900158962775334
-0.340767714720161,-4.9720196998484045,-4.827370849161045,-2.8928425875627215,1.636775780958964,3.7654493406349276,2.937628207482061,1.6933100985068186,-1.5999333995997167,1.3138064461574381
1.1434717904135185,-0.6169269318470528,-0.6586652990157252,-0.9024615910097687,0.04529511262628472,1.8688554555206085,1.8777645310041708,-0.10796131330712067,0.2484576984558226,2.760440578525002
1.7415091247566266,-0.8341558993796327,-1.8576153249336649,0.33989122625793744,2.6920390459015,-0.2192078834010366,1.4972322708015762,1.005520309052732,-0.7055719727561875,-0.20488887311889525
0.6148754888994421,-3.8148581284404055,-2.9259167669631787,-1.6060470131623878,-0.12998782701786227,1.514749082997125,1.6565053088339616,-0.0647998841973737,-1.1049742235311697,3.0440762318246337
2.8952748395139563,-0.3537675204162502,0.22121082249790988,0.673372565743937,1.6104096977838571,-0.8897518979826818,0.10523595766724059,-0.5637881428293186,-0.03995327367253642,0.22882323069246868
0.13968308838277532,-5.271741827777361,-4.747586440231876,-1.5333200688977588,2.039121782128935,3.634024706974454,3.231830901713021,2.268674987200209,-1.311885128851416,-0.8096715379790684
1.7795789451969108,-1.7179306473762794,-2.314796310476351,-0.8815809998667716,-2.564822382341143,2.292120752515852,2.251717126521017,0.5210326143517117,-0.6790231135163012,1.5224200320819135
3.334667181783633,-2.459744855907054,-1.5752046158064759,-0.42678872939419027,1.0804096530867493,1.9145266146807056,0.7120011256494403,0.12989872314001327,-0.9024919031785228,-0.9850533797146572
0.5986715933749649,-2.42133700416714,-2.3284012947044346,-0.2751695159879187,0.8568083684013512,2.452024378818705,3.0800508500649997,-0.16644555166111463,-0.3385954217312681,2.152171086874553
2.9201642976192868,-0.10609561700910133,1.1530503006282875,0.08396223774038536,-2.747152411007679,0.43828550481496675,-0.6844320482550915,2.9985174890682926,1.0636951954669802,-0.6191853038935027
1.923661938211569,-2.1362583134119335,-1.6344621389307687,-1.3758756454542982,-1.7849942633316276,2.262433033734107,0.5862250022219226,1.2000107165056084,0.029571330054966673,1.9404886983477656
-0.6317100055073817,-4.162103071526021,-3.373409640111785,-2.1170517123246717,-0.9905134169370102,3.994522800291904,1.6692727590341052,3.1841779219039736,-1.036960751945129,1.0678178495685127
0.250656676817012,-2.889623067388691,-1.878920233052836,-0.36693468794289796,-1.067138483666182,1.508433662770147,3.3192264789971215,0.8051540340195515,-0.7926449912117319,3.2296616524854986
0.7003974255590528,-3.535989237193048,-1.881383298466648,-1.398551005769405,-1.506056444037001,2.592045613336894,3.1726650724414327,1.3728421997694253,-0.7942810645082017,2.441665034053403
2.2818051974114284,1.3027692162353632,0.24468674305935537,0.9664494735207559,-1.2497448431543092,-1.4574377112020012,-0.691448374524785,-0.5872113368248086,-0.1292912969715019,2.500499260716421
2.4963195259714457,-3.500249393624353,-3.1844574129655485,-1.839142260465594,-1.0338049030004335,3.9109849834266006,2.2117747002795722,0.5871321400346192,-0.9126432626110874,1.3545754422605425
1.4100050792554226,-5.14684405602815,-1.4531564849733392,-2.8870094107068467,0.22629118822615735,4.602516753238264,2.7263281122252487,1.9424813776482606,-1.1357240093839704,-0.1887711362712584
0.5424900696988915,1.9260107731965297,1.1130601686628732,1.0866203149180123,-2.736839030492957,-2.5262590002266037,-0.8248584365964523,1.1059331051447723,0.7449913639395905,1.9510716691717511
2.9305943190726937,-4.537749413742935,-2.599332946709592,-2.9304213320321435,0.47462708928875985,6.601670740117002,3.373820741173791,0.36472815197219366,-1.0027155821462823,1.1233859595727798
-0.2962188789133682,0.0762206587631418,2.052155214328962,-0.7853526204292265,-0.9747005944512598,0.7765132310936377,-0.15224679549958464,-0.2874544255806015,0.9467343130974774,2.2520690606031115
-0.5620258058570327,-1.4334528623333882,-2.4498705026598895,-0.4356971886385414,-3.3528492461941273,0.8085267350805894,1.1736223891315491,3.212123052824185,-1.0603899539944692,2.4477189048886356
2.6041746542901603,-1.7614966881124192,-2.236251608672416,-0.34534654060023384,-0.38244049165672056,2.400300463533721,2.665784524494947,1.5941860331070665,-0.9420628198292467,3.3161197738032397
2.1751926533077524,-1.4790081564877233,-0.2967969881964588,-1.163122825643314,0.09170024623173234,2.3844942507239946,1.0290111520615168,2.117971232798692,-0.13655309923122222,0.6979595287249933
0.1651422129687694,-1.47089505537282,-0.4205380319801669,-1.036292107246146,-2.4138379466693825,1.7661033990844124,0.8028671509907144,2.859294548345099,-0.2900578821202632,2.3988290485427655
0.41284076870400543,-2.3739289502758676,-3.080174180663601,-0.9161075375736055,-0.599282548651241,1.2280096308290227,0.6464356445030852,-0.7421117260875116,-0.9375394282718011,-0.27135846106379213
2.5588292472411953,2.8781358053415778,1.4853748272717187,0.5957160847655286,-3.05459686816708,-1.7618673962615616,-0.9617443366627408,2.848336614661977,0.942844280179941,0.39837060112498723
3.1110376457130124,-0.7489527192949921,-0.7669011908904523,-0.7342273709727165,-0.24476346106650018,1.0682439748589534,1.7441287024762002,-0.7549825025413603,-0.4790632848083626,-0.2447703900185757
-0.7542479492313338,0.18143618567432318,-0.04988887264656217,-0.24272776427268244,-3.5178378781278417,1.5993051446625663,-0.7357775652182276,1.4571133112944024,-0.642270645340723,2.364756195373378
2.254242907266642,-3.4867413699132728,-4.303614207996543,-1.4497617167397263,2.485777530613819,2.9946025966072884,3.3531405822672493,-0.5187483871959166,-1.4826365456358335,2.6203360836565635
0.6721506991242427,-2.7426171183826957,-2.06389165252014,0.2801407562793107,1.1786961197296584,1.293363844825535,3.4180710051085814,-0.7924082225024475,-0.6144313266534134,3.4436515814852164
0.3494489346195204,-0.8692906814403082,-1.346209541527044,0.16944621444426564,-0.6835541660221147,1.2758343649750457,2.5684944831638896,1.87168927815445,-0.35824146825559217,1.8135094201885922
0.03863310798706321,-2.9686734339078455,-2.455611000273838,-1.4769984495024164,-0.5795718639652065,3.5918084925926657,1.4484075954699747,1.8076708296860775,-0.5708242922664927,0.7835653207151083
3.041828003850817,-0.653554268003748,-0.1454884606770133,-0.139012937608458,-1.7422335295985534,0.8095970242578538,-0.9227969330497487,2.054239540888319,-0.32361849376542795,3.105577051893169
0.05120831006817217,1.354521338403826,1.5307935127927434,-0.17519690163393659,-1.9485164461754223,-1.0907617505436045,-0.5017458529607994,0.20258445881933684,0.3468909228112714,1.6730669511775438
-0.5367009724651437,-2.7315818616613803,-2.6713377113973134,-0.5888130124154218,-0.6507020735867366,2.895988493770737,2.850391760996053,2.797288955519784,-1.1526231373800155,2.2937062904151495
-0.23210317520453194,-1.9641130874578985,-1.5342906414111517,-0.7985572248957629,0.6413743062234463,1.495995826049675,0.44100821145685787,1.422570789111227,-0.6645047634575626,-0.08386635160374423
3.413340040026479,-2.68439404057681,-0.06851130381547613,-0.7847095133622064,-1.5815813501406424,2.5119803754749275,2.8898533910595003,1.066871712038398,-0.10334648321123271,2.321230612362608
3.2430187052837054,-1.5909711920324172,-1.6595700388046268,-1.026325388208956,0.5017169348039417,2.331958953162977,2.743950884830286,1.5120059681363047,-1.1688160711551112,0.9028213183347997
0.2874907429469409,-1.9867961872599955,-3.134170506509256,-0.22602937610617468,-1.7677204518271665,2.0066807993099998,0.694169865288782,2.083420532310291,-0.7763159940802499,1.7685160896499887
3.0308749690893846,-3.051431222377071,-2.4354611827572685,-2.3421146168696154,-1.180399301217253,4.583056117738244,2.5760839416897356,1.4277210868046337,-1.124727327529177,2.6825033342364466
2.6736226697435748,-1.8875996107531023,-1.5889639147667436,-1.30357924780972,-1.9370244795309488,1.6648200111942035,1.0257290766109004,2.250208492065682,-0.716336870741114,0.40784802008639875
0.23246266049459496,-2.260594061769,-2.149835123014986,-2.4742367266086727,-2.2873175321059063,3.600912091097048,0.06453797792456117,1.354434364270889,-0.39602355410923085,0.017855729670790854
1.5415042559650058,-3.861013844548161,-1.9446912008547999,-2.0716238412762666,1.012260832111103,4.541442367180058,3.125456108100102,2.1804250670228935,-0.650493968391037,0.25052582161375425
3.2386745895770757,-2.458184108199683,-0.5800717531961246,0.4588322011553837,1.698342175096724,0.7263842941898455,1.9075381650104264,2.43584138670191,-0.0414991963276658,-0.11670308867004464
2.992970365608126,-4.823313876691058,-2.3327611281488143,-2.3868347112368835,0.7273075291894058,4.5355220482064516,3.4632016094566316,2.778155001874706,-0.9461757425082773,2.838203219003459
2.5763962372731974,0.12141555619033151,-0.3869347514260793,1.42172077291303,0.8641605924839608,0.4210300390714348,0.14311147528992163,0.05701848310749802,-0.4943246092747534,-0.7267772760481321
3.412322065567908,-2.051958084714988,-1.8171466602240378,-1.5966710703453635,-0.17525071664762848,2.856541660823284,2.1849634821379516,2.0215433938799943,-0.7455529396235991,3.339421991125728
-0.8583755846572217,-3.397536377173384,-2.0306071061877726,-1.4117250152416567,1.5916935948475213,2.526001085226287,2.28679204720441,1.0631232977857663,-0.5440600733295046,-0.4684908974915941
1.3017268478179886,-4.337929319612912,-2.8640315848141276,-2.068181056207497,1.0389306409322896,3.4277616996583293,3.072828338286505,1.408521965615059,-0.5780187643733049,0.0006090985377775748
0.47417035445044986,0.9167816705468957,1.927484519270983,1.1501730842375109,1.171243157383395,-1.1071494284672785,1.421793194060443,2.738364406320667,0.4764940552027394,-0.9614900751870105
1.0098425121298025,1.2076226163628034,0.06940174279747088,2.439584033584249,-0.25189709925085224,-3.0591643290671517,-0.37610143407595575,0.3090472585947983,-0.05293254383158269,0.048126252378499546
0.8179832372639213,1.9523637179546645,1.3385145739619737,-0.11058615166730072,-0.20865311607469672,-1.5146350571596303,-0.3880427511175222,2.742185156638053,0.9581193979071458,-0.32011214666742915
3.1739826957797748,0.4251466021713177,0.3869848377985673,-0.37849190771214425,-0.32767777291978384,0.8789443598270221,1.3464459121323142,-0.967029674348327,0.22993469025161925,2.9520372580776026
0.8559090083349414,-2.600794014214001,-3.247592869917233,-2.0919032960094612,-0.8676770532950504,3.003520863483009,1.4034674611508078,1.012823153749483,-0.4320941974374835,2.582471434598397
1.9981802274608746,-0.5864948945030429,1.035160631113485,-0.5074160450126256,-4.538431331813551,0.14212876042444209,0.1487728681866376,2.2146367928487427,-0.002458507819294623,3.3606132870188583
3.1731326005755953,-2.093983962512915,-0.6631690802192344,0.6193741610491841,-2.910249066328866,0.9627815591710907,2.454501771615629,2.336721749394863,-0.021702368541496247,2.704245525080425
1.4109889455521882,-3.078034527233721,-4.059558193481063,0.08864602024573198,-0.10108704934363155,1.9214027462650793,1.1222326026866596,1.8339409408601193,-0.8860894489083552,-0.3535082091797085
2.8651627463657667,1.3170199590530156,0.0242382820065773,-0.7571104874514791,-0.5091079098759208,0.2789788108008638,-0.7106571045045851,-0.8497882077442152,0.4681161184500671,-0.5641604515266517
-0.42170990871818403,-0.23939862277633617,-0.6028938957441551,-0.23213582675996638,-1.2809578585949581,1.090884495878832,1.4379270927248808,-0.5035821982241351,-0.42346810374546695,3.2393066629542036
2.6923600251898367,-0.4458381182290991,-1.6372414926050618,0.6641419091168765,-1.0064115243452287,-0.4419018403650046,-0.3895563202260197,2.9884165330783152,-0.25592412601275394,1.5349818045778814
2.319374992360861,-1.10636188406624,-1.7702116858484893,0.3998462760985647,-2.3799814361094613,-0.2717209980665756,0.6204528331409065,2.362650417271325,-1.232889383566257,3.1227959656097886
-0.20819532236253369,-3.569547683534156,-3.516571810032437,-1.1944316949525784,-0.38936124949109296,2.0761098906459727,2.918051147606903,3.3376090783960723,-0.8189592868627668,0.7776832983033002
2.4646540827140684,-2.05394792464821,-2.48355142474721,-0.1366914596541675,-0.2034695020670656,1.0447683208744392,2.246461472503536,0.8943934224822934,-1.1810617958283844,2.6275569758792887
0.010597499399149779,0.6888723629741839,1.025394193185116,0.2401633651367614,-0.41989837624294385,-0.7469578560010458,-0.3521469029677172,3.3720393718344077,0.29870488417412044,-0.7588454394915385
0.10514424608545814,0.18405546411927742,-0.5928898609045248,-0.28336466588712034,-4.012005802008134,1.4216022923805849,-0.02730496929926951,0.10020298768233005,0.20197137684076363,2.8476137449430055
-0.706506515243606,-2.3141221277334627,-1.5618651592614143,-0.37765465807232196,-0.46925708194555416,1.0163556757973249,1.6882099807079247,-0.001814368979359382,-0.7142818976218828,1.6494252013083242
0.9608735178997241,-1.225627037810373,-1.160835300524948,-1.333995330614114,-1.5602052290524866,1.2406217326660969,0.8162264837686921,-0.7847739575850389,-0.1315251433182459,2.052826907386579
3.1684292494316617,-1.0083099755737461,-1.041325705854703,0.8183612239966449,-0.5534297674965534,0.9406060163338993,0.4869986090576308,-0.1583001464400826,0.0335793030725409,-0.9239810196018385
-0.1859634743368037,-2.38429024855835,-1.418485779565531,-0.9622503744001581,-0.28116420248395213,1.7382019525595651,0.14936885830838276,1.6544501145588089,-0.8005483045612265,1.0650943237852721
0.31634300599045906,-0.13343979449765986,1.0305150602763264,-0.15131395704394296,0.5660457881491552,0.1955916189027399,1.9361920045530616,0.593295987083819,-0.04768632763753821,1.4024227771874824
-0.4839566064275479,-3.9800105726031836,-4.3473259967033755,-1.867241472272581,0.01688220625438719,2.71334246867308,3.3191962084705082,0.7533507164044382,-1.6699052270964903,2.056267009768277
0.8230410292139232,1.0336934695620392,0.500765326675832,1.0078892716831749,-1.2987016170966943,-0.7314556924510067,-0.7654360555711989,1.6188870191816265,0.537263304078319,0.5279681675440573
2.068015374620331,-0.9275030134781108,-2.3898851179988077,0.16717562027127764,-0.9080063116860491,1.0046346082874373,0.8775754779538085,1.8513929767143793,-0.869734634465481,2.5437898284852474
1.5656544909647772,-2.951050153840187,-2.962029445467586,-1.222433054774488,1.4260696246198412,3.114306414141947,1.9139133056954059,0.6814693955629219,-0.5190406164194427,-0.40343924201665016
2.680324419483201,-4.615888502372046,-2.3798565493601402,-2.9516617481923966,-0.8704164825589953,5.867960096174604,3.3550202150244495,0.7266346587445554,-0.8023143316503196,2.157750289014479
3.258030937093764,-4.902019762138967,-4.166537476947132,-2.575121232132895,0.6445181762275437,5.287162866438999,3.3435693942699753,2.3369600180264802,-0.8108927275202307,0.42468484035516063
1.173078134905408,-2.7129234216737834,-3.8013026834575436,-1.4263334409141109,-2.1377466433003343,2.374961974069196,1.3454116498143192,2.6343840705758477,-0.9292905891226987,1.5630455153015825
2.3977433488125883,0.6384502218835888,1.0961659261569872,2.108919841330148,0.9168510730576841,-1.1147915994525726,-0.01128414305374803,1.9520831726195724,0.22017458115276495,-0.9273819072468398
-0.4292217760959035,-1.140367744020222,0.5061525593892091,-0.6428434684704845,-0.20612880173980108,0.47364779477333335,1.7546815091611347,2.009094332553031,-0.12384711015648359,1.7141693925633388
-0.12185431698598403,0.11029143960643145,-0.36346175975060674,0.0509240801191686,-2.246333802230832,-1.149649913457146,0.8108820106206434,3.323303620394075,0.24704875986140312,2.5550503401756304
-0.6205656927524311,-2.271611227948331,-0.10531722569399772,-1.8222868336710167,0.1870415443819552,2.784635113299251,1.4161411726727007,3.394821225398327,-0.21752808181141425,-0.03318256423621102
1.070089375778006,-1.16048400476032,-2.0487212882484824,-0.4614590042748871,-1.397540179711289,2.242852157588884,1.1963919418940914,0.7209045232271265,-0.1046198910753292,2.3957236551212824
-0.06004277032690708,-0.732304136164849,-0.6749294748210667,-0.6154020223069963,-1.4888337780533947,1.3232110480911585,1.0415056517808736,0.5092128207430069,-0.712324793304657,1.7810202958062171
0.13584239280723853,-2.200928126769361,-1.512163098084228,-2.2465072112445683,0.9642152932202261,2.5539010931561257,1.1292904549891039,-0.8506504394976561,-0.41490488837885275,2.3626167069747734
2.887183009621104,-3.900934824552091,-1.6004907525829866,-0.5442123380052215,0.011052341508425823,3.2162244785176743,2.2955795851970495,-0.15353482833422383,-1.0921550736553083,0.4613844693249347
1.1338200793309547,-2.8590701099491813,-4.491976801207369,-0.9534188185081591,-1.5237197209196647,2.4680010238437164,1.1162943271140464,0.5010488445333237,-1.6196913227279186,2.3404059425500114
-0.16121971762327492,-2.3814041699616286,-2.3718377118878653,-0.16707927494660363,-0.5307058484846946,1.010654663970345,1.618298100266431,1.782303727077374,-1.0791804931885438,1.8532708621515104
2.5082884908803282,-1.452055969256445,-0.11251450847144503,-0.6811552878227709,-4.64580998053986,2.037011591683767,-0.2509651344617432,3.278995686597769,-0.3253026162038973,2.9132473004888357
2.7039355542086185,-3.8166038469486514,-2.054499140219559,-1.2707876381997718,-1.8669150729302628,2.5342691395451897,3.1495412244052012,3.349995013875528,-0.7884826919968821,1.2084673434406485
1.812754303552957,0.5663009608693228,1.4257136523652074,1.890975914348202,0.8067363565609873,-1.6735526726734227,0.03293972261833167,-0.9940645853748964,0.16762171781225826,-0.32638599447976735
3.113825856601734,-3.024518477152204,-2.455524231725094,0.19894441286511733,-0.4284629197590486,1.6449319236890878,2.8730388011750345,3.0532217175115948,-0.5394859518540003,0.5480132066307031
3.3837651397524215,-3.1014075990718215,-1.3451371940617394,-0.9009420091330733,1.9022065007129003,2.318048108991766,3.232495110131546,1.3641021323768836,-0.5289049134912776,1.5455287401077742
0.9272846876513925,-3.40559239960348,-2.192634576063317,-1.4175472041695416,-0.6390324593360597,2.2485030925272373,2.945688097080306,0.4568452056423231,-0.4071366301419465,2.962093966123162
-0.3349735565756983,-1.320326117336897,-2.8271185007552186,-0.3731956626092636,-1.5482810876544681,0.6871113256401296,0.5995273663487768,0.7463856413137557,-0.922137999801078,1.9597145032348249
2.47447137461614,-2.8123377063868706,-1.8492525559571649,-1.0225718544502416,-2.7892049122377394,1.8132098889014916,2.0772568298031406,0.22828032599441506,-1.2127857828936097,3.3172276993512186
1.0123934618427408,-2.661453238559313,-3.352413107711146,0.1477179071958008,0.28820585934568266,1.8426755251186493,3.18915427530981,1.144039343734804,-0.5846466045673068,1.843797695056581
0.03035586933526302,-0.42920600770921863,-1.4594677346691334,-0.7895656662058836,-1.4945497031032065,1.0154881571560852,1.545080324373318,0.4665189912031069,-0.7458879791816856,3.001759287280696
2.141933697217106,-4.544184901550185,-4.829305111253273,-1.301618617590151,3.7924364798257093,4.029637287809413,3.3732707835027087,1.6402268728620268,-1.7907905765469692,0.1979797450659453
2.1365034632714774,-2.0025259655570786,-1.8994785597023494,-0.2966351586740462,1.2755983950273113,0.8659974865993371,2.7826867905328565,2.9742356384966957,-1.3075808068693966,-0.08843224652987902
-0.017672478922931667,0.82189652327915,-0.20360583024948367,-0.2812839942225036,-1.5981563850232676,-0.2521279573101329,-0.7153393622933626,-0.008808918728085424,-0.17987826011861704,2.685268942628233
-0.48955731638596045,0.5095007235932875,0.1573047757129748,0.676145299044455,-1.1330757871883006,-2.294193776801639,-0.2447698818175793,1.0251859469448248,0.3150349189476958,3.110242457007012
1.0154647270441526,-1.5523781251035311,-1.6466000828477145,0.45925427172268796,-0.7739138189186752,0.5311888692743703,-0.0915151780976946,-0.2602415684113142,-0.36862778901007986,1.5515400673076698
3.1373786561133787,-1.9297912464036315,-2.169394219040563,-1.709434541407549,2.434184261561173,1.8277337061806416,2.560959064417667,-0.2666236326659698,-0.16366177206829963,2.216777754926471
0.4414505017902193,0.8866920484259283,0.8161054701831949,0.6963297729145375,-1.5374006013190822,-0.5591031246473406,0.6594906607194742,-0.9411687849406305,0.3555497268200261,2.418987756959162
2.573700505143752,-0.864618678100532,0.02568872439622029,0.10841650755205462,-0.5975488628022476,0.17673836643426288,0.8096876637675785,-0.8478635474317796,-0.015060334947472505,0.5670673463218059
-0.4945106538663523,-2.8482234730607705,-0.3777539814527071,-2.383428591446636,1.9448226065321026,3.5922154251141007,3.1654097521245577,2.622461495636928,0.14098232678328945,-0.48924470916435336
-0.18334752125099607,-2.7217872640703797,-2.248313549909985,0.5664389948238864,0.5633894593253543,0.5545145632970755,2.843230516043869,0.7815081270527728,-0.643835409487059,2.6061591461147815
3.3202321792147975,0.8276983348221896,1.7280011162818536,2.33115267051716,-1.0341261810796243,-3.086883158013299,-0.0645810925134862,1.981987198977536,0.5001953565453423,0.5783513639611402
-0.6434385163829214,-3.9311851838696112,-2.3939294700261673,-1.8307087320324729,0.6036872211183217,3.235153304330282,2.9162058057377127,2.826070275062898,-0.8428070744870672,2.0637074419130603
2.874965903850095,2.5036291188965207,1.4767078753364629,1.201382564765651,1.3843006292934368,-1.9307919427193518,-0.4269234544759771,-0.011332162868076479,0.8289139334740904,-0.7013738666617672
0.8442307381157215,-1.6550364729799092,-1.0080281793337813,-0.409386398248945,1.144831938235323,1.7110095022957532,2.3399643252213207,0.467258421179225,0.06199619529995957,0.9222163419873337
2.5312685972377453,-1.5247613210302133,0.16894048024713684,-0.4044421677215352,-0.8081989737894265,1.0124127713268947,1.675173633360231,1.1717236884000486,0.14590184667496062,1.1125139447518921
3.0518141446131217,-5.788629913402731,-4.8460257942557465,-1.4222831679750003,-2.207042772629189,4.661127942326929,3.0529629505655764,1.2270161973586102,-0.9393753033846893,3.3516046256898404
2.81718845253596,0.3867893213669244,-0.8840495514178214,-0.09521294567756922,-2.7934095688420606,-0.13465652557825028,-0.39022616812152344,2.495582320526891,-0.4865282119208786,2.8176097122963872
0.5225072425394668,-3.300985762901271,-2.408308268710181,-3.0033379001792877,1.6063398342987631,3.6689832161942175,2.401365031091909,-0.1709206919524725,-1.1796475221172869,-0.6023926489100768
0.06357648813122796,-3.10012335616833,-3.7558023791110835,-1.3280196681578804,-2.7743821438200937,3.544342711079516,0.8713798005809887,3.3277208747182554,-0.845791848713634,3.027430138536239
1.0097635297846734,0.007717970738251867,-0.6308972377513713,-0.12154222103466214,-2.757970982979668,-0.16943468454131283,-0.2854363086631696,-0.8430849271287207,-0.02522127422557481,2.8095675818569363
1.2636217198532433,0.0667241041604952,1.2124372249830986,0.11719636434532735,0.3524626187716984,-1.1948944012867047,0.276860556892367,2.410513307656507,0.5520521285549721,1.1559171517928224
2.134482435740093,-2.6357411255975554,-1.8508766807499895,-0.6071709335744299,1.3193514722810677,0.9338791112952243,2.587859444154171,0.7096520141408689,-0.0686112096122333,0.47224090958558107
2.616347234283017,-3.4268907407202196,-2.8763306814896437,0.08290199088393699,2.0091539381153374,1.439742293481658,2.4631459234769113,-0.1565052766277354,-0.9700388536945299,-0.2469692267237359
3.4339265528945377,-0.21835494867364533,0.7598031425616691,0.32339563921877856,-1.9704382880457605,-0.18095059218573423,-0.34552268198365654,-0.7561128462860627,-0.3726216078270819,1.2996422210645266
0.7490372868700235,-3.0244113412542535,-2.7811014824950604,-0.7898964910900691,-0.3365654561252027,1.8908716099851062,3.3043719354777537,1.1159568988642512,-0.1835794275596239,3.100229371653671
2.4016021947773134,-0.3366832399281874,0.14450068634740978,1.1377104507158555,-2.7167218301490155,-0.7432281257417263,-0.817259458707105,0.3627470260170056,-0.34621147327462104,3.0450539434649
1.3898480286586166,-4.054409475388647,-2.795608090388701,-2.0282324711445403,-1.1797010947429054,2.884357014146793,2.84131230278195,2.0235040492268483,-1.0858923446607978,2.380370048717071
0.06724736004172782,-2.0661377987423437,-3.8138930227386223,-0.7012367430354539,1.2984975082734076,1.7508970287508756,2.568298082363883,-0.593029631198097,-1.3489112165569135,0.17728749014384948
0.23886677047260063,-2.0236427954983993,-1.0850688456039286,-1.0808342578465002,-0.8309037166554896,3.437475768162694,1.5702411959205786,1.8976724822617697,-0.2959695002104421,1.8235951957125098
0.11186792719334826,-3.516837062822218,-2.6481029785996038,-1.9153419115323087,0.23990029375961586,1.8572078967178836,2.5151499250084286,1.174663990182086,-0.9861558292700572,0.07583098411483591
2.980155309182274,-0.6812036145654052,0.46459113174416744,-0.6409268088464862,-3.4158509649593807,0.33233718614772734,-0.7291928616247466,2.106166095155256,-0.0035985831817133057,1.8220777544338875
2.187058871591327,-1.4662878071198509,-1.1546115191954833,0.13309420330141253,-0.9325992594435248,-0.031612426468464724,1.3571310803978789,0.849400462746249,-0.13800249131669942,-0.05227895962974605
-0.5392559807707041,-0.41199530628261904,0.13819367684558923,0.20110985614313825,-2.162671091829588,0.1520395249697981,0.543412894060715,3.3182911822405057,0.29183157324437814,1.1136468009201028
-0.2604881483681888,1.9917393864807655,1.7901167513848892,0.9080394787151835,-1.9140022254736366,-0.8031716367378186,-0.5526138751473888,1.905358857081208,0.47041189868412747,1.400102054226248
2.8023356743555596,-2.97510118671476,-2.3334772014175655,-0.9517804760699898,-0.4713530212332442,2.266350502159202,2.758259012731398,0.09697055944345667,-0.8299962028882212,1.8994830739576276
0.8489805339507723,-2.666324385231107,-2.5630552302421483,-0.6627579444838227,0.0016151702625587516,-0.021488944237184344,1.1057727067728238,2.603851105159023,-0.632775770366267,0.8023710993307802
1.8994021369302447,-5.164861501794321,-4.279509582680648,-2.753663115116031,1.585214446226758,4.899622004622501,3.2562791200321763,0.8812661014874148,-1.7999715321955485,1.404741071513655
3.148432807181302,-2.0190250069731146,-2.832380155545679,-0.08352400403132165,-0.4980652473052485,1.463066976799457,1.1981894820966232,0.8929128850153716,-0.508283659027002,-0.7710869268112822
-0.8676739545214842,-1.330362648596529,-1.480089858990692,0.850799382287986,0.5125137355450081,-1.158363405053434,1.2346363536385456,-0.39382581945317896,-0.8223313994257154,0.8026265692911356
-0.2524224953268265,0.42056399891249513,0.36426535235443525,1.4102428883287002,-3.265653312024065,-0.34147907779235737,-0.2502019602834338,2.975085763836329,0.111236262576963,3.133847399916389
1.0148888480518337,-2.702332785623158,-0.7190522640315938,-0.2292535777867241,-0.36722315206386735,1.9519822707061378,1.0895888348870146,1.8019191576247762,-0.5311096579480331,-0.029109400104043393
2.546574875529902,1.0634878185986194,0.564954604540582,1.2352998304734855,-1.0284264138276356,-1.4110329185113677,-0.19926374913804357,3.344556512893698,0.2699825484419069,-0.5347967376063842
1.608918360414854,-1.644419027001465,-2.7086809080160603,-1.3455247196250557,0.7725305533466376,2.0287941575799318,0.3487674308733557,1.1920380686718874,-1.1885304192522745,-0.6613999361779538
-0.7056148118823402,-2.3148928212820867,-1.0295373661938985,-1.7148848601290818,2.579500508211092,1.7765149048071271,3.151995570705668,0.9739359119897315,-0.5223025511525039,-0.4603595718549788
-0.4738667475033298,0.4935705774915107,-0.702661738943846,0.36052231243345345,-0.6465831560041688,-0.40361843612690407,0.16513681551310433,1.5416645943832212,-0.14770049429375282,-0.17859906566648642
0.9123734961653478,-3.3773748509454893,-1.8545940543388362,-1.7407994513546814,0.5810123006500398,3.250430749009361,2.2587916680217486,3.0802823250763103,-0.7961471341355917,1.083011216030974
-0.09726927620037285,-1.1859528369408896,-2.0100643482414946,-1.672701023252203,-1.709283843755689,1.9654560641089163,0.8451247851316934,1.2304143684961515,-0.3477606498080917,2.8149974675036167
0.750832160885635,-0.5105871984676743,0.18989642969505027,-0.1342628327670628,-5.259757869162323,0.6106550703650598,-0.9289106338353247,1.5606638068597745,0.315434862461342,3.1339063321297935
-0.7392035281847584,0.25447520435601273,0.690848136565526,-0.1747211696536925,-2.8199432263894595,-0.8555445237776083,-0.3629237669245655,-0.33317605819932483,0.18953184913641485,3.074169653596205
-0.3029214705897345,-0.20843934124158076,2.60160794404974,1.364600713917394,-2.2234489145977596,-1.5433180403054794,0.5650598895053704,1.6691608757023002,0.48657052181406746,2.9777889476325097
2.5096520441071273,-2.792470425703032,-1.9173521593311516,-0.493403686590331,0.3197872278257246,2.0988724090724453,2.230323771042011,1.1642514759168452,-0.4826288343096673,-0.901727404054364
2.8909256970033033,-0.7397390713542854,-1.5282588960714096,0.12004433568037476,-0.7751474328524062,0.672736415727813,0.11421986396473516,0.5689449208273016,-0.3115691400002889,2.447749805276809
0.9190022719646438,-1.9051015791278327,-1.845830596098837,0.14030437406234364,-1.267426545641288,1.6308492765406521,1.8847672894212368,2.971754510189017,-0.19076148118376046,1.565079142968035
-0.015871153909806757,-2.074673055754938,-0.11299024942260344,-0.73364454333815,-1.0305049593509954,2.7365584066604547,1.8586642628690324,1.7204845139092173,0.08992900668559077,1.0418902973707516
1.0964595653433524,1.657398222616735,1.207997587055684,1.2171813945977774,0.4073506996136649,-1.0552608559947896,-0.7262846421142707,-0.16687685382960527,0.5530915752112064,2.1951817852233235
3.0407915120574733,-6.047222774001447,-4.512366014001579,-1.2524840579736969,0.07830398179616749,5.2291584277710985,2.9741408432141245,-0.31126344396202066,-1.3235440011285544,1.2632572082448297
2.949223143714063,0.9404065449104312,1.7832804235666744,1.3416205127044032,-2.378397987927944,-0.4538171676416528,-0.2586062072620656,2.2910194512385824,0.11313554951604134,1.2517337060108384
1.7799926331330012,-4.32397927149213,-4.118340858117144,-1.5424398071902714,0.9178676543560417,3.786516213745751,2.901860171394371,1.652877997809148,-1.6462490278143782,1.5673133098374925
3.1862087623616597,-1.5611728067012476,-3.4840392177339705,-0.618483353127961,-3.3767542532701875,1.9662377400996864,1.1918735522612187,1.3762745702388464,-1.2268032408924758,3.1904080470592984
-0.5294419105322798,0.6899721853377142,0.6810271150615543,0.19484000842330984,-1.6104750432573591,-1.4635292232458283,-0.9866500406357608,0.8387489506477182,-0.29153746547657144,1.7152621985825407
1.370061699034713,-2.122595183270081,-2.788030594630204,-0.838384855600326,-3.3712961825964824,1.936862554194382,0.05330084621342168,1.2032666841249973,-0.7431575578228578,2.3911020075549003
0.3447504959669814,-5.057195287708277,-5.412843811846708,-3.4384516251637613,1.7914108450747355,4.030797852492705,3.2503558737178517,-0.26944969032353605,-1.0119086047793822,2.091255219283896
1.5240298850399974,-2.353238590888708,-2.9104660869865593,-0.8680410618086032,-0.3616716187563376,2.627399708786891,2.567775051751873,3.4046762088288602,-1.0209669986203014,3.0261792713139783
1.5784395698420792,-2.9687949034209313,-1.6572796303220159,-1.044947983820164,-3.5988686475682936,2.2115663090631927,2.2612988993669942,2.612736807840526,-0.11540247247539286,3.2927064670109374
1.8538087911424563,-2.758455150894632,-0.9934364289279859,-1.08833347951414,-0.8305568204189693,1.812278666828776,1.9314553053824364,2.375545535424163,-0.29578396223523884,2.321228002141171
1.991890684272811,-3.0977277438794437,-2.035874488233215,-0.4706565479563453,1.3558030812309763,2.5402058073093414,2.3508566289682706,2.6822365082678696,-0.16758101676876788,-0.063731039979394
-0.8703935567132285,-1.5691445726112894,-1.038892484865297,-1.5489639008901221,-0.8801519252373966,2.196307380981631,2.2134812052052286,1.2243548368243555,-0.3967425116301106,1.9482954573080127
0.816251734444285,-4.669005424197148,-4.094238372432724,-0.30718561215048823,0.12795647192413595,2.2408043712808348,2.055491940919148,0.04891831735846219,-1.3927615306601036,0.04601036991339047
3.1001446856329746,-3.3655210816232626,-3.984059328135919,-0.37262578089488574,1.010689325259371,3.190957206908497,2.3501319159139054,-0.0438463277648552,-0.9365341337022608,-0.2597241634016305
1.145432901922201,-2.7735974305711966,-3.1315079029638495,-1.7644546875173872,1.9851867053754297,3.009358038992358,2.085397161492033,0.012272771326946819,-0.9131465235851036,1.9673286722774779
1.4451593063803214,-0.05638672816876217,0.8216245235047681,-0.9161245524137969,-1.2359668807767823,1.1645101444353307,0.08056137554068532,2.3722271744435197,0.33337996699809685,1.7411432056587848
1.9770960727029347,-3.491377886022801,-1.8803971684930567,-1.292515017963996,2.2813662233311156,3.04868219542517,3.0674221244741933,1.8353436611269247,-0.7318379186680084,0.09274660386664757
1.7630222406106983,-4.05106283878011,-3.3108522587222167,-0.9126542126409214,1.6747555814682582,2.9031611609808508,2.547169010673443,1.9363659621212914,-1.1766933349962132,0.5140485174599814
0.64856699674117,1.5468886348656699,1.076594820525956,0.3664643618597543,-3.702171909504153,-0.6765441908029822,-0.04863499090251655,1.6750440863482168,0.29745892252371703,2.555187039064179
-0.739007567819707,3.3291367214819245,3.505389204601558,1.6452196481396715,-3.3195303309592883,-3.8027470163410846,-0.26946058355285907,1.7072450378821054,0.5667714425253014,3.070335239944261
2.650518068698885,-4.077120814911866,-3.1534987072542373,-2.341188520826342,1.2619921765433015,3.51779607623941,2.5749784241568956,2.3136380520121236,-0.7390720650441948,2.0171930280814094
-0.8196897558209341,-1.5406731569213008,-2.3015021046129878,-1.158167316621769,-0.3218880619080915,3.2476893830769926,2.324463406513215,3.117499420688831,-0.9137481723676498,2.1082151486454612
-0.27683174726465576,-4.361555218007751,-3.975144526574425,-2.218080682161188,-0.7693080826609417,3.5888411983326165,2.6938775746758776,-0.35802964223860534,-1.317228212314095,0.8658155699628334
1.2638805636100048,-3.616678797992712,-1.6567233502972591,-0.19695087500672814,-1.6952287337178218,1.5456394366816608,2.5198616915254486,3.061640820283899,-0.7308340431415374,2.794877089019576
1.0547099574220362,-2.119754995822179,-1.2315867661817343,-0.2644710926196418,0.15056631250277674,1.932566095484823,1.486710054317498,1.5846613241174836,-0.6246043428686696,1.2693442320924966
2.671862207116527,0.2395248350432827,-0.4134345783852361,0.30609866655191437,-0.8417819915248093,-0.0701577122711987,0.21831627538580922,0.7862042906104647,-0.09534717050044302,2.6603934955017747
-0.19610133866660884,-3.1019309901106746,-2.6902304093091924,-2.519188652751759,3.2692384239420282,2.9819435307656494,3.2407703110611816,2.306436010805355,-0.4970926741222736,-0.14173585005403377
2.620709447590172,-2.7112151830684317,-1.4521069280933805,-1.6679717917551824,-0.11782637747671915,3.2155874139097795,1.975111275639978,0.581856268648747,-0.28666563969194164,1.5731842144950723
-0.3519589411146493,-1.1712004981365833,-0.8904602511827616,-0.8484055417787415,-1.8964923667755789,2.466693037727133,0.5900263486940827,0.5458555364953881,-0.6501909045582938,1.9318745444328602
2.6518999403301096,3.8751064559418213,3.088123438722901,1.6895677644942724,-2.993534726289428,-3.8129106998827096,-0.8272438467950054,1.7455174100964843,0.8650702577625509,2.6661037786352115
2.0731672861413237,-1.508558089356665,-0.5346335781861605,1.2173007234394686,-1.1751960594011512,0.7195428277978995,1.424307000437273,2.7520972402972386,-0.15396677887535667,1.8054234437904113
-0.8510263120621021,-3.651254851385208,-1.5499612905326516,-2.2260728522699393,2.5918002230694164,1.5432118570845168,3.124411877074384,-0.8482352564923594,-0.09999269934171912,0.3545539869393395
-0.09137545785090628,1.3559712141699594,0.6629489505653403,1.7280423190830958,-2.396919651348478,-1.4823448443720977,-0.9171982664230239,0.5592652022843443,0.39079666333893553,2.1285600911009124
0.6589144806640717,-2.810991213360347,-3.4780104527733164,-0.612410924574843,-0.3748453225147793,0.8840902210667922,2.356603222644948,0.08827369591178891,-1.1648306679402807,2.656671630825468
1.564207882512278,-0.5652322393223645,-0.9881648998216331,-0.753913844319759,-0.03680696954589291,1.702328401822882,-0.835407925928118,-0.3654999340906695,-0.055342418962846744,0.7230982451287036
0.9371075385001235,-3.3561132788423285,-3.387878636729345,-0.581396055377769,0.9257834831294561,1.5480000272395933,2.507113663160976,1.952456082514784,-1.0339475099009272,-0.8007674767032688
2.6155311282662925,-3.448181414577331,-3.6459094221776653,-2.0600809184935884,0.11911980381383414,3.2079449541088354,2.4414093607726555,3.4456825594114093,-1.1768767935224969,0.2334024305412501
2.749557592593905,-3.6906312053258414,-2.3267650214497806,-1.357921284649454,0.04930607744898308,3.6016993913356528,2.6682405450331923,2.766133477626034,-0.6833641436138758,0.8648068883741893
0.3456156478165253,1.6767461695841517,1.7569295867853585,1.2806768415299374,-0.6912564751055381,-0.6149319971572451,-0.09259152062881648,2.0055118887115406,0.7370611901114106,1.0555395059425101
2.9388756835070686,-2.4263630892646746,-1.9777598970338304,-0.8028674764418338,-1.8125619148387988,1.9616389229573505,2.5366848441484247,2.103174626528679,-0.8994202261140221,2.576365024638256
3.105132895081675,-3.052510960724173,-1.2370045556179863,-0.103208918638801,-1.357459760294333,2.7000382708033497,1.8578782492757924,-0.46815003113032594,-0.5109370663677971,0.9990484630103436
1.3069043387269512,-0.3400295927862952,-1.4079812878145281,0.6914345963383811,-0.5436007274977978,0.37972594653599184,1.3444270606227016,3.0226872645913234,-0.6599753510950825,0.16471811192256713
3.3621644026171564,-0.5592753356497353,-0.7214596459064481,0.43332440158639746,-0.640986094326198,-0.16069708388753806,0.45824859358000714,-0.9934272559511071,0.01153538365212154,2.024302333706902
0.35936930025729064,-0.7026137483424412,-0.31760936063540757,-0.7438462363653497,-0.6180488908014959,2.479151692178806,-0.5634579247504035,0.7718719785914696,0.13484588520600937,0.151835820853514
-0.8750654540352282,-6.361405487207668,-4.5638166857473905,-0.8725380352003044,-1.0189189637470113,2.436629123260193,2.438080013220024,-0.75980064971112,-1.5045879351850353,1.0276879223375794
2.600949642674803,-2.944374770009523,-2.343413585565181,0.16434267988906343,-0.10746666954131934,0.5556702382922174,2.1132075512024,0.4130616791074333,-0.8086156314075195,3.350264069984809
2.9495203933313614,-0.5025690052005475,-0.4563167411831003,-0.9392820534634005,-1.6544080882456091,1.276813842269618,1.1023523885009001,2.8406962126379547,0.06431813800079307,1.2590472633027607
0.7581564880606346,-0.1287777539949354,-0.36424544210982507,0.30678706090606755,-1.4187327794938254,-1.1940540725551079,-0.4961434975291872,1.896269850201402,-0.17631244574219485,0.5744404055627843
-0.8876427741522168,-0.7464277767839268,-0.44315332635712834,-0.4616112675097811,-2.426496045909633,0.3917211393384654,-0.023679972580504915,0.31940862424569594,-0.07761413405783851,2.090713507809073
0.47827952325682377,-0.6980270798936117,-0.7964669149460053,-0.10198880665051661,0.5178187815444788,0.0554659832214697,1.1140216793688547,2.6423277143140638,-0.17304363903862102,0.288371403363042
1.552631191314903,-2.2924914152360962,-2.6176975302516223,-0.001085243798537333,-0.7810658822402008,1.012588963199542,3.171225869744953,1.7079616846404764,-1.1983123341252555,0.029294171159386373
3.2920239107932225,-1.0750818673762383,-0.6534273169094345,0.4687791658547325,-2.1259596844535875,1.2416057353269296,1.1991825703006684,-0.41512492599122697,0.012075608427785706,3.0412713921885306
1.648704929963341,-1.6422177388178127,-0.9040199848348067,-0.8508985822655697,0.0011075101041075897,0.8647740038870888,2.7277964711650924,-0.9064045443374082,0.005920819534586523,2.8698562267379453
0.15372283993779967,1.008555226034268,1.7110349055994238,-0.09895970630618389,-1.313042323275939,0.19692403660207639,-0.9844694277092607,0.12026024345148789,0.6301678470657096,2.5120211620614685
0.5741952447293175,-1.8792849052153866,-1.1595560741973745,-0.5513163415333785,-1.1858667367109976,1.8425006250281817,0.6307243560739915,0.8150874037895888,0.028286800242401555,1.0221511190836328
1.086205889126116,-2.98424741797487,-2.858627507799347,-2.447071866190353,-0.6207017498483132,2.1773084170945145,3.090186145612279,1.5712151147046098,-0.8457254384289261,3.26581394701258
3.059405027168025,-2.637069684024796,-1.4374613734606898,-0.3606235139418656,0.41705406334868267,1.091260544538341,2.302064401229933,0.4086261870042729,-0.79086424656157,1.1351333039712888
-0.41499165377493363,-2.0203875299263663,-0.9128400899858065,-1.5894288502777776,-1.047307028827826,1.4440779235992174,1.005195561707657,1.8125844101463802,-0.6454455711482946,1.3816513348009178
2.8153117617474925,0.558780595769583,1.099972912426474,0.5440626599785253,-2.022098970521213,-1.5002808994993004,-0.3717885112555056,1.7334106022133735,-0.17848499356284203,3.1206308965432257
-0.5546602966889111,-2.197147079283419,-1.7204956467942207,-1.1393262722476185,-2.2150120750934925,1.8300983703148594,1.003930044481788,3.0784076560199773,-0.19817362946012362,2.0920892817752383
2.341282591127774,-1.0646190565805997,-1.8963709253291996,0.40201164560752034,0.3646537798096351,0.006991813570525203,2.283112334560205,1.8065470341317624,-0.8033396160733874,0.1389081183310299
0.5127332117411212,-0.6745405048519211,-0.3550383072117984,-0.13181009870248148,0.04573878588200109,0.15242182055538128,0.25186199816049215,-0.29376692833302087,-0.5206902117047274,2.826165003920775
0.4449056887156948,-1.2036800030380665,-0.6749307855052773,-1.781742067785742,-1.2859770377095572,2.2938571015479456,0.733655984959301,2.7597314295871915,-0.6076420132297117,0.8806321621027504
2.3265456660145585,-1.4872412211083805,-0.5852815350966568,-0.4248868944022442,-0.837648038975294,1.9827068489223534,2.237755039076385,0.35864401382382916,0.46211238227640533,2.180097959678372
2.4368974789918414,-3.3030159837350572,-3.5196649191863907,-1.3955422633403187,2.54372106796236,4.271259033300855,2.25691901423367,-0.6446854356993142,-0.5366025659535616,-0.6591084235396871
2.7851921629371033,-3.302787596650882,-2.4039134568518747,-1.421556070811227,1.1777638764488167,2.2088162323170204,3.3093135344008466,1.2659995841687057,-0.179551040831108,-0.7019718685578
0.36756340099641727,-2.648369659085839,-2.1508937714190326,-1.0909466954835092,1.7104539115609687,2.6548245088909694,3.3090212669764174,-0.5169736372077665,-0.3382315895182189,2.616357668430242
-0.20054279227524674,-3.4967053591695896,-1.6914003206079762,-1.5703737451254447,-1.0084173141758113,3.669941908522291,2.9189768131325105,1.5607452906759067,-0.26279560449136685,2.5134925226040474
0.01885949183650082,-3.9552891768948646,-4.208678493729788,-2.033731400873829,-0.38456474007536334,3.003396685175835,1.5416651622967823,-0.4547251670640665,-1.2842254469662866,0.0646187504508502
-0.1499247100936063,-2.148938856191025,-1.5695095781727364,-0.47061634269277614,1.5872191334166357,1.9559863550656336,1.1830464260561735,-0.511137690881676,-0.49801828606617526,-0.10792693158327793
3.421909106646371,-2.273450142407901,-2.8408897938640054,-0.7132308726770354,-0.583802102717442,2.6668336765833063,0.29090944666509055,0.12494309585607088,-0.4058820958996992,1.0306603026213068
3.0672216233644676,0.9303130794449175,1.2323640066166515,2.3798189135000083,0.19774937126175346,-3.3939477546524537,-0.7359468526033273,-0.6707241870299693,0.33498385454107804,-0.7476888544468103
-0.8471436406117697,-5.296996557493006,-5.624143422687022,-3.1487467131765334,2.0914461074030095,5.506084300843952,2.849937955719671,1.441937648010157,-2.5135274496670177,-0.42868810704172067
-0.6491707517111258,-2.3616038653407534,-3.6427052924380305,-0.6765566415554349,-2.4616331608950897,1.1927709613447217,2.2316886001338543,0.8262484080750059,-0.8328687668792201,3.341751964985746
2.401064187062329,-2.2142031080958673,-2.553837017412724,-0.2506247473579712,-4.28917258314036,0.8997238486867907,1.6633865060165185,2.13736623662663,-0.6629434858101352,3.170652214918185
2.251916593927547,-4.54842964850216,-3.2655880153492554,-2.0351928480955164,1.2404793940965542,4.319043398268219,3.251517087319506,-0.8442020893186509,-1.362512462886522,1.251490082124489
-0.42505968656797954,2.1413222398754663,1.750987231099786,0.27060495383429956,-3.109881164653155,-2.6576148676988502,-0.18328576297960342,2.2517098492088716,0.8694301877234443,2.4710199466476306
3.2199604186472826,-3.1861549385130967,-2.8387353617324886,-0.594643908905286,-0.9755587195942581,1.9816835571935358,2.7897871474312628,1.578262226094128,-0.7548716999261834,2.324606457578203
2.105622548486595,-1.6734801400366506,-0.44683801194922845,0.08902391239471502,-0.4733243309107176,0.7166322427833027,1.6629085823165233,2.1852775038028414,-0.4549527269911909,0.6755917379774976
2.2196089037955833,-1.2795548093157214,-0.6924777826911198,-0.1477385551204518,-0.53470869035228,1.4251818916292847,3.2274921253200066,0.24111666981099744,-0.17489234803081938,1.6413744947003064
-0.9859631085330123,-0.13985752126732495,0.24162149441302905,0.0231156994374592,0.07400728745145657,0.5560843647455388,-0.2877982475885873,0.7781542108043364,-0.0943467580582037,-0.7619229891266509
0.8042396631177808,-1.5568216107193613,-1.6266961294180506,-0.5675588368697393,-0.4498208630363396,0.7656584044026568,-0.21871306646948885,1.6964648877619966,-0.19742537840555496,0.5322599392576777
-0.38771933252305035,-0.3457063565116242,0.021199549416461266,0.28160952046767235,-1.5162441732074834,0.6990488151031677,0.8378827239587043,0.09369460083886127,0.3075127502407582,2.1861500115906614
-0.040487282835395155,2.642890667670075,3.0662046563966676,1.384190980371212,-3.913577659209589,-3.0701705129005914,-0.46941936432029585,1.6469885998533225,1.2131971605607863,3.3246278368216338
-0.8002686986478665,1.677858035523018,2.309548730553434,0.6981551926223141,-0.7758779460552356,-1.9492469336743725,-0.8051858020482859,0.41735520909234003,0.659526352868292,1.4853309722950154
2.2309372427011636,-1.0708021248696706,-1.63627031968094,-1.048363235407005,1.2646546450159448,0.6282689322111011,0.4453553783223436,0.42615307256670376,0.21130129603404504,0.6634742981938677
0.3514035699130189,-4.126115046971547,-3.7370881865134704,-1.7759265142739749,-2.4001988001747674,4.314212416357756,2.2919920486930794,0.08443698952771861,-0.3388106158270155,3.352140217984405
0.6334777129556595,-1.8816815157536222,-2.0390665867967654,-0.32094029027964616,1.4586830121753338,1.2575065268957715,1.777999362860946,1.2065955904306378,-0.39957793814206405,-0.7002832841963349
2.1303875390549973,-2.4984675715053695,-1.3623233969993143,-0.6048618623309129,1.0744554477850372,2.447691327239879,2.5243111742087017,1.333216753322933,-0.7736896111707173,0.47544520457628936
0.1631295149450016,-1.0344226497795657,0.1987493598459401,-0.278156998331834,-2.235200331324778,1.1063103210943401,1.4632385119296227,1.2556730874286073,0.42235730168842567,1.7886611101528698
1.5134958241023497,-6.107201054554864,-4.848151137192992,-1.845173525425994,0.40168552032584737,3.683252007609122,2.5214267533479693,0.32401583376537113,-1.1481910780029574,1.0776113639089675
1.227247262128695,-3.042447256719081,-2.6367425019527335,-1.810390734883006,-0.40041549799063625,3.4752492573622082,2.51020110537623,-0.777855412465822,-0.9049592368924799,3.1386801632185275
-0.26258925076785355,-4.848708231603642,-3.7995629804019675,-2.859444550565886,2.667714087278927,4.805778794807713,2.8620232545410245,-0.9802798596938964,-1.1856690782642914,0.9011788406097285
2.6953039954823765,-1.1211350339855009,-0.32779359230757543,0.20628574297240637,-0.009399082875523879,0.3863379355304523,1.5407513733236624,1.2768571600548548,0.06311448848845859,1.3082529460456422
3.442524610334689,-2.925533003688469,-1.8856215413056208,-1.3470090240769983,1.2923075763452392,2.636963624437533,3.0768147233671357,1.874989242380031,-0.43261915374022886,0.208483115236203
3.088147281826677,-2.088546522795413,-3.556693936737016,-0.4126022768337536,1.0216889810467618,1.8521010734368197,0.8881565688144484,0.1977761568067542,-0.9962633254520031,0.8114993619340809
3.3124213529215796,-2.9766019532778962,-3.334508271661844,-0.4166366590579166,-1.7402043902452238,3.3238287401677127,2.9505607456077687,2.0678511172728893,-0.9799657170077465,2.2446062430165976
-0.04477117389913765,-0.4778771457502185,-0.5024165338499528,0.24136498159118164,-1.1236479223858278,-0.21567338648342108,1.7040859084028153,0.4810787045601115,0.02761529641058724,2.583242123942467
0.7985522148375606,0.958138317933421,-0.38933973150901613,1.2288481341895834,0.0022163543475332004,-1.9210390278473253,0.14343062486113878,-0.6287981794244404,0.07476729019413811,1.4283467054770305
0.8083283616773445,-1.0137459015795356,-0.502387090343478,0.2901756280034972,-1.9247324605029315,1.14167375403461,-0.698663388269359,2.294990327000197,0.17534527173531872,0.4350311778298528
1.2362472664020254,-2.9826163565034554,-1.768368690050704,-0.2047536064908435,-0.10035656882274768,1.0830419637378434,3.341786638057184,1.6000253626922918,0.03208356160623101,1.3986626007689682
2.5285972525914757,0.4739494114278636,-0.07609929277997443,1.4309958410652908,-1.2966130998276475,-1.1340909180866625,1.4996388597208758,2.043811628138039,-0.3324414722722055,2.0549202876790575
1.4565734544262932,-2.6245536389765056,-3.0275171678240014,-0.5291620882747596,-1.7272029563740836,1.8300211994683109,1.3910423879751597,1.0888088811970746,-0.8916768103094405,3.159842736982916
1.7803961705704339,-2.107191645603148,-2.1095223478449845,-0.61114886759531,1.439961654321526,2.729892951399345,3.3100086690489983,0.36342832924643576,-0.3858893807940666,0.5564873435347126
3.447888094528224,-0.2828660104000669,0.5830296619071786,0.2594280926347499,1.646128666810789,1.0765928052464495,0.8632581489700903,-0.5868500293204792,0.03476243570592017,-0.47424327967136315
0.5427793603516733,-3.3183529507668346,-4.356995420259616,-1.9743671072620277,0.022098269996431497,3.111404295009153,1.7965407815547443,0.15476239903457145,-1.543357350652726,-0.2610736198614041
2.996510018334637,1.6525359054849673,0.6664135670537431,0.8062701712138978,-1.6888672999841052,-0.8729324437076234,-0.7807579866136236,0.36772506596804044,0.4608242769428916,3.158372154163292
0.9211665031100134,0.7788155753345863,0.208120192275683,1.5995152664282328,-2.374047079939729,-1.9252843133530884,0.3847316888560972,3.254119560523267,-0.3323614160936326,3.138167659791687
1.8866182583718687,-1.270354077476329,-1.3138785949810186,-0.4890924520314265,-1.5920999492706527,1.3273995852159797,0.5551189601010211,1.5483618932804553,-0.10149893674082176,1.0492383210006127
