x1,x10,x2,x3,x4,x5,x6,x7,x8,x9
-0.9949488839089489,0.7217634922787797,0.5178836298267198,-0.1537855516179838,-1.8253906904294097,-0.25958683064544485,1.5071555503334892,-1.6921229037837726,1.368694066504749,2.0712178326201136
3.062587877690655,3.103230583545858,-4.540170116005607,2.453863690740441,-1.3623772820460809,0.42958175303860946,-0.16258002120443954,2.9222895106103954,1.933504156279725,0.9155594112554217
2.328517090961709,3.377944581763445,-3.190310297933623,1.656433899592693,-1.8395392604997236,2.4335131553693965,-0.4555100521512015,2.0387030812978386,4.188667491369473,2.9499407462887817
2.3566669222020646,0.7376311053908364,-3.962665561987016,2.4295811237413614,1.152908473891118,2.565892327088647,-1.085143051326881,1.817573715918768,1.7350940178671987,-0.7297569276791941
-0.2461129988214541,0.23108532160871986,-2.0181802709289363,2.0395565431481684,-0.857642382792171,3.228721566115752,-1.4858849263585479,-1.6656699180831038,0.7008412441206641,1.2593271782254178
-0.6780022169609701,0.54141872904129,-0.35870134670256065,1.7764508547732119,-1.2287365252981117,1.5683364412563665,-0.9441329469861365,1.3451370963994005,-0.7560140385141134,0.019190121714449004
0.3733049585149677,1.6756703065909866,-0.5477829136753833,-0.5776642440863585,-1.9851566977349813,1.3103418636087212,-0.281889828794368,0.6085969096688085,2.446745513180424,2.231583133510368
0.06128353521858165,2.4321008535921864,-2.5245322427800065,2.7950596113802226,-3.263092081154624,3.0162070589894885,-1.1499247206597405,1.775773625076596,4.488761697198165,2.7395524434506684
-0.49701470515775537,0.5669327313652808,-1.499242597601888,2.219932083394459,0.869104560429739,-0.40028235874116214,-0.5008754190943472,1.055299489356659,1.0770211153679692,-0.05855985563954802
1.0210427717768327,1.8459560943674482,-1.6963113563863677,2.5228755419203948,-2.1946515142724463,-0.9102092007168168,-0.19542223215376683,0.7162731896869322,1.554608190103615,2.8035889706051558
-0.6975120259915281,1.7143407644762854,-2.838915658015842,2.2856969711289428,1.311028799448342,3.4396234166642126,-1.892559276394244,0.03995915910391616,-0.5805595687684856,-0.8337994448209545
0.7707321847660396,0.17281962465170753,-1.2306756512565764,-0.28977784960053155,-0.6839523238682902,-0.9667654513065145,-1.9633276192381632,1.2452568235440231,1.2508566911796366,1.3267161768990863
-0.177414522545292,0.1603521354932096,-1.7995627413451318,0.4912192914053344,-2.8162566220127987,3.1930292296124865,0.892282928635254,-0.3246752607378169,4.396926448113822,3.1187246224663365
2.6401579920377576,0.9570851580906241,-5.15239188125118,2.6675734746788278,-1.3908677675293037,0.779766832045053,-0.7888833424340628,1.0588114251784801,1.0475879952469689,0.7660747013582048
1.0680426606514546,1.1527292998311287,0.8379702926459425,-0.8201377915056386,0.8268293351813167,0.5338618360553209,1.4773000406422987,1.4465387191975376,0.7230045584877978,-0.4893807959407518
-0.033282965481573945,1.596661565713108,0.03885734448845842,-0.4155052755377291,-0.14535549710869847,1.0060911541703916,1.7418038993857723,0.20403458708837652,1.6629991865981255,0.3735991827414993
1.9723603074597764,0.8906940667895098,-3.517043729939033,1.818751487488481,1.2332805535039058,2.63122936734538,1.3784081328384064,2.4878285260521307,1.3119316704855755,-0.2864910874721326
0.15525395497625105,1.2617057969835526,-1.2617684091360215,-0.6092093493172994,0.23598159216147102,1.9397732850231075,-0.730501341678808,-0.6526754761453156,0.4138837559429863,0.16130338415005396
0.8041648928714356,-0.7848629435161567,0.2593671368983471,-0.9880234391194658,-1.9579646458112836,-0.3375556112448522,-0.9812579020134774,0.44244700930984304,1.4837437988779207,2.818840464081889
1.2496590038017552,1.399489818713044,-4.918867123371956,3.310859762789171,-1.0123865925462525,0.1414575878515587,-1.1174516794450324,2.0947972166886144,1.6646286584896504,1.133454096435706
0.020100599125081997,2.7316217478462934,-0.054186581690573665,2.5025076449958843,-0.022421180048508637,2.938435348074833,-0.48499881989288024,1.9493423574399638,0.25085771808432733,0.9190684889578289
-0.831818473208255,3.108458168318231,0.09401017197395939,3.05940381185546,0.6915122544131875,0.7083053316599695,0.013000038763357103,0.33403843521296667,1.0111777086404974,-0.04749501196808681
2.7001295046209663,1.5598067831774634,-3.983619157740531,0.3735279395597155,-0.6163176562795611,3.215703728740695,-0.48911244349445443,2.366413775327772,0.43578280422383164,1.1406609779142975
2.322686718078995,-0.6439257673165,-1.609979366799505,2.4339615741848046,-1.7798457392525395,-0.6740873282619007,1.3716602026385605,1.7734988520216441,0.6690924675941047,2.6301865885838427
1.0905484452573435,-0.6781129785943951,-1.7536507428668466,-0.8800439401809128,-0.2585555076441194,1.5706146424832714,-1.3992671899426228,2.044171240923835,1.3106373190876028,-0.021153965837051536
0.9560442372778699,0.9716945860204536,-1.7193252838002535,-0.7578023059014767,-1.5429248656864554,1.1539364803086118,-0.5455315602006017,0.8328799197604425,1.784312138952866,3.0238898798962204
-0.47740694413497853,3.2303100696369427,0.3327671264820291,2.161281849568808,-3.4564125607766334,1.7938369010732327,0.48874536687034614,-0.2171751914276066,3.786886899083731,3.2332236314778626
-0.303997853374138,1.9150359212563037,-1.2472801221483394,0.9610301808380961,-1.140183560047587,1.36287997681042,-0.07085905442697873,-0.8593457141512578,2.095817891316723,1.830864855031963
2.719596159917706,0.6025211571690208,-1.1346786150399868,1.679631553812524,0.01986500895278267,1.039759354247432,0.6741167091383926,3.071090896139912,-0.3388146091761673,-0.10333166220105472
0.7486625566678924,0.11982447657384498,-1.076718352365617,2.114793617012987,0.058134233226570325,2.2072666637539307,-1.808089102926819,1.0761294378007382,0.8742950989710222,1.4765593706732845
3.22879282814909,1.3068877396670362,-3.1342419504196215,2.674161896547807,-0.3795795431665968,-0.8549977255180323,-1.0731601955878705,2.740280042053171,2.348866296011204,2.3652087745706307
-0.4149699927335153,2.017589321334929,1.3183586746915585,-0.7862775380624527,-0.6365883188166687,1.188645595447487,0.10978141788590451,0.33465399546823116,-0.04957643579183124,-0.5792212665634604
2.137033161783727,0.5004056956065241,-3.5891773810711065,0.502863661800548,-1.1321852336665688,0.8291787112540088,0.02480985153679768,3.142903489570841,2.492623226709261,3.182109132473225
0.14056782541075918,2.1927670139338415,-1.124798126068596,0.48347985896528467,0.5771618341940997,3.3320970943199093,-0.0886383839379529,-0.9785332527934644,1.5191135505351836,0.863947600244402
-0.9322567100210103,0.751192945912571,-1.1037004339993053,-0.5294698527548685,-1.5776412012422492,1.1846663204384709,0.4935098356013684,-1.204164622787624,1.9154921320182072,2.1060771944382966
2.97658911856748,3.294342166420586,-2.385028641982915,1.8527820986996182,-2.5430959698803988,0.04603246273796957,-1.6405533207430885,2.5960712653882347,3.383205703968902,2.557091591857085
2.062367101463354,1.4709739150598153,-1.4016394038026165,3.1832762361747475,-1.5272399998785255,0.0426592305538529,-0.5539700539904756,2.1021591749189326,3.25523871088794,2.5183719403142337
3.3897056206656853,1.1381723630769498,-3.6292223291678667,2.2312179732849873,-1.3905133656458624,1.8599403752956052,-1.3590722694090696,3.402420671571213,2.7384573348728947,2.3948661928391313
1.136105344245427,0.7489167966992176,-1.3661456822703664,-0.4087176924858773,1.12893641566863,2.371724584964176,-1.0660276199689942,2.620011053980212,2.1813807558138216,0.6511226139907775
-0.3534256941525096,1.2499303330017053,-2.9052077262767684,3.4390406273385024,-2.5921124348150415,1.8867076825677063,-0.28071677133049155,-1.402394819214625,1.6139732828116056,3.073575293416429
1.303725109504648,1.4707743170333418,-1.5137769707543136,0.8996086391434504,-0.4250335188450867,2.873803411305887,-1.3263423431260484,0.7963305340322945,2.368717493511572,0.10784063508730801
1.1607750984849456,3.19908998335136,-1.389032602608344,-0.3380491732924962,0.05873953799370024,0.6298342187454271,0.47275959150356994,2.5462299434267615,4.187092221727834,1.1449648845270621
3.0269371107683805,1.4967645847723667,-2.8903146410677625,0.32605746772623934,0.41382579926011676,2.861493302010644,-0.5659747865111353,1.6642440964894465,-0.41225173562559025,0.923618807177895
0.06801593939974415,-0.08001850658923437,-3.227225932176932,2.1726843713484163,-0.32976188043562493,2.918072276356807,-1.6675633340008131,0.48937986716722137,3.7557454274694333,2.0974141039752916
2.074719414965025,-0.5541063140518299,-1.7552799623514195,2.3304342466328176,-2.1001133535112375,-0.4225995455305942,0.11625857131119038,1.9943168921563537,1.0061671648317216,1.6330737785364944
0.23463313508180206,1.833878736518665,-1.9052714941852882,1.1874239926931733,-1.9897676039020438,0.3200669374464369,-2.335585920190654,0.8910199811470648,2.344057520843548,2.650557369543341
1.9918767507631343,0.2339270262288613,-4.187864605673468,0.29248383133143907,-2.0153986260952497,2.0716654989182537,-1.7208410363590587,0.9298885505749976,3.333180770526244,2.73357739870394
0.9119519260345423,1.466122303089059,0.6941582130178823,-0.39360678291829376,1.2896042314811567,-0.9405867792327427,0.7622114698916522,-0.021525253679930828,0.7768168529782051,0.290759414379131
-0.34329430032680497,0.17229272729255762,0.9224827574114104,-0.23997333832105205,-1.254873838008558,-0.7937852363219559,1.2301000510782802,-0.8958534535458825,-0.23838570436540774,0.9191638944850296
0.2919159969231182,0.562191818200191,-0.5355386791474943,-0.885356695065008,-0.6280000172002997,1.9889445372594077,0.6816297219234702,0.448006357964763,-0.41278509633154115,-0.01948489688626842
2.061843616673981,2.6465259754305075,-0.7926083065775414,0.7332591451302479,-1.731535574686839,2.9108801599372915,-0.44680342546756047,1.9237448501059398,2.6734820550635137,2.9439403780399838
1.8539315673924275,2.897198806479558,-2.843306443585657,1.5164285152432257,-1.4120070333025267,3.295911689073357,1.2369069668825794,1.3608484663390177,0.2900912752833874,1.3310510100238848
0.6202456257167759,1.7946181818706965,-2.4090287275002447,1.4307382729370821,-1.594265174686049,2.668705260302891,-3.0495091106842547,2.28604724964287,0.047731692818063026,0.6699937853404856
-0.8216373024008872,0.16562619996326688,1.8377901634696951,3.094878210860986,-0.7478136105523971,1.0793807807029903,1.0442668895445681,-1.0420831350956132,2.460734550912346,1.797708680654135
2.498139314666497,2.248426469706677,-4.395679519752204,3.0914793396357787,0.8392253427298166,2.9799801880071923,-0.679463331356029,2.144119097418101,2.9006928357400605,0.4614868786898785
0.7979661904041113,-0.5164068371702517,-2.108723463801966,-0.910008897545374,-1.4863055129142797,1.1552041027499609,-1.204070373579639,1.8669342663978492,0.8339252147166282,1.903917388406279
1.4000987085574939,2.2885777228327666,-1.2197965612377213,-0.9116978310402655,-0.20195217047681385,-0.4149001068312683,0.08257192426927541,2.021708152446495,0.18113380960943737,0.6044808785484648
0.5077924011063444,1.9773591938278554,-1.426446370440476,-0.11840831253505435,-0.4869809644384876,2.372948375709668,-0.9349947274690875,1.7893134421433847,-0.07848000827354196,1.1209833556445572
1.6381483253732738,2.9472247203358526,-3.7569584395188884,0.8830376009478642,-0.9537068448298246,1.3196248708621434,-0.1878258120139317,2.204164054803009,2.721156713109881,2.0967792703726063
2.92232533242683,2.351068997201588,-3.8875511352819445,0.6393260576292523,-3.7801961700995212,1.583801926876705,-1.8487260780384396,1.6825655649037496,2.8536992425170955,3.165741504345908
3.2766424113505863,-0.9512358703830132,-4.084031958126872,1.6509703617560803,0.053362605866444195,3.0143771043265435,-1.4987910404188005,3.926453075702925,-1.2006686451382766,1.229091270816125
0.5656880340236414,3.0893723300788594,-0.763614286983659,0.07048060086504826,0.3080361605947146,-0.5272369848612224,0.4168447030053623,-0.4369842620761708,0.5110151254814113,-0.03566298818581215
2.4336930135278894,0.013183400195825978,-4.222080320496856,0.08785546194713145,0.2529531368756487,0.02224220616528183,-0.8410820079033078,2.1333295427593706,0.09239104151367966,-0.1444945793490252
3.194328953406326,2.447774759433104,-2.842064145924649,-0.9365938226018283,-2.3772031094235073,-0.774980610196977,-0.0036228060303124076,1.7642101270880608,0.5113606821705936,3.2849041799610426
-0.31003657921586547,2.8948866254167966,0.37527702930188095,0.05489280374254624,-0.18161579477777168,1.2695471281285031,-0.4870713988686993,0.8702232697709456,1.227386355340462,-0.41937252603287467
0.38401908707524357,1.122183087087099,-0.45919627714986533,0.9633660357015104,-1.4198371204771663,2.8034544172545757,-1.1957957734379596,1.1511465338680968,1.338562140015331,1.3881141859523871
-0.022982266389739103,2.6830828745270794,1.1094580755660384,0.795886308233128,0.525696089905411,0.5190668668584653,1.8195050161277018,1.1486821328519865,-0.12721336716362117,-0.4672873547485802
1.0487809048742287,0.12966669500065553,-1.5991338193252875,-0.4248120815558506,-2.9953355750211035,1.166982748613413,0.2512677072543356,0.6766876654807757,1.387174817985791,2.246329085136359
-0.17341226862486991,2.7372934262970805,0.6854404538188333,0.19790798611310012,-2.090038477966074,2.1740638886505534,0.6110611051008747,-1.555886384125551,0.851798868619482,3.1944839809520884
1.611598689792714,0.5295558925143371,-2.494161448291621,0.3861752246824053,-1.840543233942282,-0.5735429389515938,-0.8291882166420826,1.403464430995821,0.48184623906120294,1.490798717392813
1.4930794239059697,0.6389512079725936,-1.4788072300008201,2.530442870357913,-1.4632525508758265,-0.7110087420381597,-1.6167600750385294,1.442702788310841,1.8394560099546005,2.5017532873329715
0.5285539857858015,2.023707814592765,-2.3552986307553123,0.48035770232987485,-1.1040955539973702,3.4365347360632574,0.10152919894771559,1.0039992295028153,3.059749879237005,1.754796723399144
0.5844298549803935,2.0272876783912213,-0.7379387250067373,2.9195838407183903,2.937941308854694,0.329875025193644,0.6194429255539163,1.077620647772228,0.922576936423346,-0.3523720138081248
0.16486502826345673,1.2645407165116875,-0.14408150323927182,3.3130225673733813,-1.8710667162881205,2.1878524178869596,-0.8727479199692241,-0.28063488633431094,2.00557552970257,1.78409294270078
0.17733524182262395,-0.6587556798436598,0.5687087728037792,-0.7735155982470495,-1.2191791921096666,2.200341216811808,-1.9039808864644254,-1.366380220575128,1.240065137411322,1.8076546213968614
2.3111098436779525,1.550766036029481,-1.7663739441152866,1.448869438153157,-2.0749624855411675,-0.32089717743242185,-0.2212004937005762,1.713836621490197,2.4595065064391095,2.770118854411732
0.006061130097154477,2.614304784877018,-0.8903738056755244,0.6810199807817416,-1.5188463711301445,-0.565804803695938,-0.2372167196917754,-0.42599848296263143,2.2609909373256003,1.1680360854264724
2.3107447796280307,1.635900100430221,-2.9460561484046504,1.4111425087957947,-3.242251821908455,-0.0135255807707102,-0.7210951423326027,3.4243844558684366,3.577650155092849,3.2642841847838335
-0.23390661396621393,3.285124909068199,-0.7808382145464614,2.7780736171900697,-1.0088889330559692,-0.20933822886021902,-0.036146875998585085,-0.3205033409435873,0.8231144064074795,0.6312752055653177
1.727088348715153,3.1390987577992844,-2.1288252224290414,1.9819157364565854,-1.7456707551843846,2.4612159076968023,0.7890368267330523,3.2711203694346205,2.6949278999534654,0.853772767865554
3.2388209744526684,-0.7067074840461678,-4.283545263299277,2.7963433183980504,-1.1487588600741567,-0.02107958332244353,-0.26924095700791423,1.6942479286418612,0.5406084440439249,0.8292749234728705
1.785984572102271,0.653475760923673,-3.349133344721717,3.2745196629172373,-1.9160908677510615,0.4298775443586236,-0.7819649653142887,1.4783686713887587,4.7387283681571795,1.5063250130587185
0.17327794296125143,-0.6644611586125138,0.5157803190755572,-0.5447092605622565,-2.2159601351303686,-0.5241977738420571,-2.317961220002027,-0.8249379536509864,1.7553604650955692,3.1344885481829836
1.9248179621183663,3.215332257593295,-3.448322045340583,2.6653520141155953,-0.37127455908047885,1.2869190168329157,-1.3420233007103062,1.666153265545745,0.45665657626602657,0.6191057844705627
3.108030863410989,-0.12627106305369273,-3.8637013712171653,0.9370570978654624,-0.12471413257387003,0.1925070931331725,0.6130292756365604,0.9915930394474181,-1.6092786560341095,-0.8472084770990291
3.1443561052056346,0.8713071341357832,-2.3010629181738955,0.1475860549400585,-1.0980526273866833,1.5666934332998639,-0.07472782710597206,4.8746560528668335,2.294198703663431,1.5931467025822208
3.123276532613052,-0.9884735303937011,-2.0491213932751746,1.4648973925549167,0.462934294293633,1.9959401819513403,0.8708245516132025,1.7949607056189896,0.5136375121864721,0.022353745449198437
2.4630711124628237,3.150729209588837,-2.336407585839729,0.9297746301605434,-2.353228288567593,-0.7640186852768983,0.0155432919009377,0.6365078751392604,1.8275901053713322,3.312242691413547
1.9106091482531586,1.3156037963760836,-1.5733045414250253,-0.9191141469486614,0.013270862751883754,-0.36076919032644295,1.1261077646581938,1.9058664333136224,0.34725928241504744,-0.5948226703107458
-0.9425120367265484,0.15538144906224338,0.26010669109713747,2.194929602300384,-0.8226762931891833,1.3627613058341677,-0.17043958052921943,0.9341624638551816,0.7170582862850666,1.5362851928926307
-0.6959714939761394,0.2181093555160376,-0.355064722503897,2.0074523254536096,0.40797762035718727,-0.08495335616878341,-0.2721849707789826,-0.07084216122526014,0.16324558430769665,-0.48632375067378497
2.6238450638447377,2.7384061952648766,-2.363566730651588,0.15062974318172295,-0.5597412513751151,-0.9794200999088783,-0.4379595972631848,0.30142531843622905,0.6234666722553053,0.8264178354108154
-0.7334716712842243,-0.5954448187020939,0.8121637837422276,-0.12473493629623711,1.5053056555894073,0.06765736229003205,0.20733348646309752,-0.9535349417724244,0.047169801459769456,-0.5670013220179577
3.3715150762679356,1.6572957720270072,-3.402295156978405,3.05382858006218,0.2681819286448907,2.06713786106223,-1.2447389471772174,3.925600951167892,0.007465499806763365,-0.23975808885527838
-0.6889637184625754,1.4699188077672418,0.9966354312978563,0.7951293607722352,0.9760440019422223,-0.2661149497211853,-1.807926369510718,0.4391019013791047,-1.0168664190332284,-0.9831857992454355
0.8613569036559714,-0.9594819246675919,0.5430927955748848,0.06797227991212762,-0.33444604018191476,-0.9025964431898145,0.5698179097619892,0.778567578264952,0.9954848097436289,0.5117573743245163
3.304440520541805,2.682433432652811,-2.0162890408615226,-0.15319527827581225,0.6127323628193229,0.7166224192056196,-0.1018730198770341,2.3528548361684503,0.6915016998045688,0.4305101335395698
0.763427521930711,3.369661345849197,-0.591611276067973,1.5726601222144412,-0.2560677531622148,-0.7950391711877532,-0.749227750990218,0.4981797766982174,0.7096528092082918,-0.7527600862904967
-0.17945654493961538,2.86414871686766,0.9077211632969399,-0.9338371268092067,-2.119506358418493,0.9733868203671092,-0.43028552710678447,-1.3765647403680705,1.21088981500571,2.6658728132526286
-0.7206932421184311,1.974190233656576,-0.036167736340708245,1.6790928735033677,-0.7315288535584181,0.4857928274387271,0.5099333543158755,-1.5250024409470748,1.8307633927690055,0.5985154576140221
-0.021681863403503532,1.531776057552551,-1.4573765535014842,1.1145170663343889,-1.959018558563108,1.7613967650079587,-1.2790863127941832,-0.506304246831085,2.1638522975879972,3.390147888110442
-0.4158539814887534,3.0535608514859938,0.6100155149307362,-0.7999366298861346,0.28484429912965453,1.656827631665844,-0.3901531295640878,0.4982567040895008,1.2450539204646285,-0.1260718902125636
0.9306512172256634,-0.2665537207673342,-3.5009033470260635,1.1873280713092083,-1.9190778995445614,3.2691310649102876,-0.3424272037567802,0.039910044365311294,2.508373044361527,3.0740952110495545
-0.22716321801635275,-0.09956235044425299,-0.16316237257832952,1.318394950455466,-2.3357993292406385,-0.2245543024864196,0.9086348908963437,1.3370318786000592,2.467523068075086,2.1667333843065113
-0.9284597498722098,0.5028857674743525,0.029622815726688845,1.6985360380538115,-0.8422710015041469,-0.33672427261005466,-0.5499530888240624,-1.7275779099547508,-0.8260117259698887,2.8735095348539876
-0.12221083388606291,2.5483421173056384,0.5243847291881671,-0.16394319361788146,0.17767626258312433,-0.8456999722208455,-0.8461472399173698,-1.7891934779248473,3.5997830723136692,2.0718568838212112
-0.030452801836680532,-0.513525357011239,-1.0283765890982879,-0.8325645129519695,-0.9574004851570127,2.435207888283867,-1.0476523767960495,0.5350378954890374,0.8900029935334013,1.3939349880910692
-0.5224626650401584,3.3789002818923812,1.5953083276883717,-0.15232558648633,-2.1982702801300102,0.8941867989176597,-0.9917690186952322,1.7268680657944955,1.8757852416570158,3.3645369637605285
1.5619586272557755,2.3062402840159146,0.564473846471543,0.16318685818824719,-1.5871909446296233,-0.14221426395198378,-0.05480943446327839,0.17984420703993848,2.1233295575366826,1.316765033449077
3.3437781997487903,1.9795405293013615,-1.4819197847593475,2.2049385354769435,-0.3447943545187621,3.125412771313443,-1.4479841667337745,3.98580884159398,1.309270364652837,-0.2420210655804247
1.421555411925988,0.37667045212104555,-1.3517273471764404,-0.12597920344350566,-3.522662776369189,1.7200720200239852,-2.036263458967842,-0.11626994280439663,2.971105874649588,2.9326907648601472
0.2991978527138268,3.057380291804342,-2.0997897810975275,3.142703650903293,-0.8567244696001218,2.0504201877281805,-1.8587188571993623,2.219749953966569,0.0534974586796233,-0.6165708897377493
0.1826479297064978,2.828517081349175,-1.1212012590609413,1.0253343856008117,-3.554970051393572,3.0352252478833233,-0.08253569811800995,0.5654309226422326,3.331395980125838,3.0462487610298066
1.1571347469894202,2.485564035408652,-2.955009136136132,1.8685254449600244,-1.3609725163664506,0.45479562299124576,-0.2568689564065043,0.6230021282132494,-0.2983986292649876,0.7223796397236746
0.26380618361985464,2.7499573024621116,0.04957005045074164,3.008712232418394,-0.7528783440543688,1.0260412069398916,1.309144106601512,-0.7486761063299826,1.0406727700806415,1.6558892125233333
0.5954582407983104,-0.4051328452616001,-1.4498622804020755,0.8276913296790029,-0.4999537153192513,0.7641515512347836,-1.3978366865361989,1.1827869954191523,-0.0973278793065101,1.4854946565684948
-0.6282273986690633,1.8422644268768233,-1.0187261869147928,1.7732039787070373,0.15054412809408405,1.925902390755395,-0.04517383014004735,-1.777512327651667,0.2719655431389496,-0.4756816593729538
0.5322996542798097,2.450665358229203,-2.1132105547029814,0.3631065651246017,-0.48468721587361846,2.2970406902820932,-2.3616774795161892,0.5868308971087766,0.2536165457428146,0.5564084586514053
2.483612198986703,2.6315680942092925,-2.5799197905432805,1.0434041973000272,1.0663720683837414,2.0125768851762027,1.3419316011464182,1.2678239831684608,1.4324602639460149,0.5896981494073557
1.376726033014359,1.1276209699387807,-1.627313194374794,2.5894889814519293,-0.43190444269804895,2.4811099612473195,0.7265557891148928,2.2718039158845524,0.47916705368062196,-0.07929063922732738
3.125106111121344,-0.8515024861500787,-2.890548159122574,0.7943219581174299,-0.5397133234099026,1.5424807751072187,-0.8863183192024879,2.715736186126929,0.5699367891514763,1.9532243493170678
-0.23178743292573611,-0.2623731949049032,-1.3019679350197193,1.617275890659159,0.13575638133057472,3.2099508477135172,-0.42317563858505974,0.45488296266209605,2.2864965236704666,0.5589957216669226
1.267931098221868,2.9236923456728214,-2.777602585556703,2.1956043630520674,-1.5619311594174041,1.6453916483548046,-1.2352565462107707,2.2095656921702296,1.3262759837209135,2.1263150914708078
-0.19212839547010963,1.8197171135180645,-1.2366492489072127,0.5122470508585337,0.15823469200582832,1.094875607594946,1.5006674932046284,-0.9590121849262719,-0.6714333682446367,-0.3315083613958636
3.338135137160588,3.3484285767229665,-3.961768837136366,-0.14844538330058543,-3.236281604922686,2.690345097150981,-1.5374848708232585,4.592173035054196,2.3415706296093948,3.3528682769237124
2.6822306823477224,0.0019300995667514975,-2.5881497062650967,0.4125498570560715,-2.7215005015933955,1.5392306668591451,-0.5514404807075352,1.0004258935779213,0.6368564626928779,3.421098758586445
-0.34027426819094553,0.7812098913985746,-1.7383480241793432,1.4825087557362941,-0.13265457129097497,2.6122027961497656,-1.1103969464968466,-1.4541303295152745,0.19558403657115145,0.9623844502221914
3.132240896476439,3.400066752243249,-3.328612811061944,0.43414638503961567,1.8507278578949096,-0.09972338155532268,-1.761948765950061,3.34094900135043,0.541957891263914,-0.5628141242963209
0.19785173686424362,-0.5157427825298688,-0.5403296931103059,-0.7514482690502088,0.6108181690735421,0.5213235554245392,-0.32885707943179776,-0.374053483533027,-0.5119742449620441,-0.8239439488626125
2.478292382068453,2.5856707523477214,-3.129651092895881,0.32078577307739997,-1.7751859200471634,3.252307836796078,-0.5025709271295487,2.4856388609111706,2.1014876456589686,1.5392671942781164
-0.7474588580349684,3.4486095594400075,-0.8771752310348456,-0.07561786569231455,-0.93949320534114,3.2257362442948008,-1.4006518574293065,-0.8080462131842194,2.5847941647657966,2.272106444488403
2.180282260435118,0.4012095520065897,-1.5840879907212209,-0.2717415837399647,-2.0419652449554526,2.414853137049852,-0.35710396029478403,2.576340903989443,1.3910180936333068,2.4875372802963716
1.0318887789341011,1.2150841428283266,-1.6737510193178176,0.9139084720858266,-1.663853996920421,-0.5545603121869729,0.1084883232038478,1.3477111230149101,2.3470922830728327,2.8228168505461904
0.23904562757541115,1.7915590327596362,-1.7555578973200385,1.2576711538466343,1.5091249054901632,-0.6939250369046428,-0.7623190140741591,0.4008481919213015,-1.4786087859959298,-0.9282160574926939
2.8454861243852627,-0.4183247734057465,-3.9014908960546837,0.2026550418360793,0.303836921777119,2.608870190169975,0.15702423463232712,1.8863694060428817,0.9002181767818087,-0.4908520674524921
0.3055568156501878,2.7352233239024177,-1.4258023183955089,1.2356761166014887,-1.6589931427614955,0.1670129029638343,-0.8889247581326414,-0.37808523346557743,-0.7968929237303728,1.1109265761118343
-0.8375717307078342,0.24895973958696205,0.3567092652241717,1.229509035868586,1.4106355921341232,2.518461852758705,0.2616218560034289,-0.19546378541282083,0.754754543293903,0.42758533455054937
2.4316661850387598,0.7482790509311072,-3.8451602919841292,1.8746288261032609,-0.5472458498233025,2.2663843494169207,0.5069012839167097,2.186008808967098,0.7439786467355106,0.9386491733246869
-0.8333555092776677,-0.17302556316958728,2.3681802135174213,-0.4911232923834149,-1.4968811471388817,-0.2693920862150151,0.5561257893035283,-0.08154591263666974,2.3061914653617848,0.7126307800700173
1.6197246056165744,0.6125736566798823,-1.442875849961785,3.136031767551187,1.4062679818763055,-0.875777653237227,-0.7412017004242313,2.1505981425621234,1.8382827046893297,-0.07915944888605375
-0.47462282741842,-0.42078825133077413,0.5000328607177482,-0.27068156021509815,-2.819910246165412,2.680449306646272,-1.809569427047066,0.17562433079130998,1.383814354725499,2.566764157186584
0.8528153309316788,-0.6929463965089457,-0.5995020335237189,0.7651457566356743,-0.6993307369720143,2.050668105961972,-1.1543516852203282,0.5262320410387034,2.4622830797553656,2.3966408763815497
1.3329706379106394,2.3024739917992276,0.674838732779551,-0.5250627630037144,-1.9351192750390214,0.7210597489885551,-0.25702618827894724,0.8584757565301454,2.1010055200199966,2.3725801316609787
1.8131682758029695,3.1252496726493657,-2.450889910660047,1.5825763166922284,-0.952982809876796,3.287388796079017,0.04022288334872605,1.8975068127754606,2.6755733989736568,1.4020115636922732
1.8110816441234725,1.7056676952213667,-0.42633752242475254,2.3121699744788966,0.023582439117614446,0.05325877646310251,2.10041011912122,3.345029165488768,1.1216248935653288,0.7371417945946193
3.1407794913784697,1.096212674970384,-3.686697049527772,1.9629729195568468,-0.04611903936533295,1.142571301351809,0.4220099892147145,2.4188073480613332,-0.3430164480674446,-0.16856901514170297
1.9148751737782477,-0.4009533797248557,-1.0011467283826434,-0.159394042949086,-1.3685683976842058,0.8104699857089499,-0.15469386723675338,2.1053713244851306,0.8707551921594024,1.347319958459992
-0.5556754865564765,1.9718147939802622,-0.3677495997352544,2.834361090765234,-2.3049595195783152,0.6051606527469786,-0.01823110515485175,-0.47230101783258205,1.3607866537615987,1.8643977072655895
3.025397882596705,-0.9104635893854903,-4.486088652967558,1.0957947356910398,0.26459977925300876,1.7072586870528124,0.9392714026482222,3.0917772316700782,-0.3493696605333023,-0.17621855269819264
0.7686389298619558,0.046905440506772145,-0.14216638116308844,0.36806834644185016,0.3707412496677468,2.9751843034579526,-0.5540772330390684,-0.180994798676179,0.7257719317102388,0.7960437781546157
-0.8719150955763928,1.3259090888417582,1.6433792841332011,2.0018771571979803,-0.0024989014865219026,1.6968317750165087,-0.30534728263368116,-2.785305635684691,0.6576177234537018,1.5935172848645234
2.2151867423090126,2.0963205189890135,-2.826363434448683,1.429184328775941,-1.7437171141374221,2.5595829919733912,-0.33586585800995955,1.6431349983161783,1.1357316602641678,1.3336776964771402
1.2239426426649285,2.6780332662083586,-1.881093926156523,1.9691443066816006,1.2018241769270368,2.9642548397356343,-0.645763640644114,1.1369993897186643,2.0334386684445853,1.211110959812653
-0.0288210705587143,0.38070825295551325,-0.05730832237944827,2.8721118082882526,-0.8450879339800275,-0.7471076687163458,1.211374169414124,-2.412403154923615,0.38992872387889066,1.3913823461139154
0.23853974152259894,2.4971344373742532,-2.003734808569635,2.8680045480475447,-1.397215779112149,2.159577072561362,-0.9183114420343271,0.9997251220345408,0.3047558384500886,-0.2934877769163178
1.513736290667771,2.1244230248502483,-2.1892922867475577,-0.3321506158121288,0.6636286870974725,0.6450302764323141,-0.6918924467695166,0.698067415253404,0.259737574962978,-0.8092891549342031
2.9747444918342985,2.615370238680022,-5.153492402937229,1.660254465815993,-2.740758128909086,0.6380053262886967,-0.7434390990019081,2.0834950092999613,2.9256090169158737,3.045483277057879
2.093728353750125,1.477750975383886,-4.008129348032687,0.9019657511633479,-1.9881528301090154,2.4541442066508243,-0.6723227227822671,1.324323094709233,1.48447095992307,1.300097614090025
1.3347756522991872,-0.9430718651110784,-0.7237116382368136,0.20441214591978585,-3.8586779985483846,-0.9609170894099132,0.6772534761655998,1.509035084001138,3.321289867846416,3.2570798311970144
-0.033644995039349035,1.9226783496234314,-1.1426986522106326,2.233702677199844,-0.23163620075907249,2.957071320967591,0.8648908040718493,-0.6940764147504537,0.46825617810966447,1.5835065159079451
1.6782813754604247,2.201902664656847,-2.438079076688974,2.100627722765189,-2.7541233725529826,0.8478560698805429,-0.05057968012492167,0.1915256338316068,3.984803837559846,3.435311970735758
0.12373039713464795,2.98449074215735,-1.0909230334698126,-0.09042548596761779,-2.546980762968503,2.989110066289967,0.048711132922570774,0.2072962063605434,1.085016194005518,2.2385920765929996
2.3980984731628125,3.1341038947631983,-3.298890915928359,-0.8548834904523872,-3.121407773216001,-0.7546271322073639,0.24066137621042058,2.9318617106772034,2.823778388964005,2.5141467995932736
-0.06736958155661588,-0.3106122368840786,-1.3419345839473449,1.8894499888496896,-3.223610812719846,-0.014139006128480291,-0.4194335437507395,1.340843942169844,2.3929183491688577,2.2267859640965275
0.2574669612222844,2.629921310734421,-0.10066510097469128,2.5221474439221563,-0.13106878276507036,1.520838842751437,0.05827772242793422,1.3645228949011807,0.42043124990898206,-0.4662216860057252
0.47315413411770324,1.7644015927426095,-1.9157762541499053,-0.397657556123557,-1.40902604895293,3.350335362798779,-0.07898500387243397,-1.971373727636491,1.1942181742411622,1.202043081993101
0.6258339099932102,-0.2211820618872965,-1.2291457077546943,1.1661548239115525,-0.04721136808982756,-0.1942790424743983,0.2305598405837923,2.3675878360997658,1.4853835604892607,-0.26878266889480096
1.5753882182355583,1.9281636184358844,-2.2220925220292562,1.8194449064988096,-2.493523556225514,-0.12186325945799292,-0.01518016129699059,0.7035467212953732,2.3071742666032584,3.064991199774087
2.955668153472568,1.2768597115790414,-2.405407713269857,-0.7365338422615089,0.9406325948334037,0.5409837247093308,-0.08164813038638213,1.8685414487180758,0.03977793302801391,-0.5946727961148808
-0.3760756509106681,-0.34443850038773016,0.887080668453871,0.15425670242043443,-2.7714085336252325,-0.23630956126333802,-0.5735175049320143,-0.7148092304981419,2.1799777210345335,2.6432501083652857
1.241769178826591,2.2771144909963783,-1.8361325953457022,0.016855590549274213,-3.0663466175878433,0.3490288420580989,0.34652142427109534,1.8215811254132988,3.8546325820737493,3.0191052816550954
1.059497388137062,2.1777102240770323,-0.6327437997742589,2.239366849410114,0.41796121452707,-0.9830544511071285,0.6884826428487298,1.8583848708019493,0.9066150518895524,-0.844655389867283
0.6412989692106885,-0.06098227403065015,-1.3298605238646708,1.1261225587184711,-2.3761963760983815,1.9634671273064868,0.22280638342040038,0.29189399618990575,2.5715646158048138,2.715827394151483
0.2730155273695196,-0.5808081440278153,-3.1328369299142027,3.3895238431151418,-1.3684872897135523,2.251945203944817,-0.762684856376172,1.4119082546457207,1.682048667389912,2.5225928310691192
1.2037219942022337,1.8246755853443264,-2.6281093610761426,3.359793663442881,1.0162658012178898,1.4618751813938866,-0.7837242691728178,0.5279762533316896,0.9173407323697435,-0.32498040614180024
2.445385328141329,2.823004486894836,-3.401180975216121,2.6249058843197806,1.315243736958989,-0.007788385995608493,-0.34706345954536394,0.8304112658966077,0.008603624789784159,-0.39664452396393723
1.5204348438674962,-0.8766137908072588,-1.4541983715693156,1.3651943489761154,-2.9728899528440538,2.007263071871264,-1.8908974805154353,0.7002374191446553,3.6428663326291715,2.8805521198751043
1.9977704569689725,1.5055150359587173,-1.7145997066633245,3.0743847564774365,-0.8152399599962817,0.5033463742241511,1.0718513922545125,1.245385267209628,1.9033114150952724,0.18116978863292776
1.7181109389235982,0.360578988458919,-1.4792218954177079,1.5574672890334815,-0.7676714744146074,-0.5486062241523406,-0.4988675340785084,2.6995621887007806,-1.065952432305929,-0.8166684174651448
1.592769926177894,-0.1765305507479219,-3.1042186316534863,1.9316060127136447,-0.727548730504762,3.445101048400671,-1.9503078202383968,0.32491267368350013,2.7529427245126703,1.5829233978407005
0.5884253845280507,0.3720593849957272,-0.49312200825076263,-0.5613625350518636,-1.9160317717277127,0.5803834703575459,-2.0898988558760005,0.3575613073548524,2.4433297752713696,3.3017062935039325
2.4773808291341886,0.5185737281813345,-1.259087446205454,1.0787264925973417,-0.5204531556472035,0.31782294560653646,-0.4644434926028188,1.8022553361498017,0.7189834912801802,0.3988205273346379
-0.3780732646156597,0.6046984274504452,-0.013492590327782383,2.011956035435726,-3.0059175545399808,0.2445442301780394,0.6595873173148133,0.4055382488433638,2.6977751139296267,3.4479663954908535
2.89011600956121,-0.41500112548368084,-3.109881289234191,0.6487100468494684,-0.481450097287777,0.5165866442787175,0.7423549738302512,1.9522391229310463,0.6462772282239216,-0.18348925138517758
2.8917702172891464,-0.5924551455610798,-2.8457032674598826,1.2984156750628038,-1.8416846483027631,3.326791081249188,-0.279018354709605,2.9462083217015818,1.8814434907090423,2.9306882987541023
3.151516526425733,1.865842782305819,-2.257839525291644,1.238776602217854,-3.4076011106354613,-0.02118354755112395,-0.292559004297465,4.779685696156863,3.174400043315436,3.301280464713905
-0.45084035951960344,1.0407478959973133,0.9130315964462736,0.5357354111228552,-0.4701140234830741,-0.7796300606553423,0.017010055689962163,-1.661042229742283,1.1226832419763573,1.3348171368661221
0.3550851679986402,2.7437790837858222,0.8078580398422651,0.481392084075585,-2.3954634454968096,2.1717378901439606,-0.7567841141495666,-0.27191009637706687,3.8673890566597944,2.785561020428476
2.2151519163008633,2.5036979047373653,-3.3742415741714424,1.3958588613363547,-2.314493042121393,0.6343530121670251,-0.6568364638549721,1.5214284188983738,2.865249233617021,2.567130916452348
-0.24693028831453068,2.563840351326044,-1.3432494219942306,3.4440362717642827,-1.2904589354438982,-0.3331828736348732,0.19581398034460926,-0.32349443217951773,1.9082255521595002,2.4750519153380943
-0.48746260863166535,0.4668171611867977,0.29236359383870864,1.4738172761962032,-2.338607352224109,0.8229162076726566,-0.3906650384322421,0.6178250160135909,2.2083743539717973,2.9324914674882607
2.925220407575768,0.07546219695070766,-2.8223999293433786,1.806360947331377,-1.5093674799771266,-0.8479185121655368,-0.833714151078701,2.6150286673661154,2.5822029702811595,2.221190504904992
1.8747647544786674,-0.6105994671362589,-2.281238924498028,-0.3330985145583233,-0.7376364963206158,1.4162077788337495,-1.0030584230830124,1.1352901347201916,-1.1532983041879294,0.4420540361472842
2.352448317922801,0.4763390004911232,-5.078468223580246,2.05247429306688,0.0468886419709275,2.167526517334327,-1.0599007681229349,1.7496376582714113,1.7568823695557076,-0.357254439778684
1.8585470130701274,1.6184794521946926,-0.8213539290327612,2.927611710963563,-2.1894403539876235,-0.8587623005417897,0.62888332901909,1.4576667163101535,0.9071496983988864,1.978016245067412
1.9053625153751925,1.4990643464987663,-2.8615364753620316,1.6149679639161336,0.9075767072273888,-0.6488816118547884,0.9693159843845515,0.9276778841484822,-0.39985131337610524,-0.2918397465652053
2.085265574720613,0.9267236437445536,-2.1960053234848154,-0.083792829572503,0.9729960931994338,0.5414834506641037,1.044413293018469,2.679596910723959,1.4809898391418956,0.34621245492690234
2.205869794705527,-0.19520935695399855,-3.201834414335123,0.7685049611600421,-2.3073987134505174,3.325712498555813,-1.8198348232312789,2.51004805380573,1.9896781654583462,2.2613337870826866
0.035150468303364324,0.9497619243917592,0.8038732170428373,1.3002674609307125,0.24336316778158446,-0.501605155718674,0.8151702013343941,0.12637615231978608,-0.4577676962297723,-0.7714153648562088
2.858610346284691,1.1234301542706033,-3.388307100048834,2.736987635350788,-0.584313603050039,1.3373301303820182,-1.7090115608168208,3.083254774566532,-0.9980921184588114,0.4689482994465026
2.4298957044124,2.104575950909574,-2.82035920032681,2.490566465560882,0.20291665293581707,1.8867871824113913,-1.9422706589081542,2.280678681093521,1.3546369673862908,0.4987613862884601
2.282493113213368,-0.6285344809482771,-2.8151072072986145,0.39876062217308417,-0.9137299675262709,-0.6608901865497925,-0.3258374603064354,2.087739980261636,2.5493931611592973,3.3473540809705886
0.3473711543733877,0.061635688365750285,0.4989516250232504,-0.05375732267733435,0.8240902670751955,-0.9696544020506468,0.814012232126472,0.42317612947072886,-1.6348546068853336,-0.05920049084334689
0.288501762338105,3.291778210983571,0.4287743020773275,-0.9562925203802404,-1.8390355046730775,2.4743428140597947,-2.346867349668366,0.685380364464031,2.0220449628197543,2.7022851530736545
1.7646333516844757,-0.8352587888304044,-2.8320710127660904,2.893466980922908,-0.9860363401590656,0.5653772114283453,-0.5430324531650882,0.6967962559685259,1.0167397987614715,1.1293739271312595
1.1252614959560523,0.19016494052136257,-2.5362096331072292,1.5399920513374052,-3.4308969455712575,1.7406885164017276,-1.1754071548428306,0.7116526841002101,3.095536714012536,3.25606982935449
2.4229158858058297,3.246666583650714,-0.8339841623627062,0.2083947157531214,1.2154234416465797,0.2939921405578576,-0.2174129719152526,2.8409503957554305,1.3943694162499445,-0.5113409432445929
-0.7818753352988588,1.865431625650725,0.6889252914740931,3.089307865788859,-0.7757840149390519,0.9423304761424309,-0.7009419834343537,-0.3642632345281363,1.282504960220499,0.3912990916694652
1.7418682664239058,-0.22844695736003096,-3.6070205291494357,1.4786624070759085,0.4993345745625367,2.543735495189834,-2.914100497862253,1.515580612858026,1.0571622696772252,0.6349938586167132
-0.4015705130506855,0.5373081968106919,-0.8568426085043566,1.3093444233367055,1.2739032152717533,3.2396743866594298,-0.9568634514068332,-1.1777524573552094,1.714285524184511,-0.733102835845724
1.8956759571698547,0.7935637495931296,-1.6920988818248515,-0.48413092477666997,-0.2024807861307999,-0.4135647173566458,1.6111584306863973,2.2948226912284824,2.1973657826913695,2.305357468390319
-0.4977511637201988,1.1257223231545055,-2.839261782500373,2.3513856096346313,-0.9897972052812667,3.2621665952062795,-1.1034383743222402,-0.30352997231998063,2.765061661917554,0.9185797693205131
2.9628217608661145,0.4960145145575636,-2.085037714277099,-0.910049884668929,1.1832325108309159,-0.029243803852801453,0.9299073203589715,3.478443510320291,-0.34409775805325604,-0.17433388026610752
0.4068758430907222,0.6710926004915536,-1.6713780616700584,2.487394956620962,-1.1838250039731804,-0.11935684367937527,-0.05691763219026499,1.1925140606233737,1.1919144739664658,1.830858034145352
0.32484442068879016,-0.2948571839579459,-0.8128553059297219,0.2662122614639073,-0.7854695721980762,1.0383104792549234,1.2331123118015292,0.20634527198419025,1.214431029217015,-0.22853369792157874
0.41843836342010987,2.4887975700039218,-0.9824739011431223,2.889212110599123,0.3733558912641722,2.592846469930681,-1.2241120942237056,0.21551589257307605,-0.6223634227053287,-0.899024979770457
2.5799012572813287,-0.7148241810578675,-1.455652995579189,3.213342679602124,-1.6428279559006045,-0.10707068247917884,0.6611982296195088,1.8474971183793019,0.7614622838979374,2.12702362330281
1.7830215624547052,0.7920939091871639,-3.7940592499209345,3.315068391466167,-0.8946875970128803,0.7840199422291079,0.02526680559162363,0.8782396815545823,1.7206091059999586,1.5714713496938213
1.3173929775772315,0.6974252337076661,-1.1289404651647965,1.3087562899646286,-0.2666976625552657,-0.5661959537966658,1.2674676004342538,2.135448187719933,0.8853459341121535,0.5169927628084807
0.41012697641762474,-0.2797433959855732,-2.5727135693264604,0.9889149306499432,-1.189543609976884,2.4445047373862656,-0.9277244095172925,1.2463292686118939,2.1298087399607084,2.1370781089674717
-0.3723544368650483,3.4473287993885817,-0.911415427063081,2.0630366839952488,-0.556593786014202,2.1915039568186208,0.5580634045858315,-1.36378343550742,1.8458923085437893,1.2534019571647885
1.0617717972632108,0.896523800901807,-3.626165474381439,-0.2964373451911456,-0.46912779250983233,2.485517937252127,-1.8224823034897304,-0.20238545518696452,1.1550612685055166,-0.2458355985077859
1.9636625693681622,2.5034325369024693,-3.4256739222575434,2.482125023279131,-1.185703428758913,1.5123694771279417,0.23345928296107032,1.555858249412243,0.8754342445898856,0.9133583958485538
2.0900670693613908,1.1025961200776506,-1.8783396730870976,0.9215036146857603,0.18356219746712157,1.0647477649830543,-0.544704831452683,1.9912771161182976,-0.42559007101968116,-0.6324261849098389
2.734281277982925,2.711048599076349,-2.277304255976564,-0.4908962268889586,-1.92186637388269,-0.991818775885003,0.5414776225151626,2.921322424527157,2.273064288617358,2.263419460472619
2.858641606711591,-0.9143958688015804,-3.7717847863606777,2.1335008233787023,-0.24175373366297806,3.274653124415324,-1.9923737735619913,3.3121956899537204,1.964083845477201,1.3574368569931305
3.2291975152626105,1.1825825969350623,-2.444891678462199,0.025565432856758052,-0.35766630707464103,1.3623986712646663,-1.3625410301488363,2.8354900854516853,1.8230036095359483,1.2060001770132014
-0.5964941058232958,1.8690821545898064,-1.2007733556355404,2.068832964463213,-1.2585393667557023,0.002103476177448993,1.065814984252253,0.941609305526858,0.40046535710106823,1.7280134527856155
0.0616047516716558,2.2580996018643082,-0.27346196853766097,2.7615171515347865,0.4784698907007313,-0.8260461826139218,0.21707729998620362,-0.7840065017649939,2.769476187878495,2.238975010326158
2.2242836883596913,2.3181900926451298,-2.009554981957512,1.0144481206246088,-1.6600110707229352,1.3495844652768798,0.7302908507810266,2.1313048224441706,2.2093891798424616,3.3038633889095133
2.022866170553945,-0.7547937043511872,-3.4354249857527392,1.9564770622000807,-2.3036662402806454,-0.4910199272651887,0.8855051016212614,1.8212130244782054,2.7153558675401572,3.2808367103674136
2.271593235714251,1.1173760466628222,-3.135588375146684,1.795073301520469,-1.6768944409280264,0.6642834622851328,-0.5173871318423926,3.1431296449268205,0.18350174857671842,0.79044838413004
1.3390195098411342,-0.5222363620412465,-2.2948726953742278,2.0191099272022406,0.3781535809738046,1.1523690565649614,-0.5990688795026808,1.1458449472276617,-0.8303834818811273,-0.6429657632857415
0.0736973957916982,3.4091774502937513,-1.539290641374994,2.411751342813437,-0.6682288218528483,3.4344006866174777,-1.2991500370063123,-0.24036486565989545,1.4584818424452113,0.834448519688044
1.128374261170431,-0.15457308720839036,-2.8222383999715315,2.978281351480787,0.29302907983687926,3.100541628017236,0.1765973241578102,1.6320214508663113,-0.16361553746089763,0.571255640243
0.3735739133784097,0.24293129327596397,-1.0257201695108455,1.3365662697593277,-2.3064128324015707,-0.3864156500298196,0.918139578726599,-0.6183669186531291,2.289687297898764,3.1260823234551127
2.52124546466685,0.025271062479257367,-3.5300345063830743,-0.7744245655923127,0.6141843918718828,1.2864812696297827,-0.760723766984184,0.8118302743104665,0.2764012399394238,-0.6747621371638999
2.1746811859563486,0.8061207310549623,-3.5740642206344124,2.610699856966713,-0.6999286879249532,0.5597143857144344,-0.6739312752781946,2.770589544188544,1.729005031988649,0.5602866979471157
2.646103751604201,3.3323805340682062,-2.578909520267704,2.8799770464274728,-1.4682807128999495,0.7548219134654122,-1.0277347082215438,2.0731021070506994,2.238247753964765,3.067489682138479
3.2831033711176696,0.02043458300803569,-5.453278824468559,2.1518074017996947,0.22554096854669903,1.4919017131868206,-1.6920698325634485,2.013781699395406,-0.00034858785122030694,-0.2040482036463147
1.0637578513099473,2.07060926619676,-2.6167287564699984,1.489866191406533,-0.7698274193548594,0.6704950348847356,-2.104677905853947,0.3566223720562268,0.9670959199911381,1.0620141471111464
2.271228028056802,2.9245656493625947,-2.730910005742431,1.970109168963364,2.4747733433326973,2.776168235077868,0.35891488623903123,2.7187308032736275,-0.7767002916501902,-0.9991595992682422
1.828557238723413,0.1299802122255962,-1.6129080918933916,0.4463329939588838,-0.38463031059222574,1.732695497298586,-0.7928547172074779,1.1489395701248257,0.10124835216059593,0.7952690108297773
1.0808387818655434,2.3046207144384008,-1.756799155037653,-0.37843069329364565,-0.6667916885068608,1.6891768163044558,0.6150411275100768,-0.0025104083745636336,1.558276408350886,1.2261272962474257
1.6506672264087543,0.4433948847772249,-2.8460226087005553,1.6045820778445532,0.5966797231700545,1.5253587370736001,-0.13715317180838169,2.322574765668174,1.7747527700153287,0.9091847592435296
0.0025574282533631365,3.323617496325136,-1.4176914742551072,2.025621234800364,-0.8387157470368456,0.05770764656676497,-1.6035269908203673,0.6433537262789627,-0.09194920264414881,-0.23780345164944128
1.9219361039099185,2.1902896850295215,-2.913710636448673,1.4823451001628314,0.33279494499173007,0.687135881965464,0.20107662215719901,1.6175924655490848,0.724671614625749,0.7997020052901052
2.460955938556009,3.3436795673174684,-2.5990201089876646,-0.19676904072457635,-1.1310537342623013,-0.3010113463139049,0.41546981893687734,0.5725158642397391,2.7716006638029898,1.4135399117377467
1.625927204073112,-0.8800963759606425,-3.864445289111513,1.3239426614652565,-1.7039941595279497,2.067182937085556,-1.4721305379841951,1.4629300004449934,1.9188641165441949,2.2854242454956006
1.2512656823093553,-0.40178246625668823,-0.7285434034300681,-0.5471190641128688,-1.1954286196145794,-0.05280097172972109,1.4128616244605372,1.348627913244831,1.307826428543959,2.6412837630828325
2.7574119536657196,0.8021904595439808,-1.5408129985633006,-0.9376347218457111,-1.6489295998911768,0.7506365267859989,-2.0504430229583646,2.867692155891616,2.142271071188283,1.252768173326381
0.3812424255744158,-0.11611023511317853,-0.24364602466975255,2.348975249996279,-0.27868749001282844,0.6104431596578694,-0.03856517242057383,0.2347234491570162,-0.9463083501624333,0.9957743590782506
2.077905221135863,-0.48831501641754094,-4.66361802260658,2.7615342754810013,-1.326723565646244,1.4262638856542194,-0.9063468054787059,2.9209635505952027,1.8069106516590954,1.6905611004717733
0.33661700894709745,-0.22900029389813337,-1.1365217664248273,2.7054438824973697,-2.0698965591948624,1.145938765487216,-0.18451930250223184,0.7433790282463912,1.798461215871273,2.092748797407612
0.5877409626639569,-0.43787517911878227,-1.0164640492504682,1.8284621809178967,-1.1145870743127553,-0.6428138335344253,-1.1754463004959403,-0.9477207390584544,0.3858721590215188,0.8507763714334149
0.018743484290260515,-0.5390836328694545,-0.07057031453718156,-0.1790995229643767,-2.241169468851126,-0.6305488578578669,0.7882968987403143,-0.09464617188949041,2.28218259119917,3.073095798754391
-0.5534256456863289,0.800504460320965,-1.8202438128659142,0.43448927000204685,0.3755252710225756,0.2833356457451497,-0.8533561565646958,-1.4667402576001285,0.2822059321344448,-0.19100229984946004
-0.4366548067726007,-0.6974950789403038,0.2197644272493502,-0.4843200184853924,-1.8091840979456861,3.1471058264927727,-1.4944754632670791,-0.7859360994529659,2.2344584926989035,2.381975121236194
1.7064028988067559,0.0230746186419577,-2.6087121902311674,2.854166801706442,0.21482114828525023,2.466918172905571,-0.27271137928774286,3.3129423666312565,2.0751873891979704,0.606492961703629
-0.5181757837947671,-0.9068297247963656,-1.7042011875554781,2.4597713682293,0.02897902635932815,2.5495706632732626,-0.7832272488813529,-0.034551976895272694,-0.6203997688026657,0.5114841391979963
0.6887251601922619,2.167607287595311,-0.322416370486617,0.9908327339346903,-1.4058715822290775,0.444407685374006,0.23888244454200086,0.7824181211228561,1.0385256166931245,1.594656005452101
-0.16019657065787007,2.2882130155463094,0.6149081618063106,0.7823441992360665,-0.9607234468810038,-0.262571227578859,-0.5702481631745121,0.15893369852626768,1.4985537006282157,2.4230879458059684
3.1399272574510313,2.969214316151845,-3.331274068252214,-0.6343783474843102,-1.1337371577744277,1.5268151238161973,1.1031811763157584,2.0713565810544186,2.832204484177215,1.9309734297667553
2.4416100074189497,3.414632887752391,-3.339227817096666,-0.9037915224296251,-1.2619546207463384,-0.09159007170145628,0.8765541620065777,1.9698803711420825,3.4811892171404057,3.023358431020677
-0.495488761780972,0.37460922259472573,-0.1101985963465758,-0.23668547122653982,-0.19576369062326784,1.0312252106428543,-0.2612315596110633,-1.0474478684349005,1.136522055018245,0.7911968929373194
3.0760125028143666,2.687073015191376,-2.4303869967596885,2.3541675949852525,-2.012451619783586,-0.20121920282235128,0.8005377007207329,2.4367346646139065,2.196723965898398,1.9423691587434049
0.6046167764989927,3.3419542511237124,-1.8758972520049997,-0.17342131049770315,-2.1589407459311474,1.930162280231932,-1.581509905100676,-0.6689035589105569,3.7887136210427474,3.421229061856348
-0.6050425723915505,-0.7139631883036799,-0.3189173878393121,-0.0671003337120627,-2.0740973523755644,2.716926132252062,-1.1401902913767017,1.0729860662937418,2.3483008359364392,2.5389937646932035
-0.38247278645461436,2.9912853808971214,1.246743206865262,1.185228082209472,0.15487580495788164,3.3821198834733517,-1.6514762940813332,-0.6747842875654667,0.9726338988279951,0.5047011581830065
-0.4563944950959652,1.352176709393921,0.2573048863255454,-0.24181357479390675,0.42842072853879,0.9514404491660675,-1.4896361236392852,1.0573185881641247,-0.47178301104178233,0.6267423952374589
3.4479277861592488,0.41172305006380605,-5.359090765110221,0.8564746667760237,-3.681334645230004,1.8165165109920483,-0.24836003738530743,0.22747465433511402,1.731850512281683,3.2493288023931193
2.9170441276075723,0.7893761544606306,-4.384692649546404,3.2078698923632833,0.24634864997459865,-0.8659615016996941,-1.3474307769366392,1.7693396577113776,0.22002336617362103,0.4945110879222552
-0.13408441374382596,2.899150242380696,0.91297176600254,2.6872960262681347,0.2971923434053434,0.20730314797458171,1.9175941300034862,0.2525180122535497,1.2106712581711512,-0.06691146067862797
-0.08064177441687914,0.642347723364628,-2.5263075819810803,1.1164821155177238,-1.4893300234340192,3.3208505866892173,-1.6049799126036866,-0.21290637947635702,1.9738886220883867,1.7335251766147688
-0.4895916540025368,1.075381482410394,0.0601387047980918,-0.29135837502815387,-2.4627928032453585,2.984308760425811,0.3615393705404567,1.0009354961438799,4.041306771421784,3.0589996238497283
2.8457532950970936,3.4361025307043924,-3.1017595833511646,0.7138475669830564,0.4251437065162556,1.8108442400916558,1.4304294523851506,2.4780267504429667,0.5509526186200663,0.7941370980588858
2.67512139255057,1.328979127532965,-2.9125538800968815,-0.16855665146864718,-0.5979725902094413,2.342713752075038,-0.13717307337351342,3.601442793535546,0.4143495749857347,-0.2877101007109435
0.9417306214932666,2.30606306502933,-0.377093654060966,0.39597651112303267,0.2530444167702598,-0.2790656588888324,-1.8840227041600557,1.352979848539166,1.2128181648499816,-0.33329258806691364
3.1374793592556447,-0.523240584858714,-4.970313923185216,2.62360031472635,-1.289656036381049,3.224073548493007,-1.39064906077467,1.451736247174435,2.580946341909068,3.0263240634004216
2.4763021161250434,-0.6242772438389989,-3.741072201891746,1.248942467801501,-3.3454124188614345,1.5426782057015833,-2.145350672687497,2.0360404787113433,1.6280871746531842,2.7696238696259163
1.6858135177493447,-0.9186943460912296,-1.786580833251663,1.3775023591007893,-0.7901810021055178,1.2742554302857156,-0.9811011975817504,2.582727814745219,0.9544250049947569,0.5549304823847736
-0.24848198465206794,2.8637603046937996,-1.089568294473138,1.7814192931405586,-1.5780200677833942,-0.9040920595667733,0.7094754626414237,-0.8269865542573831,1.4126335769861154,1.1244016705644655
3.1715750147608786,-0.8157359538036859,-4.463980347730344,-0.7248031595607002,0.0062661288879189625,0.8266523138086614,-1.0398299116610081,2.9001372634233777,0.23020790074937253,1.421954679810924
1.0540055502035734,-0.046364412788822196,-1.570661061992722,-0.6567860213420358,-2.263038601238724,3.4567190283949776,-0.9596964804763477,1.9841918701402401,1.8735983809382382,2.7536505025501805
-0.3742460933163585,-0.08342751418384375,0.2641158155765782,0.0180070261120997,-0.9055835211034918,1.3732006794075629,-1.2323348812378976,0.6403655499715984,0.692253081624284,0.7548291439024726
1.3772768600312082,2.1900312802745,-2.385292825253917,3.054489090854834,-0.4544087224453487,-0.07299766068273361,0.7467867709468659,1.7183579945816834,0.04879690899624051,-0.018087588338246197
2.2618651149045523,0.1890258406416696,-1.4062624015163725,0.7077284542120048,-2.1913969180399104,-0.44623500844380193,1.0524620031133018,2.5073663439426834,1.2331162668416624,1.899474752786833
0.5121016233417444,0.98115041351501,-2.0737637162874036,2.33301683494846,-1.608722147252617,1.2196802030284628,0.7323585212635335,0.18004128122493113,0.7497371661405413,3.181876283650486
-0.27231309723000485,-0.6144106620080674,0.5647256768000224,-0.06750340162285595,0.6771082455256893,1.7263666791115164,-1.0786820490858628,-2.2112862906608077,0.9033290229507593,0.29145814768786193
2.2053107793075486,-0.7965795549506344,-2.323685789145357,0.5260949723576422,1.0942852917426915,-0.7755790133643818,-0.6845883722468652,3.927144666053251,-0.6341083229283223,-0.9611310241081774
2.3242742437996546,3.330009060090944,-2.961911962400534,2.7931268327268275,-1.4937560534452299,2.0407890884113002,-2.1549462424695425,0.8166563980035035,3.0916710936392082,1.554744662852126
-0.06962565598239245,0.31157504173653594,-1.9747625338382029,3.0555901930234732,0.3710158434608854,0.3798863546788056,0.4780804102744697,-1.0123238508164214,-1.1941276093587643,-0.8258094155266863
2.7037225179530098,-0.55485122197412,-3.950141538915234,1.2674134063474298,-1.8984872914756978,0.6370913435818186,0.08516023855178927,1.8842883443768699,1.0970472117310608,2.630752877878676
-0.6201284190921792,-0.23985596990440883,0.7022722892272892,1.834009882683648,-4.160093169042792,-0.9439734208060623,0.09778130937658415,-0.18320332517327317,2.3090124925885367,3.312915527549161
3.0519326493035672,2.7143218562218476,-4.463363844073601,1.2941715812878516,-0.8139921855559543,3.3101077690172707,-0.6478524521081389,1.6068488304332988,3.2025375254992605,2.030915775369781
2.422799471317523,2.471011601957924,-1.2004582570816411,0.7574651982626004,-2.209560763914326,-0.4557957782966412,-0.299616508265458,2.1660763000522394,2.089243186446281,0.9698529200180614
1.3895434705636047,1.2160712539316947,-3.0768577868667184,2.2730667790654984,0.03765666935569042,2.914957016731072,-1.0692063200739896,0.9947061891024851,1.973221507712122,0.980617783746814
2.7575218080142614,2.248460590039366,-4.27985477679655,1.4790304865562138,-0.6436598640854141,1.227061301587852,-0.21082171490099694,2.149638508751791,0.22373583982742518,0.11833114113473386
0.02416605152944218,1.6522818897684521,1.816609327272762,-0.9553682446332528,-1.0571828979053124,-0.09172610914687529,0.08059180599224319,-0.24776769647339786,0.7796215568522711,1.4944245529362248
1.3463100416515816,-0.48309118387315986,-2.1453752031068576,2.519262258059434,-1.474476265383711,1.1056937985335722,-2.0180111286569598,1.67066243750094,3.2773443089757297,2.0178191095132214
-0.5304557865338211,1.2854695872438717,-1.483321833507896,2.891165961178384,-2.050033524625915,-0.4546766375074569,0.051415273423146036,-2.075168518087058,1.9733191762929057,2.120313705873916
2.831717461069205,3.4524047780117755,-3.069979378547251,-0.9694689808398455,1.0714937787307395,2.62792209344778,-0.9442810106537074,2.3547955717621836,1.055970275517662,-0.21613807460583767
1.2525499124516886,0.33052013539633096,-2.1705855257574695,2.458089237229329,-0.7641401435118357,-0.4456955570505514,-0.06650909699878244,0.8791602986816459,0.2832163908347787,2.01104246711481
2.2584064810229356,3.151037025351302,-2.5909915378821458,1.948132352653071,-1.4389429013882102,1.199531898122392,0.22768450278482558,1.3245249746954764,1.0650620403315225,0.44580651915941916
1.7249907538218858,-0.09845882070990475,-3.216426146275053,3.3085595167195008,-1.9881058371480753,0.14008860294818626,1.2036683880314765,1.4700724192817496,-0.8283979522930837,1.5035627284372985
-0.15189574776314319,3.114938558838425,-1.7829916966573385,0.08873103734512644,-2.8475992725197115,2.267989525138159,0.33044136277647956,-0.3553490570625164,3.1711102042995583,2.5841082695620243
3.291281404046024,-0.44691123026940793,-2.004073887706238,0.41706153785069366,0.5991814538891245,2.595256040133247,-1.4660454467459119,2.0086457061110545,-0.055456259028565436,0.3850253242589794
1.5253814224246218,0.25865735811835666,-1.1991295174806493,1.3003007066916306,0.6814582888635835,2.3956852016698558,-1.0144963664626254,1.652302851707685,-1.546830047396584,-0.6641344848123687
1.6834486419868484,1.6613986915021535,-3.3186708947184793,3.3513291240064413,-2.773371514104443,2.037526535484363,-1.2845721795752953,0.861235177036749,1.7436983801833892,2.0256580862020996
0.6666406920307368,-0.2900851693938773,-2.3491396615803075,1.6709220729244088,-3.3588190166862733,3.416992411563868,-0.39455733235837803,0.7392008387284825,1.0272155729292538,3.1318997722886817
0.9359979559625036,3.210229633212623,-2.1879619977338187,-0.15264724141981267,-0.2656266812627096,1.488388499120914,-0.517239202575369,0.6190457200347055,1.1631828633692651,-0.1349997774014855
0.08243857087485829,3.14175109178347,-0.04652865373710291,-0.7095863637587243,-2.694720112278114,-0.8759976572095851,-1.8177723988553427,0.0901621916183482,3.0363406085467455,2.329218141101766
1.2395752710871988,2.14448674407415,-0.4427023126311471,0.9524124941198024,-1.1343804197883145,1.2143631419677696,-0.7519986996898745,-1.3806376293490537,2.6378857531257607,2.5826291889661377
0.999467770286673,1.283306637432796,-1.1471052185878459,0.24504504776094227,-2.1238260755956184,1.2615716278777906,0.03700510073656451,1.2206538146266643,1.6611088710784636,2.2256694357919353
0.3959535078249483,-0.09354848165941243,-1.0858233215142066,1.8344903910331891,0.5676344702408483,1.1249626228596168,0.06123376933975389,1.4633658806880694,-0.2594179009803135,0.03218828486942327
3.4474668717338837,2.853736656601318,-3.2732554847292517,1.7199513807551168,1.3610699448690258,0.535184662288763,0.08440541478284164,3.698170265607992,-0.15074939579554802,-0.27534782041259054
0.43553675227404476,2.953787397992441,0.4271347903088356,0.8112402440867192,-0.5602209152124253,-0.9721056536001331,-0.7475450237480409,1.0409382777363845,-0.29015975970930163,-0.11418708050190018
-0.14133848771957125,1.016727366711378,-1.3042793538772028,0.34665312340025456,-1.4309264663333972,-0.7874341766737974,1.5676455331817163,1.7691138586604536,1.045336365392052,1.0367149088941563
0.7570612858135479,-0.46776592996833444,-0.383822087900502,0.2645808478231204,-1.4078953963222784,2.8886615635365716,1.2659007359143513,-0.3787313626026166,2.3123905845444077,2.0910401171423953
0.5150358705615601,-0.28212817915015487,-0.8906198539143296,0.8828018855117363,1.1486440785754248,2.910427930571908,-0.5561608636364525,0.45349393595238996,-0.060593327953845866,-0.8725731691436719
-0.5063352427672059,1.3312391429339616,-1.931224470902914,2.845437633489424,-2.0484684408083247,3.056212711653626,-0.1757014548082764,0.0028470151063113435,3.1813297453908937,2.887367114265405
3.3921922396298863,0.9114285659148087,-1.757667438763081,1.649126622258171,-2.494171821861456,-0.4016045096620098,1.3122312983004043,3.2444269649768707,3.0992937226137744,3.1437495453612128
3.143006027146461,1.2588270390336178,-4.784237928634238,2.6594528375605093,0.18883000368534378,0.7972877079317626,-0.6865452799910183,3.0523739500782474,0.3205909498699654,0.4053950015667869
-0.5614077237837087,1.7466686584840678,-0.2680069859413685,0.2154562617091742,-1.4536792725320438,2.217963117877626,-1.3613416482621736,-1.0227532056257747,2.518594843529582,2.032906572540278
-0.9232868435057385,1.2491107289676227,0.3199765065888762,2.2533010135527576,-3.3045074439246878,1.2591956500461765,0.5820048426924628,-1.5699029147588652,1.8300425215438225,3.0478407719616243
2.234545327281243,-0.12951253951289932,-2.9215311918815576,0.5760622442421646,-0.5175300609270546,2.154900899709178,-1.815841525322054,3.9482873031611763,-1.9628454572906842,-0.4183497177148058
3.008586144489051,3.000559340966876,-4.165182377563588,1.4796465135481265,0.8014208209682682,1.439552334305053,0.3644154404688789,3.388732749130062,0.5062028307530015,-0.4298823843077828
1.6809567985086233,1.7177580770571566,-2.753681232935429,1.4878293043960151,0.23835687187255294,2.49178640469795,-0.1690064089948148,0.6283049294666232,0.6413700098959007,0.468261877056797
3.440611190741821,0.34835269741895947,-3.689543193336724,-0.8135241588645957,-0.3120261823523033,3.3994822439271966,-0.4846092296295288,3.8987074766705687,-0.5249261002738886,0.20690056763980302
2.7127650819817855,1.1528888173016973,-2.1014841122783565,2.688156731393228,-1.5586290810928183,1.2287271381093432,-1.0518307851198787,2.342054694007262,2.759217803597246,1.5956415120383345
0.03326118212120499,-0.7516168087855641,-1.0363258150028871,-0.19803329720815943,-3.014715799417864,0.9005777035847862,-0.2609944123890448,0.16586807229791914,1.873807321870161,2.8679729837126566
0.7390254977491699,-0.18557224215704804,-1.3874890844966628,0.18409170649781004,-1.0522044538015978,-0.8089783713750303,0.06282467979020441,-0.3809546573985584,2.643314798700573,1.8071252438069934
2.7668919002279373,-0.37328032813813916,-2.2215303005627827,2.245210322187833,0.4159195913181635,2.7398146446740093,0.5876782859066793,3.278570684760422,-1.281974251792105,0.6203474834273872
2.5732103707843166,1.513864979867515,-3.371375822869374,2.2504349825564898,-0.9567438550083883,2.524508651205115,-0.49582591746852916,2.6458088309356316,2.0878620509529835,1.5395698671893796
0.23956374847695594,-0.09083729719157618,-0.9748399268889125,0.8658026202456066,-1.1921208346334988,2.3949091107294396,0.008792396780139624,0.9739362890432035,1.8499667156814674,1.5243809220789557
-0.38749115225812647,2.3096787212723306,-0.9803073092457854,-0.38142261989500137,-0.2924211904847229,0.6731857622138042,-1.2742148168268614,-1.8901912175932372,0.7832391526085608,0.30760446365473704
3.3118269153463453,3.445777099756013,-4.189202988674578,0.3532218903866049,-3.6004706084932154,2.1442178861442356,-0.5119624373755293,1.4034649569521054,3.658319648456881,2.2874231012460466
0.7098395014101639,1.8844760077837104,-0.8315320681971196,3.2311190738259494,0.7294920426087066,0.46748838756391775,0.1380951572416092,0.38897398099201147,0.2890221058805374,0.6227178895624046
0.6503389389400547,-0.7481999218115603,-0.2816263318413985,-0.3479753301959889,-0.9342623770235061,1.346729631526601,-2.6658825291611983,-0.01015980692080165,1.4711256351042907,1.4065008117898157
1.5206171902128123,3.220787436895587,-2.5259207065282467,3.3548811597872286,-2.014680550174986,3.1644950595516264,-2.050805479398653,1.1254858752875754,2.4437163924647627,2.906346834347479
2.7443803428025095,1.0296424851702533,-0.9454686059264253,-0.37195752349348865,0.21612268707255708,-0.7387318622496323,1.158374105410184,1.9649786237646194,0.20667937180632534,0.7429398184279143
2.110697100781446,2.904233133244172,-2.796424045549965,2.9648085723306297,-0.1696089955080685,1.0605493692432755,-0.21642653286667696,2.5510446613983646,0.6676672552417987,0.5479343058037387
2.0255739293450397,1.4677758421597389,-2.957453732047013,0.6645711866961472,-0.5233733594147393,0.16054139292172964,-1.345895548585009,2.1629035383295223,0.4254050758878701,-0.3665041828876371
0.47165118159440667,3.2598371861821196,-2.2438250958021095,2.1614299511933455,-0.9113488331732464,-0.25200182264184634,-0.801383254265613,-0.3564875628562198,0.9756578339240226,0.397163293325292
1.838441633355537,0.06552727737866082,-3.3227052908462635,2.332677368575745,-0.6073051986428671,1.977947273394205,1.0370955153721924,1.4874567384692767,-0.30584201129014615,-0.7858046831676254
1.931351744048753,0.24021659303615417,-3.4436801399754184,-0.49319438378518476,-0.3088718486224324,3.3911207450135255,-0.8573049168662156,2.065001675440227,-0.12073585921971852,0.8985677252281836
-0.004389117656409258,2.5164808469210764,-2.6167253027004627,-0.6649947696786261,0.25648382694692784,-0.35297983923465137,-1.7818461786125983,-0.7185457645074075,-0.1598468221778404,-0.8231167196038497
-0.9204008481073925,-0.38878525349009885,-1.0475169673941123,1.1596547317002073,-2.1407196238631125,3.461095885909291,-2.782837001184682,-3.407165459755291,1.3899189006428205,1.4620145678302823
0.3956176207346438,3.1287728301935465,-1.6425825474513651,2.586317075174509,-1.0675989615300199,3.365015710688101,-1.3013829323875545,1.1380863651262252,2.8720331229723524,1.3887554061427165
1.6479659198930907,-0.061943156352866735,-1.7167512193286791,1.1581224003208286,-1.5715591916771876,1.825294908279874,-0.7125505989612795,1.1069816030508506,0.9875466598495727,0.7507839037119104
1.5892736665194387,1.187144196161832,-2.178589143917259,0.709699081670252,0.6778210604586841,2.430203910360283,0.16543317821526135,-0.3064086355415616,0.6030091354050702,-0.7755173521914243
2.4988474719649423,3.272897256485921,-1.0621615771271349,0.9261321687749362,-0.7651450780739076,-0.9437194595462485,-0.6552744855686649,2.175007624912415,0.3031455447714737,0.3722189197431587
0.23067310978928068,2.738481045409433,-2.106768959672019,2.485318072417514,0.6453759474731176,1.30489583610313,-0.5618402693844552,-1.264274999242934,-0.8349013140327355,-0.6731854281632004
3.415589426577025,2.265642519600616,-4.451815755728781,2.048383299536964,-0.2812644068967691,1.3134948824137993,-2.5010302892947838,2.567491616773621,1.3778455239477496,0.08076633358608754
2.889704911029558,2.2133804604806504,-2.6050377201202393,2.6278057553688514,0.6922191286125385,2.2835174310063895,1.3439063407158374,2.010538126940317,0.056862116909521365,-0.7241584006946465
-0.2569178768312901,1.8104752304061758,-2.2867120348552286,3.018411984657593,-1.2290428264789854,2.072860918654748,-0.9484078299701969,0.2722765359068386,0.1281278805028013,0.728316721056631
0.1613845317169056,-0.17828468194116087,-1.9937012081525112,2.9771170149495125,-2.875670516499631,0.9202105934491924,1.1697901982620504,0.11999186576353478,1.121910353897032,2.0852346124715546
2.9023019918593147,2.1355871276031326,-3.3335301739915026,3.24984779406065,0.05136443104688648,1.5397535417091626,0.2044393554516834,2.524461566974455,1.3753345995651092,-0.5408824661045071
1.4189261689240342,1.127584967427076,-3.4268936108723977,1.426637750319507,-1.2936557395371093,2.4783796686968533,-2.528300002117881,0.3063086805196345,0.2403641832247131,1.1836647188476772
2.8268448671557334,3.2203327820708934,-3.5515293475483913,1.2451909642805439,-0.3810845925107921,1.0676519990228717,0.33455326845521804,2.6889472451387264,1.3808446701606907,1.0456742454877852
2.0871080630213714,-0.19388652167200704,-4.026215716887622,2.751747534013861,-1.2424869795783575,0.654450591232288,-0.10339816415722723,1.7729293409647824,0.8036752479792808,0.7562630811920577
2.5167989148858387,2.2904662741881556,-1.0862847140312892,0.7184887709934085,-2.1208333591798976,-0.8586868558487517,1.3883050039611564,1.9088534548206493,2.4900934650503697,3.1529712660365865
3.0169074256723283,1.7718777640631007,-4.030762596414814,0.26189173974610735,-2.629412856204872,2.916816812095804,-0.2612748079570531,0.3777876484538324,3.690886501696655,2.056134762288712
0.10903971619122488,0.6879339793302275,0.5622808885327819,-0.0012317980350750046,0.8784093223860701,2.9240152025919413,-0.4471091285764438,0.07705156503539601,2.0049889571738864,0.20100757278026515
1.139228558993088,1.3402491117871884,-2.498028900172709,1.1591148730092224,-3.1579506727314195,1.164963926021898,-1.1163032050727437,1.542997490006299,3.551712590987731,3.18725040796153
0.6134120477812925,2.1092266827101294,-2.5176889511605465,-0.18026014467468676,-0.8968840117247219,2.392515542302469,-0.7901557056747145,1.7588386363525872,0.07208907739455328,0.5249453651891414
-0.8238549806628178,2.1614368378116704,-0.5575372923608785,0.02778655030899113,1.003399537165197,2.1259658182997234,0.7787112002428787,-0.6960054578828242,0.038312301196724435,-0.6545705431342885
1.8347865937365446,-0.40374389988503656,-0.889920359716027,0.7547023735686158,0.6975122698435261,-0.0756939060757077,0.10515904200682737,2.220507336729433,-0.02958692916758321,-0.38367558355187015
1.4886784709297989,1.7593518717116736,-1.0467111945098981,1.202687793748829,0.7656468979782924,-0.6303192620757267,0.6541901802344915,3.788355037330886,0.6676963904584079,0.3764681994799688
2.8312094647328236,-0.2599886641564815,-2.860671995242139,-0.1155346880644531,-0.016007483829175388,0.5115586435764508,0.9171362425524399,3.210931584058157,0.11919512380991708,-0.18436089122000876
-0.721931982958637,2.832780425459113,1.2400749570678258,-0.6224064661522706,-0.6426863550200177,2.852350610638812,-0.5837370115661786,-0.30519463421312076,2.441123011699222,1.411749358787163
3.3834499879156317,-0.8679998173126287,-4.609645452498219,1.8993541807621601,-0.37375429140266014,0.9054997703821239,-2.4166411605202742,1.3474103071069827,0.8985474743118576,2.3344728017558105
0.851890255310447,-0.5283399767932958,-0.5504327593362566,2.023116772125105,1.1979936565774707,1.648449637753115,0.2685483942041928,0.03228315844063659,-0.552419364588249,-0.6180689059065664
2.7319223364936027,2.8681142481467075,-1.5707818347356337,-0.7515661074707898,-2.094268727151646,0.18330439441024282,-1.111075333499343,2.475780031487188,2.2911064689683776,2.89463238749828
2.9672925968014345,0.3604714212907829,-3.286110860364419,-0.5497186594672276,0.3730416873302276,2.3335500255719874,-0.6065922914903938,1.7776351510541555,-0.7131560629494412,-0.6771122736143711
1.549967844024942,2.348683482596855,-2.7986068117568728,1.8113469669763593,-1.561780408737551,2.6045903340341754,-0.29657603016367495,1.0841258112792342,3.252424973704579,1.9575658700557876
-0.40491073452643245,1.1818324475462343,-0.7937440915097405,1.2404792662881197,-1.3308912434086129,3.3422327118684736,-0.2989559821997142,0.031802082412619864,2.0203320590053853,2.2489958836080395
2.1218602748135655,-0.5735871747017243,-2.6153963427439266,2.110917618564136,-1.780510385838919,0.8067624620682152,-0.7707271362468958,-1.3027106996117244,2.0262822995984804,2.869825212498133
0.7423890027026967,2.342282026744232,0.926442654458729,0.5571492797555522,-0.16984460930706183,-0.8864979561894243,-0.9630851391533054,0.24413573071352906,1.2265618986669125,1.465425899849735
1.21898404624383,1.161651943368292,-1.7189406781309913,2.9307747135705946,-2.860931317556631,0.1746072304427726,0.26430341575813077,0.7320698295210496,1.2330258700578647,1.857184899069801
0.12002652098421374,2.5739235130022853,-1.258300882918102,2.7931208253424975,0.4433153437041867,1.635630166410822,-1.318610811089193,0.6362366280417687,-0.019745147928312112,0.03259181382889076
3.026518302053425,-0.631289732529645,-3.203999530908085,1.7465847024652548,-0.23017808912633506,2.7352385573795357,-0.3349538333495403,1.9874769298576624,0.6589519822078365,-0.013830861949277184
1.0454009550655754,-0.8919288306670909,-1.3976300059279163,3.343543917633445,-1.0832906946052212,0.5968294707235009,-0.620224815228634,0.7493817645139786,0.45721564816202953,0.1702520951598696
-0.08044212277814788,2.7686349066433604,-0.7885502148087727,0.35997354771489,-1.9279489719734744,2.026584193458281,0.1072365041395393,0.036194098128609374,1.01863881351205,1.8042379546587113
3.2715186395568994,2.7908010095044626,-1.7560687371340635,-0.8919016960388522,-0.30065402994572216,0.07176429670054318,-0.2940636888636576,2.2225446402281004,-0.11808742421404717,-0.4401352224936329
-0.7889555881731511,1.1796067399220624,-1.6193720434930667,2.431729659202498,-0.6329537820858646,-0.5100055285017593,-0.04879624240208816,-0.0519199603294377,1.7150240466516289,-0.6438548618617769
0.8656096108431459,1.1775013829981336,-1.759601705447186,1.6789847776427065,0.4137811458428134,1.9359484133409772,-0.8204566896526291,1.5869230789385027,0.3148316122866519,-0.731183972516294
1.1434058658095712,1.8644832353230427,-0.7138946273650687,0.4547487268612489,-0.5780220923023107,0.09166898376290122,0.8264782895137571,1.7230445057987502,0.9628340127787357,1.424426769522713
-0.4788688556819418,0.1065705235023926,0.584928463886025,-0.7871301595153913,-0.10996483748131299,3.2408434428042288,1.3617328237176938,-1.4549892569824179,0.647680527222066,-0.17308090577007607
-0.7007370525400469,1.5092251823091427,2.474770631122798,3.0750133295779127,0.2971956272072924,-0.02543303417976439,-0.4172695103994124,-0.9013832307527956,1.1152743662870177,0.8875553579971487
1.141661856533755,-0.039880878605317416,-0.2983951910498418,1.2551819865467344,0.7144092954005725,-0.30200459759564524,-0.03994222782072532,0.555426361172062,0.20983069969628942,0.387026575701356
2.6747115335894076,2.3950131980922658,-4.233860392940726,0.24661004397656128,0.9796959408423286,2.3887030000788134,0.7278214285847975,1.3307655296338057,1.7305551767038372,0.7516521733300232
0.9907867757191,-0.8860528551398158,-2.5435800010849765,1.7849238724252081,-0.6232538596520228,1.9808769434473974,-0.20958633569890026,1.8650917094941253,-0.23814513675475601,-0.3630770203055407
2.0302355138289796,1.741348283219084,-3.8691047108169405,-0.8257697009885037,-0.7672730847444761,3.116333036001837,-3.1178050132707256,2.219645247362827,2.012157362497928,0.7834910831363318
0.2520615209436967,0.3626450146870004,-1.2468818674663948,0.8573548896827898,-1.2708506908998316,0.9113975727771535,-0.8357773303527058,0.4894002129932671,0.2446894661695227,1.1002112837910016
-0.4143341737428433,2.970378027565872,0.15190638529148648,1.570975140716282,-3.933262798009239,1.8508786000029431,0.59499536170229,0.9104836385685835,2.9398890669636524,2.172626904957293
2.9791323136011165,2.8879555974703583,-4.755222722657822,0.11181082250419894,-2.892465172558758,-0.9648297297396881,-0.19704971273679758,2.8011050283677297,2.922934927074444,3.4537695485982205
1.3185552556464364,0.26187684228037766,-3.920867543868401,1.8241266193970618,-0.545760104894684,2.725450107319124,-1.572327846668262,0.5844416176338125,1.8692358414625596,0.48288587358684665
2.1507685734840143,0.8107135776417789,-2.6820600368525978,3.0226312798381416,-0.22186571501501648,1.1369837943082572,-1.2097323863917164,1.5921569157711208,-0.09449506665019342,-0.6637747205819038
3.02306380596547,1.0805907948494928,-1.54111380538315,-0.7619655509703787,-3.2823098168934015,-0.9293545661645652,1.8056420967418922,2.6443436152918736,1.4767087478385825,2.915099679932323
0.12628499731727705,0.8623939394565432,-0.8089420774158553,-0.45863642775403357,-3.3740469608495505,-0.3353341314598556,0.5730493414610922,0.8251270645068246,2.995555657492148,3.190517871453065
1.1495099373788094,0.015838180705785243,-0.7173219592738165,-0.43110441643135755,0.2949180691321507,1.0317862876491386,-0.11767616242569863,-0.12049095736772711,-0.9582806029989116,-0.674708557609327
1.0438614633835948,0.6304383516504306,-1.3416013046108362,2.0609898795748425,0.7050067964824026,-0.8627063626472347,1.008225267538184,-0.19272048860732793,0.5604808832393386,-0.2168807995623484
3.1581006090550057,2.815628786331897,-4.599343527168685,2.2994631351537924,-0.6346696422678126,1.5222676271462454,-0.5712468814442838,2.0283463421716754,1.9867205502110037,-0.3838951600017667
0.33639256638031,2.3177177374402675,0.9569552623221959,-0.2406358229783967,-1.9372925315854521,-0.0836745266670369,-0.28101429563405605,1.2167254643511027,1.8422424674205655,1.0898657764917021
2.7500435404902452,2.348407872500213,-1.6654993620477574,1.1072199965230856,-2.142019710430421,-0.8927573315608043,0.07394505596766175,2.5311694320578684,3.1661061665863937,2.46653451368317
-0.7264040226775785,2.685042330608108,1.499834829860541,2.689948982290999,-3.3014989086018685,-0.8324370157957971,1.2044477702784606,0.11556640272247443,3.3520687816030046,3.196721274444969
1.4745984112436132,-0.775404840238362,-0.3634183949587446,-0.70130671454309,0.09509135197156528,1.4059282857495643,0.09851960159705278,1.8650387489341285,0.9905434481297819,-0.19165649131625806
0.8515011001078949,3.2566386355735455,-2.0727882308196657,0.2898916579613955,1.4515783077233382,1.0842259998999788,1.6047893403317333,1.7486719833827833,-0.7741099859984688,-0.9602107837792735
1.923015228021994,0.8270273048951509,-2.681433095643227,2.3383798286632547,-0.8709396030122707,-0.25973252387902845,-2.4089645430685693,1.320088846161976,1.9708870863356853,1.3303982508832939
0.6659830865036644,-0.5427404993892345,-1.1826632934805295,2.8551824990584085,-1.6643834702386473,1.2987587498292754,-0.5041312640970753,0.535839269266125,0.7447475535352152,0.365450974047153
2.4488020211118116,0.6676362319573401,-3.436022352330317,0.33081738935994354,-1.997776373957019,0.7753405685558832,0.6001658094548149,2.6214577065087936,3.3014323734434354,3.402735165894976
-0.5189810565139108,0.7486016361639074,0.2952679641479422,1.0236401638214296,-1.4965494678063318,2.6006871984275,0.5382021526586117,-1.1915800892335089,1.452712579569215,1.1134706315152654
2.455603311798971,1.18563849455153,-3.369484033977376,2.098911996217614,-2.0259900961419928,-0.10409099272307354,0.6166179451547313,2.3859912620870594,-0.9662724201427549,1.6255145771103812
2.8524845540115296,3.299970984891991,-1.1834313095060227,1.9026962486245096,0.35864837229268637,-0.16456334108782966,-0.07647559077218938,4.443459747820621,0.9078724306381969,0.12757386544681082
2.3851008661957933,-0.5315449871371445,-1.4751411616844285,-0.3335520412944173,0.6775570983438101,1.767489995004222,-0.17497491067308393,1.3853974563705118,-0.02370163309023532,0.26296557208615967
1.6055810495479008,1.175385843289824,-1.2354986356901443,2.8952486423497814,-0.15652064539890018,1.9956561955045187,0.43168364933781406,1.6481271429674098,0.1882302818961153,-0.551155873888632
2.478685156482476,-0.27113643135456145,-2.420194508112784,0.7357363296749093,0.3651931329541753,2.658031403405082,0.2967610112580263,1.8554495107859397,0.571315010271067,-0.5264830998336671
-0.3608614547356347,-0.4231234634722021,-1.2261630514104305,2.5981461758782936,-2.743724347386367,3.158090696815955,-1.897205920657172,-2.1203972932386024,2.1908495664796637,3.151942255500253
1.8864541967961435,0.6487086623063227,-1.924125291047527,1.890550136044875,-1.7876819100400718,-0.6843502175996505,0.5489506277851571,1.6386509156253617,0.38602247388295,1.3546940409844757
-0.3456539078060614,2.3416187360941216,-1.7523451579390268,3.1327472812517794,2.4526988797479703,1.4796912487611689,-1.25887486297213,-1.2393335705233814,-0.8700303441085215,-0.8130632232074564
3.1783316660031105,0.7745977634973022,-3.9445682902706602,0.635300744246809,-2.911094187546894,0.2975704758267035,0.15809239628920732,3.4831249757078995,1.0153130797442929,3.0291110804952037
0.231436912433435,0.7104165321957752,-3.1222668493725814,2.8087871791017434,-1.790687036177387,2.788100455992222,-1.7211360459947136,1.568039477127405,2.2384786454888053,1.7009440807056082
1.6937791930977824,2.6577820977795446,-2.880718702041956,2.3705125608321396,1.0472453195274611,3.135600670388868,-0.33150396751692346,1.2156718781862978,2.678651814902861,1.2626195023628615
1.8177713485148708,0.382665018531509,-0.6590161818949698,2.179478947964353,-1.524243310661413,-0.9315060710399969,-1.0792100794296997,1.2438731282482574,3.0519283802876034,3.170705006704729
1.6118073550099075,0.2443959274870684,-1.1016724974764436,3.0889692320431683,-0.3716758629723619,-0.14539842715981055,-0.9603013028599383,1.1696339766412054,0.5009941619763759,0.7508849533093833
2.983245558192859,-0.002864262322101463,-3.2893215568483223,2.0710409068352007,0.4026012244142817,0.5808237243393872,-0.5123503018443031,1.8266726159354358,-1.0983813587332918,-0.8005176199335559
-0.13868609600369552,3.3021004334235764,-0.4802729938408222,-0.021793730002069522,1.0898765689831678,2.740887903906882,-0.08971782791756835,0.8099004191679244,-0.0033682977511548806,-0.5063552429190976
-0.5786402115094271,-0.879564869807736,-1.2654819055786688,0.900456180862411,-0.4626371914756535,1.8693020717545612,-0.37447251900003553,1.5468187224121757,1.7952785881088444,1.7972378141670289
1.8200629892723934,1.5942215227923042,-2.202885713294168,-0.9771597034264045,-2.121410216465237,1.9556156524727624,1.1336429349893098,1.1380524871419135,2.0345409211734764,2.795370407640643
-0.5113171099218177,1.7648508817131465,-0.6672420903942224,1.2053198183854086,-1.8454035919096308,1.8924697712345,1.1643789071317507,1.58866863285021,0.9315985623414227,2.331310373669305
0.6102008043506086,-0.19865965722823786,-3.349370271147521,-0.3968928537193478,-1.299487453537942,1.5631165630912283,-1.144727022538073,0.5227907059587629,2.7458614140621593,2.2740645499590095
2.065449012884525,1.9549127616681425,-2.5834824989371383,3.02285796065624,0.5217871537474355,2.758985904963417,-0.24271304719413533,1.0043015360914782,0.922196349645708,-0.16559700313073755
2.496967372709079,3.0040844023032696,-3.372740725456302,-0.5701421187122204,1.5717863939241774,3.455696878672586,0.3687584685267283,2.8909993481307565,-0.4869556642200506,-0.5766530006700934
3.0081122463655428,2.907605862494997,-4.6314913654276575,3.200399534579379,-0.9955113657161114,3.049112704323372,-0.4813074904173291,2.5541628492648476,2.033571439050772,1.4283857544430485
2.002486042978424,1.3355722027111305,-3.593844105766574,1.7922760895816565,-0.41536712157018213,2.917922687599779,-2.118157829626608,0.9425462588408736,1.1869303142335168,0.5946857130639729
-0.9965523003558965,2.6014279299022944,2.307774196635077,0.7226423580099517,0.1968735200224252,0.3453405009530963,-0.6701037043520477,-0.6500964608082442,-0.5003920686442196,-0.435653779310212
1.6733205790279428,2.8677261548181954,-1.510401440885221,-0.4766753741503388,0.4956107680653337,1.2656875580460403,-0.4210423582933496,1.1823647167019538,1.3484004003716419,0.19759326374756192
-0.6273405975421908,3.426951064909616,-2.954099821282713,3.331638221029105,0.5929010888183004,3.2646922790528663,-1.384035140110776,-1.3710730835152947,0.33993786117131436,-0.1889566921322714
1.4326626892597183,1.8177575352418964,-1.5311636720871813,1.744420796057622,-2.6372315807127182,-0.27716808400481874,0.42546495015727204,0.6321919087696339,3.895750354612357,3.2295456211335
3.318307289536097,0.6579729795596125,-4.777980843881556,0.06146401174010441,0.014701004138414808,1.1384076324082955,-1.0146316375955322,3.037359489918073,-0.9151371225913373,-0.8678402528213378
2.386207021193208,0.6883962783763649,-3.1550106905880932,0.4541899015540716,2.1518176021208806,2.0347926438351784,0.6489242060428542,1.0090485318795157,0.5289433736605693,-0.7140878266653503
2.3081391010244188,1.242258633619107,-3.1163733727198992,1.0964887891077946,-1.0312249722218203,1.3895037728417026,-0.033376655658694375,1.9040631789855458,1.2248031409333797,1.4158273398930499
2.0352633728742515,-0.038197154804332833,-3.1686629114946645,-0.0700670548925546,-2.3303335941659524,0.7583723890635781,0.504056285407092,2.2119380754130087,3.8237338035130404,3.1653887935092975
3.437844894385843,3.3950017617260277,-4.717868166798156,-0.5941616058785725,-0.026691246714994576,2.1227106227494383,1.418420076764117,4.097083211010556,2.094129317393111,0.6282571477322512
-0.5039170474882708,-0.4610851417560755,-0.620228758953103,2.405516954119016,-0.3601658094885802,2.4579390472318807,-0.4543666246880677,-0.920939125384164,-1.9793693123906317,0.0430152870967313
0.3690067896511966,0.2852648613778108,-2.4240633478535156,-0.05612541932463322,0.8134182274321381,2.2539584002507262,-0.7139634718623652,1.8274868206448158,1.7414382369198695,-0.7556349474509585
-0.1079671233918632,2.5558009801063597,-0.7521331615018247,2.2814723567519,-2.6734238085331508,2.9106096165015876,0.5206856264098234,-0.2759327085443233,4.006021445724003,3.429638929827928
-0.1500846677151335,2.5419784309862106,-1.848695879339942,2.265788842614004,-2.0877340790752172,1.5073980328237484,-2.6546718029475587,-0.40660889812793355,2.388684506590449,1.9271353078139706
-0.47260576395550813,-0.5052625354936053,-0.40333297879642427,-0.3918606387707556,-3.9111657061026204,0.5311699696402945,-0.05024248555867911,0.0013536888858051706,1.8409693138997192,3.3672559007919984
1.4965645131146208,3.461402099256751,-1.0815815061184644,0.45014529303463013,-3.2266307285189257,2.692969731126418,-0.2902790129279628,1.076580473599959,4.96349071619822,3.3093160531657215
1.4342005637229955,-0.45528752617908486,-0.893924277157562,-0.36937465650705037,-1.0588901042070353,1.1090200789505076,1.018165759607069,1.1117823170272385,1.2961934545492808,1.9082026519582849
1.4224388504825165,-0.7970648721967301,-1.8100162529211652,0.7438558623264571,-1.7560189084022944,-0.8348668816412217,0.15934947423639145,1.2642085434072095,-1.4973909807947035,0.6410486730927962
0.31028311757566174,2.956729496288457,-0.8830298811275402,1.6047176247281247,0.5658619505783448,0.48741748608537216,0.453072634645312,-0.41176210837286475,1.3387524572008993,-0.06920302874326034
2.072171948187628,0.1665283231175001,-4.000369938329017,1.1435452605262606,-2.903091102913248,2.547193561804945,0.6310094814432953,2.6361493248191077,2.5916544141119044,1.5111659424505848
0.21938520437050313,3.0563307128035184,-0.7088211395100299,0.9485879997481808,-0.7989829965479839,3.2384335883541846,-1.1675571568006882,-0.19578132508865884,-1.033212541922217,-0.22459847843575909
3.352378042864128,1.2928528568052116,-1.9210431036491529,0.36189208214905744,-1.9921788579761646,-0.9266990079457429,-0.023620739229564924,3.556158214243906,0.8021093556684937,2.046885755786564
1.176096684259829,1.9137921496376338,-2.5628481108198793,2.924078736342634,-2.7182870912572787,1.3306272143013924,-0.3109022260361409,1.5332135077238216,2.2586744608167586,2.7331209004360972
0.9704160390616317,1.9803150155828795,-1.6980552218133007,-0.6083797643341357,-1.6507990785100686,0.36986516008564796,-1.3319098116962669,2.142738504102689,-0.357216066046645,1.862920007345592
3.28767640835948,1.068863286180076,-3.4615014741316323,0.8168735212639946,-0.3901528856386512,-0.29682744991969345,1.4485080712616538,2.0163433566368054,0.2969555114456679,0.4958157770520695
0.5912722650422235,2.9005220588932485,0.934157967180855,1.0457607102894482,-1.2705141213476414,0.9175157540740653,-2.7899047105008603,1.0008745308837432,1.4425457615791872,1.2714675398061446
0.04381299358905322,1.1292711049889363,0.37576808691710256,-0.3668335904225315,0.19643666280732586,-0.48019621561969195,-0.44852207056250154,0.6869640263212897,-1.9362203342773439,-0.24629346935006846
-0.6916823014956284,-0.5117899518269079,1.767143610116053,0.9136688639929669,0.15741143596391277,1.9484504606032398,1.000239838798725,-0.35287608962979194,-1.0562750036889823,-0.7707368826392493
2.6345302193532385,1.4737970453367248,-5.249429129726801,2.128757622091316,-0.279526767925102,1.7620007862195446,-0.7815536631459278,2.587413589937021,2.9186945380436593,1.3093372013398668
-0.36196080571858025,0.7244007820457474,-0.7606302009975164,0.08399686558843533,1.623152885951057,0.916849980382912,-0.4732547106392821,0.43835447300832825,-0.5372025114388733,-0.7708172829201707
3.388770195526491,0.3061037037031451,-4.189985035353853,1.163350931843095,-3.6392672602527956,1.2401733089899691,0.42525575207977384,3.488979811003806,2.0521564736527704,3.299943818442304
2.4555400954983337,2.7248351674294757,-4.409366312590887,0.6129401206097898,1.6774832187400364,-0.3813065853651447,0.19184662323510204,2.717592670181596,-0.9813633147505229,-0.29388088833418824
2.721495645671801,3.2383242577651004,-4.408705273630335,1.0471747538381053,-1.0690494113721287,2.4896579041947553,-1.0501253161946846,1.863024576807227,2.0461795419224886,1.4689360586454123
0.8176031259679812,1.4515230275357016,-3.238474026813804,0.8695050441539733,-1.9560239139892075,1.7392230414852423,0.577734902227486,1.4376257935240546,2.726071458314676,3.46075142700753
1.3829919407532745,-0.9167451999548202,-2.1969076796436218,-0.026718628402119582,-2.801024731379387,2.8147666981057005,-1.3205081793322477,2.7738569047653763,1.536329909983142,2.485709322218892
0.5843865001919031,1.4359103326950566,-1.077028374480859,-0.28628222824329386,-2.0892957088438733,0.8656991036404196,0.3361096406768109,2.0782956963642705,2.5096426633189433,2.5284521129579622
2.2377253471626544,2.238750934053847,-3.7665859315893093,0.08758076410543314,1.7006253719566253,2.116105350924617,-1.5428015880962245,1.5017629164040558,0.8278222534024072,0.38953414501863226
-0.8339605173673361,2.8580256492798264,1.1671380561406692,0.6763225436318854,-1.8277678288078874,-0.524477281411325,-1.2729459877113316,-0.623807712752865,2.022215342362318,2.7093309347290044
2.689256431868182,-0.7595083391914434,-3.031997580945641,3.114251206412474,-1.4402709684950579,-0.8418992199869502,-0.5848143455813118,1.635084364286579,0.43849175005869434,0.9610437779772478
1.5086286762943426,1.6983179277599718,-1.8316557657581605,0.0410420593560159,-2.919974367296768,0.206108848416235,0.2683364375577318,2.198278205222937,2.2832498321944725,3.3770960316945065
2.551471968445107,1.0047313071311104,-2.593542902406619,2.200536083846687,-2.1013686358909274,2.8541520527726036,-2.4084669114789357,2.046423619620619,1.7010704126385967,1.7510584497912283
3.379009113059227,0.6256482579774483,-4.135301527948565,2.3374696465632474,0.6706635907404737,-0.4576765996863781,-0.019651190702190166,1.4457834786007484,0.715664691567653,0.18904734601555617
1.2332187367252958,-0.6709536286378224,-1.1446950297600826,-0.7671499660584531,-1.2964547314275778,1.5424506352111722,-0.4574471222311322,2.4189772624060843,0.7329647174487416,-0.20725090457861461
1.6476713357462236,-0.0314287110682433,-1.8424514935819327,2.773468508842099,-3.0731001624556153,0.5418469017254075,0.8129653599734812,1.1314735530728701,2.721503759309587,3.268556171170103
3.4276235662911283,3.407501765952591,-2.190319928461998,-0.4472912822558823,-2.4320219743377276,-0.3093704639200304,0.0669151686202666,2.988063858776719,2.6469198996041667,2.292672309732929
0.12920596269990003,1.1792109875485122,-0.028481519452249027,0.5111178514225581,-0.8397378773489035,2.2811466733712047,-1.5988705099753613,1.6409540817732406,1.5591171447235959,1.3705059739095882
2.8371371432108297,1.8367035507464413,-2.863113845590529,2.6999640761788024,-0.42546615098667073,-0.19042039986526982,-6.448309529533536e-05,1.9801430184666466,1.2733421050937732,0.10576182608299756
0.6357012861406695,2.8788528057528904,-2.799809651408849,-0.7045591294626996,-1.6140848945044635,0.38334703383623636,-3.0855182942715174,1.2380964415502735,2.200150135202742,1.7362322503698335
2.8161649779586555,0.6890538325425783,-3.7744519413817104,-0.9609854790875965,-1.9260686106876241,2.073062424416677,-0.6602745812351533,0.7508766532532782,2.991780054404785,1.5587955502955158
0.10154226932630928,2.7953288770284312,-1.7552979511910058,1.9515278096822533,1.1837427445524082,2.6322170210750637,-0.09852506134040123,-0.8945733948224442,1.99335919898213,-0.33160474794613626
1.6649219498814767,3.173361901035504,-3.8434958427465817,-0.2999866949826493,-2.352289471584813,2.765447212915848,-0.26688040200848107,1.5577111658682783,1.9139783560556074,1.9357219931718959
0.24965250411326156,-0.9937480312502355,-2.2993718677374044,-0.9564112932997916,0.1457004945398232,1.9330475578466486,0.2793042963352658,-0.1607341447318828,2.2996484558010293,1.7292851911405411
2.799109128685901,2.7873423586260215,-3.247607216463639,2.159231896831782,-0.47074912951519543,1.5682948180425558,1.4149233395914906,1.8354609860272872,0.7573355973856318,0.7414323063481953
3.360042728598197,1.5516230599647542,-4.128684406557566,0.1584537872339038,-2.6569260281178075,-0.03875277084418005,-0.8568901062129273,1.8505285991981741,2.8372852899742953,2.829737997031901
-0.38885906664304737,-0.3635413915722804,-0.17870174899875846,2.7651978493871066,-0.21759595885194194,2.9478204071205325,-0.05033477249825818,-0.005440735059679671,-0.4164353886410677,0.06691602503725713
-0.7329463615103783,0.6868723707939559,-0.5224001726965979,1.4639917847489654,2.1777542926298303,2.5040002038590257,-0.8114944418953447,-0.2933696578738307,0.3260073601032407,0.06511806932800956
0.9579257518913755,2.798373033635379,-1.1736042365253723,0.9363174947328985,-0.8161766413842334,1.6103338685225004,-0.027095758855862552,0.03857174612223028,0.7702226166184205,0.8246037191278928
1.4919319600907572,1.4910687583138191,-2.8048101464733097,3.0289570117082034,-1.3246161764179867,3.4293701244991937,-1.3841487227618003,0.1353336252278887,2.9070150308222513,1.5083156013259158
1.7605956688638424,-0.5582533897432174,-3.0453222958826776,2.7552040986365434,-1.3005011000875797,0.4211166813839431,-0.6726305409852734,0.14403086702805248,0.4688562080621438,0.9037276311524924
2.739600505611841,-0.7739837098828759,-5.3353898728286575,0.29092771750639246,-1.4360994639438691,0.7387042409888771,-0.7569197492547382,2.1468903758022453,0.33143229964631676,1.048626893696544
2.8238709278592498,-0.3928383154679598,-3.389325901966181,-0.7916943810667598,0.4381521723735218,1.1684065979805172,-0.3552708635462157,0.8968450103783109,-1.5626202044569713,1.109187514194574
1.5731841384390246,2.115292611500134,-0.18539246084562808,-0.6439686458917286,-2.310175506051548,-0.10897134648378326,-0.5728973524496682,0.016729414412183726,1.5211811172170688,2.4845390811567647
0.889643118165643,1.0199845140290509,-1.9857111826844314,2.266664864787114,-0.3777379216194801,-0.6457741181860175,-0.4670539786312021,2.076412723772975,-0.2096589243979713,-0.34879769375431957
0.9443561582510593,0.3025982157502276,-1.4433056895961718,-0.49509928839443484,-1.515252109122935,-0.1450782313260407,-0.15210020092848486,0.2447947620098458,1.101507705227266,1.9632607583138886
1.161586612980043,2.7195717550042993,-1.6851440622209282,2.5041207200027307,-0.6638903929084895,-0.9385197184925133,-0.4474274159287824,-0.3558019943520512,1.1638387456597445,-0.30712151817132116
