x1,x10,x2,x3,x4,x5,x6,x7,x8,x9
-2.2056043072920493,3.2175749421044095,-1.0897214208407313,-0.43744668016603677,-2.244935875591299,2.294895079098267,1.014180602828474,2.94691222763324,-1.6132672090600058,0.48543497657331747
-1.7773413308834844,0.33832252577405697,-0.5522724779390462,-0.3805647280840073,-1.4421640465563845,-0.1509044537314343,1.0414816819553623,2.4633406078165367,-0.4833403279751234,0.30350882064815177
-1.7364618485695886,1.0154184511449715,-2.381591136198804,-0.2563371959625943,-1.7671359678001224,0.22862930109515459,1.2565501363738776,0.8150849189822345,-0.9738536405073905,-0.5348281651698329
-1.0253820554636683,3.034845250736981,-1.0784548961391245,-0.10864207031132736,-1.9259783125034786,1.2618349808836982,1.402521347426434,1.901414107862109,-0.3104105935940994,0.8000376494595192
-0.43632827103914085,0.11766558346708744,-1.9958066023362098,-0.20742333058260243,-1.151325651192351,0.8936240574186104,1.2348311216319257,3.118067973794007,-1.352143309411106,1.1554851699017075
-1.1405213377925105,2.645748478272872,-0.7387352974458312,0.01705750797276649,0.04324031164236481,0.8363929058819786,0.08711412113878768,-0.10512228315553018,-0.12133670122262638,-0.5514227485015254
-1.6499893125307314,1.0493728984407285,-1.7566775296218389,0.008541096922999536,-0.5885117996200544,0.9778833832616036,0.47860908741391583,1.4746544707948788,-1.9522998831728413,0.23970854548373444
-0.37651953538041316,2.8223353799927655,0.6403710073106481,-0.08892431476242839,-1.2774344183462545,1.981651850228491,0.358414171743749,0.851537223420461,2.165374277704069,-0.9016777684213482
-1.9353933185289665,-0.6686158705275818,-1.9423172539363307,-0.08294090450804154,-1.0998305212274502,0.28251655085679306,0.27548589406011353,0.11677748452360137,-2.077618737676823,0.5857517107862049
-1.4210744244047588,2.396616372982057,-2.082247598281054,-0.10783908022825733,-2.929513586313187,1.135992409200135,0.5686307729806128,3.321765020639316,-2.264960498939762,1.3550502296394482
-1.2805925121395085,1.8581275608067713,1.1780393590188627,-0.34533673592560216,-2.7247497111623082,0.6740785406963177,1.4416344137692714,2.782386231664672,2.3349734478496815,-0.6558933421438449
0.21938533983789377,-0.42004075553328135,1.1526942865348588,0.2205520666072268,-0.25938567821214675,0.5708351162011661,-0.10100570951391484,1.7934461893532117,0.870662620507263,0.168684135648141
-2.370980922635711,-0.08962233781461781,-2.0915445068108163,-0.22710908494211368,-1.4942556434602234,-0.5269784192848599,0.29646743874455306,0.5991481125010576,-1.6307635067151347,1.645618277823389
-0.19242745188105514,0.28722977015739737,-0.47902426882053284,0.06719976160148348,-0.564770016986653,0.5610879564245865,1.082103981125806,0.40337170869231076,-1.058734061705342,0.6332504475760352
0.5380699764580414,2.033446964980706,0.21201233857210533,-0.1463401111652174,-0.7267131320206196,0.8712251230361496,0.8981235221039392,2.083170331207222,1.7026128093037067,0.1508183402836223
2.3871266377542137,2.4983443332611515,-0.2774267203600742,0.1793441905274902,0.4012321979228229,0.4192551296669091,-0.4738293435089633,-0.9170577147310721,-0.1792025851875676,2.287957223026999
-1.9847493540870578,1.1411229342434752,-2.8490862185393535,-0.2455451483044774,-2.2445416407645444,0.597956369770357,1.043691788420019,3.1520324879282207,-1.2244735966234095,2.2745499607775415
-1.3300067919572098,0.17384924590235995,-1.8798153799439585,-0.28982123584032027,-2.299692866412443,1.0205339796631439,1.6455264969390324,1.622336264761504,-0.9848564213096184,1.7097956786997606
-1.9550248581802636,3.2604616479434574,-2.4575120630674827,-0.01432520453948904,-1.5755621536519913,2.084795717850216,1.4973307015856478,0.44174851841573193,-1.4178646203483207,2.7251212718753317
-0.4807203723335851,2.9189506646406835,1.2394368249476244,-0.02449037653092068,-1.2847717868405253,1.8868370252722468,1.5659475850423938,2.5864938582979025,1.1054019857428954,2.978091826571103
-0.16639074097277562,0.180591347620086,-0.6491131581412171,-0.3518192074092704,-1.8771504526487741,-0.24631302594225768,1.8852179203242523,1.6708365067947137,-0.016083180380936035,1.9307389367053012
2.065893824468749,2.99270006736992,1.292756287642549,0.0750361862563708,-0.31795580731458367,0.9786022515880849,-0.9958134495697634,1.5506063438449766,0.9387124858987859,3.3353542148618684
0.4477618226274346,3.3612879143571845,0.0008857448187616634,0.26719178315494696,0.12074144491031698,1.1583046147601408,-0.6157496973618147,-0.524102655963274,-2.858248764567005,-0.7017529676311376
-4.607387661590519,1.4252035565970291,-6.254909480626295,-0.47138135538173453,-3.8538836270914243,1.3265426637076327,2.3356161911965514,2.935104828547909,-5.004418527825386,1.4995335815810882
-1.9309024163476518,3.1951843067528403,-2.321574131044603,-0.23661800972948532,-0.35154428632694645,0.6728432150388122,0.2603228035092139,-0.6516902108563016,-0.9581914063168996,2.484550912409981
0.2377177413850562,-0.7530735743668205,-0.07181651688000812,-0.12167090248901835,-0.7404153283101991,-0.083520184669608,0.842923975379545,1.5973809707644269,-0.32018033995394063,-0.352668443208233
0.4779481100628197,2.3616097170074526,1.24778590587697,-0.02177101724602265,-0.7638855343767693,1.0831783238718384,0.4234074708163181,1.8042423172404107,0.7820547933521118,-0.1606023896546659
-1.602289765924827,1.9079615237352323,-3.207384339099531,0.08865824233250708,-0.7921865105363796,0.9900167564742826,-0.08544925810742039,0.9797055955742624,-1.5652403124777017,1.6544436858536309
-1.3821199950333223,1.8106112354931585,-0.45083485634429976,0.06698128069596325,-0.7630965002614758,0.6814810552266716,0.6356970898759858,2.1050989707918424,1.2767910496781356,2.6843358394124204
-2.020427656712071,-0.9313165728751499,-0.14880542152258486,-0.028787468444248277,0.5847904347391355,-1.76708789575055,-1.207492354530873,1.4357096852976223,1.886052986249969,0.9896972970022124
-1.5003048042718734,1.2051682867242084,-1.48080865167376,-0.3943346388929891,-2.451273358546386,0.26360112873138,0.5957492219030298,3.411902853337083,-1.0165477385184418,-0.8204522408379181
-0.9125653900433031,0.06682644933257587,-0.8031793706165238,-0.40407256709608974,-2.8085288945633557,0.3159714075735733,1.2556727600800226,1.5783651795716498,-0.3194942563694896,-0.5122663472732715
-2.8338320515829816,2.5254996280614503,-3.122546057698082,-0.4634107206270453,-3.3144302381375064,1.2204329257725333,3.0419860779179064,2.3578575721887733,-0.9532439226837053,3.088902200445709
0.07618924927489748,-0.37071057567099786,1.4771908065686483,-0.040044595218659204,0.737273852387454,1.0537344513081481,-1.0453445323561086,-0.8644129775873098,0.3002982500282182,-0.2649973404946041
-0.3181751513647015,-0.7322585134241062,-0.8252014903134195,-0.01610174178332288,-0.6501822221569046,-0.334206016310368,0.9353141835642125,1.0624237509079921,-0.1349352006998854,0.3253996169272406
-0.9536391897873921,-0.7713130874364084,-0.11341574397117371,0.12216820679885981,0.21798161455593232,-0.6589358406804786,0.6285100468175016,-0.9183000547547978,-1.620812396238569,1.9160547057811734
-1.800686056251412,2.660694926870641,-3.2676867723129073,-0.1944545537012375,-1.002117923440682,-1.0727664712735574,0.4930919181809896,1.5928560821070867,-2.8674505499162706,3.3317561869058308
-0.34748921858318577,3.3958682329411793,-0.17064322671970011,0.020648772215331117,0.26528482138463294,1.435869518362092,0.46934791120859437,-0.951605725651107,-2.108432185566713,1.0826472743023965
-0.8266937027688788,0.2989363191021297,-0.21787823206305118,0.2201799024577999,0.9705960134767797,0.7003981988935013,-0.27841486519570807,-0.27848459843660545,-0.41770428345361266,1.5104342649836613
0.20057581257189488,2.1468484059125417,-1.4023001299535245,-0.1314484264467125,-0.6039118598853297,0.3629593787239816,0.6832669296849048,0.8619719973289997,-3.746296726250276,2.867337171518648
-2.7960743528827665,-0.45408360298459494,-2.169195777701848,-0.45180658176474126,-2.4412678448162644,-0.6661097439538017,2.0512715540232858,2.824702529685081,-0.545634053905942,1.795317321892052
2.6937095386950918,-0.7282915667916218,1.0173287094265808,0.1107286209572145,1.8537216266135583,0.5927636118503747,-1.8054102822028624,-0.4105490518411624,-0.8277815069161443,0.6581730860514907
-4.236783292338801,1.575194244704171,-5.480409908381903,-0.2897241873566465,-2.716568216180401,0.37054159511159324,1.7892376818572406,3.4004959929283425,-3.6425317291632755,0.9493352586292187
-1.9025334425564235,2.240981057305868,-1.9045467889670935,-0.03712377745195873,-0.9895607746872481,-0.6373816928835143,0.774178398439629,3.150402908784738,-0.36828423076806605,1.2611834681573515
-0.2920506751409113,3.3080366624720536,0.6041126486795998,-0.09051342295654552,-1.9418214187602556,1.9735575921284663,1.772907817998089,2.295294325112229,1.9071843494986451,2.1881456921260947
-0.3109834385779907,0.5649192157610938,0.40463896829638896,-0.06225380332093761,-1.3597929846883579,0.8905267715999705,2.0890350292398194,0.6868630467601633,0.1330154203553745,1.7372782594131984
-4.421685772585576,3.3933200026093804,-4.646845414778839,-0.3460727873322892,-2.9455836150753427,1.5398595882688182,2.7535615814376575,3.261694066483691,-3.7991839977990676,-0.5926372655879748
-1.615270560229051,0.964005754695282,-1.8189783942096454,-0.25449417441681105,-1.7488000624284739,0.12449853239016029,0.3390396455584114,1.7961796010328062,-2.206147761684325,-0.09606464333435005
-0.020034455749264213,1.2951632637447128,0.05006571870137966,-0.013637644896999425,0.33164816802446667,0.6170755667180656,-0.8183158424209523,-0.9633734587310008,0.42722901213283193,3.212884626433115
-0.3672102951560161,2.918894730282579,0.6303096846860862,-0.1760824896020064,-1.4987671921922132,1.1480748352488104,0.7384013386930373,3.4188627989499327,1.6425721055783007,2.872726399278076
-4.803037420954268,0.9414237219639585,-3.5644875472193283,-0.3173506593190907,-3.3536603220536207,0.3021980664031385,1.5697626015079031,3.390116070409422,-2.2514417244309093,1.3523301559010803
-2.932426911443346,2.8240988986427373,-0.9404937626973684,-0.2858844744636962,-2.2338028529056513,0.7296855186937856,1.252050959521128,2.9675854371498462,-1.6381423850728378,2.0314575798681798
-2.2728856689352472,-0.3158899239509798,-1.8434214671349844,-0.09615567137281031,-1.074573661777926,-0.6307026186896165,-0.2867286488776289,1.5275915388545713,-2.8648254502288353,2.1128312137192458
-2.678440147797911,-0.07157923909583119,-0.7761514774583003,-0.4205064496780763,-2.356869832184254,0.16754559113622494,2.347151228554512,2.6452423588527467,0.437622991069058,1.3326161003563937
-3.3458284335495083,-0.34239388470843435,-2.3990628170059423,-0.36119140749708056,-2.3908108374337456,0.3993202937370628,1.2755235180642543,3.0063540319920907,-2.450825741010601,0.7958044733468392
-0.8584965937053389,1.8260676720481324,-1.51423152880451,0.03978830635238623,-0.42535447430218104,0.886709492720549,0.8576280239504365,1.0413144212933543,-0.7374731582972197,2.784896866057521
-0.4088333775793056,2.639806359149094,0.4160058746272788,0.13359494791779788,0.08815288503227156,0.9878531230867336,0.29941635629161834,-0.627337221410556,-0.5110454864215166,2.166782275241176
-0.5326709065022562,0.6542780388777611,-1.7324382543118002,-0.1180490774576134,-0.34202343006320374,-0.2949765521580964,-0.21034659302802877,0.923810122799247,-1.2575526221826745,1.1335019652586276
0.42179078637581113,2.2849815032422436,-0.10252875194754968,0.05681460183868746,0.021212567968749596,1.3974133095822177,-1.3327721655478488,0.8842747212018784,-1.2890295695264524,2.0243202186288065
-2.507025926785428,2.2059819340596007,-2.3742810714568696,-0.23643417198297728,-1.267116092070581,0.3367245984408883,0.6838280423157447,1.143773882485493,-1.465326912183615,3.2243236652819744
-0.21862023267438851,1.300479650321864,-0.5206988449622787,0.04537891266739871,-0.30566270342554375,0.0807698331526122,0.5875171577355199,0.7680053721438884,-1.355106217372626,2.4937754855935816
0.10790984327629607,0.7747093160310359,1.1034433378937398,0.014661397553412225,0.4805022237169435,-0.1657283978631055,0.07442129489558003,0.8043962036603729,-0.7559999816291945,3.024343376874179
-1.720931869533706,-0.7848616941581777,-1.4877852991941083,-0.11505201885856624,-0.7792220963970239,0.18634149585846685,1.502098816185453,-0.20842406926475943,-0.464587748533831,0.7251303132490925
2.1864047856007196,0.5695965562354428,4.819155958064561,0.15242167268471818,1.4301454800555653,1.4328451211857403,-1.8541226738980567,-0.7805310495951092,2.306486501313597,-0.594986274381538
-2.5460028998891544,0.1111440288391401,-3.5119019160054026,-0.16501499741945436,-1.3566857677237179,-0.21551198082755546,1.7992284040994875,0.9876738682003068,-2.522330713103253,1.7590617970483708
-0.28603002214722956,-0.9833752341260444,-1.374295105580859,0.24588464189946524,0.06384937475372658,0.5600169015427737,0.5858634175648314,2.0527980521072076,-1.4910569615236149,2.97973676927485
0.3052110602216743,3.0639565219932683,1.0162371540921002,-0.06019211072883413,-0.5256412426781717,0.9548805279169125,-0.2814310538148507,0.5047099213488415,0.41899888117224976,2.4792937918688374
0.7571160633932371,-0.09095156920999159,2.7799534565797472,0.12678781907770378,-0.03364248558052373,0.04345406865081358,-0.14291976908375237,0.3369391316569228,1.2907930488760555,0.33111822877371866
0.30690395901302886,-0.9476993681121225,0.8077611604963352,0.1311964989358634,0.4344458008158713,-0.8723760627297128,0.21267805220510952,-0.5361010191821447,2.6045223672861524,3.411387132017233
-2.2188809351296865,0.6711223420894885,-1.518356241099844,-0.27403856130364945,-1.7110467502261733,0.6647483005155385,1.1306589872107151,3.2559540175475084,-0.22357155013444996,-0.8166812255345568
-0.2792860863646454,0.17406469742357933,-0.35309526468887426,-0.16486680994504305,-1.1187493093997563,0.10565261632002482,1.0050434300340738,2.7439722873261463,2.0810217401791684,2.107933240009233
1.5518865186800495,1.970030751555837,1.4318936151707444,0.10646905291716431,0.5899845928777616,0.12233221072077796,-0.08984382203491173,-0.9413513687681849,1.8586840106208113,-0.6996266771485098
1.1920576272681513,1.5604756835768834,1.1468269177337347,0.05758945978643732,-0.0712539552168939,0.7723766613382029,-0.09910009349603693,0.22596465421796275,-1.2279029231607743,-0.03767982320965679
1.3331289840136675,2.769251604479851,2.5545714957959467,0.0045570994655784154,0.9895447023947402,1.9637431767005196,-0.7759443689701091,-0.892800860954102,2.095722397836739,1.0059981818633563
-1.9460459103228764,2.40692605041054,-3.158779595359168,-0.27505331125626936,-2.711223930505789,0.8913044885193386,2.0445675727034747,2.6801423053466356,-1.3338009359518619,1.4258232643791335
-1.6868402357424088,-0.32818372758947256,-1.365208824998786,-0.3152819459983643,-1.1259014544206016,-0.3182388625394124,0.3163816453694828,0.7654816870809138,-2.319188964136294,1.216802215325282
-0.29367506674447097,2.1467441240571334,0.9906559197613038,-0.14646061300100813,-0.9068660686783357,-0.8644578989619883,0.29288774977080073,1.533446772731336,1.274729748865482,2.155542216796752
-4.01195140695902,-0.265185793894151,-4.266699185725096,-0.15583880888285218,-2.3847118238858314,-0.6352776651735297,1.6497315283291532,3.2916889088268695,-3.2341778323113815,3.1258250684369973
0.006541714266364351,3.2551416755258105,-0.8551542434194486,-0.02736500228117813,-0.747606534088367,0.8653326524986004,0.03525236829644963,0.9452002552831504,0.7743373789834591,3.342128585937087
-0.6964598978406716,1.9982087086390012,1.5747091090333782,0.016055240384914432,0.40234978485173856,0.7664868502183328,0.28180729548864014,-0.41374343403562686,1.0603802707676508,1.6501569972689802
1.223366647755045,0.16106899426066112,-2.3956592862605293,-0.06812156284828677,0.41626225197983907,0.09056503443820146,-0.7722042185445389,-0.30719162154561364,-2.593658232973807,2.718033035974902
-0.09152429867966927,0.79455297586311,-0.3518123164763957,-0.1465121189801493,0.040866640589367204,0.10935359149821577,-0.9360591536494753,-0.6814795812781129,0.8787612420173677,2.6462212538768286
0.1929490747677739,-0.6954079593854097,0.5900699270637474,-0.06916193145381873,0.11137664544717416,0.268850107738181,-0.22234247099546295,-0.6711993809252236,1.9417223917145792,0.479287721290095
-1.2195372064393792,2.547576993294509,-0.5149895460346954,-0.13087860035028556,-1.9231589116508916,1.0774876479549764,1.2543612653879201,3.3728933624121673,-2.178626253770962,-0.8923531537066637
-0.7647485561165713,2.738668035965943,0.8162766126193921,-0.026512928964661172,-1.895241244676577,1.4994949058395028,0.6607560898916272,1.6776642741785408,-0.42335975651575575,2.176807666949237
0.7682293695978928,1.4143713303659546,-0.09310485355766063,-0.10693348639089371,-0.9755494183119939,1.3765330349223213,1.8450493688074263,2.0181332431395416,0.07723956420183298,-0.21419458235786726
-2.097623809493251,0.9202642004618415,-1.264373653201678,-0.40781739128537703,-1.962740238965697,-0.48910550886249643,2.4082716307238514,3.423149875699318,-0.3669966439061778,1.9919361666866409
-2.6735366844009505,0.3709962053613163,-2.2839368032469043,-0.18258442264010666,-1.0187599732508468,0.05276351231987383,0.5886942391376145,0.6005529699375578,-2.016162300201538,-0.033992727226978436
-2.0358141109400574,1.3272315211077284,0.2537075032761581,0.010196485408182847,-1.6394319445116112,0.29616443051291136,-0.4041652544746713,2.8140410512664835,0.6475685468375064,3.0128041941539516
-1.5732685072130752,1.1468846089918183,-2.444516343251102,-0.16918348471496178,-1.179209941831486,1.2515141654508173,1.6308412570233626,1.5826672876272738,-1.8784717578250691,0.04670685131774066
0.7498379399970945,-0.4756477514620484,0.9802074797813152,0.36052977647487516,1.4098091147493805,0.41463347461211486,-0.08379542521190289,-0.78212990214308,3.902261598406648,3.2449174805519707
1.2988674322216918,-0.18432168167763996,0.13352298491698011,0.09083777358793396,-0.12346019831523378,0.6055353300235193,0.1745969455434193,0.055854042604298826,1.1861440603682978,1.2329183810240623
-0.5862155540339142,2.2441811894981933,0.29076612637183263,0.04121204801661558,-0.38405921728908377,-0.34637350498026076,0.6159008004170159,0.5040778451932861,0.5913327427534645,-0.8148764171682116
-2.488961876656095,3.4339220141748408,-2.241141463557485,-0.15348562026551543,-1.7401781950148638,2.2813563537063475,1.2036757547169674,1.6423184063542156,-1.4208884940001352,-0.09516267667106271
-2.620587787114898,3.460512262584613,-4.530167553703904,-0.028235203151881046,0.06375016658863289,1.1141860840650333,-0.7330061322122908,0.4328360186108773,-2.80648877340653,0.8099470932893535
-6.413259383649033,2.139783967480685,-3.580871661307974,-0.4199923330043848,-3.89005516827919,0.4449268086647991,1.215462301420838,3.1540572093948027,-2.800933501654638,-0.3011777110354783
-2.0185448983848153,-0.4388351870728837,-0.27263582316251367,-0.012771785481653437,-1.6036267011598195,0.7649585910136993,1.4214752853096997,1.5193322296404146,1.0643143313160661,1.7261543135965143
0.8491629286695221,3.3452757104912365,1.402230281396788,0.24097012803581686,2.6155341357688937,1.1418433299715611,-0.8823173292080472,-0.94196593837734,0.9590663045488019,0.5328936816605288
-2.3905055825371697,-0.5462385244625367,-1.7692214454923105,-0.07800991714961879,-0.557655393706686,-1.1363951297980976,-0.08575327125224824,1.8037652008706124,-0.1432811620218829,1.4710050780377033
-2.2543432110915314,-0.34269547339873196,-1.147769975089648,-0.24045105648503973,-2.602529810927559,-1.4102704489613471,1.5583443471728124,3.1886909915067383,-0.3394046587780758,0.6389833039222688
-2.179107491225125,0.11588263575045477,-2.931239028373769,-0.40675841319637734,-2.071848040931584,-1.429950153233789,1.1934077235697031,2.4416893285433483,-2.0418415921114548,2.8326081452258576
-0.778338340668062,3.4448298245546978,-1.837021057197949,-0.18715423577624282,-1.7912845013622245,1.8552122082824067,1.031012631665213,3.414058968848594,-2.0017759685310943,-0.5006183817752481
-1.1004805251882643,-0.8871162837476823,-2.1662934369227926,-0.06956768377260336,-0.41074872398505924,-1.0584328984221372,0.47645284556604023,1.2224223029808274,-0.06238244726397797,0.8758032558767546
0.1267219658488093,1.6516455587775631,0.92818196903119,0.13043734366554496,0.5042161680505387,0.3496828016665675,-0.18627644749124522,-0.21914853040569127,3.1011495534064135,0.04920241767640454
1.0476076342090872,-0.9166228671459683,0.21984399489498424,-0.0388421025870004,-0.6823001106235107,-0.1980962153357516,0.741953569857895,-0.3113407245999259,0.5780635045156863,1.7960446098944631
-3.7317219625102607,2.540263546436656,-4.371239131479667,-0.63018814190429,-3.683185623699995,0.4751616347282015,1.668527917180226,3.4546295797560127,-1.5906736462110076,2.134992423620771
3.0921066416834746,0.16970699923396815,1.7126111982288463,0.05355894973770337,0.5176845049876195,0.4164939842878043,0.36345720540957255,-0.40439591044440626,3.1986617733205556,1.434054938459218
-0.981729283425455,0.9040541777998241,-4.435569083342761,-0.05452443873231793,-0.14459456735026557,0.4184815873704,-0.41274345252477357,-0.7937670508495709,-5.555704830789695,1.5457967902808951
-3.544527334966336,2.3643378734048586,-2.5771007726539197,-0.2936055321964455,-1.9307898594287327,0.02312588056281184,-0.32643613104032526,1.8154205113236102,-1.1952459346778463,2.1923649019827316
-2.9155186550586745,0.3241976120591723,-2.972918478639058,-0.1890158757599248,-2.062416870222004,0.7574503816871834,1.2583568429572467,1.7768684997967736,-2.981508079079784,-0.2727104184914625
-3.15804211171526,2.263954110823504,-2.5845382066368887,-0.19608776152733406,-0.32573402800107176,1.173352639674075,-0.3460042717717641,-0.18456234649167635,-1.5049496717863926,2.0290170420657287
-2.4548412973264786,0.66760492659157,-1.5232306674053788,-0.4489644248784684,-2.2636256028269193,-0.11111146894605797,0.9773784574954804,2.450920491962085,-2.450231366737374,1.768588649628052
-2.2076121709259637,1.9348792626504525,-3.655608624706645,-0.15467557989399025,-2.4874430499741984,1.5473526709265144,0.9989574189026205,3.3794712871230264,-3.0437336634632786,2.8582447105048123
1.5583470513921818,-0.25587545757047037,0.921232422618055,-0.05832062356365188,0.1278268428006505,-1.5754945749328773,0.9032086189390096,0.15688783488816616,1.3742509298644587,-0.6971827649129292
2.552059340924759,2.3629025274539335,2.004951959313019,0.17579098811281485,0.5457839090097746,0.7174075564965791,0.24466010858346868,0.6334454379308601,-0.005957557083362097,0.26868506624467137
-0.018938440745439933,2.2135115709686417,0.37886468451515604,0.08132562390821013,1.0538094764592403,0.3168945247564634,-1.241872332409968,-0.8410724571168224,-0.9228616483409751,-0.6916843654951219
-1.9396953936391712,3.367492806926414,-1.606563807722614,0.04761097404534952,-0.8244990666069405,1.2985241225171062,1.4779550775690757,0.6898078234989795,-0.9575505742762369,1.5367448183329642
0.9393969666198849,1.9946618837257915,-0.8245553843051124,0.026743369786896058,-0.8350772504620341,0.9437154149966234,0.20905013342923442,-0.3933197069462321,-1.047622570607032,-0.3110804631897204
-3.3543488829836114,-0.9573252212906129,-3.3941052729017795,0.03731708822167206,-1.0232532292066865,-0.23467272087595087,-0.2376194917659221,0.5625201167502776,-2.4365468095802782,1.1000059601227097
-0.9759778192403884,1.2018070381437687,-2.313193898082372,-0.522093286039126,-3.312145205621503,0.445712622836701,1.2327859558307361,0.8376565056460472,-1.1463894513740676,-0.30746284003012947
1.1357563360316083,3.179678464292688,-0.12067069319536738,0.03407674128291018,0.7697562056794054,1.1854532180716264,-0.6293652791598501,-0.5459813562799107,0.5787372031151283,0.6770399480673739
-1.892368221436263,1.3000462060427056,-2.0260292452453856,-0.13704535602259887,-1.3613982927438077,-0.6996777145305817,0.019428697610146817,3.0458865342474377,-2.917999685514667,2.2594929995228434
0.034233343130099306,0.7364460872016185,2.3665698753826954,0.01987571450323644,-0.7996173356830278,0.47519770528996125,0.028185035422644278,0.7679480072392468,1.8453702146556235,3.2041819574902783
1.2866658283138919,3.1674391479436155,3.0871920766347065,-0.23900947473125142,-0.1529531157595512,1.9405488822109467,0.7327800529156645,1.5423173656537692,2.17501428403654,0.3092941546389738
-1.2493127344361346,2.980701116463463,-2.023128329638451,-0.06284546436857134,-0.7751165565743617,-0.4617653248860769,0.28438581642483113,2.003822866632695,-0.8641252384125649,0.7637465611445904
1.2093036934980186,2.640370492863439,0.2728118501152543,-0.16116097242457897,0.06885294625905151,0.6153423241555794,0.17678886350396575,-0.491043895168332,-1.3407778076214187,3.265971956183914
-0.2685135273018705,2.9018528605086242,-1.0741496687002532,0.236464361899596,0.6271371138051368,-0.03982220362158695,-1.140009130128389,0.3787930927982808,-0.44829409505405593,3.014325851195749
-1.1914058782102144,1.9739516437910383,0.9278115777942659,0.04887637933518988,0.23642628254164552,0.8114872143620967,1.248571507930489,0.2684095184986397,0.9430483313469203,2.4785485404555736
-5.695693452823456,-0.6120313530442463,-6.638767649492029,-0.5186522514958927,-4.5544584065242875,-0.28292928071921214,2.0825398439308285,3.248827680614892,-4.402453228961228,0.061645744961323246
-2.4149056913541447,2.0017701939209034,-4.398382155692243,-0.18916829670945787,-1.622228077739944,0.033508445187294233,0.7927123667556232,2.722584915198197,-3.1287341088982163,2.7301918197695616
0.7626985164168865,-0.14830958126602312,0.7670190179111611,0.08938505084356876,0.5574592817417132,0.6609656406661968,0.04851502411914459,0.39667492690746964,1.2181350439476835,1.7441774246224448
-1.1324060004964651,0.28935706908773606,-1.7700476219556904,-0.23497116304735471,-1.63839909165473,-0.2115136889048283,0.9624800324092933,2.4656024186114083,1.169343268778408,2.750018655821987
-2.990106056837771,-0.3001035805148762,-4.763762881568803,-0.21238377299065447,-2.549245597025952,-0.7434225104985468,1.1645786136847396,2.9255814937813502,-1.0051247448502063,-0.41622951698422517
-2.7460598724166534,-0.20750990008443349,-2.65992366243542,-0.17908117295814738,-2.142314944808046,-0.3900303271147163,1.203507501677986,1.9004771063718633,-2.4179224940842423,1.4867899013060293
-1.9047649569225134,0.6856206062434314,-0.8136104876411783,-0.3103119342195428,-1.3292753606207792,0.3601542244786332,1.628477897118348,2.4973403550037565,-0.2699344281549032,0.9104907054076496
-1.5805491472965463,0.5566910448252982,-0.5205027609054517,-0.35934241328958577,-1.4451794453517948,0.25065092626156715,1.059960084458052,1.867251265596472,1.3503953911687947,1.64982320163024
0.5909808572032822,1.0749097413401523,-2.8008254808749924,-0.012172012974459601,0.6264532122971793,1.3455047216884477,0.14400209258743232,-0.8164319707090189,-2.041198242770159,-0.3680161082059792
-2.6194722732235203,2.056132567737886,0.41639261930017735,-0.42147234014072105,-2.158269976910535,0.5546056268243202,1.0009754115644627,2.6986398716444024,1.259463059949066,1.6997388721195454
-0.6936597091037441,-0.27058710230245786,0.26190348399826324,-0.09442744427206268,-0.43108700297394464,-1.5380651584044664,0.142730491280049,-0.4895763509024653,-0.3077205697669248,0.9169474266137658
-1.6073929447893294,1.3126255069800865,0.2841785151298657,-0.15719817084892418,-1.7887381683379988,0.47284074820701216,1.5737910874207266,3.180478087780772,0.6704587206915048,-0.1802978005114777
-0.48038491446692755,2.117450872874777,0.055603628121662196,0.05620711759920518,0.4820411163743854,0.7158430532870158,0.13195178972866292,-0.7714900342859308,1.1645088807621427,2.6677605760154233
-3.077737568552088,0.7369686476342343,-2.965171193421727,-0.5967989023025732,-3.1134096163063054,-0.18542112767070829,2.2687498971874915,2.66958272782255,-1.8475126803117918,1.1855405569439923
0.21096580401273013,-0.8625166033401748,-1.0471820706738613,-0.0866678241292412,-0.41692828543521526,0.11126145020498074,0.7799836505887434,1.9387011835175811,-2.08262967759536,0.9549956868968403
-1.454024073422214,2.13764001057742,-0.9341883490883256,0.006305616849298298,-1.221205869354153,0.3420772436731988,1.4348333033728013,1.715969069630038,-0.17980122110372443,-0.4695284516723356
0.05084595556373142,1.258872015659072,1.5297802754937617,0.14903856575976754,0.27935254862452663,-0.20309920883441884,-0.10417498622473491,-0.05270220083053967,1.860485783201026,1.0481123312304117
-1.6848044643781785,3.3614325051296365,-1.5326097341777958,-0.4682460499094782,-3.4255253880444614,1.0169323496775156,0.18723909597383986,2.922660244212823,-1.8338996675752068,0.8632655593215566
1.1013761124152022,1.4960052635303018,0.5200630673488312,0.0943890566104647,1.0865825597888852,0.36469663287258114,-1.0511058413627021,-0.6489381663805748,1.6393557763938615,2.8781446941464996
-1.13828708828779,2.090340504900559,-3.016738046072951,-0.11722042512301674,-0.41093161129266303,0.1492399962769364,1.0844731214348349,1.5386713875649427,-1.7396509057777612,0.17335984908106328
-2.3550956543752752,2.4458721375245025,-1.4650518114052407,-0.24310351117290513,-2.3486535597044362,1.6332665940618831,1.7836616490371657,2.828101099374129,0.4839975997291728,3.4588921811581486
-2.283990639039341,-0.29304983536984874,-1.5944262446548396,-0.3164483619472995,-2.7708316825976653,-0.012569314736915083,1.3743212417514878,3.1171788883002085,-2.722720928330876,-0.8196686529674465
-1.0074787733272381,0.8966171700898242,0.7742967372774361,-0.2505288641605719,-1.059666529947867,-0.9587936598539197,1.5025115030351488,2.5013989185654553,-0.4066196570117156,1.3033744854237543
-2.1321434397101457,0.5039184228132887,-2.6127178679524605,-0.18610133114149469,-1.6611938072572692,-0.9546752668847722,1.3720943533883234,2.8694423753383638,-3.320552510000975,0.31550083250626915
-0.959450080874047,0.610595630381229,0.8423948292396793,-0.20744082192935365,-1.835420364798561,0.15705991585129447,0.8681462621443967,0.8434762236811983,2.28281869406125,3.13055441993325
-3.112209673823051,1.1742236151564986,-4.10331073551799,-0.18943388953101595,-1.9404522521124326,-0.4528810143312149,1.5460627870731467,2.466251788288795,-1.84907268332415,0.977316496228968
-0.5769540224742874,0.9701974023565738,-3.1216613218136717,-0.13094784604058837,-1.2891138277497571,-0.37806687200191336,2.27062882322939,1.2638537689426408,-2.652096584028864,0.5069683626353572
-1.9315279937245673,0.7292769937354753,-1.1646161595898694,-0.20768700383809247,-0.6331448129301419,0.1455565754969872,0.9338438960074966,-0.6681206368782562,1.1556067428757284,2.6654594081761775
-3.7548460607546157,-0.8506718236626504,-0.7266313294041296,-0.3675680934025679,-1.7504802927897052,-0.016483116212703874,2.5294346437978774,2.324805521791854,0.9619427748827064,2.6597305796678246
-0.5922711707995617,0.6059164193209758,0.6090747268696092,-0.09098943429241341,-0.49023261840660287,-1.0894488299306204,0.2472329386347849,1.1630019051400238,0.2551056207153226,0.986376327758159
0.2893051699512229,3.0036725950056953,1.3310718552597272,-0.23699402574708545,-1.4317886672015214,1.1780044675132326,0.5221620251679937,2.6297864018085626,2.055277441120312,1.8570081851567108
-0.4181639900830615,0.1262181819118775,-0.49984806653034813,-0.283479820529645,-0.6301363921350108,0.07529128375463368,0.32229593534697876,-0.27675137260172056,-0.22306556299859004,-0.3857621546067862
-0.4367389308607093,0.5177781199619151,-0.2790789576923942,-0.28631353437262885,-1.31673118651205,0.22641824306587002,1.639657467812408,1.9496579702994667,1.9318187479587454,0.2716201010500052
-0.7680168820358355,-0.6754585184265953,-1.460053270516169,0.03902445887793196,0.18400662252473277,-0.251214752475909,-0.4000986319399694,0.07924160569659122,-1.3392913663800998,-0.6721678937275741
-0.8657789261636711,-0.11556971547874995,0.6088948843649256,-0.19729868403367076,-0.8443639970400283,-0.17867408712651017,1.4691594794384362,1.1783655773195236,0.5240024923414122,-0.49088866632799943
-2.5125478393775564,2.71993380595367,-3.2746254354030553,-0.3067734963105987,-2.086062161648458,1.0244572064855717,0.7865960810785371,2.264869501861799,-1.858153047692273,2.041913173141564
-2.074999555506406,2.760616689627738,-2.972908879252314,-0.025852646448759935,-0.7396061902187565,1.208786302064563,1.008995198384837,0.2135246850479291,-1.007736847012962,2.089342243744223
-3.152607433713205,2.369379734083194,-3.5365544600184995,-0.5275423176069178,-2.13019374108793,-0.021434221058169722,-0.2666281288569644,2.618298595822034,-1.7237562913460376,0.9925637912444596
-0.15904687108166637,2.6087532033454934,-0.5294607335832455,-0.194701942687416,-0.7185608676532829,0.558015924981183,0.010810043917650662,1.2269686423911725,-0.11377086700659914,0.0003325110294887246
-2.9171135017202854,0.3004027342628601,-1.927240001822038,-0.32985607443866055,-1.845641047731052,-0.5369534546285931,1.0229777720860893,2.1762725780669645,0.418941663248394,3.372123997440701
-3.4722085272941405,3.297151395430758,-5.225370009160441,-0.2975014172348883,-2.2026120399836353,0.6242291054388137,1.09647083331342,3.2968363062192347,-5.15209520759824,1.1906965991728757
-3.2429126663138357,-0.1006168674485205,-2.944281297814452,-0.27033043444628985,-1.9547219461442826,0.47446476485378514,2.4960660666017693,3.4025589310968076,-1.1294504741101972,1.388833232811935
0.8075043138046785,3.3457194667805013,1.2224013631966586,0.043572297991380994,0.0013460200234632436,1.2569827127561224,0.06640489886042629,-0.3620864789288908,1.8346260889803052,0.026204336714240606
0.6032429157063578,1.6986629006038871,-1.7285666280354595,0.13111344616429738,1.5354030046248666,0.23573701134004446,-1.1759355745742408,0.3113139596218186,-0.6858392623414764,-0.3787442935967421
-1.863660911383261,-0.5289975429761774,-1.537251089537901,-0.08190027460438297,-0.8616443492356641,-0.47724632568782155,0.4435490202268798,0.7013372400885636,-0.5670123865411913,2.0406315686225804
0.3820780896476386,1.1844978359952871,0.2759865946510204,0.024283861693109393,0.18400724407948413,-0.3266844097285391,-0.35884265904917584,-0.7485185380210339,1.6862824831063274,1.0040432830312187
-1.183963246672197,-0.8858441773221607,-2.8795732811963015,-0.053042519177707526,-1.1139960134141835,-0.48950760289882184,0.7534564582328194,-0.19124051120496144,-2.067605744011159,0.6243608292757941
-0.49636468349478746,3.15074108720205,-0.8048849683619146,-0.14028700655435394,-1.0463656006086028,1.186982033569269,0.7506880338721937,1.3194310770988698,-0.7822770974892721,-0.24066689736513047
-2.2380601647259253,0.9479151696480617,-2.4185025899647385,-0.09495587031684793,-1.010838643261845,1.3051164222816927,0.48383146928780907,0.0539545260944414,-0.8289368495687583,1.7309839347018903
-1.8324994173068414,1.5732474190641246,-1.4049673700710634,-0.12851723061661746,-0.8616456936654476,-0.556872279462918,0.7176223510198357,1.2692814597350646,-0.2556760467270627,0.027785347191842114
-0.533642369007936,2.6390623665451973,-1.1794159886165945,-0.18639360522927295,-2.1950122230008997,1.8918391372700372,1.7028402353846441,1.365811010105039,-2.5060961964361534,0.2558492327664579
-0.6750106883062119,-0.3716272230966251,-0.314326069547656,-0.004431746190207416,0.6973226939181781,-0.19362455694321562,0.5459726074051189,0.5476476149991363,0.7434265826658961,2.5594506427178767
-2.3601101658429093,2.4430462738800505,-1.8315561709659889,-0.5169071845053765,-3.116857078853531,1.3354725775787737,1.8998951772587696,3.25872433168852,-2.4367508346260216,2.3074630072934537
-3.0639736586373347,0.8206229712786206,-3.1205892471318597,-0.11816368863860546,-2.004180671225734,0.11592641500385528,1.1740181379551617,1.470687600865237,-2.7029681937457375,-0.5892666905483989
-2.1180211871204784,0.8153457867029483,-2.280542423845179,-0.2757658096480548,-2.0805485729470696,-0.3424798403946334,0.6962228825853524,3.456408090481755,-0.9007931973912597,-0.18854342281861958
1.5388028686164867,2.7202671957097397,2.6299395793728237,-0.0036838794279426246,-0.14478226208406278,1.7134899007305429,-0.2406238114201561,1.7032077528492535,2.159141721865198,1.9155144841967937
-0.19831126301852775,0.6374853085348684,-1.0175384577920716,0.14440708797938884,0.2812859340357789,-0.22142097856687032,0.8624760102082104,0.6127793672822068,0.2042872481602177,-0.9035654034157626
-2.145536288802461,1.0724889747225057,-1.072155023376185,-0.2584206401880633,-1.9455375168085882,0.3637509068964328,1.5280174895110819,3.3990999247416367,-0.20445348065878405,1.2057470662136973
-2.073331911016347,0.48574596934068226,-3.060390714799264,-0.5178775209127194,-2.528649938790877,0.8627945333303875,1.681118806928266,1.9917421375243793,-2.037291028603516,-0.6291144054414264
-3.019013217862373,1.3281656332892706,-2.392486212594032,-0.4383840682549928,-3.888996950592479,-0.16744812886190985,1.6359462402514668,3.3108389147686044,-2.8787809721276583,1.876191056830764
-1.6057217287206829,1.195459079323507,-0.6735105351528663,-0.11519755359098242,-0.5892168850462693,1.1496456968494093,0.5243187037191188,1.0438407059969186,-0.5146166486468822,0.45282674590657535
-1.1946809978080548,1.8526115143929558,-2.014750059049579,-0.11401346655268121,-0.05410571029497542,0.5697205880372684,-0.38724875866842123,-0.30069647406484745,-1.0073871581015654,3.267432943147379
0.8539008967953596,0.3025333917334978,1.6340492784602803,0.14888064149904842,0.8119194452782907,-0.4748419190048607,-0.846892336457524,0.2874511538784821,-0.241429590654215,-0.7412526238182786
-0.3404143104150472,2.2327911071216087,3.267600130896007,0.014252883913653256,0.43301190394163946,0.2505702529038456,-1.1736889749826824,-0.3695605104274059,2.0005154455876424,0.9281321534193436
1.1766955825908016,0.05758604087417041,0.8555739563581415,0.17927531616200823,0.25754678459775154,-0.7318325289855705,1.460282614680073,1.0985206205934652,1.2486682161279483,0.6879969998936388
-0.9831526756924062,2.104384558022825,-0.18129626272920918,-0.09192201246744704,-0.9608041656797051,0.3216768744648329,0.5765739286057462,1.8701499656996834,-1.20332919754863,-0.9738211583863925
0.24038861579598153,0.6996133533063287,0.3968317379918317,-0.21985893805667334,-0.27256774950994617,0.4190699223334455,-0.010940302060257683,0.19266947523151923,1.041843774246415,2.275319411509488
-0.9323958868148922,1.467970865300765,0.18078905050168248,-0.10149407358701991,-1.6736520374043278,0.6904392791899207,1.2053473061904665,1.93744822852292,-0.6430740105830306,0.17030416197573328
-4.217950459542133,2.9778440664228705,-2.348335929579415,-0.37833998489890586,-2.3375270988008556,0.5380592555045907,1.673845397806433,2.5445901065382297,-1.2683237760870039,2.8476300983233367
-1.5521160017277378,2.9732930663096555,-0.959340214006212,-0.11806467295128763,-0.9530855629262976,1.65034474067074,1.541608649066221,0.014904335887923725,-1.8167308874398653,0.13706548554505016
0.09436381594389204,3.414041836150523,2.961039758728048,-0.14227188374590177,-1.2915068945240311,1.2029948362635703,0.4736003476000365,1.4231077577573528,1.9124412871426417,-0.3901779029221829
-1.8927162760076859,1.6966940760938005,-1.8905389626220428,-0.14137161603720377,-2.0547630466099376,1.0721442347483248,1.6593656867167774,2.717920270372249,0.5501759063399272,-0.6201675877848963
-0.8318360101496024,0.29123678493544203,-1.0819299625382988,0.036764335669535166,-0.2643398703117119,-0.6262384500638616,0.531729971202556,1.639207104841669,0.17914910261261913,2.4507678966625974
-2.4417222305787796,2.758037727125808,-1.9020676466225246,0.011043355200471075,-1.0506912797205235,0.5612922160311875,1.2524908360706246,0.36298859695246266,-1.1626459806691343,0.09387129089313007
-0.5396042933178502,-0.7688178168425801,-1.0017521760958426,0.13741610451136946,-0.17663033223987326,0.32773498371171894,-0.09923599514052783,0.40509653008760305,-2.4603198960643344,-0.505287949924255
-0.6863700645334054,-0.3781242286322962,-2.1431828320351394,-0.23554437125500863,-1.6068722376544016,1.2011254619377052,-0.014490998831256367,1.0316915874786443,-1.89020575093066,2.768887890216668
1.661488160548641,-0.24033225793803337,0.5091153469692726,-0.033810102984222476,-0.4647620926981305,0.12115208118052112,-0.0004925379449085399,0.9256029252668201,-0.6344940436112234,1.1660954278955824
2.0538640555043894,-0.33067071102113643,2.349072560752948,-0.17475566999761089,-0.769328536736342,-0.12569301940981864,0.3189036049099639,0.8998973387298717,2.138520493121611,2.6892606686719773
-1.381690886665934,0.0009166520892027741,-1.0448735211552485,-0.04097709966591895,0.6078063633659416,-0.045595532357540686,-0.24019126568406146,-0.3640444115135204,1.4133556445906694,2.976291013873741
0.7795910173524402,-0.5671068726672847,1.5258411302799395,-0.05434265573481555,0.528012329945808,0.2105879575761615,-0.1345253391467537,-0.8261359766491193,1.335589140395475,0.8004333186603123
-0.05832094761532569,2.5307110672349955,1.4277641806398296,-0.107576731683379,-0.7158866630306937,0.33792603688460776,0.8860076312953464,-0.2999943633049723,-0.2065480229856566,-0.790759022395271
-0.3309817661201745,2.9833064583970654,0.4551304510361526,0.00325331899729376,0.12516296087058798,1.5436682936799497,0.3703779269761936,-0.45057164783939796,1.2353066704960147,-0.7619052144305878
-1.4996743700507442,3.4067371268471236,-1.7037845252002006,0.2112117432308963,1.2272192072256023,0.5702320374834373,0.030764097256875563,1.242652594604675,-1.2156948586984244,0.4077197037046656
-0.055771588492133095,-0.18579074754656766,-0.5946393170472587,0.02035982269533309,-0.07630312638803029,-0.806518066790752,-0.8710669544330552,0.1644693871237708,0.20734930854736638,-0.07031894469350797
2.530107397974714,0.8494024242187901,1.938962864187045,0.2510088265942171,1.5798646637567457,0.5865746993074488,-1.4708536246509962,0.8152331643624686,0.1431600030657485,1.0131908060085975
-0.9282118396177095,2.40436582155419,0.23249896887564447,-0.219321522523651,-0.9072902552023198,1.795649577121653,0.8036395918683374,1.1110016844206596,0.20954213577953823,2.0608520228370786
-0.22444347232828848,-0.6566140842402292,-1.885864260008648,-0.15118249088096392,-0.4869854279732071,-0.5598955756291001,-0.2914576061238954,-0.06021838816102998,-1.734303874753049,0.9099896100429437
-0.11269217743585998,1.931882819720177,-1.2369742500682976,-0.09450526036516271,-0.0703892453778117,0.5637681263190327,0.7451099190253623,0.376006215457666,-0.8514545885609319,1.1980634559581866
1.071738226112625,2.5808924165904976,-0.5887781145341127,-0.13064159309752213,0.6774048725797169,0.9744362846969554,-1.2466671965578535,-0.0840871795048791,-1.2815563364135742,-0.3721173683793323
-1.19122731622162,2.784033505614827,-0.49135116175514015,-0.15138736949565623,-0.8414127096843458,0.7447824386527229,0.3155267163672591,1.4659840950060623,-0.6100944168664617,1.4203101832825813
0.4411855545194315,-0.9039663445158622,-0.45627402760435104,-0.28171721773433234,-1.1853649541237319,0.37792266955359044,1.2461265530958172,-0.06754994275979231,2.02647683346432,1.3639874735593205
0.009609331723504921,1.3473549247884349,0.7169280683217094,0.02050840365452201,-0.20549546960667384,0.30433165827545394,-0.3959717207858857,0.5457168351421873,1.7053591475965355,0.8211079062133015
3.1203208867467573,0.9797642641793869,3.3047035216942504,-0.11499025438911964,0.9031360288396971,1.2864741052788984,-1.1188574464302676,-0.8803907687533076,3.247844434994336,0.6172218023850451
-2.2470378255015206,3.1490203532009016,-0.19741731881350594,-0.503635411118636,-2.963671433443451,0.33953258051412405,1.554011270697038,1.9690745667067153,0.9213963144126568,-0.5258351561204077
-1.1318151759040602,1.4659751699759616,0.3952197848851494,-0.04062354681615239,0.2919213687769154,-0.25680182694278275,-0.328847038228676,-0.6365111870002675,-0.15912979509046532,3.2579907254211973
-0.7444079342433358,-0.2765614810840419,-1.0042808591246857,-0.16456348674549015,-0.9901224325235529,-1.9493427942708434,0.6369725576766431,0.41327874936728537,-1.4509825909334133,0.02187259495196292
-0.5029340260610962,1.04244674908914,-1.2105664246292538,-0.0014516378721235973,-0.3035773710945084,-0.16783108625487225,0.19545144088209904,-0.2153957318076608,-1.6403063490022194,1.9326671812619534
-0.8844593520675497,-0.7713995018288127,-0.6398074407311469,-0.16606530377556097,-1.5469072564376745,0.024233082294315506,1.037623866877267,2.129454346094881,0.31191131139464257,3.0504581874172754
-0.8169978710732616,1.5718449838974577,-1.0088147561731624,-0.43725446116236116,-2.197070620722934,-0.5110369487646809,2.521857477780972,2.5820279921317946,-0.3868175576864501,-0.9337018398259925
0.5732680225873755,0.740134828499929,2.2575552630918714,0.0868122373927493,-0.49318931046699366,-0.060266370703212946,0.21286598780337598,1.043181794628285,0.9006362673588109,-0.01100207554432342
-1.4301645086145764,0.43832628059826306,0.18715745055544153,-0.283733649799339,-1.782876538994273,-0.060264792565208114,1.2810778001992142,2.4608322564818708,0.11433845495837924,0.6636307239462742
-1.7210222180210306,3.08215118671169,-1.6756947769407051,-0.0359652487365062,-0.07323644295519745,0.4578992185157023,0.6514765116390133,0.07809404919285434,-0.6549954576244661,2.75763925301791
0.2985643020963994,1.3019143360186938,-0.19200241793872197,-0.03291077138557529,-1.1642430330884668,0.3059324533771564,0.918512359992202,0.9816973549118015,1.3124209381796337,-0.7711453833821598
0.8601917842192683,2.31680551581795,3.4483673394825445,0.016764673454995074,0.6178115680369377,0.4704760861947116,-0.5716088482244526,-0.8716019008090145,2.1830229648532438,0.09392623938341971
0.6439714516869723,0.3234234230550419,2.5978662075729897,-0.06598387545378472,-1.2261964110971801,0.0076238904373444605,0.18168115888211545,1.107187216272679,2.8865465949083977,1.9526137275679862
-3.388485039880898,2.1841213416786625,-4.575501664429245,-0.21659815800840262,-1.957638744858097,0.654287743122165,0.1681007860627292,2.4148357494464108,-1.5452757323345714,0.588857773650135
-1.0433091385224702,2.223752224470229,-1.3469731442356174,-0.4373610512239934,-3.0721196348499937,0.7465183615023373,1.5835005020450155,3.3337359492656082,-0.5327695579666795,1.903725910541862
-0.9910113017841438,1.443562693575204,-1.8509095062804852,0.0028450090415811017,-0.925600824599143,0.5176124546952093,0.7345895114737835,1.2030997419926561,-1.280887616139909,1.805561781418596
-1.3230786758804591,-0.5897433246887744,-1.0580718716973987,-0.38011975442675633,-2.4454826876501072,-1.503693686278137,2.821098968407383,2.8080817181162065,0.8993226078003635,-0.6887513370479201
-1.8004333936469934,0.05058915601096081,-2.604790102392718,-0.08207698907279613,-1.2299298341883804,-0.8167672388278234,1.1849431215155384,-0.10459094309022576,-1.8491146180159648,1.0436097415951813
-1.1966038710864395,0.24314532799688826,-2.571294033487217,-0.14749244895281555,-1.1305006938813613,0.6652827263253549,0.42525605001822775,1.7889627732613644,-1.9695965043586454,0.5368604129087668
-3.177025840232129,1.9550559433208292,-2.789212478535061,-0.4833847085679492,-2.6985648760833065,0.1256738835372252,1.5648804303111983,2.065451904850589,-4.540620983393159,0.15614373348486432
-0.7817814359416487,2.0170114775563075,-1.1642864506102564,-0.3683314212292597,-1.7351926522417611,0.9310203300949649,1.8947138022655972,3.189245206019832,-0.020494310449488906,-0.32548257327304686
-0.7820936140058299,1.5491950050799392,1.05034250875629,0.020595294804166213,-0.42191406375342794,0.6768122695240693,0.07180879619954779,0.9905671749854286,1.086919181321612,0.4070726649004617
-0.9051143701163202,2.966235450144386,0.3973975460108042,0.014459948820660807,-1.0023458139126364,1.1303958164677383,1.6384500643994149,1.009692275027795,0.5859923802451876,0.7790303266460179
0.3567720269760967,0.6184124300426768,0.4594324303695858,0.16310937825616648,0.7896971348458518,0.8388119827521828,-0.09375516362903505,0.6019545395780908,-0.2987407025718737,0.27902640136115386
-2.5664798991270126,3.3288913543913905,-3.2671301433589757,-0.48536282631322125,-3.070990093543942,0.7521191545179972,2.836689425212215,2.8632115660205852,-2.6037082967465275,0.15907770122700504
-1.7062901702628346,3.0927162511040702,0.3643843009249963,-0.04359427402248612,-1.37252442845346,0.14650746654100516,0.4475540552144882,2.5632383685665965,-0.6552923014626155,2.295664773514472
2.5354823233366925,-0.8851844642704931,0.259708449207838,0.3488537108201707,1.692841338042434,-0.37375371268361973,-1.3125784475998672,-0.9776196286460126,-0.9391579327299884,1.9797817414153887
-2.147328942689476,-0.9184677125352453,-3.2713572719172688,-0.03859248409621872,-0.45413665793616215,1.136972084995043,0.4354154528608742,0.1485221518869193,-2.1361264805747577,-0.3463799448011252
0.5132280720851117,0.2205564849867292,-0.17179732137551762,0.07138959600544852,0.4251689366101637,0.059073596254462235,0.005426839414011428,-0.4176475258277753,-0.4418539659738878,1.4317485829179164
-4.979717865554071,-0.1450914598618196,-2.508003611871442,-0.1822103427233218,-3.3566419069162023,0.6327794380368135,1.6923796388481784,3.31938867919959,-2.1137123128226163,-0.4932551270088734
-1.008061454141325,1.060251224709622,-2.2840830559535266,0.14430274773746177,-0.5034771198853881,-0.25273654380179755,0.14099029108416267,0.7920642160309954,-4.127046563257576,-0.07367661243482515
0.4844111849799685,2.9236450486214345,2.3912649469215985,-0.06005979551954792,0.11767670494963132,1.4715458216010493,-0.8052896421367056,0.2603086808148958,1.4080957242509324,1.4593189111744818
-0.42275973422216684,-0.21052303481546153,1.257961195823047,-0.28266315263119435,-3.034155812134855,0.2063575202198371,2.2157304434374376,3.3259152966592715,1.4651018580047421,3.1631696268372016
-3.1944269168594794,2.464588245082885,-4.0685464453858895,-0.36396226956089733,-2.3875233339589523,1.208377053403297,1.4711788997242539,3.0850222429197967,-2.1202754168444287,2.83247416448477
-0.7489901676096531,2.338336897062125,0.635563108917522,-0.3113315475583717,-1.5459473621901558,0.06980070295943053,0.7839964980655338,1.704298839515527,-0.9261332007898537,0.07142595596857615
0.7760246600892592,2.711640940574945,2.132155067860718,0.022915632996325933,0.04915046711028245,0.5149243701574923,-0.11006108553679132,-0.07610842604749335,1.6834262080364124,2.7201071982042766
-2.9926724973835963,3.110526104577075,-2.349835403009597,-0.14063372660017973,-1.2804501628676195,0.2838177249205498,0.9797758168003633,0.8034778697041831,-2.379586126192372,1.6718393992787974
0.6778287706330152,1.5224981432640656,2.4449598812961284,-0.007323967529389175,0.4186049335148525,0.7603126507427611,0.11828167457874046,-0.4004764956977128,2.98279502387073,0.7113311087469827
-0.546022127945916,1.7852446798794346,-0.800015452387818,0.002579436269013799,-0.3629952107548377,0.7205927311857738,0.3641706731455691,0.03372186106430619,-0.7668987396327086,2.8057282553704397
-2.841075519284701,3.1614622184387393,-2.44799622962996,-0.28351530236399936,-3.044389878623658,-0.18427015887954068,2.017274624108913,1.8296637216735756,-0.9722380225824911,3.3795514702452234
1.6125170790223216,-0.5592624228921435,4.336595948443763,0.04521783572290354,0.1858555351680888,-0.1386377584776512,-1.3326619903628165,1.0255843043909256,2.663528415031128,2.3036905363856204
-3.281128404414987,1.2272471951754294,-2.678018415696524,-0.3847855782619956,-2.7832863814388262,0.5086825094074241,1.0770628645488456,3.249174810239742,-2.112365358636317,1.0965734092328527
-1.7628005713955386,0.2606579531236284,-1.9779935825692492,-0.22965641772422354,-0.6859458891583587,-0.9159993826234597,0.8317735967125973,1.7157490837865232,-0.5626704268573752,0.6527670185755399
2.186982477749295,2.545954783542621,0.16746615657449826,-0.007524223321788466,0.7683813423894118,1.4836734700079823,-0.6916823720249318,-0.39032815460295045,-0.6751679700871253,3.382739895540838
-0.32420528126990433,0.5069024269575932,1.0057135157337165,-0.05982106409206632,-0.1029530173070694,-0.8590320785602328,0.264069644563667,0.549031282719032,-0.3463789739987071,1.0441507843145548
1.0285738158331341,0.8313095569380449,-1.7207424650954541,0.1427622213580044,0.9070240844175897,0.8285649900230014,-1.3370705075828888,-0.8625321059904786,-2.0134430199821542,3.0067996315178362
0.0257386267898376,-0.9390723061087386,0.6597978274716058,0.01802997232394935,-1.038208544348808,0.3176648532128007,0.22127600635396785,0.5888429636930486,0.17247782677050416,-0.16736852673852143
0.6065001057879551,-0.9362406352681959,0.030420219262269788,-0.16542696629148257,-1.7818125222788017,-1.5474218915495959,-0.09819610483121517,2.3155351205011514,-0.29424417046857454,0.6108067729680207
-1.6315284684040863,2.354286714785976,0.43568017960109096,-0.27578919522479173,-2.233761748850003,1.1864054597249623,1.1763590619804476,2.1406748454590336,0.03871464228424537,3.3403554681038257
1.359106977370025,2.778929494848801,2.153434468605256,0.1816314252258246,0.38186160849029616,0.7196245143880999,0.3438551832549054,-0.16038438276527767,0.26420407387048295,1.1211462446235383
-2.3331912393475207,0.011259111843521463,-1.5009684206403895,-0.26608274315012614,-1.7029461658921128,-0.5574661258814202,0.2604567913811767,2.629896536569684,-2.105362523479652,1.7295671670194626
-0.4965331872870087,2.0036245529447365,0.6106918118351333,-0.12758219681266944,-0.38637310570718936,1.501245576705344,-0.2561179580865267,0.9504147816318074,-0.32665220197218214,1.0393948502945713
0.42133225671913294,1.0155574503627274,-0.9454124523245788,-0.12863434511142086,-1.2468388857596604,0.5279264818650313,1.4936830798955738,1.3846167748203575,0.5869277618445274,1.9009150698329789
-3.4767465160307074,1.8848716342169132,-3.9226239219647847,-0.05794325630131255,-0.7615046306838927,0.14838424261744068,0.08599911242099745,0.31851115456294044,-1.7196065198562156,3.347900563607583
-1.0815016994700923,0.47417630413368306,-0.3329019368143282,-0.10970977110013952,0.34894886626571714,0.07918276727111426,0.6477044799047896,-0.8414638677136849,0.8273309640925754,-0.14412884056592157
-2.139146051591993,-0.5923234559269743,-1.1138364527564026,-0.11375187227162589,-1.1344111146155051,-1.2547530767296355,0.922454969437969,0.16629948900096547,-0.5527283665454829,1.8506722442290013
-0.21317367937793835,0.016185851380359217,0.6825071134765575,-0.1208025805602206,0.394714467529223,-0.8603057456628398,0.03232096922509082,1.1559844696639847,0.7030230943064506,-0.9309964561022812
-0.5663292532256926,2.7500987384013764,1.1894173286412408,-0.06824642589179716,-0.410103328004598,-0.029672523577796484,0.762301026425656,0.6138671204229382,0.26572774637492935,3.3221752681703975
-3.8616642074556555,1.718991016027147,-4.9798613601541595,-0.10980738673274557,-2.0823138552179192,-1.221498347412624,1.8244817607727724,2.129361019165611,-2.6141645189414797,0.3869491170693333
-0.7756992663862081,-0.23757414022835066,1.4800320870105925,-0.02311873177231844,-1.3783090587678923,-0.5357234794836219,0.9206488145503886,2.54386635072591,0.04019349142690498,-0.03844618760478535
-6.160379988637599,1.6782917457650437,-4.573823444877318,-0.5141773930867346,-2.8463277666736584,-0.04756477347679866,1.4091231832797817,1.7701458769784364,-2.703514050305982,3.244462855060463
-1.1274567720888926,2.6698612624153215,-0.5809426975143958,-0.12858077503705184,-1.4294478475044263,1.1139448879757063,1.089012888933631,1.9730090313566953,-0.5487963718359216,3.419417582323214
0.5801828723054756,0.7920731694101939,-0.6325541787186026,0.11993636854315065,-0.2581048691507389,1.2920482825204804,0.11278163719567799,-0.4024647786676946,-0.020138269290253197,0.17388100372895932
-2.5873846087664547,0.8539048244564811,-2.8522823589267903,0.04110304669701608,-1.5199807857481116,0.19707556752651473,1.4857500665342156,1.048232903299588,-1.72401414788935,-0.4584052521045856
-4.337672693684162,-0.9697728542255851,-1.3301728662430006,-0.17438424794555327,-2.536916539808252,-0.5792719796328084,2.6208356611195547,2.962295395328761,-1.5265108803717597,0.520110032345116
-2.8661466757222644,1.8105347029870265,-2.7864764127447197,-0.47617032350534194,-2.964684955078839,0.2605603261934476,1.702768198930728,2.97373568655893,-2.0222500029818775,3.2312435241737365
-1.88614499007599,1.1332210079242997,-1.3381864944643715,-0.04249221150708011,-0.06693192956861743,1.009494810022997,-1.0074851183594284,-0.3868827083898124,0.8828027143979305,3.224184733492403
-3.6945913173087774,-0.8048347982643186,-5.342956243214809,-0.2129318353881354,-2.45826968144145,-0.5621156344467153,1.0269162687176996,2.4014007571463285,-3.916592731501077,2.181301328007585
-0.26300174497731543,-0.04899441095238688,0.42717771365569923,0.21064781389514325,0.9141438153549769,-0.8468369584235679,-1.671345344269152,0.34568808433872755,-0.14892655258448262,0.8147020298325065
-0.3845295219667032,3.163588346258128,-0.013950253501644645,-0.28657620496354336,-1.4303418048265828,0.7653141430303495,1.4513852738062532,1.9665838074027238,0.47612185583840777,2.5939647975568425
-0.025375211563905146,2.7126845493243863,-1.1557172615369908,-0.16153620074006778,0.2175636705038336,-0.07361532919221414,0.20936915536252962,1.4091966818982349,-2.931902996047176,3.204389173445482
-0.23918605652453542,1.8764430768781457,1.1647760702297025,-0.06571844078002494,-0.7535283309949306,1.1794056223045482,-0.04848513772498436,1.9466189742282167,0.627151346273011,0.11965462058451393
-2.6585664221082825,-0.4192926400680079,-1.9690046915572892,-0.40859787018756055,-2.04075843111625,0.1041967508397243,1.0772223192880506,2.009963390280373,-1.9148177198594971,2.197696286608847
-2.4974499331132938,2.961389093093146,-1.2953816466590613,-0.3800050305639618,-2.2819694550839555,0.06172651190415501,0.26106753143181605,2.351342303568989,-1.0128512148693252,1.7074024797949248
-1.0599522061120685,0.4585238500029123,-2.370500711060378,-0.026979719254176616,-1.2107789556273183,-0.8297240640826264,1.30631500221277,1.6346934955258465,-2.623047609884903,-0.8067948943516347
1.0641393734061326,2.4937819139373003,0.4054305894776542,0.45172785329934123,1.3823234956179453,-0.49200965252134676,-1.367590742800801,-0.6589483938152327,2.6960592722214733,1.902224221286608
-1.7248693226589469,-0.18261397024376946,-1.925938037102311,0.03701208086043791,-1.1012522566736427,-0.3753528707622598,0.16286218476273842,2.8075253706770575,-0.5007259914333251,-0.6218247672908226
-0.3031333683559323,1.4862198786047625,-2.212353739495534,-0.18117457261930436,-1.3280870206579298,0.6476995971726547,-0.005225401679691879,0.9389297199253759,-1.4208826594862063,2.103585636660672
2.1537483841382796,-0.6483441159134335,2.833784684481479,-0.042177465251539405,0.5690043467363785,-0.4127474193598294,-0.01469350135789914,-0.06577681355104226,1.2481171872060357,1.8519798150959734
-2.5948227428559627,1.0987700710901027,-2.0196332088730067,-0.18167919838797936,-0.6484304277790314,0.42665638686712176,0.14320022086133388,0.8583111222337345,-1.679868636987253,1.292307268760645
-0.5557236844174135,1.0440617956963982,0.6727696277794598,0.10359615564426773,-0.6075432813103332,0.45555463966126286,-0.21410587357966832,1.9437506336693744,-0.9200589709871332,0.5268703823332992
-3.250055764496943,1.737909903735968,-3.2689282483903943,-0.4135445407926625,-2.144657057668691,0.20991786899462392,0.44594440984589956,2.3904947946277413,-2.2037348828284578,3.3614870811443094
-1.8099333534316466,-0.2374819623236798,-2.1196164199783047,-0.3703440799555881,-2.3304829589838976,-0.31438284276117767,1.729076526293649,3.282055217031952,-1.4819238768816496,0.37742787838081915
-2.135420546259482,2.0934323435694395,-0.855284896581173,-0.3840501675668773,-2.279176772168797,-0.11151646288291961,0.8993887164848916,2.6710649168947778,-1.2049257239966364,-0.46744016625096696
-0.5319099586165774,3.2997297280099076,-1.3622684434517938,0.06921724381507896,0.5741290301804997,-0.3742431160260472,-0.4924096643759825,0.3945796353585955,-0.9007032592327215,2.8276559726331394
-0.5766125185381983,0.19215656307212847,-1.552479363697762,0.02156379434616366,-0.5180213862672896,-0.054930898297952585,0.9705926687533107,-0.013191415184125366,-0.3005638345207231,-0.08372996738068594
-2.729241316442001,0.8970675304688032,-2.3239181989673057,-0.20079802952402068,-2.0920011697341865,-0.7613732854962312,1.075180864376383,3.4117347487394163,-3.3537775389938718,-0.9327571124853911
-2.5342218283211015,1.7100828329510187,-0.5809930480894423,-0.1966503602230551,-1.0769154924221347,0.39882788009147346,0.8542605649781362,0.27764681699249305,-0.6883957279732041,-0.05420778970741191
-1.901453949919262,1.312562551443825,-1.7682729559252262,-0.4357530370637769,-2.6757138712812045,1.0003253529601495,1.148935448767621,3.4010418306415477,-2.4316081855329474,1.9746948993651672
-3.496895012106293,3.3718212789706827,-2.2328150851324278,-0.3059673613178936,-2.9616232865185386,1.2657766661824745,1.5812207208654214,2.9547561129322273,-0.26456707062814666,3.1571276281145373
0.08522780767928506,-0.22164783504690566,0.7693277004171059,-0.1492662774516022,-1.3860404210185093,0.6170921183271129,1.5566274105159301,3.4127450820416234,1.9452987753173492,1.4860573627697424
-1.7235571999143353,-0.08485667037576472,-0.14462985294452624,-0.11446309231127065,-1.3736214832385798,-0.1834001532924871,0.881289610290807,1.596324977717055,-0.4691180681517242,-0.08933005534470095
-0.3440717770372643,3.25440690907691,-1.639512735392679,-0.2503743687169753,-1.3333583812027436,0.47073467837931987,1.0091315267764789,2.285728305762743,0.642601356605041,1.5370508300790697
-0.222624978033402,1.7630773653393215,0.47688083086877686,0.24934716698926446,1.41611219267194,0.30911003606943843,-0.2668264994158889,-0.5218356283420735,0.6650478489084304,3.4304300803127914
-0.22246611411569753,-0.9042162132259544,0.5109507305646431,0.07684882381133683,0.35495998392668116,0.7014445681024081,-0.023819259831718325,-0.684391487260463,2.879548456952893,2.2327639816947427
-2.43401560676698,1.5546801410443822,-4.0003844620415645,-0.2653767441086942,-2.4229890758935455,0.7031463150615198,1.6551357621341731,2.8508871579255968,-2.7894156978885,1.6011725070517224
-2.78831155599267,2.129196667910695,-3.0754488121678345,-0.15120114343680444,-1.139982297383498,-0.18161742264125996,0.72081013180089,2.528108700799382,-2.9733494187431493,1.133508352400082
-2.807992003765018,1.1837118335963646,-0.20347049667122286,-0.14205120266358243,-2.5077763546094745,0.12072140045901822,1.626062926055474,2.3599063533503353,0.6346676647151364,1.956697150796053
-1.0350211426343867,-0.2984130617027234,0.6283286764387627,0.18562955992529226,0.04033838497862543,-0.9499197368479146,-0.8382706557981993,-0.8580369381906826,0.8392043573669007,2.4834828327889893
-1.4642675328071375,-0.2774467296136235,-0.298010114740878,-0.13515618192666704,-0.9483796035189314,-0.044593011603573485,0.26930647031919525,0.49394850949060976,0.5612246127961225,1.515385153418173
-1.7875187709650455,0.27470560894453877,-1.8149115296228893,-0.3677092579265334,-1.5340039026362604,-0.634122604330918,1.3854335029613962,2.221293863335462,0.5245161885879865,0.4168067983081891
-4.332558588282622,0.40154266540806227,-7.376943780345952,-0.760364203784193,-3.4736905506209856,0.11065965568761138,2.105739610097645,3.1657019538396067,-1.8897504195220791,-0.43993368956893575
-4.9907147822082285,0.6407745629781403,-4.479076449729321,-0.4975034209250602,-3.4166847192609686,-0.22730290130111408,1.4633050872029583,3.1478006032075276,-2.051765319969517,2.717054218387185
-0.23974758949032016,3.0416681805101877,-1.239640913775178,0.044127250070914996,-0.3968638387898688,1.524103339060154,0.13679001991110207,0.25035745204827053,-1.1123440530410944,1.2716099459362264
-1.4607321499771442,3.4629716023352417,-0.6659855383494906,0.08247465843845851,0.7712780101193226,2.118039735706285,-1.4118898804524964,-0.17430916772433036,0.6490157051566348,0.7402500088609139
1.7535131234927348,3.166488263297114,1.4272658548142239,-0.10207842682888345,0.6854326480176762,1.7849879241335127,-0.30733570802547955,-0.324794717883807,0.12164546535340581,-0.8279518687486407
-0.404538855075366,0.501992909212152,0.8460203610468013,-0.11432331613118309,-0.24443170035518347,-0.299548809952628,1.0856447025902993,1.4590097476551764,1.3221388359515895,-0.9460614292052277
0.10320917595398393,2.5231242398805676,1.5298394782893894,-0.15406871874645867,-1.9737356891015325,0.9555819303935666,0.9695643512299492,3.4137789466239408,1.3283427815664524,-0.45098111522640927
-0.4632151943575406,2.924290676302508,-0.9345647702874771,0.14021362107139893,-0.5385081385819841,-0.1691999217006236,0.6681084882872764,1.3714529142970129,-0.8327740081808983,-0.8322259549898144
0.012947971426864435,3.1428288085667804,0.9889191334700556,-0.11100789360348837,-0.6319082755803322,-0.2378578138150924,0.242893148832728,1.5643812977094105,0.10199475832585247,2.163969178462022
-1.457111164897382,1.5471500367166726,-2.3564863719154174,-0.08197420312674504,-0.29833262441295644,-0.00749219568294357,0.6613069918195125,1.2873105297029568,0.43489855037047603,2.4759718132938953
-1.7678360610253085,1.2150859011158701,-2.470121302319486,-0.3019209582804485,-2.3775455310818305,-0.3635086715058259,1.3042099832273462,3.0713276064006845,-2.2595443923067178,3.197764784980232
-1.3340560738412244,-0.555153586755033,-1.988326768036751,-0.08874559755219767,-1.3328632329272871,0.2252593889896112,0.7545820629965742,1.8986436428155233,-1.4098357417733836,-0.9564821337820495
0.0060483343688828295,3.263332372373984,0.6414382291387107,-0.344312913048921,-0.8214117981909608,0.91523681686677,0.7631761208774228,-0.3947307048167763,0.5270985330898028,-0.41240446070628056
-4.020309751753648,2.5831069330774525,-4.340466432763086,-0.3293987749327079,-2.777861995048299,0.9843398357645914,1.4144172486252742,2.977025619820951,-1.9045287998119025,2.620408087371936
1.783334919812083,-0.9805596386806035,1.7720474247793656,0.04181294170740663,0.1956908116587092,-1.084368564423467,-0.1863713016161928,0.3230371247383941,2.2332889491835166,2.837990657323618
-4.661205295438158,-0.3813318563936181,-2.892617222094156,-0.29508169618160934,-1.9830962497505729,-0.7245128882186506,0.29707966347188564,3.1960821439981917,-1.4233157221073673,2.459611651657646
0.3511284767759911,3.3349834451954994,0.24781161804380758,-0.13213136140871917,-1.1772775026770945,0.46960578197467556,1.8346129323220526,1.9434968410645554,0.9939776562782877,1.910855421629515
0.15515149390501137,3.2962280431791546,1.4397688856523627,0.013926188486117496,-0.11113243509592302,0.8231700586729996,-0.7796293033469431,1.8906857187931894,1.2941640735940156,2.850616212702011
-3.582611399195528,2.2794520419669806,-4.6307239449009305,-0.45026165650538613,-2.754018382283382,-0.10030022323509213,1.9878750282867845,2.081680819699747,-1.7708074535395308,1.0200642628861885
-0.684296900113685,1.8201684548299846,-0.19956333386600833,0.008255502437625137,0.052094571671559294,-0.23867970222823864,-0.7489824370580317,-0.11509379178019896,-0.3233546610318757,0.046568655332061226
-1.2791693045995418,-0.7519949029096458,0.29192907689908854,-0.3179701478957768,-2.4062419322458064,-0.043248970468648396,0.8549920271250764,1.5839858708240877,-1.2947700156346655,-0.18669518723443168
-3.59005485199705,-0.23253615402606664,-2.4690564123687055,-0.19362117467172058,-2.8987988908180498,-0.8239394581044102,1.7452537780973605,2.665452480374057,-1.2014020278190989,2.8138643432552106
3.2090714241871536,1.5164208818593519,3.4312981437963987,-0.03293229012534661,1.0957872723075668,1.3366958269728537,-0.4333017013382612,-0.7858883003077585,4.078803983939177,3.034838449822561
0.7729584412175481,2.121038296891093,0.31096368071855685,-0.033874751812962164,-0.21115889342537128,0.5095741497060895,-0.019000202938967023,0.5608068265030035,0.7434959459374505,2.8351398645418495
-2.8069225971501472,0.6022372022767704,-1.9548188528320047,-0.49019172114020465,-3.475521811213008,0.9101244776388836,2.240662129479849,3.410473983786166,-2.3359188939447737,0.20223389976350736
0.5711783582787956,-0.20118498480237312,-2.020018846735234,-0.07432302546313432,0.6461421171990535,-0.167938943360153,0.04000167833957568,0.6611094796971861,-1.0040811339978457,2.9201326941614245
-1.4450930508001143,0.8638717082950065,0.48560020866531706,-0.047119440192847487,-1.904755103562427,0.05462223946758034,1.4777845570422168,1.3337449534412027,0.5282163938901885,0.003071934790352282
-2.9145498413438324,3.3407778552907583,-2.6958827977071786,-0.13437900980552772,-2.0796971724198947,1.0944795077200662,1.1834210665979767,1.4201892360131607,-2.4584710489140065,3.15925015285233
1.4037364176582137,-0.3338610652928622,1.9833113891108924,-0.14137529484152545,-0.4452707356715663,0.866482969725944,0.4735376329159816,-0.32772505542784325,0.7333755722658224,2.296525003175126
-2.2787733411589337,-0.4093672555787352,-1.763495249080552,-0.34849555628448714,-1.5354538564105886,-0.9355057955192145,-0.19057955486163775,2.378745845724427,-1.904997918366679,0.052985170041769614
-3.2509524751116823,-0.02197257158778032,-3.411272958014032,-0.21080165775660473,-1.9612426405014176,-0.6183216035635137,1.2606523153150662,3.277590534413311,-4.485391325280154,2.2496087881178535
-0.730061763261066,2.75468269746573,1.382005071183161,0.007307296919516085,-0.7440821578222669,1.122066382331817,-0.10867343632444743,0.6145986608176048,0.143277228278891,-0.2084946170980606
1.080595062601388,2.1306209595421035,1.6303383291722424,-0.11225112275627601,-0.17202844493848618,0.9055774142743489,0.20643656091031262,-0.37773522185127606,1.9998786014723722,0.6418414984971146
-1.1336813666112988,1.7936990615044457,-2.1188282591109577,-0.11261132164280031,-0.774195601773126,0.2957827226271934,1.6637234040475977,-0.03434792635228956,-2.3681042545500395,1.4580448057407902
-2.9087476942420394,1.1941658111602074,-3.635852736395748,-0.48479995310624646,-2.6435778818544127,0.05170636101329534,1.4240022534531438,0.7771618689821269,-4.299012179454422,-0.09796204737287473
-2.559003983806423,3.1482800590414355,-1.9473475139062604,0.004664841743718581,-2.41866876258746,0.8340850482772902,1.1477805994939398,3.416056304150289,0.13070351036180616,-0.982814855753552
-2.8059629587782684,-0.02523931563954085,-4.457427065539677,-0.1862252794326687,-2.6011900193125572,0.7330918458156948,2.146667959736755,3.090139694286343,-3.8201857976195255,0.11213403663769528
-0.618826880599282,-0.608236366773876,-3.306434122660842,-0.17635692270762934,-0.4553315533024697,-0.570181644031798,-0.34382051905151173,1.5891190674915858,-1.361527166359132,0.19501740068157147
-1.2204947449804382,1.3385505587344602,-1.2397617309256834,-0.20351635407223614,-1.3403020927166274,0.15073855240367817,1.6929794257383064,2.1750638794824573,-1.5114480433527369,-0.9306367692653083
-2.319646032499315,0.1433789059145154,-0.5991584324400974,-0.3424579392860057,-2.3514284959536735,0.358749284181464,1.3968425553434252,3.300137155353987,-0.40288115524313656,3.200251311792706
-2.786248936225655,0.5751489312795188,-1.1634731946295376,-0.11551911547266551,-1.3307506917824576,1.4136185893119164,1.1997677103072393,2.1231864344992544,-1.0284126668967573,1.4744413687711901
1.7100570738271015,3.1762051294735647,1.2245668578608684,-0.11347431204086404,-0.25929046777891174,2.8189812021508276,-0.22243282419461677,-0.7088701428191369,-0.8373946036918938,2.4689124075422533
-2.9192315920711933,2.957009502158011,-2.543560330204552,-0.12965523679145655,-1.8903327092786117,0.6189208700148524,0.9510537308926792,2.385879370234504,-2.1793112685993434,3.0470158505054474
2.8644107687675775,2.403293687201625,3.5192393047402857,-0.023540798972148502,1.4250842604818619,0.17294497642795198,-0.8110928746813588,0.937680838185724,3.939639330772742,3.116740136126964
-1.8962693650779303,1.1499685912350488,-2.9077790405510173,-0.23043574115059853,-1.5604458164625559,0.4341650391140498,0.16725330353052142,1.4952100452281663,-2.515630435767163,1.8405143728794497
1.421576093562604,2.5994971679792442,2.6720087604270035,0.23549342520407568,1.3053562869336799,0.8707241294061581,-1.1215462735017714,-0.677781398312401,1.4244657890936936,1.2838132175009003
-0.695455440423735,1.7045675830411473,0.9148049453502258,-0.3193422976754541,-1.607569485157384,1.7169319416725712,0.6132929905740048,0.5966751974625282,1.1555614372689877,0.8478454035981473
-1.7932075125755365,2.366745997727485,0.4445788275069986,-0.3194816575280077,-1.1098576825924267,-0.1414053228678505,-0.07325300774855344,1.2396290087060287,1.5057613771040814,1.9410518947549371
-2.1748745341249167,3.211511164898355,-1.7369669832998926,-0.023436634764939696,-0.19972542910182484,0.12391824645575372,-0.24961718483287088,0.8380811269435802,-1.2212573101504516,0.2840861333812088
-3.025919478219222,3.207599263884754,-1.4570325354836255,-0.21302085764614215,-1.3825811428797423,2.0111557588858138,-0.06557905002372592,2.7171790060536685,-0.6213622319729821,0.8022730181217486
-0.10528208840993761,0.22871842264893893,1.0314058800354091,0.006177467022845886,-0.666381183631605,-0.3301352915752318,1.138873465495096,0.2933788986657979,0.703339870507977,3.0148676910077725
-0.9892387615146387,-0.3964296345725673,0.1139164969720397,-0.19469487647049147,-2.1609433195487227,-0.08375657079907849,1.2649260083320675,2.9057399746114574,0.9717877841050537,0.4315999075306778
-0.3416881064936468,1.3703018606740192,0.6055097059120704,0.19916299409899882,0.5666336141177734,1.8540433790855217,-0.974839126712797,0.08611523261409348,2.555236239422231,-0.5016727898336497
-1.1452998825873753,0.16107613300071888,-2.1675439649942723,-0.3239793299838659,-0.9052871273825739,0.3467723593438048,0.8270637226008417,2.59087313603666,-4.050558347764424,-0.20830480209416857
0.9138532334639998,2.0594421101771503,1.444101853744595,0.03420662159719246,-0.061929822685879043,0.297840186048379,0.42107254477165323,-0.2590924785991007,-0.5911172880326816,-0.18595947183958972
-0.9402321513289867,-0.5447153442467585,0.05876429765403057,-0.2300535534205103,-2.469895123971372,-0.1360538358960239,0.22454430312376253,2.934996525042415,1.3663913030087254,-0.10357288250949959
1.11465855235457,2.605731263314449,1.3617793703133796,0.14230585914943267,0.9029211420430997,0.5196437919915375,-0.6838780958735052,-0.8380549507150564,-2.122398559301851,1.7992955777538024
-0.8284280175885071,-0.8195679563324562,-0.17067044404735543,-0.21154033391712979,-0.11587788020047284,-0.04165188283478591,-0.6994114114053149,-0.06609555449116755,-0.05828190341150019,3.326557416592525
-2.1208813533859283,1.0046045056265034,-1.8537737612253573,-0.17968873350715034,-1.8731729970889879,0.4353807799992202,1.1387728165608695,0.744576409692649,-0.28553122571826905,-0.7943915658661544
-0.661805753080131,1.9034540740678771,-3.1412112981288174,0.04214408196212917,-0.01136627599096081,1.23537372376722,-0.7759736828515149,0.4859087083502509,-2.4884061291230086,-0.04737031298286587
-1.83308671366328,-0.24373911023834316,-1.2957553459940419,-0.3251526797314059,-1.9458943981300985,-0.5339305236189987,0.5860973845392514,1.4335212043205932,1.4156347330282602,2.612942820210519
-0.8871448394459294,1.8939948228959094,0.17748974850216792,-0.3326567977845712,-1.8835882938534056,0.9240175056834641,2.106591391071608,1.892724479328276,-1.879775936433446,-0.6832149596724233
-2.007790625966181,3.059757890611535,-3.362123095752983,-0.269637338332405,-2.1541028459950184,0.7152836400178326,1.5751051799486868,2.109367061422802,-1.1741114067955958,-0.6347488529875256
-2.4341606360298305,2.315582556253345,-1.8640309128280776,-0.10955800973291263,-1.43522534300176,0.4236954651632101,0.6571321388384873,2.4658222330329362,0.18591274559920795,3.4169611078225373
-2.7847512210699747,0.9139915571165209,0.5596466466684155,-0.3908162697366999,-1.6622319247422497,1.2712625457363136,-0.9272629185091934,0.32263500048766214,-0.35999025064101786,2.019770014125715
-1.871264919072026,-0.11906409526037609,-2.2788084497420433,-0.14017380450061698,-0.3891179557481969,-0.22802613593805332,-0.3947870193876662,0.4831254041215163,-1.1915528484568445,1.061804593996258
-3.032524900994412,2.9897378279102296,-4.13040055248216,-0.16833437179065083,-1.4420397919909307,-0.06380899948611962,0.08730876989597945,2.191178611198432,-2.6133693409019307,2.5621866763167254
-3.2029190121040765,-0.30706757103666593,-3.654485408948561,0.1064689982153942,-1.212208061633421,-0.763479564043025,-0.23751811027335634,1.9844092979477792,-3.473404143576171,1.7424048494723468
-0.5401991079615429,1.2176640683935465,0.25669060536317756,0.07338934228312724,0.07516841122298296,0.28901255701201134,0.20986434553360564,-0.42340521482980453,-0.2435866110124302,1.8970697959820284
1.3837032573100232,2.1480288148564304,0.8504254127029409,0.12921708181945563,0.3306601432132916,0.7823040038035365,-0.45334674703917227,-0.2821920983969719,1.548659951278692,-0.715649606706882
-1.0779462966476612,0.9809922401256559,-1.001627858102427,-0.22422490943759174,-1.2299050385384798,1.08796688503545,0.9136072006790978,2.343354800701453,-0.9158534478105089,2.9764676222321014
0.2513737423528043,-0.749745974569493,-0.32641038722364907,-0.20111026810467486,-1.8093939117040385,-0.07299360190956922,1.1021631324001089,1.1022666186397911,-0.4688076108996061,0.2750234828724085
-1.047374934864308,0.8416412150273915,-1.3285605950839114,-0.2941575748881172,-1.6760205076056567,-0.5319929089017356,0.614379854271484,2.8709516604200274,-2.028574882424601,-0.20988472600578123
0.7839650591498408,2.07691179002012,-0.5177149051607629,0.16875698050317764,1.0938797882170124,0.12316844435264429,-0.8386416937073281,0.08206869298915809,1.6268972472144958,1.1192705926581814
-1.8256026750494794,2.558499736704126,-4.004884080381174,-0.3143392552340184,-2.9921580231215517,1.3631211740892595,1.422896148723582,2.4440885640255177,-2.8400593313040083,1.0300911922935563
-3.0849423293003415,2.652168941340506,-1.3926927299967478,-0.33005727858578854,-0.7047039137338791,-0.6144993391459286,0.1934420757353805,0.334508058318155,-1.8144215144316482,0.027109404348068855
-2.517844755401659,-0.07315841443220017,-2.385109893492295,-0.14922354291967035,-2.2782581664615966,0.5808329135424671,0.7446643519990674,2.7042396438278677,-1.4692316525152487,2.7043827582246194
0.009784035227759835,-0.9854328326765696,-0.06467953574264307,-0.08917952925648809,-1.500236367877445,-2.342022865501926,0.9583943413103594,1.7821716853683314,1.9629913371857595,2.1267255177787363
0.894912190641511,3.2093316386238673,1.7151696879492053,-0.2146940601727162,-0.9122650623483332,1.8877360274847865,0.07645744397353964,1.1873881835593054,2.3381944020955037,2.1687279601977174
0.053059580314327115,1.5694792852035109,0.08427692638121051,0.2212514817613698,0.5173018627665946,0.09206609692648327,-0.32615314573788323,-0.5388555362358435,1.4335753416398953,-0.9365419117825448
-0.22145097845768674,0.8599256549756951,-1.3989423064733741,0.09386858776040778,0.17622908957863798,0.20895579375618073,1.2747588864364305,-0.07906414504821979,-1.1336448762031952,2.533386419649422
-0.26451217201512234,0.5587367038314792,-3.9100947725566817,-0.5321290304283034,-2.127381895648108,0.5721637030163467,1.1275864261900057,2.9181059694269416,-4.766352634886043,2.8186668138678175
-1.2494112559659778,3.3765290331969258,-1.6346261965740423,-0.12833818977043865,-1.1833672356836678,1.0227389406114664,0.8037946186658088,1.2474891491308218,-3.5926827118955433,0.6294118103088884
-3.0848892329188544,0.19928814858872235,-1.781039891638144,-0.36833180450810254,-1.9096652082389558,-0.6437722208732871,1.6339398138163899,2.211977759278396,-0.7185028640640503,1.0058021432408668
-0.021923484659161274,-0.9456206537206874,1.7618190514053886,-0.11569568890810328,0.16523068728400744,-0.2951703448003818,-0.2525717548096097,0.07203388577417291,2.836056294784051,2.9437711090594862
-2.3485675962087784,1.424845745221333,-3.8681504188676907,0.062320457714939985,0.17427332313795074,0.42463797476620035,0.4062867853050965,-0.39961002708999094,-2.5944098849322863,0.5030418351273815
-2.6250142282294195,1.902310674331158,-3.4307631341904217,-0.31862716862352003,-3.595778243537876,1.1057994515232514,2.258830475932905,3.2981548842856734,-2.9854920955930586,1.5960078294658375
-1.2310820860697778,0.8474082002887411,0.3759694372000504,-0.1818918034660593,-0.1449818502483167,0.01485850536164568,0.7219832494844832,1.0225552213600633,0.203781411754137,-0.23259680353326395
-4.9003424862383556,-0.4334263154297021,-6.984810703985385,-0.13347321511076235,-3.1323925689726995,-1.2377968408821785,2.3271194912361,2.0840192602603116,-3.12091452385686,-0.6459374624230165
-4.638069511937375,2.443300021991657,-4.373836912604108,-0.2789026903095962,-2.6363099149673648,1.4032478929545233,1.7170683162151859,1.4171614072004983,-3.5679685812647457,3.0986793632411818
3.6368522540483714,-0.12435831972790068,5.801867312512362,0.23239070137236775,1.7506731668574924,0.2620072949584298,-1.3275383629631174,-0.7410935899228184,3.9329948403694477,-0.18849186957098574
0.18218150075811582,3.196601804762671,1.0745359558458287,-0.2350919920099748,-0.8329736895925428,0.7002604461428549,-0.6392004381003932,0.21714020619087293,1.3754933678884806,-0.6366229094395747
-0.4144678055500043,0.40134458667769635,1.105247123792439,-0.12507259732125064,-0.8651609881672614,1.4953627440403636,0.4287212989130194,1.0035867136585033,-0.05386242271293984,0.9352768141789738
0.24202107514166937,-0.47865534538202226,-0.2242474033777144,-0.28579017914590926,-0.10415329452383618,0.27944080745524363,0.4781389860660022,0.8799856508156831,-0.5760864938495478,-0.3212643251251065
-1.4713728921727411,-0.46262513823097984,0.5475226802777489,-0.47469458607256304,-2.3068201086270586,-1.0339005623153232,1.7753341780721605,2.1679366642028794,1.8239398373472449,2.8641801476085362
0.10770888116780841,2.205708784390235,-1.0336212574309442,0.014596575193299276,1.2403752263298407,-0.7560265410859046,-0.8570954584402443,-0.845570052696157,-0.9562576575159958,0.14033343947141286
-0.2975162442922473,0.9301575118586822,-1.393767117165773,-0.22181602527518804,-1.6888814905974696,-0.36011896379161235,0.6133153503094925,2.8159662136995216,-2.4998910370067886,2.1806534663133323
-5.535251618243927,-0.06354736545693007,-4.6410019369527165,-0.1324696644207259,-2.981763597858061,0.14928649973982092,1.6808113925034003,3.3310408531661224,-3.6225387143895853,0.07616520858578513
-0.13452728651817047,2.27412843127981,-0.5816094025423741,0.045187620378625136,0.22394068094047415,0.3326814279274271,1.1527322919899938,0.9949372476143921,-1.326092299941535,-0.20871554852337593
-1.2515429373414113,2.248437396571633,-1.295247349276749,-0.21619232310871006,-0.8730691421864731,1.532510552021653,0.7661136728904057,0.07496066032388948,-2.0017109641538444,2.436228753441939
-1.2119736078829861,3.0197814570011703,-1.394034440906818,-0.12291438680663298,-0.8432433003880877,1.166250107141053,0.32359319882389803,1.0419537465042792,-0.149731789051035,0.724352966935049
-0.08309702632476873,3.362929155949735,1.682100523864112,-0.030187768669738345,-1.1703202951168585,0.4187752006131691,0.5064851805618433,2.6042370637421763,0.09018364625074127,1.640648237741059
-1.9179473489429122,-0.39549393971292346,-0.9838525541562735,-0.057700941225889445,-0.6684705071662895,-0.69640173955432,1.3158411499068996,0.5514483374475008,-1.2107387007324406,2.915818990401472
-1.4441215458241246,1.9245532923398971,-1.4641481275304282,-0.06665792498556798,-0.21904175395984474,-0.5126052131866166,0.6292125759553048,0.8439174501488043,-1.0306019429252975,1.1646077159327506
-2.3951004983228437,2.414186507686605,-3.164794907898354,-0.39776370433899916,-1.9215713822794356,-0.5244423675441201,1.2415792007605122,2.3687290422866534,-0.3893865067004383,0.07832334473067282
-2.572621027093504,0.692889144549852,-1.888247117970405,-0.7608363648955111,-3.2778069165205,0.8071464957577502,2.58493184644892,2.3725673865455916,-0.39053116417254463,1.6299362995697013
-3.6371002882452346,3.22542676238582,-3.9416838813785713,-0.11227191470932127,-1.3407602998185064,0.6078548810617981,0.3692472286214542,2.8806036882119033,-3.6963966052212633,0.323546307997828
-3.2366854405690924,1.4221153798884147,-1.2687420374714802,-0.266316081207393,-2.079811339070664,0.32602402464061464,1.2553877707094894,2.2950551378849555,-1.2192301439232882,1.85152770308768
-0.5043923204326282,1.10529881923937,0.28833122342912065,0.03598320240863404,0.004136859683349362,0.07073278525010113,-0.1951175121731309,0.058843685202653706,1.6237950111348711,-0.45695719026586146
-2.1590219467463956,0.9457298223265016,0.7489019776509911,-0.04665313848570411,-0.820968617252243,-0.2139465152089552,0.211642339748292,1.674700799645651,-0.2961679601115044,2.056394881297764
-1.5237087480237441,0.05285880963194001,-2.5874682129789486,-0.18965978642208003,-0.08271398386044031,0.30965925423483864,-0.4706733852076078,0.39623478973668136,-1.84584456568884,2.4554264088413014
-3.7529792197841223,0.06873175464141079,-5.705264142017304,-0.2673989976465918,-1.8958289791133647,0.6648986180308771,0.9005179996181831,2.0147034109210296,-6.620505178438716,-0.9336274199874974
-3.623802721872634,1.118323970003491,-2.208022436209497,-0.3301160727886079,-3.3801471545458806,0.37952066224121095,0.5692998496459115,3.361547288107796,-1.8144975290734964,-0.36151386965477605
-0.32229511728419125,1.4405369133086938,0.28171452735894503,0.0028336831111133577,-0.6506441067080471,0.870793832316654,0.6835188421384042,1.2137873646793889,-1.8684452026784493,-0.38053195459166167
0.15939530931372908,0.07249728991965565,3.008781255334424,0.0986008691789796,0.5075918831201822,0.040819727063073574,-0.6340364664808672,0.4629501919840491,1.1985341322187286,1.5068188927204185
0.7585181412739299,-0.36098446874912804,-0.264833753958555,-0.07818660878571998,-0.634495393721198,0.25782643802526795,0.22143077927158777,0.4316642716202015,-0.7425123114706222,-0.5108290038807408
-1.0262693103721352,2.895070163606157,-1.3856663731040446,0.08833836670004423,0.5533435074042515,0.029248558881129594,-0.5981328354670853,-0.13948536017684177,-2.1925106409521593,0.3566661331961092
-1.0723718596583318,0.8259064574690016,-2.885397299270127,0.022288117285889142,0.6815749610141648,0.34612833264213383,-1.2735723473827794,0.13427851032937377,-2.8338258489688286,1.9783190245993363
-0.06967566137416469,0.6024453016133824,0.25754178574508635,-0.032913730120032784,-1.396399496916177,-0.019402830895704992,2.239574911070695,0.9077900797056218,0.022527237594780702,0.4279509105633479
2.5436099696566785,2.3845177968418363,1.0439603316767743,0.12247018206816167,2.0791820150266256,0.9547804188729792,-0.9329490812114335,-0.478785094533249,2.1094732472026183,1.4969232519370732
-1.4203388602898683,0.708905225621542,0.022699778395479098,-0.08924239231556962,0.5285657238741358,-0.48646252457547456,-0.13968404831964762,-0.9761318003170197,-1.5576199143826959,2.363481315244526
0.2609238268861935,0.06403235200584012,0.04427836189932244,0.23755026297467421,0.05823602731615619,-0.23312604365564865,-1.531817171627362,0.5197964879452137,0.5786809127291725,3.1882147318063954
-1.5410287343482887,1.2025180191802276,0.2680874023201474,-0.2357767007782381,-1.601894136401908,0.9902144867768901,1.1480450681518382,1.3982511060157488,-1.0504497383415325,1.1007777575742366
0.3425198055320714,-0.6938967580571511,0.6072100841401844,0.26713583659922413,0.3785041549154018,0.13535666672037994,-0.8879430734539895,0.7234877796929717,0.9829451239918748,0.7997715428539514
-3.3558035668670425,2.1947172456439756,-2.9773853753356954,-0.26235505922955776,-2.6733321952637614,0.46495834575421946,1.7862023686744182,2.7983265530488692,-2.252995989226595,2.0345216477630212
-3.6961259272761513,3.0771126084112588,-4.063961514551405,-0.3623391117061127,-1.9707033062587542,-0.7137222820270792,0.03318735057626333,2.81005693240217,-2.5586413425114856,0.39823651840188434
-3.1063139565719813,-0.16921788525896775,-3.111247250409074,-0.27750726687773963,-2.2135434720555627,0.182304055854909,1.1391512740853438,3.0080026973096246,-0.4792297002293432,-0.28184788161280205
-1.7403271079637757,1.0490287254841038,-2.4051393976830644,0.1668842977599255,0.1057111376975884,-0.24433953684326165,-1.062430067097398,1.7377887618859749,-1.9661298325900611,-0.789692775427226
2.599573032262759,0.2908950994231101,2.0777325232820143,-0.01969122830476061,0.15511970921855903,0.39114462435150865,0.048528015547923305,0.9415169072962257,0.7588938095057709,0.39177966951317567
-0.09366910653240312,1.6328292170486507,0.3213319308377336,-0.05274481809172528,-1.05995068838702,1.004212297176712,0.4722403123187531,1.0384821890109461,-0.9442481758299256,-0.3627866865070465
-2.5247597194787303,0.28078859824876434,-1.9103181701554268,-0.00767202010875177,-0.7759151139126995,0.10757953169369375,0.1223831562008332,1.1675936426275846,-0.29806500940484043,2.543288640687819
-3.4847160230399155,1.151121987406937,-2.336562569308229,-0.2213844702813088,-3.2873795724741885,0.12042107300658283,1.941764081152368,2.7900931843290437,-1.1953665074466495,0.7418446333728692
-2.9902129757201883,1.6024624136590853,-3.739803236885174,-0.42239082261934674,-1.9945381727360396,0.3128433184931822,0.848769307338195,0.29191824532848587,-3.680238867351046,-0.9972989376140166
0.4081613378015581,2.4803113786294038,-0.9671322909583562,-0.20601587775337188,-0.8212920639638511,2.287806071406221,0.6920785403625436,-0.07274406407611855,-0.15062056992347062,-0.37522746875381763
-0.7742859313922146,1.6074566655228506,-1.4047199986664105,0.06398057636389663,-0.04746767010359751,0.48758597708898205,1.1919507242845815,-0.3384442993879351,-0.6583263417635872,1.062016832485019
-2.5682250409757303,1.2573238315533577,-2.956378442738265,0.0912409818658481,-1.3985715348864936,-0.5139565700819692,1.7296501866070422,1.5118157166189419,-2.50315667681686,3.0736739440173872
1.4292790752143503,1.1282291624039944,1.93569961736311,-0.0009169942931919001,0.4621108139969826,0.6762470360645109,-0.9075265342229188,-0.26622447401018745,2.0383074284067333,-0.8048526759374182
-1.9671990090545033,1.3503004792902766,-1.8122931774466546,0.07058027841350514,-0.8028860878635746,0.13981971463748277,1.2073005284818752,0.4285760859242276,-0.5661238669710583,1.2123194223872549
0.5211179156621663,1.06660546249865,-1.9332164379838819,-0.12165063344185378,1.2714832669640133,-0.4509763135233506,-2.117294356647066,-0.38347976617832136,-0.20087766782622762,0.9143023296066888
1.10121003011581,-0.4126224190872658,2.0453077313733776,0.05984957684885427,0.046938940587353754,-1.467287147675848,0.5723145526960011,0.9702091189347821,-0.27884916728839826,-0.3114016830313566
-3.651749909578927,0.8924823730666254,-2.711887166930494,-0.5609847681547278,-3.023289838419708,-0.0670110671126134,1.5901937056586934,2.8073150156434985,-1.6163042176327822,0.42295640038696125
-3.861431853742828,1.7462248595638559,-3.164975707043772,-0.3381459418421692,-3.5744641152426846,0.16107406967969556,2.377790015958992,3.4118939432998108,-2.5685787428719484,1.0293032361935013
-3.1851957395723236,-0.7330798056273569,-2.8623308416658135,-0.16536188351238637,-2.547606305475294,0.16851694308384266,1.4718718829675004,3.301158018452658,-1.40454140714577,-0.01918721937407164
1.388256586273839,0.5758251104876173,2.58090527892229,0.06366474187322263,0.4559825611145254,1.6531831893408993,-0.47560002979967714,1.12610561699191,1.741647567042579,2.36965295739364
-3.2692125108416934,0.4241114967999773,-0.011133964515490313,-0.37825975454901806,-3.288067386844582,-0.6684484547387023,0.8703853043209638,2.9061335645698274,-0.0930529152040418,-0.9360872893055824
-3.4094558620802813,-0.09279770455270797,-2.940026390541642,-0.30151315107548055,-3.4476578532861977,-0.13702553672835352,2.9654390994531936,3.31891940545522,-2.2319195738977355,0.16701040075943618
1.642250435411754,2.568840470981841,2.745461319755672,0.25882624373922536,1.2049145535851378,-0.4510666334284603,0.11726041814575379,-0.5739018891045684,1.3953566377144124,1.7707205305713436
-1.0033578908409166,-0.7710786903288644,-4.701880163233092,0.0658358295953306,-0.09509372847663815,-0.3842475064457046,-0.4106342577978632,-0.8582404184815084,-3.943231599189442,3.3399932406941906
-2.151790848421654,-0.1954778451173631,-0.31296016615673183,-0.4217270435600675,-2.7689309547753562,-0.00828050468550734,0.887721649873084,3.396603283197008,-1.1094262528488787,2.0240533115862807
-1.7439037714297942,2.4951487072986724,-2.699157853889759,0.0028109399373835494,-0.872291403930638,0.2979836895479894,0.5522738473422575,1.837379745515754,-3.5999896550780295,1.7837410352116696
-1.2536578040411597,1.2758738803906042,1.8753813495624314,0.26656044342435986,0.352677431952871,0.8344099673496466,-0.7264696632227747,-0.7843467970315936,2.2658184893635727,1.5879653544297407
-0.15785049704885865,1.7772086832015752,-1.6279362769047916,0.02163300725934644,-0.4588245862859912,0.7794824022879262,-0.15144749288459106,1.949604686232604,-2.2263989416262198,0.3604555297412473
-1.0683944137114252,3.416451416101159,0.6165519764531098,-0.1676714128707346,-1.3940851023825755,-0.0025969367500071616,0.5033410302733038,2.4383442362781755,1.0498834276939917,2.861594718057134
-1.0651963675745233,-0.686270620738269,-1.0675177184386664,-0.1868243947060678,-0.2672627666846588,-0.7978914959999053,-0.3946125052476042,0.30821823381845403,-1.1887138414987062,1.062595487575419
0.5849237950462026,0.8224877794128562,1.5864715804487295,-0.01328265255400522,-0.4040368759591499,1.0180455868501719,-0.24785987328663928,-0.32140065461117184,1.7268526372121011,1.6225451086195917
-1.2648540543235702,0.677937159993472,-1.9294545704442043,-0.3064147732454702,-1.3754222169475614,-0.6839618964436223,1.426679675743072,1.8348561575797393,-0.8818555697120884,-0.7254082126382841
-2.5783524036053143,1.6818310953812206,-1.5387227756892394,-0.3649521464149252,-1.1614426683825596,-0.14652810444721998,0.5069063838850829,1.9881823277070492,-2.1476878427230623,-0.8086912227077678
-0.129725849397184,0.9400360638091179,-1.3808964740303,0.1689145013299246,-0.6172151994077281,-0.09388348674532998,0.049247281419012724,0.28501986716652383,-0.06063370574015303,2.1497578804515327
-1.0542291968880095,1.0206285480251438,0.6602734625931752,-0.16276081711014284,-2.2916492155703945,-0.6470509595795902,1.1417212460045434,2.4892888684047807,0.6626229500484291,0.11391115710882183
-2.2680920738644383,2.5879784466425155,-2.6538824072038927,-0.34297615566605694,-1.964450983168309,0.806590761337066,1.0423158274704436,3.108342583527963,-3.3440955837132345,-0.38452207004903216
1.29890625370538,-0.5539237098362734,3.7109068915795658,0.15725709228335477,0.7798193680738265,0.056760706655361745,-0.4760182944005812,-0.8831764737785662,3.107240627553476,1.1223184645300166
-1.6563064823577536,0.5448900554257134,-2.2590685090709095,-0.11825067195008006,0.03918713738801854,-0.8518228876735607,0.37264524128563303,-0.9042494838279023,-0.7988820668900604,2.3292589135304436
0.5066778976535918,1.3827348966915731,0.18299906101097307,-0.09378857322296726,-0.6113939200226424,0.9151920471578189,0.5845127925754361,-0.26866733353838423,0.6333438331962112,-0.5650276340852194
-0.4968177535816151,1.9937636340012097,1.3134057616226127,-0.3704244694348577,-2.768124459981477,-0.23986012444555305,2.3304597988793527,3.2424438938235927,0.3716548718116484,0.3113934567805956
-4.165500533093315,1.2483231289171117,-5.306564883392492,-0.28098010867330925,-2.793324703679492,-0.015723263309077,2.183450351709277,0.05718402481267115,-4.527335500975344,1.6835285504467055
-0.06914904534752342,-0.5717115886182009,0.7500965964316693,-0.09619191680175528,-0.1848652175112442,-0.9869083026740396,0.46450675446328854,-0.03283681871742772,1.145381004211624,3.4575560547483084
-1.2490885569272159,2.307895534960023,-1.6819693144495886,-0.41760321353626406,-2.40411335263581,0.007845503015954547,2.0592792834623665,3.292370542058113,1.7385162371454803,1.0621090943628362
-1.9494075881513049,2.8835118234768466,-2.0087437721369557,-0.2138627375184046,-0.9124655821925758,0.9538348067854716,0.8589834405949438,0.47541029688607295,-1.4868319178833858,2.7799246552328336
-2.4918332309195534,2.2851965828954075,-3.632487909832058,-0.09630724872506617,-2.733008811946031,1.1444062282290506,1.1325084711815758,2.4188973778799623,-3.1768476205577887,-0.4787886601424931
0.48900155532052164,-0.23987035191263117,0.7681079919793166,0.12966601673923608,0.5214918047329465,-0.41501515174678255,-0.03904250581109931,-0.027974033049169678,0.23475745362558473,-0.3325872011033969
-2.287388278161409,-0.330200219158585,-1.1443294510033388,-0.17196649610925036,-1.6174190790710754,-0.3615036334335876,1.039198616984475,3.0788633851621823,-1.4478406272900701,1.3705793487593878
-0.08254986866734222,2.07177104197876,-0.0693484718969149,0.058725893256583346,-0.169049825763211,0.04844167864429094,0.054971887267194555,0.005242613321128298,-0.17046967679084782,1.547323423242997
-0.8716585627166796,2.5076665695163225,-0.05943105974858959,-0.027674224420265132,-1.0983807229451017,0.4791842077525179,0.758080070262064,1.6071214741597752,1.187487607148178,2.711557009567025
-1.9461613678616128,1.888429795371223,0.04099725814647304,-0.008691904467655274,-1.499565739807987,-0.26317526124631724,1.803724696252781,2.3860477057583593,0.24206310762405864,1.2590154005391945
-2.648315462100216,-0.9355697313862383,-2.0851538109180128,-0.27447129456465597,-1.150441945854837,-0.9744482747468188,0.1430172752241446,0.33809836873092003,-4.470906077874339,1.9279634017336273
-0.457767116012784,2.5400522970408166,1.050502961825681,-0.1063610655346949,-0.8885515821158588,0.7091901238142151,1.0494143348498552,0.8119061818687996,-0.39362202673319513,1.1238724190133422
1.3041611884330744,1.4254893194912328,2.0492678300109755,0.3990751302813399,2.2089480555367165,0.7603831223883565,-0.36010227805809714,-0.6476867300504838,4.682196735738748,2.1555515300642956
-1.0194040299054423,1.1217712465810612,-0.9011920128978776,-0.27670984394181297,-2.2660037709177696,0.37396633679552127,1.2416599777277542,2.414596263074828,-0.4986520212331939,2.0804430274908636
-2.491769322187362,1.0521295933137464,-3.081004866610123,-0.41897500084148687,-2.814525409561924,-0.5235310788591996,1.058844639258755,3.4327146336326777,-1.4323818878301398,2.1075288911513907
