x1,x10,x2,x3,x4,x5,x6,x7,x8,x9
1.3423438287617224,-0.8720995748590445,0.4487171173065219,-3.5226567211170807,-0.6483194766228155,-0.4908394059230515,2.613481139170215,-0.3932415251036954,-1.1931855407201066,-0.056166870126734714
0.49802568630497857,-0.8212220392450573,-0.5816579415850989,0.8751057108712101,1.5412273492688733,-0.6122695327687161,-0.23280190823974367,0.31386226341299045,0.3084829792982188,0.28232115661991164
-0.9635528363188015,1.6729301779114947,1.3001627239682807,0.6756601006433665,0.7210801562686909,-0.8140022079827436,-0.940733406189427,0.001735318997023061,0.23480329156606586,-0.2786488959574271
0.3520465210431043,-2.173208517497931,-0.8743216765581009,0.4787394639252944,-0.6424101535826752,0.2619158385066999,0.8582740827061568,0.7512401304437943,0.3418187122237376,0.2230563962854793
1.6957776314767337,-2.1503600991130365,-0.9861927537336449,-2.5103737763386214,0.09661246052393788,-1.2555295362204537,2.426857259979382,-1.6795757767630077,-0.6713409269977741,0.26171765699684013
-0.14835071319962767,-1.1594963287164406,-0.7911835899800301,2.063503170736165,1.703291756013952,0.22242167425322923,-0.9116772844562434,-1.1985662431748252,0.3957742065105672,0.08577272933412647
2.7791710389404134,-2.0152850796830073,-1.3690659476350442,0.5435147261492979,0.7667120961294243,1.7543820783750894,0.2932084634026102,1.8643653057996974,0.49056702308530115,-0.0948372499971413
1.3951371033444122,-2.1765983656123726,-0.7289155099181853,-0.4829738676623134,1.8655867796402619,0.6957665193700979,0.7940405902364422,-0.791243794660672,0.041903410089943305,0.04722732096057594
-0.5453634000760272,-1.5378413555506985,-1.3740050674053885,-1.7180618980868216,-0.1685124121154422,-0.4967517999782706,2.1627108415383645,-0.9853862621030854,-0.2683583412516948,0.2262207242229277
1.9184053846214786,0.4427591268824989,0.3675174125476588,-1.6767653260175932,2.1162298094994645,-1.327428458927934,0.05819101481918243,-1.4633655858895356,-0.48663069930234043,0.06610867073719033
1.7548737591219425,-2.399564352332706,-1.852765609990004,-1.8299624211694,1.3187868492205235,-0.4536065552463545,1.1289884552206813,-0.7451672389792541,-1.2145278602427543,0.2728401123177938
1.7679117530332178,-1.3240058544801108,0.22973548647773698,2.3798184762061445,-0.9585570132653769,0.034399270184889565,-0.5803835393631481,1.8502420240342665,0.7830075640412754,0.05754963596166012
1.2030761319043801,-2.4955079723591633,-1.5815435371191144,1.4018144954392078,0.2779401697002778,1.4356063510374828,-0.6716118030291313,0.7534843944453444,0.9916505318476434,0.361855601940085
1.3034646342712062,-1.8161558694236255,-0.9295778693702165,-0.7776089504518993,-1.6493540000922977,-0.9820261865195784,1.026900738697833,-0.7460169501193858,-0.7778281989401905,0.24690318941788364
-0.8857665677092004,-1.0280523489638436,-0.07029161419228536,-3.20712879237345,0.20301561012483388,-0.025589196103597715,3.3547589556232715,-1.0093973515498451,-0.7392634479740097,0.2845258162290204
0.5351376975378175,-0.7165650365414931,-1.6213229395623108,-2.5923422303097605,-0.05942752412276703,-1.3250069294448898,2.6047707610001773,-0.0464118039376977,-0.7444064540077369,0.2737770341717705
2.374244872051098,-4.274538172740706,-2.011903815403284,-1.6569964632084613,-0.22306723381492677,-1.5988918512501034,2.632042158226325,-1.233016832912222,-0.8119685014420126,0.09250339735006811
3.088712563947504,-3.8437513361376916,-2.0713469721520985,0.9137906647231164,0.0818115084251887,0.2332788240686278,1.1666539504950149,-1.102203016410172,-0.2768197252796048,0.34769641911637056
0.9225673175188165,-0.8238038048835621,-0.815638876139361,1.5789965251999813,0.3589318930150638,1.9817416694123615,2.9189120380159164,0.5580236253425329,0.5898290065258814,0.32006202386549726
1.4450305210060455,-0.947656544475311,0.0897510734395314,-1.003182705311344,-1.444943322891196,-0.6723647180787108,1.0101574692084774,0.07997275922436484,0.05252944019006437,-0.21577806692261436
0.5563273868277803,0.36352446987161924,0.24060687883279902,-1.9209235278264045,0.7729541907133578,-1.939689388816869,1.4595676059827665,-0.9931053749912252,-0.283534304134171,-0.0405201367627807
-0.08852892282539426,0.12989297546152587,0.45200864070448704,-0.009059077898134593,-0.5886845795552826,-0.011710345306077022,0.28158917411434614,1.422592255664228,0.24013621566904755,0.06401003572988151
1.5014272823993098,-1.623332227564247,-0.5782842309063119,-1.8435909986938863,1.1089270466932257,0.23027070785785742,1.6193068071028645,-0.1405859473328271,-0.5119108614503503,-0.01672116102268446
0.5951501538138004,0.6011301461341795,1.222370043019454,-2.080789522676875,1.2285010931463265,-1.1901805151279188,0.5337727510530796,-1.2039278836162621,-1.0660646376992524,-0.13338575872443784
0.6387036926265421,-1.3878421608737572,-0.6125795030562465,-3.0276716942832302,1.9854492688988912,-1.2913176748693946,3.115014422723216,-0.21356414058394688,-0.8784569541011233,0.09546440578364015
0.8331236249151324,-3.0531608762712072,-1.6572750107802159,-2.4854124912007265,2.385199080852468,-1.3120955679981003,0.5527510652918284,-1.0376966253173447,-0.8402554465137434,0.03977557213134912
1.3236071424945313,-0.245875599049714,-0.9837207969524783,-2.6876771537242696,1.2582888926993308,-0.5209882523516377,2.9608301572500584,-1.5253086464180647,-0.890098735826832,0.004580011767562799
3.0719210510547788,-2.7571667871193966,-1.371145555338969,2.2711072712727134,-0.5463548577413972,0.7048788994131217,-0.8686645693111423,0.6402275256661092,1.1557330808860855,0.06632927936876791
2.4440105581152056,-1.9876453751933603,-0.6192756111187977,-0.24288254817259602,2.4494096428561654,0.5772087961365665,1.2823617005898424,-0.0941656658028533,0.24010346699524446,0.019774036508657115
2.7065646142461763,-3.5786088827448546,-2.4719763347053525,-0.49432613477417886,-1.4161584032993935,-0.4805697610608849,1.3705799831347285,1.2403508988882823,-0.2467490945784467,0.34330241080920554
-0.8763622157274719,-0.9158328472322912,-0.45281482924334326,-2.271161555332606,-0.6359421861507641,0.7645803486227735,1.8640797485386829,1.1892764575461339,-0.3238518028238139,0.1944933770543181
2.2605433466649263,-4.313630579143432,-2.226152052803782,-1.1137702066945485,-0.5550239754434939,0.7828829095938454,1.2375367958226944,-0.5492820144050686,0.1517803683918792,0.29397385019382066
2.2901721996483464,-1.366001573955487,-0.006106664767290646,-0.7156432495900981,-1.1910703660289088,-0.10029016559964689,0.7747506155910502,0.4487702164110324,0.08738612733204426,0.006202267943599056
0.73177658473441,0.19828327832717463,-0.26985684700566176,0.6134924862992166,-0.8848894636794621,-1.3617718893761734,-0.04454561001924784,-0.5374439726605327,0.64915339871509,-0.04569888777281848
0.5662759926499021,-0.561029546496441,-0.3429891185696267,0.734187978348051,-1.648062616153299,-1.108482982699551,-0.41266885149275645,-0.1582899043607362,0.16319540466918392,-0.04570368629248209
1.6213733855991261,-2.053457971305629,-0.3962064503648627,0.5344804591535443,-1.3547308992575942,0.7237297597674258,-0.7487015952779341,1.9747881268143002,-0.37606571029375563,0.18698644658798486
3.056925440466638,-0.9733350376007173,-0.06709110398091546,2.9325838530046426,-0.6380676433036174,0.6403297255776903,-0.9859218525324644,0.9782030870114029,0.9563587039795288,-0.04946444830965232
1.5956609798577408,-2.051142965854138,-1.350539506956039,-2.320811596284141,0.6280365538106808,-1.2312848667141132,1.679286643446293,0.9498556130290741,-1.1057008523558298,0.09368531048391146
0.6726452403294723,0.44295417084403965,0.6267295570887675,-0.26994608672439013,-0.22168925509990867,0.03812951983980857,-0.6463597445619643,-0.22679770478369948,0.73615164498017,-0.14921565030480657
1.1706955978272844,-1.3674266455353572,-0.45499457143749134,-1.058252374622162,-0.8342379476801807,-0.5552914738883922,-0.6949665789894948,0.8656530038065972,-0.2977342293410837,0.23853753617131193
-0.11995933418949367,0.21781996836360568,0.6565521302883756,-1.6251832401346888,1.8037721746154698,-1.5305843365426448,1.8530635395952162,-0.3426976763505594,0.014085839975725675,-0.11210379348271736
1.4362170920579604,-1.125877419173958,-1.4186393489155709,-4.031209922380299,0.43456382422185696,-1.143312876474254,2.488630958229507,0.5316787161033567,-1.3958167632080332,0.46138374975628443
-0.23818002598319032,0.2982056510573886,0.6231247827041322,-1.2823347675544885,-1.6277435959882893,-0.007151669278819453,0.34765927208701064,0.3605529038000451,-0.6280438252136724,-0.20555477554238868
-0.45991920435276756,1.2995809812887698,0.08517358541604707,-0.41903051869818453,0.5994146287918636,-0.9282306938857728,0.10737491855701053,-0.7765554591325206,0.06576731612560074,0.12669982790249618
2.350230905782753,-2.222593462903106,-0.19967420328508712,-1.1361074499109334,2.3710208604831804,-1.265003089107217,0.009344448956246865,-2.6095188423197566,-0.06865683397322914,0.17682407380870255
1.625079025165662,-1.0539442525481493,-0.9158834517683948,-1.755169599391702,0.3772675365661091,-1.036888773182446,0.2914049911094383,-0.776990732316293,-0.6918136199882666,0.1425926010367233
1.920363516751023,-0.7383580595043295,-0.4426301114886964,0.9196256390235864,0.49448621619210725,2.1991476392707243,0.7514742881393104,-0.7562189287679254,-0.13246062203790068,0.08688630759569471
2.6664185093833956,-3.8414067320051535,-0.883607451142477,-6.060172851018996,-0.22103862325384982,-2.843213262045408,3.447776732822809,-0.5879375799276191,-2.3132157295625304,-0.024859946279399324
2.424425067987819,-2.978971393162414,-2.0935391454061194,2.318540664080321,-0.7944442158078925,1.3542218396020325,-0.8071138350668858,-0.41833148374886026,0.5370755804293792,0.38470347249496506
-0.2017181898741589,0.035957004755568255,0.4354987725232146,-1.9862041363680478,0.8284795761882253,-1.16516753369503,0.7420554561825712,-1.230969010315488,-0.820809517783463,0.014369547257630701
3.4565638787480584,-3.0732942505275562,-1.715032381492703,-2.7784031554322053,-0.16989044715470314,-1.541427948390679,2.5133229914649293,0.002994560037602345,0.3312651841064511,0.17266676329995956
-0.708851111140751,0.529776988507912,0.08025220446945935,-1.452802396410438,1.5309281139430309,-0.4385126968547298,0.7571822745051926,0.5372619104513252,-0.6880720056669838,-0.129045631765825
0.4441451980063784,-0.14415098045170152,0.3414466535133859,-1.4021543817339208,0.6338687292806473,0.16462059097788173,1.9878803327038552,-1.1264388699221115,-0.5722375385606117,-0.09970315956981378
-0.9670472504835862,2.030880048249952,0.6297009510187851,-1.307827140456342,0.6199819724215212,-0.04200413089719422,1.6258023524664469,1.2510218136005142,-0.5810932549843146,-0.06040245660912517
0.7045150537463201,-0.18736111344691642,-0.8120346830711737,-1.5448186771126218,-1.1621269948598427,-0.931507085473363,0.511729051699791,0.7832114490045253,-0.22082531287940588,0.0744344799154251
1.252940359983957,-0.036700910224361574,0.018492373870913032,-0.40513141808237185,-0.015951335654257603,0.8669822111948593,0.8963420515535072,-0.6425473228174603,-0.4114159797872235,0.10049322189399419
2.6531041267319617,-2.2706300622453757,-0.0038326318921036474,2.6499523533832026,-1.1345564190985111,0.41220204698498336,-0.788319729010307,0.33964001733721955,0.8440422569714653,0.13407166678563742
1.6988020417418452,-2.791847288397462,-0.6483675394712713,-3.2791751818226866,0.30182120906106236,-1.1313262891080704,2.2289143196929326,-0.16219573114384628,-0.8125348915536756,0.20852264053492559
2.123129745286355,-3.3172479112687108,-1.94583435403088,-0.22088479133420094,-0.008743893453238949,0.18954663998487975,0.3798579077488815,-0.3962880416412421,0.1350785807305307,0.29923635535917276
2.7558931791384564,-1.2476860776816876,-0.4978283096825959,-4.584460187376999,0.03993206433336616,-1.9403304553224987,3.00516316469543,-1.0294776101248153,-1.5243129827088935,-0.14418128199761582
1.0180087302808012,-1.0605666004423207,-0.5302998749729989,0.27274927365130186,-0.20191358085274358,-0.2781019182728306,0.5261927611121053,0.02479759446059915,0.5884688966760719,0.052931724520788086
1.7580295473486172,-1.2494703159135558,-0.264357047150808,1.115682247354167,-1.4155532039320016,-0.08439481889683823,-0.8255911881829326,0.0971144779321676,0.21573110524408395,0.22511992527752
2.5600417510445985,-4.033359914437646,-2.3803847599375483,-0.03642041564544746,-2.791737250766652,-0.47357670265403734,0.7612282472661465,0.306621846108213,-0.41643431842089645,0.48532353482429474
2.784153234936354,-3.1838234864518227,-1.9196626917552237,-1.0568980359849784,0.32296131609093065,-0.2510071311884939,0.6493335493506003,-1.084588865122221,-0.4285828650545404,0.2767051728638299
1.5935499275441223,-1.8208745488729519,-0.06624288473773751,-2.943938582221413,2.1788885041229027,0.05640686224744015,2.72281002923449,-2.337871870494039,-0.3449556862442476,-0.23670342967290128
1.9080209219940127,-2.9069156716845717,-1.6140490751566758,-0.47942679203744976,0.9063294470087991,-1.0717167788221964,0.42757740304057945,-0.29975499589811283,-0.6901383517640625,0.10923335545236046
2.1054171194359603,-1.3866144662064506,-0.8906393594517786,0.9430100048447042,-0.973649601781876,-0.2080836673858583,0.15103460274652858,0.04680994146483368,0.7658875018271747,0.027417271604100433
-0.8223379941148083,-0.1503721149226624,0.196007063419653,-1.6293982272625558,-0.3687809655910489,-0.6858408168276349,0.9902425924590863,0.41397381527061206,-1.4423344644190768,-0.1304739194111884
0.5058367096598908,-2.7075188491218873,-1.7008875968845223,0.7841066273396251,-1.1621990160366928,0.42882045622759063,0.31274944163811647,1.1699344861780379,0.4857127252453536,0.07644582901887084
2.6516332163256506,-3.0468721527432936,-3.0564832649722,0.07789234033929734,-1.2933087501854805,-0.21596916754771436,0.021385192550762433,0.5061008384210409,0.26898652275720447,0.35839755282221086
1.5200392328055057,-0.9661004602824054,-0.5193417587152226,0.9806040265419292,1.1910060121795598,2.3414697428835924,-0.9034839189940838,0.9867709866071808,0.0012289003927555082,0.12635644256804937
0.956673447527963,0.7008606498442516,-0.07241877301577877,1.1343884908802238,1.1054599232699551,0.8222105746274435,0.2135955930644109,-1.3642811036703413,0.926724717667394,0.1484244456865102
1.1088151784159503,0.5820952934246652,-0.16145622250531466,1.2401507527979083,0.7490511526780945,-0.2812795987494649,-0.1025023563443258,0.7699832754077658,0.7798176628716482,0.1542642791097364
0.5831705864277548,1.0131944471036745,1.116982095942637,1.845881195136857,0.23300752953429216,1.0460623268097484,-0.24333463246824782,0.0463329958727865,0.933278887251139,-0.3900789362951815
2.325421849384838,-1.3484447313785315,-1.5297529548453987,0.27430096636228146,-1.3360179997061818,-0.06017113541329977,-0.5938245131098712,1.090889562798063,-0.3734472333068179,0.12783308446536742
0.7986744379822781,-0.2960886720486456,-0.6719995884077521,-0.6805448237915298,-0.7132117768759735,-0.2598076360609265,0.795557230097304,0.9500814180726991,-0.4637938179179096,-0.028163471571265326
-0.02619922806260866,-0.2052461798037936,-0.31387928719249114,-4.914757513532605,-0.7163542239675816,-2.435336738894111,3.3107313630726747,1.5456597952726516,-1.7217378178593752,0.1561038176137678
-0.029709092095593137,0.8322596148012069,1.384655972395939,0.5762766800328994,1.77488388864022,0.12482596227650775,0.3368950673407991,-0.09310556400425683,-0.01751715620129481,-0.39261885942727187
2.7153934096865395,-4.688061551845783,-1.9842847339656304,0.9545988418499295,0.09370113805049296,1.0231009672621674,-0.45120478435335887,0.4230093871179666,-0.14584278576530146,0.21588253933601018
0.6457917141500009,0.2571818055598359,-0.001201717159449849,-3.778806932179131,-1.4392647610240912,-0.17443028762726276,1.9477080681271244,-0.5943235001757602,-1.3699293715202476,-0.3016241009245546
0.636698438239198,-0.7408313650873302,-2.3108379002932016,0.4438645104588156,-0.41835716095309317,0.8601548663611489,0.9813705616539452,0.7169561170708678,0.7417109021839027,0.20349348951545118
0.961402993421089,-2.3118305365965077,-0.8642996953853523,-0.8722347288789909,-0.3410114401195523,0.02657918416470229,0.053886079180026414,0.2828414564574075,-0.10533310517918544,0.23974756873910621
-0.44364682877904593,0.1353406991215679,0.6057542782705623,-1.969389779659049,1.1481816479396434,-1.5876173859148215,1.8712472569137377,-0.8662604915077994,-1.3445310191741828,0.10201055988933062
2.7033991260259453,-2.6554036629010396,-1.5014493231553347,1.6616066729206214,0.33931222996646815,0.7585663354284673,-0.44836180819204796,0.8715694353235997,0.45231242715338177,0.28060240629058963
-0.5140313029413894,-0.4660683623350546,-0.9260365743443327,-1.8652604475961547,0.43603409602835574,-1.0065432129797416,1.4370876165141175,-0.13958823272624493,-0.2487514850430583,0.27269597292474196
1.234145129261758,-0.7028649108562083,-0.3820248750351377,-2.5961378801955446,0.2581378800853712,-0.6020505582828369,3.206914543291518,0.6132839041428351,-0.35153985067271215,0.034043350179156925
2.967791812317418,-3.152747377252156,-1.8404022070244581,-1.4518675226746471,-1.74858068813489,0.254978882631106,0.8469381568265892,1.3117733808444956,-0.46479497453942015,0.2509321882354791
2.7672600229633324,-2.7469932395810788,-1.8783470527665795,0.7992896554067334,0.01525859750123379,1.2499129813868106,-0.18075493588346514,0.8358605280223054,0.44789370625466596,0.25838932684841076
0.7885729764404172,-0.5321231553161864,0.8126140753264776,0.7830066796701659,-0.061033295948649535,1.7075373641640144,0.8623722439115191,0.516719078148298,0.36811492642827104,0.19070137664592327
1.507439867357291,-0.02535963760478649,-0.10590414399512164,-4.717987119138539,0.09900273190313423,-1.3008330758626132,3.235895581940219,-0.16831932741036254,-2.0600069136013994,-0.04728195087858583
2.72141068911202,-3.147384488062606,-2.4540107817180696,-0.23764700483124848,-0.28857349168626045,-0.1516035383030383,0.18511029534009804,0.4747071874610151,-0.3178290872883766,0.1262690899866516
2.5868033902578276,-2.200254333060546,-1.247043204798871,-0.3784758863185146,0.3025614402382803,1.1532146037643622,1.4033633881233287,-1.1029679551686027,-0.17476446449039687,0.1223579190096895
2.7065832294177596,-2.902214522802126,-2.111727611346353,-2.0665100859791994,0.36788357521219656,-0.4196613205228881,1.2961884046114944,-1.0293880622997666,-0.5812545815648812,0.2998656962279511
2.732103426248867,-3.5405831535025527,-3.0438188510367707,-0.9505531964018515,-1.0729302366494642,0.20293341608706716,0.6110256671806245,-0.16128483530778903,-0.4396347436654747,0.37947045039925476
3.19806617934921,-5.068634994584496,-3.1892558415249095,-2.738092590077209,1.8116821120515594,-1.5948980303357845,1.1506292342430386,-1.59910418225056,-1.3958540506329475,0.4427762190617642
3.199077900316192,-2.9361272273749166,-1.3549685597682988,-0.2400984004665074,-0.7448124229503926,0.09077726617675207,-0.9008448790718759,1.045111346876881,0.3287544946261118,0.2900170794739831
0.5640193833924936,-0.21809621478336957,0.5835208463439447,-2.9042806049796956,0.6243606710429771,-0.8060043291711597,2.147421490247679,-1.4240083722952048,-1.1351100728274546,-0.07743537172052897
2.755139041690011,-3.626481137358688,-2.2783280575913647,-2.5917492702906357,-1.0071601025079404,-2.208655366400382,0.9058527645207608,0.6163867498650613,-0.9641221930128216,0.4022321456295594
-0.1023275349432724,-1.1503363530201611,-0.06951391297739533,-1.0226080397255735,-0.4231091245303052,-0.900320984453879,1.066178228394461,0.4586862930816508,-0.04291412134142346,0.189341818193782
-0.5642926713057123,-0.4216924053167993,0.7047438258014197,-1.5910164128751774,-1.9825914022042792,-1.7916791030849342,1.7013960893465554,0.3075580381345171,-0.7662894760097239,-0.025086344171269412
2.181053088534136,-0.7225582082158842,-0.07838392827608796,0.9116798548950474,-1.5604827115232895,0.022891012385922966,0.10180294718742422,0.5041589186375284,0.08195842863529537,-0.02711756205630149
0.483289048487352,-0.5203784742880389,-1.0810734393898147,-3.118499452455674,1.399673694000895,-0.26035084476453335,2.3607278243245577,-1.5531281090447027,-1.0721018408912324,0.04105008818307256
0.806068214593336,-0.63558951528033,0.5513592659648268,-2.0227145444602463,0.0499850663992123,0.17965457583925395,3.462715292650177,-0.13005747012875102,-0.3733761853802706,0.053175764619772733
1.6704369563058177,-3.851662888222394,-2.4757539805843973,1.94809966300816,-1.0466547090908243,-0.8171113174524464,-0.711931186794858,0.9364664695223636,0.8013190552647937,0.11477359206214803
1.6696341383055509,-2.899568851128951,-2.398145274794709,-1.4517924545329062,0.8483647294521947,1.762864294805429,2.0628139902729594,0.9990310328625764,0.20310346766483103,0.1800795406993651
0.98479916750485,0.7001498317325077,0.9610372273069201,-1.7064443938867617,0.7973794024324842,0.49028955591953305,0.23360582038661493,-0.6505539427731074,-0.09607841294896244,-0.0038282942096713396
2.161245750196227,-1.0167649707515893,-1.594613782992533,-5.58196109600507,1.0072316485033144,-1.0713972612584421,3.3613743131961495,-0.35313352294394573,-1.836762231923123,0.18845319930849624
2.577378897961077,-3.07898748242243,-2.0054315570051875,-2.05499060768803,-0.35570528661283796,-1.3685407558150342,2.77979932098058,-0.09435472507887427,-0.4075986169177002,0.2511621947673797
2.9632044110029727,-3.820939714925224,-2.353796532773345,-2.138470220562372,-1.0600617436114312,0.8569664300346771,2.380574108142966,1.3588509086705736,-0.8477194562361935,0.2736335965286928
2.2137661194649447,-1.278034712923264,-1.4140891970408282,0.8761883393698329,-0.47574886506536973,-1.078561186971617,-0.5887648724286952,0.271513028361165,-0.3419437793325954,0.26248271044526733
3.2807001320464844,-1.69010387910463,-0.6799521468706523,0.5436394597659993,-0.009705514225486267,1.2674945309570722,-0.4321114011272883,-1.3578838057377722,0.4127167086014189,0.032131206040887095
0.9447805234704971,-0.1708039270171246,-0.7316419426925677,-2.137905988576021,0.5903671940244538,-0.6219526862535324,1.2683945299160109,-0.49796503259592007,-0.6170900919893847,0.11033705580119742
-0.8765872129113914,-0.12064874015808623,-0.10653745497569113,-1.1186736456411182,-1.1210053334465888,-0.13357289457255575,2.087192867974328,2.5203117704130995,-0.49418232581090993,0.11932340538261574
0.2567024333316117,-0.3214630548202108,-0.9403437235692229,-1.1959539100403567,-1.673025417417675,-0.7353807068928594,1.9526538777846558,0.6789324714443341,0.22607710958341837,-0.12124701477752432
2.344517582739829,-1.149330205908365,0.04151190278918791,-4.6138848272502475,-0.45213504041171326,-1.454021833387223,3.2578715405043326,0.016133717977485418,-1.468273138845955,0.01836897443183915
2.9139900826643794,-2.461316557350408,-1.5309637316205125,-1.081182751695939,-0.3749826537760227,-1.150921100626809,0.45823796895803226,-0.45225549610514665,0.16745662295311864,0.5027855207865103
0.7049159748507534,-2.1263880273542664,-0.7311141606613242,-3.9787347367847334,1.5758771139872203,-0.440302162716515,3.3266219873958844,-0.8850180585894166,-1.6159755071209334,0.14467789370276232
2.56046463902648,-2.6879799027470392,-0.09525644851087686,2.535816955519402,-1.1093941868501371,2.4403403083151622,-0.7887496777136886,-0.26566166024387,0.6975458886133926,-0.0292705385611841
1.0322353205062198,-0.6557197014556043,-0.3866455844252856,0.08376782900369995,0.6606221694751662,1.6208497679027887,-0.08480472186688237,0.25364147654622654,-0.15662309264432966,0.16102234642174257
1.2041821498720018,-1.892011983275586,-0.7632622812005908,-2.1599218812234913,-0.7617801275416058,-2.1573877272503266,1.0540803515108914,0.9656190626597013,-0.46374831913420034,0.07545878835034898
1.3037348439315615,-0.6741584338175636,-0.6808828705874921,-2.017459708634971,0.8666691098313228,-1.596989245872677,1.799086726768235,-1.2775814610021168,-0.7568935724168121,0.0005702294173840788
1.1758110835493425,-1.5280087673126117,-0.775644704191029,0.31800873976982924,0.07621857275161376,-0.631764141794324,1.4001023069923,-1.2340034090308312,-0.9921296878827559,0.27217933989116866
2.9263412964835873,-3.3417105541092442,-1.637869711606746,1.4619772468433654,-0.174469894480182,-0.08382809573378969,-0.9380465166775793,0.1020171928936523,0.7924200040387984,0.2647024380996326
2.0493886860015045,-2.1887135764691794,-0.9748507562350681,-1.5060846170198676,-0.1447945988389508,-1.4473654128609559,-0.028163450962031655,0.6415283116674573,-0.7565480807907224,0.4058746016592807
0.7141256875210651,-1.0932194423381103,-0.3086030442885549,-4.085174907910891,-0.8408295060618027,-1.9146328742581649,2.032646398006127,2.3577934888213963,-1.0770646785593072,0.1281487359149769
1.077495438202258,-0.4483681512436684,-0.41608967791798507,3.7034264687232517,-1.1317748292953556,0.9967148018205398,-0.9608316962976322,0.7926475271853272,1.120530862393215,0.08639747410323491
0.3418257338298236,-1.820137839302856,-1.0524619762408598,0.553144692327538,0.568408383244404,-0.2783180289760378,0.2300134028745182,0.2742841126862131,0.9850100570932592,0.22917093861919569
2.112558292659213,-2.1325584240984123,-1.0390928371388535,-1.9274310363112588,-0.9874676475909434,-2.363794573635071,2.2884825697096387,-0.02912107148076215,-0.7569435770360647,0.07572419982861632
2.621196866328891,-1.1538231035409154,-1.079292153846484,-1.0956168794945276,-1.7781791616647569,1.1934478785780496,2.7896766813481504,0.29554687003791047,-0.026798915276893112,-0.06871407835929401
-0.33175261737670647,-0.5864468175610367,-0.24899010545240574,-3.0011560949223823,-0.6193682057754701,-0.8984950609381434,3.4215190573667407,0.25462785595837417,-1.6836965501487002,-0.26791996215538755
-0.9440821763408059,1.5014526513866686,0.12691174204586472,-1.975222517145777,0.6357540656801411,0.4703400136134521,1.1624910587762654,-0.28028260257930526,-0.5564929200280947,-0.04177613791410945
0.9316304048592494,-0.6730338837431228,-0.5224263590723078,-2.1198418620839585,-0.13868447651435223,-0.8108292112011227,1.203269481421387,0.014090460012638417,-0.826037377905799,0.2651250038952419
1.8875335710215135,-2.5083360679663897,-1.1907714828970495,-0.8444125251324475,-0.861881216407464,-2.4349652187996713,1.7748349617491739,-0.11038557129849849,-0.22362519800175032,0.16300249685449839
-0.25324244918273986,-0.003954143805164338,0.15475725278157132,-2.1718075558084093,-0.23372554592838676,0.2087866738860445,1.8431798035510716,0.2705980211335691,-0.7333037665971761,0.05588732550569226
0.7215646605230002,-0.36932764214711794,-0.7283010070372021,-2.182965416292219,1.4492460947807515,0.6910805193711895,2.9911118197947677,-0.21761093275375867,-0.26446238738793426,-0.022385751846845575
2.2416576691036982,-2.897240821923433,-0.6416496422074718,-3.1489839689958377,0.3287065678689068,0.6507301350159433,2.655142420577394,-1.0343958143438257,-1.349342831435134,0.15334893990457005
2.725328293501307,-1.677414650135864,-0.9477779540957942,1.8974699033589641,-0.243003429361741,2.488457252154039,0.31957854730806967,1.5747471922346261,0.9025357951231404,0.09374529676706451
3.1708822914218526,-3.3097034674217003,-1.6884073837081754,1.1197563751320616,1.0330046604499274,1.6181081367542645,0.4142137647849684,-0.5922001062348249,0.21159830022840684,0.18182970471003732
2.1786009581941608,-2.942564165295689,-1.4015022082637552,-1.8589959678344572,-2.176714306250638,-0.20242484473200856,1.67375436266813,1.4714946848643504,-0.6592768418818962,0.17067017362303313
2.816328988834339,-3.3802822785541693,-2.2888013519109944,-4.8081923244235805,-1.5051614758957192,-0.46170606597922914,3.36540659045429,0.694502019110059,-1.097618264333884,0.4458665583996299
-0.9969970252801825,1.6278455055473817,1.0454136504047051,0.9815479450564952,-0.1693043593034033,0.9419043025516528,-0.2485588224060804,-1.6996995066663887,0.17308213817408175,-0.04999375970331251
0.9577757247871728,-2.6972354946154797,-1.1165619495680854,0.445334251052939,-1.4059028585468742,-0.0139492202888736,-0.2595190145278897,-0.07919271343337059,0.1881027992353105,0.08942224397077182
-0.7982009463340486,0.3866273899845083,1.1376752182663727,-2.588588466233748,-0.04414967578723994,-0.08935033209653791,2.320753343389044,0.8506698059397964,-0.6115398750754686,-0.1283238590890063
-0.7394474573830538,0.8090976834799651,0.3159232203447234,-3.0544908745884642,1.1745870349669718,-1.212927414492006,2.3584513899692467,-0.8445234792058273,-0.9310317354727256,0.009759897430341943
2.524550423315661,-3.153284015324318,-2.181905927707136,-0.5726018211198116,0.7041929738180508,-0.5669484099559907,0.05164447197582711,-0.17135181553576595,-0.7434250788170441,0.11764954456380644
2.6221325775000706,-3.1088273485415217,-0.9910392047768277,-0.21274119072163739,1.293792725371389,0.5381294405410963,0.4679342519715657,-1.0992243722943913,-0.6476533696599461,0.06873553793334519
1.745421568799184,-3.845584419976993,-2.985761334446402,-2.268155884674923,-2.077858613586903,-0.47037898974461445,2.4561201714271395,0.4965735765547954,-0.7540715741436119,0.2195662453713106
-0.8371575052043884,0.8768662169370622,0.17205368453143732,2.0945028031720208,1.0440942314863924,1.147139489298643,-0.7841747417666962,0.007206960441507038,1.0896544354741535,0.14717475387201392
0.1550358957282072,0.37020498120762235,0.3277987056227036,0.048167966192333767,1.9633914891494775,-0.23914142536401772,-0.8193575829301675,0.04613475245463857,0.08002414006409987,-0.17047152755895448
-0.2743205438518699,1.0676011240318928,0.8122269248970739,-2.8264581371223723,-0.26425290864969936,-0.7694461938922956,3.1979808283024997,0.4418498692270987,-1.3258933342703048,-0.028346729344231828
1.1768557926967578,-0.4199893688511435,-0.34895327040266927,-0.6707092759266855,1.2425837840947764,0.8183786827758616,0.3602804664635859,-0.9973107527869645,-0.38428818781786317,-0.032500513246104694
2.124392289762087,-0.13761023548385318,0.742274421091811,1.7955760484851964,0.8621758311360364,1.9840004511812743,-0.37030488913283444,-0.3017369298543491,0.3452211830116813,-0.0028833261299888316
1.6779905297064843,-1.3817224135237511,-0.6790299790839586,-1.2597985421082796,-0.2650707145908639,0.1482740573125467,0.1225313023148038,0.12190805897699053,-0.7522982224773973,-0.10724483224695659
0.6404967987243466,-0.08899615147131817,-0.2235440656612682,0.10093866969543197,0.1488756728927913,-1.3786282542636905,0.5635575760059492,0.3896255325433482,-0.29280647614003624,0.2694903684098036
3.3039601876574762,-3.5341226678222863,-1.9394115981328257,-2.7151454368794914,2.0082490915322286,-0.8707815667090276,2.8965629898862106,-0.6400427831946944,-0.8282424196805174,0.3573157880661605
2.623831538381383,-1.8879178483183745,-1.0267262765247966,1.0504380660045807,-0.2946262498804276,-0.835270610059519,-0.8877407776238383,-0.3833265790263563,-0.027814577120943217,0.18098184201686457
2.9344271245937907,-4.263149864076524,-2.9074574699127766,-4.801403666833924,2.612518900066129,-2.4491103124182634,2.840222394799136,-2.3245775252220993,-1.8543538867580756,0.49771418716989624
0.23615536823594274,-0.8719172049049915,-1.1774494974737006,0.4568774912206639,0.5729836938893613,0.5203711884849221,0.6244666055823744,-0.5744860445542446,-0.12269746073916286,0.19115595212678602
1.2689829247493098,-2.970887194106356,-1.5884128197297152,0.5053278810513012,0.2670311493544022,-0.8523244914129967,-0.32763311323730326,1.25009467631879,0.025141669872327004,0.23453946719121654
-0.980016083178961,2.574792508964764,1.34542424693684,-3.8549888875184553,0.9945726965683337,-1.9551608099706284,1.7045709600804462,-1.0091871823323464,-1.4814269922691954,-0.00835344116516444
0.8169767222273041,-3.115608747738317,-2.404231399762645,-1.4967564657316288,-0.9775769215288286,0.5744844085488672,0.42266401956304445,0.22433977009536993,-0.3412597762750736,0.2454560042722852
2.1659221723589184,-0.32383725696412863,-0.22092323177905937,3.1256242314339455,-0.9106229183810902,1.6323052962828148,-0.6574648928027517,1.876131823123269,1.033220697466167,0.1661626162111518
-0.47771162176853066,1.1751694875451244,1.9167305392772414,0.500238438779565,-1.5221525245944736,0.7982022262762284,-0.8957029363807123,-0.32059854758754097,0.3245343795616525,-0.4983985609483568
-0.20411426651759434,-1.3401500731697031,-1.281878566476919,0.9631362435138598,1.7016569082310253,0.7840053109594216,-0.17687041666046077,-0.5601475972630232,0.5908783782109139,0.06086497420315491
-0.7831766663751242,2.4823209129846524,0.513215469620432,-3.118354665618095,-0.9783447805927805,-0.9302239812842112,2.9373790259924877,0.542116567087889,-1.12847265447959,-0.0026418363007789636
1.4890241512476714,-1.655213815040801,-1.5370457981564087,-2.4505198628707863,-1.1480914894861796,-0.8264815370512467,2.511613544112187,0.7065914467146293,-0.7653000851343846,0.26051220204328146
0.8801098340663185,-0.7445786055959968,-0.08833012224904,-2.9826957922620267,0.2768851882987692,-1.3877784306720853,2.2455773042260874,0.4915996099047366,-1.3445958707901973,-0.2866905882230867
2.6268927410224445,-4.278060477555662,-1.84079652463505,-4.57302449086654,0.8961589635119684,-1.7724721520118736,3.250528556223758,0.2973947160316156,-1.436430060935751,0.13832984251147584
-0.17543156835904317,1.421947419600048,1.9284253783902003,-3.9503592674489973,1.713210128770089,-1.4535980642508586,1.0569393351271397,-1.8688229320081051,-2.0138367881571484,-0.5306005268058982
-0.6533993913904096,0.6902399875536814,-0.0270715647247337,-0.5024091371337135,-0.4692318599107221,-0.6206154762324494,0.34079847571388333,0.30465496022421384,0.07921152098687716,-0.14453534290567183
3.1050152638620068,-3.5009255338343266,-2.6069128015350453,-3.3026043310923052,0.04188372178528027,-1.4186879531943621,3.0656104346973265,-1.222305407776317,-1.0080310949751372,0.3915733787740094
1.5549675074287963,-0.8812274880896719,-1.0857262473318763,-4.389316080682754,0.20299836455969872,-1.592021876843083,2.952504159096546,-0.5360578448337744,-1.2525976046408585,0.19391428659371238
-0.20187575581239603,-0.6541244510681594,-0.6212925748863961,-4.566479081166546,-1.0252051166770986,-2.4284339333986567,1.7404242712657219,0.24021608007901823,-1.6418978938799764,-0.2671718779716121
3.3815861240406884,-4.5328614922505155,-1.29276161077268,-3.073728961040529,-1.1813792439077848,-1.3250173443725053,1.9742506883178152,-0.1451950206437645,-0.27129885266429077,0.20521198466015822
1.0411787695889734,0.7124393496738409,0.9832351341352445,0.7203697342330838,1.2944705480641279,0.2519324778517435,-0.32075999155707824,-0.16766538001290232,0.6419847236053977,-0.31485506415789655
1.883477298426424,-3.1118566882917507,-1.72917699830858,-1.1282551208427816,0.7625456524263716,-0.39720826442171325,-0.5277706186945152,-0.01099722341562602,-0.5102557730791561,0.22738879796282224
0.430165417267099,0.051030305779613844,-0.17121033434154614,-3.5014521485163357,-0.5173359145597127,-0.3349861624832407,1.9620422970141291,-0.027871029497956744,-1.26483065508827,-0.08807529173875929
0.10709637910435044,0.5846331532217393,1.0921518729962354,0.9664483336318564,-1.412667276469203,0.684266661460403,-0.23310550219374981,0.10292125535229195,0.291562056108208,0.06255410082189086
3.055654955997218,-4.935970886516009,-2.0239723080872714,-3.485416517383716,-1.2168378032681086,-2.541254103849196,2.952666146093723,0.8441793824884696,-1.3253946204959985,0.6038387759339341
0.21603956768661114,-0.6165696166639307,0.23478864405139346,-0.7422744233541585,0.29561775218890257,-0.637858563649725,1.342400705339736,1.189724705117665,-0.8626853326427396,-0.2984149615702854
2.0456014230228945,-2.0475060474573294,-1.3185055791755316,1.4482621373934603,0.12698204089710857,-0.990500742891335,-0.5144088588307119,0.5358352147810379,0.3564084292704527,0.05090421031093087
1.614104778344962,-1.1332911231157072,-0.9822737626818305,-4.535193572051055,0.23647526860440882,-1.060947806786218,2.4447973414045694,0.04077464504397199,-2.2336699593935125,-0.042673086225107015
-0.7206264638483397,0.6943562644783239,0.6167454671452914,-4.144018103378574,-1.8697073336976144,-1.3347222512238974,2.949884186166875,0.6009402534915516,-1.3038147745085957,-0.07803536828534959
-0.9418775521884304,0.6849355957552888,-0.017260451636012586,0.09935291976408828,-2.1186848046868407,-0.43023585403512776,-0.5246711151712775,0.42865698448485695,-0.3478042702426313,-0.015949816299723786
1.4568467705702113,-2.207032817148951,-0.9882678171479282,-0.1365237635632764,0.23686748762167853,1.0050681585010952,-0.8441188702323033,1.1789078719692918,0.22014377006867547,0.15845329928549545
2.63891161186036,-3.023617454804733,-0.8439830305562919,-1.3461336085929507,0.8614827029525627,0.748499688294528,1.380298183416163,-0.7117626497894827,-0.15696720306580828,0.2723892366419887
3.4443446706574496,-5.138868045753904,-1.1852409369094863,-1.0002950528225079,-0.8784592090129477,-0.2003356766701604,1.7655862872828596,0.2524692426894225,0.2519186086299103,-0.01422995684917303
-0.9171645843472207,1.0406161591987588,1.9759811705456172,-4.201828534247095,3.624648885571571,-0.6413841012570533,3.1886170128686055,-2.9168501740951527,-2.2074356055505673,-0.38011228193309254
0.2816878401739811,0.44661980302945464,0.17890610831581538,0.4944385387404701,-1.810602518966341,0.4375502199782926,-0.5622997133927223,1.1729438277667168,0.0417983906446774,-0.025330854243857462
3.2650271712259205,-2.8928050762233175,-0.6641572565400494,-0.28289403115344885,-1.9776422519024441,0.5833045238898606,-0.9711562523721143,-0.07594492234063405,0.5388988416662844,-0.09361434525128054
0.01721265910980696,1.0726356394319614,0.6184357589170864,-3.134986372200084,0.20212042526800814,-1.5412849089696903,1.4882190163994866,-0.22215429039435922,-0.7427162430137338,0.10993120045901929
3.179080316289279,-2.899262909330328,-1.6163016170773352,2.1283548204341405,-1.205773924537131,1.01102825617653,-0.7582614071160112,1.606371615606048,1.5454811281628285,-0.019686983416131447
-0.8207553744103385,-0.1598031117699463,0.018802264162285635,0.8935956792115818,0.08653366894451198,-0.7202656365317802,-0.26010560871236876,-1.3153205200641114,-0.055942370277840964,-0.2159560785109079
0.5645472967010197,0.5905072361122187,1.195367360241739,-1.4001368543062165,-0.5585059091999254,-2.060722739693311,-0.5482422035691774,-0.7045471365228364,-0.3843623584893045,-0.14847732355070625
1.1502580776322007,0.5469802037183441,0.3340198684753088,-3.27685200723622,-0.20969043558540879,-1.3801333078354416,2.789365043946223,-0.2480924565955155,-1.0587646800151629,-0.10829273137746404
-0.8715828067990353,-0.1395377819469765,0.6352920411091091,0.2871358086400893,0.11911192298755302,1.4481861324536025,0.2829852664056549,-0.31353433256822805,1.0319195771846796,-0.17107946678208547
1.3494907299929362,-2.3090602258694495,-1.3506044173043836,-3.0681166688486807,-0.8313759868054618,-1.8941196646741085,3.3805030692634386,0.17826743759359184,-1.1018083683666426,0.3015564485101819
1.4995192444223902,-1.0420549639525658,0.153830747928011,-1.8463145578882403,-2.004374806521504,-0.6910555329519018,2.0685062661673004,1.8836530031839607,-0.5799873706210783,0.08057368028969783
-0.9317133542550518,1.3932690171364788,0.5925117128370189,-0.05063008224245184,-1.2014184063784326,-0.47993026074621664,-0.27620136913945503,0.15439759965245092,0.10063509020123804,-0.009884307889394846
-0.9416860231134185,1.1864183590899817,1.1495017367196014,-0.10727321498098588,1.0492366401208253,0.40719648510810486,1.1744172102883401,-0.15269005301569238,-0.2071085099270089,0.0018895648233846923
0.5980118929541927,-2.1096207208658195,-1.5905186129084188,-1.0032131251844265,-2.0566996542818967,0.7849337298636122,-0.37923157746352276,1.3335540371719243,-0.3656601777064629,0.229736374730075
2.980697132966175,-3.343626061988092,-1.9413080254557715,-0.3226307826479149,-1.5548785414739374,1.6634152921825556,0.9558933152993025,0.8866919622246129,-0.5088041014594896,0.3668983125462429
0.5513699784071573,-0.6648373829155195,-0.19222369240270326,-3.156116400261328,0.8332622804599465,-1.404959922544172,3.2152740237583464,-0.27966622034028354,-1.004639937372007,0.044490443235465554
1.8521032721386042,-3.3136048546538936,-1.075681548313545,-0.2104629409792322,-0.2678253498968367,0.056333183205407776,-0.5120565847066718,0.44507633773677535,0.5658987609375016,0.050063964392371006
2.065900249264363,-2.4115043610094546,-1.9049385838528523,-2.9523319583192036,0.14994804812306073,-1.252618218627691,3.2380951585393474,0.552937104791791,-0.9324281593444259,0.3047226950036381
-0.11159114757151178,1.1241915892320926,0.40631507893886254,-1.4472363911195518,0.3813427829411127,-2.872133974442438,1.0391900624159134,-1.0720036984388828,-0.3690696001048469,-0.09725915410053629
1.6266007157354174,-2.7923552512559366,-1.3391939594400641,-1.6170554326236684,-0.6585641227523819,-0.8100425575981417,1.6954285862778486,0.038849500956516514,-0.8986392794151087,0.3042216435049838
2.269664238584026,-3.9433742668983753,-1.5925863548726493,0.050621724180344635,-0.6325964466173744,0.16278427099422005,1.5591967799419368,-0.5547983144935467,0.6993707092994874,-0.007609136231790158
1.1293252097117006,-3.1135124102584766,-1.202618499458965,0.7127060494633366,-1.5109900903852913,-0.14785684086463835,-0.31993274394661453,0.07821020329451667,0.15290499254870346,0.273348686266589
2.612940636432886,-2.9601203411596697,-2.096388937291662,-0.23094434600788016,1.6754865599630793,-1.1236175381802131,0.36528758733770683,-1.5347255329156653,-0.051281558777123315,0.11701983546531439
1.8962546199954224,-3.16678607896813,-0.9635607759521712,-4.206423792495934,1.6776303409073727,-1.8285645796935535,2.6263417055320066,-2.03715602742238,-1.7489208631683286,0.10888697307707655
-0.719680855893748,1.8097404512377018,1.6858336060298886,-1.2675050768724252,-2.537790877543694,-0.5182805824383147,1.346216804105162,0.4211369849708292,-0.294362707881131,-0.19948238611073926
0.6999375238756342,-1.357464138691737,-0.02312772763219839,-0.7169505313767555,1.1250481493701743,-0.30047050496456146,0.40067578015644467,-0.9192810993543726,0.35300199718672914,0.07336676427601128
2.050443828582839,-2.466386890967007,-0.9287878054824992,-3.2222094163526207,2.1043045464599484,-0.5666427974089373,2.2889446660527706,-0.7871624268902598,-0.48869544823045763,-0.1534833389243057
2.2175019422132,-1.8809299324213953,-0.535099498831268,-3.8352609612925233,0.819135812262093,-0.7510319073466235,2.21947973197189,-0.7727494169906464,-1.378248039479618,0.22421293728790964
0.280782205688902,0.8818845817542029,0.5823046721638915,-1.9367063132299314,-0.803887108131322,-1.1715891644632797,0.017814500605722206,1.6467728085829545,-1.0570431634651158,-0.08318398314862804
-0.25021538230354856,-0.20648705451232152,-0.09180434949769849,-3.122355760889012,-0.7789378006190517,-0.9526328006065377,1.2554570695557747,-0.49291371882863766,-0.48862832539788453,0.00812062346615559
-0.3403034852172545,-0.0764733044273765,-0.874451831127517,-1.2711647230631158,-2.024336013274827,-0.4536733138233771,1.2566366676556733,0.8261937996462002,-1.516468947654149,0.09285421759712131
1.1289282948256956,0.38841303732010996,0.6058722085899161,-4.358406428230085,0.49246162710403535,-1.691149890945896,2.450465211299291,-0.3237936212832937,-1.5383039316301643,-0.1276249082140733
-0.14253334294475806,0.3515573003401394,-0.3842542762658347,-0.4897328049235311,-0.11870258980560222,-0.3465610632434873,1.026684761683884,0.36876187388558357,0.06679365997980896,-0.06552108699168455
-0.3593449989250954,1.1451770377782124,0.5565243076987115,1.6095618069802164,-0.23664471683631927,1.2821216408199485,-0.751709342063688,-0.4315594577199681,0.8766971045892519,0.05397203170562888
0.30228166737979656,-0.4382021712207749,0.668848922922695,-1.8032435768570174,1.0825108140457094,-0.4242424908008633,2.654380733840625,0.9071953099498844,-0.4949541032452041,-0.18283527244755007
0.16543616967479613,-1.0727958219865592,-0.21309578245399288,-1.8509247046177026,1.5945588292362598,-2.0927780480823395,1.1528470995607778,0.8787152251807339,-0.502008871597632,-0.02123604564282938
1.2687795331685132,-0.4252336224272915,-0.49022928898011103,-1.7948315601400888,-1.08591000949089,-0.9160640593502775,2.8772896950140643,0.7532615282688191,-0.7799205485013043,0.21798623682815907
2.5530301923749854,-4.321504084305968,-2.8266325752833903,-3.047369252667029,0.8838837366831115,0.7642799599324942,3.4513580457669484,1.2586339974178136,-0.5397442390477931,0.31654492912115034
2.9955813121231447,-2.3128743864311776,-0.7332941748858302,0.22979872809499213,-0.543793407742156,0.11049593118430039,1.3886596381896577,0.33827242795687273,0.07680069135859988,-0.31333885208444273
2.252466739499813,-2.4910578650701516,-0.5764964808276837,1.4437329498106588,-0.028725753550282493,1.1948414039304862,0.21725570639188674,-0.020140662755941063,0.5601903102333303,-0.08602379498977952
0.4507898777771602,-1.631355071733607,-0.8673544710195825,-2.1139307253811315,0.9103744808082369,-0.6077858634500429,1.4534979778248074,-0.5502867945451738,-0.44094324311354605,0.23086599490056697
1.4834545918964173,-1.9679156278961427,-0.47891129819911926,0.5579970826265954,0.7554360417574173,0.9664803547494367,0.6022357169795625,-0.2785811445467097,-0.017403137944970948,-0.02521942039044179
2.630748956461049,-3.9702760180762624,-2.805724705788058,-3.7452308102923517,-0.4135337165926528,-3.104032572744171,2.590669462314323,-0.2688461474861983,-1.7995852754408823,0.3919268253379469
1.3882268193669995,-2.1744632608011547,-0.9345482091710889,-1.6394792038856267,0.38489247820200434,-1.363676628833523,0.4697304899907835,0.2829694399671474,-0.8331717313058756,0.20351353832381627
-0.4868090478206093,0.10399962203470897,0.25121725247205984,-4.2135785909487335,0.344255071478242,-2.0623105679161404,2.698884978446157,-1.0894973517490891,-1.3212373496967302,-0.04924213842852022
3.305059578119941,-2.785722712327266,-0.7970666423490522,-1.6569803795346438,0.33361970488408954,-1.1012845779807012,0.5237837240465941,-1.249236637342877,-0.5280852530993173,0.048618012395551524
2.4750887313372063,-1.8317369182303058,-0.8411496365273897,0.8389795960111301,-0.5156944868450631,0.6381317818744294,-0.6947322525418346,0.23022060719121562,0.5864060727264321,0.3868797481426047
-0.1276733999046068,0.21853662216935588,0.45388083439321464,-1.9112591967353074,0.2413561883199593,-2.211702239010573,1.0810934118792743,0.5584553063653426,0.051464975352962294,0.014345391892140775
1.498052199755909,-1.1916353973147769,-0.7983214730664969,-0.8338109518604293,1.7345632243456492,0.15897395949361912,0.6934110272202689,-0.6563871261396439,-0.892288469911834,-0.09642896763942699
0.0971362890451053,-0.9463216599231509,-0.016604598441068378,0.03680876219599005,0.9864657742536028,0.8546237826580417,-0.3222580165954245,0.08497055582199331,-0.04515643712669932,-0.06202235129515337
1.8218394037832333,-2.9691411391871156,-2.667253685692644,-2.6000061857544505,-1.4736640444143365,-0.6264850562676436,3.3927952687419447,-0.08128523954210394,-0.8069778783491043,0.3465799177950133
2.496576806081051,-1.127649640251601,-0.18955197894591655,-5.306672741867185,-0.09380752818277302,-2.867029495358914,2.6652428593099318,-0.6706581902025581,-1.258142634186593,0.012417354793229963
1.8922552407923687,-1.3481344248670852,-0.18804353458994272,-2.429790871917352,0.9388954152412796,-0.032576285125949234,2.4050911587840407,-1.6140937018202557,-1.3261334156943332,0.06383448767100479
-0.8467958419908356,0.26614394699145083,0.16475296231092668,1.5404348991947336,-0.932245171607312,1.2905897074329788,-0.8124879032446453,-0.51451646244065,0.26580550283824594,-0.07028301083427217
1.9164100168122769,-2.4104066088629668,-1.9051546739798486,2.96938305586668,-1.0703687480992765,1.899033916296552,-0.2078016806591385,1.0263349916056692,1.178769051818514,0.2851198532686763
1.4288977583620452,-2.5277509094981783,-1.5758515198372263,0.9995910433596016,-1.773130724945617,0.2295528761316141,-0.7665827737277711,0.8989428064441841,0.6618017527770198,0.10273758177803337
1.7355868190350665,-2.8784305501173435,-0.9805633101941235,-2.960265100237183,0.8410499719023434,-1.2826244207280395,2.8359693855332404,0.23346796307242867,-0.8100548083010494,0.09726509498388748
0.8922686882775188,-2.268951358548988,-2.223152331447216,-2.8783971349790587,1.1875005330318884,-1.115246185934064,1.3873441309006016,-0.5681737944051651,-1.0503903758512096,0.35873481579329913
2.6527436624811287,-3.533134829465269,-2.643745558761357,-2.0514053692115297,-1.5145916567663447,-1.4777774161884822,1.0471901085505926,0.547958388790767,-0.8172103028337642,0.29544207460042854
0.8279131717370174,-1.983312182324268,-1.4744445144104876,-2.0001713121084146,0.8309576248378178,-0.8092661753268963,1.5429920114511644,0.029955929121368796,-0.6384691520779753,0.2905654147820694
1.9297142417664745,-4.43394393514511,-2.0370902932694914,-0.3273316931154961,-2.0530511335507358,0.6637859820896257,0.25376482632058384,0.5830452895596117,-0.898584312481007,0.48539599512260173
-0.1985894830900471,1.6575920641136457,1.093972919215195,1.824348399111733,0.9944857728556287,0.6920157108812025,-0.3663015811275061,-0.3630989962989429,0.4606996200866845,-0.08184723732319242
0.4555530333574096,-0.17428914157532766,-0.0341682381901472,-1.4945738706294316,-1.5550975546156156,0.6536266610233689,1.3252527499153088,1.3126316461739098,-1.0574857070611197,0.34658768541296797
2.5878927377097676,-3.3660567037199827,-1.2074043825299248,1.0187736104221892,0.377372822607599,0.5344688593405074,-0.24686358888208149,-1.448912041635903,0.4352822585072696,0.1506535027270815
-0.012810434011274463,-0.8877651514870261,-0.7635148192900051,2.40731367568152,-0.4553677008195564,1.0138223204655028,-0.7764484842539278,1.208192228799199,1.120789997872171,0.11655866682513552
2.935522656265275,-3.261142496230488,-1.7270000255644915,-4.811500214470154,-0.7963743605377747,-0.6062907716421261,2.6175190066999825,1.055238707726915,-2.7042141131453694,0.44361252832596115
-0.9429474308268522,1.0975756043174472,1.0696022176425082,-1.244959711665068,-1.3232701933604043,-0.49945613343333967,1.0734210311939227,-0.6475149316529557,-0.2861971455636149,-0.33643480593680136
-0.06853834410467141,-2.3025606492680577,-0.8725580383159836,-2.998297128271157,-0.43178772103994834,-0.40790704870401795,2.4722262760565097,0.2298660624723072,-1.51070390969891,0.19551935435117393
2.8825397739333165,-4.508914231595297,-2.3939170666123513,-1.161380794411584,1.5515233546036222,-1.9104397837154536,-0.7110090001262607,-1.119293988805012,-0.799217363759009,0.10716434223424601
3.2865202020238717,-3.6876888586111454,-2.617843908416196,-2.532610455446773,1.231857302346858,-1.7565923324044024,2.7652116514406653,-1.2199879039779955,-0.9435302629073851,0.13559335298838054
-0.0999619908931868,-0.9795845663438125,-0.21530792882885,-3.8238500826379145,2.2715358000965393,0.0648977102193065,3.0201596571008755,-0.10762321407228351,-1.085269853669515,0.11228401731263786
2.1806138140380686,-0.30358930942456086,-0.3000711234639451,-1.494426792354402,0.9163968947544896,-1.2240806399701605,0.9711126254455547,-1.1562700001142188,-0.788219822855893,0.2209530578024571
0.3915850564842527,0.25860076067927135,-0.581698730797749,1.6084876091176632,-0.4427500994397316,0.8743693407009664,-0.44146999856062563,-0.2336901766830652,1.1108268001830721,-0.008609037652473034
3.410689812993941,-3.2888384945209737,-2.837726807459123,-3.754903480504724,-2.2078983948439266,-1.1811093942037298,2.6963396590176685,0.7750547490403965,-1.4670529050910632,0.3492407421033582
1.2029398081170077,-0.6410038788230332,-1.0784736631266756,0.34919309372127905,2.3908005981445104,0.8467982127557779,0.6509234319471442,-0.6568434112638563,0.5038168889405459,0.12423791548021475
-0.19664936904171226,-0.5167685543523823,-0.38157738454402795,-2.0481748460848546,0.5745728346030579,-0.7779589085052749,1.6622960435413132,-1.1537844676348183,-0.7480145540162184,0.2572061690285289
0.5286465551242092,-0.29823510945071224,-0.04306957333148435,-0.35884158867333843,0.7830324225141622,0.8151639228044155,-0.951286564629246,-0.31349763287431726,0.15769778695870937,-0.056364108865588125
-0.8822874732055691,0.3291943059260171,0.8266454050667464,0.07113976651737552,-2.288521487546136,1.2352960905788604,0.29686565689655287,0.650507099413768,0.4504502972316537,-0.03633766191406708
0.6371751983851515,-0.5049777319341706,-0.5871225926522313,-3.4694554303382263,1.4103019868774418,-1.2731841794153103,1.3284292108340643,-1.0005155441730331,-1.1335005679795247,-0.06575789016135736
1.6418856026744324,-0.36031117200544405,-0.5359521463717782,-1.5375272291018371,-0.9726743740511667,-1.0487285194246896,0.398834413682182,-0.9884497557065899,-0.9590884612210662,0.07792560260059597
-0.011516959032018326,1.1908586892457824,2.236793665203108,-1.2530004758956617,0.6160514766410337,-0.06591464681378018,1.1362065520651639,-0.15044976858432138,-0.5403096680563206,-0.2697763235233101
3.122403782843535,-3.352815096913883,-3.28880434778314,-1.1415245539323935,-1.0381802663826407,-0.04787741824444692,2.008441999403436,-0.7626388768173733,-0.3932106212408463,0.5270048265349889
1.2460748937167074,-2.587519389447556,-1.3961116790148274,-1.6982070916990055,-2.31697499164288,0.03255973546896047,1.3235214410233382,0.5682416359892895,-0.698000324657648,0.20742913888395442
-0.7818710825830344,1.602991514416534,0.9580890741135801,1.158269636180463,-1.4928432742455557,1.1164250174154784,-0.6141882581587288,1.4198336490812205,0.7589245607343711,0.01512677947665996
0.8451355676781389,-1.9618801641671175,-1.6492556349784033,-1.8302635473399598,-2.2423373409522176,-0.4085353287068657,0.5916640886107933,1.4086088609953011,-0.27138103774609285,0.05259292587688248
2.410699965492108,-4.181555946234444,-2.7734223187213036,-1.7820620654199342,-1.2520935936563755,-1.9264651806912862,1.3132159935049166,-0.2386901930084469,-0.4757661311177706,0.23672186739785153
0.8050322550049331,-0.6718508957240124,0.2813814228255842,0.9668976922842341,0.6134891400985356,0.399794808833342,-0.4369015413702769,0.5966538988737413,0.45978635389883515,0.08327389404787325
2.7734166142816776,-3.192642049492989,-1.273991135929513,0.27371820342027947,-1.6137545710934185,-2.8669176239133045,-0.5637523675474222,1.027951710551174,-0.45862793172721883,0.20270046414540988
-0.18231288353102004,0.3023905515800725,0.31649814588642533,-2.1117418864113127,0.1295708699256841,-0.3877460083945293,1.1406738488787376,0.2137515894686688,-0.5025028109741845,-0.279759472126125
-0.7417231384209728,1.294463012477907,1.432074838819577,-1.7396657095671986,1.2235875586271923,1.2510774629151626,3.032907119619753,-0.05697558465912056,-0.5328606799369235,-0.2336316686611195
0.8015166293431579,-0.7005717946906452,-0.7695771728005385,0.6664993824683896,-1.8158398348895024,1.554412599179146,-0.04379351289901523,1.616522515860313,0.6251102785110365,-0.14352576969481987
1.4298221201676276,-1.3372608159481643,-1.6139215394524662,-6.846192870352574,0.43328730665018267,-2.2346188938822062,2.941607905046304,-1.74606371524568,-2.7215333153672403,0.2296116291365628
3.2406108356361125,-3.520077091929816,-2.0561639739217714,-1.8524787734163435,0.2956342030109295,-1.1573737063883585,0.33035285227696765,0.8180587460017568,-0.644571518184943,0.4726125325970564
3.2444779674605497,-3.5808011292609208,-2.372194137285413,-3.488030427411761,-0.4472965282904239,-2.8389215279902618,0.8965660424420887,-0.22098753474897898,-1.1436028929182749,0.3110637930381719
1.244680525634394,-2.083819795694098,-0.9773357411398854,-3.884594561623838,-1.9139458764104782,-0.8677026802550969,3.06812740122552,-0.01721649198583919,-0.9688875818916305,0.2179430798636309
1.0058634145952667,-1.1227716937154535,0.07968590090074501,-3.7927182923023057,0.8466034167451474,-0.7309521553927482,3.005024221440265,-1.0892486558660972,-1.0988599716925693,-0.05994782648627933
1.4587019562362147,-1.694456691074739,-1.1303962286044278,-1.2622696974792356,-0.5586160757760618,0.6148903225180435,1.5655606658373142,0.34133100936853134,-0.805061570596602,0.18550593816619598
-0.8457806299721838,1.4390140786765897,0.6746530598951798,-3.427402544627443,0.6336909698616063,-0.7340022810047869,1.7389095549663591,0.35607403900763157,-1.3129744260285727,0.03591610077886862
2.631995132588405,-0.3433356894421576,0.07294621328693984,-2.591721480369621,0.6370106906255302,-0.1928899525688011,1.604556256223097,-0.03790531801538248,-0.7668777630891991,0.10241021797969986
1.2590600162609604,-0.6716974600183171,-0.1588131497903543,-1.7965175921626662,-1.531612900190738,-1.361851383317436,1.94129329004355,-0.19888045476077898,-1.4599978218619678,-0.013746277692542707
1.118873820851901,-1.7571455620863266,-0.25621184541900305,-0.23908656273302484,-0.9779225038776787,-0.04743800977019606,-0.349888742402796,-0.6286086491470643,0.0804341927790236,-0.10057303025519203
1.8801947637571184,-0.36466901623245984,0.1099478810468698,-5.027991770467897,0.8551521330491347,-3.7623966511915565,3.155648184773802,0.12549638174696454,-1.4583671949774228,0.0309707617470664
0.12976684549155526,-0.276798800506772,-0.2828205610953994,-0.8752529690794222,-0.37375329132969215,-0.6079605121788646,2.1509211169413387,-0.4948967030012499,-1.4605775903571008,0.30111800531278243
-0.6077934168088429,-0.9678159565339687,-0.4362452308111852,-3.3718862958527906,1.7238048905286205,-0.8640725603099247,2.7479497903136267,-1.7324711125748489,-1.3743371182055555,0.01993754767944043
-0.31815880771242566,0.3567542515518905,0.026113067998017762,1.445585645226333,2.195019352338991,0.13823764728903554,0.07419431036170065,-0.27345919715491124,0.23062476089881592,0.03293777762861907
0.6300349058822208,-0.7300048536343093,-0.09394513234408122,-1.2320511449772247,0.2589669166936559,-1.125398848139921,-0.6014808248340258,0.35958912024694073,-0.38933898091370905,-0.031107627123210586
-0.3320883632638596,0.2251068385348976,0.5055003977163611,-1.7172990969933788,-0.39144785852577135,0.3245827671123133,2.6331790099889685,0.698417394223986,-1.460319610696089,0.08892198485997006
-0.4566345659462441,-0.9348430977495801,-1.2854265127034403,3.151422778135074,-1.0195925259494085,1.6558920479511055,1.175099359746024,-0.003850519481376935,0.5292065923141352,-0.055842908183572695
-0.1634538285421514,-0.5194862712945273,-0.22763042808216444,-2.3649879285907285,2.051901927743766,0.2003603739220743,1.3041338186202962,-0.6901344901660069,-0.3713284218404922,0.1263772502887376
2.2070872519862275,-2.426257048047775,-1.2114189317113022,-3.726025784169435,0.5196589744533604,-1.5352154016336232,2.724556841844529,-0.7398147194272611,-0.99799346805723,-0.14332453661349
2.0543630371784016,-2.431810666951188,-0.5803615943911827,0.2932040532021061,1.0184825499769583,-0.040479028330675924,-0.4384889320544523,-1.6973795772802995,-0.6932613818233246,0.062463942082178314
-0.2804072511856913,1.382900129243752,1.1078444400607987,-3.7955657664765723,0.9414353546939276,-1.1992291627801428,2.0115107246407256,-2.042630323046805,-1.379905056775218,-0.2548224899629806
1.3968085127001153,-1.7705554303595508,-1.5809941095922173,-2.891211198789612,-0.5150467250494632,-1.0718896699329479,2.556007572142611,1.346772087914566,-0.4399645397099748,0.2669671221510894
-0.13647127998949782,0.527941363527796,-0.32266701451323615,-1.302687351925109,0.3304990048304972,-1.013200099809459,0.6688259374057905,-0.06690831446406381,-0.34315389508176714,-0.06869048618459977
0.7747820158392633,0.5558681445955633,0.27214267593372193,-0.2265112831505047,2.1630006903869967,0.04578975700617799,-0.08915338145380192,0.09040132011179988,0.2403209193475137,-0.10362282562400144
2.6417756340381806,-4.642838270838574,-2.0587693454652642,-3.2970389597307816,2.5160531942594258,-1.1236130102669866,2.725007270821628,-1.421139703162519,-0.936559810273233,0.29881857362489034
-0.4388533701833426,0.7440441602165191,0.4708794261703687,-3.6911648125533896,1.317365849596538,-1.2837395318013574,2.570232239450502,-0.49360626098738813,-1.8743863071097246,-0.07153119408362765
-0.36543891075438295,0.5856408578324942,1.8091615000008279,-0.4919615701556192,0.5531279516270409,-0.7580797041461697,0.36556815927276753,-0.6783781383025567,-0.05051765238879745,-0.1461163644577365
2.292002223380736,-2.6085282824999783,-1.8857540345352142,-2.848528233408407,2.1986765100038284,-1.511312574058819,1.864245785943611,-1.9493710356628275,-1.73102966090118,0.30405841255289645
2.0526701403888366,-3.030279213875578,-1.038184746756441,-3.2529398494059127,1.418373465936859,-0.5693930814515532,2.8438661140282333,-0.45930226427891524,-1.7800623328602303,0.25123491202795084
-0.06834371754916846,-0.1968846883877006,0.4207185888771851,-3.8762762846258285,1.1142724056679634,0.8112127359436325,2.086505940990049,-0.9748908689942806,-1.7988402254980183,-0.3310113425018651
1.8706062879514618,-1.2163977974182247,-0.04078902335841871,-5.5861678436244215,0.23671293577329808,-2.321946475858983,3.0359939013100723,-0.7916736850700481,-2.004584239648883,0.03823165449773493
-0.40133718485436076,1.3995025701320243,0.6857917613808494,-3.581316511065923,-1.1615005916255914,-1.43364963215532,2.114671716105833,0.041313823711133235,-1.543587287434116,-0.001300722702672718
3.3383401225066542,-3.2227322920143067,-2.6722651463131815,-3.4430526329995415,-1.5276138855710388,-2.3744402078158053,3.2395230799920256,1.9531933996499131,-0.8700052266844903,0.5597960438612669
0.5368331693640429,-1.3750707445540675,-0.4617500538805622,0.14808280592164302,-0.4194011611079894,0.3198298800502727,0.08594798380731472,0.10171460982312297,-0.36424911169949475,0.0088292492713495
-0.09296726378867715,-0.3001488153952879,0.5269805606675916,1.4744165016577926,-1.8747972553402956,0.8505464801301763,-0.6711192453989854,-0.2142668282462759,0.6334235488376793,0.27415528650196497
1.745465297017815,-3.6951154938996935,-1.8945375472834787,-3.8513723624214333,-0.4118302701478144,-3.3618636549534244,3.4458923932837875,1.7035619439226082,-1.2140248358496721,0.21183728806946575
1.3204401974756075,-1.6883530098483084,-1.3003281819163464,1.8822083925454876,0.41141461579804917,0.9438950636133409,-0.7126836438030356,0.9829895069168744,0.6226673250530916,0.24253714047657093
0.8487610166727997,-0.23561304418326023,0.14368442288009187,-0.7784381286318686,0.600196580751674,0.31360946733098505,0.6863818188038993,0.09600899456373507,0.07323904446418406,0.2292946475578078
-0.37404271722305493,-1.3672546320313166,-0.4565218857285925,-2.5308263848568777,0.706859768413425,-0.7906882263664329,2.388357960473661,-0.018782105401783766,-1.231544406955272,0.09071648020676558
3.3164042251492027,-4.169567388787669,-2.9798341453320543,-4.4809114306504085,0.7844817055840155,-1.7102549727068515,3.147820127632947,-1.7181225983537083,-2.089505075330596,0.5770209482276982
2.6879233280143477,-1.2637104637322885,-0.4887284774753882,-1.7217851480807904,0.9576147680165916,-0.037633799657906405,0.6794531256897418,-0.5702715500749305,-0.49967443206274537,-0.037624377984683446
-0.33086149130097064,-1.5998948777906765,-0.48930688971395137,-2.0467682309399398,0.18960413497582196,-1.5984061036810722,0.3025564258849964,-0.274525480056469,-0.3386130835261371,0.07911089352567914
-0.08038629901201866,0.7600395572869769,-0.3477544765063331,-4.208421333255977,0.06891817070451489,-1.6375845772413846,3.1178620135309822,-1.3918495027190865,-1.3260582014550764,0.07463708153237633
-0.7465787653539386,1.2079269616702173,0.5418965236953214,-2.488540421035756,0.2519816763352898,-1.3189033332447668,0.8822990406302953,0.7504616870189639,-1.3735319199766558,0.03645757910214988
2.0928964978958655,-0.20151267177396748,1.2576274020392875,-4.729445762552873,-0.7587898441321529,-0.7218637144123655,3.272802086364904,0.18162507722842292,-1.3512993874151433,-0.3903833154169135
1.9858212160714936,-2.6201553095331813,-1.2520511169608581,-1.1349132184214723,-1.1772802200037948,0.9287889550120009,0.7132082085765363,0.6344951318031066,-0.5941745457460239,0.6173587282045884
0.7887455220894923,-0.5656899791972714,-0.13948813971477989,-0.6454808462268986,-0.8127194414380835,-0.4624664457354735,2.6581668916287566,-0.24438424520533164,-0.6342548201327642,0.09587917245825846
1.2588841225419616,0.45526704037269256,-0.5191711178231055,-4.019450576650728,2.0743645278492884,-0.9591910932711756,3.010399768274967,-1.7295361695598923,-1.348282318217695,-0.03513704761507505
1.0851155545758258,-1.7758297944651502,-1.3053477689124613,0.29076894743693604,-0.3734912124574837,-1.9270297071396019,0.5154968029257478,0.6879292409321902,-0.007514503863734316,0.25401468134976857
2.2690005812786356,-3.265830192430805,-1.6845260956959613,0.2750880874727524,-0.5596070698638274,0.13408049488428117,2.069753777975575,-0.5386318817813238,0.646753220863996,-0.12573824373926
2.8690787521429053,-4.016056785449096,-1.3144695857874578,-2.1209849460140253,2.481934881524053,-1.0757355099509804,3.0560297474525697,-1.726840403670962,-0.7746146869236548,0.3419883246365415
-0.6005958288772782,-0.18540361826457302,-0.7976844003294901,1.2242939798152719,0.17978914419770728,1.464267500102744,0.16343544878005556,-0.39476739445158937,0.49875042658156665,-0.03993951381933817
0.02069880597251683,-0.7248139840566881,-0.40085991113785074,-3.2603249996030663,-0.41488994366060084,-0.7129846159654161,2.35357580797217,-0.43861311224098465,-1.4110277115848489,-0.039964458732845584
2.989917428561041,-1.7989522240503866,-0.9690712780138151,-3.4760265395879673,-0.380762544166082,-1.5349610703300625,1.5156904914206644,-0.5226477180452477,-1.04191131852905,0.07024376236032127
2.540460119448638,-2.921007861183287,-1.2057450444275053,-3.6225950883471754,-0.255034852982607,-0.3789017108840281,3.0901785257732994,0.06703601223539106,-1.5270830853426252,0.1805591036470048
1.858396945866899,-2.2011505886221925,-0.8828269615632897,-4.570898779145228,0.28973821781558345,-2.65627068862905,2.628975461715405,-0.6770520243526182,-1.7613703663563371,0.23740544597697372
-0.28385952547841675,-0.5888608694184277,0.2988727352903244,-1.6751837557684865,-1.6125246450792774,-1.0806855066078693,2.441656894941384,0.7598696071991369,-0.4127136537845225,0.17043064134114605
2.6915412186665817,-2.869958462425861,-0.5988981277562009,-1.4419902101360351,1.0044602271218537,-1.5818486665561,1.715550247863109,-0.7709181318660177,-0.9310607362583884,0.25766962110216873
0.19199708631789814,-0.23925069721371048,-0.2678377311179348,-3.781643048993849,-0.7389417446817356,-0.9175194530565836,2.4183329487312193,0.028862406113057903,-1.2699353309379278,0.207727504938466
2.2164067537963246,-2.3158398003389826,-1.0804822166235308,-0.4066730789832996,-1.5775674636793426,0.35449793035380317,-0.08630696325221954,-0.15748618022802807,-0.2940966062514185,0.0665447919751432
-0.09301823250738883,1.3930832872907106,0.3916160311182013,-2.467519735025906,0.28203420893781117,-1.696491593697624,2.8807085104367514,0.07955091669893832,-1.4136220339157206,-0.004217539963025152
1.95790168680915,-2.6224651979620592,-2.062402917102639,0.23162975314356765,-0.3478533144193461,-0.6477468990062375,-0.30204935537771505,-0.6922151054853597,0.05468563034089661,0.24046949455722633
1.7368510569972453,-1.8515279912995708,0.13961774059511534,-3.3888872535815064,1.4549885291576927,-1.2130395636302722,2.4368521027226033,-0.4891570806135124,-1.0031387610223326,0.07743986599145486
-0.3090037845217918,0.2857470959139065,0.18304855921292684,0.5353271888335366,0.4260806347337128,1.0851386764824011,1.4434980625907428,1.0747276595675075,-0.1673966040795871,-0.02933575346572108
1.4307374975472325,-1.490368334751297,-1.1735170613585324,-3.84493074850636,1.1865909230345664,-1.2523023204291295,2.8070980306303905,-0.2145665396279507,-1.14695152413334,0.09767364445788095
2.348996157211954,-3.2940763900395216,-2.1100594979699787,-1.7901839725082893,0.2429969319654407,-1.5851573841853281,2.3912701211009115,-0.1457836254441227,-0.704789078053474,0.13748971951670252
1.068151160971769,-1.397611874555191,-1.1267650422709052,-2.8596902939642646,-1.5051344218677283,-0.9195964823496923,1.2118714330058462,0.858016664886249,-1.1122884989396709,0.13241340257064935
1.7148965690957603,-2.5708513504856674,-1.4217140836790825,-3.392052047746981,-0.28062577963365964,-1.5439930777720878,2.5430993391556735,-0.6049047716512432,-1.80282325957311,0.21475311998781715
3.4272125934908875,-5.24040585955744,-3.04103062797378,-1.877308218166073,1.3111722517147584,-0.44798189275536765,3.058548920213915,-1.1982429264058547,-0.5162068517636069,0.15933830991499023
-0.23538001805900277,-0.06571862076303467,0.43290867781289377,3.6760762295656857,-0.22559292158847988,1.2767776421662071,-0.9433169169403981,0.3419605748662882,0.9748078753108909,0.08359657113315089
0.600809097512768,-1.6670056429866766,-0.21187275650760076,1.3407014837208227,-1.0731546072567355,1.8714335144169292,-0.07946506052343016,1.937296868496856,0.269217313683323,0.032251520158707164
2.274647076925729,-4.080099690419588,-2.118705248550986,-2.9305641227537946,1.1823039335858236,-1.4185016936667427,2.1279000363706047,-0.5899405688397731,-1.1286790307169472,0.4536752737676173
-0.04987165373209845,0.10160022678785559,-1.2392332532807944,-0.9338208820690336,0.5455488528428694,-1.6451400952050996,1.402220591819205,0.5485579264204336,-0.7970207106688352,0.3513468358798034
-0.9406106809836329,0.45706679411348583,0.5918569895732958,-5.341048464412277,-0.6240174334954649,-1.4845912746032315,3.0550707720802794,-0.32922003397815974,-1.679076329183567,0.1249532683247049
2.927258868009754,-1.3240428801373718,0.1730002214302729,-1.4951915110339924,0.5692763902726168,-0.7691806810504394,1.8921412299573812,-0.3981885676240967,-0.5459827115555358,-0.19561546829123522
-0.22931702229508355,1.4307862597964218,1.607443725941346,-3.7723007054170297,0.7285822487845068,-1.4106502296862033,2.517887960225081,0.11959326158967287,-1.8654554588307748,0.00463095943683706
2.0341168149001305,-2.4158376602251646,-0.9886124644758757,-3.043174155375997,0.3277649907547865,-2.6874001849337037,2.783602203930389,-0.3264094470371199,-1.3281576901297487,0.17921102818566034
0.9383029939494152,0.20697795290931795,-0.3409750148381648,-1.8111140859945603,1.4720063795048612,-0.9663972852540154,0.7128738427515355,-1.3580728392978225,-0.21002769551701886,0.020501307967385838
2.0090478488998165,-3.9771176813266824,-2.165481269090702,-1.307582253948756,-0.12478757729867862,-0.07041320615463165,0.8601107754045922,0.6042300189104229,-0.6836778542196374,0.31530239082654093
3.1527788579942086,-2.850095741747003,-0.9094358953805965,0.008986461158425274,-0.20680989972243258,1.132367841552591,0.7752826119761724,0.29562754950564063,0.39596862461938437,0.08576171156072071
-0.4842122422213806,1.5001702635258773,0.3391652363580179,-0.9999730461920677,1.7059128086271824,-1.52799059497813,-0.4907464681675222,-1.191943652930825,-0.38976554995923424,-0.31515714368949305
1.4441009262510653,-2.188473953886929,-0.4811903168806981,-3.1382978624979665,1.5450480073917205,-0.7685625810621247,0.9796874363194157,-1.3668480396720397,-1.4360342718800585,0.017735327439796167
0.8703125121372233,-2.9922725942196093,-2.122825880497078,-0.5851236821667517,-0.10036443076500379,-0.22341760513338343,1.3617535186230358,0.6886271878489925,-0.48157197527358653,0.10535093841085715
1.993464039128336,-1.7241996460382003,-0.36236528107514043,-1.9752802782429102,1.2453896411627703,0.08755576942144029,2.013801320743962,-1.2872776592446262,-0.5383161157273545,0.07059172911015539
2.1363559917797144,-2.7424309712429364,-1.075726866031344,2.4588799854192467,-2.875917922675414,1.90855548969937,-0.6048530319655556,2.673264086038079,1.1989507400351809,0.2912864214338038
3.1924842087872536,-4.042417167235758,-1.845145919093746,-2.136291158749953,-0.7630497898850217,-0.3720461480570991,2.5204605872239663,-0.5634169464539291,-0.9188444412251713,0.16179784554491236
1.771701261126298,0.009149409036962843,-0.33793514811680064,-1.7587404603066317,0.5533337809722528,-0.550890559206038,0.38534083834298083,-0.029667220088217233,-0.9217310844794611,0.20970267022823533
1.8965713215811015,0.2672790513330814,0.1545292015711277,-1.3774053771745693,0.8886819341768422,-0.16666487724437543,-0.038427188112078015,-1.4508838612910173,-0.1125406703431817,-0.2265096605317297
0.6166368680101297,0.04544889316350739,0.8281405744998179,-2.2205573724448073,1.037519889927107,-1.2469175486550876,-0.553359033672492,-0.28760382000504386,-0.4486000759868462,-0.15688858352004537
1.9243206297113282,-1.3461239684820834,-0.5538889205713965,-0.8194603842114406,-1.0675545500216215,0.8581573952363964,-0.3858541296682534,-0.04438236465604334,0.09180527967258766,0.047980647211231735
0.3148326148468099,0.32923707836440314,-0.5340169925537376,-0.3901181182356254,0.5454017489325831,0.04830004881731294,0.6214783937787907,1.5140948375190706,0.26974903014086754,0.22374440800616796
2.127158233434779,-1.7839051711624674,-0.9933467929600132,-1.7615261357454925,0.8664997839198656,0.6796238782172074,0.823478767905462,0.10091061169939552,-0.6288781450857096,-0.10178600053040414
-0.8470848158086915,1.2121454168337724,0.7149727794031455,-2.11546786716524,-0.5076589865938027,-1.0546441000883058,2.778751624088762,-0.42402578271376273,-1.4953894810772046,-0.11594455003135083
0.21443062733912055,-0.24620680475662615,0.6333277900131429,-1.1595224912138,-0.4885053348624722,0.0727713053420214,0.45454902079089177,-1.4166905905559621,-0.3615621005212347,-0.06668005964102384
1.2183386652100716,-0.8840174117066898,0.4437692131154578,-2.0277558887431764,1.139922037843514,0.5409003641327585,0.2617899066019178,-0.7521134312719566,-0.5437349852385257,-0.06254745912115811
0.3037024083482416,0.3976749864436274,0.6357493098200295,1.2725901117434413,0.38567087153967333,0.8959109132326277,-0.7061281512288364,-0.10427630229525808,-0.29238671602722444,-0.026503687324105938
0.29883729808643,0.32112281335084253,-1.1021333882837911,-0.058598781729262514,-0.6012620074676035,-0.027469110215225318,0.07425403121126006,1.1255850558887461,-0.04328742079191625,0.25710138026600693
3.0885845391552493,-3.349414510878803,-2.0110294947994474,-3.5638429079149794,0.3832626492378405,-2.5097383298982385,1.4724550240348608,0.016967875424279466,-1.2768647028953746,-0.08453125369657956
0.7892981450218812,0.9802127111674654,0.44944198406151453,-1.286252665839829,0.5262529478154027,0.5575626655327138,-0.5633063366953885,-0.04277316721215138,-0.2912976045924411,-0.21939183313566502
2.7191858872904398,-3.0155903976213962,-2.197148911764677,-3.3825384894695585,2.4103816560649127,-0.007263619738798879,2.9265029042579944,-1.9292695900531962,-1.5620785486017212,0.20253567928624633
-0.2179714679608672,1.7716884333268879,1.2114098174029935,-0.09069481172309343,1.2166523666209805,1.3297439212494775,-0.016711224416778525,0.9496591775119594,0.19126138523279948,-0.16204442255226992
2.906031183743325,-1.7155728758450735,-0.685838175537608,-0.9211587510555668,1.1840706805538141,0.19214903417187335,2.184847335550433,-0.7624807647702854,-0.592572918201704,-0.1174530526984157
0.17603400930024793,-0.31660698763969475,-0.8032211529133917,-3.577808252548524,0.2720265059188136,-0.859915035148047,2.0400156554092024,-0.7451229499466456,-1.0097082961045585,0.04161869881071576
1.046984229727685,-0.5749581872474097,0.5059213268260095,-1.996030065618514,2.277837501382986,-1.1662859002942296,1.147239980250081,-0.06688817396972957,-1.3411889854314576,-0.29899061534341814
2.236165150218351,-3.307575612160984,-1.6492463225428267,-1.327849428290035,-0.5195336603369038,-1.679501854603576,0.486535550358135,0.8761899739641046,-0.4702424491976491,0.09023449749270379
3.411831536843313,-4.402851768710171,-2.6068926878607046,-0.5622310523437271,2.1287732280267235,-1.3128409655516295,-0.7145043631048923,-0.5370029571670747,0.012430110783195909,0.25049854634898383
0.16314852272965386,-0.01662737734489125,0.47653258452639247,-2.6862167003032287,-0.3939412918294519,0.4409461379869277,3.298769036115753,1.049755412897487,-1.028832505850782,-0.06375231985227563
0.4142045195579196,-0.7784307816434201,-0.5088952611911998,-2.0926147387928276,-1.7260811869675021,-1.103007649698518,2.0407388305551994,0.49633001453594383,-0.8725839868152887,-0.06397640183143523
1.0474021644267482,-1.7512270702910282,-0.642890467608413,-0.7858927167873433,0.14298525291009517,-1.0561826417752234,-0.7758862517995831,0.2635623507421399,-0.16224043566018667,0.040154874025722306
-0.03447646193717724,0.4375083558872254,-0.2709285065676946,-2.2121819348967415,0.76636712830133,0.14649072409588704,2.4503233645309583,-0.16516993786327447,-0.7812977782648636,-0.09550405696160598
0.9029409461265088,-0.6894330369139489,-0.08854419222313861,-0.5385386844412535,1.2162109295815904,-2.3641574778919203,0.17360475091450067,-0.5964542463850068,-0.5190484482389865,0.43520820858702275
0.2377765561088916,0.1837888775571943,-0.23034502574360505,-0.17483723694016653,-0.9125920042304526,-0.061325227646505845,-0.9068993864291527,-0.383330935558996,-0.6373232813116432,-0.07380836227004943
1.6022030483320275,-0.07713697125682073,-0.24244446260352556,-2.3393220565647725,0.05659263445662706,-1.5205362654619923,0.46813592604380605,0.5600010902868937,-0.4958874973109667,-0.005267092327366828
2.401490654633951,-4.7117643152141175,-3.281866071099128,-3.9487084222041293,0.754745411620505,-4.000319256905633,3.0322077826503184,-0.48678148442877106,-0.9160875177874788,0.1942553326357166
1.78759410127026,-4.41079070439657,-3.1595300010418583,1.7082782414474542,-1.1158236294210102,2.286234087834206,-0.15923060547477874,0.9199730359889298,0.7024722791381447,0.4975361431065228
1.6136967297587232,-0.5366414790764089,-0.28930156183898026,-0.6030638861110827,1.3698655052341635,0.1138171431579064,1.308604544770033,-0.4634876223516171,-0.9574550754514011,0.1418854763956982
-0.0013854049575861005,-0.28777876371241734,0.8794578237235728,0.23224942299266393,1.3910191402245595,0.15488333486244077,1.1763590368706867,-2.005562949317063,-0.5078800965224161,-0.10039598698235519
3.044226112048783,-3.701046831560022,-2.147702694092985,-2.2765694608951494,-3.006994631674174,-0.09143125773436597,0.5919418039565869,1.7380513505907045,-0.8200067208783662,0.13988112657634075
3.3864848654469135,-3.466204462982136,-1.7952781711080186,-5.539441359204106,1.2386047873351897,-1.9093187357855612,2.1963713306413317,-1.1099028437860652,-1.9969820884542944,-0.015862486472736158
3.4578045696665356,-4.8254693573867415,-2.9238777405854868,1.4911197336328943,2.4398419127393973,0.16392714161466398,0.23700260846730647,-0.43472626709286744,0.1469874344735357,0.33489831699969824
-0.7018278698341948,1.1225713586179589,1.0797030108040395,-2.719036811024595,1.1813447964083583,-2.3527099083485115,1.1602764409615958,-2.6535424824004874,-0.96065665903569,-0.20472479277856018
1.9596537856500542,-1.09622223910676,-1.286046983650307,-1.2638560133221066,-0.696143079165687,0.874354482563532,1.930292731832941,0.17964955777624814,-0.09175497176469086,0.28383457303731324
-0.26993098535547155,1.1721456247773592,0.36656302318147377,-3.305460807980783,0.2151791585831211,-1.7067178537008283,2.724646710087968,-0.4455964038948419,-1.14629181577733,-0.08143875698106848
1.0376149371005123,0.9780947707686012,-0.280413792337006,-4.881426764805418,1.5597606992061348,-1.9328171428537209,3.433809254498038,-1.1344138676038593,-1.261980928841723,0.09117466830218553
1.0525382819308753,-1.665268895358988,-1.3055948649022937,-2.59371883701463,0.33127008803901137,-1.1074968323165237,1.879283079319078,-0.24463751623077878,-1.361088183400473,0.17483968672189096
1.6646376608707487,-2.880737513173934,-1.775682302560791,-3.236673378756696,0.5407088932467549,-0.4543120921350539,2.0325740550571516,-1.24826667843423,-1.3940839529966291,0.48185169226418617
2.4055209472482453,-3.324281336535766,-0.9807929981453946,-4.025495164937905,0.5079689572170878,-0.6498767180901774,1.9989851664839806,-0.3699730729110431,-2.3138844675640544,0.05636153164576439
3.1255383070253036,-3.877392180200217,-2.625714628978383,-1.7056421488184024,-0.9362810454471376,-0.3471984232327772,-0.7315573137787074,1.4942840840112868,-0.4532735653628567,0.40700742757802677
0.8391103385508563,0.09690286741554427,0.287893197789395,-5.796219841087067,2.226312061603488,-1.9824490265037267,3.4321918692019375,-0.8430660021204213,-1.5541378861721582,-0.07079566438502302
-0.9030896708188519,1.2302530675122194,0.5016801429891828,4.294647510476225,-0.018181279323963295,3.5536256932848787,-0.8286787276745251,-0.8094231008336392,1.5235962542847776,-0.18657691459484366
1.2371820626846786,0.35775013286665464,0.9035574572508047,0.9089034982004243,-1.320453025562715,-0.2609216097006068,-0.9277606939826526,0.4072258870457412,-0.1739053834988818,-0.0923684730450715
3.4254056317398627,-4.141694984662203,-1.4879611949007088,-1.0561187776555319,1.4184273596219716,-1.2576313715056329,0.7097409041895035,-0.5872944635725407,-0.7755620295337463,-0.04959990562944094
2.2981894388150863,-1.5885060881930502,-1.4017084380110676,1.635236999043489,0.25780009858116404,-0.13987541211038096,-0.9737425882138155,1.6072809322212616,0.8939737641883336,0.16799805984149566
1.4255810479865416,-2.591452274600247,-1.8318733484624465,-6.685411232803306,0.044675054571966355,-3.348348991351784,3.234214141144947,1.0302173964919672,-1.8165066155071614,0.3837354403085049
0.44095632723738665,1.5826729290115222,0.9254469258519585,1.350501878334925,-0.9597309032101817,1.0005923099283618,-0.47613947046363403,0.7996116786117498,0.38528097304209485,-0.1420852314290692
2.3951790852698753,-3.676790206013896,-2.3975026324366917,-0.4332889062366989,-3.3345234491897444,-0.04698237562086036,2.014374715446979,1.4351440709271828,-0.5283533312839099,0.21129734268175573
0.8335969904467762,0.8881165808514042,-0.4923385598389641,-4.460856898358881,1.1486929917047166,-1.7088807039939886,2.061734518269959,-1.930672322186425,-1.4281594915931388,0.05968869399527137
2.566902732044806,-3.1721731410199263,-1.472241885515103,0.808876467263449,-0.220924148833535,0.30572514420066915,0.20549360889265134,-1.5611154650361656,0.16145377266582897,0.0821170123727547
0.1748514782465025,-1.4944199532172089,-1.335898892315555,-0.9720573130865329,1.5142617941038226,-0.7385618494906718,-0.26315168226461316,-0.7578985160026503,0.054214181119755546,0.2701171384857744
1.8621576069317007,-3.275291146687566,-2.199186132537562,-4.857626801393599,0.347891544751708,-1.4549240761374227,3.0602268418187846,0.542167189371484,-0.8364706429221805,0.23239643606166763
1.0913887350329938,-2.289257769957829,-1.089857606969987,-3.562834232401409,-0.21206487818885783,-1.498765775882709,1.666847295190066,-0.37031378929486647,-0.8437295261157635,0.060719273498410255
0.8968282272481662,0.9033803810332545,0.694413307245897,-3.913452712070236,0.5052178284753936,-0.537192570364685,3.0414894894648343,-0.439852841613209,-1.242596419136236,-0.16376515518805496
3.3559214734004437,-4.09125282251161,-2.1876529540976803,-0.8391749371845498,0.16342798870442532,-0.42288939645954354,0.38307716623730137,-0.30368185076494736,-0.7115487470675718,0.16430464241835402
2.063609216427155,-3.280849923423765,-1.9899426735417372,-1.834618626096563,-2.1448661895834933,-0.901071337286994,1.9813822889847494,2.01016882458717,-0.4293982625949239,0.28852660595564444
2.3494160504912918,-1.4705170512918313,-0.4809226386786357,-0.4686039817013681,0.3832377302238003,-0.7943075904822531,0.8701061200360856,0.47136339992983556,-0.5290011643215339,0.09348573805753227
-0.6926452920997347,0.46038104336900854,0.8500803457714938,-2.8595868430760856,1.4151287355059587,-2.2411366131578854,0.903445528333759,-2.415297352700161,-0.7323460188687768,-0.07759657808848057
2.5924865218396738,-2.76010984776834,-1.6223497376574127,0.3592783743720921,1.379616653264066,0.7522689451233397,-0.41389294647481034,-0.0939054047869311,-0.05695800115307752,0.14130731473710548
3.3002462837357607,-3.8171272820326294,-1.4092044829440735,1.1584578108433816,-2.2060999785872077,1.1573681284546182,1.6637470596102255,1.0542837323761618,0.4264747753993493,0.16669107113306883
0.23078853014832057,1.1622387101827252,0.8270379022400955,-1.583089364979029,0.788419332429772,-0.6678713558941469,1.9202193705902095,-1.040717543096636,-0.19887623230975104,-0.018922472556404526
1.5977596188836287,-2.661883729347046,-0.3901898397134717,0.6770728548066406,-3.168805963866289,-0.035405807181930475,-0.6356272944297269,1.207871730082862,-0.014576392806386586,0.05555777822687099
0.2939548709015811,-1.0004526374527343,-0.7297813835593134,-2.2339833709020933,0.8446099146224417,-0.5395951001443797,2.4867113017440183,-1.3015625046621428,-1.1047782404279523,0.13785798257187024
0.492540848686823,-0.5390459051095021,-0.8300847509447055,-1.0021122408052985,-1.173759265928212,-0.789298519276296,2.9245710386638173,0.13954151723801173,0.12297481372580436,-0.1175052822950333
-0.18869815329192552,0.9744919691569066,1.2166175615772974,0.6140831332634812,-1.102428145404735,0.6951527463536041,-0.7789077685250572,0.8888058342248513,-0.3184938186675092,-0.1533365912259191
2.306241227555,-2.0497417305090755,-1.0573622397080837,2.258199951449518,0.5146542809737195,0.5337509268952683,-0.9290613981100688,-0.10085233020086827,0.4693151872520117,-0.23844113760963803
3.392981569863684,-2.9007959507918026,-2.6468240858430256,-2.492960734988385,-0.5903867521230207,-0.7404679036772258,1.4864986424736566,0.27849062704155786,-1.3136905504293237,0.5587419639612559
0.8130083286680849,-1.1345840695466018,-0.12016799655751177,-1.886317799046913,-1.096847077922277,-0.16222906712478763,1.703698403219759,0.09611839172895686,-1.3584120043046193,0.05481916656654624
0.499786150049611,-0.9210969119544036,-1.974543154231548,-3.681683093329022,-0.9608280481005308,-1.493373968339574,2.334763450672441,0.9228276134653667,-0.9309295999993268,0.3441948749603904
3.1389999966901376,-2.5661729778497984,-1.8409697241342564,-2.2427213012353304,-1.955141478154344,1.5135813044793331,1.5332655586965531,0.280793989129944,0.1819925201770717,0.12232046204796669
-0.3665205721484759,-0.9864651606223636,0.3120624748126386,1.0927606342915275,-0.7807854333964754,0.9148307729203324,-0.282672949576689,1.492022344671767,0.3303723261468841,-0.023833215586910587
0.023717105903470426,1.3904655426328525,0.3850988419961028,-3.0104100124516373,0.13727427497365496,-1.5601422879637286,2.2533810127536156,-0.14464031696596474,-0.5228463718363587,-0.19600294022839598
0.13625443461904108,0.5131327126804183,0.6805760547073955,-0.27275547581612736,0.12991773931933864,1.8254101637436488,0.663221571205157,0.3540047552311236,-0.5496465107447537,0.09766714992442839
-0.14942419391724948,-0.7806268923495572,0.5349649940089783,0.3963532262700664,-0.29054446421924135,0.1389096660109868,-0.61997358379113,0.36050880723204526,0.15664401782478113,0.16545733488163747
-0.7499803650384322,0.47675845720435284,0.3820349757731074,-1.6106463924763266,-0.6298362670008602,-1.8686351987039365,1.2578393758907733,0.809878409059526,-0.8212139940444526,-0.031663457194717
1.649998776785349,-3.1129216599335345,-1.7036903091820468,-0.9160599730106336,-0.4906790545689951,1.0397794774224178,-0.10933220355874007,0.935485324405183,0.06241838287188943,0.24970598022588472
3.395921938814607,-3.320968541050816,-2.2891990843549586,-3.7762700479444002,1.1091851850840655,-0.9465093988264148,2.3011485657855144,-1.5129759847216175,-1.4869352915188736,0.17315879061636363
-0.6099964101208586,1.8651875120348798,0.9645435063255656,-3.9865442723361557,1.9330383955102142,-1.2851259209138544,2.1130243074061292,-0.2064838175554129,-1.2240901586726787,0.04767266942197327
-0.6569331762937245,-0.3852530523934334,-1.1299346002777582,-0.3506189002506487,-1.0345429964664876,-1.0052169230733292,0.19686884173320474,1.5138267529660043,-0.8339027499641601,-0.00466512983286963
0.28733499421776876,-1.3948317128329302,-0.8911052429046171,-2.6516094490675273,-0.5750015730937689,-0.5814605791041525,2.8267884894305184,-0.17957365484730314,-0.5076322830250211,0.017132351089003364
0.8751118060509182,-1.8828177988897374,-1.4730139550654329,-0.37866077361417083,0.23331351553059188,-0.4519913529231646,0.2784432606623328,-0.05975480905006836,-0.2302893931215064,0.21559953619581287
1.2490482721453389,-1.5556767091968977,-0.30271859316307087,-1.5679937496499543,-0.343072363964276,-0.38384506201801194,2.724166038821169,0.5467811709695702,-0.47568845750942473,-0.040338056045726996
1.4207727463632005,-0.40202149353712074,-0.4622798205917645,-2.2119602335443305,-0.6028913726636302,-1.3009421454464025,1.1348685757209784,-0.5655060999123201,-1.8825571225763589,0.03308070457529429
3.3094359825014132,-4.593078316453705,-2.880479705741612,-0.35168976004054997,-0.405821038741853,1.1746437412955495,0.3585610179981118,0.4218856295855944,-0.16679975463589478,0.3138552401781874
1.798660949333534,-1.5327099237746824,-1.5631330821536955,-0.6008241237104017,-1.377669425348543,-0.24721595114311934,-0.22130159884746148,2.400653897606423,-0.40175234141029625,0.39633219817738247
1.7158653860502966,-0.9931420050252225,0.11722431382751428,-4.03864043579335,0.7812064523183962,-0.6688223984761568,3.0746637550052975,-1.460128550361327,-1.8043188771033771,-0.03366422949656009
3.1075446597158116,-4.481684632531766,-1.793659867892995,-0.4200879751765887,-0.48598590445052614,1.2811028852929007,0.14056000514575984,0.32834500521500126,-0.697529259928345,0.4724711421476288
0.281045318200033,0.2115869540500168,-0.3236342633985362,-0.29158556292423415,-0.3807623660695907,-1.3053874518528483,0.06894398307872018,-0.5052995771647664,-0.04711374741571153,0.028345913563954165
2.2640226741854548,-2.0416803866774957,-1.5478935042831157,-0.30837101709539216,-1.7638766444822451,0.4455017338735792,0.8229594356958572,-0.40524768865756755,-0.4124810459586061,0.19990961338028515
0.706890299875778,1.0851583736697488,0.9431486775669873,-0.4118191819489654,1.8223179074164595,0.43550809213089414,-0.002924180633067097,-0.34411924567784324,0.009175312297750376,-0.13466011438326586
-0.5344558704210782,1.1376023492908398,0.06445320804185335,-3.2694497481023537,-0.9493415127100535,0.3067719784220487,2.5541603499539383,0.22629867360170006,-0.7280127753388355,-0.06856529298504659
1.1270563294062788,-0.21998539906652648,-0.5282286008613575,0.750517062484779,1.3198541969004618,1.0370605348738773,0.3760716398718076,-0.09586279442110501,0.6040825818663922,-0.040236598292992365
0.5082901433988114,-1.7071003138596414,-2.029209567723964,-2.8685999333358616,-0.3842350964822977,-1.1992235260812545,1.569854464410843,0.6443619507104319,-2.019146644746632,0.2221176749271057
1.096387544364405,-1.7141745217665116,-0.9652872145500161,-2.195028932249966,-1.0581202312200724,-1.7904966202873664,2.779228097755026,2.0541920534358056,-0.34258406913292955,0.4051154519231896
-0.028596159909093144,1.947025122114245,0.5565259716421663,0.6916763080604424,1.2666070954980952,-0.7832155281690136,0.08847361169070656,-0.2503404845083282,-0.2895102165845347,-0.18574892550097288
0.7805257608182001,-0.5748831224182539,0.11624743781809267,-4.3503209611266325,-0.10349910686339203,-2.2638517802760965,3.4133987700063813,0.3008643470702902,-1.461728399650621,0.11188868497214292
2.0303360812679125,-3.455101621481939,-1.6527625453979715,-2.0556323637604432,-0.029591382888293216,-1.2432674051557244,3.25273149767251,0.27876618929525965,-0.7361343136437501,0.18985351603039516
-0.8148719056000626,1.5541388462280656,0.29807215284588207,-3.4529138959628205,-1.2933902615953374,-1.3418384456146404,2.3009473580023987,0.12253761017477416,-1.1890452957647195,-0.11548207410921398
1.4666603922141186,0.4515031866586315,0.08787239119957913,0.6534907600289436,0.23636374236980254,1.789856797946282,-0.4553827591321644,-0.2762573742954898,0.0354249402370909,0.09960064067764846
-0.28051871667367045,0.9740903822382506,0.20220850403306673,-3.5977804054853104,1.0266609118570384,-0.3240166978285426,2.7779493161776947,-0.7388124035209813,-1.3987014252747922,-0.005436744920742447
2.2349062495916256,-1.0364920251850538,-0.7687299414785469,1.3099351767185012,1.001782540569933,0.040526429484098736,-0.9034613720145465,-0.08653495140723455,0.062459472393917956,0.21542744657340374
1.568353161911634,-1.3822918546593808,-1.370254387387792,-2.640606386238818,-0.5921678876732773,-2.1469946237731263,1.1330379431953093,0.08645452699007823,-0.8202433877988359,0.0822037743112793
1.705329984630442,-3.1051874384256877,-1.7166162934976963,-3.1126735977292417,-1.2908697922758037,0.12853702064122868,1.601721563368752,0.2523150506736294,-0.8869711459484575,0.04130212580854452
2.692932947406423,-3.0274150419691486,-1.9194033391280865,0.916282866282198,-1.7324239461702733,-0.14121875655540236,1.1666225859189283,1.131625242530927,0.03391824698004441,0.14617598968381385
2.1836540483115763,-1.883485603018903,-1.5774284491086419,0.5477227648284332,0.13538458480888899,-0.38147702728449073,1.010891385743094,0.9249710661261223,-0.09760455170684555,0.164311024689734
2.018191632367608,-2.844581246837279,-1.7307014288562148,0.28454429189641056,0.9035768294497971,1.401184141046201,-0.07663893799374377,-0.28342880474360216,0.36154189307078427,0.07753477728489042
1.2770128630915094,-1.223335685065841,-0.27433033695473297,-3.7538770192026414,1.2448491369696855,-0.6414802895972276,2.889065189874711,-0.9526489124145108,-1.3135609060858684,0.09768188507116526
2.5678199293280484,-2.169599772236944,-1.6073221671790239,-0.28261910485829145,-0.47967475608503435,1.292397070190682,0.7527649544493531,-1.3011256997227478,-0.10181952280525804,0.13984161493082067
2.8531934077515695,-3.6387038711437727,-1.2440980674606303,-0.9070887933819235,0.24191241085162118,0.4255399499836237,0.2849998370448419,-0.012199969040280423,-0.004834051782241348,0.16468504262247743
2.856602023834315,-1.8563406664576931,-0.5275916895801465,2.2709907304948667,-0.8427403225156094,0.9929353068811616,-0.43960600009905615,0.1522587068212941,1.1176415242108777,0.1666238775360097
-0.2940276175517522,-2.578036921934042,-1.8311385904475477,3.367437452668847,-1.958454773082925,0.9369644250659828,-0.28788005559628704,1.176287563035836,1.062424068242054,0.23910924972838757
2.140481267382965,-2.405951472120331,-2.5904108817089146,-3.74592390898224,0.24262519408380734,-0.4439319940281916,2.7928491202975483,-0.8885374544165614,-1.1611167294347486,0.3757806675584151
-0.4119973289465072,-0.5237389882073464,0.27542251132457257,2.199769478068471,-0.10789732242485539,1.4955355262460888,-0.614559347463883,0.3659856957963177,0.9540614224559322,0.026453558431950193
0.924392088026676,-0.42791319447005005,-0.35387604371244,0.35680390788782346,1.0397115858078947,-1.053448052741457,-0.7513485129623025,-0.5485354251812049,-0.044101556545840935,-0.057467699780381194
0.5044509008049958,-0.24353162165506745,0.17266642914614133,-4.161490118436246,-0.543920848779907,-2.415976761891062,3.383647675924342,-0.009358384411946696,-1.0545571314310025,-0.002795922035823835
-0.8123791608280881,1.4570011833482808,0.9547492519525491,-3.9678709974143036,-0.18755109756141902,-0.8009846784416451,3.094214109690612,-1.3099400760847746,-2.065752581633505,-0.015032283132696417
1.1466402422579427,-3.2606314896851334,-0.5689058860825541,-0.662433413151591,0.35660770070360365,-0.6229298959241915,-0.1972731273816387,-0.34222953120883226,-0.44649685837529335,0.20853359859692286
3.424634700836858,-3.9125440430789,-1.782526652030844,1.7728309586856315,-0.9655185362772547,0.5785324487449373,1.1779257536710528,1.6788256257169794,0.5868023382498019,0.33301019779173285
3.366488722739696,-3.806742600765517,-2.131165977537203,-2.3520542343146302,-0.1687298866307687,-2.060326508987233,2.6123653648468963,0.16088438539203692,-1.0228494634880356,0.049905406315761534
3.2065025105124114,-3.133670402833604,-2.8367078206299685,1.2198927184790267,1.0156917672060326,1.3903859196136368,0.7061153146944306,-0.38421811238047854,0.1654340596541665,0.13957053825273097
-0.8706829824442982,1.1014946986131384,0.27201477634935756,-0.6728530340521356,-0.9861428357878923,-0.2454102255811761,-0.9683015633476617,1.8460273997833285,-0.07067494614747094,-0.017644989645279986
1.784342455052458,-2.2391415834248196,-0.7947549288622724,-4.060951040838284,-0.7775970822423446,-1.3385695840392537,3.1076519749558287,0.48876808946497363,-1.3757205570852318,0.1282817515068509
3.3328961016350567,-4.008192795820298,-1.443482607434673,1.3886795758485118,-0.6466408813998807,0.04606202153370902,0.283712024142593,1.2075596905107784,0.39326841831831033,0.1182154833420216
0.6633088017882329,-1.3903279285790067,-0.21748121099854245,1.8674687187769323,-1.3252442051872928,-0.0865726429709866,0.3672731907898308,1.04215430522254,1.176502212600307,0.012769593921401628
-0.04189959422187606,-0.4620785652081648,-0.044236685150498285,-2.254776627208049,-1.6081880851569321,-0.6620605945462964,2.1903279397823034,0.3169330975744511,-0.7604995165910712,-0.09821244750280807
1.2723524597461089,-0.2258945189648817,-0.4554759405966798,-1.6574140893181517,-0.9929432176499766,-0.8068502711412868,2.22809318668499,0.7221300512477282,-0.5603522117593711,0.03344164866847981
2.3376420692708866,0.11909060468199231,-0.8590655860827482,-3.140617250685373,0.23095354061481943,-0.9001027792988316,1.9497171253631183,-0.4059658884541205,-1.0510397451010176,-0.02842955267876987
2.3346051218072317,-3.4730688817408204,-3.184941393059304,0.43975146641288776,-0.4235456180574554,1.0447473524665543,-0.3227039264587175,1.4890966854145369,0.5595358239812523,0.4354620403891499
2.792062378238356,-1.4631086040050514,-1.247397351945677,-2.521643256070524,0.7143399877068,-1.6102897694900424,1.5456735937098927,-1.1356928128760533,-0.29584104565550756,0.09868734976763621
0.23863075013908452,-0.25903283105931485,0.4873644376579029,-4.80230042044994,0.3401798153883685,-1.4929102671158798,3.0710384228259384,-1.2398132441899306,-1.2019920036558134,-0.05519059829926442
3.2478960563910473,-2.303328859435729,-2.8778611591597207,1.728148448137592,0.5689751348642037,1.8190537315599078,-0.2254649986745788,-0.24269925847567608,0.798086109140475,0.4412510214739767
1.1411246358617624,-2.583788345067294,-1.6082851019819264,-1.11972158992393,0.18468306600779782,-1.2107017566358576,1.3235474657031991,0.23885306748632062,-0.585791948964574,0.005992097685822325
1.9409178610828368,-1.7680132845513108,-0.6240476534134751,-2.1148529794944926,-0.9440301831324873,-0.20017771111935131,2.2714474286189645,-0.49410410072243677,-0.4308754761236041,-0.04523885946771431
2.8075827403583964,-2.154455467109951,-0.6679655614046175,0.0900963002842182,-0.5640713620749854,0.6865310081079573,0.20939163265448024,0.3855485247177118,0.12732849233530177,0.16523243521778577
