x1,x10,x2,x3,x4,x5,x6,x7,x8,x9
1.5633674649531448,2.1512724016337375,1.0563652140829602,1.6531818373243699,-1.2054373789270032,-2.049547248385227,2.327425019457338,2.8928238677414555,0.22796971550466014,0.06265742482503496
0.5474947818025697,0.6796991737363443,0.16114409687039863,1.1909700353952635,-1.7283325287047104,-1.0110935973706705,1.4227067260279083,1.3910921296895755,0.639907214443768,0.6474412010969871
3.0948247937540154,1.1306571662650522,0.2268582901329248,0.12112300254378217,0.546594417497932,-0.19083844290506602,-0.5581188178725602,-0.6996238686190608,0.028073522885482288,-0.09209593445862212
3.2633785705482694,2.088444133380157,0.35674151229459367,-1.6609314397985333,0.4069446313587112,-1.9319903115354462,2.505403281542437,0.4851601188866119,0.07716826535227425,0.17819753693270826
2.6802636450652018,-0.5378866857762343,-1.1187195196743498,-0.43209519002207764,0.14666392203915807,0.47879268320482743,-0.5957881464029202,-0.20436822123284526,0.8684283961444096,0.19829255475730448
0.7885177255396592,-1.6744407663391825,-0.26404158508537856,1.731627902396753,-1.1552256924321658,-1.0082684179287198,0.6424279644457935,0.5503438697370386,0.3199117433384475,0.15522086953382927
2.5371657279763125,-0.8292941637521088,0.1270619496931942,-1.3246850054371346,-0.12958755264620894,-0.9221211212905327,3.319615544571331,-0.8733845809938859,0.18977796415021478,0.41028226835708664
0.8209178096596028,-0.5575166056236276,0.8321463891199163,-0.5356321455939062,0.4757181254298751,-0.2048985641134011,-0.8183966912499121,0.3085187678587844,0.0019737618987307267,0.1876012216753633
2.1663555909750225,1.2444575310522143,0.5122002837744754,-2.1651476372344174,0.4505885478565724,-1.994448611523477,1.94675981217266,0.44232075606882026,0.3845235439852359,-0.1848868099194951
3.117330699196046,1.8612446554002173,0.029869680445588454,-0.4433661090188171,-0.9198119024905135,-1.3818641412664936,2.365224929866551,0.7248142420325965,0.6077679302308413,0.3714012538106875
0.9003142103621022,1.263922733605947,0.25365735112531496,0.21583549743413158,-0.08059704959050058,-0.6160314759042783,0.47943435258972467,-0.1878716361361077,-0.22411693113501424,0.041473533746528686
-0.3055882814386124,0.8200839206280639,0.930521993022155,1.6788810474961027,-2.2515390674051705,0.2359383115702841,0.5053473370078738,2.5102168846032873,-0.08448777205497171,0.03343137086264885
-0.7873200763854341,-0.863137702492025,0.10995970320080228,-0.568861523179808,1.6259676950025672,0.46741556270052476,-0.6096753470847925,-0.1299381761316124,-0.03262899160126584,-0.005520035958311907
3.0532318170801283,-0.7104446684495709,0.9687006144744595,-0.9514787228104638,-1.0101897306970649,-1.112137676845848,1.40702201965787,2.351704925696338,0.9022909220186794,0.19503027496136258
-0.4698620822704418,3.5258210144391318,0.8108092840967582,2.7263982389724313,-1.739164111201632,-1.9146078807325906,2.969823740141499,2.0351154476509548,0.3714857400000089,0.0714713565105498
2.642691945680582,3.229935104978795,0.6440656660707119,-0.27487661459809964,0.49806073371158605,-2.5119194573417105,2.7270486163271843,0.12050931007609811,0.5165162627364949,0.06571121894382109
-0.8845621076905509,3.7105954108005768,1.833348979229193,2.1683516346835665,-3.4970979462515697,0.8524229974312728,-0.8226973379784207,3.1621751654651336,1.736016721787496,0.1467936147054184
3.3670359021394143,-0.33784972493963694,0.7495790053534592,0.55205388651949,-0.7832447364545451,-0.06341594849271084,0.425736509805013,1.9625109200873636,0.1827197845184354,0.19690638398474206
2.352801396295999,2.568293801489264,0.5026400824734145,-0.7407122337567144,0.260320944345953,-0.6065239209516585,2.1868466907942157,1.749831994503689,-1.0234818726416315,-0.06593926859084229
2.1472337454062598,1.5426930722094174,1.606213510742702,0.3860386324122075,-0.8682732979969444,-0.4151034039211931,0.6698220535258546,2.508758331703955,0.7243218232070449,-0.2143832421880009
2.3668198743563544,0.4018947701535429,-1.1484196804960822,-1.6351129455906195,1.0972410340587109,-1.0116122173634852,2.308893159677332,-0.9371322181859203,-0.1090403980231697,0.2864758601881198
0.9505253300557981,2.1056573157266394,1.4323461773853678,1.353108357914646,-1.2225509465657767,-0.5325362885285639,0.47221684543661624,1.9662831723515297,1.2215124634779015,0.23470041622920051
-0.5100174112811044,0.316002512319566,0.5802991434419188,0.6334445599375711,0.11166143929731451,-0.8743536234551009,-0.11873275027781305,0.16127885624270966,-0.1455696798546844,0.19490627870634306
0.727426889150361,-1.047086196020715,0.8614198192231638,-1.2690967142077219,1.4315112012755784,-0.17057503481384145,-0.6628072889522937,0.5400621695552599,-0.9001744409474101,-0.3511781984554539
2.217480470776063,3.2844918706018307,0.9340575331349135,2.12950750183166,-2.330197541127154,-2.8204995361971403,2.228832315715688,1.4118519345316436,1.3385947709376995,0.4013872630450293
-0.7624740781935706,0.9297529356967531,1.0581207097570149,2.8538305331419056,-0.9084605104952952,-1.7213676209756357,1.5471431660023134,3.0071517202180997,0.9475547753359383,0.32078228045907675
0.04184737460590937,1.2346618226487345,-1.0965634109941613,-2.3864430021914504,1.337396164125419,-2.346215334480617,2.084455910376354,-0.703915213566993,-1.6029022094357286,-0.5185965343733983
2.110712410773041,-0.19511332287143868,-0.21898102407802472,0.2500189299841875,-0.0623294324460041,-0.05717264953634453,-0.4204814457656071,0.877252476255191,0.5279343611339676,-0.14186885270414767
-0.19237189426607537,2.0935406864887596,0.21999124236329096,2.0244176592581864,-1.2222831577029147,-1.0823058655649005,2.426609067494844,0.6273207007068322,1.378913595914285,-0.14437036754165794
-0.06492081789613346,1.00839258684611,1.7264414787434041,2.5646971570881756,-1.6531211055508157,-0.22172820252759398,0.49825423127366575,3.188879041766482,0.9821561073013514,0.2136125518732886
1.993014922414233,0.8769502467135202,0.6404409851462097,0.9409774703244829,-1.0454458030518123,-0.2290672515349143,-0.9239036220765353,1.53681062990864,-0.13708767192371496,0.08495938437302056
3.1763396955298457,-2.019617929355899,0.5132265663438277,-2.0618088908583765,0.6631946735060475,-0.7881459904672597,0.2228572799731059,-0.9438798622355924,-0.8363171581606769,-0.23453549910674223
0.6871154699283764,-0.25513868380512456,0.34889208117596365,-1.1200664925704151,0.03396714100452276,0.438972430315707,-0.8160067752764408,-0.308761190229224,0.037548230293832786,-0.12551846975133715
1.5125252051867246,1.8504573486206977,-0.2717203144074276,1.0593587511785116,-0.22544421096371933,-0.5449720811265055,1.4139479707261504,0.9994720251305211,-0.5128358172161088,-0.19369359864270333
0.25650708229507635,1.5246611512447472,1.2888779994665367,2.087694622424141,-1.6726910839206888,0.17963951516055554,-0.20559452878467988,1.8059434923734834,0.3040850323002464,0.03494165386736981
2.7764562486961775,0.04170937834416344,-0.6180721716943384,0.12272122749711245,-0.2387621649454259,-0.5250206932047405,1.3876563867297262,-0.6034542599239254,0.9860259318342444,0.1555574919624641
-0.8270390197956822,2.4086071303550853,-1.5628839777149663,-0.5025638180544849,0.0185734835347293,-1.654714440677761,2.181770988868892,-0.06240408387165053,-1.2964992279119232,-0.18320929338192854
2.8984418867525417,2.1293296650110456,-1.5195133310134399,-0.6202489995046292,1.1002312301687864,-2.0295963222808737,3.084239557585552,0.309390593379943,-0.21265040775084681,-0.027220037201346338
-0.9614758525756543,-1.134982282032567,-0.3281654977483586,-1.681461605069566,1.0471317792427999,0.6214149231079996,0.175681254718278,-0.6038989781227859,-0.896991435358911,-0.17035023001492483
-0.9518754187737236,0.19297047316528348,0.19868987441920535,-0.5831076430459586,-0.5879252027035305,-1.1129748635844692,2.1581067149571815,0.1694774158659944,0.767514696644791,0.3016708655142864
0.5044987321576979,-1.2698214885021288,0.15632036662476853,-0.21170320268195236,0.6628329183283181,0.08726972038732765,0.1773770288926546,-0.6043841391300284,-0.06935481301146765,0.1233154961398351
-0.8713208258512269,0.41221064981401523,-0.13701425327418165,0.03853830979360329,1.412271683653287,-1.9233956226194695,1.9955341859867577,-0.6630728602407601,-0.8965875661021294,-0.06344154778321531
1.0571886138958608,2.4358252884147955,1.700237909461201,1.7620715307530244,-0.3725885026044203,-2.2250771495544415,3.3637197313524947,2.8733645092945044,0.7450386882970732,-0.05464726924651819
0.05165973796866341,2.505691077701144,0.46019560233874146,-0.37855631247168375,-0.6431959166369735,-2.0728993309952255,2.353582960394504,1.682106271692589,-0.6003941169301179,0.03945840809658259
-0.6980392586110606,-3.7081366636171245,-0.2498409177899032,-1.7406416943020684,0.2546206503694448,1.4349538402634854,0.4844164731277054,-0.4548060203118244,-0.38282660645817534,-0.3123253485781368
0.4787884224073409,0.5456547591361162,0.5845040806272773,-1.3494048076322223,-0.6336220172610425,-0.40916618404177085,1.9249569357586642,1.5537564350371809,-0.1270318967132319,-0.1344278490509193
2.5733295320693435,1.3288793638349172,-0.5569118046952619,-1.3122480885578776,-0.1730400877554561,-0.08846031860906614,1.2032395103288303,-0.6293574393105021,-0.7924063058882621,-0.44961109203366334
0.18093800560280027,2.117181324893501,1.1083528856681952,2.253871315522922,-0.8730593824256829,-0.9237180967015682,2.178217262166859,2.105557343446215,0.016585937309068172,0.18978509937180346
0.18221883235359826,0.6035476584846018,-0.003991839811838611,0.5058756392249121,-0.13486204023733078,0.09591940895716411,-0.3316973635237974,-0.17334439423705073,0.18751209733255347,0.42503674642431677
0.5649061829064586,1.5101013320401262,0.533583656353567,2.179633841346354,-1.6346889636571937,1.839855173601994,-0.9648154898067601,1.137615837408286,0.9813156613027961,0.23078641327239832
-0.5031057823162821,2.131805723227098,2.0982418277269677,2.139746359316553,-1.431553512304847,0.3915394774241104,0.012884558880914998,2.9923972980543057,1.3795863838305493,-0.12536238173838757
3.042710582289736,1.2829973504623273,0.21950149618265172,1.1638282063271221,-1.5498305568644857,-1.7007708734560227,3.4335207836288513,1.933605803755654,0.6838535850471906,-0.045955237067837974
2.8287155714525225,1.2244957043492395,0.48327447669969265,0.051056350351597724,-0.34301625453278456,-1.204352454129654,2.8024895101578116,0.298157433334725,0.14223675444258158,-0.10911865952058429
-0.010312357774097558,1.8303136604352255,1.31775253713198,2.4325922125204027,-1.8472294600918824,0.3787261711080233,0.739061599219472,3.3934223417655787,1.437961587589682,0.37894360086820794
0.94853981585167,1.6288792644910166,0.19736849886099211,1.78507507334522,-0.2518076182839793,-1.046888394090256,1.7546813067470293,1.602006566131803,0.5588088248891181,0.09217498039307608
1.0425100107589325,4.732528462181513,0.9272621750819375,1.2810530975696688,-1.5812826419892358,-1.9091911874191507,1.9373615951091527,1.9477623084579148,1.4625913736539322,0.5867300442365669
-0.9280728400121517,1.8555953121090063,1.7277820089698046,2.5419891594890274,-1.3245764990186297,-1.0652089625865577,2.7313676643050124,1.442469959252275,0.5510036816582933,-0.054472322047256265
1.0098671977958302,-0.2300994379064092,0.7424660501440801,0.26063329813844455,-0.07945242315864794,0.44656007222175875,-0.9314056578179789,1.703780751983985,-0.07687191501657203,0.08338311020236434
0.14189101139012905,2.4434864437319606,0.4904059749362802,-0.5254628132362106,-0.6327337262296377,-1.091195339420865,2.076384755736892,0.542957641166836,0.028246514248035207,0.21929958256216595
1.9046295622475062,-0.3843065682694051,0.12407424612158133,-1.7604493467621782,-0.03168514846942579,-0.15467859821260285,0.6072130126583108,-0.5656966590883257,0.6239177195005181,0.00043232909567323904
-0.9886532525478516,1.8019112357038676,1.2900095411740269,0.8770088109633234,-2.9087834354559274,-2.5829718721313926,2.8434087030239485,1.8103255250584462,0.8009913130332891,-0.36089355702559245
1.5232947272077224,3.344831830291458,0.027553171866036386,-1.8396028622143603,-1.1562571564156936,-0.5804091133059429,2.432997022861849,1.0366728851855047,0.8840284969730374,0.4247569718463025
0.04799201340973669,1.9350556033073698,1.1535185207693148,-0.6917654834854997,0.33059819285348746,-0.7026839793900247,1.2686616333352556,1.8897614550259565,0.490008721121089,0.1090972629488441
3.2927002908736824,-3.1891800429009294,-0.4332535033592721,-1.7642231816976648,1.2007520226767863,1.3221010583305848,-0.9109140652222123,-0.6891850990915287,-0.5105101206782031,0.335849445597741
-0.3513372739964067,2.524306194303879,1.4392954226485843,0.21250467878557316,-1.2542172431015268,-2.66663609769277,2.800441543203456,1.2876162396193092,0.6918722715537426,-0.08160539955412545
-0.24323761194778626,0.5515293170068778,-0.7864299727819243,0.0015502044552639926,-0.17153422245660666,-0.39493736829855197,0.15636065859095605,-0.8159346257987258,-1.1510299054824291,-0.22117430627969006
1.4298619446182417,0.18041683562418193,-0.44419783396111223,-0.9566863261120411,-0.3573764742953129,-0.25385908343714847,0.0574736791732644,0.37674157555458354,-0.13017872368449046,0.05143678880713118
0.4978702198684757,0.9233005920573558,0.6165780630157826,1.0204654070184664,-0.22530265380149272,1.312447525346828,0.37938190839834096,0.6134566975020754,-0.034547585071166204,-0.11213276938903115
1.0297345199325907,2.5937774728319067,1.0511219042059465,0.10981243071735075,-0.22817894008523876,-0.4204405627754608,0.1035361846814109,2.2161677093959433,0.23926528242077824,-0.26518213343403846
3.026461331907849,-0.6278482206765521,1.6812954494197958,1.1650134586580398,-1.7291816001649372,0.7739720773187025,-0.693587805057126,2.964127639781462,1.8102821192894947,0.5680561587859845
3.088167860447218,-1.2790861652675658,-0.5337977528576224,-0.011946162726300114,-0.8776150546359013,-0.8918802385817468,0.4842664452446406,-0.6095963526976111,0.6460231073789426,-0.12207929600787541
-0.13868340099995324,1.1760598478085829,1.0569284853834717,0.591020417060827,0.36995927395319766,0.9853415991891726,-0.15291266050784236,0.8513027597652716,0.5548176189152293,0.09544617713448263
1.5480691239115076,3.7369728715176302,0.33103549307332325,-1.9143483812464812,0.3648219811123257,-1.6902973219394595,2.68149494806654,1.229279717721607,0.5145931174559693,0.045847460000095284
1.569187877289775,-1.324653931727426,1.0054102721449174,-0.8194491561658362,-0.48142613373688503,-0.056243181410906715,0.36432997037133186,1.8440182392172901,0.8667460037371979,0.44363087975151205
2.238942824221832,-0.06625441375896138,0.8414181293773616,-0.8604378960247546,0.414742009992864,-0.4862287955316019,0.026924666008502074,1.010149939829505,0.6422688368623645,0.1276359784444239
2.1493998225212065,1.6185184091165967,0.8700772580492463,1.7793713644725975,0.0847308120286829,-0.1886781127668057,2.0843926167532683,2.9804982723716558,1.5136144624798367,0.450796285833089
0.12530083525004176,1.891749255220204,0.28488693926020675,-0.27764391222406065,-0.5258425272614706,-2.298103611649792,2.3289499546307977,-0.5328294019886368,-0.2246299978164295,-0.12449694259916644
0.7742222486405428,-0.3274920640183816,0.04786086372937758,-1.1837034057551785,0.180268430488065,0.3595990434892887,-0.7460528983486336,-0.04429399677774526,0.1531519979193849,0.08554268856238197
2.1548132832197533,-0.010144440844885139,-0.02594106949894368,-0.5639931768893771,0.2026713330499015,0.8511333709512644,-0.8984273925762916,-0.8160431306214884,-0.45607089707700454,0.01116387980742934
2.599925765192611,1.20004713850134,1.7065638526784228,-0.4870863705265138,-0.4554630462425252,-0.2768756214837903,1.8803902147739522,1.875496199520705,-0.007027189758791209,-0.09477255952641137
2.075568174084748,1.0559455827528108,1.1298808434805152,1.0122813228417153,-1.2632043735995433,-0.8429848585288477,1.8077956122580172,1.4792617293971415,0.1856787982459665,-0.008564804457749205
2.1437667339229107,1.6483422331002426,0.2788902282166331,0.009307278787925699,-0.8421123001751685,-0.8194868593566936,1.0312996896867705,0.6594221418325172,0.9497074317166713,0.623663862355605
3.394094259491501,0.9483541913450543,0.07846390777492322,-0.47437873976323364,0.8165816407887188,-0.5719455585141971,0.6021405415736065,0.49453995968257547,0.006898895043304222,-0.06846227248371707
3.4010648171115836,-1.6386310702733238,-0.08926544556663002,-2.569814825067163,-0.6358507934979893,-0.5441662349495678,1.94685789959469,-0.1932979897022774,-0.94023658703635,0.07329216819665375
-0.6390375639106123,2.7939609233190126,1.826938917595293,1.0785479401705294,-2.251009790682283,-1.3042780921462651,2.6440480253256187,2.7151497677923513,1.0480850615721393,0.2084088859044742
-0.02318381865502117,3.2602195681807054,1.2822546241668908,2.5513858248224093,-2.2867737190648003,-0.945801990964958,1.063898283084173,2.0197557371488153,1.5694405852971232,0.2975750387885433
1.7035450450790592,1.2500570403590479,0.17329389192771513,-0.6571778374039445,0.7490060983611314,-0.09335256281185587,0.3789787857845974,0.3485182604550794,0.2575586036638759,0.2749227827129905
-0.6658462965583902,0.20035945012538156,-0.3267646278796134,-2.55599617807302,0.9162774565331302,0.17550369984909625,-0.7680437299083173,-0.315547973544119,-0.13855749159926165,-0.02003420127475144
1.8505174028795555,3.691796603224328,1.3499561786505725,2.5661388831235254,-0.7339875140509556,-1.3563878556848297,2.0043422873852057,1.8146128086713786,1.1128855250997882,0.4051309322304689
-0.3320867720052839,3.1699195702790934,0.44215814196767617,3.1652110361033627,-0.6956632159234476,-1.6672224947929777,2.090689285218947,0.7214749267644334,0.7210258214074391,0.23225069497635953
1.850373846604517,-1.4885294401833284,-0.4820985590328597,-1.281960886564718,1.5923110008716235,-0.8587657538531721,2.913597859271887,-0.6454764082999882,-0.7782394524193862,0.09196617024710582
-0.3063695197083609,1.3843239302706192,-0.7557179246317515,0.3692918408060075,-0.9797090765332772,-2.064160481763063,3.1540070295069773,-0.909121653911092,0.0723056288942906,-0.1745432670134889
-0.5680958626453552,1.3768905519825108,-0.37126248861980515,1.7020812753155592,-0.7059068017441071,-1.1802633753107503,1.5867934085218556,0.2430420349614406,-0.019507084744947084,0.23811610882210185
2.072571511442195,-0.4855423066219572,-0.6920406015757582,-1.4017643390352734,-0.3144262543425856,-0.4585111255931732,0.13097239903473845,-0.8473820884946088,-0.15272176998092313,0.1329693315592107
0.7033730214202232,1.2380278801511164,0.7773552449198158,0.5944740702285685,-0.07680977604561431,-1.2136341437874383,2.3430253968603876,2.154692260431218,0.2002680020593229,-0.27588261900814787
3.278602267552804,3.8224453775803586,1.0819891369506263,0.29033173684311153,-0.8979098818157136,-2.6354437224090437,3.212740783586339,1.3883971427363533,1.002672230234735,0.08139074089687157
0.37935932067082634,0.07675081086060581,0.03191781175161759,2.808937883291565,-0.8626931913045717,-0.1960511400785376,-0.0769582788639962,1.7716355622526643,1.6254186600174052,0.26749693258356605
-0.057100145382486645,1.218160061178002,0.2686787082416547,0.9541546145813774,-1.7418680718807085,-0.3066474122459843,0.9983107046117727,1.8939003225759503,0.09349733466711513,0.09797702443923842
-0.9281787590193395,-0.41870391106127597,1.5953781313191957,0.9705640867126907,-1.015562691684941,0.08479435037512287,-0.7077483001245704,2.4266319753115617,-0.4871524307199693,-0.5453223855476492
3.3805573147812096,-0.29239466172046225,0.026123864506402042,-1.0833952634253792,0.9277132541181654,-1.8655769824219428,2.1376196366147533,-0.20516443342458313,-0.8504961440897973,-0.19940651826818087
-0.8787291507636045,-0.45220632734044053,-0.47244673783215213,1.3057352448713404,1.4220561041565298,0.45321943307563645,-0.043537427342451696,-0.29974766304415923,0.1483682692830906,0.11479186999358244
3.0522730239946227,2.832454858362828,0.7982970428443888,0.8151686715922001,-1.1857623371002968,-1.4010878823747113,2.407077822262189,3.455970206973393,0.9233333230363289,-0.08282142928981365
2.2750825586625543,1.6138245566365232,1.5008098062529729,1.544501593220434,-0.4957120369479542,-0.9104352240686946,2.1857831104927703,2.124183214817225,0.9841543779371998,0.6423709737458693
2.246565573913973,3.812079484167496,0.33388668307983627,-0.480100249235933,-0.05398834757365295,-1.9097975505939186,1.0869935973346183,1.4350917299798494,1.1732648875049463,-0.17245964924117865
1.7499949952122442,0.39981465387506787,0.7121648536065164,0.33600417430750995,-0.7891482262132605,-0.5485564483865668,2.23461030403648,1.2758923923549972,-0.25492640900986685,0.3798681850036838
0.47396592350855227,1.5907559151999648,0.8390310351307991,1.3178553880167667,-1.562984942042403,-0.3604808519253402,-0.5836221866588343,1.9168082562363207,1.7196328371743002,0.31290856786287896
1.6612172598429216,0.4323488016323078,0.8819507490408531,2.3858977785873243,-0.6646237967355408,-0.44943868190418407,-0.6014179704247481,3.1334215946244965,1.5992572465589996,0.31560613896380757
-0.4473317017013205,-1.8302554926840913,-0.18292275919365203,0.6303592462898739,-1.0681238710203527,1.4940640664023548,0.05739117543608363,0.23529883473911295,-0.4831856687151182,0.05225265292709515
2.2141150948041397,-0.7797220377581013,-0.018463395053087396,-1.1850946300681562,0.3266426353960954,-0.5359605480267375,1.4793745144532235,-0.2943187225223943,0.16025717392734548,-0.06836156541410986
0.5696822644403485,1.2881816328236957,1.5973513253724632,0.49529972984673276,-1.3333426223570068,0.1248140097815873,2.6533225123596442,2.1691634833361157,0.6112604172028437,0.380496879603842
0.6797597655993792,-1.004761122837618,0.3976861926816467,-1.6849780090274424,0.5736991898667487,-1.607748807084504,3.168635491916917,0.9907446256191683,-0.5505125780467403,-0.2678614256975285
-0.768012357372035,2.2109141067230613,-0.10525889337959138,3.5006752202810936,-1.5543206749304799,-1.1103771007078436,1.2867258417552079,2.4858716179265725,1.9188677744006992,0.5373312666781471
1.4967336002980676,-0.14130292676953904,0.5734510823504863,-1.2078552581767332,-0.6668060503082693,0.2496466061385849,-0.8106515083655926,-0.4567084171420125,0.29493555873722915,0.20629252922707508
-0.0017468329392844595,0.5895048494709019,0.34950822931967634,-1.4022239138338028,-0.14085828992921398,-1.348344144170971,1.9916884109224404,-0.12819137146342552,-0.7586984847485668,-0.08420507637699147
2.8223801854729786,2.0455951115432565,1.5378509395609896,4.290674533863337,-2.611741670624957,0.5539125132855144,-0.7710504352736718,3.2828257593089116,2.3352592146894047,0.41679229628965736
-0.4620692648554777,0.07040909405462228,0.3014403668202544,-0.47641201575773673,-0.6585537148179771,0.6133563090280703,-0.5796862089065387,0.3044330995799398,-0.1626502594758043,0.4085932653958981
3.4446350435924833,1.1667492102322041,0.333441467328691,-2.062205601499464,0.5352798327322084,-1.82689314259764,3.27950922505459,-0.1710268134524653,-0.6855028996132945,0.15159958014897015
3.2134525477907356,2.629894325703709,0.35888193915915567,0.5052371151023398,-0.5951073215770365,0.46663878547296883,0.153947384439866,1.7415196152763053,2.0260002516991706,0.2437777659529133
-0.5881846964803844,-0.06252600968414207,-0.21323716422133723,-1.4320869271081178,1.0650462131971468,0.1327522475099626,-0.4565730662755003,-0.6134799190296862,-0.5057137824564949,-0.03375540325629992
0.29497758753137004,3.2586007495130955,0.08162012538231879,-2.540998228549699,1.939865401510785,-2.8990948861455075,2.3818014163713146,-0.3889477931047227,-0.7546985864922434,0.06658664194087233
0.05612095366852987,-0.23073854533100568,1.0394111611031551,-0.41814793303794384,-0.5580515811684174,0.9411362261046109,-0.2362094977843031,0.7586594664711237,0.32948837218061955,0.011544359350500955
1.3195286400956356,2.225901680596523,1.221495176088528,0.5874796892037906,0.7233735870159885,-0.7886635897814285,-0.0028728953990936335,1.9671570405498295,0.23219530351783768,0.28489322849543725
2.098593584342313,0.6687509793813343,-1.1601219842971724,1.07032101967327,-0.6967272246128713,-1.8583872085029896,2.963297150613673,-0.5677419168669133,0.6024537687298612,0.45878882215494476
0.2780697004063988,-0.6985488942556595,0.040552804749322775,-0.8304902163536015,0.8797559400281035,-1.523318714760595,1.1890064279108756,-0.9995911025275867,-0.0321447864444428,0.03925182982911601
0.13821024772826584,-1.3525080746874623,1.0902311710288133,-1.0910813621300117,-0.5778489317635812,1.8300030009802815,0.023752531351544537,1.8032747262046347,0.4842560376099614,-0.383351387916138
-0.6741042285500133,-1.81031020237491,0.7950038874006861,0.49122066369874273,0.4270421783926224,0.9167642171833156,-0.9756896668797099,0.9981316095082085,0.2924961544496442,-0.16484130039644915
0.1384225208642802,2.6709091027813363,1.5977616242985289,1.2039467002321222,-0.8421591529499883,-2.4685996134990793,2.988256217677047,2.2213115809852075,0.9427306163877307,0.42109030783358775
0.9152541476443679,0.13234578703915997,0.13545053176777083,0.3512410079410529,0.4056952869713093,1.0782086047864456,-0.48868484702328274,-0.31499080519223055,0.16200478132184737,0.2527141846503667
1.534468891519361,1.24237614058247,-0.14205066370321576,-1.0724691206918764,-0.35142205234728835,-0.24122946300509795,0.538639375279363,-0.5810168623887237,-0.32852492242593856,-0.13906087777008258
0.19267642674557695,1.4674046525270048,1.125952253120637,1.0763197368684783,-1.3131623969184392,-1.1362514447596517,1.845702190333569,3.048131079671209,0.32091551963143256,0.30539516855006427
-0.930470705239962,0.4087443029825485,1.7002372255182159,0.8226931073227424,-0.34894571113077755,0.11552282422149185,-0.35993474953421034,1.716938242774733,0.454481999467047,0.21591058628296025
-0.1206236549565668,0.05242067764486713,-0.5015986107340794,-2.061064683170678,0.8369950588701977,-1.045375241009294,1.6763740631036348,0.6221270425320002,-0.34897440503959565,-0.18007039652093992
0.9824322486433212,0.738744710793483,-0.17933087613297488,0.07189163182427952,-0.3098646106150103,-1.2287860883955355,1.874450392588411,-0.6501493907919601,-0.2745003409007294,-0.42573971231757435
1.2472313653442013,2.173296137689192,0.7081795855289091,1.0227881852462906,-1.0589299012120608,-1.7603189125437637,1.971457875227717,1.042793055685154,1.1214522843230894,0.5303059657944721
3.037612655577588,1.6141603312561716,1.5516568868337184,1.7587812713778292,-0.8319636410504381,-0.3621727506515011,0.5600065720483602,3.2909689097864723,0.3266792547067012,0.44019416072398027
2.1645791367944844,1.6163177873451113,0.9187635815704416,-2.007562806130007,0.3006705829182861,-2.155063017487549,3.3875194980424252,0.7322764756228444,0.26249330684371563,-0.4176551626846438
1.0034617906761127,2.6153106901502117,1.6059201394141858,2.7066986572302687,-2.2897622614641944,-0.8419555718183235,0.9821892889646782,3.4456457688251323,0.8283829188069838,0.009855422586721894
2.2522205215085065,2.3545523739080587,-1.2516134192849535,-1.9056784887506546,0.6900417754709005,-2.058152192677178,3.320588602108703,-0.9063574317376237,-0.864628196293104,-0.14872433964470855
-0.5406815372315978,3.5314929117376876,-0.04577062406643954,-1.660948420903355,0.2826296248247628,-1.9797475320501137,2.670381527091494,-0.4684173533175685,-0.3946847952972808,-0.15091242769235755
2.0688315353202578,2.8851484664722933,-0.638507367779189,-1.291444889027772,-0.9597238104329382,-1.2614081578531091,3.061379376126241,-0.053334371079452714,-0.07147040365297463,-0.014540675167219134
1.6274250990781116,0.2668106194070352,0.5583836037670695,-1.0040729652143858,0.538672217955097,-0.3787459143578324,0.6264694525687533,0.3079273344754476,1.2286360430898644,0.27371307731399613
3.1763429896669786,2.992484132644316,0.7737817468240196,1.4126732150550536,-1.1540891390057892,0.48489718580207714,-0.11553214260709432,2.1722506923775606,1.4114926899181786,0.7082895533557316
1.1678078164677625,1.3822786827249849,0.9246022627443528,-0.7930502795492863,-1.4525129118759075,-0.32555895892766656,-0.1215739216877032,1.6218939084672996,0.5276379775871594,-0.055090678523243564
2.343120095947734,3.788317222090675,1.3851710139126743,0.19131732997495043,-2.384998270427928,0.12028213696274322,0.03737803069436629,2.7478673738706734,1.7922402144125578,-0.1994404023406766
2.8327699760485197,-0.6207659263299021,-0.1308797045711785,-2.3812941387702202,-0.30917742019180366,0.6251955230589832,0.4001286691397816,0.34152525404021605,-0.18068339508678258,-0.3555129089714795
3.163199320011943,1.0099913439738393,0.6350164570446241,1.8149374398854325,-0.5197028545821807,-0.4304907127660134,-0.363601905358789,2.3484806765252895,0.4777646277204356,0.3797277220379216
1.9682279951606438,1.446872035825971,0.8205614790716904,-0.4782874186116614,0.6006547345413454,-1.233597349341117,0.7883589580835277,0.5838110315645566,0.34188196812973226,0.1843200825610136
1.2759824612137054,1.8120578890721184,1.3682929322252182,0.9221425624013508,-0.8486855139674335,-0.6134175789303372,0.6584531411259547,2.0238784550489655,1.0549526471701707,0.2800916488203286
-0.48519664061526746,1.2167822041455745,1.4743319621052189,0.028635476237570734,-0.8074192322418837,-0.3557799600512531,-0.7391375433785359,1.9319701355875152,-0.05479341946801008,-0.1909357988748828
3.035775890494352,2.998946863208614,0.9253409986530761,-0.24957664545432612,-0.5267421707465811,-2.2731963211907766,3.3246244152261637,1.7764588850381582,1.0089288514009287,0.37326157891537703
2.7932691827027263,1.5724510231148776,0.128884978372385,-0.729059159167381,-0.15472525475920781,-1.7138372803780966,2.8565963833778185,1.2265520603953242,-0.18292172405907542,-0.020917607775962403
3.116736292024627,1.3677180675642087,1.0395032589352204,-0.11493521080926505,1.3672705503941738,-0.276369905212222,-0.29211815828542487,0.8963066407120841,-0.11462033702322524,0.37186583940117607
2.997503965193454,0.8743571279324175,0.10217436027443066,-0.5623034651570002,0.2990476414410253,-1.2025046243138906,2.9184201087865422,1.291725469587465,-0.2478194147808151,0.11868856591986764
2.468299122142109,-1.3197300542793995,0.11785069864824867,0.9912888028052743,1.196461133800259,-0.05891921078736625,0.219428742577072,0.1893394233871335,0.06828038671369926,0.1668283837813067
-0.9132601209217022,1.8255209325787947,0.7215080673078355,0.5735335589197237,-0.18615107981640658,-0.03719240812647372,-0.39348393014481975,1.0794922885653215,0.39729703787199916,0.0010457651827281843
1.2458727840528745,1.1337312171749123,0.4476060364735298,0.6108379634515928,0.45849419835003236,-3.1879901099666963,1.5358557385822458,-0.42666172678764636,0.24758239471067756,-0.01596995895005436
0.5775873906144515,0.9627905078325301,1.2121115229545996,0.4918923651163387,-1.5881953899735073,-2.4728137991000643,2.7726624512926032,1.6803954091727333,1.704118759019535,0.4252894293820129
1.2142213048720576,-2.2430873232762436,-0.6545490287837123,-1.461364241274522,-0.07426365572366504,-0.36215604824485853,0.49713121463226395,-0.37915540893201605,-0.5112026113567021,-0.2996559532886837
2.994574121539218,1.745648594495519,2.0037645559321278,2.691779888305719,-1.4128443366439971,0.42162122055011064,-0.2100628258229389,2.565632835009651,1.24090028382439,0.5681258575111957
0.4884048078404428,1.3447240299067944,0.7518863038208017,-0.7330166498835768,-1.35399963666472,-1.186511287692545,0.06976060188248634,0.6338409044563444,0.42552977163610245,-0.018168612964474338
-0.17749350104384354,0.3388538627308627,0.6492996975683774,2.053623452843922,-0.05486579440844639,1.0279268770959404,-0.5408033756110548,1.4428983797908002,0.9484114363170808,0.33614432901063185
1.9463316149943797,-0.9315116479647014,0.11433793799941265,0.055772392737757026,-0.04673459062256002,0.06094977202179469,-0.14567486454616507,0.00934342612339889,-0.31680734934345584,-0.13634898765532952
3.215497907427589,1.5092838235219694,-0.09219938120780957,0.17596216018256694,0.5417809321232219,1.0581386798424783,-0.7495294198830811,1.0595647583342171,0.25510490930994123,0.12314932349107888
2.9256073819475903,-1.172220099473751,2.274954736865066,2.6794689788920953,-1.6573654447062969,0.5837136386614229,-0.9081053392016042,3.3789968964616888,1.3699957037561004,0.44526939713482927
0.044361924502475336,0.3046329724448432,-0.5980405244248925,-0.06336744461561418,-0.3856889932638268,-0.9659387907720614,2.027400749459855,-0.30732317085665595,0.41858674384018485,-0.017027547614176533
0.0572783838544928,0.23359757797998948,1.0678728900613268,1.255076042686191,-1.1915318765899534,-0.24030063107821673,1.768677862614528,2.4415495240917875,0.41003784738912546,0.1671354346965822
-0.3108766003121817,1.6125191095011697,1.8728221027299168,1.6686185064644594,-2.404073269051256,-1.3370568311277318,1.4633631908521139,3.384399785644609,0.9984992052622867,0.03624884089954682
1.1036670574020624,2.9762491421202677,-0.12086997393525627,0.7623732753974181,-0.45333687999586625,-1.98212066507008,2.930986296301934,0.12158731914798637,-0.20841443461920303,-0.03700548013814509
-0.7678093006865189,2.0348355555517794,0.05081540801132379,1.152047736105878,0.4709913331619519,-0.9184036640521007,0.7101285722810329,0.8162354250312991,0.20365650731024168,-0.3219844715808084
3.1967774033558483,0.4905469463721437,0.9653270171815672,-2.0030441316989673,-0.07122910954618986,0.13010032436443547,-0.8110962250352276,0.3203613706683397,-0.3394995830147893,-0.2893942954879125
0.6917351321301004,0.8977803517580096,-0.4898660746704643,0.2044353118680189,0.25428872842168093,-1.3286896425797408,1.6544253840154521,-0.8602968488437692,-0.5877517809611073,-0.31071924569781906
2.688858287614603,-0.27920367235540255,0.07117602430192486,-2.321499384164209,0.3159787071983068,0.799740303457154,-0.9759130571550172,-0.21745312594079902,0.24786408656514794,0.22159601370757853
2.335195379823605,0.9244481609439159,-0.05893931932362638,-0.04843114051815467,0.6171925283480204,-0.14200322264975979,0.008619837052616264,0.4388108528540873,0.20646336654516045,-0.2312799790486797
2.2680356436627798,1.5073405247110725,1.0166554063229667,0.007255128808655309,-1.0384318580293448,-0.31537863579408154,0.48671977117690624,1.031707673105121,0.6026704048054233,0.27104671576873907
-0.6610564177968845,1.1438739376295026,2.121772973889638,4.048249100500716,-1.856100006026551,-1.0884275707669633,1.3446408458258894,3.032472774318002,1.5498040325861306,0.2205789631728851
3.445103637426719,0.607021454308645,0.9097361952883192,-0.9018274829672965,-1.5249312309243463,0.9027300255710018,0.05344123197436179,1.8307820754775626,1.4226146307019572,0.46020930993645365
3.369161749604622,0.846585681595262,0.7602128374909133,-0.5351689840779067,0.8386363365783176,-0.6487648527586706,0.12492627320987149,0.5032838840571674,-0.6030178899067569,0.12426861402892583
2.425601825023949,0.9129756075629949,-0.24646251614984138,0.0721252224727118,0.31095696256960126,-1.4362064971360464,2.794814313504942,1.138188768045227,0.4692266683439279,-0.1695675551738125
1.0814311226840605,3.260641856351454,0.7021551801484747,1.2434840114446388,0.6736571952448307,-1.1737189237197332,2.76037032621798,1.5050403518275473,1.3522733729999614,0.259844810177878
1.285880538491197,0.2536711715749871,1.0005845980705153,0.28010850458364595,-2.265843546458521,0.8565580992284642,-0.29497530429539975,1.6564554891067642,1.1670601520657902,0.41221012182752054
2.9924091453105808,-0.20136910766642763,2.4823427099904856,0.4524973724161563,-0.8104633671353815,-0.0031914868428585016,0.4923256484384042,2.9028614227506835,0.198509276651867,-0.01310649545458564
1.877817962243257,-0.545551829809586,0.15184618383917184,0.06750503807529437,1.2487954005161612,0.13064111432307635,0.5103845384088377,0.7558999231528356,0.3529312026686567,-0.01473987976436938
-0.8499108909984684,-0.4953565155816348,1.5719893945299108,1.5883683228397183,-0.7706151609693072,-0.3220989142484542,-0.05567510419842747,1.9751256196626317,0.2939225073803976,0.3118542596556426
2.6619933002015457,0.040350783548193506,0.566205227583142,-0.5099469990438574,0.11967012973319067,-0.05584427138304566,1.829838855511928,1.9579663343139457,-0.20082950780901487,0.09472143349891501
2.487237176658243,1.565796228418516,0.4193523948051309,-0.8066136488008726,1.7268772253734725,-1.6133358726743756,3.186681143933461,-0.7995293661017754,-0.19156786673673967,0.00194646299861461
-0.7946118212714965,0.7253051835766379,2.065136938147888,3.007320185194809,-1.6800023078875883,-0.3012370983880749,-0.49257962081386064,3.2439726617400186,1.4824357223426876,0.2322804103442922
2.614145796441562,2.93040237815181,-0.13127624687130127,0.9111463894959948,-0.07322740629563523,-2.4599325749048315,2.399387780400624,1.898353786700313,0.8726687924972633,0.16348081110052243
0.5094217429541463,2.4671715945334776,2.1171393820632303,0.3846978054090481,-0.942630181440095,-1.1682908077411098,1.9723943361240375,3.455714880195898,1.1012442093309693,0.6930513887726626
1.7219661058068776,3.98476287578439,2.333756462481783,3.644369066610659,-1.9541072418294503,-1.0201385609715616,2.353216951167835,3.428039267626639,1.4810557552498698,0.3698829717901796
-0.8956281749040944,-2.6522641538454304,-0.09532678778443703,-1.0185248474862678,0.5380787614871504,0.5912645837769941,-0.9336741768128607,-0.739309509003389,0.1976874538696034,0.3438227098767327
0.904602674756557,-0.464680156433778,-0.10382068709479667,-0.39812631704358126,0.09068704914124467,-0.002992011768469447,-0.7886554544430133,-0.09984192694644611,-0.18861827118121038,-0.4660352552871417
1.4920503622335999,-0.9987171735005123,-0.6897690456429297,-2.1211291891468775,0.5599614198601923,0.11869838810341664,0.2178723954665136,-0.3567664411801642,-0.8564670439929357,-0.07421478018767622
2.712442378098036,-0.855773638011212,-1.3127231322362534,-2.763298101949948,1.4829666823987169,-0.27480956491694575,-0.153725163570393,-0.97168031466629,-0.5542313427598895,-0.23499884685683334
2.93839570081103,-0.11864451299840617,-0.9744491806137399,-2.5073813883645286,1.1235933611236089,-1.1379722623570694,2.1640883108430895,-0.6160787275761889,-0.6037421040839077,-0.17420355614638225
1.5495712493860307,0.16239489327877182,0.48310072525235737,-0.4906309111735056,-0.6254245781284529,0.08459050013765594,0.18575351441862642,0.8071295661991096,0.7387758779557818,0.21608526434118266
3.2547083055765826,0.0005331016166350011,1.9870341144284458,0.34724413477781735,-1.7439037024222521,1.0951635398663322,-0.1671437627280974,3.4261627681628912,1.338327418497331,0.021988707147685638
-0.794056478700112,0.5887444478269749,2.192435381008704,2.0881818748709464,-2.5576261902168236,-0.9389737490155077,0.6715675140646253,3.365061339181093,2.0617440373882783,0.33657874456696535
2.0720462557682953,0.2937758161137787,1.0706188965006609,2.1389154729817395,-0.29460138393361013,-0.8448131082409399,0.12160593357414684,2.5816589735447613,-0.17697212489253353,-0.21725279477694615
2.762016524619128,2.697799187061683,0.24290919928039534,1.5452256462818865,0.21547981676916172,-2.666892950774635,3.3717746890417972,0.8704682277021689,0.20200290326897719,-0.17473473081732732
0.14368803257177576,1.9638602132210452,0.4506284493624335,-0.8492575007111787,-0.9136347926390923,-2.1953388965370757,2.3684697996361455,0.9040063993547396,-0.3730756260613533,-0.2531148694931344
0.9396798764107506,0.8642165410533025,0.5440010489287912,0.9101053698024719,-0.5317372707247334,0.1929200920526615,-0.6671461441379423,1.7204926852777884,0.11704494871156824,0.1413438024462706
3.0567706302674305,-0.24651656177868697,0.1863743641026853,-0.5050341516153559,0.9246024952789956,-0.22213700314054205,2.160458561627392,-0.39226259235175653,-0.5662169271412829,0.3810292130159291
0.19782645258184517,1.2391056482127907,1.501667285169971,4.259450009664813,-1.6089021082252193,0.46960015125523796,-0.26635970799213293,2.29419019870023,1.338465176002621,0.3437722462043245
1.9844296074061485,-0.6020677954119377,0.05889258690316475,-2.134496763059584,0.20459862501702342,0.19066693398000426,-0.7218993641310518,1.340545866615106,0.8036022316568686,0.2958522709043015
-0.7788710442692877,1.2910258513288728,-0.2171387511728782,0.8904414269113742,1.2911978362610526,-0.5517114771038685,1.06011747665247,-0.8585805134484359,0.3302251439123694,-0.13016641940211868
2.9231768427625875,1.0759833892231443,0.9725517981371874,0.3736600685330154,-0.6127052225188653,-1.2534890694151335,0.45123773601737804,1.4629528698208407,0.25771069624930454,-0.14540490038315237
1.2440075563580009,3.112539193314786,0.7715165275940096,0.7486160109061,-1.4576617374934195,-1.5773637165283563,2.155480665889525,1.9454800201652471,0.6884176974381682,-0.0018251422756062098
-0.5836918154169701,2.193783871255306,-0.4475600615136705,-0.6032672864279971,1.1220335560663248,-1.2353571785315134,1.1189621849941087,0.7933842420947064,0.4400228630868475,-0.06612937683275394
2.357331149033269,2.050401682023801,0.8364696919328822,2.1814740692922037,-1.7649293742545604,0.34500961421997417,0.35467319941296505,2.0401833118272563,1.0536303402091567,0.06035046667105207
-0.7416981906069118,3.4340947870966407,1.8669477892339408,4.013033906881716,-0.958077200116447,0.6585135668171745,-0.5492322229160345,3.241490212530519,1.4110572452566754,0.4940563670412481
-0.4280990054661422,3.278704270992942,1.6806294426991335,1.3101315029692409,-1.1719863473480967,-0.3607838396038492,0.8703059036222944,2.084631628938589,0.9200348038102603,0.12552042802983485
0.5492419597512674,-0.2975162462641655,0.7971520994075109,1.4271386224143714,-0.1721904890296238,-0.9799855393290784,2.575805835334963,2.481246938643756,1.2543162072218537,0.11360683790814084
2.8245383776087323,-0.5382181915415929,0.009550352739821879,-0.37609403186378154,0.5929758938359916,0.7260663107741802,1.7019251981359593,-0.5037648264179921,-0.16141799968171802,-0.1412460571587358
-0.323110863894982,2.8448122815858423,-0.3691447505718965,-1.0674062463817173,-0.21169128562437123,-3.1260265065623125,2.5980763116420285,-0.9412344855509434,-0.3917268607441353,-0.11303593656562652
-0.909626069809138,2.013665600282244,-0.519929230995214,0.10850328678198129,-0.027519434329234316,-1.792349928133553,2.5804286495624984,0.33227623648493276,-0.25180014806448353,-0.1292055479348684
1.1114280087889337,1.3675585988433514,0.06091203508680001,-0.5792315625437727,-0.027871903640931582,-1.9284097298558565,1.8432082445256457,-0.327294702802959,-0.890380441676259,-0.1382534682615358
2.291202430883964,0.08404621390504163,-0.2431790444230488,0.15510469466289323,0.24484327637044626,-0.02410706513616292,-0.708262656345418,0.5612514054908189,0.6623889659933134,0.2919024829464037
0.4539874857430266,0.27192193957017785,0.9961322307289209,1.7881589391383341,0.42843048446735127,0.3059136817582136,-0.9401523748728451,1.702204953299077,0.539590596080135,0.16729246613081528
1.6102426750842493,2.7084175603835154,1.9415449919353978,1.020635760765093,-1.8417011913597485,-2.2817985429545713,2.9394214041993956,3.385633418464865,1.1693756377051705,0.2641380046123634
1.128637024106514,1.8526687289254382,-0.14729470443206447,-2.1380410635535956,0.41702315014507485,-2.0821359985949814,2.5814837217606668,-0.9046551553798174,-0.8825023084175356,-0.1845592169360551
0.5241922578929428,0.30304320835106724,0.4258320012684363,-0.40848090911755863,-0.485722519775502,-0.06367718221927328,-0.7303980404719416,0.7459763242429032,-0.07055497503261894,0.03463203689760196
2.6012668587204235,-0.642095251599164,0.09107280872676272,-0.7930865504660708,-0.6767054318500341,-1.4742250377252986,1.8638867345203836,-0.1747274111056868,0.15104438091313807,-0.1269488049217167
1.8477540522555111,1.1850422548674209,0.7262415219680853,2.104476530434698,-0.8248897276265921,-1.5552272272630645,3.1894270541912073,2.71750137452843,0.8589132839052319,0.22681106660059594
1.835564809016648,1.44409426273055,0.42198198921436597,1.2996739393684165,-1.8243131494152056,-1.8940843528925426,2.2059050513234326,1.161435193464118,0.232061519744903,-0.07955983724361775
2.285509644116779,1.7061913986594017,-0.17439272967072325,-1.4943886851489303,-0.8553761826954056,-1.9932378727609597,2.717608285502207,-0.5893906595147451,-0.0761982119825955,-0.24598307197221833
-0.25320415579628075,2.3132785199878025,0.9134957033489682,0.33428703076120364,0.41612852924199234,-2.56646922933378,2.5876259073302,1.0766916673573572,0.40548121009371607,0.5146502520214913
3.023363149627695,-0.5350017747633301,0.079823398920705,-0.8305214729817998,0.4651590451139115,-0.6065701667906331,1.533842543925751,0.33647154787157163,-0.030587809329579246,-0.5443324635660591
0.8886830907078322,2.394039479242338,1.3959949705542787,2.024865728204791,-1.4419966434534717,-0.085985552152512,-0.1489620328305814,2.05743608300238,0.27457962624557314,0.09087382671365014
1.2858625322123332,2.5427899035194357,1.4572278821049245,1.2479571588110578,-2.700342991024731,-1.8503309922027695,3.2824909333469012,2.23627147938172,0.9596178798793773,0.43681483401617044
3.2481901414117162,0.4653540352065998,-0.2155263503724629,0.9642340105873588,0.5552802140547367,0.12554711680870925,-0.3123923281900901,1.5072763893562189,-0.07215757825646314,0.006828109639144455
1.637181565859747,0.13023558878930497,0.8083979477247065,1.0981286611170968,-1.267243538692871,-0.5368862334756103,0.703633631790898,2.3993746380712047,0.22265347136219557,0.40374444572301155
0.8559321973133052,1.2643848437936034,0.5128911432951978,1.6550638351251816,-2.3469417765646083,-0.4565303734085869,0.014214205461508422,3.1438164519685055,1.536565845854472,0.20276786015898593
3.0201676169572895,0.09189969282744859,0.7058379627641079,-2.23356658066731,-0.08047484015284033,-0.7557769824596353,0.7154405166296129,1.0039589265386328,1.0574348085874348,0.005833389334039217
-0.7250420013472889,2.800017611895414,2.0439790260532935,3.365655948929456,-0.15135642703443283,-1.794650150277762,1.6544828923904928,2.7450088717585053,1.1405560746563879,0.3130267573609558
1.1284421856676272,2.8435647578192107,0.297319332018966,-1.4598820825631038,0.5627500042205149,-1.3192044321083523,1.7978811450597152,1.101754471935536,-0.08671714439208365,0.005900879366470927
3.084914121574574,-1.9522530763929367,-0.42503847761933744,-0.5246876507443571,-0.13829163671288536,-0.7696687707388261,0.603310548782305,-0.6082126791594514,-0.8049800274165007,-0.2507479836495494
1.7013128399858655,-1.472786562107772,-0.8539921658061332,-1.19243867344113,0.4198524201941942,0.9984607082589654,-0.06017790572090975,-0.9681573922695642,0.19446316971321645,-0.11022046857131819
-0.5200134099612035,-0.07214617154480796,2.2676554487871723,1.9682246946636772,0.2536238492567607,-1.8360401969447042,1.1326219385257912,2.1130712799793034,0.23739719378398044,0.13224081248719227
0.042517639566596044,2.4288148973510957,1.0290388913948276,2.470209623338588,-0.05369745866673952,0.7848179357501125,-0.14633532792433168,1.795933663430469,0.63327234605694,0.28125726617853347
3.122189002611557,-0.15763982403862964,1.0513657834117753,1.762909122950335,-1.9264415560317103,1.430760045038798,-0.7441226813486967,3.27517620323926,1.7172833747215714,0.7560100201896542
0.7506375648710846,0.4769810325540836,-0.6961581757706943,0.7957270970525134,-1.1701873838860475,1.2132536558418716,-0.5409071419817787,-0.4447388242313327,-0.07273421099001107,0.04533294622559626
3.041109467084392,1.0151277830199399,0.7219607274286847,-1.1337344372778475,-1.151530982098219,0.5211809229263966,0.7553856866748714,0.409664797131877,-0.4817191194747251,0.08980312581958863
3.317973500077481,-0.5068009453513974,0.48447403407660494,-0.9809373034998363,0.18163017827663633,-0.497126782802481,-0.11944592994044612,1.3249290208893356,0.844065563840258,0.0488815859945146
0.04802228226766725,0.8902034080370808,1.7041135017781432,2.537514564411593,-2.204238694423263,-0.5229603660114858,1.2826063163052983,3.1581728310428936,1.1551891271858163,0.11865536416594621
0.3332665774293273,2.2460786970470967,0.2936888122864995,2.5530936143156953,-1.2914822671332284,-2.757441369515328,2.2023344169816834,2.10777594176701,1.246389475836855,0.1941943035294783
2.2780540172347683,2.964979415623937,1.369000137712856,-1.4630755478694604,-1.9705794175733988,-1.5766334373994324,1.5392593143988877,1.947093800362389,-0.18486798834826904,0.1266634255169849
1.7277212324258269,2.3834236003759783,-0.4161551605249334,-1.778964926362522,0.24570018928016518,-1.1601925270379068,3.33379506014432,-0.49727238790669015,-0.8133582899419093,0.2124143996134656
2.5725772287448243,3.850416366323304,2.2278711383540597,0.2804971521507369,-1.0372984959613165,-2.6412249220660597,3.245785757073244,2.7810289012177596,0.42298240450450386,0.22683833969281814
2.98212383431575,1.363571657067124,2.09265652651046,0.828922350937793,-1.234934924420483,-1.4846777936388675,3.0226185787847646,3.2307697712912873,1.4163577202323008,0.4763245614866376
1.0282999608004038,-0.23029992401407445,-0.4398506744077359,0.2799898335216602,0.47342639141513126,-0.4518839624228501,0.6213239339294723,0.6343837543937234,0.6186467670465362,0.1805183097697469
-0.31601563260703536,1.0409563064980865,-1.1609222693495644,0.6072851498071917,0.007981317516712452,-1.6250568273327008,3.220584602527042,-0.648754114817234,-0.560826358669645,-0.130444733025952
-0.8715252146918346,-1.3312900105493815,0.20526015128745248,1.2722792888074963,-1.099180440617117,0.21063036297780133,-0.8165007618775713,-0.4902380217840341,-0.12007337892954446,-0.134018457615152
1.5973090924205877,-0.024824113946154913,0.8338915947785057,-1.1041220039129163,0.5477808582669655,-0.04705322642931427,-0.6911487784083765,0.8574792750099853,0.22907362130526102,-0.22351828121713213
3.3745233013872404,3.0832853567466008,-1.0044741212289896,-1.1687112542827345,0.9040936000924592,-0.7651027756730174,3.4617912258146815,0.04201983890895633,0.20878807496331125,-0.1835411065217034
-0.6178252036569634,-1.2303603467942326,0.13075910700077492,-1.7661303914670574,0.337199051381956,-0.8522335483283849,0.47159667012215456,0.10035180514106634,0.5406201773041487,-0.0186555726429497
0.4589648931138086,1.049859772475941,-0.8792084050575925,-1.4154639385381884,-1.4961263323818732,-1.5806088593678562,2.39362641589934,-0.27594598227381484,-0.5564619348276703,-0.15890572094947217
3.4368735138903723,0.612927717441411,0.6570395588545399,-0.5941880799998072,0.9205508231761056,0.6168862197082051,0.9195840450323169,0.5174603954801411,0.6250812148605986,0.3786233078881575
1.5971514661178121,1.1170554791542653,0.35811608385718086,-0.15223799493322399,0.9553001618417127,-1.7682199757640593,2.7365748959446803,2.0631575645714886,0.31327734109842637,-0.04249147656495052
0.2823973319122641,-0.7919096212519011,-0.41523116981019675,-0.8484442670739931,0.14737567986277963,-0.43452344860695785,0.4751260434552642,0.5850053557236434,-0.3018451213768651,-0.24178264865519136
2.2405196523370363,0.577093451352672,0.6931772035303214,1.041044491592256,-0.5657093165264411,-0.7861017161149719,2.984934306984305,0.019880554727530475,0.43034343494976707,0.3060716359266158
1.2615399770969846,1.1727107387726465,0.24745833445838852,-0.3791962018702962,0.938128527858273,-0.9584869923168692,0.6748293834487153,0.5683759351076523,0.2779191657103319,0.0848178287353844
1.0377611236553301,1.1400708632692464,-0.9717211040361529,-0.744723880573142,-0.39739947800292136,-1.6510806610716162,0.029305904096013524,-0.7309549078533049,0.8797824518754869,0.23176082644724588
0.7370093656503511,2.009459603038543,0.00623067253028576,-0.24990253025331843,-0.26420912462342316,-1.6783759852895637,1.5920491739177582,1.2420180947669999,0.5638729518698964,0.34309651521334183
1.8377490282297204,1.3166745145632397,0.6234404831868017,-0.5297323782092479,-0.060632009471286843,-1.4982855274429983,1.6514983917187025,1.3677568212349653,-0.226285964992481,0.014859683265971159
0.44149328169700164,3.288772801376858,1.0691480498540518,-0.010150810782559111,0.34539524368019103,-2.226356848419869,3.2962148974802803,-0.17063210456690758,0.07123475530735529,0.3612817873488847
2.691823307572818,2.4177465357936194,0.5614339750777367,-0.9637376828448638,-1.04740245407485,-1.7384389908455156,3.105030163163259,0.11211710561976096,0.16565894901943073,0.08825656743432453
1.7897829289202116,4.24919570701429,0.6396938073029625,1.526809852182059,-0.1053454720311989,-2.383516958854951,2.152401619174396,1.2920726764753137,0.5003684588798882,-0.2654285833611399
-0.35900145361738134,2.0769776046595414,1.3474315005758162,3.185593100467059,-2.2162163601034073,-1.8619412434519442,3.1828741265550464,2.8519802751982986,0.96221754542808,-0.07089617569206204
1.9927449640098636,2.1113057483213518,0.7027835211023722,1.3238814001239514,-1.713565359033092,0.35321771387140743,-0.9074483214014174,2.6508074026537267,0.9707754610270937,0.19012421609491537
1.5188084833850422,0.5035972749276894,0.48988724112559,2.7446582748157615,-0.5528549370248881,-0.49549776632953296,1.359950634932487,1.3229927227091633,0.5945353042440457,0.40967228797147637
-0.26390386938285326,-0.7045659227205437,1.0886677465066652,1.1583681142986157,-1.7340152917044447,1.3943117028155514,-0.9523469381368029,3.0106294447660753,1.0879790310421602,0.6101937029709078
2.6950332865589886,0.9918020571480469,1.1998606695273442,0.5746974735848839,-0.7047606402344919,-0.6994907253506556,-0.7694865684631138,3.011929522495917,0.5088947129845967,0.1293671075284097
0.4628466494546499,0.8348128100713561,0.20265861216491518,-0.01714417584393102,-0.4573098324855218,-1.0627042345409834,1.3520855260849811,0.5898658265765042,-0.029022860936845564,-0.1315361619937841
1.6073851071700935,1.5290713441232067,0.4221825940321353,-0.3743044009350252,-0.45205978483579673,-1.884083816232685,1.9309457676065471,1.06299726853462,0.6907197456769235,0.18800290689732255
-0.9603233741185234,3.7613682969164923,0.24492951864199156,1.7478814504931186,-0.36659657190505285,-2.4412857967165427,3.2018386673484347,0.4555081753759762,0.42062746792864075,0.17272093650136977
2.189462889478213,2.045921735396986,0.9805419056912098,0.9055478142111835,-1.0741994294028039,-0.7986399482123747,2.1807881337438846,0.8310549070689397,0.5568150908221604,-0.03195006851249989
2.8972356150509366,0.7653413589696643,1.7436283547855347,0.7941722011243937,-1.1100690362601495,-0.718499765617333,2.6337396953429746,2.081027269795277,1.022053317326035,0.06267621088519179
0.9034341098357925,-3.6778719293854385,-0.4322040082888805,-2.3881385197548846,1.2936334066117159,1.2007003415148425,-0.1582586864129435,-0.293540325598442,-0.41926588644373564,-0.30627082065128375
-0.3955853788169993,2.06437964329672,1.41968873345883,0.41498893774331846,-1.235499559878829,-0.8766675460617481,1.4999466472210239,1.97936609931733,0.8289272427225374,0.07826585524680812
2.4467857436551324,-1.9509223951909616,0.05473488409309015,-0.9706597835587806,-1.4134578444873391,-1.628016576381778,3.2677098546175607,0.289216663916255,-0.14615926439182364,-0.16561059449831983
1.2918384595952026,1.5201398111255275,1.5584698489891333,2.2119334002068056,-2.3799566658578324,0.10545209898201438,0.9393924764964168,3.094507755529353,0.3704087051437629,0.21347210285807794
1.6605888088386487,3.2782018920121403,1.3057576611992994,-2.056435645823031,-1.7218417641479344,-2.8377952616612254,3.4211923863192446,2.5948899882983785,0.691485171040634,0.24315792733122474
0.5823564442138631,3.0728845428460474,0.489808020255788,3.514585733548945,-1.8304249732193336,-1.4260220343984586,1.3393375549413489,0.8271628917354523,1.2559059928850487,0.23537843456852972
2.3669288376001516,2.3222917916483725,1.1547829417269784,-1.8255099801486123,-1.1229136477947732,-1.902665414571543,3.3371555317380235,1.9236056234979064,0.597692267310298,0.027923827398734814
2.5580935173906125,-0.08024566459113486,0.9354279762129807,0.05615082694817164,-0.7605368046113478,0.2881983323113871,-0.9849062063186427,0.6645156263888978,0.6975432517142902,-0.16960480027402966
1.8216157254368608,2.5831045545251805,0.5844138290285428,0.7193367625294356,-0.8325547824202321,-2.3223702652582427,2.519148054310334,1.296870275332032,-0.3757357785243707,0.009329859624873295
-0.05555044178008384,3.4857190412933345,0.45854893406844516,0.04113270087175053,-0.43219469944975925,-2.6912018346885156,3.3854063337193,1.8891994272169956,-0.23750482611302373,-0.04185492544199752
1.6945841639759989,3.6171327226186576,-1.3510443228811988,-1.403223019079614,-0.006202534839259583,-3.0306276975000532,3.1251624747450037,-0.610551734724369,0.1024175256910339,0.1662480737184245
0.5098946372084934,-0.40387449884000015,1.9376022696561437,2.7266778678308197,-1.1941001147165362,0.855590264006348,-0.8243165441302183,2.4874604976145998,0.6179615380979991,0.19885430021373324
1.081512439063257,1.4084795796159757,2.0933316593231384,2.6255430698225433,-1.6113391651121305,-1.4528119895686153,2.063670550206837,2.727533777750666,1.587761131291872,0.5463306929239117
2.082760786291073,3.3262936524009517,1.243952340465394,2.3627517671011393,-1.5178009748535852,-1.1787667449398815,2.0403511792488183,2.270976742939687,0.8859624710038465,0.25337654012036853
-0.8453284279441812,1.313703107440526,1.895104088620105,0.5687873614718749,-1.801357563054243,-0.693635163912942,0.014721352172176072,3.2076686434754924,-0.14090137059990224,0.005320353844660912
1.6045648333013895,2.19303726013098,2.0058889709155636,1.5695524330362667,-1.2924545621356227,-0.7608054861984116,0.6513436537906074,2.8888357057797855,1.4938783524859123,0.11882354073260498
1.1531410958711215,2.047173129058856,-0.10711679710131572,0.546383716769589,0.46550621104589746,-1.2124025112349854,0.31373969519659095,1.0933108100821443,-0.59963185070189,0.03220887013114414
2.804119627307793,2.0323345799356254,1.5028427933894002,0.8216835877296911,-1.6025236590971699,-1.9324516444994027,2.6319024347555735,2.3309132898802924,2.347166889696823,0.5282350585358886
2.8862679587321947,2.9765356298362846,1.1945397290577435,1.239301284780351,-0.9151029014915768,-1.9273778796987302,1.2352945420765762,2.506747519418119,0.5563053417132321,0.21816549734596247
0.6156022086290509,1.6051742378261844,0.6062314441261794,1.246337884052553,-0.474665850954111,-0.06293035487013622,-0.20944471463829217,2.0984932354760866,-0.29610325509284663,-0.1184844169057536
1.9972804663330832,-0.6149497160376237,0.38611128948669055,-0.9504067920572545,0.23949527582035426,0.5851219821472351,0.16979557241340815,1.3762983045888477,0.6658573231586873,-0.1872244878247083
3.259132976508128,3.1489705125620855,1.6903845550691179,1.0162972502935612,-1.225398364643397,-0.7692488383785365,1.1093455025383299,3.2050256888867965,0.45758523226133624,-0.13465459771499522
2.0496779421271243,1.61401788136962,-0.11996267514210271,-1.6199372579632922,0.084781621183601,-0.5783606609139081,0.38748699226905026,-0.3026884633391739,-0.29478258508589356,0.019394419539159647
1.5946169302809965,-0.17715747683446914,0.217013755681927,-0.3575104961759731,-0.17880491027233006,0.4994466103162693,-0.15356181982041417,1.0671269273074917,-0.04781677135356989,-0.09093514302773473
-0.725469886959826,-1.516973929193553,0.06489142870942441,-1.0195428196332055,0.6207917405387884,-0.08594474153761257,-0.37184305271613627,0.10268123187832057,-0.38251364174543234,0.07405657257755047
2.213110643089454,1.214651131725915,0.6442768526203214,0.11378245684626098,-0.186094957987438,-2.7301316686719934,3.1326900449201878,2.2186161095149313,1.4676228491550725,0.1055024573335201
-0.9316245227394118,0.24156183906534134,0.4879931284160843,-0.9166627606484279,0.6995620737903527,-1.6877671187047403,3.452767298495659,0.6272536224729865,-0.5111577001870957,0.32320886452272274
1.9330452074081381,1.9256190764819205,0.098157937607109,-1.9467904286300528,-0.13182177644406523,-1.8552345230209577,2.4870458124759467,-0.3478871080453724,0.20017521333082647,-0.2649686498739406
-0.5948724394706436,3.8359310116190564,0.24643326777866703,2.9323248164070237,-1.7017225838814138,-1.6045268739735856,2.768887726857245,2.826120936933699,1.3955927603773284,0.0620658851912793
1.4096233292552536,-0.09040908127649305,1.611800323515058,3.6928483096659668,-0.055262990289866885,0.3461500926497273,1.3966858878429385,3.2996691942537684,1.1967403861794177,0.405227275368241
1.8021334935617306,3.216734998825318,1.095407491024385,-0.9914063134390816,-0.46561474177433143,-1.2502263625654444,1.0280079384762688,1.269975149490148,0.08563816726439367,-0.4113189025169768
3.1677971415035957,2.8570088070328827,0.10217365030813771,0.051742583628156646,0.25513286302467125,-1.971812157218096,3.0985798897086374,-0.6914422229794812,0.7925388192319701,0.17867823599681437
-0.5500126602322299,0.217036553770677,0.0208996546189444,1.3791737647979692,-1.038718197231313,-1.7573916694306777,3.291844807879932,0.945226921447726,-0.026554356326637146,0.20627836506174724
0.3309879912059306,2.186766883273272,-0.6058754834237123,-0.7565622337918794,0.00323134565726005,-1.9764718293932202,3.2180288597751563,-0.9123742926924665,-0.12836435349523756,0.33398802583420295
2.8179755292185593,4.024317041999873,0.9919931306280717,1.2642036432215065,-1.7227975460311176,-2.1530732401567128,3.0789742366391994,2.7112190140804544,0.38767321884019423,0.2882878383876565
1.5885044307636536,2.7386537175094054,0.8355465084549624,1.9793979434867062,-1.4128049253949961,-2.421297802918568,3.371380485979861,2.456300064877967,0.3133586540896599,0.18235994430112212
0.1113082983866831,0.08777142847418518,0.8382984127760507,1.9569446724843187,-0.5357077912581716,0.38320103653859183,0.4420065251068577,1.3431053305327758,0.7719789591126006,0.355053593256792
3.1180276686082307,0.1601711317884147,1.0769895516415586,2.5773723093813508,-1.2659413962165633,-0.9542196720034827,0.37150562242037943,1.5037288490849847,1.6804736771547086,0.6295975643695021
-0.30215715459221193,0.873682006314186,0.14098218060297754,-0.6352222380247605,-0.6503916570989473,-0.7964571455441062,1.2839800383776905,-0.5487281026601505,0.16297902317241747,0.16438974702915757
0.9312411669713319,-1.6485645427734366,0.8056859226860813,1.5785201146405574,-0.10358686283737267,0.8006376201070876,-0.6023130287944225,0.4105841217238131,0.7503435858926867,0.22423022533758313
0.6856822174201063,-0.4326220200440944,0.3860644843474468,-0.9925424349294707,0.19714295526357425,0.7729191482404735,-0.42859029027254536,1.1054604771754781,-0.22724005232505096,-0.10639538585800937
-0.03944187594652171,2.95062666231103,1.6027237191860442,2.1994068427574183,-1.370322321056575,-2.562142212892354,2.8058899004462754,3.1867223014373662,0.8274383285285104,0.49175348975195043
0.050369128335418845,2.689651662765855,0.2720443040221155,1.084500327834652,0.06531912465210464,-1.3369652648706434,2.439011960509524,0.43615284823832323,0.05197426517704019,-0.1432195106046253
2.3959387675081327,1.4402016804261184,1.4194561427415062,2.0390781396096154,-1.0134645968162115,-0.538179002655268,-0.5080776430798459,2.4708130803371082,1.0230926430773948,0.1692970521001526
2.711493323718956,0.38791639986885673,-0.7385797848430805,-0.6612799856068736,-0.8762839927136284,0.03988004802287126,0.7927878322085367,-0.5610214305920169,-0.2812215492880347,-0.3285235874924939
0.910649872389331,3.6324395444123394,-0.05885025902839665,-0.35669482004179076,-0.5117154108941584,-2.2433576996235414,1.88504381876588,0.837760055498487,0.6304819471348452,0.007524725693742798
0.5449932595694285,-0.6209524704822378,-0.023079516681020325,-2.244254437021523,2.0016062378823194,-2.6868577564145335,2.623538801068989,-0.6552702489669828,-1.451488564704762,-0.1117600705980797
-0.14288647122433362,0.9977663865253584,-0.35452227548194426,-0.38490837156671065,-0.08394171904468113,-0.08782758338954723,0.43312952321603215,1.6759793161368095,0.7878911525638147,0.11839093726340404
1.6526696498973816,-0.48415723592798987,1.0939333869310575,1.1046293992707983,0.21416992144852112,0.7603429104845448,-0.3676157024719393,2.378595601439476,0.2205136948247856,-0.08964661452830115
0.5487099529038881,-1.7592447888811968,-0.002100970060100584,0.32835935558565454,0.39619356874524303,-0.6114525350344107,3.355358707654485,0.039307749451675145,0.49326218174782344,-0.2061603146680957
1.1692861377662247,1.925109086213919,-0.31495009468302115,-0.5631676185925595,1.2605149313308097,-2.340811767010616,2.8475371692337474,-0.8822002526761035,0.983778537284992,0.4490733424852308
0.7973688937985357,2.7752901434557744,0.7344862381440761,1.8230610639497775,-1.1542424993587694,-1.6648925467734783,2.1707057819714146,0.4877310851584704,0.21460714029074063,0.07521774793969244
-0.49396876942251533,2.4790942666410634,-0.22548096354610872,1.5545350457161187,0.05669447115133032,-1.5943857541124535,2.0386119839907386,-0.22485092983994814,-0.314340494105646,-0.3452402599647651
0.9373360449169843,-0.6562073287600314,-0.5467050209258361,0.4221314390196548,-0.6409586307421979,-0.8088931901287922,0.29233273426370454,-0.1847672313019707,0.2549243897823766,-0.16380510934923573
-0.42684402766131124,1.3685819866695133,-0.13549158249384277,0.0342716406621173,-1.4343893744579106,-1.804965332050532,2.269051748440817,0.6521562840586568,0.4842265202702879,-0.520760883795213
2.1905110475246286,2.2066850085465637,-0.08494150498034635,1.9860161230903501,-0.8032727378051551,-0.8349546998439834,1.7267995001816154,1.3281047993890502,0.9971167485515856,-0.13912015414648807
-0.018127961719375918,-0.49664586601505334,0.16792231797950866,-0.7369776930429355,1.6297998082195113,-0.7577456923135899,0.889798140921964,-0.3626063769586315,0.04544520490775727,-0.31260155053390176
2.334072277304717,-0.8901775185937723,0.36402146362583493,0.41259547706367894,-1.1294584191027135,-0.7166904366756426,-0.120468218618078,1.4738604652698202,0.44893367943723156,0.26321714537564156
3.171088562986953,3.425480498938501,0.07431802014604946,-4.091679734748825,-0.8136608251216547,-1.870002538886941,3.2257436968175695,0.15744869659540517,-0.4554080226032198,0.04689325151020104
0.857310682833123,3.351578653754304,1.1933731472461195,2.238232532178284,-1.766787186929503,-1.7384037413929923,1.7792071048880662,2.769901253069849,0.9969348542513068,-0.058342139060666265
0.5080644294525951,1.0783406570690612,-0.46014324361355674,-3.21710226958081,0.7202747902105406,-2.100659065129619,3.1635883745515416,0.4807499677506937,-0.8931609496109111,-0.09830969405580317
-0.02480534486831032,2.766558616868122,0.7388461410119199,1.0201371027106085,-0.14218778461002507,-2.2208995679289147,2.887418111624372,1.3910399372581894,0.17770743095933364,-0.02291437526099114
2.4538385095299153,0.42851100657679786,0.7907411170477229,-0.7085847332582443,-0.9780555226181491,0.3663977394826336,-0.15451189339426175,0.7433167634300908,0.2877895487418371,-0.03697722190414013
2.4777120002957607,2.0319526080980874,1.57220767501045,2.237737343379168,-2.276773248790086,0.15504673685473797,-0.2402347437479041,2.9196091642809443,0.6679009098496921,-0.018494630134232005
-0.14181806853284873,-1.7129471900282254,-0.7097178019793152,0.13970426784236534,0.28733070257503884,0.6973284925166433,-0.7665714664938134,-0.2114474654789702,-0.1882675607610985,0.15091852583549636
1.0236363449186738,1.4199036959990985,-0.7922866493346277,-1.2802364890742894,0.8436337284158533,-1.9077220656178273,2.990957040030159,-0.720051066076951,-0.6850180765682589,-0.2632004188908725
0.9171179645623913,0.5403328645052763,0.6619013614782137,2.345014737709953,-1.413421150909526,0.7362782589747651,0.9022388697733859,1.1457838240063993,0.6593467803194806,-0.1528930236294712
2.0898190433627613,2.168663562484166,1.0042697732146268,-0.5919927900528269,-0.18656860470371306,-2.710951222439665,3.1624321714102166,2.614907021581499,0.38682075172353686,-0.12403031069426552
-0.09207711774032656,-0.2741880099462418,-1.1294946611941046,-0.8239911567118077,-0.06677094449250494,0.27769633937756427,-0.675120926441346,0.17090816130173558,-0.03436497973907834,-0.21910654026671977
1.252745739997985,0.5462025320228991,0.7015852675741053,-0.24058644123875783,-0.31774229882264654,-1.515086056317684,2.4783939904344314,1.216672235305611,0.6897038049833266,0.030134737009939353
0.9976465066940747,-0.17326001871292662,-0.13088517687411835,-2.5963278395482954,0.4282427913792895,-1.7115499112489894,2.3453532820899463,0.16204304611402387,0.25414018846008,-0.1870548173695596
3.020655222730994,1.1743259921117712,1.4521410838350666,3.1760321657033055,-2.385385227523362,0.970913786012504,-0.3908207577844103,3.3148337029457444,1.7487612285424763,0.1171970193845811
0.6567440533621052,1.6619098167873543,1.3015056720911293,1.5015483690855524,-0.9339017658155624,-1.0092097974202017,-0.0031512544985982105,2.600568316357171,1.1420185336440838,0.45363774563166054
-0.4083930461031048,4.956177515767537,1.6817202124535424,4.0561736412543326,-1.9442145181531638,-2.4405620303335733,2.4490498345086,3.034310531232208,1.1338698612277036,0.28191900506316026
1.380866860954065,4.296320437014755,1.161321743398877,1.7470937226102408,-2.1383917157248473,-1.9481052677014572,2.321544653959512,1.7693073252167375,-0.3041287700078305,0.07976870314969349
-0.9136661757031612,1.6008197457081115,1.5694248076110953,2.2013469756511386,0.047841898872419165,-1.7897725120982795,2.218193461757982,1.100427591349415,1.311142527739379,0.176723570482824
-0.03830407500984001,2.015975240509951,2.0706304152501342,1.2050372679879449,-1.0141167915655205,-1.7170415074950303,1.6819417481407335,2.8885483690502753,-0.1453222511682099,0.05048007436843613
2.786460838358396,1.3575923423071323,1.4096373446073163,1.6431599896187745,-0.7171270649016338,0.8508111797656775,0.6067036500049949,1.7618781632051692,0.6771204203340533,0.08251001142771927
2.7967697571420818,1.3527471340568735,0.38511102929235186,-0.868611680674948,-0.3855300268387877,-1.2415271568766135,0.6972620568248613,2.9604348237858304,1.014318204689158,0.235220700168896
2.5892886813902165,1.1245619396158282,1.5677242316507052,3.5892871810160965,-0.8478910252162232,-0.050785555862546905,0.5314935544344805,2.069297455026336,1.1366734463277164,0.2807889981522142
0.283829412501704,-0.09480533831227464,0.34523216567850046,-1.8136609489268964,-0.13950824516236268,-0.479096215455829,0.5801688887350305,-0.009716174514537101,0.45062145410779414,0.0963249764412381
0.43317177296910137,2.016730980539416,-0.6755826501281627,-3.5018325482765427,0.7674885421783504,-2.0433627347605285,2.2719499311924807,-0.9392895892783449,-1.4781152395881727,-0.5659158309454264
-0.49931561175196304,2.10884986263288,0.8913250499310651,-1.275843309712604,-0.3937561298412731,-0.8764152316232829,1.4569944500879375,1.7637648203503051,0.5090346560774588,-0.06581075054354986
1.0841349737095478,1.3622386544878915,0.28155050810207977,-0.0745909099083944,0.6988605015998046,-1.1439670384606144,0.26495193029581876,0.06174216476129657,-0.04347867214871349,0.020845100298373446
0.46883826564679865,-1.151127589188072,0.8483551746257211,2.265005457484885,0.789432127121681,0.44150487522127263,-0.4385756593557065,0.6640775106495771,0.5649671256351889,0.12078681023805383
2.708768642347896,2.244806202033248,-0.18496710954467221,-3.0069399802114516,1.1134385573766374,-1.2095160964297893,1.9499174725557475,-0.47120670205171833,-0.4193976281491351,-0.2749434977609285
1.3155269908188392,0.8951503598658965,0.5059885282112979,0.287807125584708,0.7695151444880737,-1.0122317869745718,1.7728567097616992,1.1943746935090207,-0.5386936386544514,0.17606457638698159
1.0068577148631546,1.0114315711768431,2.4326513691659963,1.4788341266727083,-0.3651970353665596,-0.2421528539506803,1.455131275219438,2.7421564702875667,1.3785331422100475,0.3638245171218526
1.721490403392088,1.5292894834071131,1.9391565720485555,1.7062839312736533,-0.7119585972523405,-1.8795988568660804,2.76314658290405,2.945547583509295,0.8399688322986203,-0.031922853890397736
-0.2213858312857815,1.4560453113887533,-0.3057902328261175,1.4361484751164681,-0.6450147160844274,-1.3251108673148602,2.6932485934207677,0.033010885659696676,0.01072548869552024,0.12005962577365846
2.897632053163697,0.058051192964691856,-0.11430359007117294,-0.10548622611050074,-1.1984300279710576,-1.893718392449224,2.4757469613558616,0.56213330333688,0.334036051603523,0.0597887988063225
2.061118976732634,1.2170019580923594,2.1245198844561837,0.35818004175810614,-0.8295680035939718,0.16439511135467738,-0.5384687733477482,3.0911184076482003,1.60310421298785,0.1693253026308786
0.7678849031228152,2.6002252657214737,0.6939935223073147,2.627661659759141,-0.90571827659342,-0.5175386523105748,2.2508865481001665,1.343293798617883,0.7662168998443394,0.3702379798749596
2.011971842039662,0.23363889498938728,0.8499469899944984,0.1477534045995461,-0.0826443705341824,-1.3088648150323077,1.3823272087906555,1.008186493456955,-0.38152350797946977,0.20109025485603582
0.8479840641443077,3.122494344604204,2.6632074263537184,2.56921867156865,-1.2099973599616656,-1.690923294229724,2.0861823608199495,2.9286013482830437,1.3710129262779374,0.2810790769487055
0.2055899297724748,-0.5105952001530802,0.6913150270261053,-1.8865442318669694,1.640376323800161,-1.107978963400027,1.486467180388896,-0.6373020107951128,0.02143534601048815,-0.048944768185521674
0.1794812278960105,0.8865585084806482,-0.6741487153989643,0.1648875469364319,0.7996197810826194,0.03695943614651887,-0.8123020258884903,-0.46186000324750454,-0.5180954340291658,0.03709373134956497
-0.0005124689600157772,0.07877087282446665,1.2250432931067587,0.018712766121472046,-0.9498797498148218,-0.8993550065949989,-0.35377946580832853,2.729978572356683,0.42466177607652417,0.03423550859940249
-0.029608932024487222,2.655893543542916,1.923981075552706,1.4844587106693208,-1.509113442835496,-0.7401422569866506,1.1789792661789709,3.424556519265611,1.3554210008486016,0.298776731012864
-0.6476534644654095,1.4908839078899172,0.02072910456841028,0.833095318983977,-0.4849290159255991,-2.062608578553745,3.4593836369419364,0.6951773563245385,-0.3967274950142421,-0.09632288589497698
-0.8709012536513098,4.068301548754946,1.0720384986041782,0.8496739944632887,-0.9994695201585757,-1.4069580605725065,1.5089153446646146,1.4095509216958413,0.2549699038875404,-0.03533691797602147
0.044665598670735385,1.5576699125422808,1.1078979258385864,-1.517441028097799,-0.14515867076344185,-0.22283140307014537,-0.3125071457427909,1.9647117522273474,0.47785561897621404,0.12133102233821008
-0.061135886226132086,1.7210332525954444,1.4125420745930688,0.05558389352844976,-0.721365813124903,-1.3504691600635876,2.7100836414405447,2.5462560205932268,0.5680172646797333,0.17309975714426512
1.3275809001144552,1.3905156464954338,0.11347203930392187,0.1975385022102183,-0.5425245731437728,-0.19240492914473414,1.2323102952928409,-0.0005383376587074773,0.9466771315892168,0.16639876303260462
1.1587062149157834,1.3209856617520297,0.2048766628678278,-3.0703597318079767,1.967458963162843,-1.2468625607112254,1.412914376903851,1.0389130029148537,-0.6140153912469049,0.030982081406467177
-0.6455435104869236,2.0966218988401644,1.3891330446172896,2.130386299449136,-0.8976210941166792,-0.4079592789290255,0.005891657691204033,3.387073737780357,1.3185683454404615,0.4359166569693405
2.585246537813221,0.6630504979561737,1.033973145425577,-0.36321695362695416,-1.8004593821249466,-0.5218866541382233,0.2747973319674648,3.3517054678133205,-0.5331534103060923,-0.3928965572146061
-0.22498556728250396,0.010808474403328772,0.8750056045889465,0.9681947516611399,-0.7357482403778247,-1.3309520048133237,3.3353551794636696,1.0779264106729083,1.3124336556585197,0.23328368901728974
0.026988514281905962,4.320383899767157,1.018748297716524,2.0514921623394753,-0.6870807426857167,-2.7748248777833826,2.528751656130272,2.84733621777153,1.0484614451221435,0.5221160968757068
3.0257624451094474,3.6892537884623824,0.5007116551911837,-0.055449151861565515,1.01464415137181,-1.157325946375273,2.034822530287915,1.83315387050864,0.7083910414593249,0.2787742668116111
2.288489579241566,3.133002819474275,1.2694227405038059,1.5435508323547449,-1.108944379350402,-1.848083371125337,3.0518328400536463,1.6320024170879837,0.49427018159102204,0.1877172915443231
1.3627393033860358,2.611496590894167,1.862090138409899,-0.6844574105079803,-1.4058720859441367,0.4125712448563322,-0.15732432202930446,2.6117636481661455,0.2976228547009958,0.03871134738238475
-0.5906539552623287,1.5776198007150635,1.7587500353825003,2.6909753698083634,-0.2629414872851998,-0.5282148604713763,-0.7204009684581476,1.2648579181778827,1.3038582565717887,0.20894052289882198
-0.8956791710695019,0.8162438579371223,0.04615210859843595,1.4092427325391408,-1.2585347598197207,-0.49508946185762903,0.519208484818416,0.9180901937702932,0.1807104322965252,-0.11787055633932776
1.5759096318114065,2.597968197655362,1.0548277951078213,-0.8137234118270076,-1.7907212404174766,-0.707697409904186,3.172627926518248,2.9775813069078443,0.6490175241091547,-0.029438135998801258
2.7376157980774125,3.1466670677491293,-0.45030366925538784,-0.35377279312330223,-0.27005608282119276,-1.8832670446542674,2.134403545038955,-0.6771985732710493,-0.2031539184603528,-0.021350814432855775
2.087755399936208,-0.579443171455593,0.9698962151293461,-0.06120832306776436,-0.4203224412324357,-1.4501835970976258,3.4174261389099136,1.4286832434227925,-0.5480877858874783,-0.22815049441929258
1.8846260370116945,4.329650671820176,-0.1057317425322542,-0.6625230607597078,-0.6017171941831545,-2.0178918848558767,2.282409246849574,0.6340461723804438,0.5412673974473675,-0.2451292396196329
-0.7184601933177307,3.126906028667398,1.199147467792157,2.9309247934144746,-1.6560274824728896,-1.9194383501082253,2.7697553919013216,2.881171007691081,1.6010449837681968,0.44928820010074183
0.3474505552472136,2.5890105999261706,0.7996188051520677,1.1606108973305804,-0.8772680432653183,-1.9200797481479532,2.6173298913305683,1.7497054085686292,0.17455876715124818,-0.2789399235717737
0.017235765443590623,-0.518824616420226,1.6279717975446006,1.6715330762481406,-0.6481219789471423,-0.7454347865860425,-0.1408136410737446,3.4132594618861143,0.9803196296118671,-0.029566767956317994
0.539816906237014,0.20270213297567785,-0.8510833887617862,-0.6924192523775243,1.6408352587988255,0.2673026509266981,-0.7228244682389335,-0.17727459443234717,-0.015957195814910178,-0.19839738273853041
3.0139396640800618,1.5068398336593345,0.279990133510527,-3.1421061144062756,-0.5359107735416764,-0.9229129780451752,2.301724860920448,0.4041502917059574,0.5328667115816489,-0.12904911378541303
0.1772995965294697,0.7509084125090577,0.9752954393811122,1.8185151568637332,-0.9980844728696358,-0.5183206163248965,2.036662674585661,0.46024775403988927,1.3007243305852638,0.19781267399352156
-0.3136080846557586,1.523287040696023,0.37781766251541554,0.0054029306054705906,-0.40248345971750726,-0.26469780985936625,0.5908039143102826,0.21532791470499224,0.5959660074748386,0.15105698642373797
2.8060502131255443,2.597900849635521,-0.10000703831314162,0.6245924786659485,-0.8087603798289511,-0.8516362821257033,1.4287282708161064,1.4644503848940893,0.5265411241611664,0.23931026061417984
2.4685997166213207,3.7484852986781725,2.370177079351431,1.1721333859974736,-1.1405112871520413,-1.7728245923139812,2.6225851909294793,3.0743291054409045,-0.04577654477368682,0.17846821348816508
3.4540969120654728,0.338003188223135,-0.8136194109764687,1.3781720235172488,-0.8745241413054049,-1.7204109149755393,3.396424532427883,0.09973264849771235,0.31580354142600203,0.3273300318487379
0.5494331557174545,2.492238930308994,1.6364006845111103,3.494308814191434,-1.409003003416181,-0.3732836127830737,2.0464276827315624,2.825644727860729,0.4823192162335808,0.21371269859207367
-0.34147661507566995,2.328193780624778,1.9022658910018575,-1.2559374553948377,-1.311271118775371,-1.6289218640828274,3.3596232742068697,1.016431144746352,0.24625142061409286,0.15528534555403703
-0.3660562705275576,1.399771497857887,0.6640017764716596,2.9444343223876883,-0.5825127980701933,-0.8193384906663875,0.6972833712139761,3.332883683717326,-0.07004922243542086,0.013910964256154098
-0.5082477438105764,-1.000368917533045,-0.14479202513210052,-0.17390500882221546,0.5689826795717309,-0.09106654379202547,0.2916100098930594,-0.5164678830308687,-0.2572179451400597,-0.09285017648329244
-0.38349960444981623,-0.09208880739216956,1.2738435151434153,2.867091571555491,-1.0472513958624223,-0.43566657798478575,0.6261036604177328,2.905036436227928,1.638452118829837,0.5457554608465343
2.057730924147699,3.2172210112644635,1.5544026574809915,0.2950910711515097,-1.945638405117659,-1.6018884839790366,2.3858035115877145,2.7035855552395027,0.2242443994591489,-0.028413766618920335
1.9341615096260885,-0.07608157858735409,0.48303850602697684,3.8528825576534618,-1.2284909800523833,-0.6404297932051058,2.1796612414534793,2.3852509108220614,0.5955133760326371,0.19883326361501544
0.20934540156903703,-2.1965502172610893,-1.9067205203644555,-1.5108352480989702,0.22996816694619537,0.5285213275734526,0.39334921595580696,-0.8295370807263713,-1.493516889269871,-0.18328358985787188
1.0450951476638393,1.5966100437548674,0.5782767378261279,1.575493941777883,0.13523439064829731,-1.3282381687828932,2.4936947402656955,2.4146010951176975,0.1778231038168434,0.0905701853490723
2.7801863940834948,2.8827953412165073,1.041644487364619,-1.2036576541998683,-1.0803457431117678,-2.6709494310439847,3.1625566676573023,0.2855100258117933,-0.577334382654777,-0.06357059807400178
1.9637387767279972,0.5662534673871801,2.241087452111548,1.3238733115943877,-1.6908839431863478,-0.5859147837319792,-0.5008411761853206,2.649370432476422,0.1596505115339407,0.07867382854372516
0.31373353604645837,0.46692786640572803,-1.2325181818823003,-0.07214115792752451,-0.6821760266564366,-1.9883844489905085,2.6055050647696243,-0.47540899195325836,-0.23115177525968886,-0.29574189985882054
2.8673421237234007,2.4073460808204885,1.4561798924039364,-0.529746139320113,-1.2823614306711457,-0.9538165959090161,2.917007050378671,1.2802074000564168,0.8829166976064495,0.48348624568137516
3.175043891797068,0.40641165482614183,0.2575966061927478,1.1170799960947115,-0.07522467597294966,0.07447072629669559,0.6617720260896818,1.417213779327986,0.33117159650149147,-0.02408675640744908
0.9812736633661334,1.8947179708686448,-0.13619765081451318,-1.5787907244649773,0.0665364076737787,-1.218219175755376,2.016541808829275,-0.36517180141693917,-0.08769591139657183,-0.08586390534903812
-0.8614470643515113,2.211613399882889,0.17855101470301582,0.15884223770952138,0.19298122226299455,-1.271787747903829,1.2266554057975978,0.0853873929850919,-0.43886100942455364,-0.3243043569870169
1.607600033658957,-1.0939009933257962,0.9173172010999782,2.5512152622390376,-1.3187353248583553,0.6566558366291187,-0.5556852904991513,0.3221509417139514,0.05950541495243819,0.28905250506506175
1.0303582491417624,1.6402276584757907,1.4492910644788195,1.4933579837483602,-0.9178011536921994,-1.5240701786335107,1.8061788116853466,2.475318026459049,2.0776680301463957,0.46542126977451603
0.10717828424620168,-0.0260857166555305,1.3438449922444222,0.5076072414783432,-2.1697718377807402,0.6787399989365938,-0.9643545530679913,2.708721231468253,0.4520162496207661,0.2349713664356951
-0.2754875131436112,1.7914726679240758,-0.9477426352115724,1.8100429997924619,-0.9491962139251994,-0.193773945967469,-0.23437120484521734,1.20547035355374,0.27569227611736463,0.020856370349529682
-0.8927456198054188,-0.3077625311449097,0.8840662612665605,2.2593916666588902,-1.56615849523182,1.3845849800101169,-0.8081611652382072,1.510232462306751,1.3301766792134904,0.2675495754238486
3.067829635750158,3.186566264138879,0.5702531601396714,0.9214073294768907,-1.8264720149194165,-1.4665851061059738,2.836099959777225,2.8579737747682032,0.669904098316242,0.3003873959561339
1.4990448826090086,-0.08988792090570641,-0.3599065077879644,-2.439731851051218,1.7837306258266423,-1.1211085205908289,2.167458682322206,-0.5071013998564902,-0.7711274786259151,-0.04513062340093139
-0.2668001739364162,3.0115737691506075,0.09667627504740763,1.0120968401488373,0.10436377276704956,-3.2326095060122433,3.427203074200852,0.47540650535413564,-0.596913805092712,0.03719747719372237
1.1157704880697321,1.797928307773728,-0.2409592637235461,-0.8225035708117576,-0.46378052035097933,-2.103997320960641,2.901425585705026,1.1457902522203383,0.2739002127553671,0.023617892458846265
1.5623156728769771,-1.9223042846338498,-0.3600501713617663,-0.9335099584799651,0.7593536299632522,-0.4874301892782408,1.0872083788038411,0.05563026495711165,0.15650164903794053,-0.06422367536909798
2.5227134388209445,0.9292736992488992,1.3609996728333624,0.5752450103821835,0.6614149313963741,-1.2711921016840149,1.1233791905406543,0.9400185879575258,-0.8987935078381069,-0.10914611645634538
1.4557899032123265,-1.432751758156426,-0.16024494046733193,1.3851005059900952,-1.3628129541108505,1.1254388289859067,-0.5867873594966797,0.10045295164914259,0.740030400943061,0.08185928701937852
-0.2812677663780865,0.3518285538622231,0.12227998417182336,1.5385092987264501,-1.1904075179869298,-0.8197242899384853,2.771964127922191,0.3648966235965698,0.019931425600889598,-0.40102576305581306
3.4607865308305863,-2.3428440003995616,0.24308741043236495,-2.9371032498017886,-0.03992291063081386,-0.25992289104823274,-0.08687263160574277,0.1493035648822767,-0.09269543965451015,-0.15741234476482333
-0.1895141632536056,1.2827957751194239,1.0176177261150805,1.127151199701401,-0.39679793023945975,-0.3803477557472399,1.1383723959203018,1.1109397770707758,1.08043635992366,0.13178691014418054
1.7944554400236163,1.2285669348189034,0.697142403409411,-0.4694483598055917,0.031189803947697325,-0.5342878991557375,1.2990621402911593,0.6354917090393968,0.6393546785901326,0.2656150445002584
3.2572637212117304,2.1858153287588924,2.140413099483863,0.35994969430060353,-0.7636894705195901,-0.3084046934293138,-0.8588047813195779,2.50566998698777,0.7715216155182556,0.055508842829064826
2.6271755666435492,-1.4017817225900344,-0.0464369382862951,-0.20510072666970314,1.8027913059829939,0.6624996090963635,-0.8220460271845333,-0.054168777261785594,0.08487503520545808,0.4890383812854219
-0.7914986264470396,2.372682074990319,2.0169890926791054,1.495074373810406,-2.074629207644427,-0.8327197501687001,1.3099671325262765,3.0466898641136684,1.2374629295403219,0.36742811469439174
0.5042947686651613,1.90711695816801,1.059052027830379,2.3205904381086233,-0.43493172012696124,-0.536077896953729,-0.7988531874130921,1.561076789420234,0.6812390813509049,-0.04023588894570832
-0.4891308605030471,4.145288007302729,1.9717221500830115,2.197869544958208,-0.6983126724217712,-2.728440297244225,3.103267248696011,2.9396859449397663,0.8146752456687236,0.37687666013235105
2.712601193739287,1.3738932167281797,-0.21387218644473102,-0.9212968036407836,-0.7416720598729754,0.22855173104222767,-0.6583917342192185,-0.277289118448928,0.717280244888323,-0.28450875661183056
3.068693484745568,0.536168495332275,0.24278247202011483,-0.9536251231073759,-0.0037003372090031366,-0.0049875241779303026,-0.7968849782334927,2.797154435138672,0.18936885079063528,0.07300361172338828
0.6688062202401079,1.0341870163402904,1.6680121081258634,-1.4239067142528428,0.2527044315441729,-0.5500204520649976,1.8014679307514592,2.52771869098662,0.30722914314959615,0.11811568790984954
3.375989538455432,1.4569710436628807,0.19839377637666925,0.5756992017536389,-1.1764384436535253,0.845277201789033,-0.3208530030142904,0.5510494758652811,0.19360850561939155,-0.04258443141879822
2.7790839368520364,0.673916348143391,-0.23654489712998092,-3.2037469054017524,0.720088502330058,-2.7324763616619414,2.6879407951229517,-0.2916980079988425,-1.5956836394955227,0.22348699526948035
-0.04885511085404448,3.3791506580105977,1.471004650313106,3.0295705921983975,-1.1289600534215065,-1.5925673796460331,2.733317514320851,3.4556064774443147,1.800979275212076,0.08650228841803553
1.677351759539679,-1.9364133441259233,0.2931149032332177,-0.010600392740067743,-0.5597873685708801,1.3485630750441824,-0.49838500573078814,0.552451418747254,-0.045922712825778644,-0.45307191378568124
0.901368847616254,-0.5950906461183983,1.627409384452909,0.4147343246175446,-0.6837520848335801,0.24239912742599715,0.529587490920542,2.793862973421807,0.9817867884956659,0.13874860349822993
2.674430851718876,2.544176117989039,0.4777923309047055,0.2823916091310439,-2.117670410598691,-1.039035721395779,1.7504469224811796,1.5781460849362619,0.3884183522927591,0.006535976516796688
3.32192582470386,1.109407801714926,-0.0037617564875163808,-1.5952121241605266,1.0165152724083297,-3.566516470334973,3.155723538388904,0.10456967825749475,-0.7040664672566458,-0.06139975335046537
3.102632471234158,-1.2612374910384445,0.8698758563564586,-0.8357654926791924,-0.7064672441218802,0.4985088106884491,-0.4573767810758226,1.1870341884385773,0.8581966919047946,0.17498645991880923
0.6716377606403923,-0.3031573909598511,0.05985580153791168,1.5612376017451035,-0.45464826352052556,-0.9468509905235198,-0.1955089883140786,0.6504138411363998,0.5054854229074018,0.20076571976498295
-0.8578010921166441,1.3309799900110324,0.05588411098300367,2.1833273373553,-0.29186940846124565,-0.8478705823098575,1.5025538314997129,0.20122942982541336,1.7714927356126555,0.4440500292565981
2.9707649486665137,-0.6713336503078888,0.8643213701445874,-0.029746684693977565,-0.8011504107748528,0.262964066901527,1.361634074155032,0.12525523777583758,0.24578941399293852,-0.14340563000305748
2.9981863736919476,0.0006069992801478463,-1.0034340903310475,1.1416890385876004,0.0208540003806957,0.4989032055802953,0.10155912749314311,-0.3942054763789733,-0.6610728904250499,-0.18066098470155526
1.6773789658861515,1.2405510324317903,0.1844666934892109,-2.8151347642387536,0.744695232991891,-1.8678093598189136,1.02798299199006,0.5222675037997404,0.601124077655002,0.030482799974357083
2.6833263579753326,2.1174459027503585,0.8516884132975722,-1.5715104304227152,0.7173916555250143,-2.2709144001614194,3.231338462738938,-0.6664601150270284,-0.19711028336815928,-0.17233173677026878
2.4246195729393025,2.669949932284626,1.197284040548884,-0.34201336725170906,-0.7549310381787587,-1.2842507468247935,3.0311177414378543,2.188696346180237,0.26828929002291607,0.52217608828545
1.8655490063425506,2.290648702725882,0.9371738540062023,1.124626877521292,-0.8568261833939077,-2.72298222059585,3.1715044932890324,1.4056484545877188,0.2954624256150117,0.15747893804840551
0.6727202764068629,0.6782990675867864,1.2719236954535063,2.452080079674598,-0.2493510024578205,-1.11847255915529,2.8965492145793066,1.1245085265982437,-0.39021575346075366,0.015505576928678008
3.239825950498883,1.811388429683292,0.7294089534560072,0.47261995609526464,0.07033880698687456,-0.24401336345926944,1.6717084981179289,0.7304006214768852,0.8848780314210395,0.22990117152953626
1.4642593445175591,2.1083876433768776,1.7974195643381474,2.499787863292863,-1.630755530686431,-1.0713178182154137,1.903585195741905,2.6603602971271023,1.337708401414445,0.41341291513318695
2.3556446314500916,1.3307605821083146,1.2120214792717119,0.0005023551324591091,-0.4368264221990173,0.7029394180961559,-0.5987268166344578,1.9595443404287871,0.4195554017796427,0.011076772083313617
1.7359159985646606,0.40362821154136996,-0.28755109103688775,1.2812237272119025,-1.6429385024074334,-0.6740106921243301,1.042874690735585,0.25876586768778,1.1558005357442855,0.4246231633811784
1.38856041240241,2.7560080327423906,-0.28161309045597244,-0.456224058361351,0.7354033550621416,-1.7292494053581007,3.070974060578777,-0.2082004090982389,-0.4202159553753976,-0.002284920052206018
2.308104598587842,0.9394255026722603,2.0520723331370285,-0.17501656674646904,-1.539993811599973,0.5509023366852974,0.5054438877598859,2.464666672113536,1.0359671224616571,-0.18884116589499592
0.1761158069103015,1.2117643518612673,1.0901148115121924,1.070063984279743,0.06380992417768963,-1.6569209120643804,1.6241112225030832,0.7332352861423286,0.39203033452144664,-0.24490667894734974
2.5093462519519014,-0.9985046599476475,0.513505907620928,-1.1665657920949455,0.12089968649646886,0.09500134775705696,-0.409898638923349,0.7854174948674755,0.8760309666022457,0.3371627071555191
-0.18700797755955767,0.9713140581740721,-0.2656641473528704,0.3404338484734897,-0.6037865672919718,-2.914226252224018,2.694129486553694,0.2414845069728897,-0.051782796088169235,0.03776729964991512
3.280737781824011,0.8912264773027755,2.0023136372200487,0.523782919107918,0.08298268483460366,-1.8068442718907125,0.9518951453493831,2.189509447998415,0.06493209786764013,0.002373095929765844
3.2250435315734673,2.2477627727463325,-0.34112530900301596,-1.3329506063209418,0.5259549105195259,-0.6322263226608288,1.9586049432558128,-0.4828834068011336,0.0028586226043099475,0.1587206970154219
1.6913007825912691,2.159408549728451,1.9726962564652921,1.9061448009325404,-2.5307735322979794,-2.060959949571243,1.9527467224212507,2.5533886863263517,1.2050699035135413,0.6958358794921435
0.07358454809241022,2.8790323756062612,0.26898855131897714,-0.19147420060313647,-0.9482169157028235,-2.05211031137541,2.900555132106342,1.0957439264626356,0.3317978938195659,-0.17672434424720646
2.952161366488587,-2.124330939950014,0.3201208298181438,-2.675186638635427,1.1438752287083316,0.16227605977527404,-0.09454795565621632,-0.6265716638734213,-0.465514096972167,-0.24241125959864074
3.0546581479455712,0.9194866379182882,-0.11619854556640373,-0.3006996210399274,0.15289672384661038,-2.240465172702418,1.6190749261858062,-0.6346491997028672,0.6605257234518502,0.14719657058710353
-0.19300057917887437,1.6935219469753935,2.490717778048757,4.81724065862999,-3.5360080211672993,-0.14270811574980058,-0.004894980281181849,3.364458775054546,2.5259509017232427,0.1527477301740367
0.9927185607511448,-0.13023393451897403,-0.05701490721283351,-2.452859310611466,1.3679211740651447,-0.2884888895673508,-0.7485826574845311,-0.8225110703384239,-0.6176684191746483,-0.17031409252573199
0.5840457374632129,0.7382097134387109,2.8740863581118887,2.198626281355723,-0.27780791015935846,1.2516792784394712,-0.7556375020340637,3.0914126168049183,-1.1086906700872126,0.523010252674135
0.22043741946542128,0.7980579242270518,-0.2330766667095454,-2.1265154432487807,1.1096830263750452,-1.2446689090138308,1.6098808069823995,-0.420915763909557,-0.516697337913744,0.010574373921298955
1.6760827969243475,1.6491053011859684,1.4113968982968124,1.618201879180122,-1.7109780935906251,-0.7901883619562976,2.4424212566739922,2.6400832700019525,1.1927271584303667,0.5340944532302245
0.12070323664023119,-1.5158174045145363,0.9752832815318683,1.3560442860246633,-0.007032001962220715,0.3631549235814279,-0.333102044819061,0.8056475676521515,-0.046513583503173916,-0.30647839032674223
-0.6739672236654184,-0.5602519930708749,-0.40511172961343467,-0.18923904985070245,0.14582764235852103,-1.2176798848373402,1.0132527450138058,-0.4657488128385201,-0.3043271167725912,-0.40535537251291154
2.9762695455915216,-1.2746724561283533,0.1874741850430914,-1.6547874674162344,2.4666716836498885,-1.8275779846215818,1.40752286686984,0.2292992545922845,-0.5420197950513084,0.39608709628295824
-0.07806296786530043,-0.22178569762841688,1.3027035486059046,-0.09954726396053382,0.40639441354623573,-0.3434471546350828,0.7214024176641538,1.7082597934179988,-0.3207866803469435,0.05810732093832839
0.9872267323165851,-0.4531113682774215,-0.26958906975890073,-1.0610046757603309,0.8091093412748042,-0.8210870079321219,2.5458560250326365,-0.3050184514149199,-1.5222771396464638,-0.43911188779841115
2.475875268498999,-0.533373352819865,-0.44164854205976467,-2.568903443940539,0.5336100173589184,-0.23671954144189905,-0.8355527313588628,-0.2597234758935254,-0.5525484633014109,-0.1455597747141153
1.6955758959872393,0.17267254427194278,-0.3909406393722483,-1.6460142805429485,1.2543260301995653,-0.9887963447701709,2.838536480704823,-0.7806735386400538,-0.15463986434449556,0.31177741175963214
2.2518443136321524,1.9837239703079295,0.08179653083437352,0.5964438756444883,-0.30311574838149746,-1.295306082733376,1.684291823844624,0.6772931914348761,1.1275979999946886,0.3415132970081236
0.1943529838652167,-0.8769970811670061,-0.3565757814512474,-0.19127069947645572,0.9665120483281323,0.23425513064647926,-0.2121755498629997,-0.41243400556434384,0.1842528935951165,-0.09876567991521848
1.1544841492507918,3.2919139792747942,2.303540808543692,0.18834574407591353,-0.7087882273973248,-1.7580615401853399,2.2886102635523673,3.076840248650959,0.4423681027322435,-0.18870207860867194
-0.9394772338438664,1.3426950545989735,0.8998100714852761,2.0812007786835136,-0.17553237022556825,-2.256601181388165,2.4297756253204037,1.0207706681075237,0.6314025997928576,0.1209988019596755
2.8259163845430413,1.9013130653033818,0.7926593074906748,1.567654007275959,-0.6383360243331079,-2.104795842049534,2.287236828336822,1.9032096972836126,0.0546308926779732,0.17139723239205176
-0.8582856163040959,4.754470102773138,2.0374015699014936,2.108848391089814,-1.024514138291531,-2.414502288232849,2.5314686754715283,2.1379701616192346,0.5997070794841178,0.13078668300131163
1.3094084006172295,3.13075348678965,0.03188040511285345,2.9046696703695027,-2.0684896851066545,-1.1881250024396333,2.185559939266026,1.3878228573919285,1.4006881790124894,0.38589328503979325
3.11357676908694,5.776995875804718,0.822056258734761,-1.6626161408975257,0.48740594817346067,-3.9966406083406945,2.7553022460829757,1.829367021341314,0.801307316105184,-0.02807094476180004
1.2806322746708783,-0.4218487173953025,0.761841528486761,-1.330928566703856,-0.2754570821979519,-0.47715416505030356,2.5350187558253667,1.704850826051135,-0.06278138081110378,-0.2064462709279633
1.0859884337114014,1.5289048540535248,1.1509098807052558,-0.029405024316103534,-0.9514940585165644,-0.5713682950652188,0.37828643010395724,2.1538102779417074,0.7341382629775453,0.06813761867414547
2.267964401380854,0.06746757257475988,-0.9771937961603873,-0.37596710411239237,-0.27433003867285666,0.35285421130008965,0.3636624396779349,-0.6842285776824252,-0.04149546727521343,-0.35875758380143946
