x1,x10,x2,x3,x4,x5,x6,x7,x8,x9
-1.0063426160038333,1.2172800594144801,1.2912327808035213,1.613574321520197,-0.5792128528928397,0.9386114485965759,2.5475504586722164,2.024480656805869,-0.17923972374713065,-1.055607106326301
2.3456032193576855,0.4106762604027272,0.39879119893305903,1.4053497494158187,2.334490335091479,1.2554847003935483,0.9108405513245201,3.19939386577375,0.8867942286303547,0.27632869028490165
2.724346143400722,2.494150659949254,2.3532584734123585,0.687017565601082,2.366414587039618,-0.16862450494929862,1.313692235005151,2.6381286868711205,-2.238591668334799,-0.8803678898856785
-0.06094060114003774,2.871891653486102,0.851292310366792,-0.5906122779969668,3.067390966027988,0.2577445622736351,2.264055067084317,3.8682658106805055,0.04477416412556018,-1.6134968047644511
0.6490871378273331,0.45730466801846203,1.0765650838727883,3.9764591362260977,2.3513022102840426,1.3633701034141779,3.269618669896091,1.511923834194513,-0.5661519169040391,0.021425569893575
2.5967531540660342,3.218674131035625,-0.3492226581159169,2.3059170815029506,2.4665187499232477,-0.057905903011097846,3.120680273016422,4.019241509725897,-0.11432344932830606,-2.4674740646684827
-2.794555611861612,2.8881863488663257,0.4884983175037363,-1.8167154129656804,0.2792300946015165,-0.026589645454344692,1.3415715798401733,3.305397857454673,0.0009629188116698224,-2.2254083639698314
2.0674475682849005,2.478720907374753,1.3209605764807466,1.0177253081558861,2.959140863442647,-0.1462308866385963,2.269888226805191,0.3679779760364737,-0.9809548421603994,-1.9001928604215281
2.6748368866248855,0.7940838293913752,0.0007377364123559715,-0.05757343712752144,2.11088748773556,-0.8579912977519185,0.8373464815191625,-0.6186280236897747,-0.3115590937767899,-0.6543984684205484
-0.41970558455156337,0.3497873986840796,3.334456185157684,-0.20150847825582163,0.425372634421622,-0.3685710108822727,0.6507089395124601,1.6823970230959027,-2.977090780246651,0.491281732138459
-1.1830627286325357,2.8764299092355636,-0.8991033774616315,-0.06498428050454386,0.3216861758025773,-1.0771491829438546,-0.6931647115732926,2.2175546630350382,0.9584031389619945,-2.9043698184614164
-0.3795994639575542,0.24403206426460344,2.038693439914672,3.1121658365394342,2.1163316691728715,-0.057150198456358714,3.3168801652746405,2.423223291836017,-2.62088936337861,-0.7358867003213883
3.4149039579137517,-0.09654068805613258,0.4674923225455543,2.4012532775958806,2.8000435827192582,0.0599533189223814,2.372970846680658,1.151619660211583,0.10748834287350269,-0.48576266085159375
0.06888719206707017,0.24211196667116508,0.557053344667171,-0.14540009639659934,1.4418800252176789,-0.27466245168441683,1.8279021471816481,1.8413033590694732,-0.503224424651135,-1.4561799137258788
3.302945009695395,2.2865665751465163,0.5011002135654086,2.692466344412126,1.7411142808953892,-0.7796891753329195,1.9631118280419044,2.3856352463001835,0.5584280927949445,-1.9843305543309533
0.038760504198630974,-0.8052290709701333,0.08504631689355979,-2.066876515179691,1.1943134775079973,0.26569321491338,-0.2686865238931121,-1.1186672834650047,-0.8056726729748802,0.6910348073277859
-0.7034192465887965,2.428520844677202,3.3360296435731973,-2.0767955661864637,1.3964563863613773,0.2937747594742876,0.5784732846425009,3.916653686334585,-2.1854102052433575,-0.6365831602136985
0.5329613668872768,2.342964840993965,0.5136628436261916,1.2426449052098762,1.5363994736139683,-0.09632730163772482,0.46600545321827425,3.1183870716341553,-0.4673803778098425,-1.1882257594848205
0.7882562664926687,1.8293183253645617,3.3988380352834726,0.9531912749714466,2.939970356187274,1.1184769975279518,2.705882291300872,3.122004338070178,-3.2428202335318157,-2.0625961168171516
-0.8331604527493351,3.193050524685476,3.258964964120186,-0.9818617637611889,-0.6232881112134145,1.0410119509850277,2.0421390519255054,3.4874191858230894,-1.9073721870344589,-3.2311719874019507
2.1846374590190796,0.7073032337411509,-0.9663017113982607,0.7849747425259098,3.089770718826598,0.8196277105511479,1.2594660101918316,0.9100359475091087,0.11582974118943089,-0.9846563922725071
0.48783738579962455,3.0448303422325846,2.7873404306527068,-0.6178034173033905,3.163029195456824,1.6622289323895099,1.508187788009026,3.0642431729327977,-1.0942318593753855,-2.1735774032539132
-0.5660238393450376,1.8006112505069498,1.3116844201334135,-1.0921327588672551,-0.7774684010454862,-0.0725808140554447,-0.49797560372199534,3.3849552631004056,-0.6528974442826454,-1.353531856182435
1.8857909846819436,0.6306749579453077,-0.05115712197906375,0.9811010871148438,3.293446185512656,0.7785733695125989,3.208111138826185,1.942744384945024,-0.4003528435914839,0.5053367617837922
1.9698633979156128,-0.8541502942584879,-0.8690159297107516,1.0895068480335488,1.14503381458163,-0.665666476387288,-0.41651298078548726,-0.9627268139863429,0.341785024416732,-1.316875140805434
-0.5188012781789393,2.8171346460352322,-0.5893408794818153,0.9201917137272491,1.8573147830732406,0.1619491471639602,0.22531587889370885,2.9497077384992294,1.51643717132248,-2.697218871462138
-0.33387384262186526,0.08678360442452249,2.740689009933681,-1.0926463844778458,3.3189991907213656,1.4305606793805519,1.17235394956464,0.6834629998141993,-2.5090385836702565,0.5452177326189163
-0.09136970604970901,3.3867881785667713,2.166171382683616,-1.1321722149896107,0.580563233696078,0.7373748447362722,-0.2968931145861309,4.184170355199233,-2.8091122666055357,-2.6752320555318527
-0.9325214339718548,0.9532423103933094,0.8672903165448111,0.9533426485577335,1.2703227221083884,-0.2971976294573808,0.23161728520683944,0.9289777405303072,-0.299109684447886,-1.1629697269397548
2.364342799072113,1.1694885328968279,2.47471656064712,0.3685265103079236,2.5447399471531047,1.0422518250266957,1.4562495716464525,2.510277072251549,-2.1293898774987636,-0.7311057750558879
-0.9337781920107582,2.6705599292415587,0.85592596579396,0.6459450121922973,0.15566115897419452,-0.11641251670567598,2.0211021167805017,3.8372380694973613,-0.677203321835064,-2.2963676203603764
2.6726399320433583,-0.3844948957674633,1.4089377320724537,-2.0473453142624947,2.9505696537057617,1.5694426970162525,-0.3780186344216858,-0.20426611001236183,-1.1299984028289014,0.34216608275473287
-0.5352334606235436,3.328033421800585,1.6516297764635346,1.7969427855174653,0.7114575131647336,1.016818466661967,2.94309692209923,3.998861051435892,-0.25462070052347274,-2.7668746130561312
2.5830996564652033,1.6841811888574947,-0.07423106365455778,0.45652546426139345,2.5470678044659127,0.5836530918184948,-0.9276235663943506,2.9896455832392133,0.9820704729439845,-1.10281663031316
1.7414778995535791,2.7076760280693324,1.0216853742405294,3.8673759752200185,2.088313116329449,0.0779736682927052,2.6364863764467867,2.715294884206636,-0.34891830736376145,-1.5492879584587576
-2.5172009817630645,2.9260332602222316,1.7447834619844165,-0.41201037559766196,-0.11347258647888481,0.589223057399715,2.367683087819916,3.5794335201502854,-0.3320208397663172,-2.466827504850691
0.7340493283992179,-0.10463132915848117,0.013462737742791608,-0.07877777487584958,2.093809796497161,1.5173965921057966,-0.20547998360798914,0.5443665452995199,0.5143742652118057,-0.20769036370736116
1.3422921180535634,1.4404230896658512,1.7831234101250701,-0.7123542613937894,2.4796950574148697,-0.8253081944925516,0.9112691427518174,2.0236166484414193,-2.443315310159,-1.4474273710322139
1.0361866396878148,-0.15908506803920253,1.6240597682626516,2.6657427044773616,3.1820889588605494,0.16742868669031546,3.3589616581372876,2.365916090085215,-2.2139143694617904,0.36307226640205126
-1.0515021750969238,1.184317669515441,2.8046189959914467,0.17023887110396968,-0.6326636074232943,0.40687355788133384,-0.5237121634500979,3.511721852819247,-2.6696693709759898,-0.18284523757648294
0.674478937765452,1.4161584091312611,3.3827666333382833,0.07579548232455736,1.1663746285466439,-0.1865686237004209,0.01695592795080203,1.1232334404069642,-3.5149651941160407,-1.2567709668442453
2.5581102754472824,-0.34325181629918866,0.9428845435456616,2.1673932172382813,2.7503808251416917,-0.05593969902304268,3.0926868117552937,0.3601516268145604,-1.1191175922562855,0.5173974109586692
-1.145548062101885,0.3554480223979155,-0.25399073612737255,-1.1274022631168361,-0.23779332487515292,0.9208052864854637,-0.2965619530352982,0.813667665639382,1.5488236203127408,-0.5039687958495906
-0.5695082881371818,2.8269062180765205,2.2115399459333442,-0.884854242216072,2.454510939987466,-0.4319540095957232,0.8584990355098601,2.4060669020615695,-2.6692221687317272,-1.5397829989209464
0.3086221299526045,1.194173602110348,1.5816955865442828,-1.0503743157469856,0.18654222532170683,0.4489328054788774,0.11886230912478957,0.3550374522180545,-1.1603951066515226,-0.8059564573555051
0.23749062942638963,-0.2739108798116452,3.066197830622068,-0.4494045134241867,0.36843152488809716,0.5003900204413076,1.5523632959714937,1.902769948571157,-3.159087861793514,0.10951602754617257
0.9721506646096749,0.6305300913169607,2.6176292864931954,2.187610707753594,2.9839917811019827,1.0813168378738565,2.707420424444065,1.0876501011112854,-2.690426775810891,0.3366890092694279
-2.20372226486819,2.9964197070899097,0.6171362875057851,-0.20888291650431062,0.24649029010704426,-0.8426620346919329,-0.036245921692725114,2.969225849407324,-0.722739446323672,-1.6162900117014216
-2.3118134473093757,-0.3121514420048108,0.49566891501035926,0.7906856861285749,-0.590620426239244,1.4505937339944839,2.2054753842766273,0.1789479136422336,0.06804040261751904,-1.1767612384622683
1.2081558656461042,-0.05591505014244991,3.0366163439273715,-0.07745792802898738,3.189402324930314,0.08938538442173637,-0.86331351594729,-0.6737303968319832,-3.1913115131387944,-0.07265822115347738
1.043394011462189,2.705852944364642,1.6316736044724536,2.3802730884558754,1.2617849716162364,-1.188251485691418,2.1585103080106665,2.3614544591392,-0.024038806664293564,-3.8723815370545616
-0.999540213631518,1.9499335071367314,-0.18559691439449488,-0.9071066976166013,-0.20056847869775163,0.1365158728852973,1.2985940190336418,1.9593873611218664,1.9495783998298961,-0.16648354514719008
-1.8398066480627717,-0.10817372401071546,2.0959313393199115,2.316418996875827,-0.23115315716750928,0.27276438973127104,1.7547706508550038,0.9892531314992953,-1.533755252366508,0.64060291001216
1.256315102768934,1.006034051744697,0.41621885932468916,1.8124894778390606,2.244266801597131,0.21231270411296957,0.011236242686586628,1.9668707262773701,0.5342765363963478,-1.1373735880675897
-2.4139378658134123,1.683516630648071,1.3003260860073214,-1.129915816904569,1.003485568457172,0.6318127044232577,1.341721991332022,1.4562096229212673,-1.3248659297884045,-0.5366263642779683
0.7575641230727737,1.1627720115965214,2.660499367326638,2.8358751431199813,1.1110607230820553,0.015817136831052903,1.9415200301050546,3.1066849563552266,-1.6544433682681523,-0.9683666808740702
-0.12710258813120812,3.191380945389131,1.4247124697709102,0.12606805075747796,0.2800893881939306,0.5400532028982897,3.1789608219561334,4.207932302501515,-0.6310089993903456,-1.235071076674715
0.44330937162024453,0.0048509918803856245,1.8827432959448243,-1.1288380730491747,2.9986521450631067,0.7244185658716413,-0.9862167193832642,0.9026063969893651,-0.3483241015541712,1.369932298864623
1.0043933064695905,0.1254249986368794,1.3538098925041542,-0.07886866814707932,0.06950080476212217,-0.5862038034824847,0.09025831838186416,2.2429980025823717,-0.8886566143416679,-0.6245420554598502
1.5219640415911968,1.6462284355263006,2.5352219676022174,0.28986384859816305,2.764403308414149,0.44165899275587933,1.926901770731949,2.567679110757118,-1.8493657923537687,-1.6381208903683055
1.5256968928915062,1.5119779940758353,0.17074741225425405,0.6215740059066914,1.655510683971066,-0.32479572302676235,0.9114642444586494,1.8018629103811084,-0.401034792090004,-0.9182205458084275
0.45767509873836565,-0.6676190454439923,1.273924800510903,-1.0316091767965871,-0.1496711094959412,0.44692041629259655,-0.05149192535623548,-2.67624229481821,-0.9253960546627484,1.1715787350289573
0.8034468669640572,2.105244463233673,1.6159802139170742,-0.2791461890308331,2.898246277413416,0.6168363691788846,1.970351035554606,2.491841223357486,-0.8306525468070352,-3.338310816937834
0.8171135827766935,3.314807684089639,2.6762005145865726,1.4786298969479224,-0.2848254570558322,-0.4758203002907893,2.2282962824546995,3.727783015595969,-1.8224735830134082,-3.6113105002857435
1.5256558663667241,3.1935648229757057,2.775355780270717,-1.5312423519660299,3.142831471731048,0.59970518870107,1.090991668897198,3.6674978403093546,-3.7174751916440747,-1.3279909798297718
-1.8412529906026995,0.8334520738813918,3.3540985978448434,-0.8399486733025714,-0.1380386969339943,0.23103205842034172,-0.4123567620111753,1.0496111693296113,-3.6427056354626046,-2.043639905024503
0.45391080529984595,1.9926127861705711,2.7594347757570694,-1.485118475459495,3.2286911641551077,1.1361161379393037,0.30989602244389447,3.6836459445588097,-2.49446328155565,-1.2342502563822075
0.9561656079570777,2.945553566970399,1.4874024658608902,1.217522551997709,-0.7962831679190394,-0.5240859413500517,1.1890055532896775,4.434315723359271,0.19779178625901592,-2.580637270562479
2.658714469802707,2.928582780997156,-0.6335435347435189,1.861489588944214,0.688248538564542,-1.638581128348888,0.701622011683211,2.371525382116902,0.6544337816462914,-1.5309343559601676
2.1308242015938887,1.52227606562866,0.4232891220867885,1.0907408720570342,3.12636040221017,0.7849476407186645,1.171224976444893,2.5021205973802654,-0.46935664856932496,-0.3469376738172983
1.3123494363370982,1.9594268227264724,2.1133135647442836,0.851584634494629,2.9273385800286786,0.3540330483888955,3.027697329348034,3.4020271026436952,-2.7233542132636277,-0.9030931069862251
1.8806281470320527,2.8080388012419353,-0.8891955439948752,1.4657597751395768,-0.21450329891165654,-0.6490019592488784,-0.35167167690129264,0.48311554705141047,-0.12546733170816465,-1.8482289495792863
0.9079198511375237,1.9749747854993673,-0.6570534162973221,1.3330018598544715,0.3825551389209263,0.19643426403161662,1.3753966009408645,1.4753783038421027,0.5517166926219742,-0.36016238683175444
-0.7273782827427064,3.382362430956884,0.9107458458362017,2.2563551975897638,-0.09373956441539755,0.25983159235262804,3.3136544373852717,3.2846365412973673,-0.5719492423749283,-1.4198870596233397
2.2804994470760174,1.9234193485817568,1.1384333357451344,-0.24654769339720708,3.0637883510576893,0.11845237102391813,0.21655675301227206,2.173643995907175,0.3910216734695338,-1.6211303804689499
-0.06547092890606532,0.21856998411233364,0.36948670867157696,-1.0856600729003603,0.5613924372852137,1.0545862455281618,-0.689444805088852,-0.7646323315499444,-2.250485510362361,0.07273967231396383
-0.9768146410461649,2.800333918886744,2.8105436343699743,-0.31517380530957295,-0.5179657152497739,0.06738159635010015,-0.006514411486998828,2.6859151103078505,-2.454664428526977,-1.8666171565716514
0.4090926238047663,0.04043663660445951,-0.8881527480417304,0.3998227852318724,1.8236530859147053,-0.8863881136249528,-0.20132929132437205,0.180124681610288,0.4252116731620978,-0.26697551902422706
1.445035533706764,3.1965337754037764,2.488458908733348,2.669165003980661,1.709023564975063,-0.11402358605086976,2.3107715302833634,4.083753091983406,-2.538816712668389,-1.4332748848037264
0.5111503895566579,0.49428377606908747,0.231398498047366,-0.16103293275289687,-0.9667871869672915,-0.9522291465090224,-0.19404388603286715,1.7990514279725585,-0.6459902746618654,-0.04578226250975029
0.4815935952740461,2.6929258133015446,3.4228011619177607,0.5229669321405428,0.14161931441059128,1.4259189582699556,2.7308621277415113,4.586619963717746,-1.8146155815650156,-1.2792904051789205
-2.63856112316221,1.648040653064729,1.510764511162674,-1.7034856906389149,-0.9911228571028595,-0.45470180400389454,-0.6320786921069095,3.000122896831041,-1.1445061925287745,-2.0644980205865613
3.435319392890664,0.16824222510200526,-0.8761118465628321,1.2936738410294346,2.9757319293659013,-0.16086371075846717,0.06816599028035508,0.05753848891713864,-0.7283987051049835,-1.1490850277949216
2.5232360248892496,-0.01624443214320237,-0.9013994258665191,0.2290643216079415,1.7495338716701823,-0.03814494182755335,-0.5066820161480452,2.312415750454903,2.1196750449805313,0.11527132080963595
-0.5546156469812702,-0.652035763633884,-0.6429269341523027,1.1391427509511252,-0.6713752695994853,-0.2785713585018433,1.0190087306645634,-1.2705880681015675,0.7266313207485599,0.8740705119222248
1.6587406324440164,1.2831623478606282,-0.7917886865491122,-1.013180809408573,1.000355088402554,0.6996558123347124,0.2991693928253869,0.08751178223719686,1.0506458107860748,-0.32178198558293136
1.8669842214866441,3.17624300407254,0.09630917755314239,1.9300701168495868,0.15182914381437929,-1.4349438319949284,0.7346179019575412,2.073037576870108,-0.1028010040216258,-1.8642262765139472
-0.6529914392290004,1.6952832741648387,2.1643642840331596,-0.6786245863311462,0.21488952495465363,-0.30899806514855843,-0.28128027680602985,2.2493962285580005,-1.9813890916771808,0.05467669420763267
-0.05022800515871473,-0.34104347346405217,2.8127424748046463,1.2194422436864387,2.490658713637262,0.13129640473095466,2.3556216944529167,0.5742944597910788,-2.751616296956705,-0.10558943708709279
0.3279444803918814,1.2322328460327343,0.5378164829214007,0.5533802704104855,2.9898429681538663,0.9293085303864094,1.7188388569806166,1.1976977689004271,-0.3560327122183359,-1.0336139835873785
1.6998441439868337,2.7929997769986734,2.3645353116564634,1.6228251144042956,2.9507809625366597,0.07477076045051119,1.3354504349901877,3.279313679826984,-2.4760352219604873,-3.866607111868597
-1.0966056924368532,-0.04244472678639377,2.9789157237809274,0.2234710597120193,2.5945528113891587,1.2688065938949462,2.560641704773525,0.16665807422919543,-2.635746723082775,-0.3150825213174421
1.890439069038026,0.28090544415471896,-0.03027686026957921,1.423901780857992,-0.044643649886144,-0.1258498289968643,1.624709544103971,0.013210649730325486,-1.9383520904597196,0.16652425036245952
-1.0814154925544675,-0.8446065063800814,2.471712746025967,-2.660701819360319,1.1265402849007509,1.2543062314282698,0.30398640756977025,0.341573906836075,-1.2364516552819638,0.4276829113936525
4.0093600035925006,0.3262965769416575,-0.7649090623032647,2.826841316000544,2.8216252142476153,-1.1839109966711268,3.4482704843796146,0.3504063192884482,0.19049662448694157,0.3156246839759392
1.968836824480083,2.6551063476613566,2.943748388136378,2.1994799294841885,2.929707616806562,-0.09742717629274675,2.192850194805644,4.822595776251216,-0.8838912375061254,-2.9891080813581303
-0.6601089674681838,-0.07320383276854181,-0.7207353535150174,0.16538672450661976,0.04130758903776144,0.04835958709589734,0.1487654121088009,0.38199010253146304,0.23790691408020812,0.2971271600762776
0.06360226787943905,3.066916012162652,2.0760635940908543,-0.2147127127586471,0.9538536148427976,0.7147528390260672,0.14869035227252514,3.0569020988322873,-1.0932761976370569,-0.8170320034764537
1.4389157377323698,1.6738258955055718,2.2980563491382697,-0.3344220205757415,3.3794411986218034,1.4955362485953574,0.7354283520977669,3.3225797502174172,-2.4888551753076933,-1.8812481957667684
2.982435770648675,-0.38437547949932893,-0.9926456986349039,0.7639978853492074,1.742476028688082,-0.197325458057284,-0.6938484556030742,1.6192729111503883,0.3885402222079138,0.45658136719518955
-0.45914929979450464,1.6346961489834104,0.5725417932911634,-0.8636532194247121,0.24320810913346547,0.3885196109158207,-0.1604692535488359,-0.25502904297589946,-1.1402504140066436,-1.8752826306357957
0.39183815893954466,0.5491061204022427,0.13026362391238377,-0.07182002185788977,2.2868116688427453,-0.3717814484590076,1.3179333715515762,0.6941194917950329,0.308785914018167,-0.6170888428829995
0.8084432072559448,-0.1596719824932542,0.3226696504624669,1.85256792916077,1.878970818798983,-0.6502376228854446,0.4269753264698055,-1.426494321527196,0.09092697220797892,0.021435878497660824
-0.7624994154958524,2.0132731270792967,2.2835789202834893,-1.308099102449585,-0.2752665511421398,-0.4941649517586924,-0.6460351753989411,2.1627272160745545,-1.915296912417223,-2.4408353661464712
0.23122023671653702,3.2159161670124954,0.8822580000029832,0.790140467258162,3.050484302021128,-1.0169234190151402,0.5314790605083923,3.887489015777599,-1.4304720655952516,-3.4614928490604138
-0.3456998012976744,0.28838725142505517,2.6820671611161413,-1.3327439946490547,0.046390598411421013,0.16620786375590985,-0.9253146514030467,1.0061309972165615,-2.529374901831174,0.48081646570222664
0.6174803394118145,2.174815124396317,2.789321465058589,1.519704191869636,0.2723801191087887,-0.39014986829275816,0.10772991877955551,3.4906733180085325,-1.4694309885202161,-1.441903273604028
0.3448669662807794,-0.3261511809214217,1.7289533675896647,1.3839853086142178,1.5028638166878632,-0.3333050778327948,2.2641531140907443,2.797207951424103,0.08941740799655289,0.9746652358862556
-0.8448678162926586,-0.31370088122555984,-0.4286595471995246,0.33352615326594703,-0.4759252571854611,-1.589164553197691,0.2901822116883932,-0.23136073943662683,-0.1245673794737926,-0.2732414525005574
0.4740839961687787,1.85166332269745,1.328098028437657,1.9466893717039475,0.8879342487999895,0.28469631188955036,2.8578806227101854,-0.08611136869658137,-1.3515301777790107,-1.470104736803076
0.233725260231387,1.828027870656563,-0.9452888042870793,1.399752799548326,1.0681670466967104,0.9161278787214425,-0.5819056643996574,0.32141756812680944,0.8826180885667031,-1.927024861530595
-0.4056283498115041,1.3627808948384983,2.4721411040357917,0.9750493704516962,0.6051545533779528,-0.29443769443453033,2.158381245116362,2.7086304516849693,-2.05315456335103,-0.9396693032416416
-0.20777373398665633,0.05226774322903949,-0.36696515859836376,1.0865919124908276,-0.6092622131152348,0.3638584830463146,2.2944655597019867,0.9621332830879568,-0.46610849903643425,-0.11117064613023195
1.347565161483164,2.2452242317345505,0.5284002661989535,0.6464229420664738,1.4526356770080464,0.4855853426312293,-0.28489078172055504,3.2926823216443726,-1.4314262658248114,-0.8572518297907665
-0.2316082494156164,-0.4818683779951104,2.832770682545792,-0.9146674191266649,0.7315298763067157,-0.43469945461047166,-0.6962545361025501,-0.6470670642400633,-2.4605022464933595,0.309420009350426
-0.6735964930058306,1.885008096454189,1.0159218930021545,2.2454369624726187,-0.0008502660979710086,-0.0352865993661472,2.752545177146786,1.2630203124252637,-1.0956093466177315,-1.1543295372607523
1.1619778693888252,1.1191011766620003,2.02488918150766,2.7814439306111196,3.202295116835038,-0.332797610457071,3.2465459563373225,1.497414437142223,-2.5244720560730416,0.2775809047422719
3.9490355944548474,0.4724385293092108,-0.6124541988150881,4.043471224144524,3.2530430637195353,-0.8071838942929661,3.1782594444406076,-0.8584920769329919,1.172740585485907,-1.196960774020996
-1.6969667396447567,0.2073862312338257,2.6713372566711393,0.8253208900533195,1.1344611375460234,-0.4066940141759605,2.4323040193782672,1.1710657476345365,-2.9434729042602883,-0.04453472422830793
-0.19276083685577539,1.0142550521421745,3.210326822074971,-1.3946056633856763,2.449373490177996,1.1932714148035013,-0.3309729087248853,3.0937774135777953,-2.1629206456396215,-0.9471244318903552
0.7386997224442473,2.7552172780114796,-0.27624319064256675,3.229708932827043,0.8511763147981866,0.8478530867779189,2.9701399023541333,3.6940518029960256,-0.8908442801804337,-1.8078221450564536
3.5955682087815872,-0.42675415690520424,0.16833192584382006,0.7896445397985437,3.174493734371663,-0.4023233387378667,-0.8013347999285071,-1.0267443076482676,0.5986981271945258,-0.4599412775203503
0.36066955361518227,3.2518704483386465,3.3857850096252564,-1.1895054917442764,0.2558331894791026,1.3322322046213226,-0.9833517401585186,4.746080054178368,-1.9187276966223596,-3.5419557833300863
1.949225437400487,0.0878531333298731,0.7701286903568565,2.6519188131327396,1.3389655153463038,-0.01487137661901741,3.2771158113748653,1.6454158270788228,-1.4073476444249056,-0.13973823601188612
-0.17978743033593347,-0.8699007512210211,1.1378301196839002,0.7369692645340771,1.3783535531828277,0.42694214649576157,1.8796277036981621,0.2362421423371472,-2.5371818128682992,-0.1766263875691521
1.261000099172663,2.616117054774173,-0.9928549924658748,0.21873298026809712,1.4841586112524308,0.7925056734434278,1.598986391182886,3.1464032158760737,1.0109823490832752,-1.398966140600196
1.0985157616693708,1.8241327035608506,0.1663953378356482,1.1439469301596055,2.166078269288032,0.6834559450777629,1.8534846870785247,0.07748382309378565,-1.0999968110905254,-1.959611698338347
3.777766499077768,-0.8084357637008988,1.99901130937618,-1.0866353518728482,2.3569854959967063,-0.33993774844845515,-0.7207994939005614,-1.8315377317701649,-1.495893496645575,1.7947510956862804
-0.682239940657395,2.7915746957479706,0.41630861976068134,-1.539489702508249,-0.6166394160890407,-0.44843765463772733,0.07481180812650412,4.606319093801273,-0.4354591370579859,-1.2071082727965006
0.47877813712427253,-0.21498757267168944,0.6001494511766567,-2.0626393604794844,0.7257474666592743,-0.7494210455394215,-0.5210357977629654,0.8525896982325432,-1.074826078127755,0.8295879478166643
-0.446663410755038,-0.49230680492073287,3.071762395537715,-0.3218726029670995,1.5936118918047288,1.20518756929095,2.8390149809063057,1.0059673868259746,-2.506180265928287,-1.2065623043995986
-1.5061967403382939,-0.3755430943533443,0.1843452738201954,-1.1447756374944527,-0.6183547270011334,0.30737398171350183,-0.8902806982776823,-1.5246327049090902,0.7459240696956296,1.2744054464633232
-0.6332044468768041,2.3297368221427095,-0.9135051144922386,-1.1500391546643978,-0.837837139405749,0.7736184221384337,-0.21214396095650467,3.791150357941406,1.7064008701733373,-1.1454528225040848
-0.6996427062416596,0.49029690567466044,2.112695732935275,0.8547634601043241,0.09584450590303772,-0.6145010106600564,2.3877403055554223,3.237959186889717,-1.1292384615965432,-0.5021990222514605
0.3939419396267424,3.2835840927021573,-0.8922658030064132,1.8295745201513456,1.1615643218689553,-0.7361381554480255,1.8362203115933942,4.175148731910056,-0.49824123632704326,-3.048458701229455
0.49198614050835154,0.21926319132238814,0.029493771942845415,0.856705659606701,0.544685211648194,-1.002498131159294,0.26405151117675074,1.1909695763327068,0.09942448829077989,-1.2944306768191882
-2.676485491061025,1.6032106216407342,2.7720063196656395,-1.5673154797338387,-0.8263555209710641,1.2997245466105336,-0.4280009510249164,3.5043355491446544,-2.5948912665345256,-0.9055960436951512
0.27462181116590034,1.426065305757219,0.17685249427061267,1.2871942932278024,0.03065439279363824,-0.1393988179638971,0.1857207897801012,0.5928004286701078,-0.08846000538769677,-1.7814391993241585
2.5273221310619296,1.411001186393782,2.0242884190370134,2.360126306450553,2.852492068998519,0.14969176686145944,2.248526385510669,1.896158757799331,-2.5944230770252044,-1.9673337928149912
1.7728121853787944,-0.4989845312524622,2.8741921998461857,-0.506050369257598,2.8554648121907196,-0.5771800465004229,-0.2246782545394973,0.8319263030118236,-1.353543448807064,0.2217516631073427
0.20087932951238452,2.3715200776935013,0.760337709824102,-0.7209585297472425,1.6226323091095285,0.28354072546841413,0.7940532522179382,4.153018482633325,-1.0459790976409837,-1.9945220837762978
1.5261024978682036,2.051220787888901,-0.1838243847774389,2.8272387032511275,3.245249972765844,0.0707485367712768,1.7726175686760262,1.9676956189683663,-0.6717114509953411,-1.3333544646986502
0.48058784702776025,-0.20291488328186758,2.2920034387104917,0.6140671282743715,2.1570999843538226,0.8465693606895482,0.7623122704341065,0.9355487625246164,-1.2874908111231953,1.5249813550671532
1.9025286576752765,1.4396585688241457,2.1764102515322903,2.2600271947780275,2.5495010850309265,-1.4637157515967947,1.1592648267126378,2.3615138927897097,-1.5346872657026178,-1.0769770005694392
1.2035541647030337,3.2885043700210765,2.2889057422002868,0.8431956218070156,2.931994206327952,1.4993724357516893,1.8759105277751105,4.818701285810191,-1.6736945915637844,-3.05384557286941
0.8664068709090618,3.452694864780093,2.009685262269407,0.9257139939311634,1.597342690281569,0.8752552699776048,1.8144583440905788,4.927249719620049,-2.180930039677776,-2.0430789377124614
-0.5562361227773188,0.8888578650883969,1.2273252016051508,-0.01864290692323195,0.38529572119371025,0.5188556663365416,-0.9333389799040678,0.5031163827118578,-1.2829659186979576,0.23427301795998176
0.255602538907607,0.6632848844589909,2.3939107144303535,1.617721504617523,2.6128344938407593,-0.37584893727361934,0.5114086734833887,2.399588453420089,-1.7848965645864423,-1.1334891434920376
0.698652522283585,3.3813763564876833,2.92725922539126,-0.010935557474953783,-0.4695954461501822,-0.7371451294453502,-0.15946464132076277,3.214625736858858,-3.5707906268851004,-3.4584782681087516
1.8372330547821778,0.5739035693773527,3.1381913484074166,2.8463312306342976,2.5311991732409225,0.28639021907489015,1.6158019311056449,1.7547556073068526,-4.28581498287123,-2.081325775703235
-0.809765378616485,0.08045110900671681,2.51708630706456,0.5870355594227735,0.577488366181677,0.7626749356676514,1.2610162830815281,3.6554877865853888,-2.03690616379098,-0.25432648732207674
-0.14081904772435427,3.009270430423557,2.8271940240224853,0.4836010924387979,1.2393903163211344,-0.033937493070608685,1.8151533932986363,3.865624009164885,-1.5789195118475605,-2.2557745035146946
0.19314681771087194,3.4060505559701273,1.2940760475060333,0.13420807425383208,0.09847513100237126,0.7331669608298165,0.031149957143968177,2.6286993785577315,-1.7501357438870835,-3.934401164132757
1.3465832606809154,1.4894957012322814,-0.6866470768630705,0.9277350253038941,1.8236003254861015,0.1005917647224632,2.0509573843530897,1.116184506387387,0.005344171677635401,-2.140508077833029
-0.48489849909691785,-0.3890276603060402,-0.5290360736549158,-1.8048428880401157,1.0459840617719993,0.4593400195991563,-0.6634210972080137,0.44068480224716294,-0.008013003029287964,-0.2767543935000013
0.32674982647637424,3.2686567779255338,2.2748810643853044,0.21479297474888026,0.6761568028540477,-0.4039910383210318,0.400179320580641,3.1887748546607098,-2.926174418135477,-3.4955026553360042
2.4340622103603655,0.0667512275976152,-0.8238077235496193,0.2948379774759408,2.5144446179065927,-0.3192537754638984,0.3703918083779627,-1.2631182448101261,1.037210155050476,-0.8066874510033635
1.3739249939056397,0.6551240891913273,-0.7490857108347273,0.41756444875744736,-0.008260079807650311,-1.3443532156063351,-0.7366892359936011,-0.5049990035215435,0.788019431440156,-0.7980264840825968
-0.9507476640251337,1.039060051862259,0.2172109550892154,1.472322476408011,0.26594792156080493,0.5985045410182136,0.7785002942714334,0.8327905077615076,1.3522009163254733,-0.06785272711391882
-1.0521129742378204,-0.3272241946961367,3.3875745311241854,1.5686110369907984,0.6925028102555011,0.46596702379943145,2.0943698294975674,1.7760355340431877,-1.7018683697683337,0.999850302019541
0.6475514133275042,2.801893014461767,2.1132285676289677,-0.6220999845211725,1.099144318689353,-0.6298394314076358,-0.40957576341226476,2.5921214914192516,-1.9250810353362435,-1.9690841281872573
0.885403931713659,3.199469817534742,1.7678407010722292,-0.5560703956526551,0.6100043705713485,0.7159409488318674,0.981626830048195,2.357749757301725,-2.237831622259436,-2.4873475592141916
-1.4025404286769014,-0.42105391713393947,1.5756418536278307,2.1034082911129532,0.5644772665627358,-0.7852324642514708,2.5117427657214217,-0.8505245761399787,-0.7764638803466027,0.8395022919484267
-2.122485277001711,2.3254757452696824,0.365124316406918,2.224998840700918,0.6027011414026588,0.4938736111578488,3.24305842189447,2.9530404049682257,-0.520789046554406,-1.4514601395160538
-0.47496899240755486,2.4630662050647576,2.8026644195334844,-0.15678772374999095,-0.8505673510395129,1.0214851990707337,1.3829242529285373,3.0963156019179263,-2.4030110776698166,-2.274329080635653
0.6580208504901428,-0.31652698692050385,2.354956969326106,0.8913741056722565,2.169409871355062,0.9523278393062553,2.411216619440545,0.43842066395256396,-3.1565452350468366,-0.5984904998900556
-1.9306679734281535,-0.09300663895429684,-0.8258946994311893,0.4488341442669269,-0.8694972867647759,-0.2629369948396622,1.1296152718865025,-0.5329677782635165,1.8001883593510386,-0.8635570996696624
-1.2427339108310196,3.108615270379951,2.7200899405455594,0.12352610672463005,-0.16549629092820617,0.15298606600841894,1.06685543178701,3.646581220070504,-3.4359926548861126,-2.4651938321735876
1.9751258649581254,2.9090732556073897,1.973794016713724,1.3831524624181153,3.0282805247510876,0.7873689809270276,1.4885406104075551,3.927449987431918,-1.560858029585512,-0.3019436982862186
-1.9125228851220029,3.1743921389200276,2.8953362166951213,-3.339445714233196,-0.04497244018684177,1.3068871297192488,-0.19384032262840545,2.658082934070446,-2.1181510009820537,-3.714910866223652
2.058189043922029,1.2591122698326815,-0.22771166622862293,-1.5850590666786657,0.5237168214665626,0.044164449000094835,-0.18058492379881141,-0.30422772422224165,1.0504814344983606,-1.1995128891021387
0.5164678746474912,2.3501527205934467,0.4146208917809049,2.0085564955797377,2.2557225160405494,-0.936678740626464,2.949982422332758,2.8292140686844216,-0.5010538700768746,-0.7149450799082813
2.139424838272074,2.785723970403354,-0.6283506132871071,1.9674820079931892,3.2302607635133107,1.670241632930754,2.200658332190645,1.5670192473704834,-0.30841103731605934,-2.0871112495219575
0.02125090553469497,3.291050741435633,0.023370895531813707,-1.5799174355194066,0.38767581348193203,1.4182529312078107,-0.7480455421932609,1.6602906243003224,-0.9768535922342684,-2.8436644813068996
0.07649435672423577,2.307729368917642,0.17065157912000095,1.0916536759902604,1.507310253891704,0.2896415979375275,1.4868337429941114,1.4916450181353362,0.24709566369354044,-1.4441341169799928
-2.3016183959864165,0.7749083034009452,2.7583442152088065,2.686059180819645,0.5078011074788922,1.9005323291422065,2.8736527838272714,2.473521677588053,-1.7336642509387228,0.26507408734895554
0.25240400369135507,2.9736821397274897,-0.1669390706423669,2.829427548836784,0.6660247852106045,-1.2893245236146849,2.845961953054071,3.0728686549099837,1.315710801395374,-2.690477840857004
0.5327800942642344,3.314544171732768,2.114809951612545,1.5276087684343576,0.9359541249532257,0.7048030906691553,1.5391688740203722,3.9709150295376836,-2.293667139863906,-2.982301308162397
-0.22912621647157128,1.1397199341536215,0.8047304968303208,-0.9141456226342294,-0.26257924948811817,0.22307428886359948,0.985432018472034,1.685420263483867,-1.0359572466671512,-0.6233768513939725
-0.5141137782003024,2.5169571595352633,-0.3650044289038128,-0.9835780744181976,-0.5040992216155558,-0.9728358644687432,1.8124905390473809,2.466952609329598,-1.015874775520462,-1.3235968852151738
-1.0326514987817639,3.0227709394597966,3.156046902061907,1.9742855576644036,1.2647761585479471,0.729853294820408,3.0098122947931953,4.4853090537934435,-3.2279023495280903,-3.0873339856383217
-1.3983789355288088,1.1631361025192022,0.8373896727773766,2.9640814209968953,-0.8601842085998272,0.552388654258424,3.3409266566868183,2.1546196468736687,-1.3548311530284318,-2.395645158812414
0.625752081842065,1.1224041784610548,1.938706174402367,0.15282109183361633,1.831107419551409,0.19247446674212956,-0.7113130336529442,0.9050843686501227,-2.495735417427584,0.5463043277492402
-0.7050309337929401,-0.5810596775470102,2.613218953508422,0.9282304378868718,-0.9351490428956597,-0.8762323843115638,2.13747898885123,0.13425936216593443,-1.5891742582487214,0.9213179196391355
-0.5598177397960472,0.514404460540463,3.263991979278625,-0.6732874093733008,1.172998471929731,0.6875166923889403,0.7996376750948162,1.6877909810152103,-2.2767146612112867,-0.3949090924816117
0.8758374769765125,0.04784947769132719,2.1327071671474127,-0.18053772728421627,0.36234192737067383,-0.5708144032051409,1.2388454985985944,1.0374971358476108,-2.153424216302921,0.6007959113085389
1.9988484256181576,3.033772752039356,0.25023168170694277,2.1804581049729297,2.322903494609456,-0.7711873126088312,2.014175299380488,3.673222543420792,-0.448658576735493,-3.2865630608565946
-0.8236690282595587,1.2040748304502276,-0.23486684498747523,1.9348599238191941,0.11823216800158076,0.7766848729194223,0.6586859048308371,1.9703054833681257,-0.859940594797472,-1.3701886653518585
2.0075821190554923,3.15657186079145,1.4708373321125339,0.5218779185783954,1.9702438649011076,-0.03644924749033107,-0.008684430268721788,3.3672945788429263,0.2856128872349261,-2.217139707509781
1.580315164155678,-0.05129323728921842,3.0776613235110037,-1.4454939098864181,3.2383810005642077,-0.4218892609894594,0.14560127313048854,1.303591722202297,-2.0690769236713416,-0.83700500243047
-0.3150190582389274,3.2770650262489625,-0.21731192906138252,3.2228349675005026,-0.8470883176951107,-0.5447442489183648,2.115237498366269,4.523490330122766,1.7678016589782874,-2.4540383404759067
1.4127575761988767,1.0187281459930748,1.5225667693564917,1.1497358451021729,2.471507101700181,-0.33568897762157296,1.9991170467738302,-0.041512511928220475,-3.204364570829676,0.16353489580778385
-0.03688232520095491,0.09869006239718026,0.6776105001469588,0.271370849718899,0.4706014454912022,0.8154705326107321,1.5086833749758344,1.674868336408047,-0.10058847015950202,-0.07193399416094942
0.7236925024133976,0.581520945579244,0.25142082131809085,1.6452622964100265,-0.3374614097689733,-0.040458360628950474,2.5959893052230205,0.705082445525671,-0.3779159574430966,-0.6052381745376236
0.0951370479648761,-0.36866607879561875,2.15423186796189,0.6536395230680749,3.1300039545813396,-0.02104928766838546,0.6176250424531713,0.012759455962150223,-2.0940190950860442,-0.4216423490550661
0.13712297633980997,2.701667127210536,0.2323707181188095,-0.34234655938573544,-0.9119548029034429,1.3086811722795249,-0.14928550432130172,1.6773440031536029,2.024435571425691,-1.9442871843029326
1.6093363176333628,3.2579850544589135,0.0836465093827159,0.3677519354012355,0.9992140235998939,-0.04341480743713114,2.7743611162227424,3.618123214104956,-0.6339886757098466,-3.152346389449884
0.47069542019515276,1.9364235918509785,2.7247459571919395,-0.38220990235652574,2.667266580255893,0.43215601597260084,2.5524630487695594,2.091056434711586,-0.9914100661427072,-1.1171643188604774
0.9610973147063755,1.1271906910659948,0.08123319030491327,1.9378408193259533,-0.40131166007065044,-0.2241239679156456,1.0190732162698386,0.24646373279626677,0.7967671877616718,-1.1741512775251544
2.5461742011267767,0.6989263640013925,-0.8355037010215325,3.6263513015060376,3.2138101093209084,-0.22495684937515062,2.634367175749819,1.2634443656229108,0.662501462833119,-0.008306799714155322
1.2104936538448818,2.223153690110627,1.7740784607625324,3.5474404081531823,1.2079212626901135,0.11389440187823277,0.950942578192737,3.792853147867839,-0.9985062417149527,-1.6266469807720871
-0.05135243602682771,0.9656799336561623,-0.7626333040418913,3.5326604124519347,-0.6270890319167538,-0.36670182083254294,1.359480531186097,1.1081711316155787,-0.15205064642641944,-0.08018435336905258
-0.1318027013070251,1.20067814880515,1.2712131541463654,3.322632309529814,2.1768961023293882,1.10936457219519,3.3339762832847963,3.048961534847769,-0.5200811957552337,-1.5936223322393896
0.9031227439687135,1.2848209043125447,-0.008417950698185184,1.7944918245417747,2.493428457235857,0.1685060015820275,1.4579121533884716,1.5839821705741288,0.2934055430367808,0.006707507344672038
2.607187516531064,2.4471268592679003,0.6979252343117466,2.6831227775219775,2.75297710848354,-0.09222548469336311,1.9149511053720523,4.693408098482979,-0.6045403446781159,-1.201369069675009
-0.9493748064612446,0.8362024227740126,3.4287542325340414,-0.886131253475983,0.7593137724183567,-0.6801948517397961,-0.8665915982481703,-0.06543863640954234,-3.1985281477497187,-0.5102119503575154
-0.11766013275940429,2.040001560233276,0.5477099557380027,-0.4009104753787832,0.7618315608804753,0.934641655239298,0.6428514423912302,1.8695764103644605,-1.1298891899946284,-0.9544746110412883
-3.1398991095462323,2.8247670066116393,3.1655182200840652,0.211052191538031,0.7304647452088198,-0.2654380669990353,1.4440995818694904,4.152947317391708,-3.296604391411591,-2.2327735096361163
0.9942512970450372,2.1311822450341382,3.276007452239356,1.9821907925076787,2.4983725305434623,0.7819628053766797,2.388768504827989,5.8191181919240975,-3.0281422759472587,-1.7875688374733403
-0.6332465555115181,1.9060339851567534,0.8503819580279501,-0.14599216658695546,-0.297781043861588,-0.5081371795130399,0.23242285351572534,2.9612634678578846,-1.589450756626098,-2.381814761232015
-1.036878542408167,1.0451860153363741,3.29165954463088,-1.0720030502263092,0.5114712367026708,0.24811543338058964,-0.9005052918535846,2.1757108074639024,-3.0516317452637196,-0.6888828786283815
3.362303471639059,2.9714218080302937,-0.7309638836029058,0.65968768560408,2.4037711842244884,-0.004781189823622191,0.4468877272029603,1.8606005740894664,-0.5700454643119409,0.14716327879760954
1.6188941218126998,-0.950161535093185,-0.7391647930788077,1.0039288026909619,2.945050915967779,0.06023884810183118,0.5759102436476051,1.139721150595902,0.6089270586608965,0.8650405878729096
0.3520469207915907,2.7892960265737385,-0.07986911182970391,0.4012622856095164,1.6172115855924338,-0.989630557166588,1.0311778576326867,2.1732045403098,0.3503387511899113,-2.1366027396192933
2.5036170914224773,-0.46340058516233573,1.8117965878710822,-0.7340519387042769,2.984751562143647,1.4579884341334999,-0.10960691871042416,-0.015838440758633388,-1.396922820285939,-0.4813619963520551
0.9562440456124082,-0.28755861992265175,-0.6880415425923916,1.7170045651058488,0.22451499692804022,0.23564989137939507,1.9865059637621645,1.57398988405859,-0.11888014167391274,-0.05412315481325339
1.5231728168765581,1.7796521472603457,-0.7216341357803223,1.9080178760837248,2.51857058931277,0.7270646627295785,3.4359699056153525,3.0116741374479865,0.6463450360134788,-1.9219763991516607
1.437400206703935,0.7296567081114549,0.4231413299410649,0.045320158617824124,1.1277510253724237,0.7989442606237572,2.5720201138008254,-0.1437403195370024,1.3231752123408378,0.6351597978281468
2.2378796421781475,2.805538987685194,-0.16509813088363823,-0.2599486458557101,3.1158843630648896,-0.5158031706946177,0.1976398155182062,1.2126685651664135,-0.16670720572421766,-1.434210035054277
0.4366770403634254,2.0824197577893986,2.693495650062332,1.2265683238686371,1.1669950582656852,0.5419623185082068,2.218978438067037,1.75818964465165,-2.5116601394251235,-1.4272570965968214
-0.7026155523544896,1.2966123398951481,1.8956021766951037,0.2897162253139092,0.05099399392373738,0.3869841948119634,3.052296427669037,0.6171145508548119,-0.8186194859880241,-1.9335099505983115
-1.2414014445534398,-0.6819476674036903,2.832695501483269,0.3821607466717294,0.6080840661810785,1.2674698210465567,1.8085775609249937,1.327514231352706,-2.874571206176987,1.8429159298924218
1.2991722003839001,-0.4562074790422167,0.8813870537182302,1.295270732336239,1.7510602835909643,-1.3766218141012434,1.0501555979357104,-0.7650898683699188,-0.7739548620916167,1.3033412229764112
-0.34287018821135795,1.6300251188611474,0.11651318274809452,0.11725562401625678,1.8981709942962008,0.3609577258031422,2.3018078551566794,0.3105244972759723,-0.5015929698995815,-2.2720984696557727
-0.7024869026668961,2.015928597500925,1.0929564112888865,3.0117075805797473,1.2391868334744016,-0.8716142064367495,2.037647111679585,5.796790560423961,0.38739547689416487,-2.536535474943182
2.4603829152521115,0.8289375514493482,-0.04479713624380166,2.7076933773968195,3.3649253222790083,-0.5710890982374638,0.8068450724908047,-0.32124912895728824,-0.3824924802095945,0.49653715263732895
2.049058729147624,1.183869240872272,2.5572130323459548,2.508612098297493,1.2614934400365705,-0.9364454904973786,2.167841186890206,3.355358732312644,-3.868908296467905,-1.8300876627560376
-0.8292787467979001,1.7199187199817167,2.1570849476021037,-0.9823512978188638,-0.8022206122047344,0.3061884008732701,1.5209326922667428,2.6952465261043117,-1.8540851252405737,-1.461239755822905
0.5172046642882546,1.762317828734779,2.269898416384612,-0.34784596294857784,1.438503366804849,0.5174670669536465,0.921553556375101,1.2246891965599485,-2.5189606472482318,-0.23086931578017103
2.2928322123470304,2.360106983827005,-0.9698025230401426,1.2654370000023487,2.73208436986467,0.9373152127349167,0.3604900249247198,2.8904461669716337,0.41868232530394073,-2.4415485759185622
-0.3514758098456434,2.0090819042154635,1.1679167934359485,1.2908279484464176,-0.36184348908190367,-0.1930844574621693,2.725385435916813,0.7331665673633929,-0.6700704917730849,-1.2640580227803724
-2.041628708298419,1.372193994740741,2.5315196070481427,-0.1295071085021957,-0.5813887791397101,0.14494084643767585,2.189918148823884,2.503734794928171,-2.3350986626880252,-0.7339381869465835
0.011757022885513502,2.506101022266643,1.442743461165453,0.6300735671208382,2.6090322135111235,0.7298545077805085,1.4041026315869392,3.883931359794098,-0.20524047096861975,-1.901606400542214
1.1937161132589975,2.0039808961593426,1.819852939877776,-0.27658846214102867,1.649442521439223,-0.2558453330158836,0.3476987585928364,1.862392162842129,-1.0775332019725357,-0.31376270893310293
-1.5309530208073607,1.0264886702962186,2.4920874879746444,-2.164715011250585,-0.0641970775871139,1.4257059604813656,0.38303348157770833,1.1989938610265645,-2.2381911619460446,-1.3692709048529856
-2.2315047593804143,1.1837630316810164,2.4750761174822187,-1.6713722352485914,0.323681169684809,-1.2089630164796255,-0.9390388343651338,1.4565976315069165,-1.8346636089538302,0.08865045121247749
-0.14943619721602194,-0.5725978633529075,1.854589650457711,2.2063375542282246,-0.4889693099168235,0.0812128549612704,1.6491615772949664,-0.41512133048603694,-0.013163666115499068,1.0501454938833126
-4.592060360211648,3.265768466742971,2.713713115505677,-0.636203074045411,-0.15267726185517172,0.5781607403224277,-0.3288826144638739,3.9046502665890253,-2.159468603509394,-2.6772067132295434
0.25277938359886676,0.8564137953654967,1.749349024781253,-0.9411439977320937,2.6753990014523685,0.5345090510081053,1.9385755445319588,1.0816254411455117,-1.3829610953007978,-0.15411761204712118
-1.3386318963972572,-0.6871152570776278,0.38330123328794974,2.1021430925535696,-0.8526077938963366,0.07458146194934094,2.406352774292575,0.7295111144734305,0.363263884300526,-0.552415850909853
3.136804264505807,0.8431184557285312,-0.9569053592040633,2.752424033197315,1.167618569079476,-2.271387611417821,0.8451759202223279,-0.3995304648712623,0.38953225807704345,-0.6537137129963663
-0.7629175018708514,-0.40149426537401667,2.411026586397337,1.788506408207245,0.3634724816727064,0.07786599992329653,2.230589091770101,0.7043953841604449,-2.8260615696804354,0.09169253090024027
-1.4153516716348433,2.8587379361629637,2.791071453950067,-0.9925692337747756,0.31949184077632053,0.0646765949366164,-0.9654118371227134,5.11677204043868,-2.160386613641358,-1.1963128733821435
0.5638078550368499,1.9254966266210016,0.8120145312895113,1.1609142908090149,-0.4997338592196704,0.7125605270604127,1.1497998061030512,2.933777471953186,-2.462710661414477,-0.4413294832630936
-1.2899831082785012,-0.13552689227232462,3.2241723781057905,-1.4677382488622692,-0.7398390965920667,1.6557516872205078,-0.9840091030364804,4.224347249025246,-1.824875749049677,-0.14932412953055138
1.8842754406304887,1.6807870529143707,-0.7518122591802345,1.225483644255024,1.730577892649026,0.36884898411356176,2.2240403410279894,1.2951988718101959,1.7515259835051467,-2.507742589216775
1.518404476720158,1.3297463174625563,0.9195246869202758,1.0367382474000773,2.156506355437569,0.3024662849213526,2.3200910152491625,2.5128463043357097,-0.24743328267951237,-1.3133808580603132
1.8237914615253883,0.7919122121988524,-0.6313058705913013,1.3994336286526883,2.4708840147932523,-0.2029904322386511,1.8914564045527782,-0.36923346430874027,2.044764172705336,-0.33431130569191736
1.8407534989484844,2.090100755492366,0.2630724830558355,1.569418045681186,1.8041256689454515,-0.8399472801708553,1.4470180877568053,4.234673032154456,-0.030876992773505967,-2.321806835751899
1.2684003288249985,2.5565713724402106,1.6500623504622087,-2.614042849775868,2.6915566133797526,0.03145654453943725,-0.8169843473155164,2.19026568219655,-1.5046749820247356,-2.3052137225833196
-1.3873249274812587,3.1654899939304713,2.2343176344254814,-1.8525940439514774,2.418832838839257,0.13204977822278072,-0.8334298227656098,2.811321986632504,-2.1253520216095008,-1.331874780807604
0.9554856982009062,0.9667425192172165,2.842170461582394,-0.2711195183921106,1.9784829409251707,0.27972658991457594,-0.04186144784291823,2.4868943252857973,-1.958548031034963,-1.8533933720251192
4.341134108393963,2.3573106517160323,-0.8668586085453158,-0.4880239759440319,3.360535678189816,-0.6428925345699051,0.05327718410081972,2.080880837850752,1.5718276360768657,-1.0242442897350297
-0.6766130497675549,1.7975312649530153,0.6246708609026332,2.2606146307578614,-0.5747503065750217,-1.4882306603405422,1.3697921168557863,1.731135214372342,0.5296777205080361,-0.6212326423393093
-0.13455799243005356,1.5506625574334953,0.6612179910857299,2.392491886014804,0.5351357144774009,0.6673721357209584,3.4185906436183124,2.788963479290107,-2.687756393415631,-1.0144971881676146
1.8706160729008556,-0.9270784385948809,-0.7176246613269623,3.327473831713714,1.7941258515041483,-0.2984727757273449,2.9146018291834905,0.062397559478278686,-0.09037564961059512,0.7796516437124367
2.6021871532044067,0.9176739689682685,-0.37064466727454604,3.643559043266709,-0.7436374052182174,-1.3799399079476367,3.2248405864021175,1.4138412096411714,-0.05507140336056539,-1.0286627402354085
-1.5894182840012911,3.182611573325077,2.9930226766141548,-0.7906519320281831,0.30783226954086773,1.2454248458174157,-0.3275147272557143,3.5138590862937265,-2.08126677840701,-2.063338477022603
1.819637890659256,3.077792121006002,0.8672050133116398,0.06848842090148063,2.1887452987727505,0.0005881948487593107,0.21662912429976555,3.433751543382057,-0.8724299624533071,-2.638387788356697
0.26983612350902453,1.3456828298410368,0.7724587097714881,2.7049123406311892,1.0960348118556773,0.5116055681912179,0.6931846635663146,2.232932384968315,0.32777563437913043,0.2900724226981183
1.8528718080759679,2.640783760113204,-0.34490997718957384,1.149199956378784,1.3518948466981398,0.52505663342182,0.7358927879049453,2.7074819247265696,-0.18726661980871476,-0.7900779308919794
1.6249228207460704,2.386658752806471,1.8618598627926155,1.4504540557230674,2.5678862228677373,-1.7066411236784278,2.0806850574301823,4.71402570701293,-0.9118638360900159,-2.1304897359040984
0.016044925546078295,0.5952990345364912,0.030102338266959183,0.857876544009267,1.095714090715108,-0.9285934824850923,1.9536816927185234,0.5627488154647161,-0.31779053821066483,-1.0585597749131732
0.9103223416977788,-0.6059196744346839,1.3800501657616233,-1.1091765554438695,3.2831338531335366,0.9220218638472573,0.7470107209766965,-0.4033719349533037,-1.595126534677436,1.507964757460863
0.8521086703600953,3.181229579687913,1.1024084768746576,3.4432163539773066,0.8864564419750267,0.13695218734733777,2.4654538920584557,4.230956217743735,-0.7427155446964188,-1.9968113065823883
1.3378286332113019,-0.14708119984718449,-0.9713491503358704,-0.0462541460266046,-0.17096910006758503,-0.6376868111171169,0.8702458943448301,0.27929478782504935,1.748216596102302,-0.42726865454908663
1.351938997355897,2.6805622906588367,-0.26666071621906273,-0.9580161686364848,1.9881959129252684,-0.1297629312586161,-0.6073890664864356,2.188674358579247,-0.5121489242165412,-2.6611902661358777
1.192849015934598,1.8820110828946617,-0.3475241308027377,-1.1539234737038577,2.471583591844347,0.14986002947002522,1.1301167099068556,2.330671558611208,0.5804158226606206,-0.8298716478776168
3.9584216886515677,-0.4324395205553808,0.0055099788711729936,1.7326669576228122,2.9657296728138114,-0.7320540239930301,2.931870749915472,-1.400191629806571,-0.27300674561814114,0.24233639100016843
2.129292127899476,0.22815672900628448,1.3168980059378743,1.5737100113637028,2.918187851857383,-0.2634096503498507,2.744579073132644,0.8181669711965167,-0.8998760270016244,1.018611100842369
0.7899204234302568,-0.13670216594416318,2.998617027391993,2.1712572115247744,2.8243061925074793,0.8040133220958455,3.382811184426365,2.088331814537357,-1.3745597215729766,-0.3917731412403298
-1.5088807742498014,1.3197796563898017,0.538680204023029,-0.8755481064044713,0.5569848928566479,-0.23338310938484755,0.9125712418439438,1.4970306798329747,-1.5554648826644777,-1.7597898589237277
-0.1679570271375015,2.0732769736310153,-0.3513220963899266,-1.256645050527661,-0.5459528979620529,2.545120433473094,1.2110012109190254,1.6432551887125555,-0.03186762673214551,-2.657203288064696
4.005414782578359,2.3400106866944306,2.168206761221342,2.9336203266836662,2.6352199827988083,0.7826044502635834,1.7071206379730244,1.4188866305380805,-1.5418213594944894,-0.9201763060136252
-1.073946206396931,3.1644752247736614,1.4356215328256066,-0.8195302036900157,-0.9608059561216202,0.29910918375803425,0.4008146607974252,3.175730014074066,-3.676852093636394,-2.4175063945874236
1.9251588832444417,-0.34314618572079925,-0.5451909147635606,1.8832960022563596,1.9002190422803222,-0.3705029889255876,0.0889894294398732,-0.30270618396124715,0.14837606039649417,1.9384389672092726
-0.13517557114720402,0.01635632141420018,1.8055013853306314,0.7829110975744324,2.80840964782813,0.7473245288031236,2.914775045860964,2.7763946217672335,-1.8437624937200303,1.5592631220523543
0.16978636604635272,1.2994435661412118,1.5624975614243768,2.48175207432947,-0.42959755018064905,0.5286086212129442,2.1407663552595917,3.286816244640665,-1.8538983634741002,-1.6624577345373113
0.6626009910847849,1.6980592417133376,0.3615803106458346,1.9469702442969803,1.206127427662028,0.041763657873404934,2.15847779095864,1.7542507116602297,-0.09524507185067312,-0.14713171882187806
0.8888583563537239,-0.36267675765231155,0.3512292411275302,0.022678756876453543,1.3215209731188597,0.418809498818154,1.3321151695064213,1.6418557748925762,-0.9562923220092154,1.4387894810433108
-0.6233835607512829,0.9167816635473494,2.853478693695054,1.3204437546961718,-0.2079533482411151,-1.0828395404736462,0.7404336214439291,1.5753805413473165,-2.6830269278953884,0.3334570688485146
1.256850374658781,2.512228915860032,0.5716213989536307,1.8095264226880703,3.1152145677008853,0.43040378107756994,3.072798744036527,2.4435543904231527,-1.2885403982070815,-3.1877771414369116
0.1705231728545531,-0.6962885922916543,2.210719099369536,-2.019939788057842,3.1610200084808397,-0.11643845630671057,-0.406128809722221,1.8676488634475132,-1.696216158156685,0.06674727914650307
0.09013249736873982,1.7090304907922933,0.074182246309072,2.087799619522941,-0.339484127761406,0.057320423399929675,1.3714601619752043,1.4200327027424957,-0.3319895344626553,-1.890501390117463
-0.20830872580922982,0.9373944367836591,-0.1589742723376073,-0.5284717840390023,-0.08191220817753886,0.4714236685222487,2.16691373432587,-0.8300106770095069,-0.2887753566527076,-0.9810587788447774
-2.400847555824003,-0.5751195420046655,3.4062784222626847,-1.1618847298362778,-0.7758343775961114,-0.25624334934519427,-0.2155031585408106,0.6601630902706135,-3.7012113967926843,1.4986257687423143
-0.20288746209571396,-0.015444509486029268,0.05634191751381534,-0.37003586792133075,2.430225588690739,0.22787374359405543,0.05870782148163767,0.04034861568402687,1.3192410376439412,0.31184456801421745
2.532853327315479,2.121739683591171,0.4101993361588445,-0.12450612785754689,2.032813619032796,0.11199946875436728,0.34428800655774494,3.172393124568554,0.8482174149838826,-2.8957385548696344
-2.8135062177317893,2.3871872494057262,2.677146946506297,-0.7705671813756515,-0.6658044081314074,1.7999926172035798,2.0946235955572394,2.126071519855317,-1.9386009978347665,-1.4302862126132376
0.3025342031743943,2.0839437804319103,2.0637690675963007,-1.45968152539687,1.5393595589055793,1.7001185307204632,-0.30003321266217253,2.191999875140453,-2.3229657438117943,-2.92755193012281
1.6755023865626397,3.3410364558352033,-0.754419781896204,1.632861635687679,1.736423106560423,0.6066824040602463,-0.7457408474930523,4.555979638162069,0.736557626916579,-1.9758201910446145
1.745141013312637,1.8710696000808893,3.1346610148327487,2.14342415789355,2.639908082296479,-0.3392997584373847,2.0587936022340396,3.9356259560449542,-1.613250822168437,-2.4880041452213346
3.0759651199125013,1.5598611032245153,-0.6039281423987013,1.0413020100468147,3.1648986691565186,0.3104074562696427,0.9002085185882929,3.2599336825482608,0.6655097311631397,-0.647555150566456
0.5848687553799894,3.015877117450639,2.7927274600355974,0.7218964001691962,0.7339838907426763,1.1400187393519237,2.191869961327727,3.202252024033836,-1.5157870427275684,-2.0347915583666607
1.710313389153228,-0.8445716106445633,2.7623627480422885,-0.753722647514157,1.8110684438212985,-0.2529157288373957,-0.23213807442229262,-0.23575861093659733,-1.7835978073372154,0.6930132141041537
3.5947555002073646,1.5586641171159021,0.024931984667354135,1.1657663143362602,2.9312611394831345,-0.8352449942354117,0.3167996816329488,1.7728199750488605,-0.14380356423823637,-1.5658632603162033
-1.3939318411535193,-0.854668954223682,0.4920740845854199,-0.8493202698125644,0.3182296254861754,0.5546472436980335,1.2270869975853702,-0.03003820754562131,-1.551128313398918,-0.6765015364878351
-1.309267499663475,2.1332126141375936,-0.3510327707146359,1.5424697110831063,-0.6061722326363603,0.31407851094625955,1.9992602094675118,2.3423258456586247,0.11995706642568389,-0.8539358559894574
1.2650613694140835,2.7051373069548634,2.6619469024118207,0.0015531499895671264,1.259721031291777,0.13901392217902558,-0.8873814817693395,3.9837723049819354,-2.825490506542402,-1.1892457068501037
0.6248507433172961,2.1439942226877604,-0.9832906077339798,2.7394127889548194,-0.12144710615898247,-0.7643568695131409,2.2936823401984396,1.7831915922239394,-0.3566485102600883,-2.3168731626026027
-1.753409474043973,1.6110027318803675,2.4145490912624763,1.4021737833892964,0.002332498583468734,-0.5733953448704282,1.9721731156756421,3.75637646365932,-2.0245956470825455,-0.43147190257083146
-0.6548199568472193,-0.9179978842648724,-0.7618978701478443,3.3932568250954773,0.8027235807566131,-0.5473923507260908,3.191414935948738,0.18615148552692273,1.056681655109815,1.1320041259395304
-0.9797491268993039,-0.3912611609324188,0.15957412085481582,-2.2431943631750118,1.5018925387779518,0.7441551139315175,-0.7911748874175203,-0.7449988720342455,1.287810253088111,-0.11897379432302477
0.2115471328724381,2.05399255356225,-0.29810546744770716,2.6480686298670455,-0.6483697724675637,-0.5835959702810347,3.3515790940957118,0.3662896269609031,2.585008811062257,-1.2362436112874609
2.888408676052535,1.2859010713840764,1.206489548095123,0.9199707035853729,1.9208094687809925,-2.0327679070391267,1.1112814226870937,0.36943948020586764,-0.8976168812556032,-1.6078779472336766
1.816238575084565,2.815447339529329,1.135087938333295,0.9416672742733044,-0.4653186400386332,-0.29035061403146734,-0.9219563114424297,1.8587077338241642,0.09641344474789401,-1.8884604481008025
-1.561615432998309,1.5909903929194322,-0.37843967995328687,-0.29422264842815843,1.587696374042269,0.707560564332274,0.8567913110705778,3.686185528007152,1.1015003307778695,-2.2782096512609207
0.9276909449703763,0.6842972231014786,1.730444017372986,-1.242156912781244,2.5787937952314364,1.0829426806406504,-0.7943117777237151,1.0383199343462677,-1.134328439328831,0.1993190752535063
0.09023296485592036,-0.12671078883864295,2.3829249392931593,-2.3732661106326,-0.5417883841515849,0.3018574282879246,-0.866862184514585,1.0372377690890906,-3.0238788458403034,1.4221919786243127
-0.25843378240033255,1.056416963366762,1.376315707685292,-0.9692063539567197,1.026559638143258,0.7265525207723545,-0.28328556754790957,0.18092623862282886,0.2879698161418574,0.13198656887164006
0.6371924546644562,1.2854767818807202,-0.4156872366019779,2.1734759177123695,0.8696578959908376,0.7151961452137046,2.4896417471844203,1.2107488935481518,1.8273588868374826,0.02014766824260839
-2.0250675876999193,1.516350080053296,3.018932885501404,-2.6499684296946704,0.9060472507114683,0.9288866452908193,0.2464156848952388,2.825557940290115,-4.0039502118443995,-0.6638744445995872
-0.22083259787337017,-0.43170917528122965,3.3560437041472246,1.5916383456978238,0.5797742627043776,0.3194095095250773,2.258663955959026,2.1980590099019763,-4.08593562536383,0.45374669618400326
1.664342882970226,2.1937388440355683,1.544963871260029,-1.9074693633768198,3.0410287157070917,0.5693858278029664,-0.1255649935496761,-0.0665559130017066,-1.3910279395349447,-1.396742388308054
1.1917999822328773,-0.4621208145977277,3.043253881910938,-2.125682083695364,2.600321903578262,-0.36981487109858435,-0.6826185683320253,0.42079754748285686,-3.292974020660261,-1.4346825506717227
-2.125468949123939,-0.6751342871116675,2.3456048466274275,0.21909862054109217,-0.8506459655895295,0.15692262702034984,0.297371119874418,1.961133770202487,-2.2871963469638947,0.17904561160718044
-0.46233211925298234,-0.939193700801761,1.0771668619572425,2.1860661355145545,2.484232716023041,0.6239316000073356,2.7419784288411786,1.0242672887185713,-1.0815564993049316,0.32068133802692084
1.5902760703083239,1.7026554398642708,1.9656920995310467,-0.6318186350020785,2.63631981145804,0.36986980748021153,-0.9830877572231737,1.0415787545840027,-1.4279579743111432,-1.3867254085055738
-0.8568430770863371,2.738999248309863,0.36595010795436766,2.1413655070011117,0.21349074904295584,-0.06867497789486146,2.7678730657668673,3.0495129069713403,-0.8841974269049601,-1.1037286261990795
0.3927849152162952,0.20925788271393886,2.2304587152717033,2.4983466997821706,-0.4605377352412676,-0.11733352186704102,1.6842615262469884,1.2706569079739867,-2.6745603228539574,-1.3528825461739067
-1.3607603145026217,1.8682635617428933,0.6837758955846258,-0.295978993862616,-0.8519726331618698,-0.12933062655106867,0.03866680353134644,1.0013173275911673,-0.8212096690815859,-1.4940199663762415
0.01855244871993522,3.426671383254001,1.6116149277978882,-1.327001316467355,0.41338177331200576,1.3278887172454579,-0.6913065637662135,2.453041709774416,-0.6702034399062107,-1.6697084383748424
-1.2642927259078238,1.3696137430556736,1.5643265471634118,1.1136637562557492,1.9558244277962524,0.5124304804455384,3.2056082504584946,2.146483066620692,-3.028030266345635,-0.7310434606954963
-0.6320826232581402,-0.6450943775245066,0.4201450881197373,-0.42480517194288836,0.19264556549044043,-0.15355798139577578,-0.18215667330598317,-0.948154969354343,-0.2827559954263772,0.10850621897720458
0.1963874114794088,0.6098040630761812,0.8973512060690643,0.7961151455974284,-0.9669094224365653,-0.6026702141984781,1.105008983586509,-0.6836556510119665,0.5526717357155806,-0.3914042450981182
1.8949485545305342,2.964886270323671,-0.06039449536371655,1.6301919162665222,2.05241920253048,0.5116867490548427,2.622854207083257,3.571440461136053,-0.33827482852648616,-2.6128071092556584
0.8200100768077602,-0.5208041170575776,-0.7265140305117319,3.237703764486543,0.9261915783065593,2.1637480169170304,3.1230914887028414,-2.1415364453759036,1.081867519920175,0.06393377184914142
0.4972997412130214,0.5442553005214896,-0.68758930979074,-0.8696878096779108,0.14424473352478961,-0.35513400636732495,-0.5749733019493324,0.22257292045577196,0.5323619205679709,0.12658050266939724
0.741199609533241,2.452272072558438,2.288630918091464,-1.9243155532594456,-0.7928106463957088,0.2813715183176013,-0.8050772269970028,3.3571958191334423,-0.2589461833261258,-2.435332078846494
-0.48471529990940854,2.752407350661825,1.8256842545032899,0.7343172934039487,0.6441002246895611,-0.5030844833160187,1.552748967837371,3.0808990720609506,-1.7992292405716959,-3.1542832926053745
0.8925317941239475,2.462374212478972,3.2259555424349173,3.501001492955107,0.5465343315813986,-0.9316233472467867,3.1717170608590237,4.452315649620097,-3.562151973750408,-1.406844794940587
0.105422829254764,-0.7416425420108395,-0.6785134813914498,-0.11105145257722479,-0.35889827411277153,-0.7959673825255791,0.9114590023521953,-1.8233070188796638,1.0975257722509264,1.3047019271879015
0.5412630661533854,-0.6444994971849685,1.591236482232668,-0.6396308550081689,1.9382452132773582,0.8130331591525692,-0.13128676948555662,-1.3489925119032202,-2.121945435321314,0.6345251376627986
-0.04253808975946066,2.866998327137883,0.015781716435744997,-0.1959221538779639,0.018850747965349912,-0.005856013502266263,0.32719422486194816,3.4377748152913856,-0.23735606252335875,-3.176182775288014
0.5425011921631977,3.2425191608169284,1.1754196369330416,0.629846727362632,1.4789408879989696,0.5350152349076617,2.6243010419860013,0.6442978547662879,-1.5002188738309823,-3.6357847724081918
-0.21907546940787687,0.2921811203547824,3.385891161007951,2.190575556456543,0.5016005333907119,0.2407475441382925,2.028939732708691,1.829736438530942,-3.5664173627755527,-0.12790971417806116
-0.6981004024428344,-0.18750904153818815,0.5082728784414421,1.4374891596497679,-0.6133359419859112,0.36485748987414357,1.2697060113523713,-0.8666542652698175,-0.28744413025113424,1.1907187785506248
1.4876026525976855,3.4452947751903444,1.7835974134963504,3.7289860125675176,1.3415754669134765,0.7518521259217871,3.4403756965122216,4.4462125521076405,-2.4729652672459324,-2.6515268311842815
0.9380185273906192,3.2696271929652303,3.0026221275251954,-0.7390248830193128,1.6618050610281125,-0.5696251215305963,-0.04065338709037014,3.7595561222218388,-2.5677393097502677,-1.7750167748289167
3.289957375733807,-0.3524325742792471,-0.85923009556457,2.0787131322102494,1.6353750033186696,-1.5987870687297974,1.8850648384543107,1.2861403853842317,0.0859761749949838,0.7453121885615086
3.5535854166911727,2.8590861895395525,0.6958054729651708,1.727022818728212,2.50111310281998,0.5514468354381792,2.4318315294228685,2.6334325139856425,0.1217347063835425,-1.9330376119508206
0.2899698603558512,1.8705797640725348,1.6883454463044467,0.4955591313885117,-0.022564731474618793,0.018202840997806644,2.0069743737542933,2.62681005475438,-1.9551644359640836,-1.0122247628442422
3.8455297755264097,-0.5693071314179112,1.4439895177329833,1.5186359939420528,2.856370076663209,-0.571777071124054,1.3499072489091355,2.161475319122073,-1.6313135529569687,-0.7154284091091971
0.6403597729577641,0.687562579077083,1.1378787065751528,1.6864398426582667,2.743682972084319,1.1190456227516046,2.8790306544902533,2.228244565758039,-1.6986255970229527,-1.164186480591943
-1.3747066269999375,3.4324548581813223,2.305714163624252,0.5379699219255867,0.09967800019352868,0.9090594464124048,1.4188565801474025,3.769545630802225,-1.0464241892058048,-2.7695551628545663
-0.21130843236355634,0.8201443597463409,2.4275093814473907,-2.039223737944997,2.6559888053381044,0.7812674414483299,1.1797631095783592,0.6559972194298688,-2.289660991734448,-0.5989028997361496
2.1654983913725943,1.0442394977561777,2.7609480190130653,1.6037933768216575,1.2670749480388364,0.6296013908497634,0.7563389775023392,2.8111041135681063,-1.1320758404984583,-1.0342104257409481
0.08667427320620003,2.048121610352323,0.6084947814475727,-0.22478083182980269,2.994018474054275,1.4014368560814399,0.4665224152424161,1.4816791296219873,-0.9962852838518191,-2.0475330723742364
1.611886492410306,-0.8946948035470048,3.0155635957102342,1.0028821382318993,3.384907460393343,0.36838291967853565,3.2118744344471413,1.0041393380614754,-2.205471780029169,2.330393653548912
1.9090260088917383,1.6557909891018316,1.7383110530186956,1.3595428202749322,2.628682881652468,0.3145011210184444,3.1904738157657313,1.8809703411027936,-2.282609825447415,-1.4386327737623092
-0.1654329345730201,1.655409845744542,3.359930764762362,2.7072883981569476,0.9432302637728092,0.06384768041287639,2.225838507062713,3.268965892266858,-2.9789097557580226,-1.074099288664477
-0.6298323235760196,2.3715719766141174,1.952202227791307,1.7947897904187218,0.8370167038735916,-0.7461734662118444,0.9686418843146611,1.7930428060688601,-1.8475744218179617,-1.7788503771655253
0.575523806699305,0.4565068040212179,1.6282904203840234,-1.2748635952845593,1.2477554014910832,-0.7236527999646882,-0.2945243636610093,-1.2879132255369363,-2.165858487754477,-0.5851589109163651
0.2374895506327273,1.5164256254067001,1.006819041849727,-0.5013729835010418,0.19285000152110476,0.6010838565638003,1.5540571488651485,1.747870475211015,-1.9251332040506313,-0.439925306155014
2.5666198293211506,3.3894033666159853,2.522081948765561,0.9506555405155752,2.345078844945457,-0.303668288959065,-0.9167269618658622,4.5141318432154955,-1.5379458060127986,-3.120408338786318
1.1660743007347296,-0.3094570510770468,-0.09038978923382146,1.5016773164437143,0.4881218181473015,-1.709189218868744,1.2712462553953179,1.6370489306121625,0.5768219748135403,0.23113087902334098
-0.3955585907024063,3.094111238639745,1.168645442716997,2.4477262785879446,-0.004868628240443096,-1.1383074466422425,2.953545921520716,4.945106135864383,-0.13812969616666146,-1.1176815550453736
1.2409833683744198,-0.2906646241423704,0.88028234843216,-0.9267670865186598,3.386012982804802,-0.0878337458657683,1.3236073914022533,0.8889117375175019,0.27542582946968935,0.05477482929453584
1.1892324713220401,0.9305525326400856,0.51887163372986,-0.8902839329695338,2.045050423108176,-0.005697530933789145,0.6596366797609745,0.4275187926292072,-0.6119560781097085,-2.003101778665107
1.29484717537305,2.380983400102108,3.2981221672323473,-2.173919349611101,0.9236990693322287,0.863971644153905,-0.9237674398040558,4.022629081677335,-2.347116468795359,-1.6240973625324124
2.271382804085099,1.6526706238527051,-0.6877004906524558,-1.6934970696202853,2.161707508961397,0.05813103076006379,0.6052655750311307,-0.5002389460224447,-0.32018402176401695,-1.0497183828170302
-1.1849489857871418,2.6322872790652303,-0.04416839240723991,1.6424203446169894,0.23647058502695795,0.16320251118990037,1.2042633910035878,2.3549094422753503,-0.38509893867003475,-3.43143689108616
1.933827963096556,1.4426860329950877,1.1187208395629242,0.3590148163870802,2.6340342822838383,1.2259788851811195,2.0419983347937465,2.3377699548849913,0.08004601633535136,-1.4395162258273457
-0.438374031087422,2.017701154638748,1.6222692418659586,-0.25316158137046607,-0.1192817397499385,0.9268011306730386,-0.3620852814536367,3.1376440516489175,-1.4093900393620649,-1.339573474539819
0.6871434751224531,0.34757305633720614,2.586586619282488,0.3202600885714595,-0.03780103830730264,-0.5716832782826482,1.5328549709941406,1.5710215823963127,-2.0287425581173233,0.35665226824576074
0.7329085439290832,2.4061291887226477,2.135767399855039,2.0084979824413174,2.6400199218962945,-0.6883062756229446,2.830697120945982,4.508833319891146,-2.6921345988904033,-1.429735500671272
0.7424002785853174,1.9982297762524346,2.914300786038681,0.503372372982809,2.2138814751054525,0.6537453492224701,1.1715930925931595,3.71642199276246,-1.975389796949966,-1.2759896394666366
-0.8731570976904818,0.1850973315545552,0.46007255026375304,-2.27722711555851,0.6955534148396427,1.1619135036530437,0.25457223712667276,-0.29219177155392445,1.2326784922444902,-0.8111592847111417
1.4390931983273048,-0.875452796198432,0.25098693442030373,0.25634802860006767,3.384013742602937,0.2653084363080398,0.3682230979212606,-2.502258783843437,-0.10630856597217382,0.8774622225926718
-1.3348919833645612,2.2010077850377834,1.6841521289566828,0.2385025438719569,0.8274749256137195,-0.02639351596012647,2.1087481882312513,4.315983435455157,-2.0706996574531567,-1.6402948864465785
0.026909893793558015,3.021588056511069,2.7482926868133806,0.3127045795096306,2.182312781590335,-0.10048700263656894,0.9826154918529926,2.886265028371837,-1.5725497050926232,-1.8999242852038252
1.4761858470155125,0.5313011964480037,-0.17770281578014557,0.2886372574482956,1.474473478531273,-0.7095553493003907,0.7195408118107884,-0.5243021217785921,-0.20109612719101178,0.961977829667086
0.7414228347199906,2.749706763349919,0.9760931077690433,0.733041962206596,0.5674848833063753,1.3185155612352721,2.167719448663186,1.943071686032527,-1.6160799407100812,-1.9367026640629428
2.308534437180732,2.2717780085425785,0.44227095929301785,1.7802617203018556,2.5495039286645658,-0.12624329675381957,1.355193480859762,1.8555531452629115,-0.55698844445907,-1.294375381441977
-0.4005012309062743,2.9435087793383437,1.6875000931042337,1.9346556769866352,0.4712921270122732,0.67018852476934,3.0423594452228606,5.591543897322261,-0.13870941973944698,-1.7228303897292112
-0.5208093570961007,-0.8571588925335877,3.143353415237047,3.1868350021790572,0.4246841540803803,0.23767530849653778,2.9620928528475186,1.686160047653832,-3.654330150488844,1.0694639602290315
1.035231108346148,0.5656510193543236,-0.9221668250687358,1.4902226646899495,2.6252173504663805,0.04116810715839515,2.3161655449584893,-0.9869142498664919,0.7774393918651304,0.1201642419946613
2.060212879259941,2.279466040824461,-0.47558728539124373,3.6322181721342477,2.9475370493407875,0.03552766702858386,2.1911985756915793,2.751417767778644,-0.40126270295792715,-1.5003466613641123
-0.5967839052032045,2.630398300563208,-0.32073338582079236,1.4795450483519774,-0.9860908382546593,-0.7718119814206083,2.403944871054215,1.376005777502092,-0.11418157238480343,-1.3675658810057674
0.8959358974164805,1.4814756769982478,2.7513362363829255,0.15136069414837328,1.235635390616796,-0.8205461204804705,-0.19132889795359542,3.13662329107173,-0.4454784023498133,-1.9800795830588855
-1.9585721335315789,1.8094811493301517,2.366781529101515,-0.35578459947260094,1.4463291578314479,0.5170063151638005,0.8923899777776572,2.3084637368153946,-2.231089849659563,-0.7392231132349067
2.1579018019116263,0.41390467885761795,-0.4591362237629316,2.9960839672894006,2.5282097121662077,-0.34536151392730097,1.9405295010847077,0.7362072296222678,0.5180763578402288,0.4816398410373043
1.3796965547992628,0.01604433337388045,2.1218396306490974,-0.06941084883895932,2.0468815023794895,0.7908014844656351,1.4911979198770884,0.2586572062449337,-1.1376784087831997,-0.730030598685631
0.09559820312272027,0.47275196319019686,2.803300781463848,-1.0319606912243766,1.2631727755230107,0.274884546086526,2.5803829441197337,4.264054208192674,-2.1171214089692465,-0.5958592472940074
0.9371143293003296,3.379144706788333,1.4969840097967948,4.062821782255673,1.4090042072174365,-0.8372719181756202,2.8113523585157205,5.423910206304941,-1.2198048527037302,-2.489992505680828
2.529577773191712,-0.9920944947947877,1.2826143762623117,1.4811234801361526,2.045613354377999,-0.3538562458803451,0.009286627662704161,-1.2629093861192542,-0.6639549477807659,0.4134006179842478
1.1835174748605992,0.5290684798900902,1.0965390190853266,-1.0939348133889857,0.7208156560483581,-0.5491065285587146,-0.6935857141983872,0.08151838893462593,-0.6320966617559677,-2.2365312460676794
1.994318121726157,0.31645462996549,0.05157691005222609,2.1607353329526036,2.2690137087484286,0.46559450781607403,1.4804033869610937,-0.6593923873792474,-0.28656624447022266,-0.3905344936913012
0.7707689166491822,-0.5273367877045102,0.7897188969338984,-1.4488604506530804,2.760349640546987,-0.7945969677752259,-0.9289877745285682,-1.0138417735360876,-1.0846934851948389,-0.49528439364346744
-1.1316381707000012,2.1935257300221505,-0.44394968741858376,0.11423503428174941,-0.7513581048207802,1.4091125333993704,0.18551466884673817,0.3167202175267379,0.945864358831029,-1.2390629013316161
1.5227159132707326,-0.39619326466177396,0.4074740595757653,0.8232507957020623,1.592126976942256,1.3117201913567025,2.204628084999444,1.1989219396719613,-0.1347264926095171,0.686253564931402
4.005951371507888,2.642926210413652,-0.22113591882084527,1.4623183216103897,3.2198555970550835,-0.6536168239249407,3.058515607144571,1.843592135476506,0.8881952003946355,-1.8650946762513336
-1.751382111241495,1.8494970906905523,2.2147413866457217,-0.07957784637644505,-0.2570640171496875,2.325035729938363,-0.21006128636845822,2.6612470016258083,-0.4745494057428711,-0.9412043416924126
-2.092851615556977,3.1405226298148747,-0.674765358831328,1.1040325539765277,-0.7893131362093739,-0.3927631277174376,0.783298548521848,2.5928220092681804,0.8551411304178207,-0.6076004309274274
-2.057439382744231,0.44804207260895534,2.957280007903306,1.0638386686181116,1.2145757774043213,0.9075805331047748,2.497429309721551,1.4092552032963588,-1.3030183768844887,-0.45869493083575086
0.7800536123468641,0.8029388056099036,0.7228985658036369,-0.6573432265055843,1.7641741438387961,0.8744645433920394,-0.2144614587291197,0.749658067499122,-1.0446102588567494,-0.6522342079202978
2.627548296767638,2.87209421484473,2.0614487332891662,1.3471866402708579,2.46287675123731,0.04187837518925266,1.2711316049048578,4.604768071310945,-2.940702066824929,-2.2445889904693233
0.9772965167863872,1.7584604860085205,0.9918861131652683,0.31287928698348044,1.9556976380475022,1.4019976716384375,2.756888959074881,1.22209104626802,-0.7982814562119164,-1.5218888431384776
-0.19077021497441204,2.431507014500892,0.5969789018858529,-1.7565878818452658,-0.09973782726598612,0.1472002289742959,-0.8722618282447682,2.577659036081046,-1.4107865821988352,-2.258261909058937
-0.43554202058441926,0.45616948263478374,2.7985429935015342,1.3189390972298651,0.6301244596176694,0.48329935858785783,2.0569206059684584,2.8617895960748765,-1.5482915705916276,-0.45339827510340436
-0.1432354205950842,-0.2335140545976313,2.226868336879574,-0.08000400993209611,1.073957405945344,-1.1728414627046722,0.0024070278323562455,0.791599307316905,-1.96714666404266,0.35696566937103885
-2.3149387449341927,2.1500871914876085,3.2120271651243133,-0.7725297900539161,-0.4081496563923932,0.5835529398657483,-0.47318368797070764,2.8257241374594297,-2.914230470868604,-1.0366099112590326
-1.3696290104815636,0.6167921610809683,1.257563039510218,1.8770468090281502,0.7281895732364201,-0.18315159740716913,3.215805812823068,1.214257338929603,-0.23189604189188717,-0.05304906672780732
1.8772501394977652,0.37616302555786363,2.402444033354074,-0.7192690018052861,2.801460368621555,-0.0365907521122983,0.006922081290207327,1.7481663579128073,-2.8675205400421087,-0.6982784976955572
1.3016523923277339,1.87469314611549,-0.5999208904540884,2.3570558060401297,-0.2644339789151926,-0.10487634250887153,1.2900704661481277,2.2280263999953993,-0.18791748662816582,-2.016948403820154
1.966827924833407,2.679346685357256,1.6396872648428742,2.2487590375645694,-0.07279699533789163,-0.6143619440079382,3.3061692197217143,4.009026922277684,-1.4742452378957374,-2.8444165892201996
2.551030558889367,1.23477080424811,-0.32356914694397865,1.0113224364007978,1.2666346920922447,-0.716765411082529,-0.7142678576985512,0.6831168710446576,0.9546369970800083,-0.2643396402443739
1.4677310575988005,2.112842528392,3.418739623523977,2.3221336674828046,3.193460454003146,-0.15814211446587598,2.407317067936628,3.0084339582797552,-2.4083245523557046,-1.5509705262722362
1.7193623637889963,-0.12824822610168873,0.7143077755945233,-1.6040796735199643,3.285615494416014,0.3342243198987347,-0.9174940681225551,0.9983097118576397,-1.1250180797205895,0.7670383293815556
-1.4853216254770165,1.1660136448125336,2.267201795487447,1.7291849159670174,-0.9472580774082221,0.22200988093485047,1.8856855032208215,1.9684260370022293,-1.610851849497193,-1.4771856287992058
1.9785673219379651,0.49097121807437505,3.2422777873381916,-1.8511426888501372,3.3665081712029403,0.15181948100075662,0.6955590303700663,1.0851311102794805,-2.727049786295773,-1.0708292830728734
0.723905037122902,3.1528298926106837,2.009391662992645,0.4252225457497527,2.0187830255189008,1.1139726411551607,1.8942843663887583,4.235223947028545,-0.20613816609085536,-1.7663253291945225
0.556067101710535,3.0622076592612624,2.1340489381707237,1.759142921204502,2.6299719229242564,-0.16521543076401918,1.932075219058952,3.8367641416653133,-2.376903702069887,-2.1149822280314052
1.066375343769966,1.8791852174621742,1.440428981000406,0.969569475322157,2.7221857013086286,0.8036549027939432,2.510406626525702,2.2092700024254572,-1.1687624166870696,-0.8880402335511568
3.137251493591915,-0.8829577965509604,-0.6424596384750203,1.8463907180108325,3.249493596102674,-1.550765870223029,0.07766947648372846,0.0055604612425011885,-1.051425919877818,0.1743839628625615
-1.1108528760251335,0.5920260552701109,-0.8485805995601482,0.3788811805613833,0.42576629459865956,1.231801821849416,1.2095876139082429,1.7346767365241864,1.3107382955965694,0.22468764108876838
-1.3464223369177062,1.0399042877201259,3.2809950732533437,0.22893970914872708,-0.42181942050714605,-0.18469967663710596,2.13050285464599,0.7160550250021589,-3.6389160332353248,-0.9509436391583825
1.0133987693647923,0.8068218845206414,2.5577478056748806,-1.3360887434899644,1.7448608946053756,1.517381456511799,1.640477161713874,0.9529869870362055,-1.631866505759231,0.7848136826732413
-0.2885868972457746,2.2920512507872455,1.378857122401135,-1.0965149039097155,-0.9472875970143046,0.9975108286291025,-0.4682383909670358,3.5049684502063445,-1.1194371802629803,-2.527590266892129
-0.07684697011513886,-0.5640092615659233,0.3562683005709586,-0.2807448420342292,0.5412827712364123,-0.4555233522089009,1.1615800687990947,-0.18459056025818973,0.08751310580238036,-0.6677601326887148
3.5419727478049543,2.8208958375495956,1.3617896651473798,2.3166251114737766,3.1236502208854544,0.1997048278286818,1.1080832121544195,2.7506125799949275,-0.05833977773761755,-2.8840654363254927
1.1293970787968193,1.1327680433239617,-0.8162300348769281,-0.7131090513923152,2.6433693342505875,1.09137374085278,1.7453333442642105,0.43787614215878,-0.582765107402202,-0.9253228702163637
-0.28820389292729875,1.428844885639457,0.39698615452875385,2.4446408664652233,-0.43525956929100684,0.935319188701808,3.405966211773581,0.8811923212070991,0.30067007589579764,0.04935978934359453
1.166666695263189,1.4050289680212247,-0.530292356422678,0.775854999759138,2.389802660267278,-0.7550144756832656,1.3224865305012132,1.3931175086304473,-0.13891967920291898,-0.3345010070228025
-0.2815935255267414,1.017296374529916,2.399817217347633,0.2534307185622826,1.940255764606949,-0.15776138635844641,0.41470207055375075,2.2306109878610814,-1.7217939783606238,-0.9793197571136926
-0.8071247398228159,-0.6141011849325746,1.071606342839312,3.3076240062504785,2.9424138563404933,0.5860693872728864,2.886682135339912,1.7386098714777585,-0.5358154735668237,-0.006256009229611849
-0.3652699249561972,2.345337617212468,1.0226694909527883,0.7798826099417322,0.8023798797397474,0.7648513291290399,-0.7265362967451181,4.486536625859734,-1.0312739554012373,-2.363710689175972
-0.9155354856517124,1.911282710749806,0.18545428394524133,-0.3869511692219127,-0.23050860868346823,0.15511602214709183,-0.7809831155121906,1.0000509248260876,-0.7872589032506873,-1.0970580960733771
-1.5531494158038166,0.7938723370852085,3.3815781248631067,-1.6022022266417033,-0.3839900486689781,0.5622655964539495,-0.7392893745646054,2.035318573962747,-1.9806229679227494,-0.041751349472500886
-1.753922789645487,0.42390834679713585,-0.35618464150279217,0.5298739732178934,-0.41854205107230325,-0.29093163884067497,1.9324369549399383,-0.04710498049081349,-0.6414921733226515,-0.42326777885771716
0.10572022940152485,1.3085732776188723,2.4943830553212583,0.6906368009559821,0.3227721344844281,0.8070107960014944,1.6861956571559573,2.296738333495497,-3.0650439295303213,-2.2227349030029164
1.0156121447653534,2.476733659761276,0.4674183375720202,2.6538375974029296,-0.35744134108349823,0.41587797238357166,2.8524738908751135,1.3585346160068958,-0.25301084299805093,-1.3328056706101554
2.611359503852559,2.5062764392046653,-0.7318891191898651,1.2117768813288334,2.662806208038187,-0.8556583245918225,1.0465976695624621,2.139127130194789,0.8636142386881295,-2.2169481804040547
1.2563046354687075,0.729911694476487,1.2538297460272267,1.0262906288686264,3.148965911504897,-0.41970304474158227,1.1531667829961,1.6022831933295094,-0.2430896573330615,-0.5204196312625974
0.24367120188675206,3.2217198781754437,1.2963122631013775,-0.22954364396473736,2.506392339894909,0.7167970523780849,-0.7663080754402917,3.030369243147237,-0.8725035672185898,-2.1662095826785186
-1.5252867747054641,1.564154269275193,2.4405770137428755,2.13525426192143,-0.18832131068357694,0.3408369998890246,2.8050706287422202,3.2174865845591807,-1.9719883758597592,-1.1047222371231138
0.774471012446778,2.8016531013880472,0.2054624212632623,0.7944841715485713,3.2372373266543386,0.04915211167687841,-0.1926946872275367,1.1990752871863974,-0.6856957214394566,-1.9576901088750776
-0.7726517824156747,1.5788577411815767,1.898165366395705,0.2691999512530044,1.8134555023208137,0.562641154557185,1.29899442133549,2.712959326935671,-2.688426388775815,-0.647269182333262
0.2375033889668825,3.401520015746006,2.052632457522777,0.3361190137633826,-0.8349912119947573,-0.5119651307239617,-0.9892868990827531,3.922823993343777,-2.5465230272931287,-2.5340842321242123
0.10504332702450103,0.2708950962784218,1.4362381528717916,-0.36838230215205614,0.5859394131103606,1.6346652977679936,-0.38731990650789694,-0.393333420393572,-1.0517999937808704,-0.6810498214620059
1.0098821998633607,-0.41663556015712555,0.11366611309643337,1.3364166405285678,0.8374739575536596,-0.6227102741575784,3.189218125369168,0.0458065902117496,-0.9692219472854808,-1.475486560659819
-0.45423361970138654,1.969136469163578,-0.38615451550947455,-1.6696446432270327,0.7331549957122556,-0.2986765212623447,-0.8387597809053001,1.3717534714367188,0.6483740227528193,-1.0152429170240964
2.1188567190088836,3.40898278842399,-0.9497470166722233,3.5131179283137386,-0.9183867692058805,-0.6197763594210075,1.7468469473362713,2.7684114589511513,0.6138342181496299,-3.000121694709379
0.9836752827035413,0.2645877261195877,2.3664980941339433,1.2869566228616514,2.879610599064195,-0.5520039968628837,2.781509429825694,1.3724471748983023,-2.393499072376262,0.12654521885653344
0.8619504640035356,2.6441192011320305,1.8707456990329105,1.1162877491293646,-0.9046811790816517,-0.20558562566365804,1.417617901345659,2.284897720393357,-2.456596074029343,-1.594122416916132
-0.15795089928031603,0.37824235967995845,3.0436054792275797,-2.2479767530408212,0.3762998540705791,2.287376877557448,0.6961116009676582,0.4990045464356324,-0.8629963400311377,0.24134951748868066
-1.018574241383609,1.354960702158115,-0.21312043883934795,-0.6597497552163951,-0.29287292653534214,-0.01911965768929327,0.8889940919241051,-0.17125254854221728,-0.9852508415531236,-0.592041604006283
1.6654603355640623,1.8596722652828785,-0.8520817971498599,1.7238991259343728,0.09155644492382953,-0.09160438645598146,0.45954121456731123,1.3835903842725183,0.7692361015500352,-1.8776294836016114
0.676101483642439,1.834233255282316,3.1982342785636027,1.9098383223070157,0.9449048260618349,-0.15281332510272544,1.552234252585904,1.8677936646200264,-2.869431522762205,-1.3085199474006717
3.3418698698825153,0.38330001383342016,-0.7681932249094763,2.32537240473476,3.135682526234474,-0.4458235900794197,1.9784332212245768,0.09307758082190898,-0.15398311723079408,-1.436654896640865
-0.4159098630645099,2.841195443707317,1.457648401234851,-2.2881644804809276,-0.9135833711038779,0.41166712522242516,-0.6002491991959642,2.9632907214381947,-2.319363584559255,-1.1369171320999436
0.7350370344223779,3.116990373546235,2.5931952244778915,2.155749786039478,2.1291711848573986,0.5763429587542375,2.0341106099374415,3.01688069945241,-2.4780473416747557,-2.113327490221733
-0.1615991732713506,-0.3527259870943501,-0.6550135045162102,0.15834525376699338,-0.8573583682996895,0.20613762877381359,-0.07404898533881199,1.4875810144566222,1.071289985307725,-0.9793782252867083
-1.3786032693889023,3.281036372270175,1.7165478374511682,0.49606491085887605,-0.38226785705295563,0.2500706252838111,-0.6072481531722775,4.029333887806223,-1.0102325725145762,-1.6033985266515087
-0.6744388538607129,-0.6979889143311573,2.8194308460279696,-0.6825902299719199,1.3393574720382415,-0.012877694490442557,-0.7856075992818388,1.3018749284708873,-1.3997205736029659,-1.2089763620958824
1.2675204136558709,1.2500287582386043,2.499349301598822,0.618539716106508,0.8675401174977557,-0.37957582885540353,2.1456800796450444,2.854918319522607,-2.476746413918114,-0.8567074489639777
0.31319511948254236,1.1770628227890576,-0.27137133984242234,1.8647428130054442,1.301361484084592,-0.522075674870495,2.88909347796785,0.30082383973187793,0.7171754571127646,-1.3076949217092024
-2.044527387814922,1.843817594119502,1.5685640717130513,1.1971467723413105,-0.09321748488156056,1.020448019826095,3.027658237100482,2.1969180787568234,0.2025611572665465,-2.3705632995415646
-0.24124284340342386,2.010271796516612,2.2727469220000067,-2.4888442773182167,1.2297357611659447,-0.4806930727329763,0.04095137582809971,3.2703370430155037,-2.5314017976780523,-0.6562193225060333
-2.1822921215728934,1.2215984759091603,-0.7132414811084702,-0.31250842004168977,-0.44925929375310725,0.6294653464433762,-0.31214926253177455,-0.35471551593236567,0.49932161944855924,-1.3337063994285991
-1.9512079290152626,2.6874216307990126,2.960866417464523,0.9625499208960979,-0.7341063878606419,0.15624614486691302,2.675134365207166,3.2024177286165356,-3.140148702671609,-1.4865436429008692
1.9177956570611756,1.7509134063159708,2.6500660109927945,-0.3802142048498436,2.079408996081469,0.3593851702541581,-0.5559625326887571,1.209401574721059,-2.9565481523636357,-0.76777327147556
1.1352165428491634,-0.6424180979326822,0.3223330245680782,2.146733642688386,2.196636816447004,-0.9158061229290291,2.730185691995125,-0.07499179664477001,-0.6869370511126146,1.0430772693453052
-2.4785116516439665,-0.9718514783063741,1.3664521553593953,0.6369396781494425,-0.24166027818534797,0.48682243879791187,2.971701880523698,0.8536162702285335,-1.4427813268446206,0.6580124264647829
1.629063228163674,0.8182023813067376,-0.4785243224989816,1.085528921166482,1.6262465542298936,0.013930914476241878,1.6164580206372317,-0.3268454370122039,-0.18580901951756987,-0.9715997780237676
-2.9138054939681233,-0.4023948810963808,1.3645006227655254,-0.47746259824309967,-0.979503216775473,1.1314189944306083,1.137080924571734,-0.22611230915846792,-1.3156775771035516,-0.020506486921372698
0.8123435363159004,-0.09200851189307413,2.631616831689608,0.9758417938347212,3.032229656882355,-0.20677567842848832,2.872997569701519,2.655414879336101,-3.0144665302951195,0.20940553140753881
-1.2651851396220668,0.1290311914691391,3.459708930002967,-1.5059624088493484,-0.41533009505786966,0.9858291102177251,-0.5945764053371558,1.6962154831554948,-0.8143139579506187,0.04778634283227005
0.2578012901287011,3.445286331733171,2.6583851166369765,-0.2527844244078045,2.921655120731708,-0.38497403517110484,0.46064364472221575,3.714435316483918,-2.5757284052015708,-2.8832054107596536
3.4650925322035784,1.2904533430576408,2.11644212087683,2.0613983068420936,2.9726487661491863,0.9617847779394665,3.322694457050887,0.5383293936275413,-1.473513127175519,0.31666046700654354
0.5762743318671816,0.26477577953173137,-0.5999926663987794,1.7846303843400722,-0.15989237042174265,1.0985523595757205,2.253387179902748,0.16461409493559512,0.7572890959294059,-0.5004522579127582
-1.2912990528011805,1.5469700410776426,2.4062407090258664,-1.4463141230468006,-0.2550853440285783,-0.5884230045163782,-0.6943451735670205,1.684748423717911,-2.241750827331067,-1.2220669646944935
-0.1540735339044369,-0.1450643644934423,2.42269973086818,-0.13528548804552185,1.9013604301891989,-0.696654319701841,-0.4651565352460978,1.8779395454530368,-2.2813453045087204,-0.008650460686247386
0.8792046331304508,1.2210998930755692,2.341521053269895,-1.3881048677621686,3.2198674072123605,1.5040911780704616,-0.5131291248703793,3.529391785039679,-1.534891871824854,-1.0272610531632953
-3.154108818118857,0.8231863743818157,1.9419359155554097,0.4877153724745845,-0.45424236580627964,-0.43035444860183736,2.5819859298659957,2.9631218982765324,-1.9420808974976713,-0.7446673558004755
0.16463770520617688,0.38219243366613487,1.9707674767725294,-0.3047546721870474,0.817492662372759,-0.7812242421354293,-0.3302944540255113,1.4230111024965486,-1.1243142059730913,-1.075527980272504
0.1416437933130094,1.5080412135994568,-0.25850554633495926,-0.16320972696859065,-0.7120377917947907,-0.22934489946363215,-0.5073968955022818,0.5964140835289042,1.5852383525408875,-1.9038293874296772
0.8445096718763525,2.912657335335301,-0.9106725187580049,-0.41658905815495784,1.7551012081435267,0.33788444527261335,-0.4861740995129805,1.6853567192811825,2.483353064501304,-2.2722450781963266
0.5572416461772491,0.9004743083370583,2.2867445643574307,-0.6424742343393867,1.5703359111444852,-0.08431737260894934,-0.22403694557726772,1.6228935933851043,-2.768052089499561,-1.1519391789772684
-0.2736223834540711,1.0993363134157654,-0.7717339989660201,-0.18763791669040453,-0.017966881505070198,0.9057121261840068,0.11894358415796846,2.1860370527691435,0.2592125816582971,-1.1291163382577165
3.4820101951533653,1.8501479729756714,-0.7420141377417129,0.8144044221696254,2.345207506989568,-0.9418154020451989,-0.1670022352117263,1.157455297199696,0.5112767628976066,-0.3070321321149444
-0.2162773115029305,0.15245635158226922,-0.5302192500241263,2.3638929918675826,-0.3266634329167084,-0.17255706536217208,1.8299842971358662,1.6445290404890298,1.082907323803755,-0.29283477091735616
0.10732425439524251,3.4207771594790257,0.7797145038070201,-1.0514154392093187,1.2012485403877946,0.7064731093378593,-0.684686027422319,2.413525345397688,-1.1361320532738715,-4.364356451110139
0.7576601205048434,1.517064810611362,1.6460141088858546,2.3849963826357023,2.4661600259891308,-0.18547127951597667,3.1082713263775137,2.4231470994208046,-1.2514855901809692,-1.5499165699504889
-2.4318947586899595,0.8309211315287846,2.3377122231536336,0.8447550183934148,0.46000518957183534,0.02802733569533419,1.3536021884318727,2.2564244008553924,-2.356066231197448,0.7617502824630945
1.3494520373317809,-0.4626250316969245,-0.40980603592778686,-0.7271320369475008,-0.021519126702529312,0.7307111862920821,-0.999580976428213,-0.6652972775716833,-0.10300431269442277,0.630609334645356
-0.6627572293335388,0.014018709341123037,2.754752592803479,0.42804935774669395,2.0780874201538104,0.6342239008617762,0.8936571609731319,1.105726003093269,-1.1183864953083824,-0.6503646713988601
-0.46406918659684104,1.7209978495930383,0.1896340131861438,-1.1073720784426504,-0.8603984059948404,0.4663657567460014,1.4015852517712233,0.39858451137080375,-2.43154631200545,-1.1780142859631124
-0.2600337298108614,2.9735294983970224,0.4395075352145761,-1.7375717504819914,0.46435909404040654,1.740192722113701,-0.4971314152748736,1.9008042090924535,1.5316610129296686,-3.0952298599498547
-1.50292054778991,-0.5153060040262467,0.08559828600852626,0.7945556412523426,-0.9380115866508218,0.21880503857106595,1.1314844401610022,1.0729065733895506,-2.4521921679969267,0.20257448907749567
1.6455766968860643,-0.39788708808459394,2.7330328441624117,-0.10205440968622781,3.2538494426552207,0.8509417495393473,0.5237213669858511,1.510457976056342,-1.9099403652336262,0.720501383193426
0.09767926497537027,-0.04285889026522993,2.4075834684227266,1.457782073120533,1.275380114401162,1.593849523437013,2.47204366069755,1.853996489343315,-3.895474297978893,-0.3047307530585347
-0.8021536257615289,1.4201290056220075,3.020707541377753,-0.8132831962213585,-0.08904781886361457,0.44168537207040615,-0.9540996246467748,0.5808419710985502,-3.066741039664545,-1.489401437738285
-1.429776131219079,2.6997913621889524,-0.6552635592293217,-0.19000488939915364,-0.7740833154319223,0.8275271965962563,-0.6412483876432784,0.9780628743048956,-0.03511418848097267,-2.1295068870799643
0.0893826262207843,1.0822116536160546,3.4058951158453104,2.929815542303614,0.2902128637914092,-0.9715319768804476,3.2067060208553197,3.7658991890943447,-2.2605655026844573,-0.605860103202972
-0.1641718375688883,-0.5215422793146762,1.5258438196177382,-0.3347386917857962,0.10147874929768963,0.35336418186572055,0.4927080649710889,-0.0808628556201873,-2.188554395684939,1.7733654975151254
0.33245510070251116,0.13438136188228822,0.25275851759693846,0.9123455875425158,2.1314508554920986,1.3884481676816744,2.444581910677429,0.6646249719660517,1.4636860366950275,-0.4248954869067115
-0.1532571990189407,3.3054805873498756,2.1398933028919984,1.129575635121536,-0.9150858006913718,0.04378672264199112,-0.0009981002543949513,5.7007741383728145,-1.949729407173124,-2.0737703431346475
1.687560739057772,3.0554617030665012,-0.39762078364796527,3.948364581633731,0.9352374274740283,-0.434871667483152,2.9409239760544077,3.239874236559256,0.8014649829628073,-3.237829558683103
1.6352454199960869,0.09286590576624909,0.5358708421140734,0.9158828313567164,0.7960917637849607,0.35281614650009496,0.5696169891415277,-0.7346030377826641,0.12352020308070506,-0.33870721700849793
