x1,x10,x2,x3,x4,x5,x6,x7,x8,x9
-1.808192651970627,-2.234398252231146,-2.7559227554407855,-0.7656641333549034,3.3888698485510744,-1.116738338279635,-1.9107021885124857,2.4435115445496303,3.1461507657046335,2.321549352545906
-0.012211113200454116,-0.44657000299946414,-0.122801740179052,-0.033394757042295255,1.608103549349683,-0.17851469799244746,-0.053067368217582934,0.0015688137506919553,0.017067093990672744,1.014452733113737
-0.9143349472899245,-0.1978559844253621,-0.22838847816387486,-0.11618037125333443,0.0132764605895892,-1.1371029344994437,-0.12254406828911343,1.5457252121163814,-0.327924415779661,1.89504294602335
-1.4073347812489085,-0.6162593476071307,0.033989433900082903,0.06311904111241598,-0.3569557227409501,0.5507323863358227,-0.322271450383579,-0.10896759801041112,1.2197045286323691,0.5923889213803812
-3.7115573716136416,-2.9856908991369333,-0.1847898733086589,-0.2962014964386867,0.709265324743696,-2.3083994416837412,-0.8573937395541948,2.1948440688145823,3.33582857518242,2.8250494962206294
-1.5690020972390348,-2.7773016135227353,0.2650143693301319,-0.29153798926168606,0.117844963427022,-1.7332366470727218,-1.3081341188142106,2.7299584102412306,2.2487737417447438,1.0190065983363317
-1.4917644258905671,-2.6987577294139626,-2.030227865988979,-0.13654985325318658,2.25757767811505,1.0056284673252107,-1.0053807392458087,0.08278653611794584,1.296292223083955,2.484667687018746
1.9973031999153008,1.0113602856974346,-2.427008208216973,-0.16968395443120665,2.4691808528685915,-0.8066019426143591,-0.4934170790937568,1.5961642435215642,-0.33351875181713364,-1.1859136984643746
-1.2424443843727833,-2.3129400465113372,-4.173744314514833,-0.08665700264233761,3.2863182653478145,-0.5083900268105601,-1.8406814809853396,0.6268360868684162,3.0555748441699606,3.166389561641236
-1.7965740298336388,-2.0823472015601614,-3.7541194978650627,-0.3027410152773692,2.5690646797833563,-0.1370464749300363,-1.7251308277094664,1.2079131538744998,2.948175953914375,2.520534860807131
-0.39696293384429876,-0.16574201253281504,-1.136657838693855,-0.5225456395033071,3.420844123649471,-2.463453790893903,-0.3161975080175467,2.236366454586796,0.6204485450570929,0.4804022680150299
-0.5669466686898997,-2.4304820959490425,-2.1094466199605995,-0.5249204846437522,1.9887488209031252,-1.812984054989534,-0.5961150655990992,3.139517760008201,2.7098184921476727,2.6119479380190618
-1.8314483739144434,-1.748106971221592,-2.9323583849135746,-0.6346878811453014,2.365396041226249,-0.16964764566608204,-1.562659145321981,1.3066117220282636,2.91026358517298,2.9942633520828594
-1.1211681650173477,-1.8969903936240573,-0.19072290510193687,0.11433540883219119,-0.7096326728714648,0.015207247407365121,-1.531033805457351,0.18361401682938316,2.3862375728151877,0.4238475731633552
0.047592838488607424,-0.02397178112669681,-2.834788993154654,-0.28515965229528695,1.8515157459498583,-0.9307546680979628,-0.28162841879273975,1.4126441730114037,-0.5051663014571415,-1.1925495800958539
0.490461117135476,-0.0604481551650323,-1.780622711337267,-0.5653162520290508,2.6499542919083314,-1.9793200021617432,0.13895345486986777,2.4694410803084335,0.1964356461155472,0.057496432248259496
-2.5926041490977254,-1.20854433304262,-1.9135597631779,-0.2883049412542363,2.944933895082307,-0.7054418961129457,-0.4677659334356263,2.29531876853558,0.7649159852086138,0.7160047402069817
-2.555406881638831,-4.368412721937466,-3.6414681670933646,0.06862095530478365,3.333161214248361,2.3830757157623585,-1.805556158231518,-0.09429789909359287,3.075653261757086,2.6164537468670694
-3.2158588959556833,-1.6615758625360666,-0.013662357265598347,-0.7651841709867772,-0.4983639403193433,-3.1430736036706746,-0.37394994698450634,3.2350899344422412,0.9409410988787708,-0.2112144446927674
-2.566456973197363,-1.253035466094923,-2.395697355330108,-0.12584923834534717,1.8409665548453003,-1.8722987611705868,-1.1314295491775683,1.9896481822155838,2.9583476345556283,3.0967243573564858
-2.6767029412447885,-2.0911214670088234,-4.21157348715636,-0.6718047301652513,3.3333064728077577,-2.2902681497495054,-1.7730324234597998,2.6702647140958002,2.9747167494201747,1.7524983280840145
1.1668885117184062,0.9194231539752429,-3.2735031689046323,0.25363536784075297,2.149957417435088,-0.1710632164539671,0.45683028063585746,-0.7604245842121772,-0.5957339614172757,-0.08785435058135345
-3.0459394902326644,-2.318349208747269,-0.22265707548974628,-0.14020386969682191,0.20922752837669623,0.6279941908456093,-0.5200307695086055,-0.14007394646590743,1.6028617849626041,1.6766593274322195
-3.0206436416814655,-2.647572655131307,-2.131295806633956,0.0791520841359704,2.0688275087005397,0.6907426435028717,-1.4698263433916763,-0.006520970259646708,2.6383039268247206,1.9703270184534871
2.144508901496224,1.6444404936129535,-1.3068575648243599,0.5234272748455319,0.2636932358510744,1.5503828508494437,0.3666044450827274,-0.39344527204464996,-0.7742667343172795,-1.8311287035565642
1.9819915277508722,1.0025775377330266,-0.9308308199599037,-0.5993497580737327,1.6498977147609288,-1.9506126412562077,0.7587618995897772,2.748715102310476,-0.19054041713820913,0.3733002797523106
-0.14166853979460226,-1.9136269000901074,-0.8817984108023496,0.18107831301613406,0.430059105764552,-0.7897487431773255,-0.9941131735851851,0.047759238539763604,2.4391009852364536,1.7632591205762917
-3.2830969418203213,-3.2846338975670335,-2.342438673780128,0.16191401229238192,2.800284258129191,0.49851060927268,-1.7490740129181979,-0.5176540077233305,3.2554410746320865,3.4132588437294547
1.788763967603819,0.2301657246573046,-3.270112906543494,0.06817568810987128,2.3461420902615036,0.7309883054493319,-1.0616139463969567,-0.9532833320588332,0.8899298634192274,0.4234049475446897
-0.39196275948907333,-1.5521200683317982,1.2275779001439355,-0.46556308939543356,-0.7741814722182698,-1.6110306641417997,-1.1005536871918256,2.491546712452071,2.7945661563927455,1.8555604624967548
-1.0729280683456481,-1.3790356990853425,1.4280450821048478,-0.1815086609210086,-0.48912526723780003,-0.14871732697517798,-0.8067122322393362,0.5653870246839472,2.1149220755302207,3.5992611142019744
-1.0654047674735925,-0.2591739447684869,-0.0980813024532704,-0.3949398246805373,0.14294434958711033,-1.6389900424985213,-0.1469350881157241,2.1504320903376635,0.4032653815360918,0.3989745609498412
-1.588703377047009,-2.482873037599101,-2.9856338231473476,0.12003268077184368,3.3605243121886925,0.31944840791277684,-2.1866029773574462,0.45960789433787386,3.3306689869923787,1.3528889862757303
0.402809961154285,-0.0174303369384616,-2.604088368232841,0.17249137822968466,2.3436284055911374,0.9894459402531124,-1.0795080670339583,-0.5795465108831257,0.0727099289433959,1.5227980148192002
0.0709876467658955,-0.15178456080900574,0.40920096562427827,-0.45835324856185533,0.1494039767875175,-1.1201172538439204,0.40292763662184683,2.247948800705442,-0.5586488267320258,0.13004653879743988
-0.21070721601557096,0.670225169889923,-0.343416360426727,-0.33652107187437347,0.3642079988573441,-2.3718800739641246,-0.8570038570049636,2.558236139591309,0.4931099446994396,-0.5030906778171367
0.8069852505129195,0.24190348558654637,0.37451095138941565,-0.1516359693136808,-0.9743640926002624,0.21308538617872552,0.1867341352162607,0.7614560645553121,-0.31798470830680226,-1.3597632582820778
2.037247309795485,1.283637440254065,-2.486529219546324,0.004174730651180241,1.778859534639575,-0.2839777149785488,-1.0450833973508737,0.37490893275783566,0.7767348364259186,0.3784695029457286
-3.1002607205696715,-2.1227310686655234,-2.138860150417235,-0.1957304416989464,2.043765852322013,-1.0706833765527923,-0.9291681840109567,2.20100188018452,1.8794198971358749,1.3274396608557997
1.252780896174692,1.515210101633706,-1.9114364793903706,0.0113857547617175,0.5106803602789265,-0.2608185031131816,-0.6707889973240979,-0.6198404654695375,-0.7383180880483846,-0.08717528567687913
0.8131282755598573,0.5010618547978488,-0.5114150588159558,-0.3597707383385307,-0.7006085257925238,-3.4579828078560864,-0.011482574735710804,3.141389030285489,-0.6414511048775493,-0.37972210920948546
-0.6430563574573741,-0.432478782173237,-3.08940368169188,-0.7778612520977257,3.1422436685649764,-2.032309580990858,-0.7411050478014543,2.3765355947243085,-0.4324448432830569,-1.1400981049763876
-0.63252058812523,-0.5520844185145137,-1.768589303954798,0.06834476951916209,3.4616712494817063,-0.3968638199340386,-0.7382036996150372,0.31999974149388244,0.006307399176704642,-0.590001506282235
-2.9594540318605396,-1.2634222706824136,-1.1885817695657366,-0.14963315829498394,0.883163707882118,-0.13428549338931173,-1.1172926471589903,1.356106278518248,2.3675320752980005,1.8827627410408956
1.220915770406364,1.469356947577699,-0.7001541004441099,0.08055704430187825,2.058479569796788,0.8549024099706535,0.0370685745179794,-0.7373084041685334,-0.629027369194159,0.7173260930026035
1.6137322860761008,1.5603184878568568,-1.4953216367154398,0.10783207969173499,-0.3109289250910927,-1.2193204553829424,-0.024338122406557,0.5734612369534839,-0.6400118190633706,-0.9563187212736572
0.6311511775711041,-0.3982714104503402,0.05952558895166169,-0.41052994518929,0.492145451197165,-1.5109253694857112,-0.6407708623748078,2.5214301424473615,0.9247060017696962,2.279467065579679
-1.4734253193607438,-1.787447693139029,-0.24923784038924843,-0.31427031214207274,0.8762392596127517,-0.5337570537259053,-0.7678039605942395,1.9704696722148358,2.326838461460621,1.788964768014957
0.10099596399389775,-0.8249120310932814,-0.11245809545365582,-0.16554607460585632,-0.6515087196695674,0.16395616582990025,-0.28090392816771015,0.8885475258356463,1.4505101375057263,1.893819603575531
1.5392165585331559,2.1249056793658156,-2.105613238128696,-0.33054615739860393,1.252154176212119,-1.35248540903951,-0.26078440341857967,1.7353916872312598,-0.5823042100265274,-0.10324538809188087
-1.416395257500486,-0.32307488445101257,-0.907861428521084,-0.13982664863070363,3.1256969995227957,1.4834634842236245,-0.12962730559496072,0.2945660506032599,0.9171248907425062,0.832465317070738
-2.077212087807223,-2.0582708972363237,-3.5951619638895385,-0.0782536204360309,1.9683897341055077,-0.0979431300880366,-0.09270423999342164,-0.4490612749452745,0.5323265274548201,-0.42828995656197355
-2.358181765062743,-2.041750770958016,-1.1077581404762502,-0.3314641749591466,0.8363593628685959,0.5379275544120196,-1.1176617573297782,-0.8485529535192878,2.217657886553679,1.4745899617446239
-0.5316198688051191,-0.6542484728815685,-1.4949907214552778,-0.43321489071005664,0.45139275289186953,-2.125956120899965,-0.04249448162525162,2.087352022899114,-0.6508058716336291,-1.863143304013555
0.14204450424350534,-0.5106185583812267,-1.6460141692991177,-0.3632715131030659,1.6774079840169946,-0.36663536317798273,-0.8821716219646545,1.0397072683102535,0.9883888359706003,0.46349594551915607
-3.7291853645531114,-2.550438154600395,-2.247684398774082,-0.8419367984415463,1.9064320401733443,-1.6923190812637736,-1.0189284753509809,3.3325978041390787,2.939014989486319,2.8970397007768267
-1.0349059673605812,-1.2728357331690845,-3.3033305206228616,-0.1780166181685401,2.6311507182750855,1.2286501151550664,-1.1377726868978415,-0.018874901239965047,1.9952724105713218,3.5657695147660515
-0.8092189011189351,-1.912271041251823,-1.0230082725877876,-0.5148426293448751,2.0488808586840443,-0.6086723204755277,-0.9247296179568559,3.2639523545755385,2.139264248767131,0.8537394512320693
0.04654572032948179,-1.3068504499934517,-0.9128707026295789,-0.3776743466897291,1.5935773762847791,-0.3849952381653964,-0.5399967659591243,1.8492101758911397,1.0389167047639165,-0.3662097856475866
2.0483108532936174,1.0415100022196877,-3.3633049443019223,-0.08136886663989694,2.0652552950460157,0.32127234846288955,-0.6563493426094403,0.0797662158768857,0.4696183223730874,-0.19213480373076114
-3.4639581925649856,-2.555879016618442,-2.475588839657121,-0.5174383791147064,2.421370749240772,-1.1351488351870915,-1.1151579523743234,1.6731638245852003,2.649175209401087,2.853714122771567
-2.5764470111716817,-2.560221567930087,-2.3554696854935386,-0.14318177343361244,3.3763418279884245,-0.7432832117103139,-1.6123986289866885,0.23018863776816678,3.0496005558571637,2.9301135931147777
-0.5299901557202861,-1.4384526315447197,-1.1887249186659834,-0.3307114145767872,1.400130020721106,-1.5828727100104745,-1.1558737812882014,2.987109093724981,2.755180437889201,1.1749537738367377
-1.1489012138189165,-1.3812273129138921,-4.479897116046994,0.06597004778181563,1.1572869400046861,-0.9611773849626091,-1.1139450173872183,1.4013012354804606,2.231038998709103,1.3711158337712592
1.546404729720794,0.739645377871701,1.0203400628697692,-0.34503983728965226,-0.020019635848080086,0.9428879860669567,-0.4197291744753154,-0.356805575533218,0.38643452567884773,1.0844459682826706
-1.997073132154186,-2.311058699025262,-1.5578226869924563,-0.07970304277590153,2.0860183761581514,-0.19031656456896784,-0.7638620570146553,-0.7005627058325206,3.008316010376679,2.4880760290992545
0.34534284304753593,0.9406830459623983,-0.6123664740976603,-0.18285808645847937,1.6578649051215115,-3.220022234040827,0.18150522504736571,2.9845808408292536,-0.8148950040435469,-0.478187499053223
0.42743710138763646,0.23512317022130627,-0.15464871099862695,-0.5710062248687104,0.10335749916135284,-1.142162273335322,0.280637297784003,2.8889384378284624,-0.32858915323520943,-1.0811376002670279
-2.3745969042018777,-2.320696873367311,-0.4665298071686413,-0.09997699423244985,1.642737735111413,1.2223085410679335,-1.2609520183155714,0.2695601395908538,3.2768220623057305,2.9435769856081433
-1.3694622790802766,-2.2065106730761292,-1.386904606188228,-0.7998497246634466,2.178610863484962,-1.9082885919321761,-0.5641654246406683,2.6514846427391756,1.9994937172555365,0.8675655452720444
-1.8945852518503556,-0.2605516810830434,0.3537368078273635,-0.4271235128768812,-0.5088462814714831,-1.6081115563693213,-0.3312526642768038,2.1332181633350866,2.193288452290606,3.141176192149825
-0.559391421572731,-1.5156690428499597,-0.3511879490615935,0.0912735355117059,1.3046473176672975,0.5224749841206213,-0.5725267491182046,0.5567095187843498,2.027035572237134,2.6397841227974412
1.205213492936871,-0.8674376256309132,0.07399111244177228,-0.6010848840992558,-0.3921801123737042,0.1752118915444651,-0.6266693251839992,2.731064825126958,1.6554631402842093,2.1305000051976415
-0.4009655599389816,-1.111011516577871,-0.6991622437363392,-0.2914741124771811,-0.44382608585820194,-1.3780829262874514,-1.3810128873174152,3.2468420687583963,2.1813303944654434,2.681132214983922
-1.6986985320810533,-2.069340604469239,-0.3283487090447872,-0.30745518360196555,-0.33953918129929406,-0.10860977627600177,-0.5142790523263808,1.659595159512517,2.526297766613588,1.719920989992733
-1.5946610261440985,-1.4479860450091122,-0.8212778398960379,-0.6473668654310359,1.5613691063091135,-1.3898983000366263,-0.2873538584001862,3.092659033453975,0.8404842547141969,0.9197791466836025
-0.6493455265017993,-0.24966574006097025,-0.11582756314811163,-0.3463728687511735,-0.2003603806666694,-2.3232124505126657,0.38536728509412455,2.571203493649734,-0.02011896268539559,-0.5117537424376979
-1.6849252208749896,-2.614867055010366,-0.7174856826288524,-0.1992175465937017,1.2863411347607707,0.09906149620535659,-0.8825228671729282,1.262041269177499,3.038064325726311,2.330821680800209
-1.1269608905304633,0.10401581087902102,-0.5572544258918499,-0.42180927190473283,2.267978592460696,-1.5142159653572194,-0.05352793704857711,2.3222027844663975,0.11033988810052953,1.1682446731289076
0.15396852368047947,0.34451779098425683,0.4784548152442836,-0.25033415192248093,1.137683337808066,-0.7018906825177685,0.4318867699463155,0.2700094098470618,-0.2081873957411874,0.16541293894039072
-0.36332722388241523,-0.6825124997081656,-0.5643969653209704,-0.002360898444507946,0.37680479497248487,0.814573800321196,-0.6274906674609672,-0.4673842885673539,1.7997676835509977,1.7278284311642904
0.3734846355774812,-0.7374417433601673,-1.0871076902445598,-0.12740542766906024,2.141873140771989,-0.6649577083450651,0.27599293249757345,1.3500797099670376,-0.46288318200450584,-0.24765834867460282
-0.23850420974469702,-1.0694924184103138,-0.16332368180323828,-0.33168116797431446,-0.8435106771130377,-2.529738631155926,-0.9677159502966397,2.3344985978525004,0.5493576869753931,0.23010141193582476
-2.9350993313826637,-2.926080522275628,-3.199946605453463,0.08477608719644801,1.7133100029141057,1.2964507864423336,-1.164380130924279,0.5460698638428751,3.1650911586330865,0.9535644465310795
1.4384013536234563,0.35165381081055586,-3.4846923222250052,-0.47819289181450436,3.3221595717611256,-3.760149429237648,-0.22407212594637455,3.349702319486707,0.2600389035805384,0.1434576676728016
-0.7660472140774601,-0.6175896889361827,1.901530533755557,-0.5444004031599099,-0.4126873779065493,-2.4872981955484406,0.5238779151859169,3.257864402647524,1.1755756549240597,1.0448298574188415
0.23552193016563164,0.1123877079034039,-1.1137293658882068,-0.12413189694748832,0.36509716767928313,-0.807792314012154,0.7710786038139729,2.3086761541217578,-0.37952358470571235,-2.2839483384303723
0.09415856269687316,-0.6913896195995665,-2.7022427451228017,0.04705392799628234,2.9374025073862846,0.5018890874106379,-0.25896465227938154,0.2135040165824087,-0.6278695383136035,-2.7922746975123447
-2.4959556328996384,-3.951463742862577,-1.767820787273909,-0.44541364226454455,2.771922546307138,-1.4401233003907377,-0.9778181855018269,1.9442071588717846,3.328185671081515,4.32894642866094
-0.31955147648993437,-0.8585280267668504,-2.3219421555707367,-0.40551948094588347,2.293189874480598,-0.8355134250815828,-0.8421072042732154,2.1510117660175685,1.320194348115788,0.5176592235922276
-1.5968731576144974,-2.3690207562984926,0.4481526218573192,-0.593642796848652,0.8824077847962428,-0.7971478032192846,-0.7597163803233378,3.1051307048587375,1.646241042813136,0.2461191129156989
0.43105827570192995,-1.3276423421343555,0.617963653374696,-0.774811102143409,0.662344454561294,-3.122295775972018,0.3408516535712478,3.1736623505812833,0.2969693254443482,1.0301589307431627
0.9478274840419824,-0.1009432309467823,-2.3955529472102843,0.166596060113939,3.288271847830374,0.6746222523899726,-0.38195263286994074,0.1256728888172336,-0.2729156304813407,-0.7546689291618708
-2.291556626833671,-2.772111653083332,-0.8970835925369495,0.03341231523963694,1.3231413405996872,-0.39284868520546945,-0.748604312872786,0.9278908740807941,2.9332557384542355,2.011482672522414
-1.4413158170270517,-3.4197072326844413,1.261268983572826,-0.45365224252733943,0.21869106073703448,-2.2285420184071403,-0.5527264912565997,2.161001807676615,2.205132607943461,0.9203320615536289
-2.1806808285576658,-2.6700798104263335,0.9965914911836541,-0.2891042816072628,-0.41545619618488894,0.3599940290052232,-1.754737336903998,2.593270548091875,2.9777905529102764,2.0738906260189167
0.0896600333120278,1.3268761563226084,0.791455170825432,0.32051504349127563,1.7916737921043508,0.10347343392660868,0.18067625439512564,-0.5722602320013928,-0.32050097792328636,-0.6929161576956416
0.48985572220068785,0.9277465207067772,0.5347497756218704,-0.35744516739230253,0.28201325678252487,-2.0312302909409232,0.14476195180171353,2.885320566333704,-0.8140844980148612,0.17208544388880473
-0.45932994148361805,-0.5164805764630437,0.05435629615868672,-0.1885989242501555,0.7037584467889808,0.3575995339671739,-0.24573565459564486,2.0543710551456966,1.800587923531337,0.23318465905193222
-2.4621200809147745,-0.3224836417408451,-0.6472843931705426,0.13692730323222485,1.4947161484644278,-0.7219393578092835,-0.3245490800176516,-0.22752890782538782,-0.017726776361914443,-0.0769238809181146
-0.8189815590118605,-1.3405157151426343,-3.8976603400542666,0.44991660734797695,2.918275929115059,-0.4140625736041302,-0.7976875955356908,0.26573025062928735,1.9987491268703197,2.0805456377217078
0.4121263769953928,-1.340535601302904,-2.5304691095163663,-0.4489908469004745,1.8639933531455593,-1.157793865296781,-1.2685641033156503,2.3266795092217643,3.0767482495222263,2.9470924357978143
-0.48118966634957133,-0.21751649019119101,-0.7180496237806513,0.19834303394691036,0.35690933764810473,2.0993133208735775,-0.6229394403131702,-0.7349857302375822,-0.6492270014881643,-1.811144674882632
-1.9692151667796751,-2.2799173781414273,-0.9921427745264457,-0.6690787218572204,-0.6929654999073296,-1.4032783932450144,-1.0412935349430472,2.52882046879211,2.4111309015175855,2.497910988876974
-2.292288467236925,-2.078182840634833,-1.6584114014721456,-0.6899435241084894,3.065993029556841,-2.2988641474612925,-1.4270518515826378,2.454786261582482,2.01718439454014,1.218206257583486
-1.4674381543587123,-0.7220226237271594,-1.1278791089197429,0.41661540118664986,1.295577897410062,0.6232971457582274,-0.7408300981239455,-0.8996660738122493,0.6461792921264446,1.767745686087147
-1.7265576100925624,-1.3243336491889588,-3.555647134679703,-0.43513100947757405,2.8188337585166505,-2.435556672521197,-0.5872573978241505,2.3939538582686906,1.0788947518425767,1.667021486564314
-1.49414633145057,-1.5653237682973045,-3.2625081291516618,-0.42448777302071644,3.3953640995300427,-1.8511288712649874,-1.8639421293474534,0.5751886129755235,3.136259997310762,2.378804244765103
-2.9628446720789965,-1.8517180558886734,-3.586432169787803,-0.3155881872948152,2.192105003309761,-0.4291385322421728,-1.8783738163961687,2.653068188729953,2.668803689343485,2.0386537579829946
-1.3856336306375998,-0.6510555864551232,-1.204084147446615,-0.19914915604614264,2.08558154022236,-1.2109008359947355,-0.22463229974843266,1.302961039947264,-0.17765870384733273,0.5570705839090166
-1.2343154752040097,-1.6546426322833514,-0.3093081321299207,-0.5739741087013107,-0.2773673580447239,-1.72564255562812,-0.653807962904113,2.8988993246998764,2.1750009434590187,0.3249393871922417
-1.0965413578269452,-1.3474347358855303,0.5579478955433317,-0.3874388161942667,0.37091807361458806,-1.332740125043063,-0.609445661910831,2.7973173014791137,2.1103860489714834,-0.338526764836343
0.9155346044316934,0.7599275878325443,1.4924612088128313,-0.3122463086296128,-0.9511347410926676,0.09276724729817412,0.9377570389346546,0.5556364885637433,-0.9894488445316425,0.6343820131186456
-1.0115803838591537,-0.4004089140727886,-0.5842285657416294,0.2760076022039604,1.7372965830826077,-0.2727372157580007,0.49707478764347046,-0.3610683441577708,-0.6662949598395372,-1.1146303241844593
0.9736167944671877,1.197731627473278,-1.8154470869671528,-0.52093247002124,2.9308096376052757,-2.557214913380238,0.059298505536229285,1.8325746277901458,-0.8096567239045798,-1.2533840031189947
-0.7915241261197941,-0.49608657198280276,1.0198220231736337,0.18953993065330207,-0.11635462372444183,0.23423606301054445,-0.1839962056321075,-0.2943682462404644,0.5362067954994136,0.6722243559542421
-0.6621107895660959,-0.8049227669526914,0.047065248343619324,-0.3170356632003034,-0.07611473059495799,0.19398181951080873,-0.686929099316845,0.1611500087008393,2.3561552371877235,2.0794233177303263
-1.208602199396618,0.07907380777432257,-5.505538088725241,-0.3275483464302777,3.2801543798517345,-1.2667379730915913,-1.4616181243039188,2.3779778461759,1.0125401144748336,1.5092955248989397
0.08586270674236916,-0.13699497444180544,-1.6681257361127895,0.048164244333022736,2.126596869906654,0.28955840058627164,-0.20112262216633214,-0.2536311706599854,-0.16426980885698328,-1.1659281869423095
-2.9598855037114715,-3.27323320913825,-0.24864337647447754,-0.45088562664622905,1.2535638965071487,-4.003963519917834,-0.5913967978280718,3.343640577606987,2.444015426413168,2.0924687130147346
-0.8990790860806664,-1.2982162074937504,0.12546486989293149,-0.20859346617684202,0.32261938983575966,0.08124951600804765,-0.27844889011253104,1.3500794245770744,1.5844916321836,1.4604778215142908
-0.03431401181924803,-1.011852424417163,-0.1347107221352324,-0.3831042178007979,0.9634441716948989,-2.0150981030478787,0.03505711207851986,3.0253121492347077,0.4841909176813075,-0.0016075581604700789
1.0556417782943397,0.15396999300570938,-0.8809344063327837,0.44539303783186807,1.045186745959747,-0.3626782072884142,0.02015890984103487,-0.2715238642690253,-0.36467720805095694,-0.9959572050944173
0.19309273623068887,-0.46294358283652154,-1.4770495613174641,-0.4957706566281651,0.426812654769825,-1.6343386977663008,0.04979144040669475,1.3094512152050641,-0.6581562550712373,-0.49915585027369314
0.4435297290064055,-0.012671707510919564,0.20207387177741185,0.05274682982259453,0.48206749756538825,-0.8178918244564818,0.39665611486200325,0.3720964803960598,-0.5440958994216175,-1.5316293827240202
-1.7560469282613047,-2.7907503787194163,-1.164957981902795,0.27059684245720717,0.8229859543457794,1.5983739902664502,-1.268396458554089,-0.32464142171032606,1.904414318768278,1.6549614282771763
-2.685110622101965,-3.4397830721942166,-1.701145081482396,-0.2803909727405723,2.866581351085321,0.05237456239555904,-0.9783142984534113,2.5971991534919447,3.4414283915837247,2.6583259652343383
-0.023155111967129674,0.24660588522427795,1.5294580828943714,0.024301037755350363,-0.3295137590141619,0.09254757530927404,-0.13915290238061023,0.49983863934139383,1.794710223861221,1.6423352230380852
-3.0593172511454787,-3.2130983886369076,-3.4919213218728946,-0.6685673377904302,2.703538279294749,-2.3079277639481246,-1.6957524092416487,2.8377063216977527,3.098515993671758,2.4787296358865274
-2.2654697314931513,-2.64396448054319,-2.0690679236489324,-0.025557317637748697,3.1420061312401666,-0.8909671612572558,-1.0587496235089842,1.5253230632507342,1.7229295305902843,1.3258122581321028
2.0462575014667093,0.4582004420589835,1.0860500135784468,0.12031507609291242,-0.4934530598796477,0.2782090288120373,0.7838660966432416,-0.59537228261152,0.3169168304894605,1.2751018551692865
0.7761007345199042,0.21087371165649954,-3.7586601746247883,-0.37857854587306566,3.0651510842282175,-1.188320999797499,-0.17285861711748596,2.965962263323137,-0.7280394137001771,-0.8004240087191273
-1.3786362163428065,-2.383093023395975,-1.0602516073269175,-0.30402453147178965,-0.32765064282946554,-1.6806180421978674,-0.9086811720136012,2.7231138123307526,1.5770864972489176,1.261405537470896
-0.13338070364186075,-0.8323076770095862,-1.469423102645627,0.06151479065285146,-0.8914367596305532,-0.5650813220358333,-0.7053844088757533,1.3599568961186588,1.2930115766016388,1.45018704877931
-1.3895122821695636,-1.7965456531470283,-1.977206901722409,-0.42694616491658455,0.9995675298252913,-1.4939659932935727,-1.2443059511014536,2.3354702767363156,1.9476759641109749,1.6459993631512464
0.3851227558617021,-0.31475642613541155,-2.3538488314534054,-0.611230294893452,1.7421692203086772,-1.519784049002809,-0.9842719754584467,2.947595580187393,0.9721055216388936,1.15592600276339
-0.7927643311330881,-2.2079952772256197,-0.1806185567637851,-0.500210991623194,-0.6143145304558612,0.08120657272327217,-1.0408278583896449,1.7623647223256378,1.5806814574117718,1.2930574622582274
0.6228097563783973,0.0077364579971841005,-1.6228759453094788,0.10479539106908552,2.4193834210117195,0.12550063595292152,-0.22790840894337833,-0.9084243710435171,1.4977422475786963,0.47432062926362517
1.443604384456559,0.9839875804839794,-3.8082735870725237,-0.44436130591329376,3.422704864960804,-1.0648534915195196,-0.6783023059948529,2.1039553492664127,-0.08519301014829406,0.6891226703828924
0.2122022462643637,-0.7302602225922763,-1.0416924550273863,-0.19393450861836875,1.0464160679872099,-1.7797204351400897,-0.510107688112997,2.10019976837811,-0.33292654339920214,0.5512871618561144
-1.4514633872468503,-1.4744178458130346,-4.316725594236871,-0.5163431052574219,2.739264118111587,-2.041421259790156,-0.6625035599626531,2.2277238776237187,0.25139439892489523,-0.9803257329795618
-1.6508165098100245,0.1432693038027408,1.4166755900063055,-0.6059525193663474,1.326294402265206,-1.8103764051340354,0.872749431826708,1.856454388835406,-0.582387434258987,-0.6190535150795806
-1.7443541445597563,-2.059436682356546,-2.1937163678103624,0.2864764088639169,2.9006722206848545,2.2085745978145916,-0.9496050238118323,-0.8661892939064793,1.848502573509824,-0.7233447549239845
-0.6630861126648202,-0.3442873804808613,-0.7932509873815365,-0.4800488904143101,-0.13053908621986976,-1.9117978147190977,-0.9338356371676595,2.3458117634296785,0.37642592106290884,0.6830482188687481
-2.4148765192958677,-2.5449156199676928,0.8231399871839453,-0.6726115587646895,0.2656540228290978,-0.6982749630897083,-0.6637889588768855,2.676314359543861,2.2325447304368407,2.0268976582541454
-3.081062254914318,-1.5714110366765728,-0.3045108124327674,-0.5414043489037825,1.6166347743867537,-0.19932245161048923,-0.43297941624527636,2.0511761151255854,3.359923646059893,1.5219799416894184
-1.1407710161689344,-2.41585012250595,0.5266718429335103,-0.0007564332735336188,-0.3521584803464396,0.01750247537248209,-0.7921312293723607,0.1710224812262653,2.626099519036177,4.432330099519631
-2.9452896302430145,-2.4186447205676886,-1.680449343943359,-0.013406948269796793,3.154051083764802,1.2692953576552852,-1.152735086694245,-0.8142026266463263,3.1950400638555942,3.261470169055706
-1.187637367669098,-1.3408113294700943,-0.503658214519439,-0.7332197795450694,-0.8811419246533899,-2.4397418012461243,-0.25405957881821645,3.2754913852660836,1.1934151915777265,0.11282020715717248
-1.856629062453493,-1.4937333872004206,-2.343176672848488,-0.507711741766123,1.6836646740545134,-0.5792988351112937,0.20638202165856723,1.8383851241230236,-0.7283326387016198,-0.08490651574327199
1.9151118759654908,0.5600754148081931,-1.8422154209557602,-0.1536255793279932,2.525834757393406,-0.43669118102530396,0.4674936369385708,1.0834597323156951,0.5201693891465915,1.051564297644863
-1.5741260230115341,-1.454519547260538,1.5397866246247531,-0.16827279809325194,-0.7521064567521667,-0.7577101244016767,-0.19188878793236722,0.2576996945449108,0.8021386093474978,1.1038366647886104
-0.9386828187288342,-2.522647178085763,1.0897360854717935,-0.3242197809919934,-0.23035737917771748,-0.3024344537517263,-0.09451947173147776,2.274192130969563,2.20291979594361,1.6371830504477218
-0.3971937263677477,-0.47674626402230325,-1.3643181312298245,-0.36072772288037214,1.6783948105061182,-2.1254725814040656,-0.7020924400679978,2.104776578451823,0.5310616344997892,1.8978273428634251
-2.2339955737225847,-2.4199295033765216,-0.5654476106844446,-0.3253850055819587,0.9815973558996844,-2.2099082664556207,-0.5023532388642586,1.8108436125723606,2.057233855011708,1.3387554593674849
-3.4527745311354905,-3.0031125040388917,-2.8329236016298665,-0.022818011265383062,2.9701270995304525,0.01765479787942703,-0.7785809636639139,0.403672456754921,3.3323572858621864,3.1030947750238944
-1.9509617958768062,-2.6726878117549626,-1.8402462080528643,-0.17080222411266355,2.6274293810211815,0.9851297483043107,-1.2341394039694142,-0.5584880447353318,3.020743248540116,1.69233188111262
-0.31568335104210743,-0.8728983648348744,-2.00824461805012,-0.4280548221591845,3.3137022759382084,-1.081158739323684,0.1321214948446455,1.7034287789532598,0.032830724510039655,0.21692042660391725
-2.003849926260568,-2.8763160088509108,-2.1956443436012805,-0.40261925246965474,2.654017940143098,0.15545360584067916,-1.3956069463116716,0.15299298870226008,3.1856490283299133,3.0343034803296303
-1.141105380191766,-2.155393995694544,-1.7383402779983883,-0.3602193913813603,2.936013980271382,-1.3909858171951226,-0.09181714824769159,1.8289222098519553,0.6681907444820048,1.116038071603042
-3.0352615711745172,-3.052030238495308,-1.0796672337141735,-0.19737481293944448,1.8679923815972312,-2.3631449793588652,-1.2153616041247417,1.9073851567700464,2.4349488331551083,1.7633222939095343
-0.37135194587655385,-0.8210830575312821,1.814606815697689,-0.019131908507004948,0.6463515789545498,-0.06810116563560009,-0.293142234540659,-0.3919478872550455,2.2226999365044655,2.2572056177193978
-3.54999992413796,-3.440463836943269,-2.183302551666391,-0.5621064078407411,1.1680979324567624,-2.0680994005034257,-1.1410759845604344,3.3298013096349006,2.073304814677319,2.496509001710945
-0.21867861289431434,-1.5020683011170433,-2.8245629493388913,-0.16893988675693478,3.139132492353075,0.4161830351784362,-0.5221446507845326,-0.22001427920400574,2.1744909705613082,1.5791293600651692
-0.7480303593754887,-0.0458178220042076,0.1177362670154564,-0.29882468319208433,1.4619551997084979,0.1781767549389366,0.2658488151627119,1.2921111745337255,-0.9656651769091713,-1.4321711106757067
-0.6013375437909602,0.6431864803604855,-0.8872453187921879,-0.031052910664401853,2.4443004256529735,-0.10350922840532609,-0.7765674418779966,0.15130119646145168,0.37754737527951643,0.10629737957730613
-0.36075614182977567,-0.5841221255095008,-2.3047885138220967,0.04556011497384468,2.1356971686989366,-1.1716813302528553,0.8771623882828806,0.8891998989370158,-0.8198839819794331,-1.0018225674484293
-0.45811756967043926,-1.104451728160235,-3.946015378788842,-0.38003325208757116,2.842459583673073,-1.4849238500606252,-0.8486506037141146,2.72619992498979,1.4879590652024213,1.624147190265016
-0.03922763178040972,0.3267373505635782,1.6458327665904686,0.19754440462411277,-0.3288740655028066,1.273830536087795,0.7387802286174547,0.45516947675114006,-0.9152999054756397,-0.4102370686570117
1.8993676007387894,1.1341399348056085,-3.2122860670202233,-0.16966570284886343,2.5144780983821606,-1.4548214833887954,-0.6227108890038858,1.2104470839123649,-0.4323719310832288,-0.8217584571889613
2.0739881055607694,0.6063289438265872,0.6392112412726643,-0.176557727178237,0.22944076281420234,-0.4438132333179233,-0.18617825488549808,0.7423626694308478,0.27861763224602765,-0.6742774886338244
0.931660162697387,-0.296915342330793,-2.8005978547401162,0.14947533390835838,1.9065027499901008,-1.1189707814950156,-0.6261435312022529,-0.4293999038750054,0.5184658206611874,0.9451518983048166
0.07768565220873082,-0.1940953117677084,0.9897152053753697,0.12417443016727478,-0.2836958092997782,-0.1339615183183915,-0.2600809741502734,0.6741372396271417,0.9959477885187809,0.04473646795573003
-2.3489017474307685,-2.906457229234406,-1.5127507940528648,-0.6537258559937001,1.8699357133081782,-2.58008220003472,-1.3765249406996354,2.8223959729208827,1.627599412774658,-0.2199243269791234
0.2735239586993552,0.1893398703015541,-0.9890612850285777,-0.434056510290528,1.0603691693193276,-2.340140626387948,-0.9940487760960286,1.932885033144542,0.5632576273801029,-0.5602791449729225
0.09428714122947623,-0.9025672649750532,-0.15489314086036327,-0.9934164664438792,1.1282968966368583,-2.133669256177311,0.23607659344427964,2.00476664562496,0.6361653686755508,-0.44330325660539954
-3.8513469950495822,-3.1551005437583206,-2.003840247637647,-0.008335057040561528,2.7341396619832143,-1.5782263239889722,-0.8592593443620207,1.965334917595535,2.245270304726129,0.6609765076439273
0.895305822551909,-0.6557144802753357,-2.8462799613373915,0.07736533369536813,2.2381008050547764,0.4362047583754408,-1.559835372835943,0.36561626114023804,0.7622355995314725,0.4391729861030664
-0.8732268642621718,-1.4289977112130663,1.1966773564231064,-0.1717421585176912,-0.01882032355998242,-0.7018903834897737,0.11325007732971754,1.4282824850902407,1.564972931977326,1.1199804538617932
-1.6655943288880164,-1.8598913607310175,-2.0402449441441286,-0.21404514312719394,2.061155691624394,-1.3830007844867835,-0.7762848266509985,1.567215920337683,1.861037314479717,1.6465896386329375
0.7903012343803953,1.494973878696571,1.04266200824855,-0.03446821033427427,-0.9279820479461455,0.24428739962496157,0.5258611240448767,0.3682388663391585,-0.0709576263524444,-0.6368924568374734
-1.9833583645829502,-1.6541082938607123,-1.8212562182859775,-0.6547095675967008,3.340206835504855,-0.6656397862004267,-1.1025844581733275,2.082376523767144,2.8016255077395624,2.2372035553891374
-0.05044393201979727,-0.8105477639381502,0.4645995755365779,-0.33680613237989226,-0.05694836078012522,-0.31991985115288113,0.16853163830090365,1.0947019219264522,0.3957743782855605,1.3715155153684562
0.5259259121398667,-1.3510952913916867,0.2802963899681696,-0.3575112054516609,0.1555237974936554,-2.795517650392796,-0.4290666316027364,3.211506082722905,1.4794526253336366,2.274307534037075
-3.2471152798054055,-3.635770404924295,0.2289907227865782,-0.339577897715473,-0.7010964455377966,-0.5867091526210247,-1.2888426300423872,1.8928228346984226,3.4587856248699893,2.5343557798881324
0.026855216238545806,0.3800685404469891,-0.08720796082536915,0.09914021249372766,0.2598313040156752,-1.0376851153298374,0.1816641022855258,0.24475645032108861,-0.019068278093192448,-0.8471070127678505
-1.733325153535728,-2.09136629163954,0.8851056043236443,-0.4574523276319399,0.501743160158753,-2.298572525589463,-0.11879449417304239,2.9566287591812475,1.5027379605226918,0.4953052560872118
-0.4299909619840391,-0.9894571469948579,-0.2514798063033795,-0.8850471209847361,-0.1394201055384936,-0.3840576232728312,-0.5368269756173547,2.3777378465757124,0.8060312029542405,0.5851274960984331
-4.414091157735759,-2.9410287416771532,-0.28992441188351437,0.0871998636480156,1.7001693689126687,-0.9663463631312389,-1.0406632716819144,1.525948758895273,2.2071747570183025,2.8945475944124945
-0.8692725379005564,-0.7836168292133469,0.6398999109189607,-0.061243606643461665,0.1252194729480156,-0.6599159282334447,-0.2963460256288438,1.4698912144076037,1.7728955751631155,0.9685926359957044
0.7055379724697609,0.6608797284363238,-2.0326486638307646,0.2161573480994415,2.7780516708373177,0.8699024865432545,-0.11100669873184471,-0.9917815119230301,0.4850308892864954,1.1038397925103975
-1.952883257293507,-1.272748360659862,-1.721840010496244,-0.1734885242425102,3.417680538325871,-0.9827384889524617,-0.463325169915217,1.059715465229377,1.5634080703300381,0.9492987467988672
0.6108091879306403,0.9769518005547185,-2.54872378223716,-0.3134465962337395,2.800818734802804,-2.414771798287911,-0.49448953026815196,2.686565639387427,-0.7496511673803481,-0.6250391379402638
-1.523842754815006,-1.6649128478740738,0.7097401055639145,-0.1966740445525682,0.14620948809872214,-1.47238395000943,-1.124365995005268,1.7232307344700621,1.876116025383911,1.3762613935697001
-0.05984298052969141,-0.8237894925418988,0.2998620228470846,-0.29458396616350474,-0.15654976197553672,-1.656984603701407,-0.8494833195468883,2.3257962617500496,2.2789786459814576,3.1729279711178755
-1.1007199644529377,-1.7138120481059127,1.0389655034186243,-0.3779278670043362,-0.4967142499638614,-2.291863629099902,-0.4857876250953981,3.419890432532286,1.3367945888399833,1.2673952570966172
0.3476400060512128,-0.5708767144630448,-0.49662863997362866,-0.5266807301699997,0.10372780821412064,-1.320336895252341,-0.31551593485356727,1.906035408508354,2.146265044201099,1.741066369627637
-0.5503952224295606,-0.9390637595755076,-2.0550808865408445,-0.319207222521133,2.188682806732468,-1.8177572343412696,-0.6251235244903263,2.491872540832839,0.4738115266702434,0.2572495913953903
-4.349461043591316,-3.459013685613084,1.5067493596172141,-0.13968534464684845,-0.9580562500558708,-0.7851045479487393,-0.6695488330459264,0.7349752404250773,1.9413021646466535,1.5369396674697764
0.022090695149713575,0.10908172770009918,0.6679237963381798,-0.26185487003756736,-0.1953138782001791,-1.7122257895839927,0.3239252373965158,1.8297010100076667,-0.4346777517232787,-0.9339701097907583
-1.5319027881577016,-0.8999162257253918,-1.3562028647037199,0.11559138623488235,1.0903136276459806,-1.408595421041638,0.0440783578093705,0.6718408550167809,1.7541692399203437,2.322905723951143
-0.5377640039474642,0.4477863135667041,-2.0620687824110053,-0.3797335776082371,2.4878605120819715,-1.731487292387166,-1.1235549166280885,2.192375750849658,0.7516394006880043,1.2841187351496672
-2.896259253834041,-2.654992244085336,-1.3243759295482072,0.05600055052464806,1.0479525163591643,0.3198334606254452,-1.5759417235650126,-0.4993902120562248,2.1551208311819194,2.250068570735757
-2.623909122036683,-2.0883833104424947,-0.42246092678283054,-0.8870536086315103,-0.758408920803795,-2.017931331013706,-0.8553846197014133,2.80462407243258,3.22835760184331,2.4451416938438477
-0.6479245665518192,0.7983171824008839,-0.4540543239976295,-0.2898651409371412,-0.18324017652197933,-1.4134356045809766,0.5021901948049928,2.9975622825259776,0.9610824512253286,1.290137883222141
-1.7995735763306446,-0.48686158721808453,-0.7497372348980421,-0.26870707197843696,0.4528585834746377,-1.5735042991968853,-0.16196144476384805,1.3404558234554296,-0.43506976980054957,-1.1443659774908206
-0.8784458626749064,-2.7461327503437603,-2.6190965749799453,-0.583048363183949,2.80169303975414,-2.220182145416241,-0.6175468606492143,3.181230701758386,2.5185228663851404,2.6784275541014737
-2.2987489325649975,-1.2276135437548295,-0.28525761920675646,0.11340896549422877,-0.24780021094609894,1.531805797523858,-0.9285647066828789,-0.772480148374574,1.4734303965044102,2.796923940204077
0.6427018421628812,0.25434061829867555,0.8447084711584326,-0.3578225938793522,-0.9216873169972464,-2.463902178914292,-0.283688182548797,1.7615179884276575,-0.5948788824598984,-1.243211054252787
-2.3014725787226844,-1.5194678208177526,-0.9907349699221766,-0.22767820891803373,0.3456006163410428,-1.1129101506354262,-0.5338776449507372,1.1169986801324634,1.8078179366689233,1.1090873865840345
1.1658010359758733,0.9340511670775616,0.47112811296820917,-0.40184087035264376,0.35573813160042045,-1.4454155297570561,0.22782824951880984,2.5277311155143676,-0.18462453202063445,-1.1468763786873766
0.2996734491781593,0.9609027311945045,-3.0550075997434996,-0.17058323527597705,1.1763502752551833,-2.2660548033745873,-0.49229276161168656,1.3434462527556508,0.6948405126054211,0.3875512719242697
1.0744316596801682,-0.18749839565336512,-1.275519844715721,-0.11833084027835053,1.9925368702706208,-0.8568751352324213,-0.09474389589855381,1.122468217539613,0.17637327553256843,-0.10142538408340972
-3.284672538166731,-2.8544083317436146,0.5640026950014482,0.1564004707793723,-0.04842848152839396,0.3247944550025099,-0.43414073295133604,0.465047485567573,2.831074454258272,3.287587908204571
1.1429703180717294,-0.3477631099595627,1.2213692291956901,-0.27532161108110487,-0.9021406379918289,-2.052438372412335,0.3270998571042931,2.204348701215927,0.7104372923435578,-1.1101650923574164
1.2296791541627163,0.9297526376625709,-1.0948653203235048,0.07879431531914875,2.209638103043851,-0.21650586775055822,0.28672560834932065,-0.6980796052927665,-0.03866026290539204,-0.5953112483387194
-1.757042557566907,0.22868013282150812,-0.6049321599271996,-0.5192205571409272,1.3339046306853257,-1.7593927659159456,-0.7420384990574318,2.074401197258284,1.02420294417849,0.8590686711265806
-1.0836724062612741,-0.8328644579894516,-0.18778515172542332,-0.33097662973930364,0.01718732828265579,-1.844051261798232,-0.6726810840568165,2.8438618669772056,0.9990379217951186,0.8963557035125519
0.5958825499391336,0.8429483078052323,-1.9110177640428507,0.42797205712018954,1.6509951802318135,-0.33076759496199104,0.43654543457029216,-0.6349128169211411,-0.7140734988824822,0.41668874319435695
-2.789513690755251,-1.9057217901791883,1.381591774908478,-0.5418262618961548,-0.8553944708948928,-1.6079249029878224,0.18928763234897564,1.4199976763602962,1.1689824362149448,0.7814952188368759
-0.13804440536463822,0.4675461522386532,-0.13201721552110413,-0.44451071362728867,0.2708548580376493,-2.6578719300984686,-0.38806666674401413,3.3363892149915726,-0.44355264335247524,0.3458759641141354
-0.4072909076657226,-0.04002133603762711,-2.7978030240489113,-0.6303083519972138,1.5206905229293137,0.33970121922352403,-0.006599413163297541,1.2480802452928699,-0.706442977931446,-0.16639680261792666
-2.2119734151380896,-1.284951348472687,-0.5910293938608643,-0.12709827554753822,1.7402466194701427,-2.043941304272935,0.004702177152738463,1.930716983060841,1.303720869663675,0.5958743514089129
-1.3890374741899087,-1.666477383890154,1.4454116775144352,-0.11543203654200682,-0.8821673751393939,-1.5314694292803328,-0.3410025004781806,0.12545188283627318,1.507749269608766,0.9597683512199904
-3.1471750829759495,-3.06576662158663,-1.760785088829344,-0.3085602271007361,2.50738768063111,-2.451485717160734,-1.2517054976840252,2.656328778849202,3.4080374732131675,1.2248775892771167
-0.49529027967582806,-0.07538818641435237,-1.9109185821510355,-0.39175586141460783,1.7226525526116077,-2.9170707080915297,-0.44517376912869167,3.173572572502178,-0.5819749066702228,0.13276634897576062
-0.30782581127033865,0.16738382244731825,-0.43484335639464144,-0.40367479659274597,0.5358396415052249,-0.3130854666319608,-0.06467752669414933,1.3267879164752947,-0.6489825161036422,0.20492766649227417
0.5470183716104445,-0.6316561272344162,-1.3003236523085957,-0.25098566234507264,1.038643169494268,-2.657695538141772,-0.1009203833413901,2.73188764897225,0.32134844141559826,0.7871464871642097
-1.4340738128826263,-2.138899233995477,-1.5053876292970334,-0.4518471291129936,2.5559781238157937,-1.6843139637070843,-0.4549875343735858,2.281984725793539,1.271892307419615,3.502815701423926
-2.738736142040858,-3.675056029487789,-3.2753954168866866,-0.15404087350842027,3.2738067076482755,-0.4985249451175866,-2.0299694291934838,2.233505893818052,3.393549758226756,2.6330760264254973
-0.7835737259672951,-1.4744285380495301,-0.6707768236310886,-0.24838520684227688,1.6415935546783298,-1.8778043817892371,-0.475343214561889,2.054604464391214,1.4640801484918429,1.4267669828515583
-0.5221962234565526,-1.0829808785746595,-2.0667640304545993,-0.33298618838974176,2.5000243571918768,0.27246247442632937,-0.7512708661120655,0.46200099316201104,1.351375846390099,0.30550340046883756
-3.436282059591241,-1.3265174977913992,-1.6065265518407892,0.02559822445537075,1.3680101862526093,-2.030635534614147,-0.6069722289883235,0.7776370176617151,1.4356767904488863,0.1920287937803625
-2.8899198504125407,-1.8383858840061158,0.6591338723615707,0.09527581558378402,-0.23931612394140123,0.004405979180312269,-0.6352224270711511,1.0227931337930256,3.263974464758963,2.8058535940480533
-1.1629203939111374,-1.873995414623344,-2.498352707319338,-0.5168570896450819,2.609256535413733,-1.0942704404392143,-0.349108194098865,1.9576985329341312,0.8163806395402966,1.8564595291527595
-2.4863376796066876,-1.723197055777394,-2.0103375667909424,-0.03203473109169328,2.6516010756306607,-1.4732288577716808,-1.103926384096241,0.14249733965674416,3.33661778456446,3.3970299461734887
1.2324900629238231,1.2439796014681794,-1.2945927448321308,-0.01173669015581477,2.2924411765178307,0.6524948117262044,-0.5763359423311872,0.456592653180113,-0.8296095663707856,-1.1002577125022774
1.1457774944103694,0.36712110507381357,0.36767155265242396,-0.1450037296178541,-0.0790053251163726,-0.3440125039619218,-0.05450832603309741,-0.2973620813470793,1.1251635897023604,-1.0055841842496578
1.3979855112885882,-0.34602526413817686,0.3366913642535849,-0.25048396291016295,0.014462934814500894,-0.971489991549166,0.2223980596219046,2.7803103200326196,-0.14095771375068067,-2.2354145352772705
-0.17441120439552338,-0.2078326795904864,0.14976355859981666,-0.24228154203638103,1.0719965016385693,-0.5669651476553501,-1.0497038045420652,1.4645476591325557,1.2064491361867247,1.0368065075448765
-1.5172719503400165,-1.7791190622068807,0.009063191766963642,-0.008682326877885121,-0.09429719565515782,0.5870612262096971,0.0733670960980017,0.43971075871577514,1.0263904367550083,0.6158518009817308
-2.6038057392680596,-1.6216328395259978,-0.270784870554903,-0.10274373929152814,-0.893595651992731,1.6296995584172151,-0.8094341585023602,-0.3483045389112124,2.0828684148676446,1.4494917404877976
-3.986222097919432,-3.984191723397738,0.7657049128128443,-0.7022155561199527,-0.40823612221910155,0.2835929223571998,-1.1478962758739675,1.964473345452955,3.409367891609328,2.9305236621541897
-1.7404767410753554,-1.302991507558227,-2.650251813756298,-0.6157193179485645,2.279214101675309,-0.7695342872539466,-0.6264920747967175,2.06542978160062,1.536186602789412,1.8186991940270107
-1.4561811509684375,-1.1420942490079447,-0.7346669581101494,-0.2676362900621373,-0.009266204579152615,0.1664871451024548,-0.8328967439312474,0.44545149496182335,0.8925322035848078,1.0861620370061547
-0.9309804558127827,-2.8985484382249083,1.200405195133026,0.3004041738476861,-0.9859419814825445,1.924996251978203,-0.34633932963143016,-0.924825003484437,1.1092992746781811,1.2902408119583895
1.7426800191850147,1.3277498037952824,-1.9038471888318678,-0.2624796506668632,0.3550744857018109,-1.17972268864223,0.5011299634216517,2.2261701267288143,-0.20420093186848098,-0.3375337312520659
-0.9476904578807219,0.5749825178568724,-0.6085135044580404,-0.1827216185464587,-0.14495607038210312,-0.5304480051457321,-0.32894042139863877,1.5708833398877986,0.5194068170467732,0.5989916933701449
-0.13521658409519355,0.020060213829503428,1.3167862658917706,-0.3184727588961068,-0.7401444736766957,-0.5402129001813514,-0.2552204508432022,0.6785785399574638,0.12388328396446102,-0.17488159457394326
-2.2690316491340927,-1.2085034772888112,-3.6426063939000732,-0.6815995100933417,3.2666081225475896,-1.9316245751975096,-0.6543291424950958,3.1070188418981193,1.0361586031109788,3.3926178212872613
0.030685372566898763,0.1258483251031823,-3.486990753175561,-0.41891164748232235,3.3748327612880438,-1.9684373932960386,-0.8485439664891293,2.295593996836599,0.19083710901149886,1.1141699850661086
-1.340639045267199,-2.1603929786688174,-3.332237556392503,-0.5182457405593642,2.961996273548732,-1.700916082211679,-0.9390116633131066,3.427429246267545,2.024422598186862,1.5255629143894622
-1.6932134617616832,-2.973669033492572,-1.5071730650563013,-0.4412585263301216,0.9656892642292714,-2.266128555700206,-0.686300739994792,2.9748353311307723,1.610273082460706,1.9360827026083933
-0.17846634098757483,0.4952308155333409,-2.0690829122772088,-0.42222918846466123,3.4196199344166587,-2.163108934798341,-0.7729504200308785,3.3675975736068215,-0.6472574288142015,-0.3409261360689346
1.1716869191313355,0.595461841588509,-0.44976453422466356,-0.323149688279763,0.8231911108564987,-1.4696302570488697,-0.14919067056359187,1.3714666429263342,-0.6086445085052483,0.39276597537059427
-1.4403045302407205,-1.7182896137819783,-0.47129294965332397,-0.24943824559004324,1.4854336219904232,-0.8494132121927336,-0.5683107215999955,1.3724098584797209,1.8679801161875984,1.6676558636739254
-1.4908579547034373,-0.9037012547934585,-0.7116572904926823,-1.0893575103149347,2.0742725062200957,-1.4104420666342565,-0.5312727182739158,2.874526869229876,1.26339732122862,0.5491297140083693
0.6822664691889103,-0.49474208777808276,-1.9714234752481754,0.08292604777170046,-0.025380221716900797,0.9700103599262054,-0.8294415342351087,-0.08993445792559829,1.1153777829515716,1.2958862296979081
-1.160633759453651,-0.9167479772351281,-2.5891888495762103,-0.17686405921056655,3.4012099274923298,-2.0706596708234963,-1.053371063045902,2.521776403584187,1.4120832872090716,0.3383709555289795
-1.9440962001186068,-0.15112576774967967,-0.367288874465547,-0.5718699262959087,0.8024887038021102,-2.4019240092513128,0.223998161159364,3.138396601278558,-0.3370361014885288,0.015292487193339342
-2.0646108014873015,-1.8366942767057717,1.2205273001622545,0.19320738007867488,-0.41934637783998463,0.8572288728395909,-0.44663808538669114,-0.43956941097956237,0.6952788300677386,0.8179794840950055
-3.289548606182661,-2.925250120339565,-3.1752480577908386,-0.3619904718666373,2.254728462514342,-0.30914412605449,-1.4022458702166574,1.4322989721905142,3.160128940730771,4.354424581094147
1.315278379311028,0.2786026774659436,1.775597828300144,0.27107675349988003,-0.4715524608486479,2.383073433831418,0.7183603394892246,-0.3417337824819875,1.1316170140207196,1.3421384500933407
-3.135916767999561,-3.281133869589034,-1.2773304756148811,0.48470005316494796,1.4326364863500247,1.4131684482422537,-0.7613069834139429,0.10003478327306303,3.0843324569307446,4.808846260465426
-1.6987728379476301,-0.9985044109080636,-0.20578111951308792,-0.019726660706131063,1.0498794797313482,-0.5234663855102946,-0.331292195738227,0.6088088429951741,1.7509244264110806,1.806786013260899
0.13671392217635578,0.4950786245587107,-0.45290452345079035,-0.5607421346803981,2.3042061147205826,-1.92835857429683,0.14036515364354774,2.7487133516774205,-0.6711700698758127,0.10618645555273362
-0.2523821428634498,-0.6717515771200961,-2.2800908516407046,-0.14455628482596397,3.153693295411191,-0.5951454806188335,-0.7640701994853162,1.8945978210411236,1.5729886646104188,0.04340268679046289
1.1119049005463315,0.0636389988876627,-3.861404664348257,0.4508918726635251,2.4371563612335265,0.3806002021583051,-0.09400734706806829,-0.8637113846695373,0.17752137740082818,-0.3200765158841894
-0.2828058028224173,-0.14696646957978193,-0.2906374918256473,-0.10262803372006603,1.7261383031419206,-0.4629391395824842,-0.8098634531761126,1.1725504258840242,1.138357564788588,-0.5959544331770406
0.0879974875335563,-0.6699108370332235,-0.6396303687770548,-0.1736793644741672,-0.4366543880064736,0.4399931376453664,-0.6153569250767532,0.1506429754762879,2.91306674018431,2.474365560725876
-0.8634604302432518,-1.180847306640821,-2.8983866181321964,-0.46410245179519394,1.0855479578558112,-2.172488364553833,-0.2194650299004875,1.1475466825911371,0.6882514602789265,-0.8864995447097348
0.7860557253896422,1.3067958004253957,1.095678282707466,-0.00827055979399774,0.1468376052084568,0.31919454684296306,0.606689853531577,-0.7407119077539721,-0.2802960971228673,0.19187286027238803
-1.602439036872743,-1.5060221297118066,1.745766908172569,-0.3855971939364754,0.2298348562048007,-0.7704217217676228,-0.008688710711656264,1.3112264202069146,1.2403207431560763,-0.34738471455088066
-1.3604230000970647,-1.7205845737497858,-0.8006240447127373,-0.456690942406601,0.32133769673729295,0.10532409442165352,-0.9952070119562437,2.5125681714245345,1.504616783749439,0.8224667122874594
0.592133889446258,1.6634039942415886,-2.2282174040357514,-0.013483869678848261,2.538097674603637,0.5248391730109647,0.17066566413529793,0.20163045259530055,-0.8119012918499372,-1.2316476769966749
-1.049189790444134,0.6122222858605242,-2.60264905233691,-0.09068852666524356,3.1448829433195504,-0.37205170891714356,-0.012358770563555499,0.9328969791789894,-0.619989001025136,-1.0320204091572127
-0.7537430555002325,-1.1787417466599057,-2.631731283879172,-0.06920061002988352,1.1743397554647652,-0.1811358532987319,-1.1622455432390162,0.19656377131498615,1.7235905925432156,1.2860355116933422
-0.6074007106304793,-2.6064768683251054,-0.6588170672036392,0.0037516494682890257,0.7712395316465241,-0.43608795576602233,-0.21321369487573388,0.20294425943722394,2.5967041246988636,1.3480557961935988
-0.7385983813441356,-0.8217597409521707,-0.08537700834745669,-0.6042973674784582,0.43426548102928253,-1.4797083764743615,-0.09056698967485806,2.782642129221202,1.1411229725150966,-1.3956928169428358
-0.6371902807704654,0.08470031856060811,0.47313955917651185,-0.6497608650309655,2.1442091431281147,-0.5529021397554679,-0.3269524465927036,3.418685251531561,1.273232305296049,2.2903166582112853
-0.537728435922995,-0.34778114925630743,1.1014089171214811,0.17860861534075578,-0.15355943533763494,-1.0068755229540933,0.605022495244353,0.5100921244202832,-0.6792729792461445,-0.8435793162364714
-3.0553188879683697,-3.4013360739341736,0.18737514305481068,-0.5257381919063951,0.997561766374899,0.36071644495735455,-1.3282812161641886,1.2129755086515113,3.226712913437833,1.7619620389555177
-1.0578115581836423,1.1741342276385467,-1.2207919921741057,0.19224986847135278,1.2781105193030786,0.7249083383644532,-0.18714508291351414,-0.6116659239319393,-0.7110311296243838,-0.24625722909023798
-2.2441695535337933,-1.4303961587507086,-1.043854879324634,-0.6788587441940154,1.955805470170481,-0.755707350068771,-0.8052653120699722,2.8028387879068895,2.0028137455286377,2.0998924216927675
1.8597128720171079,1.2539715703055312,-3.5666622596538415,-0.11503731191307871,3.0833051899264268,-0.49096902527438346,-0.015754355441976453,0.24840810672025015,-0.8763811643358473,-1.5125375033890731
-1.2752257886891485,-0.9599111742249141,-2.781263504933091,-0.5208614408674461,3.457522755060647,-1.8804726326489236,-0.6964913546827157,2.3259613601144515,0.6970205649844561,1.857629248228508
0.647124419513455,0.17184441829865565,-1.6727862982794925,-0.14046252948901902,0.0933764060431066,0.04835050082325279,-0.12111959565964647,-0.3390262326078467,-0.8805210654911991,-1.379978416066918
-0.9314288843108514,-3.5051441469368547,-2.357180251285842,-0.2034301376346258,2.6917142882503646,-0.16557800308193504,-1.3916134552193864,0.8993134466262447,3.2383750255447383,1.8278865277058094
-2.717399821847365,-2.9798681732298444,0.15199524374488896,-0.20510377289060774,-0.42408613017101116,0.45755875539059615,-1.3139496146886918,0.006401738363911891,3.234116714329571,3.6994913753937557
0.544670756893657,-0.25134239089712973,-1.1081189496303232,-0.17276050595335313,0.49859592817019904,-1.2468441783587991,-0.4160224538059779,2.168706444239955,-0.08580018103126774,0.12313697730691273
2.2738080521530186,1.454966220606149,-0.74374876269301,0.026829759689195407,-0.7608246287715047,-1.7179943355194762,0.24303357892525757,0.2596840180303819,-0.5566695433363397,-0.11617897053006279
-2.1104534914153246,-1.829412258003386,-0.10254834986989675,-0.2655648032257309,-0.7888370433770105,-0.7984930259000524,-0.9276095793671318,0.4857376270314855,2.4364978586197146,1.0901205489790293
-1.682466599241379,-1.600402984484144,2.4496493683636333,-0.5862607042672122,-0.7503929780379577,-2.011315262017502,-0.3283601804459212,3.4343849549685004,1.845387021002801,0.7976442068255258
-1.1757833161082274,-1.6551116339120788,-3.375151330634126,-0.11129895130625293,1.4378437509606474,-1.7786078204197242,-1.5703728713999032,3.044627292974627,2.663293110033505,2.489668379328054
-1.4263183347340613,-1.3161999959768524,-2.2764241478485046,0.024625538757851544,3.0879197901349773,1.2042014917126644,-0.9058961079716168,-0.8441479359602952,1.1781175326815414,0.7353051205663684
-0.32764335178532794,-0.05856377958709584,0.5240731080100234,-0.6611838428504879,-0.554846543790807,-1.9314658743040278,-0.19284028686226157,2.372347291991839,0.774193810886115,1.1758738045715458
-1.9993841921921913,-1.859039631261807,0.5891896484733486,0.004654504093732079,-0.32803184149958664,1.0705050750969032,-1.344559711867217,-0.9181940630545935,2.6186249697473896,1.9239853786840944
0.2170444605916696,-0.7592793872310799,-3.7999639865710124,-0.5239208510665954,2.9402759409820343,-2.205366083957727,-0.1971618030431737,2.383740111488182,1.239108297951982,0.24125717728770144
0.10836549871142356,0.06584781952685087,-3.3344750773176464,0.06063639583679561,2.7275914582907252,0.43264240761158457,-1.1488564939897445,0.030064287453959615,-0.023147153908758655,-0.12526115431378537
-2.509001252950593,-2.194393855162449,-1.5655877294057192,-0.23771655762016297,0.8526984727114297,-2.1207033174242436,-1.2467616778527026,2.3022124744795724,3.383037473895649,3.279238487617988
-0.2409568912268803,-0.9968679354306954,-1.5409425160578514,-0.16318537915203357,1.590123146713649,-1.3102487018903344,-0.9177424774894404,1.9143935807945929,2.467780186607459,3.3042636898697464
1.774724549917869,1.8496628085968325,-3.3731922074172145,-0.3516168592454664,3.3118497677312098,-3.0647205361712673,-0.8197164308889208,3.2234851235468396,-0.21999865876820102,1.1487787873280224
-0.7102179944343803,-1.856694141052129,-1.8070470926892854,0.24920985358318762,0.5073156022793381,-0.5946680228812927,-1.1398641530966263,-0.7503279095184119,3.419104854799545,2.867349930868104
2.3921641933105144,0.18634054430843883,-1.4243844012188858,-0.18913892278209166,-0.10213108600172693,-0.561190313003008,-0.4325725623567934,-0.3718886873952406,-0.3285244747203324,-0.8794547480783879
0.21826186214386328,-0.5894486651292065,-3.2207331084309536,-0.35364175292898004,3.230630545579719,-1.264818243266113,-0.7092829982207215,2.885578523947975,1.052046920604321,0.08689796617019808
-2.61510258518783,-1.3376057893781779,-0.6383326143113371,0.27962443650313457,1.4421976694468022,1.348106522701161,-1.0172542409416072,-0.49867624932532006,2.8442058725366444,3.8241885339628094
-0.13738004346626648,0.18031116160750818,-2.287695941425835,0.047404707229852,1.7615268161330992,0.017041398386811662,-1.3095047130064792,-0.3195786702122584,0.4238081542375265,-0.5370437098510382
2.1019063603571517,1.738965615597755,-1.9492107209965515,0.21491165810197618,0.6864181703967027,0.013298149564505618,0.02844099818187551,-0.15148417506759115,-0.45220936426526814,-0.868104090489586
-0.9865733150946409,-2.5437171092604984,0.27687559090353064,-0.0977762382129855,-0.10519312250989843,-1.1397882749958574,-1.0102685303231296,2.277289413804584,1.7553368854758347,2.058577232054309
-0.2913907652873005,-1.1895333513028035,-1.8255649141231995,0.11629621013217438,2.1633651843134927,-0.19431202825449828,-0.5663535422337279,-0.8453372349815811,0.5205622214583161,-0.4781170437971236
-3.134975558846692,-4.611979130639061,-0.23251644968667126,-0.2105160505309778,1.7579120468629954,-0.07294153330292652,-1.0538050335703255,0.8693059907475236,3.0605450576485085,2.898321682880807
-0.6691602971391815,-1.0015513605736874,-0.8659383542052589,-0.06432492275651856,1.4293839854096406,0.07823498637727636,-0.10549095346938853,0.3043494618094922,0.016729221144407225,1.4451960486170556
-0.6914667775028025,-0.07197042250508026,-0.8849915183991931,-0.5589715592398158,2.556660134971292,-1.4700837475095376,0.415509073243487,3.2602152787811596,-0.9809264558820592,-1.3871924952960182
-0.6990229624464048,-0.3181663911174609,-3.033034131783299,-0.01762404239898973,2.8300684770564937,-1.41479562534756,-0.872526334315888,1.457998209912875,2.5074898870012525,1.9360320029836153
0.39767854786677836,-0.23774669193175185,-0.978190616201181,-0.3128854073028079,1.071820234354917,0.7062363226570252,-0.5201031109170013,0.8308570595395584,0.809809437970975,1.3132029620989687
0.8589883852631032,1.0841766343196486,-1.8730707945197207,0.2760004901776174,2.003971070068964,-1.2608312190595428,0.05621712085909186,-0.4937083433179583,-0.964612829629511,-0.5853784625893804
-1.786475202971773,-2.3076842507940523,-3.5210358368186103,-0.35746415710631096,2.6566935026748197,-2.786921974222625,-1.8619442969350106,2.749293033707317,2.1180422798909886,1.3076139210016662
-3.973173162320012,-3.3877527394645304,-1.8080425134505262,-0.011732075590119663,0.6027666522900521,0.7155891573998331,-1.8518925476503854,0.4286094003057084,3.1809875215808283,2.490417819083373
-1.4644222210582503,-2.2012302334818656,-2.108463530215721,0.08887997531070493,1.1291236389244412,0.41472921357751324,-0.8190746438001979,-0.6926889819551147,0.9224827975633323,0.8540779563914084
0.6951764757890053,0.511961386669563,0.7132777835482557,-0.2329720419210157,-0.07224706440315576,-2.014690619759851,0.5006654487233181,1.4107084504946603,0.449249993749129,-1.4585451950926722
-1.8700763953526207,-1.9458085143955015,-2.1581678026657536,0.2923284203644169,2.382455901423745,1.1227147936264932,-1.730355661346398,-0.9013255637647184,3.069505002515748,1.7209945437375909
-0.4808307641892815,-0.7316393374908051,-0.6423680534339293,-0.6523039263886555,0.5096489689933836,-2.357548476260801,0.20435163566675713,2.4754943131448175,-0.036669686541636715,0.010109998595711316
-0.9521828193448695,-0.8448604763301218,-1.4792142759180633,-0.3683906490817764,1.9031538208971148,-2.4631671243579745,-1.0294550400736477,2.568933655387208,1.790098363645304,-0.13620332071844565
-4.234051229151368,-4.286157257568277,-0.6072179941841993,-0.38586602961692346,0.27399038704251066,-1.0234731573010185,-0.8417806364032101,3.096590422972799,3.42057963799226,3.0894543641155656
-0.7768103230781368,0.029661766351497885,1.3058676524831863,-0.5575170654995057,-0.6113876678650512,-2.4483914841326913,0.5627650353683881,3.2270206527979948,-0.6265140449988663,-0.895722922464259
1.3334195055487852,0.12221859800061192,0.012545379290171663,-0.4770883898054999,0.9537308463994114,-1.1009629011786224,-0.2704482500516896,0.7457068949773848,-0.5332151874767549,-1.0333138107961537
-1.1137508739123518,-1.4685068020331398,0.05223765767560267,0.015606692375787726,0.8793029403689794,-0.688720294066966,-0.5434997086437852,0.8047778547086817,0.93122575001589,2.39272992714535
-0.6419143855279084,-0.4034406491223624,-0.9769531420347966,0.07069477791576693,1.2844964690922622,-0.18066300501430282,-0.3835077964042839,0.3921144933995848,0.20661329907489412,0.2676276108555512
1.0703393500926162,0.13507653592740246,-1.9071569280899403,-0.5231893483916006,1.906676083455241,-1.5553170872912987,-0.4638873827616957,3.3350177505265437,1.0702565537550845,-0.08703065339774331
-3.0259728399694583,-2.9392318369393116,0.22799277004686994,-0.22150034646840036,0.17937510166063175,-1.4165064391083977,-0.6685197975940558,0.8925989080507215,2.7627000863532016,1.7529409864130636
-1.6735991495165428,-1.4708041167644041,-0.8127016313766154,0.12922880520794697,0.6779724910711131,1.1190918674469803,-1.5277600905795066,0.047735357730184225,2.9246978052936954,1.6672500502749723
-1.8005745142031204,-2.1446784233942338,0.1334965813974844,-0.4216060434035494,0.3040230165541771,-0.4709751954314151,-0.22699401219446408,0.7378389021126364,0.6589549219807596,0.3839788085286175
-2.1317941782821745,-2.1942988818300613,2.2788601967061095,-0.3492571957565318,-0.7552985624839554,-1.209681728552995,0.028142557715165772,2.2990458934399585,1.3607982466215884,-0.29867283588314014
-3.8805416403063195,-2.8144121777497193,-2.6212811590808105,-0.07787848297124715,3.366070364283968,0.4645301286870754,-1.2803293158476567,0.24228382278099714,1.6061793267724203,1.5725868626502546
-2.3557366493994603,-2.150854334375598,-0.10830782323368515,-0.3630823190641831,1.6050048724419868,-1.564267732600286,-1.395554769933882,2.496712323106986,2.1347524865919087,2.794922571494198
-2.372083182591559,-1.9133632487505066,-2.4267571180450016,-0.23864263535038355,1.5157167655528765,-1.9794424435159255,-1.8353223061729453,3.1502026791331357,3.014989370401083,2.0261962432814062
0.5110047771134766,0.9517845640649292,1.0798296163491183,-0.7568704244910547,-0.7598217861435872,-2.6485525988096517,0.6349957438153238,1.8745631484217302,-0.8293173568741514,-0.5557631290987719
-0.21795891104273246,0.07675049734830619,-0.8600703409768465,-0.06478409551559255,0.24660020458631582,-1.6755740593994723,0.1357543419286216,2.2817657196300187,1.3094260247261325,0.7726156811580359
-1.0609540674789937,-1.013719544866732,-2.094210304143048,-0.09016715860433852,3.347000072300058,1.0691803912049695,-0.6755930399527461,0.37356389235948373,-0.03458796393489327,-0.8164025971149896
-1.553068112946808,-2.8646078969550692,-0.8438488399053211,-0.47145827973412163,1.6578541488105984,-0.945102111190621,-1.3981822408394735,2.547926651186435,3.319083276805137,3.1723818880768833
0.5799146086359677,0.5887796858783227,0.4323946472454362,-0.6159468648096799,-0.41154768691909815,-3.9367306482992426,-0.2908356967318021,3.2468699907560348,-0.9340623734575768,-1.7857095894240897
-2.5477976252275676,-3.0816891415521503,-1.3672168005504828,-0.5864114234468464,1.8314796966078308,-0.28744622260206465,-1.2604865062840525,2.307962695508906,3.1554679566229025,2.275699470596986
-1.6155563365599326,-2.216580276069621,-1.5012730339172995,-0.5418434159536696,3.1139773697341075,-2.1524978558428103,-1.1164047451271644,3.317884187096557,2.394800499285574,2.512702413968917
-3.8120962226024884,-3.082007109731753,-0.5276631204602622,-0.3359611517871525,1.4067840203553792,-1.891333414780034,-1.3145043751249694,2.9366489911406037,3.424783780951599,3.4678308944269993
-0.4661783684837445,-0.6563164209390469,1.3957854554582074,-0.5402491151113292,-0.7972640422632433,-0.3513043775999224,0.5355337792787854,2.002326866480261,-0.10323250139508156,0.5397892977304486
-1.5695472043327043,-1.5817082010750254,-1.348903205730338,-0.517206979874873,1.600841658888947,-1.4511793200533554,-0.6967389879915968,2.8372466243700902,0.18143335782068504,-0.37179281179526985
0.7311555015435612,0.2680847744944735,-1.0983195337126386,0.193573152801191,2.349411340121045,0.5162272883214183,-0.17062512321275322,-0.9806674696743609,-0.09702152774634665,-1.2294169873072156
1.081291947313437,-0.4593481738233339,0.2093236485220046,0.06075068780006706,1.3122363141635596,-1.4550368687851503,0.5222812821166466,0.5936389187866746,0.32845606040269537,-0.6112199273064399
-1.0193809868595745,-1.8206139190920232,-2.285099449152383,-0.44813002373228744,2.4300824137958723,-3.476847037381563,-0.7536511319580763,2.5954882148219194,1.7909099660257275,1.825319209227355
-0.42816634466230136,0.6650153462071627,-0.6167928059939831,0.11980580405294133,1.3282345656043724,-0.5102100223368644,-0.3681426017375658,-0.6426654239299555,0.22305489292285552,0.9675521498214514
-0.29878320160671584,-0.5765845972453848,1.1361269805918102,-0.31976578169676495,-0.574348553600157,-0.9064823223640359,-0.8972388840420853,1.9455191501743938,1.9137914372981109,1.1729514033788817
-0.6770041704886037,-1.0409116601182355,-1.9105188860512212,-0.09088967481732961,3.212551233925322,-0.3772739927445118,-0.6297763438044865,0.6451132318739767,-0.2088574968059589,1.1203695695366014
-2.051607749885519,-1.691283456755554,0.7915991007347958,-0.5402407473600064,0.2125566796366063,-1.4224662987138987,-0.8819542771585885,2.2469419403360917,2.8807315383675642,2.3515494455034247
-1.7334014154076294,-2.394992162453913,-3.3383440466189533,-0.11223707628879025,2.319132793055638,-1.0799641344364403,-0.8992912447332896,0.9043435141664877,2.2684181939626065,1.6488163329261174
0.47497485489683455,0.9947308329407063,-2.5560525796517646,-0.30020457559061114,1.6749786809395233,-1.177046716173508,-0.33936959596846594,1.2489653493902222,-0.8411813093651874,-0.32629859875635214
-1.8668484080398138,-1.711199862903245,-0.7573661355443513,-0.21623884389381398,1.6633417012271656,-1.8053794111900576,-0.7780262234010844,1.9320753480929889,1.2910419202888757,-0.30435871478494175
0.27876007663610625,-0.36052382218399065,-2.5583328988432115,-0.17439351841446316,3.1340330777420125,0.8633929287024792,-0.6190908519201044,-0.2663828056879399,1.7635873822112584,2.370103241824702
-2.618290194766957,-2.7195549737777833,0.31339234984751585,-0.1406991984010143,-0.31271498601295467,0.6477937988817954,-0.6409054884810004,0.47969927838386517,2.9050691273651252,2.897295248326187
-1.9442525662958494,-2.2750453932737487,0.47808317930657235,0.22790341352902674,-0.31154205412974567,-0.605904601358794,-1.297872018757624,-0.09729707923102182,3.400774668655881,3.784677706997411
-1.1724844023798466,-0.9480460522656037,-3.3813383703701243,-0.21682457584892428,2.48644600745767,-0.2334598548513538,-0.040222839886582984,0.8303913517600554,0.034325464144076445,0.9160968038928958
-1.8669349942593012,-1.2078681797478499,-3.062481232232671,-0.17150312741616996,2.139883511906726,-0.02973159039294687,-1.7746765631943053,1.2611206845557499,3.0511686989143625,2.316207491202957
0.2552114375614691,0.5737794437634708,-1.007033230591085,0.14029032173638134,1.0066912751597994,-0.41157349403636406,0.39657367223856543,-0.028020408178808354,-0.0672256993546193,1.0638476497110034
-1.8926236489052664,-1.5114166496141317,-1.5661897959234752,-0.22827595375270582,1.7807759945946962,-2.0003293997712404,-1.3057349943648586,1.5227706186705694,2.2552101363496804,0.30695823731677
0.8935229794539138,0.4343597375958563,0.7346604259601943,0.08765305189171946,-0.9468197395743121,-1.7173348386779719,0.4754359277829858,-0.018283919192273124,-0.4934525987079704,0.1914521274996782
-1.53324606746958,-3.349392697284198,0.5340705550864888,-0.1117128097541092,1.0869650614107043,-2.504660643289219,-0.7563271079936403,2.6075672995691597,2.23699875354504,-0.09041961133520605
-1.0546016074546753,-0.36491937539944325,-1.633604537258383,-0.036703534537078183,0.7598467173183128,0.3407140127868632,-0.3242060176412752,1.5420046850235787,0.8190040150548359,-1.238140077307803
-0.015763728895267587,-1.0907918903359541,-0.9865109064815055,0.11832140035048103,1.5998363505609543,0.5771781475782884,-0.21126449441324086,-0.8439356288209481,1.2507846925740318,0.388582140085653
-0.6141957041050566,-0.16777116418647245,2.147072865895141,-0.5070577252107886,-0.37729652524812196,-0.7848598720762671,-0.5129867502834644,2.3145388112949434,0.22569403721105963,0.7393845879210891
-2.1364391328685377,-1.8155805411372323,-2.381476974557412,-0.01995105832906877,1.6322626695484113,-1.0027703861086203,-1.008507462505853,2.112851936274364,1.6474796243100758,0.9270573855104072
-1.3426677407520924,-2.0915747538632963,0.914913566897505,-0.3394364815335144,2.265884398663738,1.5512220603790638,-1.0410385671812141,1.1899915376327912,2.3371589633288874,3.451880532913295
3.2244267580247707,2.1925470251799024,0.24286946675761728,-0.40876057009660755,1.2173298617265904,-2.3460906111214213,-0.3070988068224938,2.9700499465682437,-0.9216079569628947,-2.641152001941514
-1.0645642753822497,-1.0895635951575111,0.6285990517994665,-0.5398894063368181,0.05037036399985073,-0.38796926026550155,-0.10358661344196296,0.9301425044586014,0.1682314060509229,1.9605256982068193
-1.20907980804657,-0.7269939264420047,-0.8266510580247309,-0.36539278121218755,1.986270001908201,-2.171691777020888,0.2538779783092209,3.0609331973820204,-0.4256701767233344,-0.1767235932057116
-1.617487456047387,-1.5056539528071087,0.14725271472866205,0.08393761829892503,-0.3438621057309813,-0.2485356483241355,-0.7507925790948279,-0.08909024450253877,1.5349924957723338,1.847661896823748
-1.4083324138901372,-2.5424919108633643,-0.3386464613302727,-0.18157019106252079,0.363125164886565,-1.153528139616851,-0.7364291006465964,1.229418070803507,1.9642116645911316,1.8451476022331461
-1.5595007662427718,-1.311770658300538,1.2696153204326062,0.10084191883021784,-0.2891100805237129,-0.14973719697123777,-0.8704477051850084,0.11944144304878113,2.5415079852645346,2.264928222103383
0.27242787810945945,0.9911465830420207,0.8588984511277196,-0.7014085902187043,-0.7897604624817065,-1.3277173765961476,0.19960197895140502,3.369037207832175,-0.30920455487635734,-0.7284598491125921
-2.5701874276825407,-1.4338291419495832,-0.5884781111047999,-0.09344290312511408,-0.7030379721890828,-0.17013498759820958,-0.42051487368106094,0.24476410266501802,0.915132350260583,1.1800250766527092
-1.6058839144269401,-1.8803515732218077,-1.462685415946058,-0.426454509055512,2.2034438261796936,-0.7859112715939306,-1.2816982235330256,0.6622248743315422,3.2430676593750016,3.7200575664372315
-0.22962562540391168,-0.0704324452141136,-0.5651241807549825,-0.3028710854432713,1.703416340428813,0.026171097859851236,0.026430095709256363,1.7565003428678603,0.6812580120325631,0.6788195842755024
-0.9678742607585128,-1.1211447283691105,0.36148257482095913,-0.235448854792422,-0.18675188282936994,-0.6713005693274878,-0.8313782407316826,0.25587810214674667,2.7468779129770113,1.0323548375943323
-1.8567010314736525,-2.218947566219787,-1.9234358455837444,-0.13509050732529923,2.4159383372039787,0.771609967225523,-1.349272069111791,0.043497976636889035,3.3764851007763577,1.9009096739889249
-0.47048529269081474,-1.4096664336429767,0.6602052431197005,-0.6812771903139047,2.37583706071502,-1.0193662995606783,-0.13466165980184025,1.6880324996215847,1.2842057241615938,2.102431722310859
-1.0705566091360574,-1.2225086541902999,0.8112741085916332,-0.14016957006144096,-0.3657053908364727,0.33963555837999093,-0.029630472545765257,0.12457698911368675,0.4592701742206047,-1.1184799145710669
-0.5081280830866647,0.30011409611665185,-2.458756461912183,-0.330503962158274,2.25062015900178,0.49325942754137164,-0.880303276086159,-0.16143395876128008,0.968506673445686,0.16835167691240252
-1.9814300584640312,-3.2103532785375717,-1.0746121810771316,0.21031745269825108,0.7650003573337958,-0.1631317848655075,-0.6296609756880306,0.1790882430643943,2.4721672775423174,1.5460491192682433
-0.5729173628111822,-0.5063069399901724,-1.29568002581207,-0.10755780988326508,1.2701099174778827,-1.2421848494569216,-0.4254046122931787,0.6001678708194105,-0.3955383031131625,-0.8650334797475557
-1.204500913877262,-1.0663203511008084,0.49928818988433105,0.05893548882503114,-0.440783713664073,0.09182358041635333,-1.0634382487506058,-0.4242418709782454,1.4946279602062935,-0.6829106338322222
-0.8374228519085518,-1.0354418686806552,-3.270793201952611,-0.5037661930002926,1.4117719396499804,-1.605598619694966,-0.7013565253169474,2.5111296233074043,1.26148273161157,0.51783935643565
0.03409280780347445,-0.416251419822577,-1.774393277044318,-0.08643176958686001,2.3087263615896125,-0.694764480163407,-0.6650514357940855,0.3286393555851215,0.8013136420782194,-0.28066343858006787
-0.5574507422714736,-2.8777463503776977,-4.061681747333494,-0.5891931948655097,3.037278633639364,-0.5852275012700116,-1.4250949233418881,1.8906046013395486,3.266700407147109,1.3839992273433033
-0.025392892136913488,-0.20908861381089303,-2.140705507245248,0.5649255126946549,0.7526188232147115,1.2001448305592763,-0.8354266963615595,-0.7205623697475698,-0.2571037507242251,0.21582041842796948
-0.23566813451398602,-0.191470659603604,0.45920688529368475,-0.8957302698639076,-0.6820930684874784,-2.7952825489036823,0.4176325882944444,2.6932670462074526,-0.15837547950366826,-0.27819050528709965
0.8221331771057051,-0.30406400180053916,-1.3666838294244454,-0.5078211768118599,0.7220365345891988,-1.110243070189338,-1.3829442402147225,3.0745335298961933,2.0125181169457385,2.0699102726893277
0.911835041999709,1.6008073113550072,-0.01816051086651006,-0.5916442289175091,-0.4589504126015729,-1.4512261275789207,0.5476385148521694,2.313267225070668,-0.5243259670142736,-0.37995895334245927
-1.42818553081143,-1.0309212437741604,-4.006778008329828,-0.00798721138336975,3.08518151575326,-0.07710689020786818,-0.5949459289368056,0.6387389462859498,2.201492977953567,2.5646756091902403
-1.0154725313921227,-1.942860950147822,-1.5221928636131334,-0.5590306774028301,3.1111146714888207,-1.8491097258253226,-1.023303321320261,1.4901116199042401,1.6781750622191178,0.40987328276192336
-3.222752836518928,-2.899747344967796,0.056834261786322546,-0.40723325612489375,-0.23307050510354188,0.4386868549835699,-1.0692170203982954,2.259876820374185,3.248915925088724,2.535822339690209
0.6345460266745432,0.5267409796988486,-1.8758440111573202,-0.32347184008135743,3.213517227746893,-0.8365476214984152,-0.10510236225683767,2.908430879224823,-0.9775700433172723,-0.5652521282019646
-1.5908949843548321,-3.1430904568051075,-2.5446377171866486,-0.07447898488793893,2.879242291814401,-0.21336638172565378,-0.21937618053119784,0.1915247341003472,1.5093014183242968,1.0240378632548346
-0.6640812258251835,0.5951868062984274,-2.0824377934216223,-0.638522395900043,3.2430644050648167,-1.7080135054997125,-0.5678680180736225,3.3536630478479186,-0.9664830535963113,-1.2435702814820353
-2.8928120361466143,-2.260701188351297,-2.6755805915644872,-0.03979837647670022,1.9567203023773874,-0.4122517093642529,-0.8487741808017361,0.35371925406854254,1.9326641653721954,1.3490819455006184
-2.4298206906573565,-2.1559313567416156,-1.3806514442874356,-0.07879216040834665,0.4029464695085698,0.8110897216433244,-0.8002495752132938,-0.4769439893424444,1.9205490310362445,0.30821124377128556
1.3645973790078814,-0.14373704938148218,0.2524941044440773,-0.3129351754392839,0.5515467721336964,-2.238205097572392,0.4859795836012774,1.6483526141435134,-0.3145420346239709,-0.21163671952013072
-2.2996280239742695,-2.178452882135714,0.4944582356469423,-0.49062149895759166,-0.40819758579094756,-0.6222571281623734,-0.7421214122173913,0.48056909713372686,3.43186613838276,2.89958103913576
0.7794327439145023,0.028079460491146457,-1.1611943296418672,-0.21698878061736374,0.429344428724155,0.38070381427431976,-0.19808423018250634,-0.23394064392400438,-0.4568428932299434,1.433956720212553
-1.8139567631840832,-1.3547258997945406,-2.075865146071499,-0.3077899822486438,2.8925869903832018,-0.6403419054073913,-0.18492732381985041,0.9666368165338866,-0.10642594595314281,-0.5751240986040709
1.288187692414427,1.2873967198813863,0.7361396061128687,-0.43919420768894063,-0.5537401065819413,-2.383966098642778,0.5604236977830379,2.2256275151371696,-0.9731467604817788,0.5068073284116046
-2.2486479879913652,-1.6910954916780314,-0.26761190848585414,-0.3607527179808049,0.31401327848496763,-2.1778556761221526,-0.03101230778609331,2.8895532837933877,1.4237985542597147,-1.516063120010277
-1.8395171805641228,-1.2090168553360754,-3.2861643729468364,-0.38911575398903964,1.5055568466251223,-1.1778942003094388,-0.93077699414771,1.79189625145864,2.2531873148812376,2.0250537649009104
-1.045579808303304,-1.9039532328129878,-0.7237191531871726,-0.33735380287201683,2.679063290433639,-1.1330585945231637,-0.6824195919468969,1.667573654855277,1.7029782216705134,1.5215301065142934
-1.0197795751683891,-1.7335331367847169,-2.0528292134459467,0.18036952692630862,2.367647066528598,0.36143221728599867,-0.014525492111227112,-0.025821644125070264,1.45237416879604,1.4292495222962331
-0.08015529452906826,-1.1422984069362265,-1.0468498698319508,0.3139022156971555,0.5825206658766351,0.13848794239001994,-0.798394108759152,0.029287881182445963,3.435300339147851,1.9640741713791208
-2.0335857383849545,-2.7748451658016418,-2.2679687493482317,-0.4285497674698987,1.2383123316873155,-1.4846799852928234,-0.9914954461403613,2.6652899197235986,3.072305645558565,1.372390858976921
-0.6885430835855475,-0.7080562665103476,1.1142794759817927,-0.6132316528338827,0.24656447522109803,-1.637479506811913,-0.18870105663894798,2.5087676292290904,2.3397363316031825,1.3730892444577136
-2.0270893246246455,-2.041810245211068,-1.0991677148040975,0.21204830677811395,1.7357810987408038,2.1957669612185953,-0.8993366392087732,-0.9842118641663574,3.340334322449225,1.4543253609341922
-0.11905517312871786,0.3437316189533615,-1.2543716409504158,-0.10379418994248922,2.9175624694174034,0.1612989856614862,-0.6252812237345078,0.9124117878171911,-0.29642672843769335,1.6624886621989214
-2.54364073217937,-2.4241659496928127,0.8301413885558829,-0.3505654882240317,-0.7341304513220837,-2.7153644428804204,-0.8483662173989682,3.194473227091021,2.9738280114876634,2.4247884957123556
2.449964384252935,0.8196028125931091,-4.117196888256741,0.28459691588414715,2.707052867523667,-1.023778566853538,-1.0852786315107283,1.0076039776503825,0.7551466260921749,-0.5208056857190176
0.14230393991384652,-1.226865233953174,-2.6086906707331323,-0.4453131751709049,1.3501730584598826,-2.031514081741143,-0.5852141562900985,1.3229130613584772,1.6244278199517708,2.190089860605522
-1.2578916581767698,-1.9852616857446554,-2.4196037979560554,-0.1876553471143847,-0.07881868935003933,-0.7236733312526971,-1.0713687215299608,2.444128360503427,1.8234654896690436,1.8633206875003991
-1.477344122731338,-1.6354062556108022,-0.6364927154560107,0.0878552681121623,0.8222330135340177,-0.2440462051786907,-0.3166572926367921,-0.5906225823725468,1.2141681098466117,0.6710676993436819
-0.6593450801394022,-1.1314287297316628,-2.793904583262085,-0.18344919037333463,2.3004836509317914,-1.3867381438411848,-0.8107684022258501,1.7509825623524473,2.1099093162007514,1.3281395029086531
-0.2558436622087035,-0.13954931440769763,0.7795586576179574,0.3379828962583378,-0.6715483761587548,0.5271061400992502,-0.2863765313294937,-0.8343907602180777,0.2483570133695132,0.3810992155796171
-2.5122279677441317,-3.366296059107584,-0.5308384725292226,0.06401375470927281,1.4782709634197646,0.8744551706366293,-0.7303583713648524,-0.45047257781428496,2.5595323875594116,1.7963868941039625
-0.32449473967488474,-1.7110084801384313,0.8926997431419759,-0.37753138589131785,-0.6624917870680233,0.69425311896003,-0.6580465748537746,0.3884403548941735,1.9841819931163593,1.1594306038184616
0.3035614653565956,-0.6143103183372248,-1.6837498442700165,0.20490409423272063,3.0712726067182974,0.36093462347919497,-0.5478341539907136,-0.7562325390092738,1.57145311495273,1.475995697005151
-0.009645017232922527,-0.9416253568452203,-0.7885300336504517,0.37579205556966844,0.23169748626044528,0.9196554276021761,-0.3147693653586932,-0.3507528043276905,1.2981185567485136,0.026186489963617388
-2.116699301754665,-1.6647300694394713,-1.757751589272639,-0.0009973385588439513,3.3860921283028533,-1.7859894831656395,-0.11282242546959984,1.6719071299535089,1.8008177424973355,1.2307897444968985
-0.8745845629016733,-0.5771302835180456,-1.0307781031977163,-0.12650489257765973,0.7261470435410702,0.6135942594670195,-0.8498503566713845,0.3387084478621758,2.092129604306496,1.7025905281118834
-0.9716020562840739,-2.0220955453500946,0.5668260881606725,-0.646180286690673,0.2832084794625873,-2.620244938738046,0.38770468255106183,3.1530986891755797,2.1175690225326096,1.0916101047249465
1.3280785158576773,0.5257421064959182,0.43360178948599465,-0.21423378846292157,-0.25914336678927974,-1.845734348774398,0.24601654415632285,1.7897886070526767,-0.36975589178637536,0.6090660184259686
-0.1436198419461175,1.2109754267659143,-2.9294376191916918,0.021118477759651973,2.840929148216073,-1.7406317234935047,-0.014879942945737246,2.3059846197428233,-0.6878458375550341,-3.0479235490463914
0.317699990899936,-1.2960259460254069,-1.387898243729182,-0.5682365999303418,0.052500488218029995,-1.7474642909732743,-0.40224512730735623,2.0942188139620037,2.758390520687088,2.130980322779259
-0.8915545128579283,-0.890476347075338,-3.6103000179302236,-0.0759647043649113,3.2056438518057853,-0.5997968745385596,-0.9908085798206401,0.9749225840380518,2.1920274795044707,2.78559110380825
-2.318139919944986,-1.3812534017459137,0.7383592153782571,0.17962235951075106,-0.6783903528352424,-0.0765349868085263,0.13530752506733745,0.4901345247649136,1.3127662661573418,1.7665382503509057
-2.2337966885321925,-2.7869611649874106,-2.57625240457965,-0.637156083646141,3.0939623209567424,-1.461354498305167,-1.4790606225501821,3.4490587938380823,2.5173441386673794,1.7195148436372742
-3.247880037000924,-2.1276223600922806,-2.8870492534128505,-0.009983914631789529,3.3663926479999464,-1.048972230519722,-0.9996368911099762,-0.7126874667681333,0.9091484124228966,0.09140659404420307
0.6056081658827187,-0.5045431603202762,-0.10851337308970344,-0.06531614611768204,0.5368490098943131,-0.7624825726636877,-0.7531867616682375,1.438425370702161,1.8182770172061824,0.3620881175967828
-0.12420916981370073,-1.8999960287117268,-2.5828509387995187,0.25137791310621815,1.997512708056914,0.05785981769245982,-1.5569705884236549,0.18211349343803174,2.2088516104567866,1.7463148324329913
-2.8692147019093506,-2.5948793823067793,-2.8236646376034966,-0.20605832402230223,1.8730081769832228,-1.7290383547138712,-1.7683979157311904,2.953662069182404,3.1458335287717736,2.0006904531370013
-2.651125920831329,-3.287388882923936,-3.3342322535902413,-0.6642361284596942,3.4617066432602437,-0.462852808123023,-1.5173881782096261,1.5973631088105584,1.7163318510931713,1.4246914969343476
0.8684766553601877,0.7608377379269005,-4.671659572480606,-0.03174292053544177,3.1830209321037746,0.49367871195135715,-0.44411155013549036,-0.86893551740937,-0.8392521867199225,0.31838666305621266
-2.0742616818887503,-2.766881780728361,-2.7346236510240503,-0.2768735679886815,2.539416413226084,-0.4437200110752806,-0.8496528835614512,-0.0037795416993338105,2.5255844268871073,2.094314683992194
0.7967804727154637,-0.46174276238341977,-1.7135222649933994,0.11584399243162735,1.3212571355190135,1.253384888252263,-1.3893594661236435,0.05901745302152861,2.325503802520764,1.6382937958347559
-3.0896585229300864,-2.8341653731433687,-2.8256198675110706,0.10238891956988072,1.0735064491280855,0.1839692766180691,-1.1911721840662106,0.924897029198106,2.723108740168499,1.020013552433536
-0.11233613266679086,-0.5920257855383008,-1.4540723721278663,-0.04916424353860562,0.6345457033221658,-1.3745926601596146,-0.43497946369354235,1.5904445437165644,0.7201262932019574,2.230103852662506
0.996430956765905,-0.03906857858833492,1.0078865606715843,-0.2534370030470482,-0.32270937303117464,-1.4219745775103656,-0.44346401583746536,0.7152582649368604,0.32256559638647464,0.1792952573208883
-0.8541130311747893,-1.1754719829508526,-2.0457006787553214,-0.0570070785491794,2.783410010904674,0.24849576069473883,-0.814570768640598,0.42419235770149455,2.41644713218083,1.410967003202688
-1.688159459812742,-1.311705276308335,-1.807705652015569,-0.5189401512483088,2.8549707054751496,-1.1221198112275017,-0.2385119999347563,2.3092739401389535,0.14882978808697334,-0.4313502377264205
0.7130823160667668,0.3783827953121984,-0.3778813208871968,-0.14547385353633085,1.4578744397411212,-1.4826141769091015,0.7885065559602417,1.8501020038150178,-0.4438362942256998,-0.37685133460210496
-0.49944264805469313,-1.9260447573325086,-1.335104059948556,-0.08736909207434058,0.7442214220305765,-0.07789546773923528,-1.2074196335084373,0.08509434003870253,2.2537232637049787,3.0759591672538047
-0.14439247282175308,-0.08836411850366621,0.8853502010023812,0.0631993484373657,-0.9834860558794448,-0.5425582438026859,-0.4806683478782186,0.4517186971371874,0.2661103129842821,1.739907063711781
0.8657076420948622,0.33983127461315965,-0.9611324099862685,-0.08814339520031449,0.167329027666536,-0.9242520096322521,0.3856021019376,1.534124736620428,-0.8446453067140134,-1.143183689447213
0.48689752987739043,1.157299131381099,-2.250703072231449,-0.18895509816717107,1.616682502130645,-2.5290585639110508,-0.8371648627986806,1.5160749914195941,-0.3806491238172782,1.2600363799776133
-2.6330287660411,-2.219776682526904,-4.365675165138805,-0.09026744595248673,3.393186709631756,-0.48657526870683304,-1.7704386317105838,1.8546527361111305,2.4348329552041954,1.628700852991725
-1.7728068000811206,-2.3914708527796233,0.2999874357182724,-0.592937241604466,-0.9434148114152132,-2.910971956776815,-1.0389393979526302,3.4417915310067215,2.117327571025657,1.7899525341405325
-2.53714971713741,-3.134137367155196,-1.5187176971227694,-0.09189119958250776,0.3664595571658489,0.25777547249928817,-0.3506472466731613,-0.24210107055124197,2.766859919126553,2.0572713446563826
1.330692039864629,1.853158168704545,-2.106684978507269,0.0009916839749666165,2.7358366019352096,0.5024753282828803,0.14531696902272434,0.1509452690664035,-0.619661898142043,-0.5828698058939901
0.5831225403939102,-0.05719087102198307,-2.645878433005177,0.07324715092503468,1.2075437208363464,-0.13439375009754265,-0.7191291006601107,-0.5785813523190562,-0.25272962879221295,-0.11183235427428295
-0.5963815717476307,-0.9647130388595438,1.0090588329904955,-0.30017236125884345,0.3051133639047836,0.35238554897606,-0.283375463667301,1.293253143894543,0.976038959142711,0.37976044313269364
-3.4928457895911635,-2.2290936217760065,-3.7827407933045785,-0.39445553680642126,2.9777549397196394,-0.6891836190682165,-0.525348356763456,1.0645305178667197,1.5827454622651187,1.7947646970106126
2.162049430464387,0.8624604383340762,-1.308310487894549,-0.3036682893552873,2.74015245032421,-0.7383634968612174,-0.4260905264252308,0.2144538601555901,0.43453452494931843,-0.5254921983456774
2.012646601620859,1.1990932795238458,-2.4296358850677255,-0.7603121701810266,1.5541819449414365,-3.2282391547838056,0.2183607415469322,3.0954153719782473,-0.6510305377629971,-0.8830964366981953
-2.475500452110724,-3.2753671246911535,-2.6438114031024096,-0.23689263844207195,2.5632176833853877,-0.04320734303848134,-0.8628182498955363,1.488791682861951,2.692097833473063,0.8693339079145603
-2.3556231789673254,-3.7381467068341525,-0.7275648418970271,-0.6079554177523167,1.1061991620047449,-3.0805956955225846,-1.346220184177434,2.7624726145681877,2.9449283411480622,3.043882967739535
1.0977654945407176,-0.6275649244141167,-3.2011826526933693,0.018241525224449766,1.745385665223306,0.35159642420246,-1.3346107641516904,0.7957168093863971,1.4448119592295936,1.80502587773979
-0.7705512035199796,-0.8913666449374361,-1.9708942544076389,0.40848237567228646,1.019359571739781,0.24145753518010735,-0.516839388966001,-0.23621533461608712,1.2610800670013553,1.4305498578950289
0.3355306721583722,0.4561236122113249,-2.9801618422917477,-0.5265827311046573,3.2220729491022064,-1.1908477814250542,-1.175844863158122,1.8674106053150181,1.157421659218632,1.839495258002441
-2.6637943772159294,-1.3570794144408909,-2.8234412867002106,-0.25432829617363295,3.2954476997022084,-0.9815274785624649,-0.767088023653138,1.655444513801787,1.2781196796061458,1.838272838335295
-1.0814426439207516,-0.5968519381926577,0.4796981726076834,-0.2997210059225573,2.574969763440208,-0.007181797301698489,-0.28712967486873736,1.3042743511091635,2.0810812236655796,-0.6690925868466325
-0.5208416163314746,-1.1502744682383308,-2.288261297389761,0.12986395368122255,1.674930126165067,0.5816349413111535,-0.9129626500054903,-0.6174880961829572,2.170976086788124,1.2030672794066808
-0.9908738550864581,-1.7491624422801448,-0.6280958276289405,0.24063514245981563,1.1222233851578753,0.8247102547431697,-0.6836550119006453,-0.351648335149109,1.0519391752120582,0.8451179037751758
-1.9505997228066136,-0.10251793831153168,0.7865389585387179,-0.2072438847808589,1.3846733823740576,1.2493601304317512,0.29520611210762265,1.100260393396936,0.3752334296391795,0.2628433731449539
-0.39201335227621664,0.5784065309704826,-1.770759592759699,-0.3852184527269823,0.6639673233996395,-0.5633760772126198,0.33914341127951997,0.6011826212021592,-0.4995185578041871,0.037567154337634
-2.079295009508561,-2.461969084427991,-0.4236249039361227,0.02044398088540843,0.743067768504919,1.3404943227287516,-1.2502581203279088,-0.6096537457689775,2.3476464935453167,2.131605125241295
-0.4582477465665072,-1.8218258813670656,-4.832249576704268,-0.43528401594352994,2.201441595466983,-2.50933257656856,-1.73339781649053,2.397439929936553,2.4541202011755483,2.2022072784503077
-0.004949837272328078,0.11983206423214396,-1.507546683497774,-0.26131734740635276,0.6260931647701007,0.2361472063872957,-0.5454677575216297,0.31884057725009995,0.08947901140087366,0.5090552438606218
-1.1926733335145934,-1.4502565099388807,-2.454315771408638,-0.4328512410296151,3.195823922166313,-1.8638180984742074,-1.5265406163343798,2.927306396107147,1.9605165300463936,1.043099240777567
0.019444850303906316,-1.8420621203901826,0.7619140149430492,-0.41128688591375373,-0.3253622530679481,-1.4286386484698979,-0.24108377254272378,1.7007824620985978,1.4758702642814558,1.8032430202842036
-0.33806199658786973,-0.21272621060270783,-4.599735545669139,-0.7094833067519901,3.391630560371829,-3.9106074010018887,-0.7931846302602468,2.358214355361864,1.8505459732808136,1.4033592198765812
-2.318678133795349,-1.4613155713870245,-3.816101032773192,0.07644847606851803,2.859502708292359,-0.3238003260239338,-1.6329562501769441,0.9974686610142749,2.567612792484623,0.4435524438726404
-1.1137024262705382,-0.10319623811685892,-1.5760792978735745,-0.021806200275716968,1.5700407725376264,-0.2814137565484235,-0.5393935155300869,0.9142653215364382,1.0276680021771747,1.2044373252586442
-1.3611947175367172,-1.6364049809061134,0.4619324523200251,-0.5750550650101887,-0.038794610392522966,-2.9612644166978113,-0.01657388898470995,2.5229784460868716,1.5702569849597166,1.1863671369215136
1.5317446780958521,0.026189516546003103,-1.9513218993726447,-0.11507714303740892,1.077265041129848,-0.5670012998332536,-0.9393252677485648,0.5130122383211897,0.44379647180894266,-0.8764909281273419
1.235109410576298,-0.7920431077746775,-3.2587264874744304,-0.4423781466335624,2.9941311266225736,-0.6944572031620624,-0.9670106738019599,1.5817225369186456,2.1874136496541317,2.9899782729013644
-0.9985427582947636,-0.15799927241534,-1.736490203498196,0.2851542866816496,1.759867237385404,-0.7315765732678887,-1.1948093636517403,0.2821078445866716,0.9848619980755571,0.4102896831198465
-0.2513228408869059,0.1565880703387655,-3.822450883905136,-0.3210542914638667,3.104702908987923,-1.10168219552411,-0.7207200970369365,0.5285780184000881,1.2533079256132336,2.1722486970398576
-0.42660136848689595,-0.11887418314546377,-0.05164050715175669,-0.7137892184626954,0.5553249397017839,-2.090055689164626,0.3468039394743022,2.7345915688665974,-0.22187726678338893,0.28500223919626233
-0.15621839519851977,-0.7606898579820732,-1.0988824982434306,-0.6763884074265971,1.2262888041732114,-1.633113679789115,-0.30156431802773176,3.4090569011171397,0.44367106258982125,0.04878970607033619
-1.5283965364719994,-0.08440383889469527,-2.083609130020639,-0.12159276921853428,3.2431564127443266,0.12331167583015905,-0.6205144182620579,0.3668521634790205,1.3602040547564354,1.8443914551675613
-1.7159872269737997,-1.5697486209965925,-2.1729383045697093,0.20219550731373012,2.433161146748591,0.15293964622513007,-1.5573368007656103,0.7946477949445199,2.4643563147773553,3.3059698913320372
2.67957130385023,0.960207428335782,-2.8051396690752006,-0.47795379199530014,2.7827974183902002,-0.17574654069067988,-0.7317390113220356,1.224189721483858,0.7286182116523645,2.207692482674093
-2.3288208649616045,-2.248570491568,-2.873483563076765,-0.6748970774585177,3.1039837007676017,-0.3275904230808958,-0.7607987781729374,2.250047743333365,2.4175153398148583,2.8345720500485103
-2.287109962373636,-2.1557119046643365,1.627839258873766,-0.0837700211615227,0.38250710491593054,0.08408515871046995,0.3999272389366949,-0.013661409936010505,3.262563484070137,1.5605910648335621
-0.12635151251137688,-1.147337247077214,-4.266014085505488,-0.36427497562304867,3.2015733445725107,-2.033771889252167,-1.6083686240925266,2.642555739269428,1.9617505519397134,1.8648161767924505
0.5271635525892138,-0.6399895316112186,-1.7059704313691406,0.04454405077411104,0.3201034463933332,1.019578724331349,0.4844409322184251,-0.36422292909871357,-0.5223329815462776,0.38641414384621753
-2.35357902654522,-0.8807984141700738,-1.322074003469298,-0.4377230095580443,1.2477023013379749,-3.1481166666669247,-0.18141089965911833,3.037083095767823,0.3068643606170107,0.8480815684658819
-2.6966239845277507,-1.122035559286293,-2.313046101503715,0.05839443743326497,2.6804045693515732,0.48565558050841373,-0.8717906373282565,-0.7877444844005941,0.568080177370897,1.7151311801381761
-0.17311838799624163,0.4767478384947189,-0.6170721053153481,-0.6489191481790766,0.16083299985079091,-2.48980631713686,0.044821610344507934,3.182372405014611,-0.5039851790629807,-0.4235373150913276
