x1,x10,x2,x3,x4,x5,x6,x7,x8,x9
-0.5297349390356965,-0.12554718422539268,0.4976674804321959,0.8515510249917044,0.22713663050318822,-0.6593896127980072,-0.9956082361234335,-1.9357064885154662,-0.23401024497994544,1.8284987525641654
2.682019568944851,3.0667905808495917,0.5049100562160027,1.7766564996463292,1.9541967173541228,-1.4238784465959784,0.7199709643129291,-0.1902146230758495,2.969513298528467,1.8950507141962234
2.7250066006538765,0.9282361391747835,-0.15437688286257667,0.8414237132559288,1.5761636303917197,-0.9611576194959529,1.281299314864703,0.9873709411384703,1.6258274390208631,-0.15902432770517183
0.7906114324203288,3.3839850914752123,2.363370737060986,-0.4804177950034525,0.05695487420316239,-2.40132129580237,2.4487925523687673,1.6520601941236628,3.7577725487514915,2.8291137099093717
1.7114151583092876,3.300050123276969,-0.06599600567897723,3.3039332801861026,0.9955461458561472,-0.5538145205387078,1.7991629078004814,-1.4355735665272111,4.334915449449804,1.3780561153050765
-0.2987859504609458,1.329890993202321,1.0809984164591724,-0.9309411618979228,-0.5586133690285848,-1.8746686804116128,-0.7634948610996022,-0.8879002563106497,1.1985631500574834,2.017566924520781
0.6041700443509226,3.310226352786869,0.5521265479953261,1.2949627613871084,0.8000874403308857,-2.7825458505127014,-0.6269591888693704,3.4550610723672714,1.9085126519080466,-0.33529200528746084
-0.5416272761901453,2.5480644139857027,0.052794189877124656,0.4573756484608602,-0.03312915563086939,-1.3975414645962525,3.068738283179904,0.35802432945885065,1.0370104158403817,2.8576431227161683
1.5989514032390808,-0.6984510607463933,0.19843868680807394,0.6040349052959384,1.8663213602688955,0.47915523673499466,-0.1490886622518538,-0.9072895577354456,-0.3199946094500843,2.76146778233136
-0.23029954176869816,0.09595883895721458,0.2460302142136308,1.4368445088854283,-0.36082394039949683,-1.350586832656632,3.234217589339326,-0.656506516623154,-0.06697477242245273,1.5942087235519304
-0.48832777627203816,1.5647746483597293,0.03989474342207322,2.704205975216006,-0.4336116242995026,-0.774348597158619,3.2186811279428706,1.5240066752592791,1.1618543105778105,0.5414405813502021
0.49843866054651254,-0.19662716522971102,-1.2461664269328154,1.0724011717739859,0.378642843388105,0.06785577205882354,-0.5795980868795616,-2.56855184909663,-1.0008350614582298,1.793402973622928
-0.5426925567193882,0.8234689794125925,-1.0857974137860216,2.1802693905282022,0.8621538445047674,-1.3423882795994146,2.393487101876761,0.1498815942473084,1.837538587284251,3.3466189185053654
1.6711274918052434,3.2166733118478454,-0.7499059621626225,3.3719082516468655,-0.0036134018360222675,-1.7640829943058558,0.2017523346161727,-0.43093348082866484,1.612149443061508,2.0134658041402362
2.5223519694958427,3.3514202606880437,1.1233686043996456,-0.07264866604042552,1.799160793733186,-1.1080748425697373,2.5481354084107277,2.852332682846477,2.9141167962525816,0.7807929734264594
-0.4576010421538783,1.5218243461403969,0.395090718928631,1.3696041140885833,-0.5017543437096815,-2.1041356375709777,0.19382313275175922,-2.927373681908345,1.3594905334975076,2.242327607652344
2.4818504586600922,2.431790850685999,-1.292486970605514,2.4988908509102337,1.9349359814273206,-0.028006389801930015,2.865436627163781,-1.1719292822092575,1.2809446332662797,-0.1752605816849928
-0.5654235661219429,0.3797839009034496,-1.0660453654878066,1.8371932390554129,0.14623907780060352,0.7635333172334318,-0.4158490993274844,-1.0407320963136864,1.668282668361354,-0.3916703732938659
2.6544760543217647,2.5826941093090685,-1.1200515268273121,2.7940642982274775,1.6975969888932811,-0.9826782634901245,0.4074509213538733,-1.639793338322998,2.5726282308143884,3.3527320848738382
0.11693271443675934,-0.21827216227956336,0.37630730889542935,0.48409273408133613,0.7638674139927117,-0.08914838311112816,3.0697385219337336,0.0819471213495554,-1.0466219383236848,2.0334669241943892
2.027534926267763,0.6395529533641406,-0.10148201469926466,2.9252791959255418,0.750473278152353,-0.6415060069014232,1.9350879118625364,1.0090360029424246,0.6607268553808892,0.49705113605333917
-0.12516514276239132,-0.12536870735608685,-0.008169319085799542,1.8019177375246374,0.7643053212665772,0.10778186175891702,2.3939140331562276,-0.7220441565561765,-0.8207909438131606,1.358090505749327
1.1657086648917128,0.8799322681114143,-1.4871569416262787,1.7638391347654143,0.08566596454115227,0.6619122576078111,1.777105791962955,-4.575678747105836,1.0404635518227705,2.9528344685169774
1.1055964216746412,2.1815346013606085,-1.0400885801273618,1.0271965774192457,-0.10427350289243054,-0.5297647102147429,-0.08490920893536291,-0.996712572475395,1.001666200497895,3.0853805641269565
1.3095226012871901,2.2131676311310917,-0.39153144646866844,1.4978828304233334,1.0723546798009391,0.28541265616814027,0.32949895408227947,-2.9210405361844596,1.404035358978756,2.913883895736926
1.6609561669585031,2.8086870982701146,0.12204398729616084,0.5809490601678544,0.41668137241073766,-1.3994050530776472,2.688495034449527,1.1901019955945213,2.4281241708831627,1.0573543116759034
0.5124735346742753,0.04060140380133004,0.06784894613434533,1.236655333828414,0.520921680961951,-1.5640094484781335,-0.3989017804988646,-0.7243545961370734,-0.3354534291219614,0.32215754731452906
-0.8336753663665526,2.213683807100046,2.179201615879882,-0.7927563043243351,0.1890809005932768,-1.1291547777199344,2.0059897887445852,0.23912866181499703,2.8909138183145364,2.0061368330348355
2.8174613619530526,3.3479827001587443,-1.1391167421526007,2.509155571938907,0.7015288121130172,-3.175255694689145,0.6601524534817924,2.2524627976025724,2.5848872100461344,-0.6782049999791289
1.0488474039838298,2.2485269260153613,1.2335330454391247,1.0768911507087284,0.566890358655369,-1.599251498443128,0.08891518923533503,-1.5448892619537198,3.4564844106489057,2.2764217006748106
2.5199748284383796,-0.9733469501042835,-0.4482718587576232,-0.6020520901920892,1.803868533129271,1.026982125220757,1.7289515564093345,0.3235586156709958,-0.884475564836557,0.472412923115759
2.8274545792253187,3.073839528115288,0.9430399128747697,-0.7970681559745018,1.3551951428433182,-0.22636780802105533,-0.2262304534273345,-1.83014586456349,3.1516818584310706,0.33594148309075367
0.7238981361890882,3.418413673812185,2.2950249827834255,-0.3560251527940661,0.21923148182187896,-1.5202920740663741,-0.6661196975902341,1.2590105933246367,2.886403253979969,-0.7284626549095197
3.015962695763765,0.40661011070218467,-1.068972253362524,1.7745900602445217,1.8114660628015746,1.2564554884807115,1.5048968329105934,-0.6281611570223766,0.5024339478469099,1.2592041102555571
1.3797434325372815,-0.37094725088540736,-0.25451323566690603,0.7919722819934429,0.08943073627205675,-0.04694232216045829,1.7602580552954823,0.7396079164202298,-1.7142334285724603,1.079551010614102
2.062998625202351,2.293162471032261,2.8670945476721466,-0.6508458921664007,1.5581285774324323,-1.6617790734322473,-0.28488506754169696,-1.5506203054361372,1.3793406545155538,1.9115202134928584
1.24681196546848,-0.8399238048070905,-2.2583891236700504,1.4351963499479132,0.13271990788726704,0.19128964950732805,-0.7234817284616681,0.8000193074995008,-0.9822111948409817,-0.49943809429244146
3.412886580589161,-0.2319388098154268,-1.1259707207145997,1.6670591447111454,0.7117167110100504,0.34106804112040096,-0.7097340686673754,-0.912798396795883,0.21026507810046546,0.8749322787758083
2.2957835060011256,-0.9449582592950528,0.5182813312028165,-0.5958890252509502,1.3529585051190123,1.3126408685717723,2.928313062819276,-3.740923041606858,-0.5380943314552301,2.849318128569771
0.2201778104400307,2.500294277291761,-0.8186069334313529,2.1943355440136796,0.37243615369423905,-1.3468621889452608,0.7098067100169685,2.1929970434571433,1.3941568470075436,0.028312209236277086
2.0400505252790633,2.276242024683373,2.38615440583951,0.23766645868614789,1.365813461769539,-0.9198207171305437,-0.6299590358976617,-1.227382553963596,1.9303823345065734,0.948257422257218
1.72134737313228,2.443195367780844,-0.8242798099313453,3.006562609596248,1.3292252011030166,-2.625815950675521,1.0057922419330234,-1.349470225687808,1.491596545539831,2.727352768567307
3.2867812318169003,1.0997368480173466,-0.7097878049574514,2.2377078107247175,1.3320807752858375,-0.5921672149980223,2.3437643837571196,1.6046995998036921,-0.9309609469378778,1.7165810312353211
1.9995374546075566,0.047211168304191364,-1.4309036020329673,1.5586545603779967,-0.09017077657326522,-0.985815080289763,3.4286605265926102,-0.6572037832374212,-0.8964082088735482,1.8774340932917557
2.70622862710484,3.0060839509084376,0.9686913920359611,-0.2563223762958444,0.6692458480490652,-1.3833537053168024,1.5065405528636377,1.5274607154112798,3.145250190239502,1.9818625639559095
1.7568561774527924,1.1296945310907898,0.9235412148594704,0.70065014005699,1.4297558597402538,-1.7017204628032523,0.26456626657934446,-0.5893164464646681,0.9945776780162171,1.3515259792496588
1.739467342229287,2.9295926547548423,0.9339404593955227,-0.488015502799077,0.5662810312257331,-2.966206269147189,3.0693340510005394,0.9199810811131587,2.186283273552787,2.101377217999571
-0.16284577232286734,2.3024651309825725,2.1566621080462665,-0.6146034619167853,0.09190871992603544,-0.47452970087955526,-0.23059156989431573,-0.5796552914102393,2.1168980631407432,1.4950603697411236
3.4064568383627236,-0.8545551502247956,-0.14244036118347703,1.5362571739581892,2.044709186541768,0.3576813778624973,1.5462281402381879,-1.768044247353215,-0.47185306576866515,2.693933354528002
2.3144606181054552,2.4238033761169966,-0.2696977045660689,3.1465966484274395,1.558028175640821,-0.7896512109870929,1.3958890464025613,1.2087631026707375,1.3460313200407654,1.6507356925470815
-0.6620546547197012,0.9243709981702324,0.8542463004979602,0.6612223680064941,0.6671525871394254,-0.6010155342228802,-0.2570104138343309,-3.244623816259383,0.315007766363774,1.3502873304804321
2.3959078747062508,1.9551023749700667,0.6739835046175005,-0.4084531821963915,0.8760322065806387,-1.0728824003575959,2.0783647570539294,-3.209995362223526,2.227314186411563,2.9243384096290947
1.2592955292759709,3.2089585594824728,0.42664017957696454,2.2341464953674453,0.47035524403175927,-1.7653967150385426,3.027799897903437,3.420270518569795,3.918893797431846,-0.12317198165287258
3.3380108519126406,0.8137225109442079,-0.3851870544399396,2.7513782779563916,1.4094049330502685,-1.4689649583390547,-0.5534508224518438,-0.6111835153479119,-0.023301904985267987,2.4950579157234385
0.26045939596309364,0.6952370507022032,-1.174040259049415,2.5373387751640575,0.37023245741462296,0.31791139358576337,0.751500345760566,-1.190349051590402,0.6055081312550146,-0.6258181929532178
1.9336635203011956,2.406683179269968,0.7344212501040195,1.8322062592500314,1.1127300914663458,-3.49698801981953,1.8475464190590571,2.0121029803754213,1.5692771899330138,0.5248378517327723
1.2824330250376494,0.46036455334076387,-2.3599612518492714,2.965218584951073,0.9723386796941581,-0.5776263086480028,0.9297525530868915,0.694755469481356,0.6621036766017475,-0.11215480691829338
1.8831345093305196,2.8096882152170473,0.7207913441140694,-0.3055898663656489,1.397300835341847,-0.6342944815486171,1.8038865219557958,1.628248495932193,1.3875243103117527,2.281379343436754
1.487224517478675,1.4191743121348042,0.06229177905712863,-0.02017915783483415,1.5026734306460798,-0.9205229673959355,-0.30689092341076185,0.5682469220709271,0.5344197344833399,0.7400969605322549
1.4801926627324686,2.065330122675103,1.8727335858304672,0.14595112540282762,0.3058872226383907,-0.5078857710868158,2.406380898231231,1.7603252211924072,0.6636568190635295,-0.4075188282242356
2.8038651082192003,1.1450437968120522,-1.078610713884331,2.293956044551614,1.257695560193883,-0.10639422911116586,-0.47917200867300114,0.24874748664023139,2.0195669387109216,2.238465249377723
2.7228424450167874,1.172256145041978,0.2114635502627802,0.28153454883088025,0.8360787444541316,-1.4781317232349278,2.373962268784577,2.00332823466137,-0.01794463573070808,-0.25597592647261325
-0.03225165918010131,-0.36818268679843513,-1.629918629037926,2.576095303039437,-1.03088730253976,0.44712717153537584,0.8356139879780711,-0.3482824522435594,0.5145312811085448,-0.6934815222609532
3.186757855603668,0.33889938986595536,-0.20839095584733797,-0.6792462312863503,1.98138157245028,-1.167723880691929,0.04968405770310658,1.1659538847542794,0.3952782189498499,1.845246776772739
0.3121467239035849,-0.6612160471981534,0.5169542335661749,1.7026562576069977,0.7690583665700896,0.07933243116440081,1.840348199450153,-0.21261122578235064,-1.8275636001474684,3.362510044839384
-0.3882359102524391,1.4502833138316906,-0.6367133952087832,2.124571198038173,0.13453217495397907,-1.0422841312393922,0.4535549112955859,-2.0200916223470764,2.2001543942101724,1.6860780696895001
2.2734938297860707,1.822394511980415,0.34188693481484356,0.0887616831800715,1.7272242602137906,-0.12033020559835891,0.05062396807756131,-1.8669372521210543,1.7698420439845919,2.5963356785150236
0.14067405569902047,1.2546816477268266,-0.9091575264224399,2.808785627291593,0.11942209571815725,-1.011601845278662,0.002881992840199521,0.6295167645900176,1.0617972449195001,0.2621131305858406
1.7539529771130096,1.4321428584522229,-1.7075472030492724,2.9594182845690433,1.7686112378008376,-0.39758378557625873,2.945644612449487,0.7724737749573607,4.064573378866553,1.4542041831571497
0.40593225708278546,1.0471432690433704,-1.0783413067759309,1.603562667548199,-0.26561961197316897,0.05344993213174498,2.8534614949088386,-0.7048388820128739,-0.377581995168163,1.611933660063963
-0.8967605005158208,3.349547027914375,-0.7251903369775964,2.6600137258000016,0.8881046982107156,-2.5193966064993663,2.264083876017708,0.04046079121621893,2.9401142599737438,3.1495851663391523
1.2774899700554432,-0.23385397570948685,-0.4740898424293545,0.18626165298004027,1.2045328343693984,0.2614132546978023,2.5096296156072246,-0.21615964651768516,-0.660029754863433,-0.29461145900151353
0.6302379386969732,2.522607568441738,-0.2716662845290969,2.865070260766553,0.5162654135732052,-1.1629620284835138,2.795858288601892,0.8309157308438136,0.43751636138353456,0.5573036401378628
1.7248747018102915,0.01711037633868595,-3.136328996614453,3.2628693084063105,0.6637073794362781,0.5826961755803669,2.3239251127848735,-0.5357902788644391,-0.29217999226499225,3.0826205070058865
0.7673007246852797,1.7462107994904335,0.17592937502926098,0.847213383470601,1.086372409319405,-1.6710883318825294,0.39121837210477284,0.8829251035162093,2.419663122054288,1.2069448164051249
2.990395041549932,1.2582261664563772,-1.1950717603942054,0.8781513196349955,-0.11651944851184687,0.10348973095177455,2.6762773155521478,3.074956267323987,0.9216454527867005,0.39264540121361646
1.0680476357616184,-0.9417389152088654,1.4898253230018303,-0.784322207661801,0.37098484894009054,-0.863757672617809,0.07086722668490375,-2.1306673943204895,-2.0668279290570015,0.7084116142204457
0.7622069822713,3.0887386787101923,-0.04526900985685345,2.167795717797728,0.3653539360393931,-3.0600343504979044,2.684808808303091,-1.0004611909339967,2.1930153645836463,2.0801230165785936
-0.43877745736673623,-0.9589593215297283,-2.180445448059447,1.944089645057192,-0.3025069909308399,0.3471131644590857,-0.2817462258469803,-4.570400527268769,-0.5340888056084624,1.4953095312372104
-0.4092184157111851,0.09131362728711245,-0.8633797341285416,1.755917113626746,0.10902854989571004,1.4805690097497397,1.8268192250530282,-0.7404990495420659,0.9491043835448895,-0.3519816907911427
1.408912655322192,2.536627251670214,0.41807321768767086,0.19276021199378524,0.7068134014498356,-0.8155800656873855,3.045539940865689,2.7387310151218696,3.306477964595212,0.5868616008319125
2.008371404892754,0.57669327017166,0.13511258890076633,0.17356042130339322,1.466524506945795,0.13782056823485145,-0.3029831530943605,0.0693561577641641,0.21239791869558602,-0.027255843782463818
2.2949914474188504,2.3100134876561174,0.11271062189080326,-0.4674417920565058,0.6680694738983266,-1.2649754004738478,2.2088188174154735,-2.6572060084414018,0.5927282753906757,2.079111094083838
1.8246051690330258,2.8565744961230894,1.5720010138506797,-0.841933492669929,0.7180839388276896,-1.6841843602234978,-0.9529360369180236,0.2671382681424591,3.3437569111867043,0.14708593635355593
-0.33136516541276984,2.5030783254700113,0.6473503540457604,2.370072111007412,0.4934340880825027,-1.929066303710918,1.8873640828631673,-1.237351971596548,3.081968074307861,3.185603807869411
-0.3662906313220706,3.377412108724407,-2.627193551414448,3.4346009557213923,0.2727790365410391,-1.0454448971802128,-0.6762568763513611,-0.8265038771113531,2.220736882233387,1.2277252995437267
0.8839210893439391,0.021935554386539824,0.3879590176503478,-0.41973731207319664,0.15330603585185754,1.0790813375560908,2.0435106858627043,-1.3495814932475145,-0.6810496157911413,2.044097420621658
0.6498836486714088,1.6720051576776584,-0.7357783184944033,2.560190099097178,-0.28557369712087444,-2.3485970976472474,2.544391526747769,0.6390388627896437,1.7533866545240904,1.907586721473828
3.3605728198034797,1.060962459699926,1.5351663459507185,-0.7960637710402709,1.2290040840891756,-1.6808096823212846,2.8023744931547285,0.25348327999804715,1.5764803806840542,1.2431986673098572
1.621675392953605,0.21050737916088025,-2.1034791465500042,2.5565607795785503,0.2531611308993902,0.946397854531547,3.1359214230893073,2.0350920912663497,-1.1841285715563659,-0.2630190017509312
1.9396145354048677,0.15885866301634843,-0.1669210521298934,-0.36056660874276847,-0.122391328181401,-1.3613385479592943,0.2767676999241655,0.9550993557207307,0.45859256529423265,-0.2669480273120278
2.6502655899311307,1.242249963697331,-1.8057578493258775,3.426936504852124,1.103494735677124,0.6074113636738453,1.7430412378160254,-0.5855835450280454,0.797834929350628,0.2837727876083167
-0.6595172732521357,0.516463021827698,0.9586075289106726,1.528278407631435,0.5908226037979727,-1.8101900505979656,3.3655558277124795,0.9224267436397068,-0.02053272173094171,3.4333286458794863
-1.850154002525084e-05,1.0296992652594152,-1.490807359338667,2.856734745776784,0.051765708846542566,-0.04653889769176342,-0.7480372814803583,-0.6023731713881599,1.2838807548138602,0.10703356803290354
2.0676030957263474,0.8444341307753223,-0.6085383647331516,-0.5689824945605091,0.867870023125469,1.4267110088653763,0.5140476687918456,-1.0707621884807412,2.551782305729887,-0.775294163120023
0.40896677749877774,1.633514008325914,0.4845820296267228,0.2526213070598202,-0.3338217817607785,-1.7052955512216217,3.3269886509582047,0.9012481412355808,1.4273665235300859,2.3363479436232666
2.8913197368677466,0.1463373849086962,-0.7949227780350653,2.2746532120233276,1.4244240950184153,-0.5720983533029945,0.6890275196863007,0.46317205709827936,-1.2102915451887466,0.3037542700679339
1.1969678178069456,2.220238940064435,1.5290941903376005,-0.38618746061169384,0.36408379164217425,-1.5400356001349091,2.513221256546757,-0.3758029547574347,2.4653525058211585,0.8143329068239011
0.5439010701094444,-0.030255232885871286,-1.773118413127088,3.2201676941088797,0.13936506661509654,0.654854482880272,3.2882716452637224,-0.8296386816581874,-0.27809046998980463,-0.731769819706481
3.094532863259438,2.1447454963955344,-0.2690851529285261,0.7871261501424072,1.084748429285709,-0.8441394409298162,1.9858194785819343,4.376436107462177,1.6499502697858277,0.1480680402618657
0.608119008074316,2.3353230979493698,0.6243437779301826,-0.08936204292115313,0.08771771973336212,-1.7224896064004496,2.189763070539912,-0.2094595410303846,1.5252995162054204,2.3383274258396636
3.3858536071425025,0.704758711542786,-0.011060975797159811,-0.3006668811428935,2.7459259094234354,0.2777663197641802,0.21351033365659577,-0.8363202615767837,0.6882475486176969,1.4611519828219532
2.5706038743152733,0.6425950714070008,-1.5312098814357433,2.8682010073786355,0.1545387663820486,-0.9732403914656811,2.6026820427730306,-4.213866465265543,0.43734639426296185,3.264629804579682
3.44869478431045,-0.538116917719214,-2.689089979911865,1.1860829074873824,1.5294639816863844,2.61042124200987,2.490104953125841,-5.646259726273846,-0.7002298781891204,2.815022543664079
2.8282675892280795,-0.5868284732969675,-1.0227983251968658,1.5022422744132395,1.1867666325888808,1.0618316878409695,1.6595301912661022,1.5312883313925443,-1.6376829355347446,-0.8511907702022774
1.4360192678384958,2.9631785374437913,-0.760951400748545,1.3763074293596653,0.9320369301217725,-0.39783945508227786,2.1551570436554974,0.5852563976669681,2.618275221915831,-0.3748965226090548
1.0336566836274446,2.523333730430936,0.17593285500825484,0.22694232485869525,0.39981605644343554,-1.5524051311292029,3.3241541195882522,3.985695676428967,1.9751790716488922,-0.6141260256051747
2.2815712599633517,3.3960911131200353,0.8077827803352601,-0.9768099274873508,0.2208090877492096,-0.953039416901111,2.2274285287649946,1.8666098066763972,2.4305863617405623,-0.1870326579466819
1.176240327049018,0.397087344371871,-1.9797768306082413,2.907761192320236,0.6389121283615347,-0.334065701362094,2.593706924195983,1.794421393403877,0.4627977951637201,0.5214631783144668
0.3957155599086275,-0.23651864574571646,-0.9355413717014878,2.1227987934121204,0.33587209347856495,-0.7893851512419298,-0.34657973462278957,0.06381345238473768,-0.4746929913522738,1.2681020291983538
2.8483866259574513,2.203045071800517,0.07515819766107218,-0.6370794805664723,2.417090522017138,-0.9297523616762546,2.1281811556186376,-0.9136363913035911,2.787335011580882,2.1754703312462538
2.000209955022657,-0.30954390732681436,-1.0609236836660823,2.9136510845453096,1.637857975358472,-0.0326041673498562,3.2516079644459994,-3.3299086233924795,-0.30791991294516446,3.1423877141923136
2.81448406993919,-0.018920447472472568,-1.1286788916424966,0.32351265045144717,0.1478228761780564,-1.5341191915860724,-0.8101588280842346,-1.6400379373004599,0.550495969682837,3.388703315143073
2.552930255439607,3.1961875816907064,0.051253089223614934,2.5791691611599434,1.0980678999293405,-1.7871918558937359,-0.6512991241774044,2.9506196124507955,4.128291161285424,-0.1989489048224503
1.9552823944445104,3.3914907556674,0.3670632756974952,0.4291491194929262,0.9105772174648997,-1.1696431387206805,0.8749728270927051,1.9301179028956206,3.098478416853816,0.3529070572263793
0.49322072377897297,2.041954476870294,-0.7163421177548686,2.9692511625174194,0.49993067859317186,-0.6775489281423361,2.427555506966678,1.118245410106573,2.2621255134779976,1.9525187018411785
2.221978302257855,1.0624387643955422,0.7708702730062208,-0.4122539553132415,0.5951310749036883,-0.8793029259405639,2.794800616798487,1.0326469370290807,1.2278504792706768,0.29253551611666917
0.9496188240010415,-0.9230590377588832,-1.2389419547458462,3.117626642166985,0.8515860869747172,-0.4114066017123482,-0.8364861354593718,-0.2630462558001889,-1.025369535983591,1.9039714432968449
-0.5660882230364905,2.9246694510898825,-2.2158628468660755,2.7374434375578653,0.38109748682950384,-1.4658973429470206,3.3588561473438308,2.2914165460007627,2.7941107406416106,-0.9570436730985242
-0.009965797461824466,-0.019013739559196385,-0.31354146647536557,0.5977581643895815,-0.14397366901613767,0.6617959492417824,-0.5323123304425732,-2.136362429280947,0.1703488011436584,0.31934626273757516
1.0315076956333384,1.8102888841725044,-1.3249697244436565,3.381560853322042,0.9430938146755601,-0.7701053020776025,2.7061633678207015,0.47782608244344116,2.4299322243198853,-0.8586191673588429
1.1044563719115534,-0.6973496113580638,-1.2526964551071333,2.768419450070062,-0.165389214827587,0.18376130338626287,2.065535996750455,-0.1950401002912432,1.845404276271638,-0.2917629221708279
-0.9829708764033361,2.3592132409648876,0.7492212798201171,-0.8549835271959413,-0.5804064559930078,-3.192497132731772,1.130823341598354,1.5339680088724477,3.420359479265444,0.5793369375218682
0.29807367015561326,1.961478953616202,1.115158195300686,0.10307082941808665,0.4411422415153058,-0.5808213126690138,2.8373946783991357,-1.3761942508431966,0.6787410831093238,2.7322424429841488
3.0487625057467076,-0.7253307977670607,-2.96084590828967,3.1256363701794125,1.6292841104065063,2.006044944122202,3.292509098601151,1.44072281818836,-0.9841584021492793,-0.49185669436899637
0.4907173094422912,2.2712995251544505,-0.006584863445126321,2.1873269047043893,1.282646827977426,0.002900565575253977,1.3688368358697773,0.8420740500485558,0.9618422405764067,0.8777210219881584
1.4290610944235977,2.3284381138841237,0.617391073845963,0.744000340629767,0.6080964007406919,-1.0827880798298246,2.2837643805576895,2.510226522145018,3.573319054151747,-0.6588572216098221
-0.9213140662235485,0.5047184021738946,-0.008490793556085618,0.20980997388305256,-0.36798616986447186,-1.599649564226428,-0.572809344754035,-2.503579018031173,-0.6291157310761353,3.0471074312337683
1.021248341224514,0.18917645538897965,-2.9801302337840374,1.8726193957686088,-0.1145455988938866,1.118448728312158,-0.7454428339933183,-2.0476564430114887,-0.685378655452711,-0.9330615786126575
3.3816087879316905,2.011149670539023,0.4181309581490168,0.6334922275925507,1.4326174085098589,-0.3786811525817229,0.47947173612440075,0.08262330935807849,1.747541166602708,0.8483787693326486
1.7484873466028512,3.1743997219085864,0.5303517903860749,0.956168390660262,0.541522668666769,-2.024124548606431,2.9013306205519482,3.983531130915716,2.717257245057229,-0.5603334839589034
0.48980979325182084,2.595690487767345,-0.2763632556221055,1.2741510451280131,-0.8154557155886336,-2.542521214703081,0.7918513437151249,0.8185937917512102,2.293087252498342,1.640468909041131
2.831042572880457,2.155157840676195,0.7875471363718096,-0.8914148610780942,1.6004173479962027,-0.7820180520461762,1.3773563705537923,0.40619856034255847,0.07218994226552439,0.9612536999200887
1.5439082692548292,1.3599017721000406,-1.179376577317099,1.8899807516837357,0.6402644097293483,-0.17648355802401755,3.403878180562658,-0.5330043792942809,1.125903787751258,1.8333290975937229
-0.9320973622042208,1.9491175378401362,0.4572188474274168,2.104250019059708,-0.07159019755415616,-2.14581989762356,3.337883663922373,4.467868094151241,1.5994969842580322,0.37030732365653196
0.8719681174374001,1.6767116677199199,0.8451456033921111,0.3310298951177095,0.30117291649631467,-1.4391361687274422,2.121243212872933,0.8481622038860444,2.731121722610522,2.325023188762745
-0.053170023689514845,2.254135140454056,0.42040673718459454,0.047895296409198984,0.44333352743354704,-3.080049908094903,0.40907351910923895,4.081539335792259,2.5945299564337376,-0.26897793956030025
-0.029183806314507788,2.575292411753601,0.4698463365243424,0.5280143114730684,1.203224424385167,-1.3065747949178423,-0.6444661668324559,0.306818594379204,1.2074686480130357,1.0661407782798804
1.8114135225836483,1.1344878326005436,0.8776844357765962,0.13362325562378619,1.1693480105134482,-1.3790778464524693,0.05123487698415863,2.2283651414164978,-0.7503930001616664,0.8826802440238621
1.2111786111323242,0.6496351933119802,-2.9872798799014255,3.317728568053221,0.057690297371597365,0.2612577622297563,1.8996091725629967,-2.864844114369637,0.10974514545344657,1.0618450113861155
1.2312346515573598,2.9220393540707374,0.6945574606980693,-0.9468364220457383,0.2847550388553387,-1.3225541349370518,-0.28190265956635907,1.384992919315488,2.306723865244408,-0.9391647513359471
-0.5858464340064224,2.2357285788609946,0.0712948436676406,-0.3794580989523417,-0.26968263544949667,-1.0720683743317145,1.31038828176959,2.7340423122286555,2.066793411591181,-0.8585420573122363
1.9514994532376946,0.7036446414783257,-0.6720486499130481,1.2817010258413677,0.7980215408088478,-0.6626506057213537,2.085342706610721,0.019135004074420703,1.5702045319058189,0.08763894766549707
1.8095151908686686,0.8139036039375422,0.2938286730881324,-0.5510852919733247,0.4105006293097352,-0.6397864184945427,-0.9801195788153534,-1.5864407661263586,-0.1318292587016774,3.216870014982767
1.1000574507908483,-0.22732536404405612,-3.5284744487833324,3.207138047853695,-0.40413697792254677,-0.9286781607599519,0.07854705682042828,-0.6181070041811313,2.0542702641800097,0.1620308470750249
2.229502777941336,-0.5773199977561936,-1.5943517097622495,2.0027684846291187,0.9301912435050159,0.7059354741923789,2.06211144712931,-1.074289309222979,-0.7238707320292396,0.8426063458657234
3.4087124721233613,0.6788813083648291,1.2231209422821392,-0.414083961139172,0.8320759939135303,0.25380197419112666,0.24699337905782714,-1.6314358464547722,0.9882114317308915,2.7513246667582383
-0.27128536442643925,2.977165714149148,0.6106922885346484,0.38017621983978733,-0.02367117637477978,-1.4889181855223894,2.704153803761281,1.9295510368929982,3.339473172007723,-0.38410796190515994
1.5095842492129998,0.9404749002069281,-0.8130522893665827,2.877788155791957,0.8591186057598392,-1.0945674447904696,0.7201865190791736,-2.713644847434575,1.3852267843494015,3.0602510483114287
0.9299212321104617,3.022607354694852,0.8669436301155432,0.1255381771836208,0.9353847528753243,-0.9618939243014726,1.1237107139180882,0.035381803999637085,0.37475644595831187,2.1378449822235677
1.8338263344879602,1.2274816424008748,-1.0306925422086102,1.9227336554473755,0.2835178000163778,-0.14292260601797932,0.43607001644275445,-2.4002034904275567,1.9027599359175689,1.736679437168354
1.7660327361418648,0.6569007308972827,-1.2536341187166156,1.9995053820591768,0.1508546345191629,0.5323742212240837,2.740552754138702,-2.201975456821107,0.24005735131208686,2.2782576661744196
-0.8958433533908119,-0.6436418420352967,-1.7369979385076362,0.8975613768403141,-0.4376151981290479,1.3667101213635666,0.9041112053452793,-2.2189269108032144,-0.7577734675391609,2.294181165430279
3.0846563376654768,-0.14538189692150139,0.30518036552798344,-0.7327348680149961,2.294159071542848,0.9928357365464393,2.311492431356096,-0.25069204743467155,-0.43688882067494067,0.6389911934946666
-0.6897863591872959,3.09163540905778,0.5326647051393252,-0.572158328575643,-0.5173954638070566,-0.8962652680067977,2.3327444677452664,2.108397237476159,2.3634028364283273,1.4041396477839974
1.8381672107654587,1.1859828197970406,1.1800414369310435,-0.1775583577124611,1.5257807447345682,-1.3019199770411793,-0.8364322103437851,1.591955279594985,2.2167645418495203,1.1004976502227644
0.365494545371156,1.4969393042795338,0.5498198786522314,1.1581621355533889,0.8889877247531304,-0.5228768087743589,0.1766423465320408,-0.30845621132274204,1.3061456023173361,0.5475101228086456
2.466262286411265,0.40299874525220347,-1.4338229770094815,1.453423161715527,1.0160970690579703,0.10528455654455798,-0.01112466092224429,0.8466534314444383,-0.5907254308293725,-0.3105767870650694
-0.632950663797264,0.7377290541898125,-1.6283262466572168,2.8519588669132854,-0.3052485289512189,-0.6562953994418783,2.8264280622329303,0.8419049695248201,-0.13932457098012027,0.29328058711963956
1.3573014321994075,2.3068014585066123,-0.10787510119465549,0.3359838478945989,1.1738654164796092,-1.3903109674809981,2.847682206827124,2.5282121918093328,1.2793900795649555,-0.4659848515571534
-0.20410749899608727,3.122735952424354,0.0033596302341392104,2.510226366726404,-0.04169058242673354,-1.7639922406363424,2.862643334605385,2.3311844061389344,2.5288780145519922,1.1508377262850424
-0.09145367252156689,2.940668894772934,0.28297881218684484,0.9494610400907408,-0.14503410365997957,-2.252240252340263,2.013059572648665,1.0799480991485566,2.2681737030638045,1.7190551405283148
-0.6547169820031722,0.6829267267701042,-0.9126326098045685,2.4367635423117515,-0.3386422174109207,-1.4658255610778044,1.0713307254579463,-0.012776527263714928,-1.1090688530280008,1.1252665057471134
-0.5092490862593241,0.4812496903302572,-1.5305813198307812,2.8885841700815,-0.006733642183665622,-1.976510012110488,3.3327642812739198,3.0176941291963946,0.2038069715332756,-0.49952995700871994
1.9369929071364718,2.130379893390983,0.28539603090354626,-0.15200769941753012,0.5036394209377878,-1.4550702212096063,-0.25847130147949615,1.9029254507074103,1.943652634097971,1.6437980922732134
0.03756713405785739,1.98157649583976,-0.5678180653047165,3.0300034173915567,1.2566494500007281,-1.7971476880354946,2.889928292488273,-1.7368375918723455,1.190593591746146,2.8464699645366167
0.5441784021627218,1.6179249597776932,-1.0822294743507634,1.8864844307331325,0.25174610602465336,-0.34212068261661843,1.6153225805374478,-0.0019289200123661088,2.269380092446568,0.4587270180143779
0.866473004040117,1.8931087832358533,-0.07898674252055926,1.4942811213753147,0.4076207102881392,-0.7637213885711414,2.606417563243018,-1.8168259289640274,1.0096814802577978,2.2657878399003564
1.9285368213121843,0.8589242372444907,-0.5971648801070595,3.1479286048688158,2.065895131726054,-1.5991712324034832,2.7995263523055964,4.782007436181958,0.9929056115093888,-0.3551748397359694
0.3964757915119699,-0.43871161869346487,-0.7369932980232075,0.6580383077794061,0.438368434078966,1.5524292785376028,-0.7280894828326736,2.404905295599324,-0.5745987947463246,-0.5458314825537202
3.112466946308805,-0.3574750507922756,-0.47626916456334356,1.9404783385192843,0.9913985403460446,0.2688252033618941,0.1773415262992759,2.653229778200651,-1.2271565390460766,-0.4792299732113604
0.013583369461130479,-0.29431638890564504,0.7345524386911216,1.4279423136802918,-0.15742603859473409,0.09643432758116957,-0.172859406049932,-2.556609658698538,-1.3050130660817885,2.8543636515430055
-0.8905443976811821,0.9714752764901748,-1.1729978362277633,1.1128546220113567,-1.3038994498273162,-1.2963011369031272,2.8542399618980583,-1.4576433011173375,0.9237842834273493,2.2719931864795195
1.912452280194119,-0.22824766792337214,-0.6192175865077837,0.31008468194665006,0.36658559403504654,0.631502858992607,-0.26822815906881814,-1.3050596421977028,-0.9169693406180691,2.3076530292655772
3.0602814429656435,-0.24747854029151606,-1.645272641480359,3.4048258567151457,1.072613638480339,1.0370916610460679,0.28266894572282064,-4.0506522032458765,0.08241782321421945,3.2366778062674397
3.40160609716897,2.556816534659547,0.9984033359715418,-0.4448523165284086,1.1878078680726956,-0.4606021695985407,1.683491639156335,-1.0366138400854028,1.5515710433884142,2.4059786870029938
-0.2742275319353473,2.3391193551684024,0.02586207425643905,2.0173436079833884,0.01655421296664783,-0.2536887849490584,0.30547124440764395,0.6838384621158,1.8580763557008098,2.3786653425106365
1.2231395884890794,-0.8797305320241133,-1.1625111255105554,-0.03353419195329066,1.040424961807625,-0.4838431208326167,1.7389668658668471,-1.5218485329229783,-0.35692013461607425,3.2876736111892617
0.9061477620067313,-0.47296476018687816,0.72596270384365,0.07134623982356003,0.1427278176284546,0.6678110342673491,-0.6047048043514412,-0.815124103123235,0.20597623145328153,1.7035512925744953
-0.33438597889971855,2.214568451903632,0.8105499725661454,1.2922756692234016,0.11128418658851341,-2.3102319298298655,0.08004399911836191,-0.5795615177981732,2.4995063894856573,2.034259881308374
3.142210722383071,2.7757775705315386,0.10591346475986474,-0.9151045887621492,1.4194487473456348,-0.756730030152874,1.6278497389708702,0.158989086045565,2.6076385999358718,1.3062802874434012
-0.9288420951988685,0.06418977274923598,-2.3052087783070823,2.9943997690708075,-0.7562522918827976,0.1312290538816271,1.4375763516320381,-1.7036754678831776,-1.49889297053345,1.870711328743142
1.0964190964211102,2.9788895907676847,0.8886593427115836,-0.563801009738897,0.8275285653048279,-1.6248464599428405,-0.748481527441114,2.6527875083219845,2.1986931450185323,-0.6840049853092518
-0.6624555000890343,-0.5284416550937383,-0.9986793722486647,2.350605454836438,-0.18536953668594006,1.0825242129072086,2.262436761836296,-0.15587896677405688,-1.0882976767481665,0.3260077922821121
-0.9420718199426502,0.6787261714618205,-1.1490701303980952,1.54018610972323,-0.46635074132578347,0.5993486701621293,2.7235831552420606,-3.367161622026795,0.27106890538470074,1.8660152816969622
-0.928390494000358,0.1612669532401605,-1.8401204582874569,2.5303146894002158,-1.1161507592925848,-1.1844826516216491,3.1834942114094744,1.5281919834421178,-0.5843876492484856,-0.2641073720065287
-0.9910631644936133,-0.33826993589400567,0.2773443478010232,-0.11635553710622082,-1.2457348895776985,0.42025706702791915,3.000706364703367,1.554965006431733,-0.2189653348636911,0.0942946194845471
-0.63296269806228,0.3954603037884199,-1.2497340625551567,0.03534061077056516,-1.2467607763801907,-0.7447442471482068,-0.05758043047256067,-2.0259575020383505,1.2990859030623192,2.0051958072879166
0.027695011028037397,2.7121291494184776,0.6669336252659597,-0.7243298038939697,0.610663948768516,-1.0930560851173836,-0.1470099958837272,-0.2010824907742741,1.5330061913764268,2.887964867862851
-0.8582222874277352,1.642528715610125,-0.8483261860055212,2.1081088926899905,-0.6556647829827478,-2.014076561263093,2.6183877108541225,3.9106316163781742,1.0281535709595644,-0.7661861707348752
0.38268533253883197,3.164646079754827,-1.3520444925048203,2.5667011388235763,0.5110366829452537,-2.8515652427670446,2.362525620315348,-1.2115405636938672,2.288474862206612,3.247462961745219
1.4201052767053843,1.2985182529586003,-0.12838288894779093,0.5976565476776439,0.8589626167083237,-0.3513898513012864,2.4854561202323016,-3.108873756042157,0.8054307357439247,3.0119756379289253
0.8129998395161528,2.9797871934797096,0.7820677254818182,-0.056073567524150936,0.27227980585628064,-1.7690674177532721,2.5950019912388274,1.927963153904546,2.4737273845011476,1.1920938940677237
-0.28785501667599434,0.480923438537874,0.20853363306612419,-0.6759547767915726,-0.7352208616717573,-1.5460014704441463,1.9186790002824088,2.2111111366360032,-0.8244751088664344,0.2000813832193553
2.9116750667453664,-0.3321762281047954,-0.9042303000246072,2.4016833373491973,1.352508424373454,0.08116170946973544,-0.9781496202101367,0.640901497452175,0.3153151910752159,-0.8116632911090393
3.0120583321689693,1.750566148486889,0.053131016430387756,-0.08551649829739116,1.8196527712073685,-1.9839432137689295,1.4289770016781937,0.31874630420076056,2.882441518616576,3.120733562771761
3.4344729399085727,2.355352660398569,0.7926663545283829,0.7728334951655254,1.0642166006260705,0.39402397775286957,2.6369290598287978,-1.4882655824860984,2.7638944849243474,2.690276978712449
3.441641969828889,1.3563997951159212,-3.783616517011366,3.292427966440817,0.922766784316269,0.4024800937583845,2.604982679729917,1.9387371442620975,1.2465669061368188,-0.22895448954268272
3.1221794215834624,2.1064226836558566,-1.5079067450284462,2.435457064246461,0.7647871153877267,-0.5248177508199214,0.2831156593306119,-2.8059819547228013,3.1270673567069056,1.9204821893584705
2.2201678721163796,-0.36899927598819726,-1.3484985434663628,2.5038311324225386,1.3554847638157956,1.382247550693396,0.6433012598614145,0.9134841046443924,0.22142157096014686,-0.962696401432976
0.030246347931400352,2.4217767098930354,0.8816757728431561,-0.35010461891077016,-0.40558811672274203,-2.6536547813796845,2.018050533480531,3.094427139377244,1.52150942314394,-0.13598796613377329
3.454300892265045,1.1675785466405197,-0.6566490022484217,2.059382412831445,1.772407974585505,-0.604178114159904,2.757753389331729,3.000934336953086,1.6522951531871242,-0.47915160488952613
2.385371560309161,1.2276997700763013,-1.3328598514087076,2.0745713431100423,1.59666728131534,0.8913422158628992,1.2026798007065786,0.7126558823269543,-0.16967838916235106,-0.7669591620193561
2.0618175817676128,0.46174571989047886,0.7116946744638362,0.038849073109712196,0.792797955519668,-2.31724407661568,0.9637654802853082,0.3489685105021974,-0.877986790928763,-0.9051590820530497
0.7732124315252973,1.0261869499949392,1.0951388388922925,-0.5135464290462235,1.2334305248304958,1.2420382442219673,-0.6623823583323678,-0.791017983242045,1.282575299130133,2.0972159169652764
2.348074016525939,0.8281190810369341,-1.9091090055549285,1.7610858705855161,0.18889366936462137,-0.5250990616594053,2.8107063415311955,1.0348258903381486,1.6873811229789424,0.13814110990194317
0.00269963908586468,0.06355675569243324,0.43023200300763037,1.1241244757980637,-0.25712280664077575,-0.8967932577183187,3.268589265455951,-2.6116546192712917,-0.4835114187238167,2.8545259466482293
3.0924342521197827,1.470035082851414,-0.5576272013643975,0.9557053183192528,1.7845160067712837,0.5697652905408078,0.08933538956439291,-3.540440858845554,0.5306921396284501,1.9018675834049388
3.129261023161262,0.44534155938593556,-0.5558822511659551,0.8969123839200863,0.11080669854734426,0.22494806683529084,2.959986572759464,-0.6363053710636669,0.1286100036491344,1.6287832206230424
3.0648757272312803,1.1828731811567978,1.071223248997696,1.0369029377935655,0.8659245473830967,-0.9400337018554833,-0.028893189376726025,-0.2042980275590589,1.1098268099162214,0.7767284278602951
-0.724245596137858,0.1037690906794968,-1.9437219827168386,1.8055246089204426,-0.4919844221349643,-0.25487235555384197,0.27567589481254284,-3.1546020036727307,0.010617792417325595,3.2676384396330738
-0.3866342605828391,2.2909231194205755,0.18184902691713536,-0.024558194671333022,-0.6883256247245126,-2.578589880130586,0.9307913913684005,-0.009503067752525851,2.5406970863432483,2.1480117819283913
0.5606627975931207,-0.7588228938294134,0.30625328739655233,0.8542870220144632,-0.19446237046870626,-0.9752404041845877,1.2766270746405635,0.6116046106025617,-0.37617288316362213,-0.35287711744092587
1.5506002239062227,1.6092929710469632,-1.0245529056094633,3.3518274509982646,0.674837509009641,0.22981163605827246,0.9384965537859105,-2.7531905594048234,1.330088675653289,2.9435112036476654
1.2302316200951329,2.8332955413203735,-1.0887476866365884,1.6729245459035988,0.8109132634806931,-1.036419270000458,1.3526354486762262,-1.7652072849098586,1.5725856521789736,3.296522310702038
0.44100090573096407,1.0944438137187653,-0.7829891988205389,0.6735757293806188,0.4294166528051586,-0.42080311020362704,1.4130589269095317,-0.4280347313252169,2.1962147307852917,1.9983886961199637
-0.6043507608491765,-0.6207158793688896,-0.8327989875245305,3.322535477607375,-0.17970598635811985,-0.07880252223198539,-0.41932911074710943,0.3186209935160308,-1.2068508941179021,0.44114167074352184
-0.7919479869615539,1.8906992509534426,-0.6439485989465902,3.083701912327439,0.23086692941330914,-1.364826717173233,0.453273755133037,-0.5403253228158701,1.1481022163267356,0.6225240811332935
-0.9755859744229354,2.993285785192273,1.3652585885462423,2.4335092281371185,0.5277721370016231,-2.421629730174071,1.114549114225409,0.7189184522737536,2.161047181831328,-0.057834158721835505
0.7359974358405101,2.6374332051587492,1.6469160044743574,-0.688326508260547,0.33776114389000655,-0.4345851375761921,-0.3977028681001564,0.6218163380606317,1.0708129051719413,0.34578464208170456
-0.9047885836223626,0.6734116003371657,0.3030988146454295,1.0116701163259387,-0.5585999207007518,-1.104165994646828,1.8372421493645783,-2.7746484059276484,1.7183142108046758,2.5535126181013177
0.24940738420697084,1.871890503503597,0.5051311414271031,-0.657736424594038,-0.22045156280993417,-2.9120278823289407,0.23877051246372738,2.7026908786082524,1.5205584774106395,-0.628862728446123
0.11335108257184912,1.090603017854232,1.3897698040081137,-0.7097543208921866,-0.31672406440296086,-1.2128309386956695,0.41994894605199407,-0.8654489532543024,0.3536870225856067,1.4602483396466162
3.1950818425806977,0.2623506997660958,0.5314847720862903,0.4472023362767301,1.8426624817101778,0.4257918569661051,2.5741077202654026,-1.607393734620311,1.4478318695638055,0.6805092124138936
-0.515988795008208,1.5613289338865277,-1.6710845822605704,2.925360510612186,0.07207756667964071,-0.3609367283611331,2.894404673472557,0.6002597882253968,1.1240168441988698,0.22900544205085138
1.699578911268885,-0.8813077950659932,-1.155951851134644,0.30145418874727525,0.48823439362881565,2.2714932889945683,2.9818785509523114,-3.145812732293055,-0.23493100862485713,2.460308785027719
0.47209228217269805,-0.8675916885004602,-1.0084682200815644,2.801860791939811,0.11310305022239633,0.14979955926041488,1.4362237662985655,0.8372215371713121,-2.40408295377999,2.3807581026783717
1.4685727334267065,1.0282672064511869,-0.49011511607784986,0.11431678967526793,1.4873775849127553,-1.6663403999882287,2.6559960901224673,1.789122260728702,-2.0148129874592016,1.395546126061292
-0.6941828388588431,-0.07866058985933422,0.525148085087103,0.2951959840737812,-0.7026338860590885,-1.2419191792125719,0.1266943425611322,-1.9188765872757167,1.4489485680631347,2.8246951706393335
1.8547422424944204,2.338180794161793,2.348412541604996,-0.1703077769651098,0.9959671894038151,-2.644530194659563,1.5521638934813522,-0.10791760230894376,2.668301921467181,1.6489001686726206
0.261755908168136,3.182996841306914,-1.8512855339359757,3.2840002425443124,0.4832539060010721,-1.794605182614147,3.4214886653249614,-0.14720615578877694,3.4780239496717518,2.5535691852322824
1.5320913872142041,-0.9485457887367865,-1.299914834455897,1.4305002613372086,-0.2882556632554913,0.7527582712974332,-0.7214371891238982,0.13069790510901996,-0.06862110457719724,0.7590256346537705
1.505164256642292,-0.1586748909128326,-2.2871384811289945,3.000034685040994,0.1972747094640137,0.43627058175709094,0.3244302297917927,0.9890618537301251,-0.07618812926245565,-0.9719616909428008
3.134914269210859,3.2239859150668844,0.8528033513301345,-0.5321908332872312,1.6374944422333302,-1.7449490540369312,1.2690930669859637,-0.9229805376142528,2.7415876227368723,0.14848222807311928
0.3383192127552834,-0.13474582019576054,-0.8256178227776683,1.4993205148436979,-0.055253078191597894,1.5562696319663094,-0.6188380710865384,-1.2330697653524743,1.7220147921778872,1.563236607260329
2.8406463682730063,-0.525952649663499,-1.4117831097509708,2.429852612831176,1.5561190635252058,0.012398893384901355,3.312678455800919,1.1321787038125855,-0.9143100825952831,-0.7044678507652127
3.046592373168192,1.6797484730979537,0.5563845752711587,-0.38806903549264504,1.3782945538141878,-1.0880218466904088,2.987712841652701,0.7275640641544286,1.6667510558598573,0.7752112304122398
0.6405116941773161,1.8970368050388156,-0.6549434298646843,1.6530438498988675,-0.32572291648412743,-0.3553372219451932,1.9217128505857173,1.1178931230988614,1.4649468207230545,-0.8329702408322606
0.2266332062486962,1.4888382604703239,-0.26238283756686676,0.1603429394963547,-0.2324635467400688,-1.507806487622345,2.4675019976026933,0.19046324997867364,1.4457062829721898,2.8407159508821995
2.59896999840199,-0.4973174619853934,-1.0842545064541855,1.5407310357467527,1.2458907619731048,1.503297271785388,-0.08265015296447198,-0.3737770115378819,0.7192524554569464,-0.11920884385619746
3.36353242572397,0.9965334089674867,-1.9981874226638103,2.728144451052283,1.2417986881007943,0.9123837903124874,2.7360598105903056,-1.4327161899071084,0.8262637115927728,2.2845106902884473
1.1120101701836647,3.4058174536913883,-0.37759884604054295,2.8699810420415495,1.4198788775827802,-2.578993130815094,1.9963860420350859,0.6446675143652257,4.025474279338047,2.486711546862517
2.846377935722387,1.6937946056846869,0.5493742752961372,2.149569180131014,1.6210827828325958,-0.33844080127609644,1.9361844101895325,1.2399813843364225,2.1858529867184058,0.5408834695675613
2.6661796787774095,0.36615681085907026,-1.9135363517755808,2.178851477883721,1.0040031422147324,1.5820233933723458,0.040545031430085476,-2.4265507551356986,1.0723924636081446,0.2617623121015673
0.9850288370778391,0.6666187348776904,-0.7620287776486911,0.1486417363298238,0.4792822651835522,0.1295107276852382,3.4569146580169825,-1.0743618628939087,1.0468888197289865,1.4829511406055875
2.8718600427459786,-0.5772566661947149,0.6061984807011891,-0.8418019248956193,1.700973212786481,1.9831328488210174,-0.9329569539713649,-4.680567901878148,-0.23347881802147386,3.2091484388508924
-0.8931953817084205,0.40610264057884193,-2.7633386815458056,3.1122734066884714,-1.1719062395619824,-0.34419806697271904,0.466574797603742,1.941051091852464,1.117265256947205,-0.9801868097216988
1.6025399120590036,1.7542219607646294,0.9441999311564492,-0.32306544260229153,0.8239177883140861,-0.9886268092939973,1.1750066727434443,0.9378622832786327,0.9607970248697058,0.9927283771419422
2.913990574176268,2.848201189350978,-1.6005970602614727,2.826231414108574,1.420524397202168,-0.47315292814698806,-0.5326267480149399,-2.8436523431649774,2.157300170567952,1.9032011142102987
2.546458981622388,-0.4056825891818022,-0.5159000670361849,-0.44813408591752224,1.5645850145348164,1.060742084391984,3.1483856688057674,-0.9894445960647031,0.25043422583778274,-0.1386334380509454
0.22948297903800752,2.3214851987733063,-0.40345272132757815,0.36348135400672277,0.6316957173742028,-2.035543361288864,1.248199519613204,3.4606553765857906,0.3411102881893264,-0.855200728533716
0.7156800006140676,1.489791559158157,-0.2674358294835451,0.5776938101460616,0.6150866405323898,-0.34117411721720536,-0.10962214958617889,0.4683440686115441,0.14019851090150756,-0.6028746720658344
2.733912938109745,2.645320190123984,-0.25286746129075466,-0.25282241096229796,1.2189855504863791,-1.5830836339702659,3.4518753547491663,0.39458377392874033,2.9240533472028045,3.167082333262445
2.062492438054558,1.450874045519471,-1.0718708828948802,1.6923210837050755,0.06419633359112897,-0.01564898414310867,2.705471122278379,-0.3777596176088378,1.3659749056559392,0.7072334219013598
-0.2951711292575182,2.080054894406512,0.4412529058403817,-0.5237800972498965,0.28056930427640636,-0.6752643528548077,2.24170003104056,-1.5480147270709663,1.2466390956871802,2.4692778221911516
1.2358227924879732,-0.28231364985053775,-2.142806110828789,2.7141620695780477,0.3214924902018355,0.9346597072484883,-0.05414041049510088,-5.764749556862129,1.0658366517502122,3.455742037239631
3.2684110517683314,2.8594958914253827,-0.6250234821120653,1.8221739145949223,2.807444592212324,-1.1120541487161377,2.417346347247427,2.3421171868015738,2.969927094078375,0.7801791771149769
1.4422832242251955,2.2201126184833457,1.2554254802824356,-0.7231968270959178,0.5848779266392872,-0.7573779225013009,-0.6374381934308079,-0.15798476234699133,3.996350296689893,0.12376933454156425
-0.3435622607337625,0.990673805074443,-0.15902468940601056,2.900617936922855,-0.4051279760518278,-1.2996917078462433,2.718096407589769,-2.590856363987383,1.4166505616431548,2.6371852621531655
0.11126417190055249,-0.6101748474657587,-2.0335547172636326,2.8939048911104868,-0.1575119961981591,0.6565261220565505,2.5754558700455874,-3.703207343346692,-0.6080085076184034,2.583665873424409
-0.49287601574243234,-0.09122904007903965,-1.4683512733924886,0.26149223388969367,-0.41850653312804226,0.3148123219697819,0.37095119145945366,-2.607941785413814,-0.07123292752496667,1.9627365063343616
-0.18961004561955164,2.3399099410072255,1.483312160011697,0.03405869160855457,1.3278414060199295,-1.7074352650709108,2.1197918385103702,-3.2317576379083937,1.5402685420426272,1.5405572891470056
0.4480835103244283,0.6824254651746993,0.007920751495025802,-0.5427721086856482,-0.3855829526903769,-1.376277807571903,-0.4004484316943735,-1.3531651441385992,1.5233556381776827,0.285471335279631
1.4423207657709205,0.09849469552497148,-0.677192692664828,1.2095996432041538,1.110591861027705,0.5423567893184177,2.673170514041965,-0.649475771044986,-0.7685201214086823,1.7403483090248102
2.6126806211583857,0.22884273787192866,-0.08210368244314437,0.983012625731098,1.3579628112971274,1.2584678061545655,3.2379413918399003,1.981710830475236,0.20759272249392496,-0.7704271703316061
-0.1375017053947003,1.5713679104094638,-0.969484308231161,1.2816462226510361,0.4273072119818987,-0.377788956427484,-0.5656713931690858,-1.3915549014130981,1.0681886889695338,-0.8425887736500693
-0.9391026649558765,2.402941940833494,-2.0167170013401328,2.0195682657399123,0.12319297365616663,-1.9870993726185124,-0.6494837045069786,1.4428885264442064,3.336785408943466,0.10777676047263118
0.9590814298350181,-0.1604814230160686,-0.8406853676078723,0.7310067667605253,-0.05398284056371512,0.6774889716410676,0.6030726101915693,-0.3136143353776225,1.4649373982163734,-0.18890312375321539
0.7862597707018151,0.4850360133945555,-1.0660365869583868,2.266939123242736,1.0689749300439595,0.11334248467596952,3.1490214676543014,1.899871553820268,0.027308628923858467,-0.43855172973651346
-0.5961452789722885,1.8853500935471983,0.33728962447786176,-0.6599430775756302,0.058803381422546416,-0.4270844856996634,1.2353585512210743,-1.0635480782247348,1.9359511574709602,1.1797138886959928
1.7387038410994524,0.14876447319745667,-1.1755944931559719,1.3150209839037772,-0.07730006354341537,-0.4334698251407539,-0.42675087299754877,-2.614530379912662,-0.45862289564267533,3.1033357767158956
0.10624279345842891,0.19563461722800923,-0.39867213100610055,-0.19182891196405216,-0.018764042235913936,0.1941614207356386,3.1480811066536383,-0.6850630986744913,2.1176511854072415,0.9577708324526724
2.8576701481443076,1.5872916445006475,-0.6127442962713029,3.2830385702934306,0.8489599178526794,-0.5989100095261083,0.17066051848649932,3.933362007092618,1.6402659284897014,-0.879488756227588
1.0859152050451568,3.229999883907772,1.1000618262084367,2.052482489805787,0.3194477569658336,-2.153742820186522,-0.6828674491854345,2.703863817942696,3.3130238433607695,-0.9322930879871505
-0.08251369620093751,1.267576323740991,0.6247946620000037,0.020790262086501254,-0.17126329534377355,-1.323872525707616,1.1628401536769557,-0.8020403582838577,1.7028956776646003,3.3306244902093667
2.2985230292788326,2.6660443202481128,0.3608690952848501,0.18342045349540648,0.989838011065446,0.010170553245376635,-0.8233859472427993,0.0014771765451681018,2.9341621417439305,0.4310393455728685
-0.8945997476548553,-0.6999038812390838,-2.6591379481084374,1.3780308329996598,-0.5086562679037222,1.7394297697945147,-0.44333800470961715,-2.0179074259566034,-0.6741612763388519,0.9641304602557983
3.1545234323596807,1.678590714510416,0.9902518552927866,1.4321127422646769,1.7542675546002076,0.12084947743969249,2.5833103020414323,-0.36481099019118746,0.37739611501571885,0.47220688980112113
-0.8770917843644385,1.3723917363991807,0.677134428650535,-0.7860667795969901,-0.6608612762894821,-1.4598544012219778,1.2334308816020814,1.4570748828320723,1.094508442168937,0.026711592519345517
3.3405014384562035,3.4025291698247813,-1.177292806316842,3.023999903213438,1.6457290635858732,-1.486274426134303,0.7866992020592285,0.1583610428174714,2.8273394707537363,-0.025386162581677363
1.3811810528225275,-0.28795492182440074,-2.6303099531375524,2.900788732764652,0.7023606098765653,1.5650827848445354,2.058600510175175,-1.588638465510865,0.6876670186239012,-0.9921006390112348
1.696591425908763,1.5594817234848586,0.805242370719312,0.2529655877735213,2.4093807517547026,0.7540346977127651,-0.06735269058448967,0.5128276305615607,0.7510135423578531,1.0245000835759965
3.2775927043023723,1.3164529294660476,-0.13925507887258715,-0.19080232645259543,1.8851244763693125,0.7735695965076512,0.2425817098289167,-0.5262615988608719,1.8446063995174342,-0.056751408292637584
1.6982029161278027,-0.03404024011589224,-0.5253204486270295,0.9918047595916906,0.9871867106192409,1.3065420802354275,2.4225688156199823,-1.3843754049589398,-1.4572510885049605,0.2759719884270704
1.4184901073664435,-0.7983735789511994,0.7055076449962577,0.815108534427027,0.6622717791979438,-0.04163724119657508,-0.503991537261395,1.0300733477604669,-1.2705722489445375,0.9857836464727048
2.060701969874042,1.4014440911462596,0.3739776705837901,0.32997636121110263,0.8023835037126132,-1.3908808235864725,2.563606890826156,-0.39291207766332836,1.0122886902883559,2.7128255234925986
2.8966461498137885,0.2028275764511971,-0.008195349194206461,-0.019019668000944012,2.003992763825125,1.1715951090193448,3.274255592468485,-1.138509397619353,1.7088729955775679,1.2151512326442107
1.574422825195898,2.1463567798239995,-0.09074307745060439,2.9033794576461154,1.931347974943879,-1.1725332141542555,-0.5923218184474859,-0.011859114018766659,1.9663379516342878,0.22681451630598937
0.0044154784682026715,1.8087423035902153,1.723855989566271,-0.39933174337152244,0.2786737293218,-1.3589260335033089,2.3469165637119898,-0.020257892966148994,2.215458934667101,2.9266753124003295
3.318409423927771,-0.1599713031524045,-1.7070689140831103,2.842247248964484,1.3164253156447683,1.1468900617287598,-0.7592180838142437,-1.0236917741040803,-0.7639818127123135,0.4070439178662191
-0.21681452024330372,3.1485976980193797,0.7910070524920246,0.0160342669388005,0.9775855128611517,-1.8104614738342262,0.7937492435688218,-1.419859647932419,2.186667665981083,1.3030756993594204
-0.8872540942299336,-0.795727870722883,-1.2670360623569592,2.607639032277777,-0.7878627857054014,0.37928242337370033,-0.8809418721318389,-1.3353192417039068,-1.2813674477848638,0.49401085859432436
3.423444480248591,1.4789478824948237,0.733291823282263,0.029610777080822714,2.278821263715277,0.21464628504693817,3.054581533840504,3.0330421545841,0.9902511741186402,-0.9696801008077055
3.0525259175420345,2.237682980338495,0.22085472538091322,-0.006179541079158191,1.6271972259697525,0.06918012540020424,0.13443601814778527,1.3133916386041113,1.0191549699631797,0.3520966850941465
-0.18083087983136947,0.8192422417900045,-1.7981128636779702,2.3593743910119143,0.5379367555587519,-0.119350202298446,-0.9371257682313016,-0.5685885512954237,0.4041024418326826,0.8604992876279389
0.12735484131060248,-0.7989866391877087,-0.6711751997104003,2.0929130527340547,-0.25321978018848745,-0.10688284058794445,-0.5223058669327292,-1.4589578929874996,-0.8954038574263787,2.613927009826132
-0.23353657342593015,-0.37075704238127005,-0.7167100772042184,2.1226726499126856,-0.6051659582086442,0.4416708576839237,0.23314334792658453,-0.6017458890270462,0.7021488137273413,2.208558690394358
0.18763557514765705,1.6301561959485356,-0.7280913213262629,3.4623848267268436,0.11081063073342334,-1.577446569538719,0.9950605123925915,2.9711455867246706,0.5447040358438017,0.775919878768818
0.5607616771588213,2.442956258783933,-2.702417072671043,3.268818374699342,0.2306422634771217,-0.9386156080312621,2.12551769856729,0.11123160912123708,1.98281771492229,0.5808705119575226
0.31472892440669087,0.19818373999675143,-0.11584225410021583,0.4037584051492631,0.2530415613519866,-1.554765110701756,0.49045679954118104,-0.8515235882291462,0.3479726907472409,0.9263697974555727
1.075661749675887,1.340334424807014,-0.6903662917293902,3.1512856324964407,-0.3784265039846163,-1.2916280081704965,0.8682831214741957,2.389487400306729,0.17562132531317212,-0.5634572507866837
2.7556897793154462,0.4929608859818646,0.4235160011403802,-0.5909222309377238,0.7098701282819873,1.039475735781177,2.449556569954021,-2.831348293330083,-1.2571534907058144,0.5641558604209105
1.4744088745864499,2.5210729678802104,-0.40683631289220945,1.8968459753042852,1.0442896684888212,-0.37777253279210476,2.2564823441085093,0.08359240602805229,0.9339993740025766,1.3722803362914968
0.062334120775665136,-0.25839892217352745,-0.042137510797594535,0.6767081358057143,0.8656314761639035,0.0786383771744894,-0.2628410548051353,-1.5883519020504964,-1.0042180824908966,0.8983965957406095
2.682972640516372,-0.569769071038964,0.04169965108435758,-0.6296922914318672,0.9865493898453823,0.5895267287437957,1.8678571260442918,0.15233744889234013,0.5258772505909874,1.3541292344799567
3.240379598562888,1.028532068288147,0.11082672949444,1.1078185163412244,0.8212581351746797,-0.6918540390453699,-0.8374585291590373,3.8193760184337764,2.0611975752307665,-0.645345081116216
-0.23567836875428494,0.5199493120130361,-0.5130798478061357,2.1661594376970785,0.5328146718448574,0.7375210427254522,1.9958419650061305,-3.085665691198041,-0.6504510253870598,1.3175875863151876
1.7779594354825559,1.9362081129082274,-0.06039144047832224,0.3988569004598739,0.5364578154605795,-0.14434773411122304,2.007083435378568,0.64959584253424,1.6645263580844343,0.4902719800488544
-0.24289534912913047,0.7190094253595856,-0.6015493858440608,2.8034056957123217,1.201041593074129,-0.4428361480308415,2.7882296650469978,-0.6961864100468905,0.8185638852881426,1.4500017045786762
1.0992136367501675,2.7379192731235764,0.14889128605273522,0.19988939056195343,0.2460116832826612,-2.254417238932697,-0.5280239879119064,-0.06573602805693,2.0138954045821276,0.5170510465342817
0.9311029483165343,1.6607621969849968,0.7842435018354208,-0.9519248721817748,0.421138445584044,-1.1655100089914825,0.23598843667775427,-1.1199718857615395,1.5317193058780432,3.0201866523023932
2.266226346023674,1.0400246923550296,-1.3134980164270542,3.350722880746188,0.4215338200315688,-2.576275994939025,-0.7685596174476788,3.1369835117768097,-0.3550108313672294,0.2889796041031081
-0.14099241543009644,-0.609262473133683,-0.7209206019416333,2.8983159831910412,-0.7141753425415913,2.2098457572871717,-0.7883965855226692,-2.310742762872756,-0.41494382029842664,2.2936268093236785
0.9653564379196686,2.118238790772942,-0.7834098239067655,2.131715981105943,-0.1903204580733482,-2.438478349636754,0.2614380508961083,1.9270875836172545,1.2825905830919442,0.8803584505671882
0.2769857636950004,2.6595669057293243,-0.8730450497004343,3.234497320610701,0.5941160545799722,-1.38903693792997,0.1599810970361144,1.2694279991742436,3.712169700799562,2.6982743436470056
-0.6471854150286604,3.0835258209496184,-1.4957563955898756,3.1915984247450684,0.6224221326558687,-0.9755857803073317,-0.062473245996652604,0.6446386396517743,2.611059381052747,1.2734598198569884
0.863951296642784,1.060415437705338,-1.8008615566807573,1.97486749295016,-0.0826149855360335,-0.13935355324653612,0.5505567589298457,0.9415172813531394,0.8377821023691945,-0.4931386565855219
2.039883839732785,0.6797066161337295,-0.18531864926338226,0.9399701281436028,1.6050827892268493,2.1275638964810737,1.8454306350972298,-1.3289439071829916,-0.3780368599842745,-0.8352618458918536
-0.39758040517089976,2.0482979181061194,0.27686448040643974,0.3920563459327908,-0.35818463517217747,-1.9620162605320284,-0.9795740435944188,-1.5421248436064998,2.3338821574776594,3.107437670343348
-0.16437350295754016,1.0469324742434347,-1.9599266774770852,3.225768289972563,0.1408036691740376,-0.5958753883289085,2.9519048636876373,-2.322880871600703,-0.47208684688808605,1.6152642402207262
1.2879395036783317,1.768904451329965,0.061231539514274624,-0.6647716770953416,0.9335663899345576,-1.5566076807720681,1.527629260175892,2.6939880633284057,0.4423989373771634,1.1436801479195249
-0.9436389557657805,0.4063064664659657,1.462325062263325,-0.35923307624080836,-0.42776940332598323,-1.5466772079690556,2.227268901874051,-1.311025091898731,-0.3797192532479955,1.6117630500179714
1.832551006680672,0.985085148285735,0.32086823969353695,0.30060103014429074,0.3742201163655652,0.04962820694127401,0.011997992521103784,0.3649642227504445,1.5037492302772122,-0.7619830169155719
1.0337257147143153,2.0712553477439406,-0.1194438127473394,3.2039549280925934,0.23669489947729078,-0.5308911993333753,2.2542528023907455,1.8468565278960767,1.0760767906374096,1.1376990155398619
-0.13087897523421776,1.7770863928474605,-0.4471170774474147,1.6359768614639085,-0.15378480559702584,-1.1538418599315994,0.555876927224553,-0.7941710766259651,1.5008432151801505,3.008723548414107
2.6534635302085086,-0.9797616381502259,-0.9319077794566774,0.696976417177047,1.2260641067464657,0.19689884758276943,1.5613246668564704,-0.5750775112127,0.34660261145862375,0.14564870369871374
2.622366550287388,1.3889136120954442,0.13024653986527202,1.8289288275763305,1.2055771905930723,-0.7823700656735301,2.6260155928787476,4.705433964416381,0.7217916785981138,-0.7237106873281662
2.90636943635121,2.3125658512750715,1.671202512151623,-0.3235036742408923,1.4505518433522413,-1.2681863665089261,2.6696943048340005,2.020064262816665,2.0052694461290748,-0.6821204030053736
2.0277154518902085,0.9573161811818132,0.4055992625255211,-0.25851588531550773,1.1404386767461854,0.07099241768100817,-0.6430600154499193,-0.47842948275322517,-0.33043347653333727,2.091625983043364
1.4603417371023668,1.604409435858663,1.0420851190915768,1.338287260773099,1.1696403194804827,-0.7060975783382752,0.5888880267728287,-2.5295381536076276,0.9595820881712765,2.2371600336488635
-0.19488473295666486,3.189599690202394,-0.902845731335695,3.1762344212519924,-0.31416480112497863,-2.2895314179830537,2.684713967684629,0.8678420041935766,1.7191684939750442,0.8480286603451395
3.341301979645369,3.158124867442643,-0.6881558474260042,3.049536378329366,1.066628117509248,-1.3040733057886293,3.0041542307538736,2.368307687935946,2.6462391097034117,-0.11487126096354439
0.2115303546591074,1.966649630200147,-1.2277856073212763,3.2201621714485693,0.12322968777259052,-1.3480940315076815,3.2068908283825373,-0.9111553224991934,0.9623392487114174,1.26315297850635
2.2125535821049738,-0.8338440893805543,-1.5848937737983921,1.4535809321924398,1.104611493796137,1.9109341464619345,1.1288242206209458,-0.20832303966526902,-1.5601984474836075,1.2160726590499826
2.900671313567148,-0.41265248195647064,-2.061437727251764,2.0783269094580454,0.2112962689310489,0.25290008262133434,0.1523546095355206,-3.5472079357508015,-0.6297880202330476,2.079347594617815
-0.6290611486145019,1.3827301302590986,-0.9556853460008967,1.4377765770452196,0.5946521286741816,-0.2557995202719106,0.7083149511064533,1.0308348440444424,-0.156678123370156,-0.17031101510727975
1.6883487783839324,-0.6149149754117906,-2.2546278806003204,2.0320304925903523,-0.06258000432798319,2.071966866573166,1.5571399453769033,-1.0752201560033785,-0.7275627280649746,-0.8596389258488158
0.31821755580110866,-0.5827317763834094,-1.2097643859482488,1.7672620187626085,0.3472370577650873,1.2290955141826312,2.287840711411389,-2.6327556943898602,-0.5031448822105933,3.2294395694124347
-0.06132143289681857,1.2697004163554224,-1.151047275443256,1.8310616088455456,-0.08541828699804543,-0.9739894064078147,0.9778427585029512,-1.9476902659805426,0.12917563366596524,3.1293558359079023
-0.9259455238459473,0.09815232500947091,1.9930482997982741,-0.5313197883498486,0.015110184680867,-0.7982536609945059,0.20057691986872528,0.6138186770970508,0.9163529550802137,1.3937524244243202
1.7957145232831495,2.8998082347669225,-0.29981752707863973,2.5027061889489817,0.3007513384219131,-1.3989018117324148,-0.49860849722415035,1.5753951252363905,4.092929027558188,-0.5412248326380045
-0.9668291412672212,0.02211944530772514,-0.921940738421264,1.9462648559246718,-0.02051045989600092,-0.6709482367039923,1.3128428747085739,-1.862791491608161,-1.1590286607524198,1.243707736636975
1.2867957522341253,0.002551462974702101,-0.4175963077542874,1.8750680805166393,0.3825044079940714,0.41420383999480054,-0.1964651153696102,-2.177217747549424,-0.2527075724804025,1.9470585824490594
0.7055663966490251,0.8385626275478921,-1.5828220906939574,1.3621748571067416,-1.0703829263063882,-0.5792408490248174,2.7062411480990383,0.2728525795046617,-0.042873261074084255,-0.6115314259528807
3.1333526455724128,2.119062052431599,-0.7318709328003195,1.832097194410717,0.5494276352321392,-1.7083487258116155,0.18038471473707118,-1.3842010431549792,2.266033263487027,1.082696130942546
1.7037036014239786,-0.9070381335466603,-1.7527437258942724,3.169579269966576,0.40234629173030784,1.1837936896264791,-0.5532309699223164,0.668723432587291,-0.06431192555130413,-0.593815154308712
-0.7295808673074872,3.3792052598367937,0.36943446203182045,2.188141280869201,0.28532028726994146,-1.3947631542001508,2.119141324642179,-1.2775299406946705,2.257098019996061,2.6866623232179885
3.3081760551173005,3.0602029460949396,0.49185998971626765,0.14154653061912237,2.2715075996294813,-1.8047575215442067,1.9619627722027735,-2.0453780666892496,1.3803306419559387,2.095808402736882
2.1472655709516397,3.109381984201381,-0.305092577148925,3.117230803116417,1.5723746517511008,-1.7332887510725332,2.5845279901627216,-0.7807265222236606,2.9109606410353015,2.7369458425464104
0.8947199238475687,3.4230746157160334,0.49578148132058997,-0.7320100995254113,1.113838458899314,-2.175388566928635,-0.6960751381499404,2.555574432352259,2.6675214359047104,-0.9233205643340684
0.9235426875990582,1.0708830534602094,-0.9753615147825306,0.3204973535544613,0.35977621559508977,0.37000873752156616,-0.19784635597911215,1.6143575302534834,0.8056337371306561,0.290276689905272
3.342260796705121,0.33491410873644556,-0.6445271320584227,1.6885699573707131,2.0068153430490514,-0.05556671814866271,2.5805673619876304,-0.3930030639075639,-1.840346596018374,2.2898474481320714
2.4423049829453536,0.8382317250299554,1.4275344075945802,-0.6000102170433534,1.5184133562632836,-0.8024935114851443,-0.032345753097504204,0.6688595451667418,0.9113485602278643,1.8038536775438052
0.9755562741255133,-0.22932182214012398,-1.2291768046694136,-0.6238376316387777,0.7978174951790588,1.7324448500721619,1.7596206000771097,-3.2604429882138706,-1.1856157427816076,2.129614946922116
2.9651623937647726,-0.4596825309138064,0.8496517160520893,-0.617570558500413,0.9243487910536159,0.6556843137619575,1.0618006256632526,-3.66150479795128,-0.5356806348938115,3.1985608737620677
1.3470620395556172,1.4524824817577477,1.1162484748219825,-0.09247991903470276,1.9049222119431768,-0.4793313546889155,2.8490400722445512,3.7303466512798464,0.26121695608933454,0.6289651984500926
-0.7919232740033033,2.9794982433253567,-0.38797264585002367,2.506744108456085,0.1433341799411061,-0.37561058853990525,0.5804441941024672,0.7200327251370496,2.1131694293614434,1.0762414959016429
0.07022748714115146,0.12416468793418334,0.8963379138923105,1.1107811544871575,0.22535388749378898,-0.264876712543467,-0.9883315661218354,4.5546970808653136,1.0011935391265447,-0.7908928052213398
0.030386949425322163,3.368033357287458,-1.23376361242918,2.53495356950064,-0.6974147844900358,-1.2411433090076502,0.6518938077868699,-1.6628871657398534,2.517700076012529,3.1622937387626244
1.1720117093996292,0.35151788275502516,-0.296140629660806,1.6855207345857997,0.46065991039104304,-0.2192373663611918,3.4148159625580874,-0.6096824094877488,-1.5071355840770346,0.3272482077600971
1.851150807033683,0.8871573721613064,-0.10376992637928428,3.165241695573944,0.5288335615225355,-0.4015739267632161,-0.6515622634839282,-2.6781487642225574,1.9776842191570425,1.6688329891593368
3.0086920715154744,1.7795989224360511,-1.168757262422937,1.70871708236951,0.8667617063332844,-2.318888592918405,0.550539176588202,-3.4921046524326265,1.6103664287699053,2.3533557236762865
-0.571092383393043,1.7982934677466766,0.8311245607439078,0.9624823379262482,0.12282613588076097,-2.218691205455782,3.1543747528088497,-0.4082138263197585,0.14330750862306768,2.6503793412472323
-0.0705359530965669,0.4215194318581754,-0.2433206022247072,0.9055535424800747,0.2344862777375125,-0.7511367927127741,2.2696871002570553,2.2182056685524385,0.5379825733817192,0.9533848199421602
2.0616085091569776,-0.6693604306837673,-0.9903520075971037,1.3619585764853022,0.34711701215177515,-0.5523333356891312,2.561469116845863,-4.493827158000781,0.055682051463304724,3.348391488599958
-0.2242597226544808,1.8969466121547973,0.6031660358880419,0.6255476664980826,0.5633752483192939,-1.9533369785238053,1.753870176591033,2.8997108407012147,0.22658927220792777,0.020056586230772222
-0.3955199911352014,3.0720320768416327,-1.9954861112825872,3.366346617659495,-0.15335189394783155,-2.1201739040439738,0.3439738634885703,1.395593576111639,2.0235953834254463,0.7612228146786859
1.7436639824686178,2.2651305990867407,-0.20121899666567417,2.253583687949512,1.4555281968557185,-0.48643432283532273,1.7424692989220034,-0.08514170763214168,0.9788675863749677,2.6065112530794057
1.9403902706904854,2.1482364726912366,-1.9714973581169115,1.844203553346785,1.113942555876772,0.9963543712719262,2.115579786964642,0.931770393431887,1.9641489893373656,0.10412656765947048
-0.38907014683453056,2.392540309109818,0.37161015499303757,-0.9612951596160619,-0.9621993562570144,-1.7558820007640046,0.4527028601124794,-1.7703067761583178,1.3756141897091563,3.335412645769889
-0.14538482624245885,1.8114441248516906,-0.46180002672668363,0.026314701269704255,-0.7173981640412422,-1.9246448951397497,0.7668964132305243,0.9118663476421917,3.5277769512976387,-0.24514669983415038
3.235076420181965,0.10024895855613392,-1.4181432152858222,2.0557299731823107,0.8691160963906929,0.42579495304912307,0.3154699517489581,-2.8568602391472657,0.46924496860549936,3.293181071550894
0.6900334197437457,2.2108233764334004,1.307005700218888,-0.26754298320835446,1.6701884162448928,-0.3614456727553357,1.1588731627502051,-1.739069103160298,2.883106868990279,1.4349195042229885
0.7120827312728308,2.66079552542215,1.4314217691852114,0.10254172853380128,0.41080034263462506,-3.6279863939221424,0.5494585963429122,-1.0301246665454102,1.1144379170587888,1.3382280544274017
2.006334344345772,0.14629936552701817,-1.1050730905785946,2.322200812645047,1.1126007469972363,-0.36233590215828626,0.5945836490683525,-1.9523277606782115,-0.5488026659167957,0.49599300009012515
1.638535219309328,3.00160862357108,-0.7993391339004366,1.6409208414748981,0.2779131767823259,-3.3506448435184546,1.3452404995448348,1.672665709030182,1.7320004768157642,0.09597123338536151
0.6240252138809146,2.8868324825238876,0.2663632519884132,-0.4903235378455012,1.2494500620889366,0.33346145846562525,-0.17699329939313224,0.4819484513644003,1.307938777370759,2.9222061251982776
0.34253399536969087,2.1288521014827353,0.3776567889479844,-0.6611618709504681,0.29213048921014984,-0.5782388975080828,-0.6518616688318875,1.5727030467412333,1.1970249220931817,-0.8054585436615491
1.6625599580185124,0.8401747969515923,0.705785544606359,0.8736654723666248,1.1212218973495953,-0.7843772386550478,3.1461044351534744,2.8221107752747465,1.123420406274577,0.35785555332448316
1.3023404611547056,1.2874503146018026,-0.6401269123218214,0.5287391962319801,0.9125669603573332,-0.24079933957892374,-0.9112270514086155,-0.7647492143610181,-0.28204046066720145,2.234425289034653
0.662918576875599,0.21589105780698192,-0.020642157118608978,-0.539845164605509,1.0565203450209295,0.4870934083208286,3.3247179358287973,-3.1836011000963067,-1.4847814486164839,3.051500106195718
0.17801650955131088,1.355871493184671,0.9387024974771836,-0.5778554736627385,-0.7745410285554735,-0.8214823021791459,3.130064004643181,-1.0362648870194704,1.7524179352699247,1.8327964323002326
-0.10364510205651545,0.8685091473212396,-0.5942367815341443,2.30745215697508,-0.5876638354885756,-0.23310856440925132,1.4811927099178126,-0.4059732674475399,0.9270580320576395,-0.35504047797703897
2.648501590567006,1.571601220404113,-0.21393115918813121,-0.6131634300940958,1.2915343424928125,0.5566686729722673,2.5807747501800025,0.761302240629826,-0.004437089840012981,0.8056473992616078
0.7647912867681428,2.1099989724812964,0.5422904926819014,-0.28836141323560005,0.2822832308078962,-2.618730020878417,-0.7281794435837847,1.1869640446204293,0.7844921445382731,-0.9023431304052297
3.4355355538823833,2.10682956946015,-0.15471111250796998,2.64253403912507,1.0574287462048628,0.15598319536942878,2.0842584568772287,-0.8929468920642778,1.8666448786047811,2.9190586005983743
-0.6233712683084371,0.2824898740442421,-0.8341951352561161,1.3601884296413114,-0.17398084213928527,-1.7090736076171404,0.3282520759188192,0.039302098649793504,0.8834443796238214,0.49823329634141245
2.9933602823787373,3.0396568637276395,-0.27617227135014766,2.201056544444557,1.6311959243022973,-0.13881757163058434,0.7936037365986937,1.1395626692399048,1.8781608876003235,-0.036434393700171874
-0.8516738786120148,2.8168620397392403,1.8148022008111604,-0.12203131041596027,0.22731285058899736,-2.228047932290421,1.5387304848500105,2.631314560464703,2.485930513540665,0.962780655930437
1.8872508864834034,3.071948279019466,0.2041409595747501,1.7103339800333868,1.3664097993038486,-0.17456271781973176,2.547353508425786,1.7498095034459569,2.392106101786346,2.4866881144092168
-0.1171040445417969,1.5945598826438472,-0.7677709446556327,-0.23427531187330985,-0.49921929835713086,-1.4698425568936235,2.523369054655705,0.5760782463272133,3.240657543361431,1.4225681606521552
1.1636843021125598,0.23193424119504025,-0.4163047819553242,-0.40656596368405706,0.3020633423040255,-0.8074632832132317,2.422901479278178,-0.10492756940437253,1.1504808410150305,1.3416821744577039
3.431460618705337,3.1679818772430224,1.4352894814423516,-0.2854436128059965,1.3972634948153408,-2.008075045288194,-0.5543763470927179,4.4585728196861165,3.2626516373671635,-0.6293352226993464
1.4659749137076972,-0.9395408352617383,-0.5474142106983058,-0.2850726677961781,1.1456612037595386,1.933518693648187,-0.20533876412944363,-2.7832645103490803,-0.6472369748230056,0.40826540005320977
0.633953535397862,1.4021212058097339,-1.1269445046598792,3.0145546530878953,-0.03369998840199641,0.22963585055375202,1.3642078716264594,-4.8040936607873626,0.9700085494734233,2.9369369318195098
3.0220454689913927,0.1629984505704971,-1.0309028381024965,2.0780930678168836,0.8473510372584276,0.31217769839171317,1.239986037670557,-1.1979299367970768,-0.6603996015365868,1.0508686393112785
-0.9843596225916862,1.1223116600124516,-1.22190959839249,1.9648447224139316,0.3803927401637647,0.17277532254731787,-0.6697744854730476,1.1738863749705448,0.7648214715930781,-0.17858252237323025
2.058609638820699,1.6746211782432536,0.7020853394528229,-0.4832555829455294,-0.13784485236946237,-0.998657800775594,0.15946447057135305,-1.2340722187780389,2.700523029589518,2.475735348566101
-0.8576454216464449,1.3272053565539719,0.7709500456037598,0.6893277707543053,-0.7191633176590058,-0.7699964939135943,0.7211587221976732,1.406610289722585,0.5986673759851247,-0.4018841864431959
3.0331116496281583,0.8968445245055692,1.0609048042325118,-0.992060190384455,1.3404890466666186,0.13725962693462884,2.1832633334555105,-0.0636984224332861,0.8034697860513158,0.4681142828652669
2.8446635280473433,3.050977104769429,0.32938993260017124,1.9272427722120558,2.0219695011020105,-1.7776601021845015,0.2772591503313231,1.5876834902385162,2.152239874938194,-0.663985798453341
2.2022409464708863,0.34791499339231047,0.08935972771845657,0.25356323943362047,0.5610155053205499,-0.5495458395432739,2.8274617909977406,2.1602065923238527,-0.6547418470254406,-0.7249658345216423
-0.27452535371760345,2.8774951001929407,-0.8644510007818398,1.5884428780588533,-0.3800962155396628,-2.0587265257653273,-0.26395068471868677,1.938974958472638,2.3789603402864716,-0.8106533039910976
2.1218416534353732,1.1180708873733494,-2.520306055590013,3.046814784354255,0.4231640403149892,-0.38538246972296075,-0.03777444637159988,-0.9630998722920628,2.1719488707555774,1.0150225841925753
0.1797772157204196,2.651481009058352,-2.0640070004926123,3.409389597632062,-0.35341162807543347,-0.11284919923419173,0.13085888125035017,-2.521770384805797,3.048121072290566,2.917776077144529
0.2592712333840326,0.29185645663568605,0.18519171997196876,0.9267029252018251,-0.30427943502466004,-1.7026175099902376,-0.8718659275491808,-1.6431044294587662,1.3506145736072166,2.6117597166785624
2.1145208068894945,2.5272670575333303,0.806414286031431,0.1581000310865519,1.8714476726000147,-1.2159508463694981,-0.43160938637604407,0.1028341809424671,1.6303224382166615,1.4551116681974454
-0.5777411479883197,1.2946091175983483,-1.3868774660279917,2.7394853761079987,-6.693701837101607e-05,1.2195374056929098,1.9766438074284078,2.643965371668405,2.046103668413746,-0.7720503321628975
1.434826779183592,3.4430509714105515,1.4060959804612814,0.716672567384544,0.7861785968267931,-1.3961265939122176,0.3170244256009336,-3.2495564941302164,3.456427236998711,2.8356541389503027
2.266144507824016,2.5530441435413818,-1.4556557729944661,2.8394092287342083,1.4632943700825234,-0.6213475608406864,-0.9511591988743798,-0.4260102917520383,2.323310591988417,1.163202187518221
1.1192952568260042,0.7278077869110533,-2.0356260939589115,2.8565673658017676,0.3267786458605496,0.6913786629005453,3.1492861809691357,0.38704458605207004,-0.33513225344952374,1.6286817960010147
2.8645227298364113,3.346238166594751,-0.5322949801359714,3.1074063217221655,1.9782956171756638,-0.9259271281773899,1.000304348415308,2.9174522129413347,1.944790067110984,-0.7607407864593414
1.8570968848285578,0.04290752299651124,-1.009329161610555,1.7254840743913302,0.6203747216208335,0.47246692714946503,0.7631482156508711,-1.4099436237068483,0.07951291975626305,2.41701582151229
2.138725294978804,2.993317286317298,1.2098532799923873,-0.29577650422656254,0.5900520888834743,-1.2125998071515585,2.1389195133288177,-1.3372553757506387,2.6712594486948538,2.9180166998986574
1.3679125160757448,1.4547485129181803,1.6958508987501397,-0.2831047452681267,0.9622486420504848,-2.18392123661296,-0.3080956799765122,2.18787633990283,0.6180203328140692,-0.3999492766309257
0.6899634905556511,1.0390953017993318,0.6180827292102918,0.8922087013117657,0.9321875917401864,-1.8954292695646695,0.649525298442919,0.7135146464997224,1.7790264869196897,0.6467637422940333
1.9513248649329857,-0.4859813571479594,0.10289886538953683,1.2365063067946847,0.565126961788037,0.2903063847477426,-0.9348773317597406,-2.513891806758756,-0.03875239416781131,1.6741449845176373
-0.3338572011300922,1.8004949962271377,0.55783793006953,2.028940930177916,0.40823127521474534,-1.6085733236479156,2.5634240338768723,0.8692980988279437,1.954882998949923,-0.4800079325500025
0.11368890982300917,1.716464620574285,-1.8634468738163488,2.6223548600244255,0.557402557140436,-0.5902296432364775,-0.1806682591505846,-1.830450799170718,1.200026437633875,3.041014037919944
2.351143129530541,0.41783138483259985,-1.628893483239119,1.344812941202291,1.430936550746213,0.4016434316599018,3.1012556492717342,-0.3295263251368096,0.07760075891128022,3.208874609823984
0.20487737502776904,2.128589015194892,1.704389746695535,-0.22393239399458875,0.39948358486184854,-1.765395051737479,0.002898668459716758,-1.4952140156515583,2.8393548348390074,3.172048377950272
0.3840407446547618,-0.3703185065010274,-0.8097213088843402,0.14164021634646007,-0.22351964377169037,-0.1687136874851143,2.2889278260131283,-2.276495654778669,-1.0143534197763469,3.3623590931309204
0.29263914044800554,0.4554408599541959,-0.5360451383882273,-0.05708002055972583,0.23449506778935547,1.5264486989233192,3.2754382060572427,0.776021974072618,1.4640413190276846,-0.8806852880830153
2.992065404283443,1.1683137936696504,0.11056738212115524,1.5220166936513837,1.7488353328810453,1.3842516465686334,2.823573706672521,-1.5177682942911266,1.0827500995806627,0.06723361837584907
0.6963824445107154,2.3282725554139208,-0.7678133934673658,1.978887244323337,-0.4607952422086448,-1.96931581076423,1.42737145888647,2.761556133067537,1.6295026206041217,-0.3978166261535393
2.8034901290364287,1.8483866307819015,-0.8880707970214525,1.7085880550083794,2.469671027896181,-1.251742829346929,0.48911364146928027,-1.033484153566693,0.9945840357836115,2.9048339379707926
-0.6642497874865814,1.553088377670758,1.088555617244086,0.7506119684887993,-0.3260035710010425,-0.6345275471214572,0.6840136481169612,-1.7416001211717143,0.4727706834631256,3.0988057010879393
2.5287398213044208,3.147153939312802,0.9105530297074136,0.2084738399768813,1.7521267400887686,-0.6723512703965007,2.416041720591465,0.5731194258847552,1.9147004664017204,2.8619150141591994
1.4312063590849808,-0.3062670365451359,-0.7370259018783919,0.9032116795276595,0.4103788735418851,0.3708443816250391,1.4902625871771678,0.46100296467075147,-0.6473876367307577,0.5480587094252167
1.37075710872961,-0.15302129837185452,-0.982688591365698,2.65938257945936,0.5935372466032048,-0.3030441793540878,2.9034729194906763,-0.3554870504903338,-1.9852860833137764,2.4777859742478716
-0.9099728949155963,0.27791650042519866,0.49983653392980754,-0.21437755087906085,-0.4796007989417023,-0.5824549925854322,0.5038578031944616,-1.107990593750897,0.22828217477652127,0.8755976384328668
-0.7953567507588027,1.1481307953007418,-0.4815850142297748,2.347853827724885,-0.10460487634728677,-1.9188436810736733,2.213795768697609,4.519092197122947,1.1949358240323205,-0.49095075232402174
0.20208022853539442,-0.30896266955369756,-1.2385120812689971,2.6648585833916356,-0.663695314377042,0.303922791585391,1.0992305171534373,-3.941233217522027,-2.096539650479603,2.682826533353306
2.4177619359894473,3.0330647404625886,-0.2880775386172466,2.6125590774511034,1.2039558868700428,-1.9639745196537741,1.5973290355114438,-0.5215626965021309,1.6984198686625835,2.7280081341570757
2.6581441054555115,1.0533069449137749,-1.143341803921429,2.6726077202928185,1.3220853093002176,-1.7516895700222022,0.5901671475687016,1.973465259760736,0.8085224560127848,1.0618728353834501
-0.18645945409364262,1.1825484734899345,1.406287682569604,-0.8628677540858343,0.8597862881039423,-0.42023870253868023,0.5198117706855203,2.40361785659426,1.2703356029431307,-0.46966939348737635
2.0839161533965966,0.1789600500361097,-0.1941889809973718,0.393834077105893,0.4233705654145351,0.4627808176483851,0.4781641572473898,2.1983010723808687,0.8114902870898948,-0.9703220347291153
2.7154252610371135,3.3807859045714004,0.7726945257859954,-0.7368157550004721,1.5671404499374915,-2.4450117593442364,-0.7857359978450691,-0.7070277606388196,1.6639706935688316,3.082840244629887
2.647902247082995,3.4268252521206053,-0.24394011515464428,2.1636958317017205,1.2393244388724793,-0.18288653742758054,2.0486518850885296,1.7562628475222524,2.969089334875568,-0.19827239288739373
0.8774078810878712,1.4329738255444884,0.49623644888658136,-0.11378860244303468,0.7702931962163965,-1.1984542232006283,1.8533190737909497,0.25987632995259435,1.3590862484409163,3.1755239440321343
1.826847924009365,-0.8287163952319347,0.23068986148754983,0.8483915481641839,0.46340198287650974,-0.4279807434299629,0.03985327782126058,-0.27642420996268746,-1.2838026579357278,0.9035145574668411
-0.8513972573791149,1.7776970469951032,-1.3159921771900862,3.180367355207334,-0.9140672332753824,-1.0378562601002463,-0.9306562962788015,-1.6118275636993737,0.6780918816022178,2.800056743412183
-0.8605243293447977,0.28654068153710033,0.2773076971986154,-0.9398705706528129,-0.8843352943666163,-1.0027451435412786,-0.03444195334646172,1.968386892138732,0.7338754236801986,-0.8598118632173046
2.147151212103322,3.290790071624495,-0.43565227758757247,2.2848624355372635,0.8017889381795552,-1.9085414762581074,0.16105561587170936,1.4713403794223932,3.2094826117640434,1.482584379445445
-0.6204195708680116,-0.7255822773449683,-0.904039737307806,1.5410136534181884,-0.4250720810219493,-0.2771717354534764,1.7518580540600048,0.8715220042890448,-0.35048083319761825,-0.40552969931387217
0.5287685127330035,3.399401495667364,1.0120383985815757,-0.5281356220903275,0.27426594072117233,-1.6976663954598559,-0.5525746048255951,1.0321486170086789,2.728332375261514,0.16597990603480817
1.1957897896615552,3.158819793703974,1.1079746695571913,0.11863310732287524,-0.14198881578086098,-1.1647433987148306,0.2379928125861872,-1.6863564862636102,1.6255703242760742,2.4178601315691792
2.2203224430896147,2.157512965651922,1.3419985312239302,-0.8737735832520575,1.5271404709808658,-1.9797997616962384,-0.5601770226242468,2.06065330413418,0.35523325858651267,1.1075351180861217
2.9256293883419877,-0.1972326036794808,-0.3055651672483547,-0.4350107773629701,1.2713079087054293,-0.35974825761596574,1.1983731629423984,-2.1170199337379274,-0.9327260566892029,1.2477304823319395
-0.010090303716900118,2.901170896451097,1.2808814574481615,0.5150004393551393,0.9681393954816211,-1.9290554671991966,0.028077245344146018,2.6307522391506053,3.385597319251599,-0.763377323409408
0.5497266629740318,1.7449511147215127,-0.5537536634518241,1.7990129118709572,1.2071070084684468,0.2230062872886306,0.3091767443868494,0.8893684588233324,0.8630757021854402,1.1331316177835133
1.8905813991058866,1.5034587121340803,-0.9330052729796141,2.969487619719389,1.6415297319879518,-1.7006649848347974,0.6283532902306224,0.990299515413513,-0.010196006758429424,0.08725269929474577
1.9775944058613648,3.4056001111428467,-0.6790068176439894,0.7873098568712593,1.15532942978448,-0.4459013467062882,0.4587121525278943,0.09871186734322901,0.9356439928538461,3.142740813223229
2.1054971148109334,-0.07685608158742507,-0.8800526306086257,2.6511037083015574,0.4738454912490611,1.137908238222518,-0.8675898914463371,-2.503659746268183,-0.48209646134897105,1.5439906217727866
2.5235191224317046,-0.8736773385606615,-0.238260847614052,1.0080946434410025,1.9275398564262722,-0.23258974511252684,2.226039502296215,-0.027364517419499634,0.8491767682728407,1.0860292207616755
-0.023632182948760905,1.843351672480479,-1.2635392776634755,1.8274859738380278,0.010731702078779659,0.10748630208372373,3.4599569290734156,0.4739335357091097,2.6620242874508797,1.860309481631233
3.0524411616600045,-0.18406769076666452,-0.6836462910298207,1.2588757693859045,1.170231784342446,1.202007877584857,-0.0027299756356067295,-1.9389195333316647,0.8916376822471965,2.3419766767566146
1.3849841517265484,0.40995548475567856,1.2447761249346438,-0.3858543219038997,0.5955396373054247,-1.2501814452014965,1.5533923094662057,0.983909308724021,-2.4680695940293584,2.261807187037649
3.3251779683127607,-0.07017343691804068,0.5127800838478676,0.15940339266858672,1.025038524809487,1.154201150800131,0.15948082972545707,-0.6848743637914737,-1.4811723304356539,0.46912763459293716
1.3133878988953835,1.7310347490864548,-0.3101770254776033,2.586976382928923,1.6464575063348763,-0.5524380471740554,-0.37796213650227817,2.6818458667153857,0.8578693436192858,-0.47188147031928807
0.577189304072034,-0.02974466818032273,-1.5245506260892676,2.2663417494411577,0.5983387190858305,-0.65022060391524,2.1461680257415594,-2.277956959852769,-0.9360508718490455,2.9835035481698493
1.8260613820283167,2.3586199740208063,-0.5483499308509933,0.2984338663175947,0.7365747171486938,-0.9769479350872792,0.021633437519074983,-0.59252335464874,1.3416482253794246,3.367103573297351
2.134511225943034,-0.09747434598496241,-2.901788784782911,3.008629035960623,0.8794245416369094,0.21716644906399662,2.8148928274975846,-0.5144131976929257,1.365726456761892,1.9306510613859498
2.15587993385222,2.637387450472348,-0.6953590897518782,2.2766222631695867,1.4014710379076696,-0.7303637568615566,-0.27437647102292195,-1.1056342821319498,3.3694707869111578,1.9865334315942702
2.684923622993417,1.2778475727014222,-1.7042032299993992,-0.31535106807226965,1.613557051668618,1.500332200946234,-0.5297211496905405,-4.404298112490705,1.4826706581299678,2.8725126916054555
3.2880070337432095,-0.8077792127944007,1.204786822064203,0.21308167220736296,1.8566251511509861,0.3201362049102996,0.8783774124034558,-3.6615926022279868,0.41587988452536967,2.3735284216762738
0.546398487382266,1.9360371946066652,-0.8261226840901131,1.961662873549034,0.5507834675371133,-1.7648243857558905,-0.9853801594510135,0.5615907274766735,3.0080570540893303,2.274358531787941
-0.5790235147154299,1.9598528172541547,-0.9514320738210176,3.193013083698734,0.7439936937794911,0.6545173816368884,2.8966012796128555,0.3433276278926114,1.3942948298347173,1.5910335998160758
-0.07874195449301147,0.4333558637532886,-1.1895187911683305,2.590965163293107,-0.734418175686463,-0.865852663218712,-0.2591543150407759,-2.841498687738592,-0.3182350162711997,1.6553847775737953
2.448268864866781,1.7758245948639595,0.5103881556220089,1.3798772579838974,0.7090259226901072,-1.2486447313541174,2.3758015979185125,0.19745717665870532,2.7239518641442593,0.4542813190571442
0.7933917437803566,2.080300938029622,-0.7529908376863486,2.5513601059332403,0.9855283104476668,-1.2672460005767987,-0.22213316413003192,-0.48587543714903936,-0.22516961068783425,1.1655508472967582
1.0236407043739546,3.33015618241721,0.9949955390994294,-0.1186379576871075,0.5785851700946931,-2.037155793970319,1.1877572635145004,-0.9094193638723947,1.815584268433438,0.7947842721980509
3.315590476479736,0.916667060529506,-1.8748473591839234,2.800010265271935,1.6530387403390303,-0.036650843579788095,2.9472578687126525,-0.8622339736666926,1.767794780735362,0.13064811700280154
1.9582355930211217,-0.768198989010771,-0.8719087876414873,2.3272730265354307,1.0611026876436491,-0.7602766372829098,-0.35708861344236864,-2.3998859981314085,-1.0521232133247131,2.8610968203666483
-0.13960066114898828,-0.5917042439206819,-1.5664381454919045,2.2153769704892277,0.6458069733816318,0.9734770928025788,0.45936821269620043,-0.26744876126128103,-1.8328480443397164,1.121060924314342
3.288738251648244,0.9618601048531665,-0.7873691214263802,1.3418504586611464,3.088520541543766,0.28933267494638376,1.3392432690853049,-1.5687467471662284,-0.005863641240301136,2.592931621799808
2.946421711543829,2.7196622474125833,-0.1451825762645198,3.237536297811511,1.6922448991093173,-1.264003309689532,-0.17418098636019064,1.6554531051133496,1.6034830270507654,0.05994193648133317
2.163820848620186,2.812731053754475,0.5540060274627074,2.584876723811195,1.9464540610177141,-1.2520601860490062,2.973378530906312,2.7258362878825437,3.8708134454469096,0.31765104508248854
1.0950068555637982,0.3891527256440206,-1.825097678904409,2.6157382629514365,0.34856694547025746,0.10709385571842361,-0.7179438017240384,-3.44873586641734,0.19889934724962544,3.4241596384793853
0.3815257253353648,1.3562937149230359,-0.8939716973018894,2.7115673075023654,1.0289556600498626,-0.37372035259317304,-0.12536328615945858,1.7653901009647082,0.7194897530180174,-0.9103008408268978
1.0506492013416633,1.447185682190744,-1.581545280685269,2.709408455370134,0.5984629122706902,0.016046743178976974,-0.02377976094341605,-0.23261292467539396,0.7946820994430334,1.525276502831669
0.6133256335295407,1.0577359760972143,-1.3877226537068619,3.404851709994329,0.3255529859146519,-1.687190125513443,1.0433649492964472,-0.3796392964506432,0.7258829038080233,0.08300620825757687
-0.6762390045596385,1.428806009193131,1.169960252263161,0.016833789395166887,0.4034200992304927,-0.7063927810849052,1.8463681160880356,-0.3898336380739192,0.6886176193623523,2.2142760075057453
2.1470118750503766,2.2860389201019253,2.4306921791699523,-0.8735144337746213,1.3915016678435634,-0.5240914088336468,0.8338735037905474,0.8312360683305728,0.6335677315047263,0.46269353717389317
2.494623712382713,0.28350355104541825,0.019800651547040804,2.5790296858073605,1.3993863679369642,-0.4570118490378645,1.7476392645434382,1.5689714463906204,0.8249006097499614,-0.6680551606474492
3.193148131932171,0.9346322032052532,-2.8551741826655963,2.5917991364220225,0.49346004203995364,0.24650471562891585,0.31925143530403877,-0.09519847127648129,0.024751315627664753,-0.5129650584158882
2.643792601833966,0.7938587563821704,-0.9078943933391063,1.861711850290174,1.295602682537768,-0.676180605526085,3.312491104233424,-0.7463098971474601,0.8160096273415727,2.6452128823316
0.18849650750947644,0.13714379660022424,0.5021342100249233,0.42396562243761915,0.268807044134126,0.05916590516232367,-0.37077564030442467,-1.4097437181019103,-0.20532434198837005,0.03060869939570332
1.3006213931387633,0.5309764574310176,-1.0278725090989211,2.7479088523765025,1.3307921830698866,0.38927583613516675,-0.9155110372394453,0.6718116744900315,2.56094910855291,0.6555943040494443
2.838965881805202,0.5747144787674812,-3.5562738507462432,3.148315712933057,0.6646591956660112,-0.00979616036495332,2.320232415737925,-0.739735678750843,0.34870457548416656,0.8818349201304692
3.1841244227444356,0.032522611033334314,-0.8319657301450815,1.7487157161566427,0.6956881049791656,0.679373834262046,0.3994582520640284,-1.1393584455217722,-0.3197310862638544,0.6307596234963393
1.8192958478392804,3.341666305048488,-0.20358074062291198,2.4731565872303696,1.5393236794184058,-1.3104125263676232,2.2327611974481454,0.31162270691064875,3.0518652199038407,-0.4838014750254318
0.3514412289264346,3.102634660491617,0.2779735638676186,3.3944455777395017,0.8591826177419707,-2.2874509917449988,2.4485611885145726,1.9553896733833265,0.877436532334551,-0.23298210360135352
1.996615273014939,2.55694165382211,-0.8960798761784634,1.9773828314054493,0.6666914629966612,-1.1881938265047094,0.7702801375057924,-1.8610902392041648,1.5163244714189443,1.0296227846807215
0.5356869441973897,-0.955206001664304,-0.21235298247662887,-0.6499621136876057,-0.6961349562742725,0.6242343524989619,2.9483857867687515,-3.2516595206435706,-0.8697391294517295,2.517989867538232
0.5595535242905394,3.250355426971649,0.44200521635633033,-0.2977883482711453,1.5917382751915286,-2.8785569153654276,0.76901583272672,1.2000188325105094,3.246868830548691,2.455680166275058
2.7760344795918988,3.0494726567886987,1.1407975245432311,1.3527074656416271,1.3767960275844433,-1.230590048480544,2.6639251233562877,0.6093241332118964,4.463849999369072,1.8611408693773757
0.6492578186515627,0.6901675788444528,-0.9039560842456538,0.9597450305485355,0.329635673395111,0.9183066184365448,1.7799543866447558,-1.9095988691644679,1.9109181016012238,3.428587866077474
-0.15995227711567805,0.5336923703319456,-1.3521768723314325,2.88230146074987,-0.06796222738231308,0.050015502930007255,1.349980153474144,-1.9676753641608058,-0.029536092971627036,1.7149651590145738
3.3694324015565282,1.2155582421471816,-0.3916791831604137,0.4688868926177763,1.1302788552788028,-0.4952915360689911,0.9566483048412957,0.3835019561000391,0.9421768917708006,-0.9802968983653266
