lhs,op,rhs,est
x5,~,x4,0.28361315634622314
x5,~,x6,0.35754542814748896
x7,~,x5,-0.525838541247977
x7,~,x8,0.6157195788545214
x3,~,x10,-0.42626624758668846
x3,~,x5,0.37170253188305463
x6,~,x3,-0.24413009563715934
x1,~,x8,-0.5635052647464611
x9,~,x2,0.4421330284959397
x9,~,x8,-0.3026338134216945
