lhs,op,rhs,est
x5,~,x2,0.6356545512974696
x5,~,x3,-0.1292180511020184
x5,~,x4,0.41691089109379187
x9,~,x10,-0.41608124503701305
x9,~,x5,0.3971298698587854
x1,~,x7,-0.5873524838505324
x1,~,x9,0.9091843454265034
x3,~,x8,-0.592171981752892
x4,~,x9,-0.439988525279049
x7,~,x6,1.0726705752517958
