lhs,op,rhs,est
x7,~,x10,-0.9563660895950097
x7,~,x6,-0.7180025926359198
x7,~,x9,-0.6612104178191569
x5,~,x2,0.44880093194285753
x5,~,x4,-0.3407513134740409
x5,~,x7,-0.508088647898985
x10,~,x5,-0.4967446295006218
x8,~,x7,0.6750507961886094
x1,~,x7,-0.458306824945979
x3,~,x6,0.45748372774917356
