lhs,op,rhs,est
x10,~,x2,-0.7364817865700297
x10,~,x3,-0.3263802436442423
x10,~,x5,-0.2479036497047709
x10,~,x8,-0.136168862904818
x4,~,x1,-0.8733211039791038
x4,~,x3,-0.7675313416482391
x6,~,x4,-0.13160878412592647
x8,~,x9,-0.11304262177412172
x7,~,x2,0.6626385073414457
