lhs,op,rhs,est
x2,~,x4,0.6707973331425674
x2,~,x8,-0.2351896555186423
x2,~,x9,-0.2607028375312104
x8,~,x3,-0.8673587682542067
x10,~,x1,-0.33208095405856514
x10,~,x8,0.5095515824117132
x5,~,x7,-0.6509330933487761
x5,~,x8,-0.2077391558288331
x4,~,x6,-0.7382863858040869
