lhs,op,rhs,est
eta2,~,x4,-1.897142024485007
x3,~,x1,-1.3235762665762862
x3,~,x2,0.757709607956407
x4,~,x2,-0.42431717200779423
x5,~,eta1,-0.21254118785034548
x5,~,x3,-0.04199873631690381
eta1,=~,y2,-1.2754744212465456
eta1,=~,y3,-1.0331002569541274
eta2,=~,y5,-0.8016814231484929
eta2,=~,y6,-1.8200838276074174
eta1,~~,eta1,1.797808708401874
eta2,~~,eta2,3.3622204985076576
eta2,~~,x5,-0.1600878806349494
x3,~~,x3,1.982988296169009
x4,~~,x4,0.15053413733344292
x5,~~,x5,0.11743124160503159
y1,~~,y1,0.9545542410757799
y2,~~,y2,1.7915300834041723
y3,~~,y3,1.1251641547122264
y4,~~,y4,1.028814641092934
y5,~~,y5,0.6590073384751528
y6,~~,y6,2.85826823468423
