lhs,op,rhs,est
eta2,~,eta1,-0.7450975446418087
eta2,~,x3,-1.6216104557378461
x1,~,x4,0.6748659255925853
x2,~,x1,-0.26567329175293547
x3,~,x1,1.5554817338180296
x5,~,x2,-1.767548662006613
eta1,=~,y2,-0.8236292974365342
eta1,=~,y3,-1.198013049665852
eta2,=~,y5,0.23360625681812713
eta2,=~,y6,0.31560599665625855
eta1,~~,eta1,1.944661760439114
eta2,~~,eta2,5.3022682450746546
eta2,~~,x5,-0.1870947558029504
x1,~~,x1,0.3693571198282812
x2,~~,x2,0.07562783590894566
x3,~~,x3,2.416999069308598
x5,~~,x5,2.6314364278029534
y1,~~,y1,0.5417075455026402
y2,~~,y2,0.8637459401160887
y3,~~,y3,2.1811268721661015
y4,~~,y4,2.0827460638722237
y5,~~,y5,0.094434698969567
y6,~~,y6,0.1901053770076587
