lhs,op,rhs,est
eta1,~,x2,0.8432213992605873
eta2,~,x1,-2.0666987994530466
eta2,~,x2,0.2455820113520068
eta2,~,x4,-1.773609273260116
x1,~,x5,-1.275431244117445
x5,~,x3,-1.4010546361649976
eta1,=~,y2,-0.5122063167758953
eta1,=~,y3,-0.12121883822005988
eta2,=~,y5,-1.2689136863207173
eta2,=~,y6,1.0289754041228967
eta1,~~,eta1,1.1001106497321957
eta1,~~,eta2,-0.7988514975576504
eta2,~~,eta2,7.4754563612109
x1,~~,x1,1.5726036656603795
x5,~~,x5,1.6921674918520657
y1,~~,y1,2.6789639592430665e-17
y2,~~,y2,2.042685328707547
y3,~~,y3,0.0706727841740243
y4,~~,y4,2.8071212231653124
y5,~~,y5,5.348238797176955
y6,~~,y6,2.9311556784890413
