"lhs","op","rhs","est"
"x6","~","x2",-0.315386360149155
"x6","~","x4",-0.272411414460781
"x7","~","x6",0.0884813037040112
"x8","~","x6",0.961430149610957
"x2","~","x8",0.498977080642156
"x10","~","x2",-0.633500419338143
"x1","~","x6",-0.663536386474768
"x3","~","x4",-0.604336107975559
"x3","~","x5",-0.837420614839546
"x9","~","x3",0.235045210049512
"x6","~~","x6",0.149236333939192
"x7","~~","x7",0.0195915289147323
"x8","~~","x8",1.49109954798245
"x2","~~","x2",0.231694967618395
"x10","~~","x10",0.385374845008842
"x1","~~","x1",1.22947033890076
"x3","~~","x3",1.26710785185602
"x9","~~","x9",0.806887851106036
"x7","~~","x10",-0.00507135423565632
"x7","~~","x1",-0.0113012294100594
"x7","~~","x9",0.00251602291954006
"x10","~~","x1",0.0036497950817896
"x10","~~","x9",-0.000356903568760245
"x1","~~","x9",-0.0603973526149692
