"lhs","op","rhs","est"
"x4","~","x1",-0.818049728988281
"x4","~","x2",0.187903130581008
"x4","~","x5",0.53537058382947
"x8","~","x10",-1.02722816107636
"x8","~","x4",0.0486968770217847
"x6","~","x3",0.500101969231411
"x6","~","x5",-0.999675869188859
"x2","~","x9",0.629765810016133
"x7","~","x3",0.770583898412759
"x4","~~","x4",0.997651626299962
"x8","~~","x8",1.22580256580782
"x6","~~","x6",1.34764443829892
"x2","~~","x2",0.412670609626328
"x7","~~","x7",0.656892582015272
"x8","~~","x6",-0.0115590171944045
"x8","~~","x7",-0.0327534406395962
"x6","~~","x7",0.0105398212206793
