"lhs","op","rhs","est"
"x6","~","x1",-0.843190455750655
"x6","~","x9",-0.377027078864458
"x3","~","x6",-0.144341719807371
"x10","~","x3",1.30131416781598
"x2","~","x10",-0.5648214997686
"x7","~","x2",-0.774617749673432
"x1","~","x10",-0.358127914805434
"x8","~","x3",-0.495457508363557
"x5","~","x3",1.31328461265604
"x4","~","x10",0.24472461572021
"x6","~~","x6",0.629327801571975
"x3","~~","x3",0.148614205696005
"x10","~~","x10",0.925096188318982
"x2","~~","x2",0.268956296791132
"x7","~~","x7",0.544403337109543
"x1","~~","x1",0.114748814988343
"x8","~~","x8",0.178024968716004
"x5","~~","x5",1.09981816995286
"x4","~~","x4",0.0621465934122428
"x7","~~","x8",0.0255555979132428
"x7","~~","x5",-0.0273227106293677
"x7","~~","x4",-0.00961948053873195
"x8","~~","x5",0.0277574883079522
"x8","~~","x4",-0.0108960708247693
"x5","~~","x4",-0.0132922767709324
