"lhs","op","rhs","est"
"x9","~","x1",0.620382863799567
"x9","~","x10",-0.111013364123794
"x9","~","x7",-0.389102116048694
"x3","~","x9",0.237205106596767
"x1","~","x3",0.110188732399396
"x4","~","x3",-0.632320132721995
"x6","~","x9",0.513055889262957
"x8","~","x6",-1.16927510681029
"x2","~","x10",-0.578637457993914
"x5","~","x10",0.878946443988777
"x9","~~","x9",0.334309417899554
"x3","~~","x3",0.116235418230814
"x1","~~","x1",0.0102512065894912
"x4","~~","x4",0.426315192014383
"x6","~~","x6",0.646566014069267
"x8","~~","x8",1.22815246372154
"x2","~~","x2",0.316369407297666
"x5","~~","x5",0.875184830106188
"x4","~~","x8",0.0208028730024378
"x4","~~","x2",-0.0137847398838601
"x4","~~","x5",0.0307126136156218
"x8","~~","x2",0.00231081174936284
"x8","~~","x5",-0.0312111725043595
"x2","~~","x5",-0.0299507447535985
