"lhs","op","rhs","est"
"x1","~","x4",1.01920303122085
"x1","~","x5",0.374605345110084
"x1","~","x9",0.403943206927593
"x10","~","x1",0.0994474691830822
"x9","~","x10",0.175486099750695
"x3","~","x9",0.567574013715234
"x2","~","x1",0.0317572820294026
"x7","~","x10",0.467368849620498
"x6","~","x7",-0.168436800017572
"x8","~","x7",0.415702180793926
"x1","~~","x1",2.22263962351667
"x10","~~","x10",1.54095849253249
"x9","~~","x9",0.0305292045233961
"x3","~~","x3",0.332360849004665
"x2","~~","x2",0.155062418147686
"x7","~~","x7",0.211313483113842
"x6","~~","x6",0.035342256830553
"x8","~~","x8",0.181517104798963
"x3","~~","x2",0.00405291250274652
"x3","~~","x6",0.00652765808540593
"x3","~~","x8",-0.0146252764961804
"x2","~~","x6",0.00135978950578779
"x2","~~","x8",0.000878037442370787
"x6","~~","x8",0.0027605995536142
