"lhs","op","rhs","est"
"x5","~","x3",-0.222345900264766
"x5","~","x4",-0.671565064612567
"x7","~","x5",-0.446747739235327
"x3","~","x1",0.419797411395218
"x3","~","x6",-0.406438022474131
"x8","~","x5",0.576530745091704
"x10","~","x3",-0.464430877371993
"x2","~","x10",-0.786970446150607
"x9","~","x3",-0.395178917773895
"x1","~","x10",-0.807378138482786
"x5","~~","x5",0.586206251332867
"x7","~~","x7",0.345750623348292
"x3","~~","x3",0.388765906716843
"x8","~~","x8",0.66748025812986
"x10","~~","x10",0.65975550602955
"x2","~~","x2",0.546473609678653
"x9","~~","x9",1.17874863762461
"x1","~~","x1",1.00729121547558
"x7","~~","x8",0.0112984149750025
"x7","~~","x2",0.026863659032483
"x7","~~","x9",0.0386980010773514
"x8","~~","x2",0.00766826377313877
"x8","~~","x9",-0.056402432262833
"x2","~~","x9",-0.00508669695354504
