"lhs","op","rhs","est"
"x1","~","x3",-1.02982954262739
"x1","~","x7",0.472402972430996
"x10","~","x1",-0.609942759115308
"x5","~","x3",-0.652437319523403
"x6","~","x5",0.535602914340788
"x2","~","x3",-0.683305100668646
"x4","~","x2",0.385612453033793
"x8","~","x1",0.344585646559804
"x7","~","x8",-0.520554183396125
"x9","~","x5",-0.824571004323133
"x1","~~","x1",1.25644753911829
"x10","~~","x10",0.368588781284207
"x5","~~","x5",0.484194081608561
"x6","~~","x6",0.260017552066047
"x2","~~","x2",0.464109124581562
"x4","~~","x4",0.147343890515724
"x8","~~","x8",0.141250874769056
"x7","~~","x7",0.208990662747954
"x9","~~","x9",0.598276446679526
"x10","~~","x6",-0.00083666043447009
"x10","~~","x4",-0.028899504338942
"x10","~~","x9",0.0179332178040981
"x6","~~","x4",-0.00309680460834808
"x6","~~","x9",0.0214975946746615
"x4","~~","x9",0.000755332424436653
