"lhs","op","rhs","est"
"x4","~","x1",-1.05963999438565
"x4","~","x2",-0.0692472152615559
"x4","~","x7",0.197648722328423
"x9","~","x3",0.884293698065126
"x9","~","x4",-0.502408332839106
"x8","~","x1",-0.157578442984991
"x10","~","x8",0.752814158146163
"x5","~","x1",0.271994493815976
"x2","~","x6",-1.0230554826949
"x2","~","x9",0.257017564603663
"x4","~~","x4",1.54559837886939
"x9","~~","x9",1.45552601981837
"x8","~~","x8",0.0285976818753443
"x10","~~","x10",0.699643154683816
"x5","~~","x5",0.090281237450691
"x2","~~","x2",1.44893066956583
"x10","~~","x5",-0.0194247481956843
