"lhs","op","rhs","est"
"x10","~","x1",-0.259732761803443
"x10","~","x6",0.138578823757128
"x2","~","x10",-0.0592700697137481
"x2","~","x7",0.439504921377784
"x2","~","x8",-0.443996301215754
"x1","~","x2",0.806828803668044
"x1","~","x4",0.232932364248051
"x4","~","x3",0.81178229841279
"x9","~","x8",0.542560377422466
"x5","~","x10",0.076695797064075
"x10","~~","x10",0.286835458765668
"x2","~~","x2",0.64636407822792
"x1","~~","x1",2.15232996916066
"x4","~~","x4",0.713587963189386
"x9","~~","x9",0.271077493457441
"x5","~~","x5",0.851774507229068
"x9","~~","x5",-0.0289548714011295
