lhs,op,rhs,est
eta2,~,x2,-0.2697270174361044
eta2,~,x5,-0.47731572615099177
x1,~,x4,-0.6697304050937046
x1,~,x3,0.3021283804332422
x2,~,eta1,0.5435785020020244
x4,~,eta2,0.6363198811184742
eta1,=~,y2,0.5774044708744992
eta2,=~,y4,-0.3628291227826177
eta2,=~,y5,-0.2842447116063072
eta1,~~,eta1,1.448568981448214
eta2,~~,eta2,0.3484525654564386
x1,~~,x1,0.43625561166636695
x2,~~,x2,0.312753985108575
x4,~~,x4,0.5818983115880018
y1,~~,y1,1.001665888886204
y2,~~,y2,0.23880613324093256
y3,~~,y3,2.104654043902435
y4,~~,y4,0.2579513415803086
y5,~~,y5,0.17584198606097698
