lhs,op,rhs,est
eta1,~,x3,0.1706634094395335
eta2,~,x2,-0.25320764347080915
x3,~,eta2,0.3661163034941836
x3,~,x4,-0.49322396200386154
x4,~,x1,0.3502810713468985
x4,~,x5,-0.29276289958681456
eta1,=~,y2,-0.14034239418540684
eta2,=~,y4,-0.7817425694221992
eta2,=~,y5,-0.35390563948628156
eta1,~~,eta1,0.6752500276372364
eta2,~~,eta2,0.14260523922604448
x3,~~,x3,0.7034533915085106
x4,~~,x4,0.20253257046327539
y1,~~,y1,0.8308156249611752
y2,~~,y2,0.025778731897811616
y3,~~,y3,0.9455745967307424
y4,~~,y4,0.6621241760142984
y5,~~,y5,0.16292401181923005
