lhs,op,rhs,est
x1,~,x4,-0.47632994719854804
x1,~,x3,-0.505448327108678
x4,~,x5,-0.045877123393972374
x5,~,eta1,-0.14446095249365526
x5,~,eta2,0.363308189214338
x5,~,x2,0.13822632741389346
eta1,=~,y2,0.5428621707308178
eta1,=~,y3,0.3477225583660734
eta2,=~,y5,-0.7648914905197726
eta2,=~,y6,0.318440914818197
eta1,~~,eta1,1.4486896582719746
eta1,~~,eta2,-0.0673342285546732
eta2,~~,eta2,1.5473442724150102
x1,~~,x1,0.39167170810882584
x4,~~,x4,0.4004069359881378
x5,~~,x5,0.11899964309752895
y1,~~,y1,0.8923466863483287
y2,~~,y2,0.3275215285282691
y3,~~,y3,0.11315623519457813
y4,~~,y4,1.0822680047770374
y5,~~,y5,0.7719400501574624
y6,~~,y6,0.0883595250124159
