lhs,op,rhs,est
x1,~,x3,-0.2091289322356423
x1,~,x4,-0.5964890956334615
x2,~,eta1,-0.5858736642308456
x2,~,eta2,-0.6435432220720241
x2,~,x4,-0.05407059904884563
x5,~,x2,-0.052428603925472154
eta1,=~,y2,-0.9356890405779636
eta1,=~,y3,-0.2535818667863792
eta2,=~,y5,-0.4143885205404275
eta2,=~,y6,-0.1442616085851871
eta1,~~,eta1,1.4799044317929844
eta1,~~,eta2,0.03586620309539997
eta2,~~,eta2,1.8561256184033477
x1,~~,x1,0.42742732463302024
x1,~~,x5,-0.02135356455837851
x2,~~,x2,0.9480336979974469
x5,~~,x5,0.04037601117912613
y1,~~,y1,1.0904781377841013
y2,~~,y2,0.5907170731329515
y3,~~,y3,0.04762413884352188
y4,~~,y4,0.8818203055957495
y5,~~,y5,0.2295401365633191
y6,~~,y6,0.018814992100363408
