lhs,op,rhs,est
eta2,~,x3,0.39712578749545857
eta2,~,x1,-0.7925406891961021
eta2,~,x4,-0.042905355153020526
eta2,~,x5,0.30069386142196036
x2,~,x3,-0.322831016537535
x3,~,eta1,-0.29914447258889326
eta1,=~,y2,0.28023356948244305
eta1,=~,y3,-0.5319275436418286
eta2,=~,y5,-0.7752941397996256
eta1,~~,eta1,1.422072446200983
eta2,~~,eta2,1.327810993539509
eta2,~~,x2,-0.017578550356831982
x2,~~,x2,0.10625055902212847
x3,~~,x3,0.09481087078299708
y1,~~,y1,1.3004611922168157
y2,~~,y2,0.059748321088116736
y3,~~,y3,0.1729167846428647
y4,~~,y4,4.048985926650286
y5,~~,y5,2.558793354161645
