lhs,op,rhs,est
eta2,~,x3,0.4550392961098286
x2,~,x1,-0.691633155854402
x3,~,eta1,-0.763295286266461
x4,~,eta2,0.22671340748873964
x4,~,x1,0.715236365239653
x5,~,eta2,-0.4847295379786229
eta1,=~,y2,-0.1821829443561041
eta2,=~,y4,-0.18912261020354054
eta1,~~,eta1,1.9184615495301545
eta2,~~,eta2,0.35398281526175207
x2,~~,x2,0.4935636322261577
x2,~~,x4,-0.01270182165690175
x2,~~,x5,-0.00823616605454911
x3,~~,x3,0.6269638950382257
x4,~~,x4,0.5278812778194268
x4,~~,x5,0.030730369671957785
x5,~~,x5,0.2173042259271451
y1,~~,y1,1.0229992791391678
y2,~~,y2,0.036476585186715725
y3,~~,y3,0.8721216082317231
y4,~~,y4,0.04256566452360248
