lhs,op,rhs,est
eta1,~,x3,-0.7923913836010769
eta2,~,eta1,0.21046062477261307
eta2,~,x1,-1.476453555594956
x2,~,eta1,-0.23328748275496125
x4,~,eta1,-0.2966163010207808
x5,~,x3,1.320991146756935
eta1,=~,y2,0.9513980354975597
eta1,=~,y3,0.3615926455397638
eta2,=~,y5,0.32006361686140755
eta2,=~,y6,-0.840186357890149
eta1,~~,eta1,0.6409492180551719
eta2,~~,eta2,2.4191297438370585
eta2,~~,x2,-0.020521182608843103
eta2,~~,x4,0.052507536520995914
eta2,~~,x5,-0.06569823583255291
x2,~~,x2,0.047107902227721654
x2,~~,x4,0.0007494770172601731
x2,~~,x5,-0.0054694812820853065
x4,~~,x4,0.08953328532870733
x4,~~,x5,0.005600387915127532
x5,~~,x5,1.750923247296139
y1,~~,y1,0.932962441988706
y2,~~,y2,0.9816856020073658
y3,~~,y3,0.14303801091619028
y4,~~,y4,1.9413678455081722
y5,~~,y5,0.2378807526559709
y6,~~,y6,1.3029708248532759
