lhs,op,rhs,est
x1,~,eta1,1.252226480224219
x1,~,eta2,1.5440114977204102
x3,~,eta2,-0.5508710864007647
x4,~,x3,1.1445969768656783
x4,~,x2,0.8616465338937391
x4,~,x5,-1.5563583699923138
eta1,=~,y2,0.870283822116121
eta1,=~,y3,-0.9731401426310332
eta2,=~,y5,-1.2795958459490353
eta2,=~,y6,-0.9355379817243962
eta1,~~,eta1,1.9100557944081789
eta1,~~,eta2,-0.03749793092564753
eta2,~~,eta2,1.5150407216771173
x1,~~,x1,4.098580314179122
x1,~~,x4,-0.2291741684891656
x3,~~,x3,0.2509286420380268
x4,~~,x4,4.607803756322294
y1,~~,y1,0.8927854420019341
y2,~~,y2,0.8952047112217018
y3,~~,y3,1.2304432588824294
y4,~~,y4,0.9153130586745026
y5,~~,y5,1.500980214495241
y6,~~,y6,0.7750166806217624
