lhs,op,rhs,est
eta1,~,x3,-1.3641509585077058
eta2,~,x3,-0.1463609402496281
x1,~,x2,-0.4064935385289441
x2,~,x3,0.2146094963913646
x4,~,x2,-0.34776011887874764
x5,~,x1,-1.2134106112509018
eta1,=~,y2,0.6359938282158198
eta2,=~,y4,0.6555975667425116
eta1,~~,eta1,1.8003904249252478
eta1,~~,eta2,0.023740021484659223
eta1,~~,x4,0.016613892894550772
eta1,~~,x5,0.026138610566458456
eta2,~~,eta2,0.016345994650031892
eta2,~~,x4,-0.0020936053596445057
eta2,~~,x5,-0.12396493839007389
x1,~~,x1,0.20874034010076398
x2,~~,x2,0.044455519426757614
x4,~~,x4,0.09916475303881833
x4,~~,x5,0.018827984191347368
x5,~~,x5,1.7792606918704044
y1,~~,y1,0.9356315825855536
y2,~~,y2,0.3381862830385341
y3,~~,y3,1.0392181495234567
y4,~~,y4,0.32248086007475035
