lhs,op,rhs,est
eta2,~,x3,0.8404367309559283
x2,~,eta1,-1.265804148283832
x3,~,x4,0.2103612476172536
x4,~,eta1,-0.5122809442994009
x4,~,x1,0.9195970363356537
x5,~,eta1,-1.2471494645295695
eta1,=~,y2,-0.36037279362826363
eta1,=~,y3,-1.268772582407294
eta2,=~,y5,-0.36499825555424437
eta1,~~,eta1,0.9338985207025405
eta2,~~,eta2,0.7462513633146738
eta2,~~,x2,-0.022401427855123484
eta2,~~,x5,-0.053979840536804664
x2,~~,x2,1.9117496341607985
x2,~~,x5,-0.08004339778750136
x3,~~,x3,1.0152336435927867
x4,~~,x4,0.9570162336841078
x5,~~,x5,1.5626461966017235
y1,~~,y1,1.0510044051147984
y2,~~,y2,0.136433015682361
y3,~~,y3,1.2102108517364385
y4,~~,y4,0.8855694273755891
y5,~~,y5,0.1884808558287274
