"lhs","op","rhs","est"
"eta1","=~","y18",0.39841950669648
"eta1","=~","y3",0.728520669536561
"eta2","=~","y5",0.629167941637802
"eta2","=~","y6",-0.574012263956636
"eta3","=~","y8",-0.445928642873352
"eta3","=~","y9",-0.628711103660712
"eta4","=~","y11",-0.566683365687288
"eta4","=~","y12",-0.445967902427335
"eta5","=~","y14",0.103902871151618
"eta5","=~","y15",-0.80712018636925
"eta6","=~","y18",0.426027167998217
"eta7","=~","y19",0.531724593896316
"eta8","=~","y21",-0.604533808621943
"eta2","~","eta8",0.276474687450157
"x6","~","eta2",-0.571269933631745
"x6","~","eta3",-0.450644390818207
"x6","~","x10",0.198297665225707
"x1","~","x6",-0.324895084142608
"x8","~","x1",0.346969035406028
"x2","~","eta2",0.411146753747511
"x2","~","eta4",0.563604621704709
"x7","~","eta2",1.01583123638427
"x5","~","eta6",-0.914077326226586
"x10","~","x5",0.280562594043461
"eta3","~","eta1",-0.817316520584048
"eta5","~","eta4",0.760653047218406
"eta7","~","eta5",0.816157420695322
"x3","~","x5",0.803459143770233
"x4","~","x3",-0.87391435312499
"x9","~","x4",-0.358766160089309
"y1","~~","y1",0.992667188166048
"y18","~~","y18",1.45917415787003
"y3","~~","y3",0.630398102507177
"y4","~~","y4",0.915761101344917
"y5","~~","y5",0.309794717084237
"y6","~~","y6",0.327511327938609
"y7","~~","y7",0.951093625763676
"y8","~~","y8",0.238494660835475
"y9","~~","y9",0.524206455400278
"y10","~~","y10",0.974631437124038
"y11","~~","y11",0.387854071851442
"y12","~~","y12",0.2535281998021
"y13","~~","y13",1.12525373700896
"y14","~~","y14",0.0116134457302021
"y15","~~","y15",0.564269592940125
"y16","~~","y16",0.629591383338961
"y19","~~","y19",0.284744335646699
"y20","~~","y20",0.698293211445553
"y21","~~","y21",0.515313596121652
"x6","~~","x6",0.492103815523331
"x1","~~","x1",0.3106770042773
"x8","~~","x8",0.553789413295708
"x2","~~","x2",0.484814680099669
"x7","~~","x7",0.762997078516143
"x5","~~","x5",1.39989720946412
"x10","~~","x10",0.0796823101879085
"x3","~~","x3",0.744070248912118
"x4","~~","x4",0.812760273613041
"x9","~~","x9",0.144241881389867
"eta1","~~","eta1",1.65343076040018
"eta2","~~","eta2",0.143100290541428
"eta3","~~","eta3",0.628435760721946
"eta4","~~","eta4",1.90110854293925
"eta5","~~","eta5",0.551555920831187
"eta6","~~","eta6",2.15472449993698
"eta7","~~","eta7",0.59614985901793
"eta8","~~","eta8",1.92125348702509
"eta1","~~","eta4",0.0310068181489547
"eta1","~~","eta6",-0.0318758784014691
"eta1","~~","eta8",-0.0519321518950244
"eta4","~~","eta6",0.00927542274002033
"eta4","~~","eta8",0.169782260418453
"eta6","~~","eta8",-0.181045428304054
"eta7","~~","x8",-0.0167307395422017
"eta7","~~","x2",0.0234203100282256
"eta7","~~","x7",0.0567716968376475
"eta7","~~","x9",0.00423640859127156
"x8","~~","x2",-0.055316313073885
"x8","~~","x7",0.015472462901948
"x8","~~","x9",0.0380823127787738
"x2","~~","x7",0.045562616280567
"x2","~~","x9",0.0175176001534375
"x7","~~","x9",0.0275353691213789
