"lhs","op","rhs","est"
"eta1","=~","y2",0.371491068640751
"eta1","=~","y3",-0.923150165719338
"eta2","=~","y5",-1.1215506377099
"eta3","=~","y7",-0.48011225514732
"eta4","=~","y9",-0.241447185490342
"eta5","=~","y11",0.69507802183001
"eta5","=~","y7",0.582665282852805
"eta6","=~","y15",0.684223788566876
"eta6","=~","y2",0.924484666664714
"eta7","=~","y17",-0.736636216762435
"eta8","=~","y19",-0.528293776559994
"eta8","=~","y20",0.225589644407649
"x1","~","eta1",-0.70129100539994
"x1","~","eta6",-0.870684742653481
"x1","~","x4",0.188860753206701
"eta5","~","x1",0.632184893469075
"eta3","~","x4",-1.05575696391829
"eta8","~","eta3",-0.455193214565564
"eta4","~","eta6",0.58415592977673
"eta4","~","x3",0.723243458200415
"eta7","~","x4",-0.149390973277442
"x3","~","x8",-0.699511164416168
"x2","~","eta6",-1.01756671229043
"x10","~","eta1",0.61037123387015
"x9","~","eta2",0.538521699944443
"x9","~","x4",1.15487806956662
"x6","~","x1",-0.735707138626525
"x5","~","x6",-0.821334472793558
"x7","~","x1",0.801361469798227
"y1","~~","y1",1.07680604760086
"y2","~~","y2",0.999577343866983
"y3","~~","y3",0.842386136920412
"y4","~~","y4",1.32172299923508
"y5","~~","y5",0.704170376831787
"y6","~~","y6",1.07631467119323
"y7","~~","y7",1.56135416553883
"y8","~~","y8",2.09058221681662
"y9","~~","y9",0.127855260364345
"y10","~~","y10",2.34521205936891
"y11","~~","y11",1.89781661459759
"y13","~~","y13",1.06730618758872
"y15","~~","y15",0.416107444518783
"y16","~~","y16",0.918204283737624
"y17","~~","y17",0.418653094398746
"y18","~~","y18",1.18036603350269
"y19","~~","y19",0.443788953293437
"y20","~~","y20",0.0763796834605284
"x1","~~","x1",1.01479042441035
"x3","~~","x3",0.414135625781557
"x2","~~","x2",0.845359458477092
"x10","~~","x10",0.312162158134411
"x9","~~","x9",1.17428385187377
"x6","~~","x6",1.41485473971059
"x5","~~","x5",2.26117775855533
"x7","~~","x7",2.01778399100599
"eta1","~~","eta1",1.47242990024041
"eta2","~~","eta2",1.48115722453174
"eta3","~~","eta3",1.33582147239401
"eta4","~~","eta4",1.22863305210364
"eta5","~~","eta5",1.23411735166063
"eta6","~~","eta6",1.58925462222578
"eta7","~~","eta7",0.000555685193961996
"eta8","~~","eta8",0.0436520157050819
"eta1","~~","eta2",-0.0165371253387602
"eta1","~~","eta6",-0.0740282655823213
"eta2","~~","eta6",-0.0610212330141797
"eta4","~~","eta5",0.116476996737617
"eta4","~~","eta7",0.0278583885684772
"eta4","~~","eta8",0.210063722813741
"eta4","~~","x2",-0.0433010267765461
"eta4","~~","x10",0.0702311843804504
"eta4","~~","x9",0.259030172151161
"eta4","~~","x5",0.384275265960306
"eta4","~~","x7",0.0406459638312275
"eta5","~~","eta7",0.176908713694761
"eta5","~~","eta8",0.0648375982153323
"eta5","~~","x2",-0.145646943808896
"eta5","~~","x10",-0.0662570264957689
"eta5","~~","x9",-0.0771149377192579
"eta5","~~","x5",0.179792538849998
"eta5","~~","x7",-0.135820267215581
"eta7","~~","eta8",-0.00588190654434283
"eta7","~~","x2",0.0211549692766976
"eta7","~~","x10",-0.0317878728572929
"eta7","~~","x9",0.124044447050784
"eta7","~~","x5",-0.00207958496199143
"eta7","~~","x7",0.150739190941999
"eta8","~~","x2",-0.0607485544212042
"eta8","~~","x10",0.0184630918787052
"eta8","~~","x9",0.0609464985317043
"eta8","~~","x5",0.0917878269042045
"eta8","~~","x7",-0.0981677470258954
"x2","~~","x10",0.0111800868074935
"x2","~~","x9",-0.172667879013416
"x2","~~","x5",-0.0799065683553043
"x2","~~","x7",0.0800396087655553
"x10","~~","x9",-0.0781391053654407
"x10","~~","x5",-0.0326841286388519
"x10","~~","x7",-0.0243651167360473
"x9","~~","x5",0.275956983900901
"x9","~~","x7",-0.119872567082922
"x5","~~","x7",-0.0440725634613376
"x4","~~","x4",1.68090968553919
"x4","~~","x8",-0.0956235743903525
"x8","~~","x8",1.69488922427914
