"lhs","op","rhs","est"
"eta1","=~","y2",-0.22061203718373
"eta2","=~","y4",0.914197911624215
"eta2","=~","y5",-0.340946849022144
"eta3","=~","y7",0.707643309915348
"eta4","=~","y9",-0.418422261138076
"eta5","=~","y11",0.705675622254994
"eta5","=~","y12",0.903587633510208
"eta6","=~","y9",-0.627437079608273
"eta7","=~","y17",-0.404120362228305
"eta7","=~","y2",0.189130398446277
"eta8","=~","y19",0.244121712420547
"eta8","=~","y20",0.548827371235243
"eta4","~","x6",0.99282959839739
"eta4","~","x9",-0.0204966166003628
"x7","~","eta4",0.939330198588179
"eta1","~","x7",-0.544391794740672
"eta5","~","x4",1.14250113840636
"x9","~","eta5",-0.310477661612885
"x9","~","eta6",-1.02721457005878
"x3","~","eta7",-0.240752726869333
"x3","~","x9",0.122596879913098
"x1","~","x3",-0.420989512077819
"eta8","~","eta3",0.192125269834575
"eta8","~","x6",0.292827039470201
"x10","~","eta2",0.549319011189948
"x10","~","x2",0.195045018785241
"x10","~","x9",0.0725692214701895
"x5","~","x9",0.617151947837632
"x8","~","eta4",0.333600834280963
"y1","~~","y1",1.61885704052917
"y2","~~","y2",0.121712467285693
"y3","~~","y3",0.949226446536804
"y4","~~","y4",0.506159618709464
"y5","~~","y5",0.137537156368623
"y6","~~","y6",0.318661618926048
"y7","~~","y7",1.46583089803751
"y8","~~","y8",2.30817365469457
"y9","~~","y9",0.713533428049294
"y10","~~","y10",0.832074926695056
"y11","~~","y11",0.744023073408359
"y12","~~","y12",1.01442746269563
"y13","~~","y13",1.19925271794014
"y15","~~","y15",0.58010424483824
"y17","~~","y17",0.330021283859745
"y18","~~","y18",2.11352404713718
"y19","~~","y19",0.0775937794072045
"y20","~~","y20",0.394346289492386
"x7","~~","x7",1.65190713397007
"x9","~~","x9",0.871356405169098
"x3","~~","x3",0.47564053759657
"x1","~~","x1",0.326793526989658
"x10","~~","x10",0.35422244770518
"x5","~~","x5",0.763005997518579
"x8","~~","x8",0.176082137857471
"eta1","~~","eta1",0.876489544509285
"eta2","~~","eta2",1.66743995986543
"eta3","~~","eta3",2.42938001603866
"eta4","~~","eta4",1.1275728863904
"eta5","~~","eta5",0.998657633923026
"eta6","~~","eta6",1.48537673983959
"eta7","~~","eta7",2.11737520897872
"eta8","~~","eta8",0.112060952978592
"eta2","~~","eta3",-0.153974549047466
"eta2","~~","eta6",-0.041469158640979
"eta2","~~","eta7",0.142491957502687
"eta3","~~","eta6",0.169527073598309
"eta3","~~","eta7",-0.0566576302509291
"eta6","~~","eta7",0.0589856430865965
"eta1","~~","eta8",0.0132652741020118
"eta1","~~","x1",-0.0449181800387257
"eta1","~~","x10",0.142105420691237
"eta1","~~","x5",0.11645212244169
"eta1","~~","x8",0.0408701361147442
"eta8","~~","x1",-0.045624939724946
"eta8","~~","x10",-0.0277427021732211
"eta8","~~","x5",-0.162570155641343
"eta8","~~","x8",-0.0761190056657875
"x1","~~","x10",-0.0117991838919226
"x1","~~","x5",-0.00180078080321941
"x1","~~","x8",-0.0126712893209302
"x10","~~","x5",-0.0792533114572826
"x10","~~","x8",-0.03030935828872
"x5","~~","x8",-0.0435863604414651
"x6","~~","x6",1.55247284216569
"x6","~~","x4",-0.23491856761944
"x6","~~","x2",-0.0879177876164269
"x4","~~","x4",1.50219882683703
"x4","~~","x2",-0.0401832071791402
"x2","~~","x2",1.62850811771379
