"lhs","op","rhs","est"
"eta1","=~","y2",0.266407211383339
"eta1","=~","y3",1.06808525894508
"eta2","=~","y5",0.64293148685364
"eta3","=~","y7",0.0329253758698632
"eta4","=~","y9",45.9039801317289
"eta5","=~","y11",-0.451932287291818
"eta5","=~","y12",0.430220819529004
"eta6","=~","y14",-0.944225123740332
"eta7","=~","y16",1.04134308230177
"eta8","=~","y17",0.258657284399708
"eta8","=~","y18",-0.404214375085354
"x3","~","x6",-0.509818972066605
"eta1","~","x3",0.613588096486435
"eta3","~","eta1",-0.0889886415750418
"x4","~","eta3",2.09625981402008
"eta7","~","eta1",-0.911412984341608
"x2","~","eta5",0.793599478516823
"x2","~","eta7",-0.817064893193387
"x2","~","x1",1.08099005296651
"x10","~","eta1",-0.360800107674494
"eta2","~","eta6",0.380864104396821
"eta2","~","x10",0.430800130316389
"x1","~","x9",-0.575922677702116
"eta8","~","eta1",0.1413935967454
"x8","~","eta8",0.848219968407538
"eta6","~","x7",-0.648065441278366
"eta4","~","eta6",-0.00263693195854974
"x5","~","eta8",0.816065492264465
"y1","~~","y1",0.873906285169347
"y2","~~","y2",0.060900171177137
"y3","~~","y3",1.02888496284899
"y4","~~","y4",2.12355413302302
"y5","~~","y5",0.440214252731342
"y6","~~","y6",1.18717150013876
"y7","~~","y7",0.0149772048978029
"y8","~~","y8",0.987612278055495
"y9","~~","y9",-1.15327462393716
"y10","~~","y10",0.971413038888655
"y11","~~","y11",0.231018770178391
"y12","~~","y12",0.214427665328123
"y13","~~","y13",0.934994912318418
"y14","~~","y14",1.54465686374499
"y15","~~","y15",0.993112487158222
"y16","~~","y16",0.891220879172569
"y17","~~","y17",0.0718907940203406
"y18","~~","y18",0.144812416859886
"x3","~~","x3",0.285265272681908
"x4","~~","x4",0.809503281589362
"x2","~~","x2",2.96656113055019
"x10","~~","x10",0.0664078775152169
"x1","~~","x1",0.320167985626853
"x8","~~","x8",0.509915458450389
"x5","~~","x5",0.305140475073112
"eta1","~~","eta1",0.43064435967339
"eta2","~~","eta2",0.322247835091441
"eta3","~~","eta3",0.027143680416491
"eta4","~~","eta4",0.0010436709170164
"eta5","~~","eta5",1.93878366954904
"eta6","~~","eta6",0.471975970217197
"eta7","~~","eta7",0.955540919423926
"eta8","~~","eta8",-0.0311469804465435
"eta2","~~","eta4",0.000627675419914722
"eta2","~~","x4",-0.00278147320243518
"eta2","~~","x2",-0.176189752295379
"eta2","~~","x8",0.079644250999879
"eta2","~~","x5",0.031017827298972
"eta4","~~","x4",-0.00224711531769079
"eta4","~~","x2",0.00547330181665672
"eta4","~~","x8",-0.000438390707851017
"eta4","~~","x5",-0.00056009179290118
"x4","~~","x2",-0.205589876962619
"x4","~~","x8",-0.0195643889145563
"x4","~~","x5",-0.0184852954736208
"x2","~~","x8",-0.0873813271830185
"x2","~~","x5",-0.00787736446589004
"x8","~~","x5",0.0383784568271905
"x6","~~","x6",1.66431465628228
"x6","~~","x9",0.121488836143166
"x6","~~","x7",-0.0221728023222815
"x9","~~","x9",1.6772417400677
"x9","~~","x7",0.0292896595346881
"x7","~~","x7",1.67763917410378
