"lhs","op","rhs","est"
"eta1","=~","y8",1.0376644510446
"eta2","=~","y4",-0.293631838458347
"eta2","=~","y5",-0.108786315511995
"eta3","=~","y8",-0.161162682468032
"eta4","=~","y9",0.611456634259346
"eta5","=~","y11",0.735850491708998
"eta5","=~","y12",-0.178036415913431
"eta6","=~","y14",0.605033365997132
"eta6","=~","y15",1.12665726176307
"eta7","=~","y17",-1.35704713333101
"eta7","=~","y18",-0.617109437743438
"eta8","=~","y20",0.132928266553972
"eta8","=~","y21",-0.335785805906592
"eta2","~","eta1",0.12820117842791
"eta2","~","x7",0.292432042568429
"eta2","~","x9",0.267149144719652
"eta3","~","eta2",0.544995221406233
"eta3","~","eta8",-0.825542037110271
"eta6","~","eta3",-0.343478513147122
"x1","~","x7",0.655010227727708
"x4","~","x1",-0.193494463926539
"eta5","~","x9",0.26396624523491
"x2","~","eta1",0.925948297876344
"x5","~","x2",1.03571049193696
"eta4","~","x5",-0.381402423291172
"x8","~","x7",-0.110575576327466
"x10","~","x7",0.134971084806136
"eta7","~","eta8",-0.289357729753735
"x3","~","x2",-0.209232898446972
"x6","~","x7",0.133938677695378
"y2","~~","y2",0.953375699430746
"y8","~~","y8",1.9432407345949
"y3","~~","y3",3.26961826776168
"y4","~~","y4",0.234792035553404
"y5","~~","y5",0.0394586855645916
"y7","~~","y7",1.9262549592268
"y9","~~","y9",0.332462371973221
"y10","~~","y10",1.08765455567808
"y11","~~","y11",0.501067611687281
"y12","~~","y12",0.044985237626287
"y13","~~","y13",2.17767855223853
"y14","~~","y14",0.554482519702399
"y15","~~","y15",2.44832476249169
"y16","~~","y16",0.969267466173021
"y17","~~","y17",1.05664140473513
"y18","~~","y18",0.445451227181672
"y19","~~","y19",1.03043742054791
"y20","~~","y20",0.0177302887275696
"y21","~~","y21",0.0961706774818666
"x1","~~","x1",0.455755518770878
"x4","~~","x4",0.0356039032437667
"x2","~~","x2",0.84607576764599
"x5","~~","x5",1.24952584794584
"x8","~~","x8",0.0149771902115258
"x10","~~","x10",0.0173614661979979
"x3","~~","x3",0.0445585906055612
"x6","~~","x6",0.0135191856502521
"eta1","~~","eta1",1.53116400214619
"eta2","~~","eta2",0.31378189109494
"eta3","~~","eta3",1.73006165324349
"eta4","~~","eta4",0.120331711864043
"eta5","~~","eta5",0.0594139425524038
"eta6","~~","eta6",0.29075761923831
"eta7","~~","eta7",0.13239697911035
"eta8","~~","eta8",1.78827209679498
"eta1","~~","eta8",-0.0401283101037407
"eta4","~~","eta5",-0.023610828648032
"eta4","~~","eta6",-0.012177259422705
"eta4","~~","eta7",0.0673571140209783
"eta4","~~","x4",-0.0121885702843763
"eta4","~~","x8",-0.0113162280912676
"eta4","~~","x10",2.40393536756703e-05
"eta4","~~","x3",0.00709851187747078
"eta4","~~","x6",0.0129178752759151
"eta5","~~","eta6",0.058880026170036
"eta5","~~","eta7",-0.00422524154773607
"eta5","~~","x4",0.00760224239352092
"eta5","~~","x8",0.00046344554823665
"eta5","~~","x10",-0.0113483821753306
"eta5","~~","x3",0.00820989112372904
"eta5","~~","x6",-0.00110753325319217
"eta6","~~","eta7",-0.00490726667008588
"eta6","~~","x4",0.000204554701024236
"eta6","~~","x8",0.00822446768807306
"eta6","~~","x10",-0.0143255715596121
"eta6","~~","x3",-0.024995314049634
"eta6","~~","x6",-0.006682027792588
"eta7","~~","x4",-0.00256892976299412
"eta7","~~","x8",0.00544361985244532
"eta7","~~","x10",-0.00501282991756897
"eta7","~~","x3",0.0183295701613036
"eta7","~~","x6",-0.0030682702019273
"x4","~~","x8",-0.000176152798942698
"x4","~~","x10",-4.0629764037499e-05
"x4","~~","x3",-0.00248115250355698
"x4","~~","x6",0.000216906143343991
"x8","~~","x10",-0.000851938871869253
"x8","~~","x3",5.31435257689301e-06
"x8","~~","x6",-0.000569991774269854
"x10","~~","x3",-0.000865913137284744
"x10","~~","x6",-0.00185641802078879
"x3","~~","x6",-0.00199841178372668
"x7","~~","x7",1.63500223184127
"x7","~~","x9",-0.0635388369991934
"x9","~~","x9",1.64291497129295
