"lhs","op","rhs","est"
"eta1","=~","y13",0.541967245482523
"eta1","=~","y3",-0.414613964528994
"eta2","=~","y5",-0.279765207312268
"eta2","=~","y6",-0.258592548258118
"eta3","=~","y8",-0.958980673271005
"eta3","=~","y9",-0.175916126167889
"eta4","=~","y11",-0.564689292216225
"eta5","=~","y13",-0.197991685725227
"eta5","=~","y14",0.423715641828255
"eta6","=~","y15",0.563554824097208
"eta7","=~","y18",0.727586076101585
"eta8","=~","y20",-0.396958514614477
"eta8","=~","y21",0.287618456789131
"eta2","~","x3",0.175379916458348
"x8","~","eta2",-1.02670161388984
"x8","~","x6",0.0612908302860683
"x10","~","eta6",0.369067084968572
"x10","~","x8",-0.302322322904262
"eta3","~","x10",-0.384724066800776
"x2","~","x5",0.162406355939798
"x6","~","eta1",0.799106945362002
"x6","~","x2",0.0732075015200672
"x4","~","x8",0.657184199340025
"eta5","~","x9",0.725045911180755
"eta6","~","eta5",-0.480286123216692
"eta4","~","eta2",1.1988139742555
"eta4","~","eta7",-0.244338484334718
"eta4","~","eta8",0.194629183571181
"x7","~","eta2",0.391834663401233
"x1","~","x2",-0.684027402533679
"y1","~~","y1",1.64770050446444
"y13","~~","y13",0.444192968914877
"y3","~~","y3",0.170098990284759
"y4","~~","y4",1.11208020201608
"y5","~~","y5",0.0207599902631909
"y6","~~","y6",0.0294459213769607
"y7","~~","y7",2.17874220477847
"y8","~~","y8",1.35100273133182
"y9","~~","y9",0.0832023873952421
"y10","~~","y10",3.32552377475413
"y11","~~","y11",0.95290954991501
"y12","~~","y12",1.03642542578279
"y14","~~","y14",0.153350764203813
"y15","~~","y15",0.301441091016879
"y17","~~","y17",0.975819288979764
"y18","~~","y18",0.605933875781643
"y19","~~","y19",0.860613932810766
"y20","~~","y20",0.171943857565761
"y21","~~","y21",0.101722078550639
"x8","~~","x8",0.774378865867004
"x10","~~","x10",0.287746620795443
"x2","~~","x2",0.0253222911740466
"x6","~~","x6",1.30205849460117
"x4","~~","x4",0.897789476572641
"x7","~~","x7",0.059402405790813
"x1","~~","x1",0.523177433337765
"eta1","~~","eta1",1.63663751037861
"eta2","~~","eta2",-0.00520974199613985
"eta3","~~","eta3",0.19571009364316
"eta4","~~","eta4",0.341024441996103
"eta5","~~","eta5",0.47625948639712
"eta6","~~","eta6",0.429694770374794
"eta7","~~","eta7",1.72683624591585
"eta8","~~","eta8",2.02472621705805
"eta1","~~","eta7",-0.00399931686392227
"eta1","~~","eta8",0.149004749683702
"eta7","~~","eta8",0.00486930625778005
"eta3","~~","eta4",0.0498560497920552
"eta3","~~","x4",0.0832913285935912
"eta3","~~","x7",0.00876846426869982
"eta3","~~","x1",-0.0183136567410609
"eta4","~~","x4",0.0176726600671414
"eta4","~~","x7",0.00481254975208547
"eta4","~~","x1",-0.0452137823103823
"x4","~~","x7",-0.0108594147811408
"x4","~~","x1",0.0149736679650729
"x7","~~","x1",-0.00414099982551456
"x3","~~","x3",1.6734944135614
"x3","~~","x5",-0.0631335846556229
"x3","~~","x9",0.0109416713168981
"x5","~~","x5",1.67682617829011
"x5","~~","x9",-0.0505074812818003
"x9","~~","x9",1.59573809223844
