"lhs","op","rhs","est"
"eta1","=~","y2",0.818472065244843
"eta1","=~","y3",-0.103898343543797
"eta2","=~","y5",0.313084423394116
"eta3","=~","y7",-1.27576108484875
"eta4","=~","y8",0.888773208098163
"eta4","=~","y9",0.449404592396979
"eta5","=~","y12",0.799397247201906
"eta6","=~","y14",0.823742855244936
"eta7","=~","y16",-0.425692914641945
"eta8","=~","y18",0.95058870744571
"x3","~","x4",-0.284636292205365
"x3","~","x9",-0.296632102609129
"x8","~","eta2",-0.216030480049449
"x8","~","x1",0.494788965219421
"x8","~","x3",-0.721315872494737
"x8","~","x6",-0.374618266458433
"x5","~","eta3",-0.588317210833039
"x5","~","x3",-0.237844483563782
"eta1","~","x3",0.274193038647559
"eta4","~","x10",0.988257000354412
"eta4","~","x9",-0.338512443931326
"x6","~","eta7",1.10492916973267
"eta8","~","eta6",0.746628484035989
"eta8","~","x9",-0.197427023017231
"x2","~","x9",0.190820878045659
"x7","~","x2",0.247615547845789
"eta5","~","x6",0.29913634266879
"y1","~~","y1",1.9070206201611
"y2","~~","y2",1.66362659247806
"y3","~~","y3",0.377608810995987
"y4","~~","y4",0.40938323647117
"y5","~~","y5",0.240652858134614
"y7","~~","y7",0.98730115522123
"y10","~~","y10",2.0976643510044
"y8","~~","y8",1.71786486049801
"y9","~~","y9",0.397307360960697
"y11","~~","y11",0.990295834316711
"y12","~~","y12",0.657084291500149
"y13","~~","y13",1.1472938193069
"y14","~~","y14",0.460272935464662
"y15","~~","y15",1.23740524526396
"y16","~~","y16",0.10005335734875
"y17","~~","y17",2.01678295969664
"y18","~~","y18",2.54091596715157
"x3","~~","x3",0.12535941444623
"x8","~~","x8",1.46356579666066
"x5","~~","x5",0.945509311858224
"x6","~~","x6",0.956376100125763
"x2","~~","x2",0.0481681166873098
"x7","~~","x7",0.0557716526700185
"eta1","~~","eta1",0.22795378744423
"eta2","~~","eta2",2.39015880214093
"eta3","~~","eta3",1.36959592238437
"eta4","~~","eta4",0.936365921429713
"eta5","~~","eta5",0.122609742028237
"eta6","~~","eta6",1.30150416414887
"eta7","~~","eta7",1.25147828273076
"eta8","~~","eta8",0.661028805542498
"eta2","~~","eta3",0.0451506303690963
"eta2","~~","eta6",-0.0945777323246496
"eta2","~~","eta7",0.223237284568433
"eta3","~~","eta6",0.102102875272317
"eta3","~~","eta7",-0.0411869346751746
"eta6","~~","eta7",-0.0473357326264654
"eta1","~~","eta4",0.0739502750291034
"eta1","~~","eta5",-0.00131394895468145
"eta1","~~","eta8",-0.0316649536852053
"eta1","~~","x8",0.0701854354099411
"eta1","~~","x5",0.00114235798282998
"eta1","~~","x7",-0.0116298003184635
"eta4","~~","eta5",-0.0513657695198157
"eta4","~~","eta8",0.00379102579372138
"eta4","~~","x8",-0.0831051291946193
"eta4","~~","x5",-0.0185613512410922
"eta4","~~","x7",0.0386290135666136
"eta5","~~","eta8",-0.0156136844404766
"eta5","~~","x8",0.0179324338965626
"eta5","~~","x5",0.0755071196631992
"eta5","~~","x7",-0.0329430123035358
"eta8","~~","x8",-0.126555316046287
"eta8","~~","x5",-0.0357241572751675
"eta8","~~","x7",0.0101975754648182
"x8","~~","x5",0.133665684740521
"x8","~~","x7",-0.00671057802775623
"x5","~~","x7",0.027111751941952
"x4","~~","x4",1.64392031155572
"x4","~~","x9",0.00968254357904435
"x4","~~","x1",-0.0298599797738857
"x4","~~","x10",-0.262664302529359
"x9","~~","x9",1.64957358807758
"x9","~~","x1",0.127724881703794
"x9","~~","x10",-0.0950967136344755
"x1","~~","x1",1.71210250961887
"x1","~~","x10",0.0370396942134178
"x10","~~","x10",1.67040704741847
