"lhs","op","rhs","est"
"eta1","=~","y8",-0.280745074352086
"eta2","=~","y4",0.19989636823791
"eta3","=~","y6",-0.309270441871437
"eta4","=~","y8",-0.0310935122231256
"eta4","=~","y9",-0.441232716572465
"eta5","=~","y11",1.276629748224
"eta5","=~","y12",0.30169032341053
"eta6","=~","y8",-0.411414223140224
"eta7","=~","y16",-0.241069852091244
"eta7","=~","y17",-1.1392133978016
"eta8","=~","y19",-0.265919264243107
"eta8","=~","y20",-0.126581727579854
"x3","~","eta1",0.894333266840361
"x3","~","x4",0.0118135025008958
"x3","~","x7",-0.832839077597654
"x1","~","eta6",0.49068239843173
"x1","~","x3",0.61502665041128
"x1","~","x5",0.157346508764128
"eta2","~","eta1",-0.53502346051189
"eta2","~","eta4",0.75513590069504
"eta2","~","x6",0.627185249821849
"eta5","~","eta2",0.885573424165907
"x10","~","x8",-0.104541237290396
"eta4","~","x10",1.10048961955795
"eta4","~","x9",-0.132873473522242
"eta7","~","eta1",-0.709159242025348
"eta3","~","x9",-0.215559340691417
"x2","~","eta2",0.1328869136162
"eta8","~","x10",1.54574727389504
"y2","~~","y2",1.03885252539961
"y8","~~","y8",0.599573346017545
"y3","~~","y3",3.25272219821113
"y4","~~","y4",0.119208131115472
"y5","~~","y5",1.13715015292099
"y6","~~","y6",0.188989982137124
"y7","~~","y7",1.90279130518209
"y9","~~","y9",1.56397724792264
"y10","~~","y10",3.31000942593306
"y11","~~","y11",2.48718195899097
"y12","~~","y12",0.250862133804064
"y13","~~","y13",0.808848162215884
"y15","~~","y15",1.02912987067479
"y16","~~","y16",0.0548494285460505
"y17","~~","y17",1.11748463347212
"y18","~~","y18",-1.19727410972326
"y19","~~","y19",1.0402913948809
"y20","~~","y20",0.163554992727826
"x3","~~","x3",2.00165349580462
"x1","~~","x1",1.31414153717196
"x10","~~","x10",0.0343568882997093
"x2","~~","x2",0.0321037761727299
"eta1","~~","eta1",1.76052651162492
"eta2","~~","eta2",0.821106479081768
"eta3","~~","eta3",0.0447795559887022
"eta4","~~","eta4",-0.113102759760812
"eta5","~~","eta5",2.57693047258461
"eta6","~~","eta6",1.91413244883258
"eta7","~~","eta7",0.77095010453373
"eta8","~~","eta8",3.21090133346501
"eta1","~~","eta6",-0.0332232872187244
"eta3","~~","eta5",-0.00395052730321813
"eta3","~~","eta7",0.0365571699704353
"eta3","~~","eta8",0.0343355744764239
"eta3","~~","x1",-0.0749522183181437
"eta3","~~","x2",-0.00381405653851199
"eta5","~~","eta7",0.112489307333495
"eta5","~~","eta8",0.138480823353836
"eta5","~~","x1",0.129229180227486
"eta5","~~","x2",0.00450636724122479
"eta7","~~","eta8",0.0133875514196365
"eta7","~~","x1",0.0257251255375422
"eta7","~~","x2",0.0128813932912244
"eta8","~~","x1",0.00413727057098101
"eta8","~~","x2",-0.0251197216508556
"x1","~~","x2",0.00816954017852533
"x4","~~","x4",1.54857820560082
"x4","~~","x7",0.0279491365245517
"x4","~~","x5",-0.180348320980187
"x4","~~","x6",0.0274477224580619
"x4","~~","x8",-0.0696875589085397
"x4","~~","x9",0.0785697804919374
"x7","~~","x7",1.6371193908947
"x7","~~","x5",-0.0607930578851109
"x7","~~","x6",-0.171784505321829
"x7","~~","x8",0.122262518796773
"x7","~~","x9",-0.00558809134382436
"x5","~~","x5",1.71112493793793
"x5","~~","x6",0.0925598416045594
"x5","~~","x8",-0.0444713799174348
"x5","~~","x9",-0.014907343745427
"x6","~~","x6",1.57356092164604
"x6","~~","x8",-0.0417619446059917
"x6","~~","x9",0.10668538489
"x8","~~","x8",1.75707855797703
"x8","~~","x9",0.0146366441166198
"x9","~~","x9",1.65744963323255
