lhs,op,rhs,est
eta1,~,eta2,-0.5791942892081702
eta2,~,x1,0.48361592852581153
x2,~,x5,0.8124305321014194
x3,~,x4,1.3168294676400876
x5,~,eta2,1.463546034081447
x5,~,x3,0.7159183448523504
eta1,=~,y2,-0.21069545110756374
eta1,=~,y3,-1.459024942792809
eta2,=~,y5,0.40937149698995257
eta2,=~,y6,-0.2693168912459162
eta1,~~,eta1,0.3968301403683094
eta1,~~,x2,-0.03470006431520391
eta2,~~,eta2,0.2763921888966671
x2,~~,x2,4.9864034581157055
x3,~~,x3,1.6512519842339952
x5,~~,x5,2.7916999399928057
y1,~~,y1,0.9848208761322369
y2,~~,y2,0.04939428380208499
y3,~~,y3,2.0520973659904804
y4,~~,y4,0.9237349900967582
y5,~~,y5,0.2027865268986017
y6,~~,y6,0.09538910037001658
