lhs,op,rhs,est
eta1,~,x3,-1.7139379906089094
eta2,~,x1,-1.1521891116976597
x2,~,x1,-0.6189579416118349
x3,~,eta2,-0.714229224305446
x5,~,x1,1.0330166135306034
x5,~,x4,-0.9294776642045794
eta1,=~,y2,-0.24600968922373853
eta2,=~,y4,-1.1946752790838944
eta1,~~,eta1,2.5707421834840214
eta1,~~,x2,0.05023163429716715
eta1,~~,x5,-0.15012759098810008
eta2,~~,eta2,1.1303315030824153
x2,~~,x2,0.43423516988905825
x2,~~,x5,0.03361159281474219
x3,~~,x3,0.4712988899485225
x5,~~,x5,1.7114459664376744
y1,~~,y1,0.9622346580360006
y2,~~,y2,0.0635072641207544
y3,~~,y3,1.000774764320289
y4,~~,y4,1.6443060018319806
