lhs,op,rhs,est
eta1,~,x1,-0.8779487500446554
eta1,~,x3,1.7188903774215878
eta2,~,x3,1.1749016287536287
eta2,~,x4,0.48808035059647814
x5,~,eta1,1.2188441032932815
x5,~,x2,1.421312441651912
eta1,=~,y2,0.6435651279108517
eta1,=~,y3,-1.2509143235392794
eta2,=~,y5,-0.6128431596735098
eta1,~~,eta1,3.2845619321739568
eta2,~~,eta2,1.4108779356096
eta2,~~,x5,-0.07397765941709333
x5,~~,x5,4.677392636797551
y1,~~,y1,2.0033778416744084
y2,~~,y2,0.8627823587866906
y3,~~,y3,3.281638996606013
y4,~~,y4,1.707166516822868
y5,~~,y5,0.7374115438404416
