lhs,op,rhs,est
eta1,~,x4,1.6057672071480247
eta2,~,x5,0.9737825335836625
eta2,~,x4,0.29830610846699385
x3,~,x1,0.469254824394386
x3,~,x2,1.5094255766078541
x5,~,x1,0.47035882779761046
eta1,=~,y2,0.27639510251087396
eta2,=~,y4,-0.26489412474745405
eta1,~~,eta1,2.30014862615617
eta1,~~,eta2,0.0104953443810468
eta1,~~,x3,0.06908311874913313
eta2,~~,eta2,0.7904650762803269
eta2,~~,x3,0.01062027192394593
x3,~~,x3,2.7723444921157774
x5,~~,x5,0.23573226718411378
y1,~~,y1,0.7677334082401794
y2,~~,y2,0.08996380446950354
y3,~~,y3,1.9390973344431406
y4,~~,y4,0.18645280134164857
