lhs,op,rhs,est
x7,~,eta3,-0.5268314183481332
x7,~,x6,-0.8694440394700614
eta2,~,x7,0.12041488554613189
x6,~,eta2,0.10324697672611063
x6,~,x10,-0.6855495589458336
x6,~,x8,0.8920961433199002
x9,~,x6,-0.4519361478117041
x5,~,x9,-0.23973269486545776
x4,~,x8,0.1628199345862809
x3,~,eta3,-0.16053655809977457
eta1,~,x9,0.9060424842300674
x1,~,x8,0.5838607224327882
eta4,~,x7,0.3637059810137287
x2,~,eta4,-0.5496478053204986
eta1,=~,y2,0.8981319988762386
eta1,=~,y3,0.8871978124179971
eta2,=~,y5,-0.7220941472666146
eta2,=~,y8,-0.1403757970356555
eta3,=~,y8,0.31813824016822356
eta4,=~,y9,-0.999598073044081
