lhs,op,rhs,est
x4,~,eta1,0.4493276004333084
x2,~,x4,0.5399324474766807
x5,~,eta2,-0.8489639656201153
x5,~,x2,0.4546687904437894
x6,~,x5,-0.7851876830060192
x3,~,x5,-0.7347128214161062
eta2,~,x1,0.33510589925946227
eta2,~,x9,-0.33444378570269806
x8,~,x5,-0.5328595416283739
eta4,~,eta2,-0.6015401549995367
eta4,~,eta3,-0.8620675385876617
x7,~,eta4,0.12615187224434948
x10,~,x4,-0.886561885533771
x9,~,eta4,1.0250899539743286
eta1,=~,y2,-0.9967768019798424
eta1,=~,y3,-0.2918764951559105
eta2,=~,y5,-0.5010636160572898
eta2,=~,y6,-0.47656467208356407
eta3,=~,y9,0.2876980246470859
eta4,=~,y11,-0.43578114363907805
eta4,=~,y9,0.20582858377859814
