lhs,op,rhs,est
x9,~,eta3,0.5532130506776818
x9,~,x6,0.6526690244030978
eta1,~,x9,-0.590479761834798
x5,~,eta1,0.685251103030364
x5,~,x3,-0.6670681357508901
eta3,~,x5,1.0506554806753976
eta3,~,x8,0.9039266043166992
x7,~,eta3,-0.5228010165472274
x4,~,eta4,-0.2963504924768166
x4,~,x10,0.6255782677923224
x4,~,x5,0.36987467837159005
x1,~,eta1,0.41437300456138376
eta2,~,x10,-0.5505112753708853
x2,~,x10,-0.37688145088296965
eta1,=~,y2,0.6177212709645888
eta1,=~,y3,-0.6431488594632098
eta2,=~,y5,-0.544889943363582
eta2,=~,y6,0.7723021460286918
eta3,=~,y8,-0.926218972668734
eta4,=~,y11,0.8226905231542925
eta4,=~,y9,0.288218830517154
