lhs,op,rhs,est
x6,~,x7,-1.0245794008952183
x8,~,x10,1.061750152375971
x8,~,x6,-0.7065270437542436
eta1,~,x4,0.1282400009091696
eta1,~,x7,-0.7856314535461282
eta2,~,eta1,0.23446351739824567
x1,~,eta3,0.5709309186516824
x1,~,x5,0.44476255733842435
x1,~,x7,-0.13628079372075516
eta4,~,x1,-0.9219687606689957
x5,~,eta4,0.13593497541833358
x5,~,x2,0.7899316562122508
x9,~,x7,-0.20499605792257966
x3,~,eta1,0.6957407126832288
eta1,=~,y2,-0.8406502411831004
eta2,=~,y4,-0.8511923756736108
eta3,=~,y6,-0.7435689012105159
eta3,=~,y7,1.0539767658586716
eta4,=~,y9,-0.49842881444982573
