lhs,op,rhs,est
x3,~,x5,-0.8354842064293209
x3,~,x6,0.11368157962641556
x4,~,eta2,-0.6864241140181955
x4,~,x3,0.520370340848742
eta2,~,x8,-0.6286537586524674
eta2,~,x9,0.33695719631860377
eta3,~,x3,0.7607972796400172
x1,~,eta3,0.9828933024746968
eta1,~,x10,-0.872606637249044
eta1,~,x3,-0.5375537053677555
eta1,~,x7,0.7027854333127475
x6,~,eta1,-1.0288548460868896
x2,~,eta2,0.5127114469277141
eta4,~,x8,-0.1953192101641774
eta1,=~,y2,0.2310513228395923
eta2,=~,y4,0.3690762448482524
eta2,=~,y5,0.7603723608499392
eta3,=~,y7,-0.8481058174227105
eta3,=~,y8,-0.29708933631963114
eta4,=~,y11,-0.8335716405291225
eta4,=~,y9,0.17654997005173315
