lhs,op,rhs,est
eta4,~,x10,-1.0490527878631726
eta4,~,x7,-0.7409900044331778
x9,~,eta4,-0.4045425591822169
eta1,~,x5,-0.4829213157035424
eta1,~,x6,-0.6518747220414478
eta1,~,x8,-0.6285677978057195
eta1,~,x9,0.33379296200534975
x1,~,eta1,0.3991263514268343
x1,~,eta2,0.2867298144288326
x5,~,x2,0.12103549748773933
eta3,~,x4,-0.8829951867421804
x6,~,eta3,0.49227671358399905
x3,~,x2,0.7829865153186892
x7,~,x9,-0.2039454215122871
eta1,=~,y2,0.5274378847865613
eta2,=~,y4,0.4614240474707407
eta2,=~,y5,-0.44607921523338867
eta3,=~,y7,-0.9859184579132132
eta4,=~,y9,-0.2933089520073772
