lhs,op,rhs,est
x4,~,x1,0.7984535621338461
x8,~,x4,-0.1652313879141404
x8,~,x5,-0.4278708042228686
eta3,~,x8,0.3186727117305094
eta3,~,x9,0.8512238276821672
x7,~,eta3,0.28939163881750823
eta1,~,x7,-0.6481257130247093
x9,~,eta1,0.7987091096339559
x9,~,x2,-0.31844112933356716
x3,~,eta4,0.23084247795588964
x3,~,x8,0.11638088900042369
eta2,~,eta3,0.4592003626982781
x6,~,x4,0.3172385488702951
x10,~,x6,1.0033410705020371
eta1,=~,y2,-0.8491845488797903
eta1,=~,y4,-0.13606370688904146
eta2,=~,y5,-0.1495634376637109
eta2,=~,y6,-0.7899615748226364
eta3,=~,y8,0.9543988045810332
eta4,=~,y11,-0.43379044653135646
eta4,=~,y9,1.0553141821026133
