lhs,op,rhs,est
x10,~,x5,-0.2335130179044714
x10,~,x7,-0.9653360432306207
x3,~,x1,0.8349085100162139
x3,~,x10,0.4558148551171739
x3,~,x4,0.5035469411436344
x9,~,eta2,1.0532039123336434
x9,~,eta3,0.26093256820960437
x9,~,x3,-0.3672547786643801
x8,~,x9,-0.8385046952991494
x2,~,x10,-0.18584836682202394
x5,~,x3,0.5183673744391161
x6,~,eta4,0.6028723407123877
eta1,~,x6,-0.4058838958415071
eta2,~,eta1,-0.8352591102391927
eta1,=~,y2,-0.7321670074787787
eta2,=~,y4,0.8810660059842705
eta2,=~,y5,0.3720049182526335
eta3,=~,y6,-0.5028911705939101
eta4,=~,y8,-0.9804656973897595
eta4,=~,y9,0.14345460808470464
