lhs,op,rhs,est
eta1,~,x1,0.02455970341690879
eta2,~,x4,-0.5289498612667545
x1,~,x2,0.24265613544617226
x1,~,x4,0.6855790657535396
x3,~,x4,0.6459280322426196
x5,~,x3,-0.0923803110404253
eta1,=~,y2,-0.07812849722000582
eta2,=~,y4,-0.19725768055319085
eta1,~~,eta1,1.0152808651790504
eta1,~~,eta2,0.02658967936070766
eta1,~~,x5,0.005224202107648801
eta2,~~,eta2,0.26462076939238666
eta2,~~,x5,0.0014036019951235619
x1,~~,x1,0.48420959729735735
x3,~~,x3,0.3501146081673664
x5,~~,x5,0.008674341166312473
y1,~~,y1,0.0
y2,~~,y2,0.30107707067755307
y3,~~,y3,1.0688377847455324
y4,~~,y4,0.03452580122568373
