lhs,op,rhs,est
eta1,~,x1,0.6336746425356701
eta2,~,eta1,0.2564491962435611
x1,~,x5,0.2564090008833336
x2,~,x1,-0.24830348160277987
x3,~,eta1,-0.34672427461640454
x4,~,x2,0.10476519214096387
eta1,=~,y2,-0.8233957771931216
eta2,=~,y4,-0.21891718546594577
eta1,~~,eta1,0.5181044180359208
eta2,~~,eta2,0.0
eta2,~~,x3,-0.019032466830707227
eta2,~~,x4,-0.0032226821028622046
x1,~~,x1,0.06655097258136208
x2,~~,x2,0.05132965451204857
x3,~~,x3,0.21329915803576527
x3,~~,x4,-0.0010289662116402603
x4,~~,x4,0.01408315692816709
y1,~~,y1,0.8972112268172412
y2,~~,y2,0.5807729478814009
y3,~~,y3,1.065158257933883
y4,~~,y4,0.04348608435613094
