lhs,op,rhs,est
eta1,~,x2,0.27909729820344353
x1,~,x3,-0.5979262560808806
x1,~,x4,0.750712094210324
x3,~,eta2,-0.10794602547380873
x3,~,x2,-0.20738122289978225
x4,~,x5,0.29871633603386427
eta1,=~,y2,-0.2512379043114636
eta2,=~,y4,-0.7618803423576489
eta2,=~,y5,0.16394097066480778
eta1,~~,eta1,0.023556718830374267
eta1,~~,x1,-0.02108444486514632
eta2,~~,eta2,1.623774908309476
x1,~~,x1,0.9420972903133332
x3,~~,x3,0.043750574361390564
x4,~~,x4,0.09271005106549356
y1,~~,y1,1.0206192126006226
y2,~~,y2,0.09705107449780581
y3,~~,y3,0.9510584314901913
y4,~~,y4,0.5587601539060197
y5,~~,y5,0.025575857171048433
