lhs,op,rhs,est
x1,~,x5,0.47596313215413627
x2,~,eta1,0.361130625349475
x2,~,x5,0.25099137123913695
x3,~,x4,-1.045897361718088
x4,~,x5,0.1717282566262938
x5,~,eta2,0.3039059776192739
eta1,=~,y2,0.495033637834158
eta2,=~,y4,0.17553478255595995
eta2,=~,y5,-0.43280476058464695
eta1,~~,eta1,1.2009715448736784
eta1,~~,eta2,0.16268462946041615
eta2,~~,eta2,1.604126409302619
x1,~~,x1,0.21190742063717827
x1,~~,x2,-0.014825800097951616
x1,~~,x3,0.010651529172083727
x2,~~,x2,0.15619289086787436
x2,~~,x3,-0.011297392150440845
x3,~~,x3,0.5913218887247803
x4,~~,x4,0.029322940843008273
x5,~~,x5,0.09879277065210279
y1,~~,y1,1.1739013066035495
y2,~~,y2,0.15096147954943692
y3,~~,y3,0.9554595779801455
y4,~~,y4,0.023773342402773935
y5,~~,y5,0.17411201423092823
