lhs,op,rhs,est
eta1,~,eta2,-0.07492099165500314
eta1,~,x4,-0.4927930583069417
x1,~,eta1,0.5844279447746709
x1,~,x5,-0.29550058541528695
x2,~,eta1,0.15846323583090252
x5,~,x3,0.6665160451850529
eta1,=~,y2,0.14069591278561827
eta1,=~,y3,-0.3194931144782507
eta2,=~,y5,0.30203699061360106
eta1,~~,eta1,0.2829947548753329
eta2,~~,eta2,1.5565022307986964
x1,~~,x1,0.7922222715234832
x1,~~,x2,0.009672266760603617
x2,~~,x2,0.027489827398016423
x5,~~,x5,0.46004305656659156
y1,~~,y1,1.9577619750160757
y2,~~,y2,0.03611474863180326
y3,~~,y3,0.2974855542999264
y4,~~,y4,0.9818790781442117
y5,~~,y5,0.07437252036120329
