lhs,op,rhs,est
eta1,~,x4,0.3684237446790604
x2,~,eta1,-0.23231310258166118
x2,~,x1,-0.7069456622120684
x5,~,eta1,-0.01702570827486029
x5,~,eta2,-0.724308664136809
x5,~,x3,-0.256996598547348
eta1,=~,y2,-0.6144772214367211
eta1,=~,y3,-0.5817875445317161
eta2,=~,y5,-0.6516058297163632
eta1,~~,eta1,0.09695539583765304
eta2,~~,eta2,1.670381047421303
x2,~~,x2,0.5362421010012396
x2,~~,x5,-0.009046985482926366
x5,~~,x5,0.6707249239726314
y1,~~,y1,0.9345828319882449
y2,~~,y2,0.3220573949167497
y3,~~,y3,0.39473243831672583
y4,~~,y4,0.7932444625924542
y5,~~,y5,0.5121281951553154
