lhs,op,rhs,est
x2,~,x6,-0.1851244694682011
x3,~,x7,0.17494777047807308
x3,~,x9,-0.619114794532933
x4,~,x3,-0.2951013091221448
x4,~,x6,-0.17681678990278263
x5,~,x6,-0.4533277908539199
x7,~,x4,0.07299369145456722
x7,~,x1,-0.9897620920837695
x7,~,x10,0.6024841121318725
x8,~,x7,0.05637727560009429
x2,~~,x2,0.03931315604125443
x2,~~,x5,0.0011010940745451868
x2,~~,x8,0.007149471144429458
x3,~~,x3,1.7665492722401674
x4,~~,x4,0.5564220225184251
x5,~~,x5,0.22051936118766566
x5,~~,x8,0.013119295744468285
x7,~~,x7,1.5799449338000973
x8,~~,x8,0.10892446310631508
