lhs,op,rhs,est
x1,~,x6,0.507222647146808
x10,~,x3,-0.15130310071989989
x3,~,x1,0.6149720878835607
x3,~,x9,-0.6878934521757274
x4,~,x2,0.7358295341825162
x5,~,x4,0.5639166403252708
x5,~,x8,0.5785997019035131
x6,~,x3,0.3219192142302433
x6,~,x2,0.7271866996024456
x7,~,x3,-0.19243491513644295
x1,~~,x1,0.39297794391273144
x10,~~,x10,0.4589871968901446
x10,~~,x5,0.023454101499716128
x10,~~,x7,0.13767913524969191
x3,~~,x3,1.1622282115250064
x4,~~,x4,0.5636032715059439
x5,~~,x5,0.7077694811050098
x5,~~,x7,-0.022959363820609
x6,~~,x6,0.8413519618154081
x7,~~,x7,0.7044863559614352
