lhs,op,rhs,est
x1,~,x3,-0.19634948206360553
x1,~,x9,-0.812411614426295
x2,~,x8,0.4599418989583168
x2,~,x9,0.7775382609997462
x3,~,x10,-0.6683885267987005
x4,~,x2,0.5585690060939164
x5,~,x6,0.3798844848458489
x7,~,x2,0.36622143063150175
x8,~,x5,0.21275275731322055
x8,~,x7,0.8292439489637552
x1,~~,x1,0.7902899696497007
x1,~~,x4,-0.24065462348432798
x2,~~,x2,0.9703410298325615
x3,~~,x3,0.5194882301108108
x4,~~,x4,1.346822476984901
x5,~~,x5,0.13367392658429758
x7,~~,x7,0.18859505078586988
x8,~~,x8,0.5829703086370606
