lhs,op,rhs,est
x10,~,x2,-0.8758764174397413
x10,~,x7,-0.16049713419330894
x2,~,x3,0.4986171771706445
x4,~,x2,0.4266229601318135
x6,~,x1,0.9069563409910923
x7,~,x9,0.4579186535555274
x7,~,x1,-0.7134374997588985
x7,~,x5,0.4035134611068467
x7,~,x8,-0.38086813359259675
x9,~,x10,-0.05206245279615372
x10,~~,x10,1.1695576834481798
x2,~~,x2,0.2648168059717831
x4,~~,x4,0.14234979713531754
x4,~~,x6,0.008639094519788976
x6,~~,x6,0.7717587863546767
x7,~~,x7,0.4769575520980073
x9,~~,x9,1.574394574156403
