lhs,op,rhs,est
x1,~,x9,0.5404010325966868
x3,~,x8,-1.101084091171185
x3,~,x10,0.11737545460142554
x3,~,x9,-0.22159901090453824
x5,~,x8,0.6601190116583799
x6,~,x8,-0.5243595019823912
x7,~,x8,-0.8475260653487078
x7,~,x4,-0.7092408224112895
x8,~,x2,-0.6372205462343767
x1,~~,x1,0.2665330587892528
x1,~~,x3,-0.02244269928837449
x1,~~,x5,-0.0359271914694322
x1,~~,x6,0.02195474228988663
x1,~~,x7,-0.039721344082242656
x3,~~,x3,1.315236206897602
x3,~~,x5,0.041876311196892654
x3,~~,x6,0.018558712117522497
x3,~~,x7,-0.10149874038810106
x5,~~,x5,0.49260583003852226
x5,~~,x6,-0.026457058722833507
x5,~~,x7,0.0018684590261510037
x6,~~,x6,0.24483231946095754
x6,~~,x7,0.026020508182847187
x7,~~,x7,1.1375505679072937
x8,~~,x8,0.45523518112306394
