lhs,op,rhs,est
x1,~,x2,-0.7836982721166632
x4,~,x9,0.2757688203560221
x5,~,x6,-0.42105505078102345
x6,~,x4,-0.2730579978923724
x6,~,x2,0.30049724891966656
x6,~,x7,1.0987489299129534
x8,~,x6,-0.4688847754603449
x8,~,x10,-0.07897737355100419
x8,~,x3,-0.1990880639796242
x1,~~,x1,0.782522348349989
x1,~~,x5,0.06958092726152479
x1,~~,x8,-0.24772638899166743
x4,~~,x4,0.10880947973526461
x5,~~,x5,0.43707396148417493
x5,~~,x8,0.04310736159942276
x6,~~,x6,1.234206011763161
x8,~~,x8,0.5020660595750018
