lhs,op,rhs,est
x1,~,x4,0.13233585232505912
x1,~,x6,0.27062100076215495
x10,~,x1,0.26642665182400005
x10,~,x3,-0.45814898207702237
x10,~,x7,0.21667949714346918
x2,~,x1,-0.27187729759384444
x4,~,x10,0.5309590220348909
x4,~,x8,0.24262075619020665
x5,~,x9,0.6739700734562505
x6,~,x9,0.24628151869831127
x1,~~,x1,0.4206056055016733
x10,~~,x10,0.6814185269208095
x2,~~,x2,0.11699579334950894
x2,~~,x5,-0.012971762856211532
x4,~~,x4,0.7462682011340669
x5,~~,x5,0.4378918406328195
x6,~~,x6,0.07113543191837256
