lhs,op,rhs,est
x1,~,x3,0.40414678318523667
x1,~,x2,-0.45291013693668913
x1,~,x4,0.5807272710370691
x1,~,x5,0.1264832091969105
x10,~,x1,0.31468180356113934
x3,~,x9,0.3606990965064718
x6,~,x1,-0.41786307097242725
x6,~,x8,0.3297445706165679
x7,~,x10,0.6931054892647519
x1,~~,x1,0.6293491060285233
x10,~~,x10,0.7879038106389881
x3,~~,x3,0.14996522688263714
x6,~~,x6,2.372985596157264
x6,~~,x7,-0.05208432966311933
x7,~~,x7,1.7464938103913008
