lhs,op,rhs,est
x1,~,x5,0.0647701880131409
x5,~,x2,-0.6729302643909381
x5,~,x3,0.6137144354382535
x5,~,x4,-0.8427952870973277
x6,~,x5,-0.2500726954289224
x7,~,x3,0.7357815793799057
x8,~,x10,0.3127618196392632
x8,~,x3,-0.7734123193476826
x9,~,x1,0.6513496447993722
x1,~~,x1,0.13119932996364767
x5,~~,x5,1.6614754692959528
x6,~~,x6,0.7143543445822871
x6,~~,x7,-0.12222435085933409
x6,~~,x8,0.13243044784751645
x6,~~,x9,-0.0885461221878225
x7,~~,x7,0.5972087346813619
x7,~~,x8,0.04441248305223314
x7,~~,x9,0.054250018692493546
x8,~~,x8,0.6533284507398024
x8,~~,x9,-0.03636701725788591
x9,~~,x9,0.6291397951184199
