lhs,op,rhs,est
x1,~,x8,0.019259080151365366
x1,~,x10,-0.14078235158544586
x2,~,x6,0.13684556634574044
x3,~,x1,0.1686939332965559
x4,~,x5,-0.3191273106343937
x7,~,x5,0.06673028373553232
x7,~,x9,-0.826140290241895
x8,~,x2,-0.6959767347263413
x8,~,x4,0.1730429955488853
x1,~~,x1,0.1146462909586258
x2,~~,x2,0.029634498842630967
x3,~~,x3,0.8073135067986876
x3,~~,x7,0.01757884755140069
x4,~~,x4,0.11601607117124756
x7,~~,x7,0.5749230323756354
x8,~~,x8,0.6672326576638321
