lhs,op,rhs,est
x2,~,x4,0.8043088806030729
x2,~,x10,-0.24424588794245197
x3,~,x9,0.17804576022584928
x3,~,x1,-0.8984880346020396
x4,~,x3,-0.24773903928375626
x5,~,x2,0.5159258664342979
x8,~,x1,0.6074395403869285
x9,~,x6,-0.43705847844889745
x9,~,x7,-0.5548135775105332
x2,~~,x2,0.620858933825625
x3,~~,x3,1.1108592804028314
x4,~~,x4,0.07583791355971488
x5,~~,x5,0.7097538794188242
x5,~~,x8,0.06531372382441844
x8,~~,x8,0.3300688178903546
x9,~~,x9,0.46304939383858795
