lhs,op,rhs,est
eta1,~,eta6,0.2680080219677827
eta4,~,x7,-0.25478910045177927
eta5,~,eta8,0.6549892702546248
x1,~,eta7,-0.7668010079700388
x3,~,eta1,0.10515644182708872
x4,~,x7,-0.0423462435420279
x4,~,x10,-0.7342634554840144
x4,~,x2,0.23371125260357217
x6,~,x5,0.2873759187017548
x7,~,eta2,1.1245981083004066
x7,~,eta3,-1.0170462564646583
x7,~,eta5,0.3533651518619958
x7,~,eta7,0.2955346118246502
x7,~,x3,-0.22692731168586638
x7,~,x6,-0.43752367475621873
x8,~,x6,0.8547250979523956
x9,~,eta2,0.19295375875599857
eta5,=~,y12,-0.9542670209363292
eta6,=~,y15,0.5166498932820588
eta7,=~,y16,-0.5208992926772613
eta7,=~,y18,-0.8051538052402978
eta1,=~,y2,0.257870887139157
eta8,=~,y20,0.7977007622433129
eta6,=~,y21,-0.6980565332908252
eta8,=~,y21,-0.5946943535689295
eta1,=~,y3,-0.7030759551137732
eta2,=~,y5,0.9995821374088008
eta3,=~,y7,-0.26371290619999305
eta4,=~,y8,-0.5119203823634866
eta4,=~,y9,1.3190054702402418
eta1,~~,eta1,0.018295440393103823
eta2,~~,eta2,1.2173274711063717
eta2,~~,eta3,-0.0643313827910217
eta2,~~,eta6,-0.07920965932766352
eta2,~~,eta7,0.25448129962013527
eta2,~~,eta8,0.06761774693466326
eta3,~~,eta3,1.4454769658948938
eta3,~~,eta6,0.09922603591335341
eta3,~~,eta7,0.14704656824538723
eta3,~~,eta8,0.20013869210479462
eta4,~~,eta4,1.1676137161147602
eta4,~~,x1,0.02174663407672279
eta4,~~,x4,0.01654533876902617
eta4,~~,x8,0.034829192309771766
eta4,~~,x9,0.03843896556227196
eta5,~~,eta5,0.191904511853049
eta6,~~,eta6,1.5172720834369529
eta6,~~,eta7,-0.07839619292591878
eta6,~~,eta8,-0.05982961289276467
eta7,~~,eta7,1.8836318063168849
eta7,~~,eta8,0.19156781405381268
eta8,~~,eta8,1.4313517719956093
x1,~~,x1,0.7371639848857899
x1,~~,x4,-0.04322477449917523
x1,~~,x8,0.005207799251900883
x1,~~,x9,-0.004531660747018955
x3,~~,x3,0.011248921973046446
x4,~~,x4,1.1756782687489507
x4,~~,x8,-0.024056692987018978
x4,~~,x9,0.004211914456473244
x6,~~,x6,0.0671218570906188
x7,~~,x7,2.5388346258651264
x8,~~,x8,0.7354148135896332
x8,~~,x9,-0.016716225828169586
x9,~~,x9,0.028511334763791526
y1,~~,y1,0.9304221839772835
y10,~~,y10,4.238173367444951
y11,~~,y11,0.9978306784314038
y12,~~,y12,1.2253690533332096
y13,~~,y13,1.0423827275111681
y15,~~,y15,0.18460447598319948
y16,~~,y16,0.2873886081293472
y18,~~,y18,0.6919117238102371
y19,~~,y19,0.8841546269267929
y2,~~,y2,0.15746771053628147
y20,~~,y20,0.4755387469922733
y21,~~,y21,0.7921970469048658
y3,~~,y3,0.5252570367594522
y4,~~,y4,1.0592667669462674
y5,~~,y5,0.7347076236808464
y6,~~,y6,0.8770500794880465
y7,~~,y7,0.04731319774452683
y8,~~,y8,1.1701725258946747
y9,~~,y9,3.145028014084974
