lhs,op,rhs,est
eta1,~,x9,1.054826826506216
eta3,~,x8,0.029409405724803734
eta5,~,eta3,-1.1657264145327313
eta6,~,eta3,-0.03594906337359633
eta8,~,eta5,-0.46565182465840654
eta8,~,x2,0.9716593787402179
x1,~,eta5,-0.6656238735804955
x10,~,eta2,0.43941209606087595
x3,~,x4,0.953594743641475
x5,~,eta4,0.17103995975674094
x5,~,eta5,-0.02292090674960568
x5,~,eta7,-0.20426299182066968
x5,~,x4,0.7894569326324652
x6,~,eta1,-0.9640633837471586
x7,~,x4,0.7440633119884474
x8,~,x10,0.17268254945130598
x9,~,x3,-0.26052100562459607
eta5,=~,y11,-0.15794667652370728
eta6,=~,y13,1.7727637500554474
eta7,=~,y14,0.95375772733888
eta7,=~,y16,0.7221301880609778
eta8,=~,y18,0.28143975190986453
eta1,=~,y2,-0.8888491450289964
eta1,=~,y3,0.9008823807945151
eta2,=~,y5,-0.320265819625555
eta3,=~,y7,2.3718546628937953
eta4,=~,y9,-0.3678075692222081
eta1,~~,eta1,0.9039071598202197
eta2,~~,eta2,1.7091242511290363
eta2,~~,eta4,0.05141373408583882
eta2,~~,eta7,0.1743412853701507
eta3,~~,eta3,0.01040423115716139
eta4,~~,eta4,1.4008012233082308
eta4,~~,eta7,-0.049825995297982734
eta5,~~,eta5,0.12841883955909236
eta6,~~,eta6,0.16426503647595997
eta6,~~,eta8,0.03794632799044597
eta6,~~,x1,-0.01147330919458521
eta6,~~,x5,0.007246821150905778
eta6,~~,x6,0.022626821389707667
eta6,~~,x7,-0.009618841875757215
eta7,~~,eta7,1.3711879519780743
eta8,~~,eta8,0.9704050643137845
eta8,~~,x1,0.06746055592492453
eta8,~~,x5,0.0075313978772627846
eta8,~~,x6,-0.10191761839159971
eta8,~~,x7,-0.014102018954596077
x1,~~,x1,0.707901374993795
x1,~~,x5,0.044829475479131096
x1,~~,x6,0.09156401271183852
x1,~~,x7,-0.037621464195123584
x10,~~,x10,0.23802922596983314
x3,~~,x3,0.8190076559837272
x5,~~,x5,0.752583070480041
x5,~~,x6,-0.027552653613420113
x5,~~,x7,-0.014399761623173777
x6,~~,x6,1.1121710753447482
x6,~~,x7,-0.11101025924943692
x7,~~,x7,0.6160907431351957
x8,~~,x8,0.026724786297163128
x9,~~,x9,0.06344291013177111
y1,~~,y1,1.0121799309420167
y10,~~,y10,1.8718734912719155
y11,~~,y11,0.046272396650962944
y12,~~,y12,1.1348402652060714
y13,~~,y13,0.0
y14,~~,y14,0.8278896249270643
y16,~~,y16,0.3020205483745034
y17,~~,y17,2.010549739800244
y18,~~,y18,0.11227327619673609
y2,~~,y2,0.4878062770014493
y3,~~,y3,0.8456882338322556
y4,~~,y4,0.7434836566595793
y5,~~,y5,0.11946784077607897
y6,~~,y6,0.8737031552670309
y7,~~,y7,0.0
y8,~~,y8,0.8779362741606035
y9,~~,y9,0.170959933831494
