lhs,op,rhs,est
eta1,~,x4,0.8339522975072314
eta1,~,x8,1.0169802458531805
eta2,~,eta7,0.30578896340636874
eta2,~,x5,1.0824784462036177
eta4,~,eta5,0.45779322670358913
eta5,~,eta3,-0.3720244191396851
eta8,~,x3,-0.28502527101072284
eta8,~,x9,1.0739947619842023
x1,~,eta1,-0.13958025137790198
x10,~,eta8,-0.04033636271491987
x2,~,eta6,-0.2914900238501928
x3,~,x4,0.3274493100843458
x4,~,eta6,0.42635227611687854
x5,~,eta1,-0.17706711767719957
x6,~,eta4,-1.3653201731878903
x7,~,eta1,-0.23262148722085174
x8,~,eta4,0.47884735351789737
eta4,=~,y11,0.4622632965708236
eta5,=~,y13,0.2530133442513863
eta5,=~,y14,-0.8212293231268627
eta6,=~,y18,-0.11200502166264469
eta7,=~,y19,0.45928804595204864
eta1,=~,y2,-0.5671847329700567
eta7,=~,y20,1.025056630624962
eta8,=~,y22,0.3017790936818055
eta8,=~,y23,-0.7338841115411585
eta1,=~,y3,0.9103379189060827
eta6,=~,y4,-0.7448706357839942
eta2,=~,y5,0.7213242763978259
eta2,=~,y6,0.2540230549054863
eta3,=~,y8,0.3648778369104061
eta4,=~,y9,0.5765011953341224
eta1,~~,eta1,1.5819123209811934
eta2,~~,eta2,1.6120204656247035
eta2,~~,x1,-0.012340685449594303
eta2,~~,x10,-0.0014430352550427515
eta2,~~,x2,0.017033658338336987
eta2,~~,x6,-0.1291076793200357
eta2,~~,x7,0.02033603440144709
eta3,~~,eta3,1.3562518491822106
eta3,~~,eta6,-0.04015305016817991
eta3,~~,eta7,-0.006602762071554317
eta4,~~,eta4,0.17213794684547543
eta5,~~,eta5,0.1160491381210728
eta6,~~,eta6,1.6063321135586202
eta6,~~,eta7,-0.09494369524856844
eta7,~~,eta7,1.3713116873269429
eta8,~~,eta8,1.132128032233873
x1,~~,x1,0.035804416765609456
x1,~~,x10,0.017102027516812085
x1,~~,x2,-0.005032431225037482
x1,~~,x6,0.004117529349698049
x1,~~,x7,-0.0051398129956080505
x10,~~,x10,0.8255916047642667
x10,~~,x2,0.007918396367297931
x10,~~,x6,-0.07544828133152738
x10,~~,x7,-0.00836510974592591
x2,~~,x2,0.08504258781160896
x2,~~,x6,0.023082231774108286
x2,~~,x7,-0.008341594217262075
x3,~~,x3,0.08888131219072978
x4,~~,x4,0.16879231493125826
x5,~~,x5,0.05368348409067671
x6,~~,x6,0.8669569423635775
x6,~~,x7,-0.00685785481834704
x7,~~,x7,0.1103743893360089
x8,~~,x8,0.1181562818597435
y1,~~,y1,1.7351662224017226
y10,~~,y10,0.8099507394080369
y11,~~,y11,0.13224801399123925
y12,~~,y12,0.9122359049260752
y13,~~,y13,0.052247459399865144
y14,~~,y14,0.6442914851026676
y17,~~,y17,0.7760754927449409
y18,~~,y18,1.1067622989095165
y19,~~,y19,0.16485673526435615
y2,~~,y2,0.5131221455567214
y20,~~,y20,0.7205706529020823
y21,~~,y21,1.9406863968176968
y22,~~,y22,0.1648353581903116
y23,~~,y23,1.1034858183224039
y3,~~,y3,1.1215346337833192
y4,~~,y4,2.7133848478021627
y5,~~,y5,2.2112370993251522
y6,~~,y6,0.4599817905068869
y7,~~,y7,1.064105465541967
y8,~~,y8,0.08190864228201696
y9,~~,y9,0.22097866302522579
