lhs,op,rhs,est
eta1,~,eta4,0.19956184591201145
eta2,~,eta5,0.06997784044257628
eta2,~,x4,-0.9807142647336841
eta3,~,eta7,0.9917494041501373
eta4,~,eta8,-0.08670090043953746
eta5,~,eta7,0.15721289203197314
eta5,~,x7,0.20937328991953055
eta5,~,x5,-1.0392213648560462
eta6,~,eta4,-0.0862466343257194
x1,~,x10,1.0807052398370864
x2,~,x10,0.3533100473185698
x2,~,x9,0.4696266379371293
x3,~,eta7,0.33677097112633486
x7,~,eta4,-0.8386657855122789
x7,~,x10,-0.13005182835701762
x7,~,x6,-0.1919870775572402
x8,~,eta7,-0.7084170838788558
eta5,=~,y12,0.6314482265795428
eta6,=~,y14,10.8109868687731
eta6,=~,y15,-0.13346304164615355
eta7,=~,y16,-0.5562020441775719
eta8,=~,y19,-0.2509401686448033
eta1,=~,y2,-2.559881591843968
eta8,=~,y20,-0.6449028898017078
eta2,=~,y4,-0.9036188151138356
eta2,=~,y5,0.16168674405412106
eta3,=~,y7,-0.2566565504697041
eta4,=~,y8,-1.1078661266894854
eta4,=~,y9,-0.672245579714647
eta1,~~,eta1,0.027035175164561505
eta1,~~,eta2,0.025646071113453815
eta1,~~,eta3,-0.01516407056675635
eta1,~~,eta6,0.002235962327689674
eta1,~~,x1,0.0006498881487117027
eta1,~~,x2,-0.012265365950178669
eta1,~~,x3,0.0008300237687570343
eta1,~~,x8,0.011369597922979325
eta2,~~,eta2,1.9631826371735572
eta2,~~,eta3,-0.011355465507410907
eta2,~~,eta6,0.00017420205939946612
eta2,~~,x1,0.0038603527259593795
eta2,~~,x2,0.06338169512199848
eta2,~~,x3,-0.004515618979123693
eta2,~~,x8,0.04744698116370223
eta3,~~,eta3,0.0
eta3,~~,eta6,-0.09278485532712108
eta3,~~,x1,0.020254046747973244
eta3,~~,x2,0.03037006949040341
eta3,~~,x3,-0.27829683058423654
eta3,~~,x8,0.6008041449943583
eta4,~~,eta4,0.0141889268648502
eta5,~~,eta5,0.9363188983799882
eta6,~~,eta6,9.753424998379869e-20
eta6,~~,x1,-0.009331702973495315
eta6,~~,x2,0.0026695862995131502
eta6,~~,x3,-0.027565725860183896
eta6,~~,x8,0.03908267692593084
eta7,~~,eta7,2.471722413286786
eta7,~~,eta8,-0.06403304640626653
eta8,~~,eta8,1.7486549337150683
x1,~~,x1,1.0050737191912082
x1,~~,x2,0.0024182037247076995
x1,~~,x3,-0.008522692787115375
x1,~~,x8,-0.01847779139897775
x2,~~,x2,0.380873431509008
x2,~~,x3,-0.006130245326066717
x2,~~,x8,-0.03315026554984724
x3,~~,x3,0.030206302992574305
x3,~~,x8,0.1907234360193967
x7,~~,x7,0.24432081046534354
x8,~~,x8,0.27408377604228473
y1,~~,y1,1.112383845138178
y10,~~,y10,0.7982543653871053
y11,~~,y11,3.951943786056224
y12,~~,y12,1.2385228699044528
y14,~~,y14,1.092300116189665
y15,~~,y15,0.13145951408467413
y16,~~,y16,1.0444617169877661
y18,~~,y18,0.7754822848103797
y19,~~,y19,0.07653192574325379
y2,~~,y2,0.11987340665368984
y20,~~,y20,0.28790114899916297
y3,~~,y3,2.047975276923897
y4,~~,y4,1.1391235329377207
y5,~~,y5,0.05838074229138365
y6,~~,y6,0.7638702542842395
y7,~~,y7,0.06272656664512744
y8,~~,y8,0.9944666955619514
y9,~~,y9,0.1726018768438032
