lhs,op,rhs,est
eta1,~,x7,-0.766630616390693
eta1,~,x2,1.008933968034377
eta2,~,x6,0.24328142326128063
eta3,~,x1,0.3757456861272205
eta3,~,x5,-1.0437464914908707
eta5,~,eta7,1.0214107191251653
eta6,~,eta2,-0.15929175809608978
eta7,~,x1,-0.7151165901251727
eta8,~,x8,0.003842035607374448
eta8,~,x10,0.6362893278941055
x1,~,x6,-0.42000333881675117
x4,~,x1,0.6106787751142146
x7,~,x6,0.46810401195782636
x8,~,eta4,0.6765234604303315
x8,~,x9,-0.13691082137746802
x8,~,x3,-0.6111790981328322
x9,~,x1,-0.29503277630093466
eta4,=~,y11,-0.635401843453744
eta5,=~,y13,-0.22888493788629824
eta5,=~,y14,-0.40914599891106557
eta6,=~,y16,0.97185594513424
eta7,=~,y18,0.21730492650679034
eta1,=~,y2,-0.6988105582504247
eta8,=~,y20,0.2554632847562802
eta1,=~,y3,-0.4668352028797572
eta2,=~,y4,-0.0964166959352829
eta2,=~,y5,-0.7532239532154523
eta3,=~,y8,-0.3223660352101855
eta3,=~,y9,-0.7969159724743162
eta1,~~,eta1,1.6632661169582201
eta1,~~,eta3,-0.027174710276395647
eta1,~~,eta5,-0.0006779636776437045
eta1,~~,eta6,0.02220789184884156
eta1,~~,eta8,-0.1295954802501255
eta1,~~,x4,0.006786883040387217
eta2,~~,eta2,0.04345582388060295
eta3,~~,eta3,0.9556286857605759
eta3,~~,eta5,-0.04681783392164458
eta3,~~,eta6,0.009034394811914885
eta3,~~,eta8,-0.1842429871267802
eta3,~~,x4,0.0011208982559945651
eta4,~~,eta4,1.4308214234030334
eta5,~~,eta5,1.197614046350365
eta5,~~,eta6,-0.005958911808443959
eta5,~~,eta8,0.027580450396550483
eta5,~~,x4,0.0018321197385781141
eta6,~~,eta6,0.15840312446143978
eta6,~~,eta8,-0.09023150932193283
eta6,~~,x4,0.0008725079203644358
eta7,~~,eta7,0.43494114961182373
eta8,~~,eta8,0.6959161505764268
eta8,~~,x4,-0.03960431743038022
x1,~~,x1,0.1507430205456357
x4,~~,x4,0.3631137553074944
x7,~~,x7,0.23230977221260637
x8,~~,x8,1.0072442372998818
x9,~~,x9,0.08400065137706333
y1,~~,y1,1.6914098652034038
y10,~~,y10,0.7631656463727576
y11,~~,y11,0.40476102610355547
y12,~~,y12,0.9525311691077202
y13,~~,y13,0.051693046953630646
y14,~~,y14,0.16980799893474102
y15,~~,y15,2.806038489114809
y16,~~,y16,8.352610311090207e-19
y17,~~,y17,0.7334840862329863
y18,~~,y18,0.034105053337417576
y2,~~,y2,0.8093347725968854
y20,~~,y20,1.1658477578729707
y3,~~,y3,0.5742988599098733
y4,~~,y4,0.008715315660485728
y5,~~,y5,0.6451875713067615
y7,~~,y7,1.7351395017078894
y8,~~,y8,0.1300305770070109
y9,~~,y9,1.0009468148351435
