lhs,op,rhs,est
eta1,~,x2,-0.2505458636511302
eta4,~,eta1,0.25009459220952357
eta4,~,x6,0.40008128619572075
eta6,~,eta8,0.8368436821360655
eta7,~,x7,-0.9730942199676096
x1,~,eta2,0.837194068768891
x10,~,x7,0.3720994181071089
x3,~,eta8,0.577857162509062
x4,~,eta7,-0.1446623272507358
x5,~,eta4,0.9386660246847109
x6,~,eta2,0.2658980793584665
x6,~,eta3,-0.16951412273641667
x6,~,eta5,-0.45743874325973927
x7,~,eta4,0.2389429537436192
x7,~,x9,-0.3861635605780804
x8,~,eta4,-0.3880132592364474
x9,~,eta8,-0.8371386674593937
eta5,=~,y12,-0.8307008313104305
eta6,=~,y14,0.18973269704815515
eta6,=~,y15,0.13339376696400695
eta7,=~,y17,-0.6344469006551254
eta8,=~,y19,0.22785138063048074
eta1,=~,y2,0.12790095969764545
eta8,=~,y20,0.6769264895599759
eta2,=~,y5,0.6232221149008316
eta2,=~,y6,0.48315589146969046
eta3,=~,y8,0.09968729858906392
eta4,=~,y9,-0.5548630255969192
eta1,~~,eta1,0.08926525773966625
eta2,~~,eta2,1.4478700623753162
eta2,~~,eta3,0.1299954949454319
eta2,~~,eta5,-0.04224659779527858
eta2,~~,eta8,0.04799322386754438
eta3,~~,eta3,1.5894385978689485
eta3,~~,eta5,0.11194905401666165
eta3,~~,eta8,0.13767176297307693
eta4,~~,eta4,0.24383785367315913
eta5,~~,eta5,1.4769711474349922
eta5,~~,eta8,0.04629407999587321
eta6,~~,eta6,0.47955166175143993
eta6,~~,x1,-0.021548536435528773
eta6,~~,x10,0.01162505001756212
eta6,~~,x3,-0.011803525781758932
eta6,~~,x4,0.009271780557195219
eta6,~~,x5,-0.022463671334759863
eta6,~~,x8,0.033152137619985235
eta7,~~,eta7,1.6465099160479848
eta8,~~,eta8,1.2450978757258304
x1,~~,x1,0.6313519925546585
x1,~~,x10,-0.05363397580761875
x1,~~,x3,0.007130462819904031
x1,~~,x4,-0.0034340750848550843
x1,~~,x5,0.0013846995595694375
x1,~~,x8,0.025634030700896846
x10,~~,x10,0.295497497822736
x10,~~,x3,0.0054912019578998075
x10,~~,x4,0.010028169211681301
x10,~~,x5,-0.007738401013157152
x10,~~,x8,-0.00022083876543877332
x3,~~,x3,0.25716607733534186
x3,~~,x4,0.012191141146428768
x3,~~,x5,0.0023899934671534244
x3,~~,x8,-0.0033202976022228274
x4,~~,x4,0.05537081671148389
x4,~~,x5,-0.01999934001266939
x4,~~,x8,0.0013321160645987538
x5,~~,x5,0.92026856749971
x5,~~,x8,-0.0020564502353911775
x6,~~,x6,0.32096557407077225
x7,~~,x7,0.13536205206228466
x8,~~,x8,0.25679091153534833
x9,~~,x9,0.5876138098076004
y10,~~,y10,2.059659706399587
y11,~~,y11,0.7617668274186711
y12,~~,y12,0.6595711032366239
y13,~~,y13,0.9503513423590215
y14,~~,y14,0.9167299639316963
y15,~~,y15,0.015434847400545054
y16,~~,y16,1.8237871652297446
y17,~~,y17,1.0472491108854542
y18,~~,y18,1.0137815377442996
y19,~~,y19,0.04182622254779763
y2,~~,y2,0.00943573733245319
y20,~~,y20,0.3782903487420061
y4,~~,y4,0.9701486240220414
y5,~~,y5,0.3011332790345942
y6,~~,y6,0.21319853738533912
y7,~~,y7,0.8423264514176071
y8,~~,y8,0.014237127931604652
y9,~~,y9,0.49408494117907215
