lhs,op,rhs,est
eta1,~,x1,0.0
eta2,~,eta1,0.0
eta5,~,eta2,0.0
eta5,~,eta4,0.0
eta6,~,eta8,0.0
eta8,~,x10,0.0
x1,~,eta5,0.0
x2,~,eta3,0.0
x2,~,x5,0.0
x3,~,x2,0.0
x4,~,eta5,0.0
x4,~,eta7,0.0
x6,~,eta4,0.0
x7,~,eta5,0.0
x8,~,x10,0.0
x9,~,eta8,0.0
x9,~,x1,0.0
x9,~,x5,0.0
eta5,=~,y13,-0.012335169478531298
eta6,=~,y15,0.08651465892476716
eta7,=~,y17,0.43714567130663196
eta4,=~,y19,-0.13697977750842572
eta8,=~,y19,0.31287081349821094
eta1,=~,y2,-0.00774759509612118
eta2,=~,y4,-0.06710523370418257
eta2,=~,y5,-0.04840219929500823
eta3,=~,y7,-0.6763515934036425
eta3,=~,y8,-0.39887955426614824
eta4,=~,y9,-0.2434527654442806
eta1,~~,eta1,0.05
eta2,~~,eta2,0.05
eta3,~~,eta3,0.05
eta3,~~,eta4,0.0
eta3,~~,eta7,0.0
eta4,~~,eta4,0.05
eta4,~~,eta7,0.0
eta5,~~,eta5,0.05
eta6,~~,eta6,0.05
eta6,~~,x3,0.0
eta6,~~,x4,0.0
eta6,~~,x6,0.0
eta6,~~,x7,0.0
eta6,~~,x8,0.0
eta6,~~,x9,0.0
eta7,~~,eta7,0.05
eta8,~~,eta8,0.05
x1,~~,x1,0.040151027682144444
x2,~~,x2,1.538387208694765
x3,~~,x3,0.280270506129606
x3,~~,x4,0.0
x3,~~,x6,0.0
x3,~~,x7,0.0
x3,~~,x8,0.0
x3,~~,x9,0.0
x4,~~,x4,0.10503261673782441
x4,~~,x6,0.0
x4,~~,x7,0.0
x4,~~,x8,0.0
x4,~~,x9,0.0
x6,~~,x6,0.20250124364002908
x6,~~,x7,0.0
x6,~~,x8,0.0
x6,~~,x9,0.0
x7,~~,x7,0.02100458608594224
x7,~~,x8,0.0
x7,~~,x9,0.0
x8,~~,x8,0.14447861238451684
x8,~~,x9,0.0
x9,~~,x9,2.478272864862928
y1,~~,y1,0.47861559708484874
y10,~~,y10,1.2884924722284379
y12,~~,y12,1.649556097191935
y13,~~,y13,0.014560306022817382
y14,~~,y14,0.8466761784773458
y15,~~,y15,0.04260434133026088
y16,~~,y16,1.4326882507868
y17,~~,y17,0.6788119214063857
y18,~~,y18,0.785914088815388
y19,~~,y19,0.5757628891040759
y2,~~,y2,0.028933486354718083
y3,~~,y3,0.7087643847556211
y4,~~,y4,0.1671063637800774
y5,~~,y5,0.0783731410454314
y6,~~,y6,1.3156873501809283
y7,~~,y7,1.4892121381502321
y8,~~,y8,0.4931069696709914
y9,~~,y9,0.18855018731282622
