lhs,op,rhs,est
eta2,~,x2,-0.236190851931732
eta3,~,x3,0.34333096033977395
eta3,~,x8,0.6335972161249669
eta4,~,eta1,1.145910660994067
eta4,~,x4,0.578864024067912
eta5,~,x8,-0.9471117564988503
eta6,~,x1,-0.2666942954328257
eta7,~,x8,0.4573618788706621
eta8,~,x9,-0.6467209521833136
x1,~,x7,-0.8719068607443977
x10,~,eta5,0.524850316031171
x2,~,x3,-0.35973588020483843
x2,~,x9,-0.7004162786191093
x3,~,x5,0.014012915447701916
x5,~,eta2,0.8814255925467328
x5,~,eta4,0.7906638040591385
x5,~,x6,0.2989956453028318
x7,~,x6,0.3408700345897511
eta4,=~,y11,-0.6734971357505108
eta5,=~,y13,0.15394429598547268
eta5,=~,y14,-0.666523094119617
eta6,=~,y16,-0.4204487524669404
eta6,=~,y17,-0.10303430618641729
eta1,=~,y19,0.3942582647110338
eta7,=~,y19,-0.7578447964964018
eta8,=~,y21,-0.9397049081352136
eta2,=~,y4,0.20225761807843673
eta2,=~,y5,-0.7052249529694421
eta3,=~,y6,-0.787632811763917
eta3,=~,y8,-0.2179597987182516
eta4,=~,y9,-0.9462412119048943
eta1,~~,eta1,1.4415129459192442
eta2,~~,eta2,0.24534440310751596
eta3,~~,eta3,0.5076116117439813
eta3,~~,eta6,0.039276570383824504
eta3,~~,eta7,0.0262470372358025
eta3,~~,eta8,0.11574692044206641
eta3,~~,x10,0.00785350273455837
eta4,~~,eta4,1.089456663045923
eta5,~~,eta5,0.7718159681738477
eta6,~~,eta6,0.021287231678203775
eta6,~~,eta7,-0.023307145822932505
eta6,~~,eta8,0.015221697983617758
eta6,~~,x10,0.023564891082579004
eta7,~~,eta7,0.11694582693358185
eta7,~~,eta8,0.02894370280802902
eta7,~~,x10,0.05006980901203446
eta8,~~,eta8,0.3927971159320074
eta8,~~,x10,-0.023508737292232566
x1,~~,x1,0.9331757245033665
x10,~~,x10,0.25498890240390004
x2,~~,x2,0.5061451709651683
x3,~~,x3,0.11449698665864874
x5,~~,x5,3.8227771585091035
x7,~~,x7,0.11230339419734468
y1,~~,y1,0.9647505927720625
y10,~~,y10,1.650828593395024
y11,~~,y11,1.0730027984890171
y12,~~,y12,1.239897677105813
y13,~~,y13,0.2647239075042841
y14,~~,y14,0.3997253543451115
y15,~~,y15,1.120141198118674
y16,~~,y16,0.10734053318508377
y17,~~,y17,0.015532378412763316
y18,~~,y18,1.1206575985341791
y19,~~,y19,2.0091051835731957
y20,~~,y20,1.04354084981906
y21,~~,y21,0.5929509657673855
y3,~~,y3,2.2028764420528972
y4,~~,y4,0.05825861445179822
y5,~~,y5,0.798142138456315
y6,~~,y6,2.230937528127475
y8,~~,y8,0.2142058660451638
y9,~~,y9,1.6355212119876992
