lhs,op,rhs,est
eta1,~,x3,-0.9946778608727382
eta4,~,eta8,0.5272804979469515
eta4,~,x8,-0.7486395139512853
eta5,~,x3,0.5328661014502639
eta6,~,x8,0.6935830029507839
eta7,~,eta2,0.57192878970649
eta7,~,x9,0.3098057853687167
x2,~,x3,0.8708495381968014
x5,~,x6,-0.8406859858027896
x5,~,x10,-0.15855018095002896
x6,~,eta4,0.008928674136698914
x7,~,x5,-0.07712725403986752
x7,~,x4,-0.30026498435282967
x8,~,eta3,0.11071197103064981
x8,~,eta7,0.23155686851945922
x8,~,x6,1.5186902877053077
x8,~,x1,1.2107678363640662
x8,~,x3,0.657464623925807
eta5,=~,y11,-0.5916051198998997
eta6,=~,y13,-0.35618316609759165
eta7,=~,y15,0.21708623744565222
eta8,=~,y17,0.5616494866355152
eta8,=~,y18,-0.16431662581089
eta1,=~,y2,-0.14097327852976632
eta3,=~,y6,1.3048511468988215
eta2,=~,y8,0.9560964177650833
eta4,=~,y8,0.28782029837882706
eta5,=~,y9,0.5726851014950819
eta1,~~,eta1,0.5732535812309594
eta1,~~,eta5,-0.40497813308722463
eta1,~~,eta6,-0.10198617960628992
eta1,~~,x2,-0.42793231238475254
eta1,~~,x7,0.05414693919723231
eta2,~~,eta2,1.0709800273765973
eta2,~~,eta3,-0.11093509634496133
eta2,~~,eta8,-0.1597530082507479
eta3,~~,eta3,1.1058712685641126
eta3,~~,eta8,0.13252240801050028
eta4,~~,eta4,1.2204794425882324
eta5,~~,eta5,0.5952192801278191
eta5,~~,eta6,0.061530819808616355
eta5,~~,x2,0.3981566657021309
eta5,~~,x7,-0.11883962661501438
eta6,~~,eta6,1.3294077977761056
eta6,~~,x2,-0.05873064359224036
eta6,~~,x7,-0.06622966261374308
eta7,~~,eta7,0.5273734668535414
eta8,~~,eta8,0.8373887064537295
x2,~~,x2,0.9432139766143262
x2,~~,x7,-0.10344747925756248
x5,~~,x5,0.28360614778397536
x6,~~,x6,0.062195389786628745
x7,~~,x7,0.2194823414001362
x8,~~,x8,3.1385316841871815
y1,~~,y1,1.7652662407058142
y10,~~,y10,1.2374541176313185
y11,~~,y11,1.3021523730750435
y12,~~,y12,5.2566042949319245
y13,~~,y13,2.4212740211156683
y14,~~,y14,2.0459809151093697
y15,~~,y15,0.9224257638549734
y16,~~,y16,1.8563843316557094
y17,~~,y17,0.3597124454023486
y18,~~,y18,0.03868965898506994
y2,~~,y2,0.05089640016445971
y4,~~,y4,2.0597152124141838
y5,~~,y5,1.8710176311110718
y6,~~,y6,1.9049658946933463
y7,~~,y7,5.519921156948946
y8,~~,y8,2.1642154270398977
y9,~~,y9,1.0112927903619195
