lhs,op,rhs,est
eta1,~,x10,-0.09309671258883559
eta1,~,x7,-1.1139588012507962
eta1,~,x4,0.26392513683501784
eta4,~,eta1,-0.5889439519278482
eta4,~,eta3,-0.10291338350060808
eta4,~,x2,-0.7903804685328841
eta5,~,x3,0.8012919373140309
eta7,~,x8,-0.13388305528674388
x10,~,x5,0.17726204778744883
x10,~,x1,-0.1652475883350658
x2,~,eta8,-0.09091830374127695
x5,~,eta4,0.11193101461699263
x6,~,x10,1.0694214848624533
x7,~,x3,-0.13381599502289532
x8,~,eta4,0.01749834996089151
x9,~,eta2,-0.6942164657347191
x9,~,eta6,0.22118735104913184
x9,~,x5,0.36213697864615707
eta4,=~,y11,0.29029810829146785
eta6,=~,y15,1.3141159019428794
eta6,=~,y16,-1.6267774894724307
eta1,=~,y18,0.1845893687936727
eta7,=~,y18,-0.015445054178703253
eta8,=~,y20,-0.45413685853337177
eta2,=~,y4,-0.8572065841082724
eta2,=~,y5,-0.4694194748784498
eta3,=~,y7,-0.5515511172582538
eta3,=~,y8,0.6914868736449903
eta5,=~,y8,0.7884762567528014
eta4,=~,y9,-0.31108776671020133
eta1,~~,eta1,0.9998885850475313
eta2,~~,eta2,0.9520498860005452
eta2,~~,eta3,0.04944029169910322
eta2,~~,eta6,0.08977025825746228
eta2,~~,eta8,0.15141126099011298
eta3,~~,eta3,0.9505858545932326
eta3,~~,eta6,0.12227542115700471
eta3,~~,eta8,0.0919708248006878
eta4,~~,eta4,0.9554123039793755
eta5,~~,eta5,0.5736555094792606
eta5,~~,eta7,-0.015333132484154533
eta5,~~,x6,-0.11619575948019399
eta5,~~,x9,0.22267754745515503
eta6,~~,eta6,1.0757045671261398
eta6,~~,eta8,-0.07780154568549323
eta7,~~,eta7,0.8688535703494515
eta7,~~,x6,0.04112697261324556
eta7,~~,x9,-0.08691233946786284
eta8,~~,eta8,0.9192296616489801
x10,~~,x10,0.15910204195420052
x2,~~,x2,0.2557033631319193
x5,~~,x5,0.9213470181999235
x6,~~,x6,1.9043745878227218
x6,~~,x9,0.1160421238709176
x7,~~,x7,0.03834437304015659
x8,~~,x8,0.9347110686118044
x9,~~,x9,0.7355117545707935
y1,~~,y1,3.1394112766119426
y10,~~,y10,4.866161288063911
y11,~~,y11,1.0945400939895742
y13,~~,y13,1.1739882798920138
y14,~~,y14,1.5081355282284348
y15,~~,y15,1.2709130010060943
y16,~~,y16,1.8021652428053139
y17,~~,y17,1.9628988301668404
y18,~~,y18,0.6674414456570099
y19,~~,y19,1.8784512622204292
y20,~~,y20,0.20753705160901398
y3,~~,y3,1.6416106269003794
y4,~~,y4,0.6492959707759701
y5,~~,y5,0.06986896255050146
y6,~~,y6,1.7507063914239902
y7,~~,y7,0.41074237537532327
y8,~~,y8,1.8972767420318948
y9,~~,y9,0.2126719356429517
