lhs,op,rhs,est
eta1,~,x4,-0.10500413409316833
eta2,~,x5,0.17112899367536316
eta2,~,x7,0.733558512454207
eta4,~,eta7,-0.15568405369685248
eta6,~,eta5,0.5472960319233939
x1,~,x2,0.6558291171049228
x2,~,eta3,0.5296228363709845
x3,~,x10,0.2449900327923221
x4,~,eta2,0.9017631290838213
x4,~,eta3,1.1534920240072275
x5,~,eta8,0.9702918432262123
x5,~,x4,0.30860810257592713
x6,~,eta3,0.6502736149951984
x8,~,eta6,0.6477428709903627
x8,~,eta7,0.40288379608299574
x8,~,x6,-0.5254473786810425
x9,~,eta7,-0.16674913986179024
x9,~,x10,-0.5481834658551388
eta5,=~,y12,-0.3947678262277193
eta6,=~,y14,-0.7788399627305523
eta7,=~,y16,-1.2145794025820276
eta7,=~,y17,0.7869156797425356
eta8,=~,y18,-0.27611727610298936
eta8,=~,y19,1.136830806919025
eta1,=~,y2,-1.1006563111376975
eta1,=~,y3,-0.36560153926122524
eta2,=~,y5,1.0050336080791642
eta3,=~,y8,0.4269150623569797
eta3,=~,y9,-0.24374045761747776
eta4,=~,y9,0.3359389705164087
eta1,~~,eta1,0.06981526747436621
eta1,~~,eta4,0.008102599400998578
eta1,~~,x1,0.0022217420276699294
eta1,~~,x3,-0.011990973818232276
eta1,~~,x8,0.013984131887815145
eta1,~~,x9,-0.007000559264697637
eta2,~~,eta2,1.372268247640591
eta3,~~,eta3,1.4873492738640166
eta3,~~,eta5,-0.15992047623920044
eta3,~~,eta7,0.009068146853527491
eta3,~~,eta8,0.030807772946766867
eta4,~~,eta4,-0.024974645690750235
eta4,~~,x1,-0.00782369443911841
eta4,~~,x3,0.0014175329878099129
eta4,~~,x8,0.02911785084138039
eta4,~~,x9,0.05036181840479503
eta5,~~,eta5,1.7338234069595821
eta5,~~,eta7,-0.02569412656295942
eta5,~~,eta8,-0.008659175671645512
eta6,~~,eta6,0.2352255502143208
eta7,~~,eta7,1.4235114638584354
eta7,~~,eta8,0.015112170968466865
eta8,~~,eta8,1.5196884363232197
x1,~~,x1,0.42438298660716145
x1,~~,x3,0.005026773469400692
x1,~~,x8,0.012602977097394797
x1,~~,x9,0.005459536988725327
x2,~~,x2,0.18697723295131788
x3,~~,x3,0.05596380253496997
x3,~~,x8,-0.019526569628065003
x3,~~,x9,0.005486881433962929
x4,~~,x4,2.270245398474947
x5,~~,x5,1.5057703212550924
x6,~~,x6,0.3270099849189348
x8,~~,x8,0.8285546496263739
x8,~~,x9,0.007048502121096598
x9,~~,x9,0.32425009590118775
y1,~~,y1,0.8712284735679735
y10,~~,y10,1.109812689916971
y11,~~,y11,1.1141702689301785
y12,~~,y12,1.4624692700732167
y13,~~,y13,1.081732404953512
y14,~~,y14,0.5130823166380941
y15,~~,y15,1.1658521873022298
y16,~~,y16,1.1399779754610575
y17,~~,y17,0.6345991387934725
y18,~~,y18,0.06492579833118647
y19,~~,y19,1.1289108965765478
y2,~~,y2,1.1455131002082046
y3,~~,y3,0.16274490016893225
y4,~~,y4,2.169688592562353
y5,~~,y5,1.7502000086389662
y6,~~,y6,0.9533168202516007
y8,~~,y8,0.16560857644507873
y9,~~,y9,0.12486541261141734
