lhs,op,rhs,est
eta1,~,x6,-0.18941797589368073
eta2,~,x1,0.7794754495507983
eta3,~,x5,-0.5422168375008666
eta3,~,x7,-1.551344294942646
eta4,~,x8,0.35418052091223995
eta5,~,x9,-1.0804692921921253
eta5,~,x3,0.29608444684003565
eta6,~,eta7,0.7109845022388791
eta6,~,x1,-0.6840422345694546
eta6,~,x10,-0.6875454757947028
x2,~,eta8,0.7091218230836199
x4,~,eta7,-0.8494628471200405
x5,~,x8,-0.1839414406772875
x6,~,x2,-0.45979720222841125
x6,~,x1,-0.27784866529714947
x6,~,x8,0.2972285739526084
x7,~,x9,0.2236807619737411
x9,~,eta3,0.0769508578356612
eta6,=~,y14,0.1418453068844978
eta7,=~,y14,1.1846575246603228
eta8,=~,y16,-0.30719181479594687
eta8,=~,y17,-0.8668773692045487
eta1,=~,y2,-0.29710688261822105
eta2,=~,y4,0.4354081133597316
eta3,=~,y6,-0.03436374681870174
eta4,=~,y8,0.7635168284827778
eta5,=~,y9,0.45679144467764754
eta1,~~,eta1,0.37855426581225854
eta1,~~,eta2,0.07749946025381714
eta1,~~,eta4,0.06565286900982154
eta1,~~,eta5,0.1796071028941673
eta1,~~,eta6,-0.008227602254394593
eta1,~~,x4,0.0017228980028641803
eta2,~~,eta2,0.7544878335556557
eta2,~~,eta4,0.006150376711653467
eta2,~~,eta5,0.17171045892780798
eta2,~~,eta6,-0.02289315757911026
eta2,~~,x4,0.09355207479748152
eta3,~~,eta3,1.840228170595624
eta4,~~,eta4,0.06289775542936246
eta4,~~,eta5,0.09754646262411382
eta4,~~,eta6,0.010479070152738397
eta4,~~,x4,-0.010527602373333967
eta5,~~,eta5,1.2402472660862829
eta5,~~,eta6,-0.052463395175637716
eta5,~~,x4,-0.09243709264484092
eta6,~~,eta6,1.9477764849140944
eta6,~~,x4,0.09187088982908549
eta7,~~,eta7,1.58220217902148
eta7,~~,eta8,0.06613980100058682
eta8,~~,eta8,1.7835268724382243
x2,~~,x2,0.38777182552589556
x4,~~,x4,0.8083796326476209
x5,~~,x5,0.031344330268048906
x6,~~,x6,0.3343972635982963
x7,~~,x7,0.03743074994231371
x9,~~,x9,0.5029243346033065
y1,~~,y1,2.7975790188920833
y10,~~,y10,1.692747116389287
y12,~~,y12,2.613939183183897
y13,~~,y13,0.9177096942176554
y14,~~,y14,0.9090816990553633
y15,~~,y15,0.9080147003536191
y16,~~,y16,0.08706726214062292
y17,~~,y17,0.7312086278950167
y2,~~,y2,0.37194992757952433
y3,~~,y3,0.8652474662193477
y4,~~,y4,0.2908514249215615
y5,~~,y5,1.2229381758312476
y6,~~,y6,0.10644063329159892
y7,~~,y7,1.10892551321465
y8,~~,y8,0.4613443286925731
y9,~~,y9,0.4871218704861536
