lhs,op,rhs,est
eta1,~,eta7,-0.7704361177653489
eta2,~,eta3,0.8541363470621274
eta2,~,x7,-0.7027954957482831
eta3,~,eta4,-0.11129352724788621
eta6,~,eta5,-1.1683083380595891
eta6,~,eta7,0.8199548558754445
eta8,~,x2,-0.4723972828068242
x1,~,eta7,0.8744538568755117
x10,~,eta2,0.7125868878914978
x10,~,x2,0.34748985427822043
x10,~,x6,-0.2914570657337798
x2,~,eta1,-0.668904553973918
x2,~,x5,-0.30553647558603336
x3,~,x1,0.5083295190996243
x4,~,x5,-0.3443167492919045
x5,~,x9,0.3700666788891288
x9,~,x2,-0.4939155553761321
x9,~,x8,0.6171939112069899
eta5,=~,y11,-0.4104503792277171
eta5,=~,y12,0.22026140475935868
eta6,=~,y14,-0.9146115728474652
eta7,=~,y16,-0.7383729121234834
eta8,=~,y18,0.330140885993848
eta1,=~,y2,0.3948551454632171
eta2,=~,y4,-0.724905505936201
eta3,=~,y5,0.7970572246426937
eta3,=~,y6,-0.1558283312409553
eta4,=~,y9,0.9991250345613019
eta1,~~,eta1,0.6914699269872536
eta2,~~,eta2,0.7163110690514247
eta3,~~,eta3,0.08426990179550328
eta4,~~,eta4,1.8651523655099076
eta4,~~,eta5,-0.01416028454429097
eta4,~~,eta7,0.08872154313020457
eta5,~~,eta5,1.4706758846166534
eta5,~~,eta7,0.043532145054001777
eta6,~~,eta6,1.863650413812619
eta6,~~,eta8,-0.05602062376958325
eta6,~~,x10,0.10184285231641184
eta6,~~,x3,0.027646322877741634
eta6,~~,x4,0.03081656988556828
eta7,~~,eta7,1.9670623950421504
eta8,~~,eta8,0.5140636738431508
eta8,~~,x10,-0.06566523720767159
eta8,~~,x3,-0.008449299758889835
eta8,~~,x4,0.004173680880947444
x1,~~,x1,0.9633114302815283
x10,~~,x10,1.245915961132976
x10,~~,x3,0.034354410317788193
x10,~~,x4,0.015363959169369598
x2,~~,x2,0.7699862453923837
x3,~~,x3,0.3041298610505467
x3,~~,x4,0.007887276903929416
x4,~~,x4,0.19630314674539828
x5,~~,x5,0.30509216300399705
x9,~~,x9,0.689160110663692
y1,~~,y1,0.8571342674258096
y10,~~,y10,0.9054280832829934
y11,~~,y11,0.16599301584436973
y12,~~,y12,0.04410171215623613
y13,~~,y13,1.6567257622405684
y14,~~,y14,2.005008239278642
y15,~~,y15,2.085953638478339
y16,~~,y16,0.759982183377522
y17,~~,y17,1.082627766052245
y18,~~,y18,0.10125872037034765
y2,~~,y2,0.12086678960488913
y3,~~,y3,2.2501209421331296
y4,~~,y4,0.9449861492595659
y5,~~,y5,0.613038501472698
y6,~~,y6,0.04463978662741434
y8,~~,y8,0.9911472733658404
y9,~~,y9,1.3161496717127132
