lhs,op,rhs,est
eta2,~,x7,0.2276932564134396
eta4,~,eta7,0.7699742396659823
eta4,~,x2,-0.16805439971661038
eta4,~,x9,0.817573620530335
eta5,~,eta2,0.8974796430947162
eta6,~,eta3,-0.21216760131644116
eta7,~,eta8,0.2659684064175243
x1,~,eta2,-0.7767702160179223
x3,~,eta3,-0.7340715474764444
x3,~,eta8,0.43351475255680133
x3,~,x10,0.4888520433285828
x3,~,x6,0.18293905250365292
x3,~,x7,-0.3676121000849351
x4,~,x5,-0.6060076296865973
x5,~,eta1,0.1201660141253769
x8,~,x5,0.08763999723220606
x8,~,x10,0.32854550597794335
eta4,=~,y11,0.8103032661485952
eta4,=~,y12,0.3153206827920819
eta5,=~,y15,0.24021351668440713
eta6,=~,y17,1.2183260726119476
eta5,=~,y18,0.49915220847367753
eta7,=~,y19,-0.8381051286214521
eta1,=~,y2,0.2496087551975776
eta1,=~,y3,-0.9664308325416049
eta2,=~,y5,0.40095629431069124
eta2,=~,y6,0.234444359929625
eta8,=~,y6,-0.34906906903387824
eta3,=~,y8,0.5280666732871546
eta3,=~,y9,0.23441327982009785
eta1,~~,eta1,1.7288831755004124
eta1,~~,eta3,0.023434930422743968
eta1,~~,eta8,-0.013207211106404566
eta2,~~,eta2,0.05697221522682684
eta3,~~,eta3,1.6994452682614845
eta3,~~,eta8,-0.040582296122358155
eta4,~~,eta4,1.6390703680875764
eta4,~~,eta5,-0.04616567914587356
eta4,~~,eta6,-0.004565411333878852
eta4,~~,x1,0.10716822335154905
eta4,~~,x3,0.03231440916150612
eta4,~~,x4,-0.007931639118818787
eta4,~~,x8,0.030548405061408004
eta5,~~,eta5,0.6854521769176506
eta5,~~,eta6,0.04543173430750657
eta5,~~,x1,0.05275584543411122
eta5,~~,x3,-0.02534957610853333
eta5,~~,x4,0.011612315070737768
eta5,~~,x8,-0.0033240998408262884
eta6,~~,eta6,0.03693405957768042
eta6,~~,x1,-0.02333487513265452
eta6,~~,x3,-0.03678686992107517
eta6,~~,x4,-0.00828124009104563
eta6,~~,x8,-0.007730646083985662
eta7,~~,eta7,0.1398053538243097
eta8,~~,eta8,1.89277556275239
x1,~~,x1,0.37478968134961665
x1,~~,x3,0.020715290390015993
x1,~~,x4,-0.004329546272289633
x1,~~,x8,0.006145239507741402
x3,~~,x3,1.2905035128792917
x3,~~,x4,0.0038483239340382823
x3,~~,x8,0.017788886860570712
x4,~~,x4,0.44133460523558976
x4,~~,x8,-0.0008365141846430945
x5,~~,x5,0.016610344840486183
x8,~~,x8,0.12598433906393286
y1,~~,y1,0.9206659350821863
y10,~~,y10,3.3130142088684584
y11,~~,y11,1.5390313666112418
y12,~~,y12,0.25517206430020045
y13,~~,y13,0.9536843053718226
y15,~~,y15,0.0861632929702352
y16,~~,y16,1.1005567153335538
y17,~~,y17,0.90731576077905
y18,~~,y18,1.6035311523263873
y19,~~,y19,0.40425699688937317
y2,~~,y2,0.07067815729178654
y21,~~,y21,0.7053955422677007
y3,~~,y3,0.8662465436850418
y4,~~,y4,1.0269118489642326
y5,~~,y5,0.16914929554544245
y6,~~,y6,0.1767968556096336
y7,~~,y7,1.0130204940671559
y8,~~,y8,0.24067530210856763
y9,~~,y9,0.05355108981126779
