lhs,op,rhs,est
eta1,~,eta8,-0.20932994034390065
eta2,~,x2,0.8860052332993601
eta3,~,eta8,-0.09180469720364051
eta5,~,eta7,-0.16522358039209079
eta6,~,eta1,0.16901439076209315
eta6,~,eta2,-0.6670836368402515
eta6,~,x10,0.17000588689138743
eta7,~,eta2,-0.7884582859977528
eta7,~,eta4,0.5793189669752785
eta8,~,eta6,0.7410585983942672
eta8,~,x5,1.0208382274662073
x1,~,x2,0.19950464587691055
x3,~,eta5,-0.39948654307944126
x4,~,eta2,-0.7316892485230034
x5,~,x9,0.3716483486853703
x6,~,x2,-0.8179896115533074
x7,~,x4,-0.8391427831160115
x8,~,eta2,1.137129006612812
eta5,=~,y12,0.14498466230454338
eta6,=~,y14,-0.2267184078252416
eta7,=~,y16,-0.753424418723843
eta7,=~,y17,0.12252777422410682
eta8,=~,y19,0.5380484401889647
eta2,=~,y4,-0.47435532531695623
eta2,=~,y5,0.6616378443551467
eta1,=~,y6,0.2592859432239652
eta3,=~,y7,0.5909600030542193
eta4,=~,y8,-1.1240360374675893
eta4,=~,y9,0.25527251594445605
eta1,~~,eta1,0.43842150795638274
eta2,~~,eta2,0.9356517003363859
eta3,~~,eta3,1.1391170402893933
eta3,~~,x1,0.013368878434494554
eta3,~~,x3,0.13349133535826146
eta3,~~,x6,-0.37179374493825235
eta3,~~,x7,0.2632720146395719
eta3,~~,x8,0.2090522514178988
eta4,~~,eta4,1.0824921155070129
eta5,~~,eta5,0.06333179728859752
eta6,~~,eta6,0.6745322263243329
eta7,~~,eta7,0.7638900074983676
eta8,~~,eta8,1.0791383316522938
x1,~~,x1,0.09244872078686112
x1,~~,x3,-0.002712100384816849
x1,~~,x6,-0.17864626984409143
x1,~~,x7,0.17726484043183982
x1,~~,x8,0.27537437990915037
x3,~~,x3,0.36516292496099095
x3,~~,x6,-0.1326080616744106
x3,~~,x7,0.09035478598845888
x3,~~,x8,0.12574330519629823
x4,~~,x4,0.38669069341088014
x5,~~,x5,0.13129937178050669
x6,~~,x6,1.326030511810435
x6,~~,x7,-0.7833728121049451
x6,~~,x8,-0.9681362045791918
x7,~~,x7,1.3267940665352487
x7,~~,x8,0.7891035054662638
x8,~~,x8,2.4917269433335263
y10,~~,y10,1.0300988348473417
y11,~~,y11,0.9032304217042689
y12,~~,y12,0.028737267952933326
y13,~~,y13,3.0503337959544417
y14,~~,y14,0.27412743614685997
y15,~~,y15,2.1589950873900716
y16,~~,y16,0.8378281974529335
y17,~~,y17,0.05087073533751348
y18,~~,y18,5.404132724568618
y19,~~,y19,1.3258880480171715
y2,~~,y2,1.1688154732428555
y3,~~,y3,0.8795695900053472
y4,~~,y4,0.20087153265830804
y5,~~,y5,0.5658888702676877
y6,~~,y6,1.4229994627759983
y7,~~,y7,0.032218330954593505
y8,~~,y8,1.2696628411277138
y9,~~,y9,0.10923832949122805
