lhs,op,rhs,est
eta1,~,eta3,0.059437037819599844
eta1,~,x2,-0.9519976390905027
eta2,~,eta1,-0.4432367551669249
eta2,~,eta7,-0.21319001498653603
eta3,~,eta8,-0.17410801209131632
eta3,~,x10,1.8740712564719109
eta4,~,x2,0.3443052479219624
eta5,~,eta1,-0.3111492159784864
eta5,~,x1,-0.3186196445147802
eta6,~,x2,0.36429183679909033
eta6,~,x6,0.8916785760723666
eta7,~,x3,0.5202846248838751
eta8,~,eta1,0.18413647409445688
x2,~,x4,-0.42341735541849507
x5,~,eta6,0.8226705775353615
x7,~,x1,-0.8467224758885961
x8,~,eta1,-0.18681125201707457
x9,~,x1,0.26321651278685887
eta4,=~,y11,0.6606392150419458
eta5,=~,y13,-0.3599333485484973
eta6,=~,y15,0.14487129163166218
eta7,=~,y17,0.8255630558772084
eta8,=~,y19,-0.8060521697038829
eta1,=~,y2,-0.878906153066775
eta8,=~,y20,-0.726833008515109
eta1,=~,y3,0.9380948961701109
eta2,=~,y5,-0.2174736836611896
eta3,=~,y8,-0.3967975397411579
eta3,=~,y9,0.40060328031763376
eta4,=~,y9,-0.8920748311588281
eta1,~~,eta1,1.2555037244229676
eta2,~~,eta2,0.5835906466396247
eta2,~~,eta4,0.035203593209701484
eta2,~~,eta5,0.11311530210498937
eta2,~~,x5,-0.07549316255556078
eta2,~~,x7,0.03683673149185196
eta2,~~,x8,0.010005978070655593
eta2,~~,x9,0.017888757693863052
eta3,~~,eta3,5.5078345578752455
eta4,~~,eta4,0.07585332728637195
eta4,~~,eta5,0.037576857077537815
eta4,~~,x5,0.0727767290919972
eta4,~~,x7,0.018060466962232843
eta4,~~,x8,-0.013882446726504282
eta4,~~,x9,0.014616190488990082
eta5,~~,eta5,0.23222992057669967
eta5,~~,x5,0.022110081737985662
eta5,~~,x7,-0.07990794526819091
eta5,~~,x8,-0.007342368182519904
eta5,~~,x9,0.013395847571188928
eta6,~~,eta6,1.0297805638594701
eta7,~~,eta7,0.33602315571446734
eta8,~~,eta8,0.09593575175038194
x2,~~,x2,0.17226430630494444
x5,~~,x5,1.2893548757888877
x5,~~,x7,0.048968491129733074
x5,~~,x8,-0.018610146144183583
x5,~~,x9,0.029423303423905957
x7,~~,x7,0.6114267251912796
x7,~~,x8,-0.012831456343291317
x7,~~,x9,0.013668191323321135
x8,~~,x8,0.061755746137983035
x8,~~,x9,-0.0032287750040527847
x9,~~,x9,0.05639224509548707
y1,~~,y1,2.095016041532563
y10,~~,y10,0.981694418814492
y11,~~,y11,0.3561417482084515
y12,~~,y12,2.7846902985872624
y13,~~,y13,0.2657665432374163
y14,~~,y14,1.9071497500276846
y15,~~,y15,2.7686608597961597
y16,~~,y16,0.9087995828741346
y17,~~,y17,0.8911304740737488
y18,~~,y18,1.8561296751787384
y19,~~,y19,0.7984728133461981
y2,~~,y2,1.7270402346062796
y20,~~,y20,0.6886210548818769
y3,~~,y3,2.1064102152275015
y4,~~,y4,2.968933391005976
y5,~~,y5,0.12815445985231524
y8,~~,y8,1.1291109146798208
y9,~~,y9,2.2743737938357693
