lhs,op,rhs,est
eta1,~,eta7,0.2078661559789167
eta1,~,x4,-0.4470647792266322
eta1,~,x9,0.7864013054763367
eta2,~,eta5,-0.20112422770949853
eta3,~,eta7,-0.4097611596711656
eta5,~,x10,0.36487962933128537
x1,~,eta7,0.15886215233212073
x1,~,x3,0.560070599561184
x10,~,x2,-0.16980688880616907
x10,~,x5,0.6402855023513062
x2,~,x7,-0.05969470833429559
x3,~,eta8,0.9427130867825004
x4,~,eta6,0.5150000796689178
x4,~,x7,-0.16911449539135295
x7,~,eta4,-0.6780839413056821
x7,~,eta5,-0.5675299497151243
x8,~,x7,0.03798160391609677
x9,~,x6,-0.6611339333191536
eta6,=~,y14,-1.1090461722682463
eta6,=~,y15,-0.2521780129365203
eta7,=~,y17,0.8613964127810829
eta8,=~,y19,0.25747727179705093
eta1,=~,y2,0.8987543443937686
eta8,=~,y20,0.8202547708213149
eta1,=~,y3,-0.285873641697346
eta2,=~,y5,-0.5009912584655493
eta3,=~,y7,-0.49648205293764786
eta3,=~,y8,-0.7850880776150964
eta5,=~,y8,0.3853498134981847
eta4,=~,y9,0.7699424853294895
eta1,~~,eta1,1.4903284622990245
eta1,~~,eta2,-0.02686980754789069
eta1,~~,eta3,-0.02535630382816567
eta1,~~,x1,-0.0237608248183711
eta1,~~,x8,-0.034537852826807325
eta2,~~,eta2,0.028242956349797756
eta2,~~,eta3,-0.001946239202053012
eta2,~~,x1,0.04037216896330808
eta2,~~,x8,-0.0004299862463492381
eta3,~~,eta3,0.09358269453321134
eta3,~~,x1,-0.03153187499837646
eta3,~~,x8,0.005663750705382279
eta4,~~,eta4,1.8485477910297348
eta4,~~,eta6,-0.029613627260954987
eta4,~~,eta7,-0.07917314026788344
eta4,~~,eta8,0.093255933566428
eta5,~~,eta5,0.18227692279526073
eta6,~~,eta6,1.7809090742629725
eta6,~~,eta7,-0.12695159630886452
eta6,~~,eta8,0.054463946425880434
eta7,~~,eta7,1.5918606390351828
eta7,~~,eta8,-0.08493714943736379
eta8,~~,eta8,1.9267322605070143
x1,~~,x1,0.33338544255669716
x1,~~,x8,0.0011791007190903708
x10,~~,x10,0.5063883090774457
x2,~~,x2,0.05667270424515347
x3,~~,x3,1.0016952929726426
x4,~~,x4,0.6635577311434188
x7,~~,x7,0.8103798337665985
x8,~~,x8,0.042382989251713285
x9,~~,x9,0.41338976963616886
y1,~~,y1,3.118601560411725
y10,~~,y10,0.9742291084119125
y11,~~,y11,1.194448918918106
y13,~~,y13,1.9447137353413306
y14,~~,y14,0.9917180282381924
y15,~~,y15,0.06902524417103378
y16,~~,y16,1.152377707392001
y17,~~,y17,0.6317287577367267
y18,~~,y18,1.095172126857364
y19,~~,y19,0.06959964213265385
y2,~~,y2,2.1086392910551646
y20,~~,y20,0.7588925151708176
y3,~~,y3,0.21519704294436004
y4,~~,y4,0.8782167859225941
y5,~~,y5,0.7018391089223136
y7,~~,y7,0.4775864877781752
y8,~~,y8,0.6724562859000387
y9,~~,y9,0.7443520183738559
