lhs,op,rhs,est
eta1,~,x8,0.0
eta1,~,x7,0.0
eta2,~,x8,0.0
eta3,~,eta1,0.0
eta5,~,x10,0.0
eta6,~,eta2,0.0
eta7,~,x9,0.0
x1,~,x9,0.0
x10,~,eta3,0.0
x2,~,eta8,0.0
x2,~,x3,0.0
x4,~,eta1,0.0
x5,~,x9,0.0
x6,~,eta8,0.0
x8,~,eta4,0.0
x8,~,eta6,0.0
x8,~,eta8,0.0
x9,~,eta4,0.0
eta5,=~,y11,0.31351988582346185
eta5,=~,y12,-0.46179194145084324
eta6,=~,y14,0.19047402628354207
eta7,=~,y16,0.005254179857821552
eta7,=~,y17,-0.05830218566785409
eta8,=~,y19,0.38249700884986176
eta1,=~,y2,-0.3714035811034992
eta2,=~,y4,-0.08798937911748086
eta2,=~,y5,-0.11322659298622784
eta3,=~,y7,0.0032957028956039085
eta4,=~,y9,0.4590123762405936
eta1,~~,eta1,0.05
eta2,~~,eta2,0.05
eta3,~~,eta3,0.05
eta4,~~,eta4,0.05
eta4,~~,eta8,0.0
eta5,~~,eta5,0.05
eta5,~~,eta7,0.0
eta5,~~,x1,0.0
eta5,~~,x2,0.0
eta5,~~,x4,0.0
eta5,~~,x5,0.0
eta5,~~,x6,0.0
eta6,~~,eta6,0.05
eta7,~~,eta7,0.05
eta7,~~,x1,0.0
eta7,~~,x2,0.0
eta7,~~,x4,0.0
eta7,~~,x5,0.0
eta7,~~,x6,0.0
eta8,~~,eta8,0.05
x1,~~,x1,0.2948243622465814
x1,~~,x2,0.0
x1,~~,x4,0.0
x1,~~,x5,0.0
x1,~~,x6,0.0
x10,~~,x10,0.014071664451419792
x2,~~,x2,0.05173916467336289
x2,~~,x4,0.0
x2,~~,x5,0.0
x2,~~,x6,0.0
x4,~~,x4,1.3166063399026162
x4,~~,x5,0.0
x4,~~,x6,0.0
x5,~~,x5,0.2013712264063967
x5,~~,x6,0.0
x6,~~,x6,0.2983012249542522
x8,~~,x8,0.528011803251886
x9,~~,x9,0.3570381658909686
y1,~~,y1,2.1697066323590595
y10,~~,y10,0.9328392101838064
y11,~~,y11,0.39063761224654037
y12,~~,y12,0.8956284488930782
y13,~~,y13,0.6368694297839975
y14,~~,y14,0.30249492451799276
y15,~~,y15,0.6916614400787171
y16,~~,y16,0.6950787558113527
y17,~~,y17,0.4693331875507133
y18,~~,y18,1.4057958166900393
y19,~~,y19,0.5045095793557886
y2,~~,y2,1.2291629142994616
y3,~~,y3,0.5534257227784792
y4,~~,y4,0.10450456376433868
y5,~~,y5,0.31158091871545707
y7,~~,y7,0.030143944020400115
y8,~~,y8,1.3338790749063314
y9,~~,y9,0.7010223668915199
