lhs,op,rhs,est
eta1,~,eta2,0.9074713293847583
eta2,~,x3,0.2085948958126494
eta3,~,x1,0.714155030172677
eta3,~,x8,0.15496309862715574
eta4,~,x5,-0.3502068260967244
eta5,~,x3,0.002045301369414686
eta7,~,x1,0.5776369362479068
eta8,~,eta6,-0.1973722042668873
x1,~,x3,-0.219578076812187
x10,~,eta1,0.2616850183411835
x2,~,eta6,0.7807643905063103
x2,~,x1,-0.4074851085928273
x2,~,x6,0.587458047748006
x2,~,x9,0.3540596447382266
x3,~,x2,0.8046337115772845
x3,~,x4,0.7719642589835701
x3,~,x5,-0.5856644400326539
x7,~,x3,-0.15871939107013242
eta6,=~,y12,-0.3967174939704991
eta7,=~,y14,1.039750189735955
eta7,=~,y15,0.2948683280787288
eta8,=~,y17,1.3337656681506163
eta5,=~,y18,-0.08429817517968052
eta8,=~,y18,-1.1174381951171561
eta1,=~,y2,1.1073129872976961
eta2,=~,y4,0.5717470956259005
eta3,=~,y6,-0.14436448890857997
eta4,=~,y8,-1.0232916360634623
eta1,~~,eta1,0.8963408668724512
eta2,~~,eta2,1.3130991345067746
eta3,~~,eta3,0.3538996331463863
eta3,~~,eta4,-0.03831708856958521
eta3,~~,eta5,0.03659987430433085
eta3,~~,eta7,-0.050373727714265584
eta3,~~,eta8,0.04274186230134263
eta3,~~,x10,-0.00925100305792334
eta3,~~,x7,0.03247508022306398
eta4,~~,eta4,0.10534264492890509
eta4,~~,eta5,-0.07183704297314396
eta4,~~,eta7,-0.017334977383907563
eta4,~~,eta8,-0.009385900885688714
eta4,~~,x10,-0.012162903856503746
eta4,~~,x7,0.0015775279402757865
eta5,~~,eta5,1.0050384510086934
eta5,~~,eta7,0.005729250071894774
eta5,~~,eta8,-0.0021405944515592665
eta5,~~,x10,-0.017345948380871893
eta5,~~,x7,-0.07269376659212233
eta6,~~,eta6,1.690332176910526
eta7,~~,eta7,0.37381626024691167
eta7,~~,eta8,-0.00631891228676802
eta7,~~,x10,0.007209281549568072
eta7,~~,x7,0.010082191832758224
eta8,~~,eta8,0.0880820437891197
eta8,~~,x10,0.004191570883072053
eta8,~~,x7,0.0127300765638403
x1,~~,x1,1.9893898804715937
x10,~~,x10,0.07271886896510728
x10,~~,x7,-0.014413794392172146
x2,~~,x2,1.3700305725443032
x3,~~,x3,3.575546603857272
x7,~~,x7,0.7181051651770582
y1,~~,y1,1.1512130843952912
y10,~~,y10,-0.1048045455153545
y11,~~,y11,0.8996913482434598
y12,~~,y12,0.18142709738814966
y13,~~,y13,1.0691169477666567
y14,~~,y14,1.1146022955779018
y15,~~,y15,0.07927891879559816
y16,~~,y16,1.0218111278927287
y17,~~,y17,0.8228482902192783
y18,~~,y18,0.6391162567139398
y2,~~,y2,1.1158222952016779
y3,~~,y3,1.1336513701654338
y4,~~,y4,0.2192774599956096
y5,~~,y5,2.0224628501811006
y6,~~,y6,0.04154901923628332
y7,~~,y7,0.9479407464900291
y8,~~,y8,1.0346587483712935
