lhs,op,rhs,est
eta1,~,eta2,1.3431267858115319
eta3,~,eta4,-0.29362820520881106
eta4,~,x7,-0.4548733377176368
eta8,~,eta7,0.5548726198674748
x1,~,eta4,-0.10007513200218005
x1,~,x2,-0.8658716620112399
x10,~,x9,-0.5823379854370552
x2,~,x6,-0.3433315034063413
x3,~,eta4,-0.1571458978289736
x5,~,eta7,0.6340863743519172
x6,~,eta2,0.12970544872621115
x6,~,x1,0.03691390962379917
x6,~,x4,-0.7110155756467001
x8,~,eta2,0.03496505620490627
x8,~,eta5,0.7691418907218246
x8,~,eta6,0.8769688929096343
x9,~,eta8,-0.2545047175195567
x9,~,x7,1.158334017975118
eta1,=~,y11,-0.6830842072550252
eta5,=~,y12,0.5403087387501904
eta6,=~,y14,-1.2345458577927977
eta7,=~,y16,-0.9828570491822816
eta7,=~,y17,0.888763331950535
eta8,=~,y19,0.13557178176466367
eta2,=~,y4,0.5775454801830456
eta2,=~,y5,0.18880032571336822
eta3,=~,y7,-0.21250547031622533
eta3,=~,y8,0.1293358979386382
eta4,=~,y9,-0.26906869907366343
eta1,~~,eta1,0.9899236287325422
eta1,~~,eta3,-0.14876795698352707
eta1,~~,x10,-0.15788261469798864
eta1,~~,x3,0.15052588667415256
eta1,~~,x5,-0.04223963407686766
eta1,~~,x8,-0.2205862988454684
eta2,~~,eta2,0.9570003255861973
eta2,~~,eta5,0.2464741664946004
eta2,~~,eta6,-0.15540160943463924
eta2,~~,eta7,0.06398014402528732
eta3,~~,eta3,0.6263284359163174
eta3,~~,x10,-0.3794911050476792
eta3,~~,x3,-0.3867521972841903
eta3,~~,x5,0.3713662039383872
eta3,~~,x8,0.011503731666556232
eta4,~~,eta4,0.1869440792786192
eta5,~~,eta5,1.1879227974071276
eta5,~~,eta6,0.010637477083733513
eta5,~~,eta7,-0.01008971744111638
eta6,~~,eta6,1.1598491763298686
eta6,~~,eta7,-0.11623093022888303
eta7,~~,eta7,0.9713013118145158
eta8,~~,eta8,0.2175632017717384
x1,~~,x1,2.0357699292860683
x10,~~,x10,0.8694657960105564
x10,~~,x3,0.3208095002806972
x10,~~,x5,-0.34078106401448405
x10,~~,x8,0.058891627159922216
x2,~~,x2,1.5362656729988395
x3,~~,x3,0.5238293381373481
x3,~~,x5,-0.38496666651899686
x3,~~,x8,0.38690369658498647
x5,~~,x5,0.6364131456864512
x5,~~,x8,-0.3027024137161466
x6,~~,x6,1.6861822100654726
x8,~~,x8,1.696919279766856
x9,~~,x9,1.4554773238250291
y1,~~,y1,3.101561091170018
y10,~~,y10,1.0558639790691533
y11,~~,y11,2.6589824906742865
y12,~~,y12,0.4866954307843441
y13,~~,y13,1.955186486335986
y14,~~,y14,1.6318162687336606
y15,~~,y15,1.4661996617159345
y16,~~,y16,0.587625864460011
y17,~~,y17,0.349652772508065
y18,~~,y18,0.877575901258287
y19,~~,y19,0.027977203269118504
y3,~~,y3,1.7069944432929507
y4,~~,y4,0.0461728324797705
y5,~~,y5,0.026850989723368884
y6,~~,y6,1.1065749866227355
y7,~~,y7,1.4894378603537033
y8,~~,y8,0.05245219640102581
y9,~~,y9,0.054894980541934604
