lhs,op,rhs,est
eta1,~,x1,0.5397327661770865
eta2,~,x7,-0.040570282778079954
eta3,~,eta2,0.6804151367613538
eta4,~,x8,-0.49768113376336004
eta5,~,eta7,-0.1237810467314728
eta5,~,x9,-0.5800274367245305
eta8,~,eta2,0.26829683634218054
eta8,~,x10,1.0125685767230352
x1,~,x9,0.5849773955044238
x2,~,x1,-0.3867746677731392
x6,~,eta6,-0.6964877021512423
x6,~,x10,0.7599345302688696
x7,~,eta5,0.37625261092365453
x7,~,x3,0.8850916641316605
x7,~,x4,-0.5133346473592921
x8,~,x4,-0.5698597575372772
x9,~,eta3,-0.029144540975061164
x9,~,x5,0.350833639466304
eta4,=~,y11,-0.1067332154779728
eta5,=~,y13,0.2851964343241941
eta6,=~,y15,-0.7000229718417412
eta7,=~,y17,-0.4933182434670669
eta7,=~,y18,-0.8948132662995386
eta1,=~,y2,-0.6086092827512929
eta8,=~,y20,-0.5784765407236843
eta2,=~,y4,0.838490919834854
eta2,=~,y5,0.5145871469393495
eta3,=~,y7,-0.332771193617925
eta3,=~,y8,-0.2193112979500147
eta4,=~,y9,-0.5112535658023637
eta1,~~,eta1,0.2294934868382458
eta1,~~,eta4,-0.004309233442789374
eta1,~~,eta8,0.024209421101505858
eta1,~~,x2,0.0025602830781561265
eta1,~~,x6,-0.02015556521372334
eta2,~~,eta2,0.21379719280114853
eta3,~~,eta3,0.09586048456123814
eta4,~~,eta4,0.248770723622048
eta4,~~,eta8,0.03576463088347141
eta4,~~,x2,-0.021155799639623808
eta4,~~,x6,-0.021141979991214296
eta5,~~,eta5,0.3188796711276121
eta6,~~,eta6,1.6808735389223675
eta6,~~,eta7,-0.0802477104653835
eta7,~~,eta7,1.71622156629213
eta8,~~,eta8,0.8340365327935577
eta8,~~,x2,0.025664386547799074
eta8,~~,x6,-0.003137490185003738
x1,~~,x1,0.4059111355223301
x2,~~,x2,0.1484337499766617
x2,~~,x6,-0.012826082878586595
x6,~~,x6,1.0279919118119427
x7,~~,x7,1.4812265369797695
x8,~~,x8,0.3491797265902981
x9,~~,x9,0.14441777340515838
y1,~~,y1,0.9327281313313062
y10,~~,y10,0.9068997854555148
y11,~~,y11,0.009247853150384967
y12,~~,y12,1.678413987728878
y13,~~,y13,0.7053175620199201
y14,~~,y14,1.0992930945087862
y15,~~,y15,2.4016058518321417
y16,~~,y16,0.7362901080070672
y17,~~,y17,0.32746676086922655
y18,~~,y18,0.9169222135773282
y2,~~,y2,0.31421697048038644
y20,~~,y20,0.5475864254364425
y3,~~,y3,1.147130551923889
y4,~~,y4,1.804262402363761
y5,~~,y5,0.2772702580728584
y7,~~,y7,0.1385773939049062
y8,~~,y8,0.08900004900592008
y9,~~,y9,0.39332175951049925
