lhs,op,rhs,est
eta1,~,eta5,0.19082237746842343
eta2,~,eta6,0.38247277613279396
eta2,~,x8,1.0124079804700326
eta4,~,eta7,0.8224388936506581
eta5,~,x9,0.377540431356573
eta5,~,x6,-0.755116690399911
eta8,~,eta4,0.9852074167854744
x1,~,x2,-0.13115283325225174
x10,~,x5,0.5699438060295218
x4,~,x8,-0.2747351104547698
x5,~,eta7,-0.22124714628955958
x7,~,eta3,-1.0564339525020179
x7,~,x4,0.8758355341527191
x8,~,eta7,-0.41408775612281173
x9,~,eta1,0.19413813947140512
x9,~,x8,-0.8394967216148609
x9,~,x2,-0.7573720038385543
x9,~,x3,0.5781122177948863
eta5,=~,y12,0.227046040720726
eta6,=~,y14,-0.4340816191256752
eta7,=~,y16,0.7089901032428846
eta8,=~,y18,-1.013521639019348
eta1,=~,y2,-0.9906338084719791
eta1,=~,y3,-0.8260624939105996
eta2,=~,y5,-0.1844968911820004
eta3,=~,y6,0.6115238690974312
eta3,=~,y8,0.8886438610146767
eta4,=~,y9,-0.3226955046064069
eta1,~~,eta1,1.2804414914849023
eta2,~~,eta2,1.2313471391103203
eta2,~~,eta8,0.024218345277467183
eta2,~~,x1,-0.0010779433449093663
eta2,~~,x10,0.005471110723958259
eta2,~~,x7,-0.10088487058311704
eta3,~~,eta3,1.4959470631762561
eta3,~~,eta6,-0.18167385670269953
eta3,~~,eta7,0.006559382629743652
eta4,~~,eta4,0.6148313420439927
eta5,~~,eta5,1.9577749603263581
eta6,~~,eta6,1.6381238576221258
eta6,~~,eta7,-0.14050645727708275
eta7,~~,eta7,1.7503954074665729
eta8,~~,eta8,0.7605055384606398
eta8,~~,x1,-0.0067538793988294364
eta8,~~,x10,-0.0031896489193127737
eta8,~~,x7,-0.012771500749961761
x1,~~,x1,0.01786975597133088
x1,~~,x10,-0.0022522030267981747
x1,~~,x7,-0.0015272744307327727
x10,~~,x10,0.35718761132173943
x10,~~,x7,0.004305309806663759
x4,~~,x4,0.06384776191995202
x5,~~,x5,0.045643029692583874
x7,~~,x7,1.7109093301056286
x8,~~,x8,0.19804955233092836
x9,~~,x9,1.9910284935268643
y1,~~,y1,1.9558389705046553
y10,~~,y10,1.020092939821852
y11,~~,y11,2.5798461874819267
y12,~~,y12,1.145860665868003
y13,~~,y13,0.8970859552693299
y14,~~,y14,0.2202061755509202
y15,~~,y15,0.95134210119677
y16,~~,y16,0.5613042253727638
y17,~~,y17,1.104693819644309
y18,~~,y18,0.9324577669004281
y2,~~,y2,1.7354396042903923
y3,~~,y3,1.2764493518976703
y4,~~,y4,1.9561100104836882
y5,~~,y5,0.07188364925908132
y6,~~,y6,0.3181581285579734
y8,~~,y8,0.7202898224276891
y9,~~,y9,0.083113116689386
