lhs,op,rhs,est
eta2,~,x6,-0.24373488400191715
eta3,~,eta5,0.24454455482968443
eta3,~,x5,-1.0282736654072138
eta3,~,x8,-0.5897424602178394
eta6,~,x6,-0.9987535360675052
eta6,~,x2,-1.020124768175263
eta8,~,x1,-0.5329692594021624
x1,~,eta3,-0.10747646155471947
x1,~,eta7,-0.8229536314075024
x1,~,x10,-0.32765266945365634
x3,~,x6,0.09858100040407722
x3,~,x7,0.525347876252116
x4,~,x3,0.5352542627764068
x5,~,eta1,0.5123232336829482
x6,~,eta3,0.035842382785576436
x8,~,eta4,0.48961479438980426
x8,~,x3,0.1799102428736251
x8,~,x9,1.0835386824707725
eta4,=~,y11,0.7082922396443341
eta5,=~,y13,-0.6559822423462452
eta5,=~,y14,0.3248200352203341
eta6,=~,y16,-0.46331441400765994
eta6,=~,y18,-0.1527757249192031
eta7,=~,y19,0.5523935939026013
eta1,=~,y2,-0.8087603438966326
eta7,=~,y20,-0.6730858349050839
eta8,=~,y21,0.6237389566316126
eta2,=~,y4,-0.23911306018832082
eta2,=~,y5,0.31994159985342846
eta3,=~,y7,-0.5273972103416604
eta3,=~,y8,0.6898854619601898
eta4,=~,y9,-0.2895164002062361
eta1,~~,eta1,1.6926142036864977
eta1,~~,eta4,0.14293991983316093
eta1,~~,eta5,-0.004118221896994526
eta1,~~,eta7,-0.18791477720179706
eta2,~~,eta2,0.46330310414156217
eta2,~~,eta6,-0.014383025325173061
eta2,~~,eta8,-0.0632575488977244
eta2,~~,x4,-0.0767777032980221
eta3,~~,eta3,2.3374019550936898
eta4,~~,eta4,1.5584948343592604
eta4,~~,eta5,0.03525698760467375
eta4,~~,eta7,0.061208958304449224
eta5,~~,eta5,1.7542170677297213
eta5,~~,eta7,-0.2056565126005946
eta6,~~,eta6,1.6062004364385771
eta6,~~,eta8,-0.10069335378261024
eta6,~~,x4,0.06259052992560761
eta7,~~,eta7,2.57595920566767
eta8,~~,eta8,1.1961978616875066
eta8,~~,x4,-0.05257965811855429
x1,~~,x1,0.8687583886520339
x3,~~,x3,0.35974250134916097
x4,~~,x4,0.6513635115099206
x5,~~,x5,0.2772755077106358
x6,~~,x6,0.02380906216382948
x8,~~,x8,1.589978617672572
y1,~~,y1,0.9744996071533728
y10,~~,y10,1.0759736196696932
y11,~~,y11,0.48747007480569915
y12,~~,y12,0.8276854407874575
y13,~~,y13,0.4999292225390452
y14,~~,y14,0.11023202036083113
y15,~~,y15,1.809538614543208
y16,~~,y16,0.4286044515385829
y18,~~,y18,3.185176028090381
y19,~~,y19,0.5716327901244472
y2,~~,y2,0.5866331445256016
y20,~~,y20,0.974807518409799
y21,~~,y21,0.15584515627718953
y3,~~,y3,0.944101137909979
y4,~~,y4,0.0634571371214878
y5,~~,y5,0.17096715048207967
y6,~~,y6,5.141083425823029
y7,~~,y7,2.0082426448179067
y8,~~,y8,1.5502588283436236
y9,~~,y9,0.07584015466357064
