lhs,op,rhs,est
eta2,~,x2,0.4380612757464963
eta3,~,x4,0.776587194852321
eta4,~,x10,-0.02745832300039882
eta4,~,x8,-0.14620143155521886
x10,~,eta3,0.5173857482502543
x10,~,x9,-0.04400374687315104
x10,~,x2,-1.0554513567676702
x3,~,eta2,0.2679846420374982
x3,~,x1,-0.3294938143763729
x4,~,eta1,-0.4527894259145163
x5,~,eta4,-0.37128975546788423
x6,~,x4,-0.14489203492236635
x9,~,x7,-0.7022480897628045
eta4,=~,y11,-0.3632016435310403
eta1,=~,y2,0.5221734712681205
eta4,=~,y2,0.5990172478655647
eta1,=~,y3,-0.8078180584533138
eta2,=~,y5,0.16155646128499837
eta2,=~,y6,-1.0203016113464771
eta3,=~,y8,-0.3355763914223749
eta1,~~,eta1,1.5117514526938194
eta2,~~,eta2,0.22713460376225925
eta3,~~,eta3,0.6518500515900578
eta4,~~,eta4,0.13824866705649616
x10,~~,x10,1.2159813015474823
x3,~~,x3,0.15341808517423286
x3,~~,x5,0.010166278230993439
x3,~~,x6,0.0008218869821892251
x4,~~,x4,0.18302498623758026
x5,~~,x5,0.23087695705015188
x5,~~,x6,-0.0013155142487710377
x6,~~,x6,0.0284912882359795
x9,~~,x9,0.4454876125917983
y1,~~,y1,0.8232353070897005
y10,~~,y10,1.743061338695729
y11,~~,y11,0.3850569265312679
y2,~~,y2,0.8218391029038541
y3,~~,y3,0.6633677122492687
y4,~~,y4,1.0497502334872184
y5,~~,y5,0.01874875922667829
y6,~~,y6,0.7510897871633017
y7,~~,y7,0.9969102378896275
y8,~~,y8,0.09505383781675454
