lhs,op,rhs,est
eta1,~,eta4,-0.07838017086027312
eta3,~,x2,-0.831898380991659
eta3,~,x1,1.0630206076367368
eta4,~,x8,0.4471466040930072
x10,~,x4,-0.7847405636978002
x10,~,x8,-0.45282987996011004
x2,~,x6,0.2680229788709525
x5,~,x3,0.4423037816152523
x5,~,x9,0.6756895631710607
x6,~,eta2,0.22189301963484095
x6,~,x3,-0.38717059916495283
x6,~,x8,-0.29955752841429745
x7,~,x6,0.15132119322276738
eta4,=~,y11,-0.5091431305058475
eta1,=~,y2,-1.0273917676788247
eta1,=~,y3,-1.0552689262264452
eta2,=~,y5,-0.8599025635389911
eta3,=~,y7,0.6144411889987373
eta3,=~,y8,0.4289005610247262
eta4,=~,y9,-0.7122762955320833
eta1,~~,eta1,0.010875485623512603
eta1,~~,eta3,0.03961660228814792
eta1,~~,x10,0.008031388541974355
eta1,~~,x5,0.018013662913211482
eta1,~~,x7,0.023762804705754224
eta2,~~,eta2,1.6974044151257317
eta3,~~,eta3,1.4756250543726637
eta3,~~,x10,0.03007754389856657
eta3,~~,x5,0.10420869907033296
eta3,~~,x7,-0.0031094777836110656
eta4,~~,eta4,0.13887302023339163
x10,~~,x10,0.8361039840858014
x10,~~,x5,0.02035781667863761
x10,~~,x7,-0.007391857348496837
x2,~~,x2,0.897003984515538
x5,~~,x5,0.6923823214644863
x5,~~,x7,0.0036953876615593247
x6,~~,x6,0.2621679430612638
x7,~~,x7,0.3629206892736488
y1,~~,y1,0.9113599438081226
y10,~~,y10,0.887863721543312
y11,~~,y11,0.37758122524537713
y2,~~,y2,0.8223786424425549
y3,~~,y3,0.287541635409988
y5,~~,y5,0.9825783552016009
y6,~~,y6,2.124948200947365
y7,~~,y7,0.6651520985975163
y8,~~,y8,0.3304416204914409
y9,~~,y9,0.57702486498496
