lhs,op,rhs,est
eta1,~,x3,-0.3493046728921211
eta2,~,x3,-0.0953318425288786
eta3,~,x8,0.38368315275555026
eta4,~,x7,-0.008374803382953825
x10,~,eta2,-0.8322978790513678
x10,~,x7,0.10106248048981273
x3,~,x2,-0.5094182409627466
x3,~,x9,0.23632130965194
x4,~,x7,0.07948489936358483
x7,~,x8,0.0970043154416333
x7,~,x5,0.7038555847341251
x8,~,x1,0.5335467070750781
x8,~,x6,-0.3483627370376524
eta4,=~,y11,0.13475895961123402
eta1,=~,y2,-0.48810208116339765
eta1,=~,y3,-0.8301971853326952
eta2,=~,y5,1.1439442578252075
eta3,=~,y7,-0.10981205030149141
eta4,=~,y7,0.03777008021798399
eta3,=~,y8,-0.6147099388972026
eta1,~~,eta1,0.25612623454687056
eta1,~~,eta3,-0.0022145830559312882
eta1,~~,eta4,-0.037934338491233045
eta1,~~,x10,-0.01373736954934288
eta1,~~,x4,-0.008932557840942249
eta2,~~,eta2,0.39644484010200076
eta3,~~,eta3,0.4629830067023612
eta3,~~,eta4,0.010783407491860181
eta3,~~,x10,0.0049328688259690796
eta3,~~,x4,-0.031957328661254523
eta4,~~,eta4,1.005623406361561
eta4,~~,x10,-0.03266104656496388
eta4,~~,x4,0.011854800978822863
x10,~~,x10,0.8079914305498297
x10,~~,x4,0.02809514701185752
x3,~~,x3,0.24523494670227905
x4,~~,x4,0.19179124827103636
x7,~~,x7,0.7684034520953178
x8,~~,x8,0.4104895434891982
y1,~~,y1,1.7445960571945582
y10,~~,y10,0.16907259741996114
y11,~~,y11,0.32849072479268865
y2,~~,y2,1.1241127281209045
y3,~~,y3,1.9665503669125097
y4,~~,y4,0.9993242802190924
y5,~~,y5,0.9543612711966578
y6,~~,y6,0.8350364203452147
y7,~~,y7,0.08776851954261085
y8,~~,y8,0.4274565071980493
