lhs,op,rhs,est
eta2,~,x8,0.10883735452014842
eta3,~,x2,-1.0185096201606931
eta4,~,x3,0.2761811117037613
x10,~,x3,-0.6301247262386904
x2,~,eta1,0.11509639247046483
x2,~,x1,0.9536489337902718
x3,~,x9,-1.0887557637542322
x4,~,eta3,0.30601198115059264
x5,~,eta3,0.3494931238138159
x6,~,x10,-0.4432311373275999
x7,~,x2,-0.9402829856044465
x8,~,x3,0.5499308027972114
x9,~,x2,0.9452597386477893
eta1,=~,y2,0.3337292265370391
eta1,=~,y3,0.2785911393482302
eta2,=~,y5,0.5410651246855218
eta3,=~,y8,0.3716708297750594
eta4,=~,y8,0.49213593548229667
eta4,=~,y9,-0.2850979004683248
eta1,~~,eta1,1.298529242153186
eta2,~~,eta2,0.04190039733676288
eta2,~~,eta4,-0.005957336688935532
eta2,~~,x4,-0.014285122738405046
eta2,~~,x5,-0.002801842313095922
eta2,~~,x6,0.002444096197644276
eta2,~~,x7,-0.015513866285025216
eta3,~~,eta3,1.0581407321436074
eta4,~~,eta4,0.051273666730732914
eta4,~~,x4,-0.0022725417474818202
eta4,~~,x5,-0.005073541937433902
eta4,~~,x6,-0.00949166630911639
eta4,~~,x7,-0.00799058103956388
x10,~~,x10,0.37881668347396635
x2,~~,x2,0.7429797713288177
x3,~~,x3,1.1186851268325697
x4,~~,x4,0.08400925163113267
x4,~~,x5,-0.0030234495874590416
x4,~~,x6,0.006700256948487018
x4,~~,x7,0.022251374092379764
x5,~~,x5,0.11185540782458533
x5,~~,x6,0.006804469730937529
x5,~~,x7,-0.0018658204298027175
x6,~~,x6,0.19507908106216545
x6,~~,x7,0.006170247976922738
x7,~~,x7,0.7635419428289276
x8,~~,x8,0.28718267463333447
x9,~~,x9,0.9389408863573273
y1,~~,y1,0.8583976416578786
y10,~~,y10,1.0078081809245447
y2,~~,y2,0.09200796822223717
y3,~~,y3,0.0707998187715079
y4,~~,y4,0.9415076744778835
y5,~~,y5,0.08699718796631953
y7,~~,y7,0.9586114103038376
y8,~~,y8,0.28499212222477194
y9,~~,y9,0.0975336728704585
