"lhs","op","rhs","est"
"eta1","=~","y2",1.47480958951695
"eta1","=~","y3",1.64443497767184
"eta2","=~","y5",-0.40010104082137
"eta2","=~","y6",-0.515733125990231
"x4","~","x2",0.640994194996069
"eta1","~","eta2",0.624135121940455
"eta1","~","x4",1.35701609350836
"eta2","~","x1",-2.15555897902349
"x3","~","eta2",0.480512621927502
"x5","~","x3",0.744833113456859
"y1","~~","y1",1.7575020254108
"y2","~~","y2",4.00833645448775
"y3","~~","y3",5.60034451035083
"y4","~~","y4",1.08014297726614
"y5","~~","y5",0.147496196342006
"y6","~~","y6",0.266737666364035
"x4","~~","x4",0.319394590867575
"x3","~~","x3",0.209379196195909
"x5","~~","x5",0.526806532433558
"eta1","~~","eta1",2.4931373919159
"eta2","~~","eta2",3.81483041779256
"eta1","~~","x5",0.0125176391217484
"x2","~~","x2",1.61287528840378
"x2","~~","x1",-0.0864060525357654
"x1","~~","x1",1.62205969836679
