"lhs","op","rhs","est"
"eta1","=~","y2",-0.850574396681297
"eta1","=~","y3",0.979677539956634
"eta2","=~","y5",-0.972650128159557
"eta2","=~","y6",-1.43822025590723
"x5","~","eta1",1.44069499518538
"x5","~","eta2",1.19269193025062
"x1","~","x2",1.07109938857592
"x1","~","x5",-0.33335187943724
"x3","~","x1",-1.12383775516697
"x4","~","x5",-0.48279597867426
"y1","~~","y1",0.955888361417573
"y2","~~","y2",0.525032056411447
"y3","~~","y3",0.875140874283107
"y4","~~","y4",1.03375558590007
"y5","~~","y5",1.05283657199755
"y6","~~","y6",2.56845413554198
"x5","~~","x5",3.16605901192994
"x1","~~","x1",1.18968211021811
"x3","~~","x3",2.74349125712559
"x4","~~","x4",0.449879230987585
"eta1","~~","eta1",1.4540778909054
"eta2","~~","eta2",1.48324611040469
"eta1","~~","eta2",0.204689333159144
"x3","~~","x4",0.00109025846677629
"x2","~~","x2",1.66529400680261
