"lhs","op","rhs","est"
"eta1","=~","y2",2.1268763793653
"eta2","=~","y4",1.20034500661714
"eta2","=~","y5",0.599415597817781
"x5","~","eta2",0.745132532205255
"x3","~","x1",0.841182705581313
"x3","~","x5",2.18117311745892
"eta1","~","x3",0.321385564506148
"x2","~","x5",1.87729077125982
"x4","~","x2",1.5268665438872
"y1","~~","y1",1.18293160053334
"y2","~~","y2",4.92776995624994
"y3","~~","y3",0.890487961943852
"y4","~~","y4",1.19330555587246
"y5","~~","y5",0.317105724314278
"x5","~~","x5",0.489947461740545
"x3","~~","x3",4.51703621421087
"x2","~~","x2",3.72748001625568
"x4","~~","x4",2.28157230564365
"eta1","~~","eta1",0.0516447414333027
"eta2","~~","eta2",1.36311731254451
"eta1","~~","x4",-0.00909568007396676
"x1","~~","x1",1.12679021975352
