"lhs","op","rhs","est"
"eta1","=~","y2",-0.495737911414758
"eta1","=~","y3",-2.23763603085656
"eta2","=~","y5",0.955597300894234
"x2","~","x1",0.0282646156810344
"x2","~","x4",-0.975151235675424
"x3","~","x2",0.741485533291903
"x1","~","eta1",-1.22477151625997
"x1","~","x5",-0.679798036233903
"eta2","~","x1",-0.259859128309338
"y1","~~","y1",1.05372185110537
"y2","~~","y2",0.308128836107764
"y3","~~","y3",3.13797775413346
"y4","~~","y4",1.00123283745151
"y5","~~","y5",0.933529238851657
"x2","~~","x2",0.943807043152539
"x3","~~","x3",1.14915160553312
"x1","~~","x1",1.67806877985616
"eta1","~~","eta1",1.12339149770609
"eta2","~~","eta2",1.12175058044966
"eta2","~~","x3",-0.167477764944657
"x4","~~","x4",1.64368119364927
"x4","~~","x5",-0.0142693200703077
"x5","~~","x5",1.06927814479524
