"lhs","op","rhs","est"
"eta1","=~","y2",0.306476317907277
"eta2","=~","y4",1.42748420642741
"eta2","=~","y5",-0.35323836885577
"x2","~","eta1",0.68783729773525
"x2","~","x1",-0.853274747118929
"x2","~","x5",1.27659091261183
"x5","~","x3",-0.445479535108621
"x4","~","x1",-0.840363161366797
"eta2","~","x3",-0.744006824596521
"y1","~~","y1",1.20663657452861
"y2","~~","y2",0.0432897941525339
"y3","~~","y3",0.900093039979394
"y4","~~","y4",2.50430977621587
"y5","~~","y5",0.134753092769939
"x2","~~","x2",2.76778737867598
"x5","~~","x5",0.200545147374704
"x4","~~","x4",0.741799462276141
"eta1","~~","eta1",1.15052439234458
"eta2","~~","eta2",0.507357165935728
"eta2","~~","x2",-0.0758737149687443
"eta2","~~","x4",0.0767290411890253
"x2","~~","x4",-0.0484918553356774
"x1","~~","x1",1.67734892394581
"x1","~~","x3",0.10848320606586
"x3","~~","x3",1.59717217500935
