"lhs","op","rhs","est"
"eta1","=~","y2",-1.47024729826482
"eta1","=~","y3",1.19362743032607
"eta2","=~","y5",1.6600509238104
"eta2","=~","y6",0.978735915158173
"x3","~","eta2",2.01666383704647
"x3","~","x2",-0.859644376151426
"eta1","~","x1",-0.356744492258596
"eta1","~","x3",-0.993195476212278
"x4","~","eta1",2.10118565220043
"x2","~","x5",-1.75623309236113
"y1","~~","y1",2.77067591788091
"y2","~~","y2",6.48975467152576
"y3","~~","y3",3.58336036709342
"y4","~~","y4",1.05918988438108
"y5","~~","y5",1.81306432996309
"y6","~~","y6",0.865933675609898
"x3","~~","x3",5.79402541493757
"x4","~~","x4",11.4480665250443
"x2","~~","x2",2.63061745377244
"eta1","~~","eta1",2.05959379425439
"eta2","~~","eta2",1.33370814542953
"x1","~~","x1",1.63849927878188
"x1","~~","x5",-0.117962053919624
"x5","~~","x5",1.57761104455474
