lhs,op,rhs,est
eta2,~,x5,-0.639373478725948
x2,~,eta1,-0.4221498035798369
x3,~,eta1,0.45537567552923963
x5,~,eta1,0.12253006597731331
x5,~,x1,0.27542389207360574
x5,~,x4,-0.5874591735297092
eta1,=~,y2,0.411358757162527
eta1,=~,y3,0.6959153681710949
eta2,=~,y5,0.4688328389286132
eta2,=~,y6,-0.9674291893964955
eta1,~~,eta1,1.5997205415273894
eta2,~~,eta2,1.1214655737142782
eta2,~~,x2,-0.01255609660215532
eta2,~~,x3,-0.004823724225934524
x2,~~,x2,0.14529041610076252
x2,~~,x3,0.01852849353370193
x3,~~,x3,0.18398282858881912
x5,~~,x5,0.46056542280623486
y1,~~,y1,0.9062564780106647
y2,~~,y2,0.16775130248750164
y3,~~,y3,0.5882138665227415
y4,~~,y4,1.7898012782773747
y5,~~,y5,0.4432770880792211
y6,~~,y6,1.7476575345949068
