lhs,op,rhs,est
eta1,~,eta2,0.9890686314522359
eta1,~,x5,0.34448847852284664
x1,~,eta1,-0.811592053299243
x2,~,eta1,-0.1805177065630121
x2,~,x4,-0.6077832946178641
x3,~,eta2,0.6411370731041792
eta1,=~,y2,-0.6484910846551301
eta1,=~,y3,-0.6956494630519503
eta2,=~,y5,0.3572157429013356
eta1,~~,eta1,1.5007584302309358
eta2,~~,eta2,1.6145215219731088
x1,~~,x1,1.5493156582557461
x1,~~,x2,0.1673028021876932
x1,~~,x3,-0.03798197893123652
x2,~~,x2,0.4699665451268289
x2,~~,x3,-0.04235169299289815
x3,~~,x3,0.4070773374578385
y1,~~,y1,1.7513701828456536
y2,~~,y2,1.0637881600554933
y3,~~,y3,0.9787910979206987
y4,~~,y4,0.924627394103415
y5,~~,y5,0.10675692915617141
