lhs,op,rhs,est
eta1,~,x4,0.005083959693306339
eta2,~,x1,0.09068329741268066
x2,~,x4,-0.12030847937002101
x4,~,x5,-0.1874360950854088
x4,~,x1,0.5370907045284499
x5,~,x3,0.5479996176687322
eta1,=~,y2,1.2531154914394784
eta2,=~,y4,-1.7867328414360963
eta1,~~,eta1,0.015380914144702983
eta1,~~,eta2,0.005120178825240051
eta1,~~,x2,-0.0029326797441390157
eta2,~~,eta2,6.840300565198349e-17
eta2,~~,x2,-0.00453240582774658
x2,~~,x2,0.6079966910563354
x4,~~,x4,0.28576716184696505
x5,~~,x5,0.29974970527456624
y1,~~,y1,1.1638968950272293
y2,~~,y2,1.7892618662327113e-18
y3,~~,y3,0.9917703278180133
y4,~~,y4,0.9767244560955143
