lhs,op,rhs,est
eta2,~,x4,0.25386844617363197
x1,~,eta1,1.1257131314565993
x1,~,x3,-0.2314712759279356
x1,~,x4,-0.8899926175417109
x3,~,x5,-0.12633812771116282
x4,~,x2,0.56390089071995
eta1,=~,y2,-0.664138722318116
eta1,=~,y3,-0.12216817182851855
eta2,=~,y5,-0.08202122248260071
eta2,=~,y6,0.9883825838607452
eta1,~~,eta1,1.394020833631025
eta2,~~,eta2,0.07788403915455355
eta2,~~,x1,0.0363415580110791
x1,~~,x1,2.1232830006997787
x3,~~,x3,0.016010346377807225
x4,~~,x4,0.32446403724550155
y1,~~,y1,0.9601738999086873
y2,~~,y2,0.32981991672936284
y3,~~,y3,0.011607348503261049
y4,~~,y4,1.001951217087593
y5,~~,y5,0.01106323172220595
y6,~~,y6,1.139810069270753
