lhs,op,rhs,est
eta2,~,x1,0.3446614648400162
x1,~,x4,0.460215932801305
x2,~,eta2,-1.5216355646498818
x4,~,eta1,-0.40522419743962695
x5,~,eta2,0.7581128494273963
x5,~,x3,-0.5547984325254908
eta1,=~,y2,0.7558803846346932
eta1,=~,y3,0.6783538812743183
eta2,=~,y5,0.271599563320968
eta1,~~,eta1,1.5531362825856192
eta2,~~,eta2,0.1147793808378704
x1,~~,x1,0.19990152417465448
x2,~~,x2,1.233087797339596
x2,~~,x5,-0.0149774990873848
x4,~~,x4,0.15746797243280836
x5,~~,x5,0.9960328015495594
y1,~~,y1,1.0629492888285577
y2,~~,y2,0.42650887726564174
y3,~~,y3,0.40641933677432635
y4,~~,y4,1.046648876084867
y5,~~,y5,0.08750213347895425
