lhs,op,rhs,est
eta1,~,x2,0.45949245434533276
eta2,~,x5,0.8085331439257377
x1,~,x2,0.9623695638235793
x2,~,eta2,-0.4472180887023534
x3,~,eta1,-0.16456775367975976
x5,~,x4,0.4565842526608011
eta1,=~,y2,-0.319285825463933
eta1,=~,y3,1.0225074930903018
eta2,=~,y5,0.9769177627913818
eta2,=~,y6,-0.4432167874391063
eta1,~~,eta1,0.15990662409052733
eta2,~~,eta2,0.8010063386743564
x1,~~,x1,1.027195265692051
x1,~~,x3,0.006134949858307406
x2,~~,x2,0.22888402147083128
x3,~~,x3,0.0395475615040473
x5,~~,x5,0.1905278897211106
y1,~~,y1,0.8572860859843492
y2,~~,y2,0.10843003191697359
y3,~~,y3,0.8889842809408599
y4,~~,y4,0.9285294610128394
y5,~~,y5,0.8234355736933437
y6,~~,y6,0.23214126725844306
