lhs,op,rhs,est
eta1,~,x2,-0.7314328994071773
eta2,~,x5,0.4752874834968744
x1,~,x2,-0.5961339731302561
x3,~,eta2,0.5507893619780251
x4,~,eta1,-0.33987069225825417
x4,~,eta2,-1.1783096907165014
eta1,=~,y2,0.45392126961326174
eta2,=~,y4,-0.6672148863163745
eta1,~~,eta1,0.5755339059841612
eta2,~~,eta2,0.23228207700094305
x1,~~,x1,0.4129062996550126
x1,~~,x3,-0.017223639480657946
x1,~~,x4,-0.004406180200039657
x3,~~,x3,0.2322214017278146
x3,~~,x4,-0.005643839338126101
x4,~~,x4,1.0333398660717765
y1,~~,y1,0.9472949190584391
y2,~~,y2,0.18579366446965212
y3,~~,y3,1.12829099935657
y4,~~,y4,0.2556534252593289
