lhs,op,rhs,est
eta1,~,x1,-0.6522954065863755
eta2,~,x5,-0.29405421172989654
x1,~,eta2,0.15236853240228668
x1,~,x2,-0.3944135619052451
x3,~,x2,0.25531638973736814
x4,~,x1,0.5986658912802193
eta1,=~,y2,-0.7970046587779143
eta2,=~,y4,0.6515081210669275
eta1,~~,eta1,0.7584857980339482
eta1,~~,x3,-0.021701567767693025
eta1,~~,x4,0.009206771665104335
eta2,~~,eta2,0.016682544011475064
x1,~~,x1,0.19925660538694043
x3,~~,x3,0.06963601539290468
x3,~~,x4,-0.0024635200949216043
x4,~~,x4,0.5561976165325883
y1,~~,y1,2.0813995090896826
y2,~~,y2,1.1084898600254485
y3,~~,y3,1.0274645167705971
y4,~~,y4,0.6671290013851509
