lhs,op,rhs,est
eta1,~,eta2,0.2903229819195235
eta1,~,x4,0.21836659561269706
x1,~,eta1,0.13767465000397858
x2,~,x5,-0.9657660626630201
x3,~,x2,0.2829686188697843
x4,~,x2,0.1179888788514259
eta1,=~,y2,-0.5030971503064401
eta2,=~,y4,-0.2518058345467662
eta1,~~,eta1,0.17457948596958267
eta2,~~,eta2,2.0865248522862423
x1,~~,x1,0.0540559724965986
x1,~~,x3,-0.00019385510419082545
x2,~~,x2,0.9500248010292733
x3,~~,x3,0.08342042088847974
x4,~~,x4,0.0143507030838646
y1,~~,y1,1.961025002091687
y2,~~,y2,0.8663774372347415
y3,~~,y3,0.6961835123010155
y4,~~,y4,0.09212039005980953
