"lhs","op","rhs","est"
"eta1","=~","y2",0.807940469790097
"eta2","=~","y4",-0.235496972231333
"x9","~","x7",-0.408561187706595
"x5","~","x3",0.956297018984852
"x5","~","x9",0.886245040367485
"x2","~","x7",0.304700641017734
"x4","~","x2",0.201174481391077
"x8","~","x4",0.268119239458532
"x1","~","x10",0.294355061320627
"x1","~","x7",-0.69966533865766
"eta1","~","x3",0.235448444547087
"x6","~","x2",-0.414884818732941
"eta2","~","x7",1.01223060809578
"y1","~~","y1",0.909670608332775
"y2","~~","y2",0.506443821957823
"y3","~~","y3",0.891743453738027
"y4","~~","y4",0.0502007477226493
"x9","~~","x9",0.18675648083114
"x5","~~","x5",1.86574837246933
"x2","~~","x2",0.0806097769432142
"x4","~~","x4",0.0265367736138114
"x8","~~","x8",0.044678604282759
"x1","~~","x1",0.562446993016144
"x6","~~","x6",0.123364052803706
"eta1","~~","eta1",0.100412132279544
"eta2","~~","eta2",0.901645530917088
"eta1","~~","eta2",-1.3911835799833e-05
"eta1","~~","x5",0.0131756825922866
"eta1","~~","x8",0.0016436316411842
"eta1","~~","x1",-0.0253975134195773
"eta1","~~","x6",-0.0109958238851214
"eta2","~~","x5",0.0303804411147133
"eta2","~~","x8",-0.014726184822682
"eta2","~~","x1",0.0496655083312236
"eta2","~~","x6",-0.0265143391416581
"x5","~~","x8",-0.00408315196974367
"x5","~~","x1",0.00642780219386824
"x5","~~","x6",-0.0276836152260281
"x8","~~","x1",-0.0117034673375538
"x8","~~","x6",0.00107406380580822
"x1","~~","x6",-0.0129333978443381
"x7","~~","x7",1.70051508672808
"x7","~~","x3",0.0570893865226103
"x7","~~","x10",0.0878623083500039
"x3","~~","x3",1.59283890399485
"x3","~~","x10",0.137957040716008
"x10","~~","x10",1.48180689813132
