"lhs","op","rhs","est"
"eta1","=~","y2",3.31437314971957
"eta2","=~","y4",0.500788098328792
"eta2","=~","y5",-0.554820995641483
"x2","~","x9",0.914876644435772
"x3","~","x1",0.0195838938205291
"x3","~","x5",-0.182699347063569
"x3","~","x9",-0.660026322613424
"x4","~","x9",-0.498897119121378
"x5","~","x6",0.387291349489472
"x8","~","x5",-0.264950604060414
"eta1","~","x8",0.135903613264479
"x1","~","eta2",0.201348255934079
"x1","~","x7",0.605972676317734
"x10","~","x8",-0.165330213529991
"y1","~~","y1",1.05336049793464
"y2","~~","y2",0.771734059799018
"y3","~~","y3",0.823248539423268
"y4","~~","y4",0.244145230429949
"y5","~~","y5",0.426760181679998
"x2","~~","x2",0.859547226773599
"x3","~~","x3",0.505402744651742
"x4","~~","x4",0.265089058635278
"x5","~~","x5",0.144194342962528
"x8","~~","x8",0.063867055761185
"x1","~~","x1",0.392739752733975
"x10","~~","x10",0.0226762741084567
"eta1","~~","eta1",-0.00104646069535435
"eta2","~~","eta2",1.50011137284827
"eta1","~~","x2",0.00548706073431459
"eta1","~~","x3",-0.0146120466121389
"eta1","~~","x4",0.00259170716389149
"eta1","~~","x10",0.00100206820515627
"x2","~~","x3",0.0376435613041749
"x2","~~","x4",0.0401551109428841
"x2","~~","x10",0.00826574743985661
"x3","~~","x4",0.0169709540256188
"x3","~~","x10",-0.00520728226936248
"x4","~~","x10",-0.00310683570903091
"x9","~~","x9",1.55153067210129
"x9","~~","x6",-0.0286006549264679
"x9","~~","x7",-0.0237925025667706
"x6","~~","x6",1.61349874999965
"x6","~~","x7",0.0312286860898057
"x7","~~","x7",1.6917654426372
