"lhs","op","rhs","est"
"eta1","=~","y2",-0.794122668647319
"eta2","=~","y4",0.559973398258452
"x6","~","x7",-0.194792009418304
"x6","~","x9",0.937644592694345
"x4","~","eta2",0.316793885067735
"x4","~","x6",-0.903604897070031
"x9","~","x5",0.465902138210204
"x1","~","x10",-0.192016489334047
"x1","~","x2",0.340455620226249
"x1","~","x7",0.299605473495257
"x8","~","x1",0.637484334481326
"x2","~","x3",-0.874120121807782
"eta1","~","x1",-0.669706645518293
"y1","~~","y1",2.98703257423908
"y2","~~","y2",1.61839645761207
"y3","~~","y3",1.13057538730019
"y4","~~","y4",0.251626153614505
"x6","~~","x6",0.896888637428036
"x4","~~","x4",1.85111766198668
"x9","~~","x9",0.20700110656521
"x1","~~","x1",0.241539407404684
"x8","~~","x8",1.31473146357591
"x2","~~","x2",0.762248041499236
"eta1","~~","eta1",0.859565085921814
"eta2","~~","eta2",1.60334321070345
"eta1","~~","x4",0.149182548922782
"eta1","~~","x8",-0.0174024582041395
"x4","~~","x8",-0.0147327728075771
"x7","~~","x7",1.58572395886716
"x7","~~","x5",0.0761815291328965
"x7","~~","x10",0.0421594002710699
"x7","~~","x3",-0.00593241537896488
"x5","~~","x5",1.72305900374696
"x5","~~","x10",0.000893765488220288
"x5","~~","x3",-0.0348574890185244
"x10","~~","x10",1.61293373237153
"x10","~~","x3",-0.0099182484675869
"x3","~~","x3",1.61149359957486
