"lhs","op","rhs","est"
"eta1","=~","y2",-0.374203193861978
"eta2","=~","y4",0.804401418595236
"eta2","=~","y5",0.96138343559109
"x4","~","eta1",-0.294749345667787
"x8","~","x4",0.362055201231873
"x6","~","eta1",-0.250566377348012
"x6","~","x2",0.428747919057953
"x5","~","x10",-0.709319217898896
"x5","~","x6",0.00820094392714134
"x9","~","eta2",-0.963543791686904
"x9","~","x3",-0.888601349401902
"x9","~","x4",-0.112410111200081
"x7","~","x2",0.370153208956697
"x1","~","eta1",319.576599992683
"y1","~~","y1",0.909983143892272
"y2","~~","y2",0.271211806943304
"y3","~~","y3",0.940730536146753
"y4","~~","y4",0.681148021549784
"y5","~~","y5",0.966426574227254
"x4","~~","x4",0.101710760167201
"x8","~~","x8",0.0956864978452145
"x6","~~","x6",0.290403373858305
"x5","~~","x5",0.614473613616115
"x9","~~","x9",1.87310652150027
"x7","~~","x7",0.12720090589918
"x1","~~","x1",9.95563237958872
"eta1","~~","eta1",-9.73335989116071e-05
"eta2","~~","eta2",1.67968205581486
"eta1","~~","eta2",-3.96663965859818e-05
"x8","~~","x5",-0.0126328263413685
"x8","~~","x9",0.00346243923253694
"x8","~~","x7",-6.8781560635273e-05
"x8","~~","x1",-0.000655022190585823
"x5","~~","x9",-0.062793972557425
"x5","~~","x7",-0.00839359216532575
"x5","~~","x1",0.000715240188196391
"x9","~~","x7",0.00044470459976775
"x9","~~","x1",0.00181504338288623
"x7","~~","x1",-0.000356651494364482
"x2","~~","x2",1.59162423651439
"x2","~~","x10",-0.0323323829387235
"x2","~~","x3",-0.13751265599496
"x10","~~","x10",1.50948271994222
"x10","~~","x3",-0.0962389365673954
"x3","~~","x3",1.55945335528514
