"lhs","op","rhs","est"
"eta1","=~","y2",0.799745801814289
"eta2","=~","y4",-0.547203418728081
"x8","~","x10",0.793957188377961
"eta1","~","x5",-0.469253056914628
"eta1","~","x8",0.72013995613047
"x1","~","eta1",0.343946414873829
"x2","~","x1",-0.24317704978168
"x9","~","x4",-0.3336450318941
"x9","~","x8",-0.316874017938015
"eta2","~","x9",-0.425720981191253
"x7","~","eta2",0.657239028314467
"x6","~","x9",-0.331381433080549
"x3","~","x1",0.142266390334744
"y1","~~","y1",1.68639570244096
"y2","~~","y2",1.44387789622668
"y3","~~","y3",1.03392819234558
"y4","~~","y4",0.36046085396656
"x8","~~","x8",0.712894505711764
"x1","~~","x1",0.343331202804163
"x2","~~","x2",0.0444150228414533
"x9","~~","x9",0.167975093669725
"x7","~~","x7",0.449669879496026
"x6","~~","x6",0.274521461104942
"x3","~~","x3",0.0173000664904677
"eta1","~~","eta1",0.7184001879953
"eta2","~~","eta2",1.16749778991834
"x2","~~","x7",0.0100719499685201
"x2","~~","x6",0.00556981976091819
"x2","~~","x3",0.000746189447619883
"x7","~~","x6",-0.00597100688928906
"x7","~~","x3",-0.00397666827057854
"x6","~~","x3",-0.00215739528205389
"x10","~~","x10",1.43168419688138
"x10","~~","x5",-0.295014520673698
"x10","~~","x4",0.104080872213163
"x5","~~","x5",1.2623022429484
"x5","~~","x4",0.0325090729898666
"x4","~~","x4",1.58743879464313
