lhs,op,rhs,est
eta1,~,eta2,-0.21449042532888193
x1,~,eta2,-0.33064799869615463
x2,~,x1,-0.1612083412244485
x2,~,x4,-0.15530502711290653
x3,~,eta2,-0.5267750667178368
x5,~,x2,-0.022238778640679767
eta1,=~,y2,0.17825203879495954
eta1,=~,y3,-0.37894988452655953
eta2,=~,y5,0.1415262501781633
eta2,=~,y6,-0.4068072937134758
eta1,~~,eta1,0.0009180719342577803
eta1,~~,x3,-0.007521681182884412
eta1,~~,x5,-0.00046518577529612256
eta2,~~,eta2,1.6437771486430763
x1,~~,x1,0.11728003783593968
x2,~~,x2,0.05274175720170409
x3,~~,x3,0.29173038939318774
x3,~~,x5,-0.00016960522017550047
x5,~~,x5,0.014920726260816397
y1,~~,y1,0.9434303447388281
y2,~~,y2,0.031388993032069046
y3,~~,y3,0.10148758616928666
y4,~~,y4,0.9746915903824083
y5,~~,y5,0.0192322824269664
y6,~~,y6,0.18002988713582638
