lhs,op,rhs,est
x1,~,eta2,0.2854936503948394
x1,~,x3,-0.15992366790351864
x3,~,x2,0.530279618846235
x4,~,eta1,-0.35760963674989604
x4,~,eta2,-0.1915149596523953
x5,~,x3,0.06615931404020656
eta1,=~,y2,-0.13267505843129512
eta1,=~,y3,0.4832546567293223
eta2,=~,y5,0.5670725019433023
eta1,~~,eta1,1.7190165052253479
eta1,~~,eta2,0.04722429982132714
eta2,~~,eta2,1.5123557310662186
x1,~~,x1,0.09324744723660708
x1,~~,x4,-0.009006592341462945
x1,~~,x5,0.0006992307543751214
x3,~~,x3,0.2900097291569137
x4,~~,x4,0.20082562111024863
x4,~~,x5,0.00011952987707117364
x5,~~,x5,0.0044690687233531045
y1,~~,y1,0.9693558317273663
y2,~~,y2,0.017101659714533347
y3,~~,y3,0.26347064505310336
y4,~~,y4,1.1461208703592298
y5,~~,y5,0.28580506512913867
