lhs,op,rhs,est
eta2,~,x2,0.5990839507114627
x2,~,x3,0.30842411492901634
x3,~,x4,0.03904759205746864
x4,~,eta1,0.26872927806415936
x4,~,x1,-0.2598665817350438
x5,~,x3,0.09219535398507564
eta1,=~,y2,0.2407868422039203
eta2,=~,y4,0.17425655962667494
eta2,=~,y5,-0.3086414751482124
eta1,~~,eta1,1.968940520194491
eta2,~~,eta2,0.08256733689448753
eta2,~~,x5,-0.003278185200421183
x2,~~,x2,0.1345620957541923
x3,~~,x3,0.0035607006914859705
x4,~~,x4,0.21687469578899798
x5,~~,x5,0.061025544981202724
y1,~~,y1,1.0213051443047962
y2,~~,y2,0.06799326123057751
y3,~~,y3,1.0689031910087867
y4,~~,y4,0.02963516507107404
y5,~~,y5,0.2628818778748074
