lhs,op,rhs,est
eta1,~,x2,-0.4974432012011899
x1,~,x2,-0.1742645974737995
x2,~,x3,-0.24033280234940024
x3,~,eta2,-0.45708783011109355
x4,~,eta1,-0.45683525062756497
x5,~,eta1,0.22368605667400907
eta1,=~,y2,-0.455506681286953
eta2,=~,y4,0.43977012562680534
eta2,=~,y5,-0.36574538728821543
eta1,~~,eta1,0.2947870774608629
eta2,~~,eta2,1.8252411224186127
x1,~~,x1,0.03193145217123322
x1,~~,x4,0.0038565916096860897
x1,~~,x5,0.0020683780979887574
x2,~~,x2,0.07471496632507217
x3,~~,x3,0.1996728851465811
x4,~~,x4,0.21505303695530845
x4,~~,x5,0.002537566170619686
x5,~~,x5,0.05467214532463844
y1,~~,y1,1.0102129387566605
y2,~~,y2,0.22848157678053518
y3,~~,y3,1.0748103163625293
y4,~~,y4,0.184108322305054
y5,~~,y5,0.14743820741764904
