lhs,op,rhs,est
eta2,~,x1,-0.12255017875038665
x2,~,x1,-0.46552593168900713
x3,~,x1,-0.22181014196484217
x4,~,eta2,-0.46642416583008894
x5,~,eta1,-0.28759864204799224
x5,~,x3,0.4349751279970027
eta1,=~,y2,-0.2094219600491265
eta1,=~,y3,0.41908893663074925
eta2,=~,y5,-0.07502006034418837
eta1,~~,eta1,1.6115917349590854
eta2,~~,eta2,0.051550894591679046
x2,~~,x2,0.20694847243426948
x2,~~,x4,0.009117196424536976
x2,~~,x5,-0.0019956105935810984
x3,~~,x3,0.04417947943216928
x4,~~,x4,0.15133724821225977
x4,~~,x5,0.00642465389047996
x5,~~,x5,0.3240307658330379
y1,~~,y1,0.9935834977928627
y2,~~,y2,0.04253677180339959
y3,~~,y3,0.18081546820588948
y4,~~,y4,0.8986437002752917
y5,~~,y5,0.02471582607313347
