lhs,op,rhs,est
eta1,~,x2,0.2810083548729021
eta2,~,eta1,-0.29848129932221046
x1,~,x5,-0.38130917255990404
x1,~,x2,-0.27391402971038914
x4,~,eta1,-0.20122007978654916
x5,~,x3,-0.24666903196696313
eta1,=~,y2,-0.13543904355495084
eta1,=~,y3,-0.44489678346012784
eta2,=~,y5,-0.18755334093073942
eta1,~~,eta1,0.09494869083043231
eta2,~~,eta2,0.015518927766078706
eta2,~~,x1,0.008584423379992151
eta2,~~,x4,-0.0018762887294478797
x1,~~,x1,0.2293091541095012
x1,~~,x4,-0.0047484952270549306
x4,~~,x4,0.033499909920959775
x5,~~,x5,0.0685075937766992
y1,~~,y1,0.9792628988166985
y2,~~,y2,0.021555134971466744
y3,~~,y3,0.19532632494855218
y4,~~,y4,1.094068086946446
y5,~~,y5,0.10322483195680915
