lhs,op,rhs,est
x1,~,eta2,0.43880587128069387
x2,~,x1,-0.4499375231243522
x2,~,x5,-0.08825688739742206
x4,~,eta1,-0.18887266503130345
x5,~,eta1,0.4498125365257861
x5,~,x3,0.3252179763415859
eta1,=~,y2,-0.05577530271904841
eta1,=~,y3,-0.28925480370563533
eta2,=~,y5,-0.2823964937001014
eta2,=~,y6,-0.2538767203585601
eta1,~~,eta1,1.5928988708192418
eta1,~~,eta2,-0.0812232897382749
eta2,~~,eta2,1.8265199684595608
x1,~~,x1,0.21543352709411673
x2,~~,x2,0.24736128172082164
x2,~~,x4,0.006362178003456299
x4,~~,x4,0.03475618009800751
x5,~~,x5,0.3114894967873281
y1,~~,y1,0.8942172110884993
y2,~~,y2,0.0031577667178908997
y3,~~,y3,0.08494878229116155
y4,~~,y4,0.9639058717422234
y5,~~,y5,0.0934249125425089
y6,~~,y6,0.06453922709287943
