lhs,op,rhs,est
x1,~,eta1,0.5025957222171017
x1,~,x3,-0.3779171264632987
x2,~,eta1,0.25014468120182026
x3,~,eta2,0.14157749489072732
x4,~,eta2,-0.3842634240216921
x5,~,x1,-0.34760098802391387
eta1,=~,y2,-0.3136937297009856
eta2,=~,y4,-0.13129404803547806
eta1,~~,eta1,1.8896044690409513
eta1,~~,eta2,-0.018957999072198847
eta2,~~,eta2,1.8470165754256307
x1,~~,x1,0.31122048947682945
x2,~~,x2,0.08300801113809579
x2,~~,x4,-0.0019808162052762338
x2,~~,x5,-0.0006677943216724741
x3,~~,x3,0.023441199601622165
x4,~~,x4,0.1400820760057854
x4,~~,x5,0.005804304386818403
x5,~~,x5,0.2698000392027872
y1,~~,y1,0.8774259737728632
y2,~~,y2,0.10044131776434885
y3,~~,y3,1.0307525320000903
y4,~~,y4,0.015216495891734783
