lhs,op,rhs,est
eta2,~,eta1,-0.46266303387988555
x1,~,x2,-0.03177440599792884
x2,~,eta1,0.11541543930650215
x2,~,x4,-0.23031934914790492
x3,~,eta2,0.5498947455170575
x5,~,eta2,0.43821777890618474
eta1,=~,y2,-0.4537051580119655
eta2,=~,y4,-0.40770027718698937
eta2,=~,y5,0.17748961243827535
eta1,~~,eta1,1.7446695006277277
eta2,~~,eta2,0.2174585634863637
x1,~~,x1,0.013684049615659864
x1,~~,x3,0.00212596755368279
x1,~~,x5,0.004154915283044974
x2,~~,x2,0.07457203777350645
x3,~~,x3,0.25660498694788764
x3,~~,x5,-0.008936293362275543
x5,~~,x5,0.206493564839862
y1,~~,y1,0.9646348632587509
y2,~~,y2,0.17968907512301321
y3,~~,y3,1.0401982962130065
y4,~~,y4,0.12344235260771039
y5,~~,y5,0.030445188828823567
