lhs,op,rhs,est
x1,~,x5,0.5686069818936874
x1,~,x3,-0.14997526411431597
x2,~,x1,-0.017961568679247947
x2,~,x4,0.3816802389303153
x4,~,eta2,-0.4246862146713117
x5,~,eta1,0.4981775399974236
eta1,=~,y2,0.3336138922844167
eta1,=~,y3,-0.31581973358738935
eta2,=~,y5,0.5057671556449955
eta1,~~,eta1,1.6556462544434014
eta1,~~,eta2,0.09202685762930136
eta2,~~,eta2,1.3900152496231648
x1,~~,x1,0.31736070930246785
x2,~~,x2,0.21623153047178428
x4,~~,x4,0.16981831984713944
x5,~~,x5,0.26004061992506117
y1,~~,y1,0.9215104150453219
y2,~~,y2,0.08978997465820292
y3,~~,y3,0.09019846385594191
y4,~~,y4,1.0074692271209453
y5,~~,y5,0.22262298437188097
