lhs,op,rhs,est
eta1,~,x2,0.16855729059892774
x1,~,eta2,0.29341207694139393
x1,~,x3,-0.23095046273717035
x4,~,eta1,-0.2311636875092489
x4,~,x1,0.07449947379820654
x5,~,x2,0.5291273850118452
eta1,=~,y2,-0.1253945433545191
eta2,=~,y4,-0.3364941313132241
eta2,=~,y5,-0.18340916610945912
eta1,~~,eta1,0.09212583855020974
eta2,~~,eta2,1.643412654919553
x1,~~,x1,0.12049898664011902
x4,~~,x4,0.05233638868693099
x4,~~,x5,-0.0027975836425299825
x5,~~,x5,0.253890843323281
y1,~~,y1,0.8939314920948895
y2,~~,y2,0.020362866131457574
y3,~~,y3,0.9967729843967021
y4,~~,y4,0.11559752436111977
y5,~~,y5,0.037508251449000364
