lhs,op,rhs,est
eta1,~,eta2,-0.22644395554820432
eta1,~,x2,-0.4740016614921819
eta1,~,x3,0.17433614878721063
eta1,~,x4,0.08057888995853206
eta1,~,x5,-0.16394978618204797
x1,~,eta2,-0.3616660448025327
eta1,=~,y2,-0.0987690515711448
eta2,=~,y4,0.38195441825856247
eta1,~~,eta1,0.23275628722186695
eta1,~~,x1,-0.009644231763138843
eta2,~~,eta2,1.6335477542738899
x1,~~,x1,0.15291835019358224
y1,~~,y1,5.04902606137845
y2,~~,y2,0.08909919106732507
y3,~~,y3,1.063764951070611
y4,~~,y4,0.14180746913802653
