lhs,op,rhs,est
eta1,~,eta2,-0.4325453378564134
x2,~,x1,0.4384734277879472
x3,~,x1,-0.39085054218728427
x4,~,eta1,0.20780186308347784
x4,~,x3,-0.0857663986925645
x5,~,x4,0.7508605797628388
eta1,=~,y2,-0.47594434858641577
eta2,=~,y4,-0.07137796340445075
eta1,~~,eta1,0.09859321508131035
eta2,~~,eta2,1.687082669748595
x2,~~,x2,0.18705452479806886
x2,~~,x5,0.0017463386556808276
x3,~~,x3,0.15050438570234448
x4,~~,x4,0.05590752671639233
x5,~~,x5,0.22430176441537236
y1,~~,y1,1.069483558038159
y2,~~,y2,0.2506490343431932
y3,~~,y3,0.7532549117851205
y4,~~,y4,0.006519109920130903
