lhs,op,rhs,est
eta1,~,eta2,0.16520776011398744
eta1,~,x4,0.222515196947441
eta2,~,x3,-0.401691840966438
x1,~,eta1,0.03919114951236167
x2,~,eta1,-0.24679888483204787
x5,~,x4,0.12292636454307716
eta1,=~,y2,0.2617559360887607
eta2,=~,y4,0.18845313214664525
eta1,~~,eta1,3.415616888805608e-17
eta2,~~,eta2,0.2035176630821719
x1,~~,x1,0.1528792767294873
x1,~~,x2,-0.010247016257251437
x1,~~,x5,-0.003195404300932478
x2,~~,x2,0.26313993573572103
x2,~~,x5,0.0031518346313381953
x5,~~,x5,0.012780741917805797
y1,~~,y1,1.99327301734932
y2,~~,y2,0.2672135333974347
y3,~~,y3,0.8740238933234172
y4,~~,y4,0.03454281586264347
