lhs,op,rhs,est
x1,~,eta2,0.43464909458788153
x2,~,x1,-0.4566918412403655
x2,~,x5,-0.091805203155232
x4,~,eta1,-0.19863716364512293
x5,~,eta1,0.4371304367608301
x5,~,x3,0.32823762791361
eta1,=~,y2,-0.05860193400807024
eta1,=~,y3,-0.2959329182069378
eta2,=~,y5,-0.27408821684709306
eta2,=~,y6,-0.2522271407318168
eta1,~~,eta1,1.5413970720564776
eta1,~~,eta2,-0.1541690972030057
eta2,~~,eta2,1.8559888598964376
x1,~~,x1,0.2151139208049312
x2,~~,x2,0.24534378311437832
x2,~~,x4,0.020733304837618958
x4,~~,x4,0.03122994653279839
x5,~~,x5,0.3415391749855199
y1,~~,y1,0.9457117800862963
y2,~~,y2,0.0027998824202945007
y3,~~,y3,0.08322604856621552
y4,~~,y4,0.9344963817923551
y5,~~,y5,0.09964482543448437
y6,~~,y6,0.06420124960805002
