lhs,op,rhs,est
eta2,~,x2,-0.03701528704000045
x2,~,eta1,0.23542339254802963
x2,~,x1,-0.3116355104107017
x3,~,x2,0.13297154211840162
x4,~,x2,-0.17415207425088686
x5,~,x4,0.3156031347357322
eta1,=~,y2,-0.11062592638975555
eta1,=~,y3,-0.126856015741484
eta2,=~,y5,-0.019359747510306138
eta1,~~,eta1,1.701691652559734
eta2,~~,eta2,1.1275112262396403
eta2,~~,x3,-0.00653325196789131
eta2,~~,x5,0.015765933527841076
x2,~~,x2,0.1903883454356939
x3,~~,x3,0.0867016710655584
x3,~~,x5,-0.005209521225007635
x4,~~,x4,0.15198265373862826
x5,~~,x5,0.07192059680600556
y1,~~,y1,0.9176797388697453
y2,~~,y2,0.011805999428385346
y3,~~,y3,0.015944679618906853
y4,~~,y4,3.231880497352815e-17
y5,~~,y5,0.08289647693927703
