lhs,op,rhs,est
x1,~,x9,0.20705374671417737
x10,~,x8,-0.8027999843465414
x2,~,eta1,0.619756024356998
x2,~,x1,0.5690490567422039
x3,~,eta1,-0.6056182295389164
x5,~,x8,-0.6849844471843609
x5,~,x4,0.3360705946394674
x7,~,x1,-0.5285056204245702
x8,~,x6,-0.8945908424330692
x8,~,x9,-0.487385199646307
eta1,=~,y2,-0.8286273160336098
eta1,=~,y3,0.1609186665600642
eta1,~~,eta1,1.716703060813601
x1,~~,x1,0.04228155345907733
x10,~~,x10,1.2779475633338842
x10,~~,x2,0.022550228104356255
x10,~~,x3,-0.036883298267699344
x10,~~,x5,0.027457218917574914
x10,~~,x7,0.04287476210309647
x2,~~,x2,0.6408272093082998
x2,~~,x3,-0.053090026262008504
x2,~~,x5,0.08775792515364539
x2,~~,x7,0.017172278695655328
x3,~~,x3,0.38026972315100066
x3,~~,x5,-0.03651021171491731
x3,~~,x7,0.01123665189409203
x5,~~,x5,1.0276247789720485
x5,~~,x7,0.011580038243195015
x7,~~,x7,0.2579580627757032
x8,~~,x8,0.863225599404244
y1,~~,y1,1.024165969905263
y2,~~,y2,0.7001265656178973
y3,~~,y3,0.026679380185938864
