lhs,op,rhs,est
x1,~,x9,0.7004157040085636
x10,~,eta1,-1.1127733940817184
x10,~,x1,-0.9797422178156024
x10,~,x4,0.06182146991138937
x3,~,x6,0.2406864351953371
x4,~,x2,0.7212849363419911
x4,~,x6,-0.2905274733836943
x4,~,x7,0.2744140043308251
x4,~,x8,-0.6621247320587986
x5,~,x6,-0.22548369463174847
eta1,=~,y2,0.8181198418721137
eta1,=~,y3,0.1651441587406128
eta1,~~,eta1,1.779592457594954
x1,~~,x1,0.49070474408752607
x10,~~,x10,2.4953545911982733
x10,~~,x3,0.006875919048905541
x10,~~,x5,0.00791416023452275
x3,~~,x3,0.04862105267760642
x3,~~,x5,-0.0005339129741847908
x4,~~,x4,1.0379914853035261
x5,~~,x5,0.04397549625393374
y1,~~,y1,0.9161831403484977
y2,~~,y2,0.7336626044324188
y3,~~,y3,0.029180385310676134
