lhs,op,rhs,est
eta1,~,x9,0.946681706588057
eta1,~,x3,-0.012633551333136383
x1,~,x8,0.1954757148029619
x10,~,x2,0.6013668212199568
x10,~,x4,0.7422098273472207
x6,~,x2,0.5301897574682208
x7,~,x9,0.13614787876043666
x8,~,x9,0.9940860003129606
x9,~,x2,-0.7086265786144462
x9,~,x5,-0.462521835377467
eta1,=~,y2,-0.7291109948954337
eta1,~~,eta1,1.6842427825353175
eta1,~~,x1,0.004728015571409596
eta1,~~,x10,-0.0017646836376083727
eta1,~~,x6,-0.06013264641590218
eta1,~~,x7,0.023623180526775527
x1,~~,x1,0.0690017217270849
x1,~~,x10,-0.013516502074037512
x1,~~,x6,-0.008848141396428902
x1,~~,x7,0.0014074061910200938
x10,~~,x10,0.6963209969503974
x10,~~,x6,0.03540867471226809
x10,~~,x7,0.008741874667779481
x6,~~,x6,0.2664022730163362
x6,~~,x7,0.0018751599698913354
x7,~~,x7,0.035554250219956625
x8,~~,x8,1.7848782423361471
x9,~~,x9,0.6638469328383237
y1,~~,y1,3.2617341837668548
y2,~~,y2,1.568065349643593
