lhs,op,rhs,est
x1,~,x8,0.7599975598884852
x10,~,x6,0.3758942077950155
x2,~,x7,0.5967407110102287
x2,~,x9,1.0952361869758782
x3,~,x4,0.7676719179745884
x4,~,x10,-0.19395589111476277
x5,~,x4,-0.39213807503458986
x7,~,eta1,-0.25347837414594143
x7,~,x10,1.008375584277825
x8,~,x5,-0.6587706630413581
eta1,=~,y2,-0.6857238532319931
eta1,=~,y3,-0.46743751820378376
eta1,~~,eta1,1.4323466392674569
x1,~~,x1,0.5966210775008721
x1,~~,x2,-0.004917084745864368
x1,~~,x3,0.006407569295396521
x10,~~,x10,0.1290396735657975
x2,~~,x2,1.5435807471639595
x2,~~,x3,-0.009338513418860713
x3,~~,x3,0.41013145746459917
x4,~~,x4,0.03099335229990236
x5,~~,x5,0.16269695536808984
x7,~~,x7,0.8733194879508072
x8,~~,x8,0.389028386955829
y1,~~,y1,0.9818702793215656
y2,~~,y2,0.3671805511828048
y3,~~,y3,0.22525995639762128
