lhs,op,rhs,est
eta1,~,x1,0.6379672344695893
x1,~,x7,0.7384185709202253
x10,~,x1,-0.6853357219143891
x2,~,x9,0.46871582061409195
x3,~,x7,0.9977585196218827
x4,~,x7,-0.5972376195216681
x4,~,x9,0.5740110828620789
x5,~,eta1,-0.4912578310680957
x5,~,x8,0.17857582502947786
x6,~,x10,0.31786213580218015
eta1,=~,y2,-0.4805189215559002
eta1,=~,y3,0.18570192240440106
eta1,~~,eta1,0.3901547326526153
x1,~~,x1,0.5372872489050936
x10,~~,x10,0.5291364937068713
x2,~~,x2,0.2309396984133399
x2,~~,x3,-0.025551527001682672
x2,~~,x4,0.01023550804048831
x2,~~,x5,0.005899003937834407
x2,~~,x6,-0.001128902671409847
x3,~~,x3,1.0366613842110404
x3,~~,x4,-0.0799193273946526
x3,~~,x5,0.010034390440289353
x3,~~,x6,0.007693923182757553
x4,~~,x4,0.8118223805572589
x4,~~,x5,-0.028580630164443163
x4,~~,x6,-0.01928717266255828
x5,~~,x5,0.27465152555726313
x5,~~,x6,-0.008098588249075661
x6,~~,x6,0.0758069899004154
y1,~~,y1,0.9468693458334897
y2,~~,y2,0.1552101931768677
y3,~~,y3,0.028512558626991934
