lhs,op,rhs,est
eta1,~,x7,0.8166299192795727
x2,~,x7,-0.12298758621740011
x2,~,x1,0.4030799896961006
x2,~,x9,0.8721173043643097
x3,~,x2,0.2351701961128193
x5,~,x10,0.4500297002106844
x5,~,x4,0.7565975631355952
x7,~,x4,-0.6180887013747827
x7,~,x6,-0.7452835884346247
x7,~,x8,0.8350065294656155
eta1,=~,y2,-0.772091478171971
eta1,=~,y3,0.19710149744802105
eta1,~~,eta1,2.040813877666063
eta1,~~,x3,0.018402769143114887
eta1,~~,x5,0.009084522195486087
x2,~~,x2,0.9212733350335542
x3,~~,x3,0.12604118741474532
x3,~~,x5,0.001836062871416823
x5,~~,x5,0.8498313514030907
x7,~~,x7,1.7073176289169343
y1,~~,y1,2.535443230958956
y2,~~,y2,1.6210461157975302
y3,~~,y3,0.11521560141969106
