"lhs","op","rhs","est"
"eta1","=~","y2",-1.23510015525405
"eta2","=~","y15",-0.0841361264455227
"eta2","=~","y3",-0.298673655008649
"eta3","=~","y7",-1.11918577301842
"eta4","=~","y8",958.531301789527
"eta4","=~","y9",-1.28975952703277
"eta5","=~","y12",-0.266019197866253
"eta5","=~","y13",-0.132330874318837
"eta6","=~","y15",-0.844040282831811
"eta7","=~","y17",-0.540077222018895
"eta7","=~","y18",0.585355705275498
"eta8","=~","y20",0.534741152781074
"eta8","=~","y21",-0.890889457221741
"eta6","~","eta2",-0.148077213797764
"eta6","~","eta3",0.701435337288497
"eta6","~","eta8",-0.270143703357717
"eta7","~","eta6",-0.0214519366083421
"eta2","~","eta7",0.402301665314152
"x10","~","eta2",1.12792652364146
"x10","~","x3",-0.880453492368958
"x1","~","eta2",-1.05337851677069
"x4","~","eta7",-0.292694468063685
"x4","~","x2",-0.399681628730437
"x4","~","x6",0.561521639919451
"x8","~","x4",-1.19135274740854
"x9","~","eta7",-0.216326060711626
"x9","~","x7",0.460786451680405
"eta4","~","x9",-0.000165583813479314
"eta5","~","x6",-0.408475755771755
"x5","~","eta2",-0.161393197089986
"eta1","~","eta8",0.0838218425127208
"y1","~~","y1",0.874178196552264
"y2","~~","y2",0.715778687172769
"y12","~~","y12",0.965375980386866
"y15","~~","y15",1.60272201765428
"y3","~~","y3",0.0507921639529706
"y6","~~","y6",1.09337793822001
"y7","~~","y7",0.757918772275406
"y10","~~","y10",1.91135141824557
"y8","~~","y8",59.0585122699719
"y9","~~","y9",1.00711250504466
"y11","~~","y11",0.936453683880236
"y13","~~","y13",0.0287814049825579
"y14","~~","y14",1.61799880921916
"y16","~~","y16",0.829754277396655
"y17","~~","y17",0.316402594619126
"y18","~~","y18",0.256858007301893
"y19","~~","y19",0.923835331816679
"y20","~~","y20",0.166351569511983
"y21","~~","y21",0.901357748080901
"x10","~~","x10",1.64848337206254
"x1","~~","x1",0.801543895843558
"x4","~~","x4",0.546861980556995
"x8","~~","x8",2.68955448518067
"x9","~~","x9",0.188749775497164
"x5","~~","x5",0.0207273404168861
"eta1","~~","eta1",-0.0283015657280429
"eta2","~~","eta2",0.236854407851354
"eta3","~~","eta3",1.45413189847426
"eta4","~~","eta4",-6.20481987754963e-05
"eta5","~~","eta5",0.148451827992962
"eta6","~~","eta6",0.327298938596393
"eta7","~~","eta7",0.992911469784562
"eta8","~~","eta8",1.29576321203585
"eta3","~~","eta8",-0.0351438088571769
"eta1","~~","eta4",-2.94186277673226e-05
"eta1","~~","eta5",0.0385878066309028
"eta1","~~","x10",-0.0293616210173196
"eta1","~~","x1",0.0242592425621817
"eta1","~~","x8",0.0129386941344769
"eta1","~~","x5",-0.00328416526562158
"eta4","~~","eta5",-5.56098394301571e-05
"eta4","~~","x10",-0.000126522972624244
"eta4","~~","x1",5.49346428020238e-05
"eta4","~~","x8",0.000130792162997967
"eta4","~~","x5",-5.76492882288627e-06
"eta5","~~","x10",0.0538589740986555
"eta5","~~","x1",0.00307825290305125
"eta5","~~","x8",0.0730103299626103
"eta5","~~","x5",-0.00437171452689809
"x10","~~","x1",-0.0407028618729182
"x10","~~","x8",-0.0831103051310849
"x10","~~","x5",-0.0168182291416217
"x1","~~","x8",-0.117750787340395
"x1","~~","x5",0.000124470523639009
"x8","~~","x5",-0.0214215256085885
"x3","~~","x3",1.48006297298944
"x3","~~","x2",-0.0179520548641987
"x3","~~","x6",-0.00264334265022768
"x3","~~","x7",0.0477638052626738
"x2","~~","x2",1.44302797503862
"x2","~~","x6",-0.0469104781619707
"x2","~~","x7",0.0146293542069911
"x6","~~","x6",1.45514218602174
"x6","~~","x7",-0.03021908800465
"x7","~~","x7",1.35548052917802
