"lhs","op","rhs","est"
"eta1","=~","y2",-0.293662382979276
"eta2","=~","y4",1.13080598562549
"eta2","=~","y5",-0.458801395416375
"eta3","=~","y6",0.107018954463581
"eta4","=~","y8",0.659132104640267
"eta4","=~","y9",0.205982497361106
"eta5","=~","y12",1.12592548235049
"eta6","=~","y14",-0.128280964350509
"eta6","=~","y15",0.259966017025497
"eta7","=~","y17",-0.848059589229919
"eta7","=~","y18",0.657703717434859
"eta8","=~","y3",0.15833158068631
"x4","~","x7",0.882233221063143
"x4","~","x9",0.218310608144934
"x1","~","x4",0.0154270043168532
"x8","~","x1",-0.958573667449229
"x3","~","x8",0.842572472764525
"eta8","~","eta3",0.494683769456131
"eta8","~","eta6",0.373531289337858
"eta8","~","x10",1.67293063256808
"eta8","~","x4",-0.214215496608555
"eta4","~","eta8",-0.41309585219662
"eta3","~","eta4",0.385511601149875
"eta1","~","x4",0.292295193209762
"eta5","~","x10",-0.342026515592728
"x2","~","x7",0.884763809627725
"eta7","~","eta2",0.604821198693589
"eta7","~","x7",-1.10865226485885
"x5","~","x10",-0.804488606328124
"x6","~","x10",-0.921937400247665
"y1","~~","y1",1.94088055802284
"y2","~~","y2",0.294213135328358
"y3","~~","y3",1.27927223258094
"y4","~~","y4",1.11043998395308
"y5","~~","y5",0.171607838768041
"y16","~~","y16",3.25291030147473
"y6","~~","y6",0.0198747765781339
"y10","~~","y10",1.63865857190157
"y8","~~","y8",1.48256422177422
"y9","~~","y9",0.081846286949389
"y11","~~","y11",0.784669196333184
"y12","~~","y12",0.922048036268875
"y13","~~","y13",0.948296673601342
"y14","~~","y14",0.016297637508679
"y15","~~","y15",0.0454489580948298
"y17","~~","y17",1.32608282645123
"y18","~~","y18",0.945499540647844
"y19","~~","y19",5.4865341020291
"x4","~~","x4",0.781383714889283
"x1","~~","x1",0.0387379987279997
"x8","~~","x8",0.45285631321843
"x3","~~","x3",0.612927746485385
"x2","~~","x2",0.792767720219898
"x5","~~","x5",0.586296003508704
"x6","~~","x6",0.800933153291519
"eta1","~~","eta1",0.0718371041223632
"eta2","~~","eta2",1.31823344152113
"eta3","~~","eta3",0.37163430049315
"eta4","~~","eta4",1.02848165459519
"eta5","~~","eta5",0.177033082782976
"eta6","~~","eta6",1.20973437173411
"eta7","~~","eta7",1.06613567241251
"eta8","~~","eta8",2.15657530372039
"eta2","~~","eta6",0.130143429553513
"eta1","~~","eta5",0.0283902140865092
"eta1","~~","eta7",0.0747062764076878
"eta1","~~","x3",-0.0783640229036944
"eta1","~~","x2",0.000811200574423645
"eta1","~~","x5",0.00221141530844132
"eta1","~~","x6",0.0371903140264453
"eta5","~~","eta7",0.107528224403154
"eta5","~~","x3",-0.0215186164647387
"eta5","~~","x2",0.00706821775936614
"eta5","~~","x5",-0.0318948232715163
"eta5","~~","x6",0.0626856816066643
"eta7","~~","x3",-0.0494468583227228
"eta7","~~","x2",0.0191247965525742
"eta7","~~","x5",0.00281398520638607
"eta7","~~","x6",0.0562383459147765
"x3","~~","x2",0.0169941133968339
"x3","~~","x5",0.0225430403401219
"x3","~~","x6",0.0186923409450322
"x2","~~","x5",-0.0300754376183937
"x2","~~","x6",-0.0394752757171009
"x5","~~","x6",0.037560317373411
"x7","~~","x7",1.46081430104639
"x7","~~","x9",0.161457502581356
"x7","~~","x10",-0.0368202301375208
"x9","~~","x9",1.35226362848247
"x9","~~","x10",-0.121921654623553
"x10","~~","x10",1.58932079979791
