"lhs","op","rhs","est"
"eta1","=~","y2",0.19096120180998
"eta1","=~","y3",-0.390985846236947
"eta2","=~","y5",2.07190206610221
"eta2","=~","y6",-0.901601988488604
"eta3","=~","y8",0.678072836365534
"eta3","=~","y9",-0.90322266661304
"eta4","=~","y11",-0.726236222194804
"eta4","=~","y12",0.259183061027968
"eta5","=~","y14",0.672556938296973
"eta5","=~","y15",0.468009556888012
"eta6","=~","y17",-0.319571944475284
"eta7","=~","y19",-0.299240030994406
"eta8","=~","y21",0.237708922313798
"eta2","~","eta3",0.131169237853135
"eta2","~","eta6",-0.843708903416531
"eta2","~","x7",-0.215086182768203
"x6","~","eta2",-0.522321231697088
"eta3","~","x6",-0.704291233332515
"x4","~","eta3",0.153487366606063
"x10","~","eta2",-0.178233511740026
"x1","~","eta2",0.2303521110919
"x1","~","eta4",0.248718897630572
"x1","~","x8",-0.693311661801288
"eta1","~","x1",-0.290463387349509
"eta1","~","x5",-0.678917494726039
"x3","~","eta6",0.796111846276764
"x3","~","eta8",-1.03871348309107
"eta7","~","eta6",1.03080995547894
"x9","~","x1",0.525398908327285
"eta5","~","eta4",0.693859315864576
"x2","~","eta4",0.403310370879541
"y1","~~","y1",3.41691196190612
"y2","~~","y2",0.127797064515507
"y3","~~","y3",0.628123196019203
"y4","~~","y4",1.76918315716429
"y5","~~","y5",2.46591234499983
"y6","~~","y6",1.38888371669653
"y17","~~","y17",0.856529574418867
"y8","~~","y8",0.452181113248742
"y9","~~","y9",0.629750134126863
"y10","~~","y10",0.814689139210652
"y11","~~","y11",0.587868683114051
"y12","~~","y12",0.0653207246610226
"y13","~~","y13",0.917985092107956
"y14","~~","y14",0.493976239225219
"y15","~~","y15",1.43751839810945
"y18","~~","y18",0.99551310612207
"y19","~~","y19",0.0628442052018813
"y20","~~","y20",0.731537666944378
"y21","~~","y21",0.053678150123381
"x6","~~","x6",0.262917372386154
"x4","~~","x4",0.0211693895399547
"x10","~~","x10",0.0422445662304968
"x1","~~","x1",0.572891127672844
"x3","~~","x3",1.50071608513148
"x9","~~","x9",0.984343725987868
"x2","~~","x2",0.174360906665823
"eta1","~~","eta1",2.59397984850104
"eta2","~~","eta2",0.530373545265353
"eta3","~~","eta3",0.642147436226846
"eta4","~~","eta4",1.54869660356426
"eta5","~~","eta5",0.3018890791893
"eta6","~~","eta6",1.29997198171134
"eta7","~~","eta7",1.03267811847848
"eta8","~~","eta8",1.50416117981556
"eta4","~~","eta6",0.0408750450080543
"eta4","~~","eta8",0.128125083922415
"eta6","~~","eta8",-0.0457462834725811
"eta1","~~","eta5",0.0365877481108227
"eta1","~~","eta7",-0.244309080872773
"eta1","~~","x4",-0.00872380275953224
"eta1","~~","x10",0.0279318007956778
"eta1","~~","x3",-0.29852798394957
"eta1","~~","x9",-0.0794390849190365
"eta1","~~","x2",-0.112317374632448
"eta5","~~","eta7",0.0310463809446115
"eta5","~~","x4",0.00280056857617195
"eta5","~~","x10",0.0289032077342541
"eta5","~~","x3",0.1540638381179
"eta5","~~","x9",0.0553788949367328
"eta5","~~","x2",-0.0147692886285794
"eta7","~~","x4",0.0107186031071295
"eta7","~~","x10",0.0245479862931482
"eta7","~~","x3",0.0302508627562034
"eta7","~~","x9",0.01771722367744
"eta7","~~","x2",0.0156137669600252
"x4","~~","x10",0.00248104233566244
"x4","~~","x3",-0.0160321953420409
"x4","~~","x9",0.0033905908219876
"x4","~~","x2",0.000307190286289099
"x10","~~","x3",0.00699011801162869
"x10","~~","x9",0.0174591394698341
"x10","~~","x2",0.00181679296332598
"x3","~~","x9",0.00666576752600088
"x3","~~","x2",0.0796444250055865
"x9","~~","x2",0.00467445538226529
"x7","~~","x7",1.01391549870861
"x7","~~","x8",0.0735127379095088
"x7","~~","x5",0.010764509725768
"x8","~~","x8",1.56709393955977
"x8","~~","x5",0.0949255105782498
"x5","~~","x5",1.52528529864782
