"lhs","op","rhs","est"
"eta1","=~","y2",1.116805515224
"eta2","=~","y4",-0.147644617695822
"eta2","=~","y5",-0.438300929132369
"eta3","=~","y7",-0.809147522291316
"eta4","=~","y8",0.363964498968825
"eta4","=~","y9",-0.159339924283388
"eta5","=~","y12",-0.143050079703613
"eta5","=~","y13",0.238076914484269
"eta6","=~","y15",0.226764098688291
"eta7","=~","y19",0.383527043055856
"eta8","=~","y19",-0.647959264141887
"eta8","=~","y20",-0.846030131617105
"x9","~","eta2",0.122789081866934
"x9","~","eta4",0.274737207885767
"x9","~","eta5",0.614478079832573
"eta7","~","x9",0.801819126258785
"x5","~","eta7",0.396830106817972
"x1","~","x5",0.790648797726399
"x4","~","eta5",0.382777127217444
"eta3","~","x9",-0.930712234552245
"x10","~","eta4",-0.758302413913846
"x10","~","x6",-1.03988883682252
"eta1","~","eta5",0.975773141940139
"eta1","~","x2",0.591024821750448
"x8","~","eta1",1.11955081224714
"eta8","~","x5",0.619486621816324
"eta8","~","x7",-0.307579749356666
"x3","~","eta5",-0.278870264901142
"eta2","~","x5",-0.559852991664023
"eta6","~","x6",-0.444039790417586
"y1","~~","y1",1.92630938572729
"y2","~~","y2",2.36743389456814
"y3","~~","y3",2.06098125281579
"y4","~~","y4",0.0329229177822528
"y5","~~","y5",0.236289212484104
"y6","~~","y6",1.32098643485868
"y7","~~","y7",1.78127601804241
"y15","~~","y15",0.946177075955552
"y8","~~","y8",0.147457035232869
"y9","~~","y9",0.0267268092811945
"y11","~~","y11",0.881835340296597
"y12","~~","y12",0.0196475701499836
"y13","~~","y13",0.0525024629169021
"y14","~~","y14",1.23107055221173
"y17","~~","y17",1.99202266968191
"y19","~~","y19",1.1399949650479
"y18","~~","y18",2.95877287450121
"y20","~~","y20",1.40741961326958
"x9","~~","x9",0.398178802934371
"x5","~~","x5",0.212645538942663
"x1","~~","x1",1.23453373767738
"x4","~~","x4",0.148346583495552
"x10","~~","x10",1.59719244170998
"x8","~~","x8",1.80822050400152
"x3","~~","x3",0.0806401463125458
"eta1","~~","eta1",1.08074114236561
"eta2","~~","eta2",0.477522026210261
"eta3","~~","eta3",1.8542266400251
"eta4","~~","eta4",1.69795002610915
"eta5","~~","eta5",1.7152035272962
"eta6","~~","eta6",-0.15983279790203
"eta7","~~","eta7",1.16170421146682
"eta8","~~","eta8",0.905665512139059
"eta4","~~","eta5",-0.0934241422294277
"eta3","~~","eta6",-0.076821474884433
"eta3","~~","eta8",0.112018701138319
"eta3","~~","x1",-0.0119478817357054
"eta3","~~","x4",0.0723124265415436
"eta3","~~","x10",0.0915362121381499
"eta3","~~","x8",-0.070461771759866
"eta3","~~","x3",-7.90697766208607e-05
"eta6","~~","eta8",0.0128541806117593
"eta6","~~","x1",-0.0153572574733704
"eta6","~~","x4",0.00940647413354611
"eta6","~~","x10",0.0674666546721019
"eta6","~~","x8",0.149644480843372
"eta6","~~","x3",-0.00697382825625878
"eta8","~~","x1",0.0316802218840092
"eta8","~~","x4",-0.0363760156842708
"eta8","~~","x10",0.099633164700005
"eta8","~~","x8",0.0789647979581308
"eta8","~~","x3",-0.00590771553733925
"x1","~~","x4",-0.0446063727737613
"x1","~~","x10",0.0808144761891273
"x1","~~","x8",-0.0240669745875715
"x1","~~","x3",0.00215610655556211
"x4","~~","x10",0.0447866054293872
"x4","~~","x8",-0.0660614363023317
"x4","~~","x3",-0.00775564235501969
"x10","~~","x8",0.139821113704848
"x10","~~","x3",-0.00721824045203636
"x8","~~","x3",0.0156019419444667
"x6","~~","x6",1.67362777161226
"x6","~~","x2",0.103028996265391
"x6","~~","x7",0.0108316031387982
"x2","~~","x2",1.42720680801089
"x2","~~","x7",0.0138442665538757
"x7","~~","x7",1.61938144864646
