"lhs","op","rhs","est"
"eta1","=~","y3",-0.492822422385257
"eta1","=~","y6",-0.618921498745721
"eta2","=~","y5",-0.228471610635379
"eta2","=~","y6",-1.05947801420258
"eta3","=~","y8",-0.853254615137688
"eta4","=~","y9",0.567646817606128
"eta5","=~","y12",-0.423032235780285
"eta6","=~","y14",0.617916165072607
"eta6","=~","y15",0.722200391661345
"eta7","=~","y17",-0.289673675811528
"eta7","=~","y18",0.584915060469554
"eta8","=~","y20",-0.6708822031598
"eta8","=~","y21",-2.19776335404866
"x7","~","eta3",-0.403562143988203
"x10","~","x7",-0.469321527011016
"eta2","~","eta6",0.166905596553709
"eta2","~","x10",-0.775941895138202
"eta4","~","eta2",0.532840942774659
"x9","~","eta4",-0.110110709409603
"x2","~","x9",0.229694113514131
"x8","~","x2",0.220692050965388
"x6","~","eta6",-0.115527290067085
"x6","~","x3",-0.736916868441312
"x4","~","x6",0.0190814057145464
"x3","~","x1",-0.137598059285158
"x3","~","x4",-0.57163285390075
"eta1","~","x10",1.06898107425839
"eta5","~","eta2",0.544135189739548
"eta8","~","x6",0.00453020201819082
"eta7","~","x5",-0.86430283658845
"eta7","~","x6",-0.0940141453890731
"y1","~~","y1",0.908613923863635
"y3","~~","y3",0.28034628861507
"y6","~~","y6",2.70271447696204
"y4","~~","y4",1.88051103030855
"y5","~~","y5",0.0576787597020535
"y12","~~","y12",1.41876858425325
"y8","~~","y8",0.921048050036519
"y10","~~","y10",1.73807736827754
"y9","~~","y9",0.605495875408414
"y11","~~","y11",1.72820337745269
"y13","~~","y13",0.894202448683264
"y14","~~","y14",0.260624699055705
"y15","~~","y15",0.49458861799683
"y16","~~","y16",1.62584437075976
"y17","~~","y17",0.157435233715467
"y18","~~","y18",0.639470867440186
"y19","~~","y19",0.98941607325659
"y20","~~","y20",0.062994837869577
"y21","~~","y21",0.376579854966786
"x7","~~","x7",0.123967633637995
"x10","~~","x10",0.198651569932793
"x9","~~","x9",0.027344173414061
"x2","~~","x2",0.0927801394695559
"x8","~~","x8",0.086269930021693
"x6","~~","x6",0.912847775031053
"x4","~~","x4",0.364865317838524
"x3","~~","x3",0.410112613826525
"eta1","~~","eta1",0.99601483868452
"eta2","~~","eta2",0.704761295827163
"eta3","~~","eta3",1.61308007827362
"eta4","~~","eta4",1.00643567088831
"eta5","~~","eta5",0.968948870043559
"eta6","~~","eta6",1.19338198673359
"eta7","~~","eta7",1.54080179426771
"eta8","~~","eta8",-0.00744139467549647
"eta3","~~","eta6",-0.02002870572641
"eta1","~~","eta5",-0.0696141682553948
"eta1","~~","eta7",0.141144232642678
"eta1","~~","eta8",-0.014159652819214
"eta1","~~","x8",-0.0262858514607152
"eta5","~~","eta7",0.156580529599077
"eta5","~~","eta8",0.0203534069234236
"eta5","~~","x8",0.0287230911094898
"eta7","~~","eta8",-0.0343857370721255
"eta7","~~","x8",-0.00244499568844602
"eta8","~~","x8",-0.00230615264175344
"x1","~~","x1",1.60194633772139
"x1","~~","x5",-0.0209906782835545
"x5","~~","x5",1.42784046523051
